2010-06-12 10:00:00 19569 10 698.50 842.06 698.50 716.2 929.60	75.1398450947	698.50	716.20	Partly_Cloudy(partly_cloudy)	True	False	716.20
2010-06-12 11:00:00 19570 11 552.30 810.35 552.30 536.9 1051.80	52.5099828865	552.30	536.90	Cloudy(mostly_cloudy)	True	False	536.90
2010-06-12 12:00:00 19571 12 574.56 843.01 574.56 500.5 1094.20	52.5099828865	574.56	500.50	Cloudy(partly_cloudy)	True	False	500.50
2010-06-12 13:00:00 19572 13 598.16 832.00 598.16 882.0 1079.90	55.3907586994	598.16	882.00	Mostly_Cloudy(mostly_cloudy)	True	False	882.00
2010-06-12 14:00:00 19573 14 561.00 780.30 561.00 686.9 1012.80	55.3907586994	561.00	686.90	Mostly_Cloudy(partly_cloudy)	True	False	686.90
2010-06-12 15:00:00 19574 15 489.38 680.68 489.38 645.9 883.50	55.3907586994	489.38	645.90	Mostly_Cloudy(partly_cloudy)	True	False	645.90
2010-06-12 16:00:00 19575 16 435.83 551.71 435.83 626.2 716.10	60.861423221	435.83	626.20	Mostly_Cloudy(sunny)	True	False	626.20
2010-06-12 17:00:00 19576 17 259.51 328.52 259.51 410.0 426.40	60.861423221	259.51	410.00	Mostly_Cloudy(fair)	True	False	410.00
2010-06-12 18:00:00 19577 18 130.37 165.03 130.37 160.5 214.20	60.861423221	130.37	160.50	Mostly_Cloudy(fair)	True	False	160.50
2010-06-12 19:00:00 19578 19 6.74 41.14 6.74 42.1 53.40	12.6215390314	6.74	42.10	Isolated_T-Storms(sunny)	True	False	42.10
2010-06-12 20:00:00 19579 20 0.44 2.70 0.44 2.2 3.50	12.6215390314	0.44	2.20	Isolated_T-Storms(fair)	True	False	2.20
2010-06-12 21:00:00 19580 21 0.00 0.00 0.00 0.0 0.00	12.6215390314	0.00	0.00	Isolated_T-Storms(fair)	True	False	0.00
2010-06-12 22:00:00 19581 22 0.00 0.00 0.00 0.0 0.00	12.6215390314	0.00	0.00	Scattered_T-Storms(partly_cloudy)	True	False	0.00
2010-06-12 23:00:00 19582 23 0.00 0.00 0.00 0.0 0.00	12.6215390314	0.00	0.00	Scattered_T-Storms(clear)	True	False	0.00
2010-06-13 00:00:00 19583 0 0.00 0.00 0.00 0.0 0.00	12.6215390314	0.00	0.00	Scattered_T-Storms(clear)	True	False	0.00
2010-06-13 01:00:00 19584 1 0.00 0.00 0.00 0.0 0.00	12.6215390314	0.00	0.00	Scattered_T-Storms(clear)	True	False	0.00
2010-06-13 02:00:00 19585 2 0.00 0.00 0.00 0.0 0.00	12.6215390314	0.00	0.00	Scattered_T-Storms(mostly_cloudy)	True	False	0.00
2010-06-13 03:00:00 19586 3 0.00 0.00 0.00 0.0 0.00	12.6215390314	0.00	0.00	Scattered_T-Storms(clear)	True	False	0.00
2010-06-13 04:00:00 19587 4 0.00 0.00 0.00 0.0 0.00	12.6215390314	0.00	0.00	Scattered_T-Storms(fair)	True	False	0.00
2010-06-13 05:00:00 19588 5 0.23 0.23 0.23 0.0 1.80	12.6215390314	0.23	0.00	Scattered_T-Storms(cloudy)	True	False	0.00
2010-06-13 06:00:00 19589 6 9.28 9.28 9.28 14.8 73.50	12.6215390314	9.28	14.80	Scattered_T-Storms(partly_cloudy)	True	False	14.80
2010-06-13 07:00:00 19590 7 31.36 31.36 31.36 156.1 248.50	12.6215390314	31.36	156.10	Scattered_T-Storms(partly_cloudy)	True	False	156.10
2010-06-13 08:00:00 19591 8 67.12 67.12 67.12 333.0 531.80	12.6215390314	67.12	333.00	Scattered_T-Storms(partly_cloudy)	True	False	333.00
2010-06-13 09:00:00 19592 9 90.89 90.89 90.89 670.4 720.10	12.6215390314	90.89	670.40	Scattered_T-Storms(partly_cloudy)	True	False	670.40
2010-06-13 10:00:00 19593 10 117.33 117.33 117.33 814.2 929.60	12.6215390314	117.33	814.20	Isolated_T-Storms(sunny)	True	False	814.20
2010-06-13 11:00:00 19594 11 132.75 132.75 132.75 751.8 1051.80	12.6215390314	132.75	751.80	Isolated_T-Storms(sunny)	True	False	751.80
2010-06-13 12:00:00 19595 12 138.10 138.10 138.10 826.3 1094.20	12.6215390314	138.10	826.30	Isolated_T-Storms(partly_cloudy)	True	False	826.30
2010-06-13 13:00:00 19596 13 136.30 136.30 136.30 778.2 1079.90	12.6215390314	136.30	778.20	Scattered_T-Storms(partly_cloudy)	True	False	778.20
2010-06-13 14:00:00 19597 14 127.83 127.83 127.83 353.6 1012.80	12.6215390314	127.83	353.60	Scattered_T-Storms(light_rain)	True	False	353.60
2010-06-13 15:00:00 19598 15 111.51 111.51 111.51 44.6 883.50	12.6215390314	111.51	44.60	Scattered_T-Storms(light_rain)	True	False	44.60
2010-06-13 16:00:00 19599 16 90.38 90.38 90.38 341.9 716.10	12.6215390314	90.38	341.90	Scattered_T-Storms(light_rain)	True	False	341.90
2010-06-13 17:00:00 19600 17 53.82 53.82 53.82 61.0 426.40	12.6215390314	53.82	61.00	Scattered_T-Storms(cloudy)	True	False	61.00
2010-06-13 18:00:00 19601 18 27.04 27.04 27.04 44.4 214.20	12.6215390314	27.04	44.40	Scattered_T-Storms(heavy_rain)	True	False	44.40
2010-06-13 19:00:00 19602 19 6.74 6.74 6.74 21.7 53.40	12.6215390314	6.74	21.70	Scattered_T-Storms(light_rain)	True	False	21.70
2010-06-13 20:00:00 19603 20 0.44 0.44 0.44 0.2 3.50	12.6215390314	0.44	0.20	Scattered_T-Storms(fog)	True	False	0.20
2010-06-13 21:00:00 19604 21 0.00 0.00 0.00 0.0 0.00	12.6215390314	0.00	0.00	Scattered_T-Storms(cloudy)	True	False	0.00
2010-06-13 22:00:00 19605 22 0.00 0.00 0.00 0.0 0.00	12.6215390314	0.00	0.00	Isolated_T-Storms(cloudy)	True	False	0.00
2010-06-13 23:00:00 19606 23 0.00 0.00 0.00 0.0 0.00	12.6215390314	0.00	0.00	Isolated_T-Storms(fog)	True	False	0.00
2010-06-14 00:00:00 19607 0 0.00 0.00 0.00 0.0 0.00	12.6215390314	0.00	0.00	Isolated_T-Storms(rain)	True	False	0.00
2010-06-14 01:00:00 19608 1 0.00 0.00 0.00 0.0 0.00	75.1398450947	0.00	0.00	Partly_Cloudy(fog)	True	False	0.00
2010-06-14 02:00:00 19609 2 0.00 0.00 0.00 0.0 0.00	75.1398450947	0.00	0.00	Partly_Cloudy(cloudy)	True	False	0.00
2010-06-14 03:00:00 19610 3 0.00 0.00 0.00 0.0 0.00	75.1398450947	0.00	0.00	Partly_Cloudy(fog)	True	False	0.00
2010-06-14 04:00:00 19611 4 0.00 0.00 0.00 0.0 0.00	60.861423221	0.00	0.00	Mostly_Cloudy(cloudy)	True	False	0.00
2010-06-14 05:00:00 19612 5 1.10 1.10 1.10 0.0 1.80	60.861423221	1.10	0.00	Mostly_Cloudy(cloudy)	True	False	0.00
2010-06-14 06:00:00 19613 6 44.73 44.73 44.73 16.1 73.50	60.861423221	44.73	16.10	Mostly_Cloudy(light_rain)	True	False	16.10
2010-06-14 07:00:00 19614 7 151.24 151.24 151.24 76.0 248.50	60.861423221	151.24	76.00	Mostly_Cloudy(fog)	True	False	76.00
2010-06-14 08:00:00 19615 8 323.66 323.66 323.66 110.9 531.80	60.861423221	323.66	110.90	Mostly_Cloudy(cloudy)	True	False	110.90
2010-06-14 09:00:00 19616 9 438.26 438.26 438.26 168.0 720.10	60.861423221	438.26	168.00	Mostly_Cloudy(cloudy)	True	False	168.00
2010-06-14 10:00:00 19617 10 698.50 698.50 698.50 287.6 929.60	75.1398450947	698.50	287.60	Partly_Cloudy(cloudy)	True	False	287.60
