2010-06-23 15:00:00 32750 15 645.25 645.25 645.25 658.5 791.50	81.5227679041	645.25	658.50	Sunny(partly_cloudy)	True	False	658.50
2010-06-23 16:00:00 32751 16 514.83 514.83 555.82 532.5 681.80	75.5102040816	555.82	532.50	Partly_Cloudy(partly_cloudy)	True	False	532.50
2010-06-23 17:00:00 32752 17 364.49 364.49 393.51 330.9 482.70	75.5102040816	393.51	330.90	Partly_Cloudy(sunny)	True	False	330.90
2010-06-23 18:00:00 32753 18 161.74 161.74 174.62 131.7 214.20	75.5102040816	174.62	131.70	Partly_Cloudy(fair)	True	False	131.70
2010-06-23 19:00:00 32754 19 61.47 61.47 66.36 31.2 81.40	75.5102040816	66.36	31.20	Partly_Cloudy(sunny)	True	False	31.20
2010-06-23 20:00:00 32755 20 5.06 5.06 5.46 1.0 6.70	75.5102040816	5.46	1.00	Partly_Cloudy(sunny)	True	False	1.00
2010-06-23 21:00:00 32756 21 0.00 0.00 0.00 0.0 0.00	75.5102040816	0.00	0.00	Partly_Cloudy(clear)	True	False	0.00
2010-06-23 22:00:00 32757 22 0.00 0.00 0.00 0.0 0.00	81.5227679041	0.00	0.00	Mostly_Clear(clear)	False	False	0.00
2010-06-23 23:00:00 32758 23 0.00 0.00 0.00 0.0 0.00	81.5227679041	0.00	0.00	Mostly_Clear(partly_cloudy)	False	False	0.00
2010-06-24 00:00:00 32759 0 0.00 0.00 0.00 0.0 0.00	81.5227679041	0.00	0.00	Mostly_Clear(clear)	False	False	0.00
2010-06-24 01:00:00 32760 1 0.00 0.00 0.00 0.0 0.00	75.5102040816	0.00	0.00	Partly_Cloudy(clear)	True	False	0.00
2010-06-24 02:00:00 32761 2 0.00 0.00 0.00 0.0 0.00	75.5102040816	0.00	0.00	Partly_Cloudy(partly_cloudy)	True	False	0.00
2010-06-24 03:00:00 32762 3 0.00 0.00 0.00 0.0 0.00	75.5102040816	0.00	0.00	Partly_Cloudy(mostly_cloudy)	True	False	0.00
2010-06-24 04:00:00 32763 4 0.00 0.00 0.00 0.0 0.00	14.2514213519	0.00	0.00	Isolated_T-Storms(mostly_cloudy)	True	False	0.00
2010-06-24 05:00:00 32764 5 0.26 0.26 0.26 0.0 1.80	14.2514213519	0.26	0.00	Isolated_T-Storms(partly_cloudy)	True	False	0.00
2010-06-24 06:00:00 32765 6 10.47 10.47 10.47 46.5 73.50	14.2514213519	10.47	46.50	Isolated_T-Storms(partly_cloudy)	True	False	46.50
2010-06-24 07:00:00 32766 7 166.35 166.35 166.35 152.6 220.30	75.5102040816	166.35	152.60	Partly_Cloudy(partly_cloudy)	True	False	152.60
2010-06-24 08:00:00 32767 8 366.60 366.60 366.60 369.6 485.50	75.5102040816	366.60	369.60	Partly_Cloudy(fair)	True	False	369.60
2010-06-24 09:00:00 32768 9 524.34 524.34 524.34 574.6 694.40	75.5102040816	524.34	574.60	Partly_Cloudy(fair)	True	False	574.60
2010-06-24 10:00:00 32769 10 132.48 132.48 132.48 662.9 929.60	14.2514213519	132.48	662.90	Isolated_T-Storms(sunny)	True	False	662.90
2010-06-24 11:00:00 32770 11 134.56 134.56 134.56 667.5 944.20	14.2514213519	134.56	667.50	Isolated_T-Storms(sunny)	True	False	667.50
2010-06-24 12:00:00 32771 12 133.79 133.79 133.79 405.8 938.80	14.2514213519	133.79	405.80	Isolated_T-Storms(fair)	True	False	405.80
2010-06-24 13:00:00 32772 13 141.89 141.89 141.89 736.7 995.60	14.2514213519	141.89	736.70	Scattered_T-Storms(partly_cloudy)	True	False	736.70
2010-06-24 14:00:00 32773 14 135.52 135.52 135.52 700.6 950.90	14.2514213519	135.52	700.60	Scattered_T-Storms(partly_cloudy)	True	False	700.60
2010-06-24 15:00:00 32774 15 112.80 112.80 112.80 128.9 791.50	14.2514213519	112.80	128.90	Scattered_T-Storms(fair)	True	False	128.90
2010-06-24 16:00:00 32775 16 97.17 97.17 97.17 332.4 681.80	14.2514213519	97.17	332.40	Scattered_T-Storms(fair)	True	False	332.40
2010-06-24 17:00:00 32776 17 68.79 68.79 68.79 329.8 482.70	14.2514213519	68.79	329.80	Scattered_T-Storms(partly_cloudy)	True	False	329.80
2010-06-24 18:00:00 32777 18 30.53 30.53 30.53 143.6 214.20	14.2514213519	30.53	143.60	Scattered_T-Storms(partly_cloudy)	True	False	143.60
2010-06-24 19:00:00 32778 19 11.60 11.60 11.60 28.7 81.40	14.2514213519	11.60	28.70	Isolated_T-Storms(sunny)	True	False	28.70
2010-06-24 20:00:00 32779 20 0.95 0.95 0.95 2.0 6.70	14.2514213519	0.95	2.00	Isolated_T-Storms(sunny)	True	False	2.00
2010-06-24 21:00:00 32780 21 0.00 0.00 0.00 0.0 0.00	14.2514213519	0.00	0.00	Isolated_T-Storms(clear)	True	False	0.00
2010-06-24 22:00:00 32781 22 0.00 0.00 0.00 0.0 0.00	75.1008064516	0.00	0.00	Clear(clear)	True	False	0.00
2010-06-24 23:00:00 32782 23 0.00 0.00 0.00 0.0 0.00	75.1008064516	0.00	0.00	Clear(clear)	True	False	0.00
2010-06-25 00:00:00 32783 0 0.00 0.00 0.00 0.0 0.00	75.1008064516	0.00	0.00	Clear(clear)	True	False	0.00
2010-06-25 01:00:00 32784 1 0.00 0.00 0.00 0.0 0.00	75.1008064516	0.00	0.00	Clear(clear)	True	False	0.00
2010-06-25 02:00:00 32785 2 0.00 0.00 0.00 0.0 0.00	75.1008064516	0.00	0.00	Clear(clear)	True	False	0.00
2010-06-25 03:00:00 32786 3 0.00 0.00 0.00 0.0 0.00	75.1008064516	0.00	0.00	Clear(clear)	True	False	0.00
2010-06-25 04:00:00 32787 4 0.00 0.00 0.00 0.0 0.00	75.1008064516	0.00	0.00	Clear(clear)	True	False	0.00
2010-06-25 05:00:00 32788 5 1.35 1.35 1.35 0.0 1.80	75.1008064516	1.35	0.00	Clear(sunny)	True	False	0.00
2010-06-25 06:00:00 32789 6 55.20 55.20 55.20 24.1 73.50	75.1008064516	55.20	24.10	Sunny(sunny)	True	False	24.10
2010-06-25 07:00:00 32790 7 165.45 165.45 165.45 175.0 220.30	75.1008064516	165.45	175.00	Sunny(sunny)	True	False	175.00
2010-06-25 08:00:00 32791 8 364.61 364.61 364.61 391.3 485.50	75.1008064516	364.61	391.30	Sunny(sunny)	True	False	391.30
2010-06-25 09:00:00 32792 9 521.50 521.50 521.50 557.1 694.40	75.1008064516	521.50	557.10	Sunny(sunny)	True	False	557.10
2010-06-25 10:00:00 32793 10 757.84 757.84 757.84 615.3 929.60	81.5227679041	757.84	615.30	Sunny(sunny)	True	False	615.30
2010-06-25 11:00:00 32794 11 769.74 769.74 769.74 712.8 944.20	81.5227679041	769.74	712.80	Sunny(sunny)	True	False	712.80
2010-06-25 12:00:00 32795 12 765.34 765.34 765.34 737.8 938.80	81.5227679041	765.34	737.80	Sunny(mostly_cloudy)	True	False	737.80
2010-06-25 13:00:00 32796 13 811.64 811.64 811.64 706.1 995.60	81.5227679041	811.64	706.10	Sunny(sunny)	True	False	706.10
2010-06-25 14:00:00 32797 14 775.20 775.20 775.20 778.4 950.90	81.5227679041	775.20	778.40	Sunny(fair)	True	False	778.40
2010-06-25 15:00:00 32798 15 645.25 645.25 645.25 655.8 791.50	81.5227679041	645.25	655.80	Sunny(sunny)	True	False	655.80
