2010-06-18 06:00:00 26429 6 53.84 53.84 53.84 41.8 73.50	73.2471933912	53.84	41.80	Sunny(sunny)	True	False	41.80
2010-06-18 07:00:00 26430 7 161.36 161.36 161.36 189.8 220.30	73.2471933912	161.36	189.80	Sunny(sunny)	True	False	189.80
2010-06-18 08:00:00 26431 8 329.10 329.10 329.10 401.6 449.30	73.2471933912	329.10	401.60	Sunny(sunny)	True	False	401.60
2010-06-18 09:00:00 26432 9 505.41 505.41 505.41 594.3 690.00	73.2471933912	505.41	594.30	Sunny(sunny)	True	False	594.30
2010-06-18 10:00:00 26433 10 717.50 717.50 717.50 733.0 929.60	77.1837349398	717.50	733.00	Sunny(sunny)	True	False	733.00
2010-06-18 11:00:00 26434 11 728.77 728.77 728.77 808.1 944.20	77.1837349398	728.77	808.10	Sunny(sunny)	True	False	808.10
2010-06-18 12:00:00 26435 12 724.60 724.60 724.60 806.7 938.80	77.1837349398	724.60	806.70	Sunny(sunny)	True	False	806.70
2010-06-18 13:00:00 26436 13 803.33 803.33 803.33 850.3 1040.80	77.1837349398	803.33	850.30	Sunny(fair)	True	False	850.30
2010-06-18 14:00:00 26437 14 728.92 728.92 728.92 801.1 944.40	77.1837349398	728.92	801.10	Sunny(sunny)	True	False	801.10
2010-06-18 15:00:00 26438 15 617.70 617.70 617.70 709.1 800.30	77.1837349398	617.70	709.10	Sunny(sunny)	True	False	709.10
2010-06-18 16:00:00 26439 16 524.52 524.52 524.52 552.2 716.10	73.2471933912	524.52	552.20	Sunny(sunny)	True	False	552.20
2010-06-18 17:00:00 26440 17 353.56 353.56 353.56 345.2 482.70	73.2471933912	353.56	345.20	Sunny(sunny)	True	False	345.20
2010-06-18 18:00:00 26441 18 156.90 156.90 156.90 143.3 214.20	73.2471933912	156.90	143.30	Sunny(sunny)	True	False	143.30
2010-06-18 19:00:00 26442 19 50.54 50.54 50.54 28.7 69.00	73.2471933912	50.54	28.70	Sunny(sunny)	True	False	28.70
2010-06-18 20:00:00 26443 20 4.91 4.91 4.91 1.8 6.70	73.2471933912	4.91	1.80	Sunny(sunny)	True	False	1.80
2010-06-18 21:00:00 26444 21 0.00 0.00 0.00 0.0 0.00	73.2471933912	0.00	0.00	Clear(clear)	True	False	0.00
2010-06-18 22:00:00 26445 22 0.00 0.00 0.00 0.0 0.00	73.2471933912	0.00	0.00	Clear(clear)	True	False	0.00
2010-06-18 23:00:00 26446 23 0.00 0.00 0.00 0.0 0.00	73.2471933912	0.00	0.00	Clear(clear)	True	False	0.00
2010-06-19 00:00:00 26447 0 0.00 0.00 0.00 0.0 0.00	73.2471933912	0.00	0.00	Clear(clear)	True	False	0.00
2010-06-19 01:00:00 26448 1 0.00 0.00 0.00 0.0 0.00	73.2471933912	0.00	0.00	Clear(clear)	True	False	0.00
2010-06-19 02:00:00 26449 2 0.00 0.00 0.00 0.0 0.00	73.2471933912	0.00	0.00	Clear(clear)	True	False	0.00
2010-06-19 03:00:00 26450 3 0.00 0.00 0.00 0.0 0.00	73.2471933912	0.00	0.00	Clear(clear)	True	False	0.00
2010-06-19 04:00:00 26451 4 0.00 0.00 0.00 0.0 0.00	73.2471933912	0.00	0.00	Clear(clear)	True	False	0.00
2010-06-19 05:00:00 26452 5 1.32 1.32 1.32 0.4 1.80	73.2471933912	1.32	0.40	Clear(sunny)	True	False	0.40
2010-06-19 06:00:00 26453 6 53.84 53.84 53.84 42.0 73.50	73.2471933912	53.84	42.00	Sunny(sunny)	True	False	42.00
2010-06-19 07:00:00 26454 7 161.36 161.36 161.36 190.6 220.30	73.2471933912	161.36	190.60	Mostly_Sunny(sunny)	False	False	190.60
2010-06-19 08:00:00 26455 8 329.10 329.10 329.10 405.1 449.30	73.2471933912	329.10	405.10	Mostly_Sunny(sunny)	False	False	405.10
2010-06-19 09:00:00 26456 9 505.41 505.41 505.41 577.3 690.00	73.2471933912	505.41	577.30	Mostly_Sunny(sunny)	False	False	577.30
2010-06-19 10:00:00 26457 10 771.52 771.52 771.52 724.8 929.60	82.9944938585	771.52	724.80	Partly_Cloudy(sunny)	True	False	724.80
2010-06-19 11:00:00 26458 11 783.63 783.63 783.63 816.1 944.20	82.9944938585	783.63	816.10	Partly_Cloudy(sunny)	True	False	816.10
2010-06-19 12:00:00 26459 12 779.15 779.15 779.15 686.9 938.80	82.9944938585	779.15	686.90	Partly_Cloudy(fair)	True	False	686.90
2010-06-19 13:00:00 26460 13 863.81 863.81 863.81 778.8 1040.80	82.9944938585	863.81	778.80	Partly_Cloudy(fair)	True	False	778.80
2010-06-19 14:00:00 26461 14 783.80 783.80 783.80 695.9 944.40	82.9944938585	783.80	695.90	Partly_Cloudy(partly_cloudy)	True	False	695.90
2010-06-19 15:00:00 26462 15 664.20 664.20 664.20 668.2 800.30	82.9944938585	664.20	668.20	Partly_Cloudy(partly_cloudy)	True	False	668.20
2010-06-19 16:00:00 26463 16 537.59 537.59 537.59 397.4 716.10	75.0724637681	537.59	397.40	Partly_Cloudy(partly_cloudy)	True	False	397.40
2010-06-19 17:00:00 26464 17 362.37 362.37 362.37 298.5 482.70	75.0724637681	362.37	298.50	Partly_Cloudy(fair)	True	False	298.50
2010-06-19 18:00:00 26465 18 160.81 160.81 160.81 131.3 214.20	75.0724637681	160.81	131.30	Partly_Cloudy(partly_cloudy)	True	False	131.30
2010-06-19 19:00:00 26466 19 51.80 51.80 51.80 37.5 69.00	75.0724637681	51.80	37.50	Partly_Cloudy(sunny)	True	False	37.50
2010-06-19 20:00:00 26467 20 5.03 5.03 5.03 1.5 6.70	75.0724637681	5.03	1.50	Partly_Cloudy(sunny)	True	False	1.50
2010-06-19 21:00:00 26468 21 0.00 0.00 0.00 0.0 0.00	75.0724637681	0.00	0.00	Partly_Cloudy(clear)	True	False	0.00
2010-06-19 22:00:00 26469 22 0.00 0.00 0.00 0.0 0.00	75.0724637681	0.00	0.00	Partly_Cloudy(clear)	True	False	0.00
2010-06-19 23:00:00 26470 23 0.00 0.00 0.00 0.0 0.00	75.0724637681	0.00	0.00	Partly_Cloudy(clear)	True	False	0.00
2010-06-20 00:00:00 26471 0 0.00 0.00 0.00 0.0 0.00	75.0724637681	0.00	0.00	Partly_Cloudy(fair)	True	False	0.00
2010-06-20 01:00:00 26472 1 0.00 0.00 0.00 0.0 0.00	75.0724637681	0.00	0.00	Mostly_Clear(fair)	False	False	0.00
2010-06-20 02:00:00 26473 2 0.00 0.00 0.00 0.0 0.00	75.0724637681	0.00	0.00	Mostly_Clear(partly_cloudy)	False	False	0.00
2010-06-20 03:00:00 26474 3 0.00 0.00 0.00 0.0 0.00	75.0724637681	0.00	0.00	Mostly_Clear(fair)	False	False	0.00
2010-06-20 04:00:00 26475 4 0.00 0.00 0.00 0.0 0.00	75.0724637681	0.00	0.00	Partly_Cloudy(fair)	True	False	0.00
2010-06-20 05:00:00 26476 5 1.35 1.35 1.35 0.0 1.80	75.0724637681	1.35	0.00	Partly_Cloudy(partly_cloudy)	True	False	0.00
2010-06-20 06:00:00 26477 6 55.18 55.18 55.18 45.9 73.50	75.0724637681	55.18	45.90	Partly_Cloudy(mostly_cloudy)	True	False	45.90
