2010-06-11 18:00:00 18785 18 161.88 161.88 167.16 176.0 214.20	75.5760368664	167.16	176.00	Partly_Cloudy(fair)	True	False	176.00
2010-06-11 19:00:00 18786 19 40.36 40.36 41.67 36.7 53.40	75.5760368664	41.67	36.70	Partly_Cloudy(fair)	True	False	36.70
2010-06-11 20:00:00 18787 20 2.65 2.65 2.73 0.4 3.50	75.5760368664	2.73	0.40	Partly_Cloudy(sunny)	True	False	0.40
2010-06-11 21:00:00 18788 21 0.00 0.00 0.00 0.0 0.00	75.5760368664	0.00	0.00	Partly_Cloudy(fair)	True	False	0.00
2010-06-11 22:00:00 18789 22 0.00 0.00 0.00 0.0 0.00	75.5760368664	0.00	0.00	Partly_Cloudy(clear)	True	False	0.00
2010-06-11 23:00:00 18790 23 0.00 0.00 0.00 0.0 0.00	75.5760368664	0.00	0.00	Partly_Cloudy(clear)	True	False	0.00
2010-06-12 00:00:00 18791 0 0.00 0.00 0.00 0.0 0.00	75.5760368664	0.00	0.00	Partly_Cloudy(clear)	True	False	0.00
2010-06-12 01:00:00 18792 1 0.00 0.00 0.00 0.0 0.00	75.5760368664	0.00	0.00	Mostly_Clear(clear)	False	False	0.00
2010-06-12 02:00:00 18793 2 0.00 0.00 0.00 0.0 0.00	75.5760368664	0.00	0.00	Mostly_Clear(fair)	False	False	0.00
2010-06-12 03:00:00 18794 3 0.00 0.00 0.00 0.0 0.00	75.5760368664	0.00	0.00	Mostly_Clear(mostly_cloudy)	False	False	0.00
2010-06-12 04:00:00 18795 4 0.00 0.00 0.00 0.0 0.00	75.5760368664	0.00	0.00	Mostly_Clear(cloudy)	False	False	0.00
2010-06-12 05:00:00 18796 5 1.36 1.36 1.36 0.0 1.80	75.5760368664	1.36	0.00	Mostly_Clear(cloudy)	False	False	0.00
2010-06-12 06:00:00 18797 6 55.55 55.55 55.55 46.8 73.50	75.5760368664	55.55	46.80	Mostly_Sunny(cloudy)	False	False	46.80
2010-06-12 07:00:00 18798 7 187.81 187.81 187.81 216.7 248.50	75.5760368664	187.81	216.70	Partly_Cloudy(cloudy)	True	False	216.70
2010-06-12 08:00:00 18799 8 401.91 401.91 401.91 313.5 531.80	75.5760368664	401.91	313.50	Partly_Cloudy(cloudy)	True	False	313.50
2010-06-12 09:00:00 18800 9 544.22 544.22 544.22 193.5 720.10	75.5760368664	544.22	193.50	Partly_Cloudy(mostly_cloudy)	True	False	193.50
2010-06-12 10:00:00 18801 10 734.19 734.19 734.19 716.2 929.60	78.9788933257	734.19	716.20	Partly_Cloudy(partly_cloudy)	True	False	716.20
2010-06-12 11:00:00 18802 11 830.70 830.70 830.70 536.9 1051.80	78.9788933257	830.70	536.90	Partly_Cloudy(mostly_cloudy)	True	False	536.90
2010-06-12 12:00:00 18803 12 864.19 864.19 864.19 500.5 1094.20	78.9788933257	864.19	500.50	Partly_Cloudy(partly_cloudy)	True	False	500.50
2010-06-12 13:00:00 18804 13 601.25 601.25 601.25 882.0 1079.90	55.6762874929	601.25	882.00	Mostly_Cloudy(mostly_cloudy)	True	False	882.00
2010-06-12 14:00:00 18805 14 563.89 563.89 563.89 686.9 1012.80	55.6762874929	563.89	686.90	Mostly_Cloudy(partly_cloudy)	True	False	686.90
2010-06-12 15:00:00 18806 15 491.90 491.90 491.90 645.9 883.50	55.6762874929	491.90	645.90	Mostly_Cloudy(partly_cloudy)	True	False	645.90
2010-06-12 16:00:00 18807 16 90.38 90.38 90.38 626.2 716.10	12.6215390314	90.38	626.20	Few_Showers(sunny)	True	False	626.20
2010-06-12 17:00:00 18808 17 53.82 53.82 53.82 410.0 426.40	12.6215390314	53.82	410.00	Few_Showers(fair)	True	False	410.00
2010-06-12 18:00:00 18809 18 27.04 27.04 27.04 160.5 214.20	12.6215390314	27.04	160.50	Few_Showers(fair)	True	False	160.50
2010-06-12 19:00:00 18810 19 6.74 6.74 6.74 42.1 53.40	12.6215390314	6.74	42.10	Isolated_T-Storms(sunny)	True	False	42.10
2010-06-12 20:00:00 18811 20 0.44 0.44 0.44 2.2 3.50	12.6215390314	0.44	2.20	Isolated_T-Storms(fair)	True	False	2.20
2010-06-12 21:00:00 18812 21 0.00 0.00 0.00 0.0 0.00	12.6215390314	0.00	0.00	Isolated_T-Storms(fair)	True	False	0.00
2010-06-12 22:00:00 18813 22 0.00 0.00 0.00 0.0 0.00	12.6215390314	0.00	0.00	Scattered_T-Storms(partly_cloudy)	True	False	0.00
2010-06-12 23:00:00 18814 23 0.00 0.00 0.00 0.0 0.00	12.6215390314	0.00	0.00	Scattered_T-Storms(clear)	True	False	0.00
2010-06-13 00:00:00 18815 0 0.00 0.00 0.00 0.0 0.00	12.6215390314	0.00	0.00	Scattered_T-Storms(clear)	True	False	0.00
2010-06-13 01:00:00 18816 1 0.00 0.00 0.00 0.0 0.00	12.6215390314	0.00	0.00	Scattered_T-Storms(clear)	True	False	0.00
2010-06-13 02:00:00 18817 2 0.00 0.00 0.00 0.0 0.00	12.6215390314	0.00	0.00	Scattered_T-Storms(mostly_cloudy)	True	False	0.00
2010-06-13 03:00:00 18818 3 0.00 0.00 0.00 0.0 0.00	12.6215390314	0.00	0.00	Scattered_T-Storms(clear)	True	False	0.00
2010-06-13 04:00:00 18819 4 0.00 0.00 0.00 0.0 0.00	12.6215390314	0.00	0.00	Scattered_T-Storms(fair)	True	False	0.00
2010-06-13 05:00:00 18820 5 0.23 0.23 0.23 0.0 1.80	12.6215390314	0.23	0.00	Scattered_T-Storms(cloudy)	True	False	0.00
2010-06-13 06:00:00 18821 6 9.28 9.28 9.28 14.8 73.50	12.6215390314	9.28	14.80	Scattered_T-Storms(partly_cloudy)	True	False	14.80
2010-06-13 07:00:00 18822 7 31.36 31.36 31.36 156.1 248.50	12.6215390314	31.36	156.10	Scattered_T-Storms(partly_cloudy)	True	False	156.10
2010-06-13 08:00:00 18823 8 67.12 67.12 67.12 333.0 531.80	12.6215390314	67.12	333.00	Scattered_T-Storms(partly_cloudy)	True	False	333.00
2010-06-13 09:00:00 18824 9 90.89 90.89 90.89 670.4 720.10	12.6215390314	90.89	670.40	Scattered_T-Storms(partly_cloudy)	True	False	670.40
2010-06-13 10:00:00 18825 10 117.33 117.33 117.33 814.2 929.60	12.6215390314	117.33	814.20	Scattered_T-Storms(sunny)	True	False	814.20
2010-06-13 11:00:00 18826 11 132.75 132.75 132.75 751.8 1051.80	12.6215390314	132.75	751.80	Scattered_T-Storms(sunny)	True	False	751.80
2010-06-13 12:00:00 18827 12 138.10 138.10 138.10 826.3 1094.20	12.6215390314	138.10	826.30	Scattered_T-Storms(partly_cloudy)	True	False	826.30
2010-06-13 13:00:00 18828 13 136.30 136.30 136.30 778.2 1079.90	12.6215390314	136.30	778.20	Scattered_T-Storms(partly_cloudy)	True	False	778.20
2010-06-13 14:00:00 18829 14 127.83 127.83 127.83 353.6 1012.80	12.6215390314	127.83	353.60	Scattered_T-Storms(light_rain)	True	False	353.60
2010-06-13 15:00:00 18830 15 111.51 111.51 111.51 44.6 883.50	12.6215390314	111.51	44.60	Scattered_T-Storms(light_rain)	True	False	44.60
2010-06-13 16:00:00 18831 16 90.38 90.38 90.38 341.9 716.10	12.6215390314	90.38	341.90	Scattered_T-Storms(light_rain)	True	False	341.90
2010-06-13 17:00:00 18832 17 53.82 53.82 53.82 61.0 426.40	12.6215390314	53.82	61.00	Scattered_T-Storms(cloudy)	True	False	61.00
2010-06-13 18:00:00 18833 18 27.04 27.04 27.04 44.4 214.20	12.6215390314	27.04	44.40	Scattered_T-Storms(heavy_rain)	True	False	44.40
