2010-06-24 00:00:00 33191 0 0.00 0.00 0.00 0.0 0.00	80.5443761915	0.00	0.00	Mostly_Clear(clear)	False	False	0.00
2010-06-24 01:00:00 33192 1 0.00 0.00 0.00 0.0 0.00	73.9900136178	0.00	0.00	Partly_Cloudy(clear)	True	False	0.00
2010-06-24 02:00:00 33193 2 0.00 0.00 0.00 0.0 0.00	73.9900136178	0.00	0.00	Partly_Cloudy(partly_cloudy)	True	False	0.00
2010-06-24 03:00:00 33194 3 0.00 0.00 0.00 0.0 0.00	73.9900136178	0.00	0.00	Partly_Cloudy(mostly_cloudy)	True	False	0.00
2010-06-24 04:00:00 33195 4 0.00 0.00 0.00 0.0 0.00	65.6303786575	0.00	0.00	Mostly_Cloudy(mostly_cloudy)	True	False	0.00
2010-06-24 05:00:00 33196 5 1.18 1.18 1.18 0.0 1.80	65.6303786575	1.18	0.00	Mostly_Cloudy(partly_cloudy)	True	False	0.00
2010-06-24 06:00:00 33197 6 48.24 48.24 48.24 46.5 73.50	65.6303786575	48.24	46.50	Mostly_Cloudy(partly_cloudy)	True	False	46.50
2010-06-24 07:00:00 33198 7 163.00 163.00 163.00 152.6 220.30	73.9900136178	163.00	152.60	Partly_Cloudy(partly_cloudy)	True	False	152.60
2010-06-24 08:00:00 33199 8 359.52 359.52 359.52 369.6 485.90	73.9900136178	359.52	369.60	Partly_Cloudy(fair)	True	False	369.60
2010-06-24 09:00:00 33200 9 550.26 550.26 550.26 574.6 743.70	73.9900136178	550.26	574.60	Partly_Cloudy(fair)	True	False	574.60
2010-06-24 10:00:00 33201 10 119.36 119.36 119.36 662.9 929.60	12.8404669261	119.36	662.90	Isolated_T-Storms(sunny)	True	False	662.90
2010-06-24 11:00:00 33202 11 121.24 121.24 121.24 667.5 944.20	12.8404669261	121.24	667.50	Isolated_T-Storms(sunny)	True	False	667.50
2010-06-24 12:00:00 33203 12 120.55 120.55 120.55 405.8 938.80	12.8404669261	120.55	405.80	Isolated_T-Storms(fair)	True	False	405.80
2010-06-24 13:00:00 33204 13 127.84 127.84 127.84 736.7 995.60	12.8404669261	127.84	736.70	Scattered_Strong_Storms(partly_cloudy)	True	False	736.70
2010-06-24 14:00:00 33205 14 122.10 122.10 122.10 700.6 950.90	12.8404669261	122.10	700.60	Scattered_Strong_Storms(partly_cloudy)	True	False	700.60
2010-06-24 15:00:00 33206 15 120.58 120.58 120.58 128.9 939.10	12.8404669261	120.58	128.90	Scattered_Strong_Storms(fair)	True	False	128.90
2010-06-24 16:00:00 33207 16 103.71 103.71 103.71 332.4 693.00	14.9657119806	103.71	332.40	Scattered_Strong_Storms(fair)	True	False	332.40
2010-06-24 17:00:00 33208 17 72.54 72.54 72.54 329.8 484.70	14.9657119806	72.54	329.80	Scattered_Strong_Storms(partly_cloudy)	True	False	329.80
2010-06-24 18:00:00 33209 18 32.06 32.06 32.06 143.6 214.20	14.9657119806	32.06	143.60	Scattered_Strong_Storms(partly_cloudy)	True	False	143.60
2010-06-24 19:00:00 33210 19 12.18 12.18 12.18 28.7 81.40	14.9657119806	12.18	28.70	Isolated_T-Storms(sunny)	True	False	28.70
2010-06-24 20:00:00 33211 20 1.00 1.00 1.00 2.0 6.70	14.9657119806	1.00	2.00	Isolated_T-Storms(sunny)	True	False	2.00
2010-06-24 21:00:00 33212 21 0.00 0.00 0.00 0.0 0.00	14.9657119806	0.00	0.00	Isolated_T-Storms(clear)	True	False	0.00
2010-06-24 22:00:00 33213 22 0.00 0.00 0.00 0.0 0.00	73.2471933912	0.00	0.00	Clear(clear)	True	False	0.00
2010-06-24 23:00:00 33214 23 0.00 0.00 0.00 0.0 0.00	73.2471933912	0.00	0.00	Clear(clear)	True	False	0.00
2010-06-25 00:00:00 33215 0 0.00 0.00 0.00 0.0 0.00	73.2471933912	0.00	0.00	Clear(clear)	True	False	0.00
2010-06-25 01:00:00 33216 1 0.00 0.00 0.00 0.0 0.00	73.2471933912	0.00	0.00	Clear(clear)	True	False	0.00
2010-06-25 02:00:00 33217 2 0.00 0.00 0.00 0.0 0.00	73.2471933912	0.00	0.00	Clear(clear)	True	False	0.00
2010-06-25 03:00:00 33218 3 0.00 0.00 0.00 0.0 0.00	73.2471933912	0.00	0.00	Clear(clear)	True	False	0.00
2010-06-25 04:00:00 33219 4 0.00 0.00 0.00 0.0 0.00	73.2471933912	0.00	0.00	Clear(clear)	True	False	0.00
2010-06-25 05:00:00 33220 5 1.32 1.32 1.32 0.0 1.80	73.2471933912	1.32	0.00	Clear(sunny)	True	False	0.00
2010-06-25 06:00:00 33221 6 53.84 53.84 53.84 24.1 73.50	73.2471933912	53.84	24.10	Sunny(sunny)	True	False	24.10
2010-06-25 07:00:00 33222 7 161.36 161.36 161.36 175.0 220.30	73.2471933912	161.36	175.00	Sunny(sunny)	True	False	175.00
2010-06-25 08:00:00 33223 8 355.91 355.91 355.91 391.3 485.90	73.2471933912	355.91	391.30	Sunny(sunny)	True	False	391.30
2010-06-25 09:00:00 33224 9 544.74 544.74 544.74 557.1 743.70	73.2471933912	544.74	557.10	Sunny(sunny)	True	False	557.10
2010-06-25 10:00:00 33225 10 748.74 748.74 748.74 615.3 929.60	80.5443761915	748.74	615.30	Sunny(sunny)	True	False	615.30
2010-06-25 11:00:00 33226 11 760.50 760.50 760.50 712.8 944.20	80.5443761915	760.50	712.80	Sunny(sunny)	True	False	712.80
2010-06-25 12:00:00 33227 12 756.15 756.15 756.15 737.8 938.80	80.5443761915	756.15	737.80	Sunny(mostly_cloudy)	True	False	737.80
2010-06-25 13:00:00 33228 13 801.90 801.90 801.90 706.1 995.60	80.5443761915	801.90	706.10	Sunny(sunny)	True	False	706.10
2010-06-25 14:00:00 33229 14 765.90 765.90 765.90 778.4 950.90	80.5443761915	765.90	778.40	Sunny(fair)	True	False	778.40
2010-06-25 15:00:00 33230 15 756.39 756.39 756.39 655.8 939.10	80.5443761915	756.39	655.80	Sunny(sunny)	True	False	655.80
2010-06-25 16:00:00 33231 16 507.60 507.60 507.60 465.9 693.00	73.2471933912	507.60	465.90	Sunny(fair)	True	False	465.90
2010-06-25 17:00:00 33232 17 355.03 355.03 355.03 327.8 484.70	73.2471933912	355.03	327.80	Sunny(fair)	True	False	327.80
2010-06-25 18:00:00 33233 18 156.90 156.90 156.90 138.8 214.20	73.2471933912	156.90	138.80	Sunny(sunny)	True	False	138.80
2010-06-25 19:00:00 33234 19 59.62 59.62 59.62 44.7 81.40	73.2471933912	59.62	44.70	Sunny(fair)	True	False	44.70
2010-06-25 20:00:00 33235 20 4.91 4.91 4.91 2.6 6.70	73.2471933912	4.91	2.60	Sunny(sunny)	True	False	2.60
2010-06-25 21:00:00 33236 21 0.00 0.00 0.00 0.0 0.00	73.2471933912	0.00	0.00	Clear(clear)	True	False	0.00
2010-06-25 22:00:00 33237 22 0.00 0.00 0.00 0.0 0.00	73.2471933912	0.00	0.00	Clear(mostly_cloudy)	True	False	0.00
2010-06-25 23:00:00 33238 23 0.00 0.00 0.00 0.0 0.00	73.2471933912	0.00	0.00	Clear(mostly_cloudy)	True	False	0.00
2010-06-26 00:00:00 33239 0 0.00 0.00 0.00 0.0 0.00	73.2471933912	0.00	0.00	Clear(clear)	True	False	0.00
