2010-05-31 03:00:00 5114 3 0.00 0.00 0.00 0.0 0.00	88.5203130824	0.00	0.00	Clear(clear)	True	False	0.00
2010-05-31 04:00:00 5115 4 0.00 0.00 0.00 0.0 0.00	88.5203130824	0.00	0.00	Clear(clear)	True	False	0.00
2010-05-31 05:00:00 5116 5 0.62 0.62 0.62 0.0 0.70	88.5203130824	0.62	0.00	Clear(sunny)	True	False	0.00
2010-05-31 06:00:00 5117 6 64.35 64.35 64.35 48.1 72.70	88.5203130824	64.35	48.10	Sunny(sunny)	True	False	48.10
2010-05-31 07:00:00 5118 7 237.50 237.50 237.50 228.2 268.30	88.5203130824	237.50	228.20	Sunny(sunny)	True	False	228.20
2010-05-31 08:00:00 5119 8 470.75 470.75 470.75 491.2 531.80	88.5203130824	470.75	491.20	Sunny(sunny)	True	False	491.20
2010-05-31 09:00:00 5120 9 681.61 681.61 681.61 720.4 770.00	88.5203130824	681.61	720.40	Sunny(sunny)	True	False	720.40
2010-05-31 10:00:00 5121 10 920.60 920.60 920.60 882.6 966.70	95.2310399111	920.60	882.60	Sunny(sunny)	True	False	882.60
2010-05-31 11:00:00 5122 11 1001.64 1001.64 1001.64 982.4 1051.80	95.2310399111	1001.64	982.40	Sunny(sunny)	True	False	982.40
2010-05-31 12:00:00 5123 12 1042.02 1042.02 1042.02 1030.3 1094.20	95.2310399111	1042.02	1030.30	Sunny(sunny)	True	False	1030.30
2010-05-31 13:00:00 5124 13 136.30 136.30 136.30 896.5 1079.90	12.6215390314	136.30	896.50	Isolated_T-Storms(sunny)	True	False	896.50
2010-05-31 14:00:00 5125 14 127.83 127.83 127.83 887.0 1012.80	12.6215390314	127.83	887.00	Isolated_T-Storms(fair)	True	False	887.00
2010-05-31 15:00:00 5126 15 112.74 112.74 112.74 846.8 893.20	12.6215390314	112.74	846.80	Isolated_T-Storms(sunny)	True	False	846.80
2010-05-31 16:00:00 5127 16 90.43 90.43 90.43 538.5 716.10	12.6287505598	90.43	538.50	Isolated_T-Storms(fair)	True	False	538.50
2010-05-31 17:00:00 5128 17 61.22 61.22 61.22 60.9 484.80	12.6287505598	61.22	60.90	Isolated_T-Storms(fair)	True	False	60.90
2010-05-31 18:00:00 5129 18 24.71 24.71 24.71 213.0 195.70	12.6287505598	24.71	213.00	Isolated_T-Storms(thunder)	True	False	213.00
2010-05-31 19:00:00 5130 19 30.94 30.94 30.94 42.8 50.20	61.6432096509	30.94	42.80	Mostly_Cloudy(partly_cloudy)	True	False	42.80
2010-05-31 20:00:00 5131 20 1.48 1.48 1.48 0.3 2.40	61.6432096509	1.48	0.30	Mostly_Cloudy(sunny)	True	False	0.30
2010-05-31 21:00:00 5132 21 0.00 0.00 0.00 0.0 0.00	61.6432096509	0.00	0.00	Mostly_Cloudy(fair)	True	False	0.00
2010-05-31 22:00:00 5133 22 0.00 0.00 0.00 0.0 0.00	12.6287505598	0.00	0.00	Isolated_T-Storms(mostly_cloudy)	True	False	0.00
2010-05-31 23:00:00 5134 23 0.00 0.00 0.00 0.0 0.00	12.6287505598	0.00	0.00	Isolated_T-Storms(mostly_cloudy)	True	False	0.00
2010-06-01 00:00:00 5135 0 0.00 0.00 0.00 0.0 0.00	12.6287505598	0.00	0.00	Isolated_T-Storms(mostly_cloudy)	True	False	0.00
2010-06-01 01:00:00 5136 1 0.00 0.00 0.00 0.0 0.00	61.6432096509	0.00	0.00	Mostly_Cloudy(mostly_cloudy)	True	False	0.00
2010-06-01 02:00:00 5137 2 0.00 0.00 0.00 0.0 0.00	61.6432096509	0.00	0.00	Mostly_Cloudy(partly_cloudy)	True	False	0.00
2010-06-01 03:00:00 5138 3 0.00 0.00 0.00 0.0 0.00	61.6432096509	0.00	0.00	Mostly_Cloudy(fog)	True	False	0.00
2010-06-01 04:00:00 5139 4 0.00 0.00 0.00 0.0 0.00	12.6287505598	0.00	0.00	Few_Showers(mostly_cloudy)	True	False	0.00
2010-06-01 05:00:00 5140 5 0.09 0.09 0.09 0.0 0.70	12.6287505598	0.09	0.00	Few_Showers(sunny)	True	False	0.00
2010-06-01 06:00:00 5141 6 9.18 9.18 9.18 42.1 72.70	12.6287505598	9.18	42.10	Few_Showers(partly_cloudy)	True	False	42.10
2010-06-01 07:00:00 5142 7 33.88 33.88 33.88 235.5 268.30	12.6287505598	33.88	235.50	Isolated_T-Storms(fair)	True	False	235.50
2010-06-01 08:00:00 5143 8 67.16 67.16 67.16 435.7 531.80	12.6287505598	67.16	435.70	Isolated_T-Storms(fair)	True	False	435.70
2010-06-01 09:00:00 5144 9 97.24 97.24 97.24 669.2 770.00	12.6287505598	97.24	669.20	Isolated_T-Storms(mostly_cloudy)	True	False	669.20
2010-06-01 10:00:00 5145 10 122.01 122.01 122.01 813.4 966.70	12.6215390314	122.01	813.40	Isolated_T-Storms(mostly_cloudy)	True	False	813.40
2010-06-01 11:00:00 5146 11 132.75 132.75 132.75 833.3 1051.80	12.6215390314	132.75	833.30	Isolated_T-Storms(mostly_cloudy)	True	False	833.30
2010-06-01 12:00:00 5147 12 138.10 138.10 138.10 882.1 1094.20	12.6215390314	138.10	882.10	Isolated_T-Storms(partly_cloudy)	True	False	882.10
2010-06-01 13:00:00 5148 13 136.30 136.30 136.30 499.8 1079.90	12.6215390314	136.30	499.80	Scattered_T-Storms(mostly_cloudy)	True	False	499.80
2010-06-01 14:00:00 5149 14 127.83 127.83 127.83 490.2 1012.80	12.6215390314	127.83	490.20	Scattered_T-Storms(mostly_cloudy)	True	False	490.20
2010-06-01 15:00:00 5150 15 112.74 112.74 112.74 488.5 893.20	12.6215390314	112.74	488.50	Scattered_T-Storms(light_rain)	True	False	488.50
2010-06-01 16:00:00 5151 16 90.43 90.43 90.43 105.4 716.10	12.6287505598	90.43	105.40	Scattered_T-Storms(thunder)	True	False	105.40
2010-06-01 17:00:00 5152 17 61.22 61.22 61.22 265.4 484.80	12.6287505598	61.22	265.40	Scattered_T-Storms(thunder_in_the_vicinity)	True	False	265.40
2010-06-01 18:00:00 5153 18 24.71 24.71 24.71 15.0 195.70	12.6287505598	24.71	15.00	Scattered_T-Storms(t-storm)	True	False	15.00
2010-06-01 19:00:00 5154 19 6.34 6.34 6.34 27.4 50.20	12.6287505598	6.34	27.40	Scattered_T-Storms(mostly_cloudy)	True	False	27.40
2010-06-01 20:00:00 5155 20 0.30 0.30 0.30 0.0 2.40	12.6287505598	0.30	0.00	Scattered_T-Storms(cloudy)	True	False	0.00
2010-06-01 21:00:00 5156 21 0.00 0.00 0.00 0.0 0.00	12.6287505598	0.00	0.00	Scattered_T-Storms(partly_cloudy)	True	False	0.00
2010-06-01 22:00:00 5157 22 0.00 0.00 0.00 0.0 0.00	12.6287505598	0.00	0.00	Few_Showers(mostly_cloudy)	True	False	0.00
2010-06-01 23:00:00 5158 23 0.00 0.00 0.00 0.0 0.00	12.6287505598	0.00	0.00	Few_Showers(fair)	True	False	0.00
2010-06-02 00:00:00 5159 0 0.00 0.00 0.00 0.0 0.00	12.6287505598	0.00	0.00	Few_Showers(fog)	True	False	0.00
2010-06-02 01:00:00 5160 1 0.00 0.00 0.00 0.0 0.00	78.9788933257	0.00	0.00	Partly_Cloudy(fog)	True	False	0.00
2010-06-02 02:00:00 5161 2 0.00 0.00 0.00 0.0 0.00	78.9788933257	0.00	0.00	Partly_Cloudy(light_rain)	True	False	0.00
2010-06-02 03:00:00 5162 3 0.00 0.00 0.00 0.0 0.00	78.9788933257	0.00	0.00	Partly_Cloudy(mostly_cloudy)	True	False	0.00
