2010-05-29 09:00:00 3056 9 97.19 97.19 97.19 239.4 770.00	12.6215390314	97.19	239.40	Few_Showers(cloudy)	True	False	239.40
2010-05-29 10:00:00 3057 10 300.56 300.56 132.10 598.2 966.70	13.6650460329	132.10	598.20	Showers(cloudy)	True	False	598.20
2010-05-29 11:00:00 3058 11 143.73 327.01 143.73 805.2 1051.80	13.6650460329	143.73	805.20	Showers(cloudy)	True	False	805.20
2010-05-29 12:00:00 3059 12 149.52 340.20 149.52 899.1 1094.20	13.6650460329	149.52	899.10	Showers(cloudy)	True	False	899.10
2010-05-29 13:00:00 3060 13 136.30 335.75 136.30 630.3 1079.90	12.6215390314	136.30	630.30	Scattered_T-Storms(mostly_cloudy)	True	False	630.30
2010-05-29 14:00:00 3061 14 127.83 314.89 127.83 413.4 1012.80	12.6215390314	127.83	413.40	Scattered_T-Storms(cloudy)	True	False	413.40
2010-05-29 15:00:00 3062 15 112.74 277.70 112.74 658.7 893.20	12.6215390314	112.74	658.70	Scattered_T-Storms(cloudy)	True	False	658.70
2010-05-29 16:00:00 3063 16 90.38 222.64 90.38 530.7 716.10	12.6215390314	90.38	530.70	Scattered_T-Storms(fair)	True	False	530.70
2010-05-29 17:00:00 3064 17 61.19 150.73 61.19 345.7 484.80	12.6215390314	61.19	345.70	Scattered_T-Storms(partly_cloudy)	True	False	345.70
2010-05-29 18:00:00 3065 18 24.70 60.84 24.70 134.0 195.70	12.6215390314	24.70	134.00	Scattered_T-Storms(mostly_cloudy)	True	False	134.00
2010-05-29 19:00:00 3066 19 7.64 18.81 7.64 46.7 60.50	12.6215390314	7.64	46.70	Scattered_T-Storms(fair)	True	False	46.70
2010-05-29 20:00:00 3067 20 0.18 0.44 0.18 0.0 1.40	12.6215390314	0.18	0.00	Scattered_T-Storms(partly_cloudy)	True	False	0.00
2010-05-29 21:00:00 3068 21 0.00 0.00 0.00 0.0 0.00	12.6215390314	0.00	0.00	Scattered_T-Storms(fair)	True	False	0.00
2010-05-29 22:00:00 3069 22 0.00 0.00 0.00 0.0 0.00	12.6215390314	0.00	0.00	Few_Showers(light_rain)	True	False	0.00
2010-05-29 23:00:00 3070 23 0.00 0.00 0.00 0.0 0.00	12.6215390314	0.00	0.00	Few_Showers(cloudy)	True	False	0.00
2010-05-30 00:00:00 3071 0 0.00 0.00 0.00 0.0 0.00	12.6215390314	0.00	0.00	Few_Showers(partly_cloudy)	True	False	0.00
2010-05-30 01:00:00 3072 1 0.00 0.00 0.00 0.0 0.00	78.9788933257	0.00	0.00	Partly_Cloudy(fog)	True	False	0.00
2010-05-30 02:00:00 3073 2 0.00 0.00 0.00 0.0 0.00	78.9788933257	0.00	0.00	Partly_Cloudy(fog)	True	False	0.00
2010-05-30 03:00:00 3074 3 0.00 0.00 0.00 0.0 0.00	78.9788933257	0.00	0.00	Partly_Cloudy(fog)	True	False	0.00
2010-05-30 04:00:00 3075 4 0.00 0.00 0.00 0.0 0.00	78.9788933257	0.00	0.00	Partly_Cloudy(fog)	True	False	0.00
2010-05-30 05:00:00 3076 5 0.55 0.55 0.55 0.0 0.70	78.9788933257	0.55	0.00	Partly_Cloudy(sunny)	True	False	0.00
2010-05-30 06:00:00 3077 6 57.42 57.42 57.42 58.3 72.70	78.9788933257	57.42	58.30	Partly_Cloudy(fog)	True	False	58.30
2010-05-30 07:00:00 3078 7 211.90 211.90 211.90 248.5 268.30	78.9788933257	211.90	248.50	Partly_Cloudy(sunny)	True	False	248.50
2010-05-30 08:00:00 3079 8 420.01 420.01 420.01 531.8 531.80	78.9788933257	420.01	531.80	Partly_Cloudy(sunny)	True	False	531.80
2010-05-30 09:00:00 3080 9 608.14 608.14 608.14 720.1 770.00	78.9788933257	608.14	720.10	Partly_Cloudy(sunny)	True	False	720.10
2010-05-30 10:00:00 3081 10 919.07 919.07 919.07 928.4 966.70	95.0730647709	919.07	928.40	Sunny(sunny)	True	False	928.40
2010-05-30 11:00:00 3082 11 999.98 999.98 999.98 1051.8 1051.80	95.0730647709	999.98	1051.80	Sunny(sunny)	True	False	1051.80
2010-05-30 12:00:00 3083 12 1040.29 1040.29 1040.29 1094.2 1094.20	95.0730647709	1040.29	1094.20	Sunny(sunny)	True	False	1094.20
2010-05-30 13:00:00 3084 13 1026.69 1026.69 1026.69 1079.9 1079.90	95.0730647709	1026.69	1079.90	Sunny(sunny)	True	False	1079.90
2010-05-30 14:00:00 3085 14 962.90 962.90 962.90 1012.8 1012.80	95.0730647709	962.90	1012.80	Sunny(sunny)	True	False	1012.80
2010-05-30 15:00:00 3086 15 849.19 849.19 849.19 883.5 893.20	95.0730647709	849.19	883.50	Sunny(sunny)	True	False	883.50
2010-05-30 16:00:00 3087 16 618.80 618.80 618.80 690.5 716.10	86.412512219	618.80	690.50	Sunny(sunny)	True	False	690.50
2010-05-30 17:00:00 3088 17 418.93 418.93 418.93 419.6 484.80	86.412512219	418.93	419.60	Sunny(sunny)	True	False	419.60
2010-05-30 18:00:00 3089 18 169.11 169.11 169.11 161.0 195.70	86.412512219	169.11	161.00	Sunny(sunny)	True	False	161.00
2010-05-30 19:00:00 3090 19 52.28 52.28 52.28 26.7 60.50	86.412512219	52.28	26.70	Sunny(sunny)	True	False	26.70
2010-05-30 20:00:00 3091 20 1.21 1.21 1.21 0.7 1.40	86.412512219	1.21	0.70	Sunny(sunny)	True	False	0.70
2010-05-30 21:00:00 3092 21 0.00 0.00 0.00 0.0 0.00	86.412512219	0.00	0.00	Clear(clear)	True	False	0.00
2010-05-30 22:00:00 3093 22 0.00 0.00 0.00 0.0 0.00	78.9788933257	0.00	0.00	Partly_Cloudy(fair)	True	False	0.00
2010-05-30 23:00:00 3094 23 0.00 0.00 0.00 0.0 0.00	78.9788933257	0.00	0.00	Partly_Cloudy(clear)	True	False	0.00
2010-05-31 00:00:00 3095 0 0.00 0.00 0.00 0.0 0.00	78.9788933257	0.00	0.00	Partly_Cloudy(clear)	True	False	0.00
2010-05-31 01:00:00 3096 1 0.00 0.00 0.00 0.0 0.00	78.9788933257	0.00	0.00	Mostly_Clear(clear)	False	False	0.00
2010-05-31 02:00:00 3097 2 0.00 0.00 0.00 0.0 0.00	78.9788933257	0.00	0.00	Mostly_Clear(clear)	False	False	0.00
2010-05-31 03:00:00 3098 3 0.00 0.00 0.00 0.0 0.00	78.9788933257	0.00	0.00	Mostly_Clear(clear)	False	False	0.00
2010-05-31 04:00:00 3099 4 0.00 0.00 0.00 0.0 0.00	78.9788933257	0.00	0.00	Mostly_Clear(clear)	False	False	0.00
2010-05-31 05:00:00 3100 5 0.55 0.55 0.55 0.0 0.70	78.9788933257	0.55	0.00	Mostly_Clear(sunny)	False	False	0.00
2010-05-31 06:00:00 3101 6 57.42 57.42 57.42 48.1 72.70	78.9788933257	57.42	48.10	Mostly_Sunny(sunny)	False	False	48.10
2010-05-31 07:00:00 3102 7 231.84 231.84 231.84 228.2 268.30	86.412512219	231.84	228.20	Sunny(sunny)	True	False	228.20
2010-05-31 08:00:00 3103 8 459.54 459.54 459.54 491.2 531.80	86.412512219	459.54	491.20	Sunny(sunny)	True	False	491.20
2010-05-31 09:00:00 3104 9 665.38 665.38 665.38 720.4 770.00	86.412512219	665.38	720.40	Sunny(sunny)	True	False	720.40
