2010-07-20 11:00:00 64306 11 790.93 790.93 949.53 614.1 1038.90	76.1316484346	949.53	614.10	Partly_Cloudy(partly_cloudy)	True	False	614.10
2010-07-20 12:00:00 64307 12 843.61 843.61 655.00 401.2 1108.10	76.1316484346	655.00	401.20	Partly_Cloudy(partly_cloudy)	True	False	401.20
2010-07-20 13:00:00 64308 13 843.31 843.31 654.77 348.4 1107.70	76.1316484346	654.77	348.40	Partly_Cloudy(mostly_cloudy)	True	False	348.40
2010-07-20 14:00:00 64309 14 807.30 807.30 626.81 619.6 1060.40	76.1316484346	626.81	619.60	Partly_Cloudy(mostly_cloudy)	True	False	619.60
2010-07-20 15:00:00 64310 15 714.95 714.95 555.11 632.3 939.10	76.1316484346	555.11	632.30	Partly_Cloudy(partly_cloudy)	True	False	632.30
2010-07-20 16:00:00 64311 16 568.26 568.26 448.59 698.7 758.90	74.8794599807	448.59	698.70	Partly_Cloudy(partly_cloudy)	True	False	698.70
2010-07-20 17:00:00 64312 17 373.42 373.42 294.78 420.2 498.70	74.8794599807	294.78	420.20	Partly_Cloudy(fair)	True	False	420.20
2010-07-20 18:00:00 64313 18 170.28 170.28 134.42 152.7 227.40	74.8794599807	134.42	152.70	Partly_Cloudy(sunny)	True	False	152.70
2010-07-20 19:00:00 64314 19 55.26 55.26 43.62 56.0 73.80	74.8794599807	43.62	56.00	Partly_Cloudy(sunny)	True	False	56.00
2010-07-20 20:00:00 64315 20 5.09 5.09 4.02 0.6 6.80	74.8794599807	4.02	0.60	Partly_Cloudy(partly_cloudy)	True	False	0.60
2010-07-20 21:00:00 64316 21 0.00 0.00 0.00 0.0 0.00	74.8794599807	0.00	0.00	Partly_Cloudy(partly_cloudy)	True	False	0.00
2010-07-20 22:00:00 64317 22 0.00 0.00 0.00 0.0 0.00	74.8794599807	0.00	0.00	Partly_Cloudy(partly_cloudy)	True	False	0.00
2010-07-20 23:00:00 64318 23 0.00 0.00 0.00 0.0 0.00	74.8794599807	0.00	0.00	Partly_Cloudy(partly_cloudy)	True	False	0.00
2010-07-21 00:00:00 64319 0 0.00 0.00 0.00 0.0 0.00	74.8794599807	0.00	0.00	Partly_Cloudy(partly_cloudy)	True	False	0.00
2010-07-21 01:00:00 64320 1 0.00 0.00 0.00 0.0 0.00	57.2691995307	0.00	0.00	Mostly_Cloudy(partly_cloudy)	True	False	0.00
2010-07-21 02:00:00 64321 2 0.00 0.00 0.00 0.0 0.00	57.2691995307	0.00	0.00	Mostly_Cloudy(partly_cloudy)	True	False	0.00
2010-07-21 03:00:00 64322 3 0.00 0.00 0.00 0.0 0.00	57.2691995307	0.00	0.00	Mostly_Cloudy(partly_cloudy)	True	False	0.00
2010-07-21 04:00:00 64323 4 0.00 0.00 0.00 0.0 0.00	44.8647608047	0.00	0.00	Cloudy(partly_cloudy)	True	False	0.00
2010-07-21 05:00:00 64324 5 0.04 0.04 0.04 0.0 0.10	44.8647608047	0.04	0.00	Cloudy(fog)	True	False	0.00
2010-07-21 06:00:00 64325 6 34.86 34.86 34.86 22.3 77.70	44.8647608047	34.86	22.30	Cloudy(mostly_cloudy)	True	False	22.30
2010-07-21 07:00:00 64326 7 53.23 53.23 53.23 168.8 207.40	25.6667335071	53.23	168.80	Few_Showers(fair)	True	False	168.80
2010-07-21 08:00:00 64327 8 124.71 124.71 124.71 416.8 485.90	25.6667335071	124.71	416.80	Few_Showers(sunny)	True	False	416.80
2010-07-21 09:00:00 64328 9 191.24 191.24 191.24 651.7 745.10	25.6667335071	191.24	651.70	Few_Showers(sunny)	True	False	651.70
2010-07-21 10:00:00 64329 10 189.90 189.90 189.90 723.8 919.50	20.6525839306	189.90	723.80	Scattered_T-Storms(fair)	True	False	723.80
2010-07-21 11:00:00 64330 11 214.56 214.56 214.56 772.9 1038.90	20.6525839306	214.56	772.90	Scattered_T-Storms(partly_cloudy)	True	False	772.90
2010-07-21 12:00:00 64331 12 228.85 228.85 228.85 487.1 1108.10	20.6525839306	228.85	487.10	Scattered_T-Storms(fair)	True	False	487.10
2010-07-21 13:00:00 64332 13 228.77 228.77 228.77 496.0 1107.70	20.6525839306	228.77	496.00	Scattered_T-Storms(partly_cloudy)	True	False	496.00
2010-07-21 14:00:00 64333 14 219.00 219.00 219.00 921.4 1060.40	20.6525839306	219.00	921.40	Scattered_T-Storms(fair)	True	False	921.40
2010-07-21 15:00:00 64334 15 193.95 193.95 193.95 640.2 939.10	20.6525839306	193.95	640.20	Scattered_T-Storms(fair)	True	False	640.20
2010-07-21 16:00:00 64335 16 194.78 194.78 194.78 498.2 758.90	25.6667335071	194.78	498.20	Scattered_T-Storms(mostly_cloudy)	True	False	498.20
2010-07-21 17:00:00 64336 17 128.00 128.00 128.00 366.7 498.70	25.6667335071	128.00	366.70	Scattered_T-Storms(fair)	True	False	366.70
2010-07-21 18:00:00 64337 18 58.37 58.37 58.37 61.8 227.40	25.6667335071	58.37	61.80	Scattered_T-Storms(t-storm)	True	False	61.80
2010-07-21 19:00:00 64338 19 18.94 18.94 18.94 25.6 73.80	25.6667335071	18.94	25.60	Isolated_T-Storms(fair)	True	False	25.60
2010-07-21 20:00:00 64339 20 1.75 1.75 1.75 0.0 6.80	25.6667335071	1.75	0.00	Isolated_T-Storms(partly_cloudy)	True	False	0.00
2010-07-21 21:00:00 64340 21 0.00 0.00 0.00 0.0 0.00	25.6667335071	0.00	0.00	Isolated_T-Storms(light_rain)	True	False	0.00
2010-07-21 22:00:00 64341 22 0.00 0.00 0.00 0.0 0.00	74.8794599807	0.00	0.00	Partly_Cloudy(fair)	True	False	0.00
2010-07-21 23:00:00 64342 23 0.00 0.00 0.00 0.0 0.00	74.8794599807	0.00	0.00	Partly_Cloudy(fair)	True	False	0.00
2010-07-22 00:00:00 64343 0 0.00 0.00 0.00 0.0 0.00	74.8794599807	0.00	0.00	Partly_Cloudy(partly_cloudy)	True	False	0.00
2010-07-22 01:00:00 64344 1 0.00 0.00 0.00 0.0 0.00	74.8794599807	0.00	0.00	Mostly_Clear(partly_cloudy)	False	False	0.00
2010-07-22 02:00:00 64345 2 0.00 0.00 0.00 0.0 0.00	74.8794599807	0.00	0.00	Mostly_Clear(fog)	False	False	0.00
2010-07-22 03:00:00 64346 3 0.00 0.00 0.00 0.0 0.00	74.8794599807	0.00	0.00	Mostly_Clear(clear)	False	False	0.00
2010-07-22 04:00:00 64347 4 0.00 0.00 0.00 0.0 0.00	81.9715990945	0.00	0.00	Clear(clear)	True	False	0.00
2010-07-22 05:00:00 64348 5 0.08 0.08 0.08 0.0 0.10	81.9715990945	0.08	0.00	Clear(clear)	True	False	0.00
2010-07-22 06:00:00 64349 6 63.69 63.69 63.69 16.5 77.70	81.9715990945	63.69	16.50	Sunny(sunny)	True	False	16.50
2010-07-22 07:00:00 64350 7 170.01 170.01 170.01 184.7 207.40	81.9715990945	170.01	184.70	Sunny(sunny)	True	False	184.70
2010-07-22 08:00:00 64351 8 398.30 398.30 398.30 461.6 485.90	81.9715990945	398.30	461.60	Sunny(sunny)	True	False	461.60
2010-07-22 09:00:00 64352 9 610.77 610.77 610.77 713.0 745.10	81.9715990945	610.77	713.00	Sunny(sunny)	True	False	713.00
2010-07-22 10:00:00 64353 10 840.40 840.40 840.40 903.1 919.50	91.3974986406	840.40	903.10	Sunny(sunny)	True	False	903.10
2010-07-22 11:00:00 64354 11 949.53 949.53 949.53 1007.0 1038.90	91.3974986406	949.53	1007.00	Sunny(sunny)	True	False	1007.00
