2010-06-05 06:00:00 11141 6 9.27 9.27 9.27 22.5 73.50	12.6175253855	9.27	22.50	Isolated_T-Storms(mostly_cloudy)	True	False	22.50
2010-06-05 07:00:00 11142 7 33.85 33.85 33.85 154.1 268.30	12.6175253855	33.85	154.10	Isolated_T-Storms(partly_cloudy)	True	False	154.10
2010-06-05 08:00:00 11143 8 67.10 67.10 67.10 353.6 531.80	12.6175253855	67.10	353.60	Isolated_T-Storms(partly_cloudy)	True	False	353.60
2010-06-05 09:00:00 11144 9 95.82 95.82 95.82 437.0 759.40	12.6175253855	95.82	437.00	Isolated_T-Storms(partly_cloudy)	True	False	437.00
2010-06-05 10:00:00 11145 10 117.33 117.33 117.33 809.6 929.60	12.6215390314	117.33	809.60	Scattered_T-Storms(mostly_cloudy)	True	False	809.60
2010-06-05 11:00:00 11146 11 132.75 132.75 132.75 815.5 1051.80	12.6215390314	132.75	815.50	Scattered_T-Storms(partly_cloudy)	True	False	815.50
2010-06-05 12:00:00 11147 12 138.10 138.10 138.10 969.1 1094.20	12.6215390314	138.10	969.10	Scattered_T-Storms(fair)	True	False	969.10
2010-06-05 13:00:00 11148 13 136.30 136.30 136.30 807.3 1079.90	12.6215390314	136.30	807.30	Isolated_T-Storms(partly_cloudy)	True	False	807.30
2010-06-05 14:00:00 11149 14 127.83 127.83 127.83 685.1 1012.80	12.6215390314	127.83	685.10	Isolated_T-Storms(partly_cloudy)	True	False	685.10
2010-06-05 15:00:00 11150 15 112.74 112.74 112.74 642.6 893.20	12.6215390314	112.74	642.60	Isolated_T-Storms(partly_cloudy)	True	False	642.60
2010-06-05 16:00:00 11151 16 90.35 90.35 90.35 552.1 716.10	12.6175253855	90.35	552.10	Isolated_T-Storms(sunny)	True	False	552.10
2010-06-05 17:00:00 11152 17 52.94 52.94 52.94 411.2 419.60	12.6175253855	52.94	411.20	Isolated_T-Storms(partly_cloudy)	True	False	411.20
2010-06-05 18:00:00 11153 18 27.03 27.03 27.03 156.7 214.20	12.6175253855	27.03	156.70	Isolated_T-Storms(sunny)	True	False	156.70
2010-06-05 19:00:00 11154 19 6.74 6.74 6.74 45.0 53.40	12.6175253855	6.74	45.00	Isolated_T-Storms(partly_cloudy)	True	False	45.00
2010-06-05 20:00:00 11155 20 0.35 0.35 0.35 0.7 2.80	12.6175253855	0.35	0.70	Isolated_T-Storms(mostly_cloudy)	True	False	0.70
2010-06-05 21:00:00 11156 21 0.00 0.00 0.00 0.0 0.00	12.6175253855	0.00	0.00	Isolated_T-Storms(mostly_cloudy)	True	False	0.00
2010-06-05 22:00:00 11157 22 0.00 0.00 0.00 0.0 0.00	12.6175253855	0.00	0.00	Scattered_T-Storms(mostly_cloudy)	True	False	0.00
2010-06-05 23:00:00 11158 23 0.00 0.00 0.00 0.0 0.00	12.6175253855	0.00	0.00	Scattered_T-Storms(mostly_cloudy)	True	False	0.00
2010-06-06 00:00:00 11159 0 0.00 0.00 0.00 0.0 0.00	12.6175253855	0.00	0.00	Scattered_T-Storms(mostly_cloudy)	True	False	0.00
2010-06-06 01:00:00 11160 1 0.00 0.00 0.00 0.0 0.00	12.6175253855	0.00	0.00	Isolated_T-Storms(mostly_cloudy)	True	False	0.00
2010-06-06 02:00:00 11161 2 0.00 0.00 0.00 0.0 0.00	12.6175253855	0.00	0.00	Isolated_T-Storms(cloudy)	True	False	0.00
2010-06-06 03:00:00 11162 3 0.00 0.00 0.00 0.0 0.00	12.6175253855	0.00	0.00	Isolated_T-Storms(partly_cloudy)	True	False	0.00
2010-06-06 04:00:00 11163 4 0.00 0.00 0.00 0.0 0.00	12.6175253855	0.00	0.00	Few_Showers(partly_cloudy)	True	False	0.00
2010-06-06 05:00:00 11164 5 0.23 0.23 0.23 0.0 1.80	12.6175253855	0.23	0.00	Few_Showers(sunny)	True	False	0.00
2010-06-06 06:00:00 11165 6 9.27 9.27 9.27 59.8 73.50	12.6175253855	9.27	59.80	Few_Showers(sunny)	True	False	59.80
2010-06-06 07:00:00 11166 7 33.85 33.85 33.85 153.2 268.30	12.6175253855	33.85	153.20	Scattered_T-Storms(mostly_cloudy)	True	False	153.20
2010-06-06 08:00:00 11167 8 67.10 67.10 67.10 364.9 531.80	12.6175253855	67.10	364.90	Scattered_T-Storms(mostly_cloudy)	True	False	364.90
2010-06-06 09:00:00 11168 9 95.82 95.82 95.82 629.6 759.40	12.6175253855	95.82	629.60	Scattered_T-Storms(partly_cloudy)	True	False	629.60
2010-06-06 10:00:00 11169 10 117.33 117.33 117.33 792.2 929.60	12.6215390314	117.33	792.20	Isolated_T-Storms(partly_cloudy)	True	False	792.20
2010-06-06 11:00:00 11170 11 132.75 132.75 132.75 812.8 1051.80	12.6215390314	132.75	812.80	Isolated_T-Storms(partly_cloudy)	True	False	812.80
2010-06-06 12:00:00 11171 12 138.10 138.10 138.10 875.5 1094.20	12.6215390314	138.10	875.50	Isolated_T-Storms(partly_cloudy)	True	False	875.50
2010-06-06 13:00:00 11172 13 136.30 136.30 136.30 708.8 1079.90	12.6215390314	136.30	708.80	Scattered_T-Storms(partly_cloudy)	True	False	708.80
2010-06-06 14:00:00 11173 14 127.83 127.83 127.83 515.1 1012.80	12.6215390314	127.83	515.10	Scattered_T-Storms(mostly_cloudy)	True	False	515.10
2010-06-06 15:00:00 11174 15 112.74 112.74 112.74 451.2 893.20	12.6215390314	112.74	451.20	Scattered_T-Storms(mostly_cloudy)	True	False	451.20
2010-06-06 16:00:00 11175 16 90.35 90.35 90.35 357.2 716.10	12.6175253855	90.35	357.20	Scattered_T-Storms(heavy_rain)	True	False	357.20
2010-06-06 17:00:00 11176 17 52.94 52.94 52.94 407.5 419.60	12.6175253855	52.94	407.50	Scattered_T-Storms(mostly_cloudy)	True	False	407.50
2010-06-06 18:00:00 11177 18 27.03 27.03 27.03 154.5 214.20	12.6175253855	27.03	154.50	Scattered_T-Storms(partly_cloudy)	True	False	154.50
2010-06-06 19:00:00 11178 19 6.74 6.74 6.74 39.1 53.40	12.6175253855	6.74	39.10	Scattered_T-Storms(fair)	True	False	39.10
2010-06-06 20:00:00 11179 20 0.35 0.35 0.35 1.3 2.80	12.6175253855	0.35	1.30	Scattered_T-Storms(partly_cloudy)	True	False	1.30
2010-06-06 21:00:00 11180 21 0.00 0.00 0.00 0.0 0.00	12.6175253855	0.00	0.00	Scattered_T-Storms(clear)	True	False	0.00
2010-06-06 22:00:00 11181 22 0.00 0.00 0.00 0.0 0.00	80.0223630265	0.00	0.00	Partly_Cloudy(clear)	True	False	0.00
2010-06-06 23:00:00 11182 23 0.00 0.00 0.00 0.0 0.00	80.0223630265	0.00	0.00	Partly_Cloudy(clear)	True	False	0.00
2010-06-07 00:00:00 11183 0 0.00 0.00 0.00 0.0 0.00	80.0223630265	0.00	0.00	Partly_Cloudy(partly_cloudy)	True	False	0.00
2010-06-07 01:00:00 11184 1 0.00 0.00 0.00 0.0 0.00	80.0223630265	0.00	0.00	Partly_Cloudy(fair)	True	False	0.00
2010-06-07 02:00:00 11185 2 0.00 0.00 0.00 0.0 0.00	80.0223630265	0.00	0.00	Partly_Cloudy(clear)	True	False	0.00
2010-06-07 03:00:00 11186 3 0.00 0.00 0.00 0.0 0.00	80.0223630265	0.00	0.00	Partly_Cloudy(clear)	True	False	0.00
2010-06-07 04:00:00 11187 4 0.00 0.00 0.00 0.0 0.00	80.0223630265	0.00	0.00	Partly_Cloudy(clear)	True	False	0.00
2010-06-07 05:00:00 11188 5 1.44 1.44 1.44 0.7 1.80	80.0223630265	1.44	0.70	Partly_Cloudy(sunny)	True	False	0.70
2010-06-07 06:00:00 11189 6 58.82 58.82 58.82 45.9 73.50	80.0223630265	58.82	45.90	Partly_Cloudy(sunny)	True	False	45.90
