2010-07-04 06:00:00 45245 6 59.06 59.06 59.06 24.5 77.70	76.0090531875	59.06	24.50	Sunny(sunny)	True	False	24.50
2010-07-04 07:00:00 45246 7 167.45 167.45 167.45 166.2 220.30	76.0090531875	167.45	166.20	Sunny(sunny)	True	False	166.20
2010-07-04 08:00:00 45247 8 369.33 369.33 369.33 384.9 485.90	76.0090531875	369.33	384.90	Sunny(sunny)	True	False	384.90
2010-07-04 09:00:00 45248 9 565.28 565.28 565.28 574.2 743.70	76.0090531875	565.28	574.20	Sunny(sunny)	True	False	574.20
2010-07-04 10:00:00 45249 10 721.49 721.49 721.49 710.8 909.60	79.3196492242	721.49	710.80	Sunny(sunny)	True	False	710.80
2010-07-04 11:00:00 45250 11 823.10 823.10 823.10 801.8 1037.70	79.3196492242	823.10	801.80	Sunny(sunny)	True	False	801.80
2010-07-04 12:00:00 45251 12 878.94 878.94 878.94 849.9 1108.10	79.3196492242	878.94	849.90	Sunny(sunny)	True	False	849.90
2010-07-04 13:00:00 45252 13 878.62 878.62 878.62 840.5 1107.70	79.3196492242	878.62	840.50	Sunny(sunny)	True	False	840.50
2010-07-04 14:00:00 45253 14 841.11 841.11 841.11 775.2 1060.40	79.3196492242	841.11	775.20	Sunny(sunny)	True	False	775.20
2010-07-04 15:00:00 45254 15 744.89 744.89 744.89 695.1 939.10	79.3196492242	744.89	695.10	Sunny(sunny)	True	False	695.10
2010-07-04 16:00:00 45255 16 590.46 590.46 590.46 555.8 744.40	79.3196492242	590.46	555.80	Mostly_Sunny(sunny)	False	False	555.80
2010-07-04 17:00:00 45256 17 384.46 384.46 384.46 346.8 484.70	79.3196492242	384.46	346.80	Mostly_Sunny(sunny)	False	False	346.80
2010-07-04 18:00:00 45257 18 179.10 179.10 179.10 149.8 225.80	79.3196492242	179.10	149.80	Mostly_Sunny(sunny)	False	False	149.80
2010-07-04 19:00:00 45258 19 61.87 61.87 61.87 40.3 81.40	76.0090531875	61.87	40.30	Sunny(sunny)	True	False	40.30
2010-07-04 20:00:00 45259 20 5.17 5.17 5.17 4.9 6.80	76.0090531875	5.17	4.90	Sunny(sunny)	True	False	4.90
2010-07-04 21:00:00 45260 21 0.00 0.00 0.00 0.0 0.00	76.0090531875	0.00	0.00	Clear(clear)	True	False	0.00
2010-07-04 22:00:00 45261 22 0.00 0.00 0.00 0.0 0.00	76.0090531875	0.00	0.00	Clear(clear)	True	False	0.00
2010-07-04 23:00:00 45262 23 0.00 0.00 0.00 0.0 0.00	76.0090531875	0.00	0.00	Clear(fair)	True	False	0.00
2010-07-05 00:00:00 45263 0 0.00 0.00 0.00 0.0 0.00	76.0090531875	0.00	0.00	Clear(fair)	True	False	0.00
2010-07-05 01:00:00 45264 1 0.00 0.00 0.00 0.0 0.00	76.0090531875	0.00	0.00	Clear(fair)	True	False	0.00
2010-07-05 02:00:00 45265 2 0.00 0.00 0.00 0.0 0.00	76.0090531875	0.00	0.00	Clear(clear)	True	False	0.00
2010-07-05 03:00:00 45266 3 0.00 0.00 0.00 0.0 0.00	76.0090531875	0.00	0.00	Clear(clear)	True	False	0.00
2010-07-05 04:00:00 45267 4 0.00 0.00 0.00 0.0 0.00	76.0090531875	0.00	0.00	Clear(clear)	True	False	0.00
2010-07-05 05:00:00 45268 5 0.23 0.23 0.23 0.0 0.30	76.0090531875	0.23	0.00	Clear(sunny)	True	False	0.00
2010-07-05 06:00:00 45269 6 59.06 59.06 59.06 46.2 77.70	76.0090531875	59.06	46.20	Sunny(sunny)	True	False	46.20
2010-07-05 07:00:00 45270 7 167.45 167.45 167.45 161.7 220.30	76.0090531875	167.45	161.70	Mostly_Sunny(sunny)	False	False	161.70
2010-07-05 08:00:00 45271 8 369.33 369.33 369.33 352.8 485.90	76.0090531875	369.33	352.80	Mostly_Sunny(sunny)	False	False	352.80
2010-07-05 09:00:00 45272 9 565.28 565.28 565.28 530.7 743.70	76.0090531875	565.28	530.70	Mostly_Sunny(sunny)	False	False	530.70
2010-07-05 10:00:00 45273 10 663.74 663.74 663.74 678.2 909.60	72.9710210346	663.74	678.20	Partly_Cloudy(sunny)	True	False	678.20
2010-07-05 11:00:00 45274 11 757.22 757.22 757.22 760.5 1037.70	72.9710210346	757.22	760.50	Partly_Cloudy(sunny)	True	False	760.50
2010-07-05 12:00:00 45275 12 808.59 808.59 808.59 817.3 1108.10	72.9710210346	808.59	817.30	Partly_Cloudy(sunny)	True	False	817.30
2010-07-05 13:00:00 45276 13 878.62 878.62 878.62 822.2 1107.70	79.3196492242	878.62	822.20	Sunny(sunny)	True	False	822.20
2010-07-05 14:00:00 45277 14 841.11 841.11 841.11 770.8 1060.40	79.3196492242	841.11	770.80	Sunny(sunny)	True	False	770.80
2010-07-05 15:00:00 45278 15 744.89 744.89 744.89 680.5 939.10	79.3196492242	744.89	680.50	Sunny(sunny)	True	False	680.50
2010-07-05 16:00:00 45279 16 565.81 565.81 565.81 532.1 744.40	76.0090531875	565.81	532.10	Sunny(sunny)	True	False	532.10
2010-07-05 17:00:00 45280 17 368.42 368.42 368.42 341.1 484.70	76.0090531875	368.42	341.10	Sunny(sunny)	True	False	341.10
2010-07-05 18:00:00 45281 18 171.63 171.63 171.63 141.1 225.80	76.0090531875	171.63	141.10	Sunny(sunny)	True	False	141.10
2010-07-05 19:00:00 45282 19 59.40 59.40 59.40 30.4 81.40	72.9710210346	59.40	30.40	Partly_Cloudy(sunny)	True	False	30.40
2010-07-05 20:00:00 45283 20 4.96 4.96 4.96 2.0 6.80	72.9710210346	4.96	2.00	Partly_Cloudy(sunny)	True	False	2.00
2010-07-05 21:00:00 45284 21 0.00 0.00 0.00 0.0 0.00	72.9710210346	0.00	0.00	Partly_Cloudy(clear)	True	False	0.00
2010-07-05 22:00:00 45285 22 0.00 0.00 0.00 0.0 0.00	72.9710210346	0.00	0.00	Mostly_Clear(clear)	False	False	0.00
2010-07-05 23:00:00 45286 23 0.00 0.00 0.00 0.0 0.00	72.9710210346	0.00	0.00	Mostly_Clear(clear)	False	False	0.00
2010-07-06 00:00:00 45287 0 0.00 0.00 0.00 0.0 0.00	72.9710210346	0.00	0.00	Mostly_Clear(clear)	False	False	0.00
2010-07-06 01:00:00 45288 1 0.00 0.00 0.00 0.0 0.00	72.9710210346	0.00	0.00	Mostly_Clear(clear)	False	False	0.00
2010-07-06 02:00:00 45289 2 0.00 0.00 0.00 0.0 0.00	72.9710210346	0.00	0.00	Mostly_Clear(clear)	False	False	0.00
2010-07-06 03:00:00 45290 3 0.00 0.00 0.00 0.0 0.00	72.9710210346	0.00	0.00	Mostly_Clear(clear)	False	False	0.00
2010-07-06 04:00:00 45291 4 0.00 0.00 0.00 0.0 0.00	76.0090531875	0.00	0.00	Clear(clear)	True	False	0.00
2010-07-06 05:00:00 45292 5 0.23 0.23 0.23 0.0 0.30	76.0090531875	0.23	0.00	Clear(sunny)	True	False	0.00
2010-07-06 06:00:00 45293 6 59.06 59.06 59.06 27.7 77.70	76.0090531875	59.06	27.70	Sunny(sunny)	True	False	27.70
