2010-07-03 00:00:00 43775 0 0.00 0.00 0.00 0.0 0.00	75.6716818915	0.00	0.00	Clear(clear)	True	False	0.00
2010-07-03 01:00:00 43776 1 0.00 0.00 0.00 0.0 0.00	75.6716818915	0.00	0.00	Mostly_Clear(clear)	False	False	0.00
2010-07-03 02:00:00 43777 2 0.00 0.00 0.00 0.0 0.00	75.6716818915	0.00	0.00	Mostly_Clear(clear)	False	False	0.00
2010-07-03 03:00:00 43778 3 0.00 0.00 0.00 0.0 0.00	75.6716818915	0.00	0.00	Mostly_Clear(clear)	False	False	0.00
2010-07-03 04:00:00 43779 4 0.00 0.00 0.00 0.0 0.00	72.5868725869	0.00	0.00	Partly_Cloudy(clear)	True	False	0.00
2010-07-03 05:00:00 43780 5 0.22 0.22 0.22 0.0 0.30	72.5868725869	0.22	0.00	Partly_Cloudy(sunny)	True	False	0.00
2010-07-03 06:00:00 43781 6 56.40 56.40 56.40 36.9 77.70	72.5868725869	56.40	36.90	Partly_Cloudy(sunny)	True	False	36.90
2010-07-03 07:00:00 43782 7 159.91 159.91 159.91 190.1 220.30	72.5868725869	159.91	190.10	Partly_Cloudy(sunny)	True	False	190.10
2010-07-03 08:00:00 43783 8 352.70 352.70 352.70 385.4 485.90	72.5868725869	352.70	385.40	Partly_Cloudy(sunny)	True	False	385.40
2010-07-03 09:00:00 43784 9 539.83 539.83 539.83 585.9 743.70	72.5868725869	539.83	585.90	Partly_Cloudy(sunny)	True	False	585.90
2010-07-03 10:00:00 43785 10 710.80 710.80 710.80 735.8 909.60	78.144239226	710.80	735.80	Sunny(sunny)	True	False	735.80
2010-07-03 11:00:00 43786 11 810.90 810.90 810.90 823.1 1037.70	78.144239226	810.90	823.10	Sunny(sunny)	True	False	823.10
2010-07-03 12:00:00 43787 12 865.92 865.92 865.92 857.9 1108.10	78.144239226	865.92	857.90	Sunny(sunny)	True	False	857.90
2010-07-03 13:00:00 43788 13 865.60 865.60 865.60 853.4 1107.70	78.144239226	865.60	853.40	Sunny(sunny)	True	False	853.40
2010-07-03 14:00:00 43789 14 828.64 828.64 828.64 806.0 1060.40	78.144239226	828.64	806.00	Sunny(sunny)	True	False	806.00
2010-07-03 15:00:00 43790 15 733.85 733.85 733.85 711.3 939.10	78.144239226	733.85	711.30	Sunny(sunny)	True	False	711.30
2010-07-03 16:00:00 43791 16 563.30 563.30 563.30 563.3 744.40	75.6716818915	563.30	563.30	Sunny(sunny)	True	False	563.30
2010-07-03 17:00:00 43792 17 366.78 366.78 366.78 349.9 484.70	75.6716818915	366.78	349.90	Sunny(sunny)	True	False	349.90
2010-07-03 18:00:00 43793 18 170.87 170.87 170.87 142.1 225.80	75.6716818915	170.87	142.10	Sunny(sunny)	True	False	142.10
2010-07-03 19:00:00 43794 19 61.60 61.60 61.60 23.9 81.40	75.6716818915	61.60	23.90	Sunny(sunny)	True	False	23.90
2010-07-03 20:00:00 43795 20 5.15 5.15 5.15 1.7 6.80	75.6716818915	5.15	1.70	Sunny(sunny)	True	False	1.70
2010-07-03 21:00:00 43796 21 0.00 0.00 0.00 0.0 0.00	75.6716818915	0.00	0.00	Clear(clear)	True	False	0.00
2010-07-03 22:00:00 43797 22 0.00 0.00 0.00 0.0 0.00	75.6716818915	0.00	0.00	Clear(clear)	True	False	0.00
2010-07-03 23:00:00 43798 23 0.00 0.00 0.00 0.0 0.00	75.6716818915	0.00	0.00	Clear(clear)	True	False	0.00
2010-07-04 00:00:00 43799 0 0.00 0.00 0.00 0.0 0.00	75.6716818915	0.00	0.00	Clear(clear)	True	False	0.00
2010-07-04 01:00:00 43800 1 0.00 0.00 0.00 0.0 0.00	75.6716818915	0.00	0.00	Clear(clear)	True	False	0.00
2010-07-04 02:00:00 43801 2 0.00 0.00 0.00 0.0 0.00	75.6716818915	0.00	0.00	Clear(clear)	True	False	0.00
2010-07-04 03:00:00 43802 3 0.00 0.00 0.00 0.0 0.00	75.6716818915	0.00	0.00	Clear(clear)	True	False	0.00
2010-07-04 04:00:00 43803 4 0.00 0.00 0.00 0.0 0.00	75.6716818915	0.00	0.00	Clear(clear)	True	False	0.00
2010-07-04 05:00:00 43804 5 0.23 0.23 0.23 0.0 0.30	75.6716818915	0.23	0.00	Clear(sunny)	True	False	0.00
2010-07-04 06:00:00 43805 6 58.80 58.80 58.80 24.5 77.70	75.6716818915	58.80	24.50	Sunny(sunny)	True	False	24.50
2010-07-04 07:00:00 43806 7 166.70 166.70 166.70 166.2 220.30	75.6716818915	166.70	166.20	Sunny(sunny)	True	False	166.20
2010-07-04 08:00:00 43807 8 367.69 367.69 367.69 384.9 485.90	75.6716818915	367.69	384.90	Sunny(sunny)	True	False	384.90
2010-07-04 09:00:00 43808 9 562.77 562.77 562.77 574.2 743.70	75.6716818915	562.77	574.20	Sunny(sunny)	True	False	574.20
2010-07-04 10:00:00 43809 10 710.80 710.80 710.80 710.8 909.60	78.144239226	710.80	710.80	Sunny(sunny)	True	False	710.80
2010-07-04 11:00:00 43810 11 810.90 810.90 810.90 801.8 1037.70	78.144239226	810.90	801.80	Sunny(sunny)	True	False	801.80
2010-07-04 12:00:00 43811 12 865.92 865.92 865.92 849.9 1108.10	78.144239226	865.92	849.90	Sunny(sunny)	True	False	849.90
2010-07-04 13:00:00 43812 13 865.60 865.60 865.60 840.5 1107.70	78.144239226	865.60	840.50	Sunny(sunny)	True	False	840.50
2010-07-04 14:00:00 43813 14 828.64 828.64 828.64 775.2 1060.40	78.144239226	828.64	775.20	Sunny(sunny)	True	False	775.20
2010-07-04 15:00:00 43814 15 733.85 733.85 733.85 695.1 939.10	78.144239226	733.85	695.10	Sunny(sunny)	True	False	695.10
2010-07-04 16:00:00 43815 16 563.30 563.30 563.30 555.8 744.40	75.6716818915	563.30	555.80	Sunny(sunny)	True	False	555.80
2010-07-04 17:00:00 43816 17 366.78 366.78 366.78 346.8 484.70	75.6716818915	366.78	346.80	Sunny(sunny)	True	False	346.80
2010-07-04 18:00:00 43817 18 170.87 170.87 170.87 149.8 225.80	75.6716818915	170.87	149.80	Sunny(sunny)	True	False	149.80
2010-07-04 19:00:00 43818 19 61.60 61.60 61.60 40.3 81.40	75.6716818915	61.60	40.30	Sunny(sunny)	True	False	40.30
2010-07-04 20:00:00 43819 20 5.15 5.15 5.15 4.9 6.80	75.6716818915	5.15	4.90	Sunny(sunny)	True	False	4.90
2010-07-04 21:00:00 43820 21 0.00 0.00 0.00 0.0 0.00	75.6716818915	0.00	0.00	Clear(clear)	True	False	0.00
2010-07-04 22:00:00 43821 22 0.00 0.00 0.00 0.0 0.00	75.6716818915	0.00	0.00	Clear(clear)	True	False	0.00
2010-07-04 23:00:00 43822 23 0.00 0.00 0.00 0.0 0.00	75.6716818915	0.00	0.00	Clear(fair)	True	False	0.00
2010-07-05 00:00:00 43823 0 0.00 0.00 0.00 0.0 0.00	75.6716818915	0.00	0.00	Clear(fair)	True	False	0.00
