2010-06-19 04:00:00 27507 4 0.00 0.00 0.00 0.0 0.00	75.7826086957	0.00	0.00	Clear(clear)	True	False	0.00
2010-06-19 05:00:00 27508 5 1.36 1.36 1.36 0.4 1.80	75.7826086957	1.36	0.40	Clear(sunny)	True	False	0.40
2010-06-19 06:00:00 27509 6 55.70 55.70 55.70 42.0 73.50	75.7826086957	55.70	42.00	Sunny(sunny)	True	False	42.00
2010-06-19 07:00:00 27510 7 166.95 166.95 166.95 190.6 220.30	75.7826086957	166.95	190.60	Sunny(sunny)	True	False	190.60
2010-06-19 08:00:00 27511 8 340.49 340.49 340.49 405.1 449.30	75.7826086957	340.49	405.10	Sunny(sunny)	True	False	405.10
2010-06-19 09:00:00 27512 9 522.90 522.90 522.90 577.3 690.00	75.7826086957	522.90	577.30	Sunny(sunny)	True	False	577.30
2010-06-19 10:00:00 27513 10 746.70 746.70 746.70 724.8 929.60	80.3248709122	746.70	724.80	Sunny(sunny)	True	False	724.80
2010-06-19 11:00:00 27514 11 758.43 758.43 758.43 816.1 944.20	80.3248709122	758.43	816.10	Sunny(sunny)	True	False	816.10
2010-06-19 12:00:00 27515 12 754.09 754.09 754.09 686.9 938.80	80.3248709122	754.09	686.90	Sunny(fair)	True	False	686.90
2010-06-19 13:00:00 27516 13 836.02 836.02 836.02 778.8 1040.80	80.3248709122	836.02	778.80	Sunny(fair)	True	False	778.80
2010-06-19 14:00:00 27517 14 763.81 763.81 763.81 695.9 950.90	80.3248709122	763.81	695.90	Sunny(partly_cloudy)	True	False	695.90
2010-06-19 15:00:00 27518 15 642.84 642.84 642.84 668.2 800.30	80.3248709122	642.84	668.20	Sunny(partly_cloudy)	True	False	668.20
2010-06-19 16:00:00 27519 16 542.68 542.68 542.68 397.4 716.10	75.7826086957	542.68	397.40	Sunny(partly_cloudy)	True	False	397.40
2010-06-19 17:00:00 27520 17 365.80 365.80 365.80 298.5 482.70	75.7826086957	365.80	298.50	Sunny(fair)	True	False	298.50
2010-06-19 18:00:00 27521 18 162.33 162.33 162.33 131.3 214.20	75.7826086957	162.33	131.30	Sunny(partly_cloudy)	True	False	131.30
2010-06-19 19:00:00 27522 19 61.69 61.69 61.69 37.5 81.40	75.7826086957	61.69	37.50	Mostly_Sunny(sunny)	False	False	37.50
2010-06-19 20:00:00 27523 20 5.08 5.08 5.08 1.5 6.70	75.7826086957	5.08	1.50	Mostly_Sunny(sunny)	False	False	1.50
2010-06-19 21:00:00 27524 21 0.00 0.00 0.00 0.0 0.00	75.7826086957	0.00	0.00	Mostly_Clear(clear)	False	False	0.00
2010-06-19 22:00:00 27525 22 0.00 0.00 0.00 0.0 0.00	75.5102040816	0.00	0.00	Partly_Cloudy(clear)	True	False	0.00
2010-06-19 23:00:00 27526 23 0.00 0.00 0.00 0.0 0.00	75.5102040816	0.00	0.00	Partly_Cloudy(clear)	True	False	0.00
2010-06-20 00:00:00 27527 0 0.00 0.00 0.00 0.0 0.00	75.5102040816	0.00	0.00	Partly_Cloudy(fair)	True	False	0.00
2010-06-20 01:00:00 27528 1 0.00 0.00 0.00 0.0 0.00	14.0947144821	0.00	0.00	Isolated_T-Storms(fair)	True	False	0.00
2010-06-20 02:00:00 27529 2 0.00 0.00 0.00 0.0 0.00	14.0947144821	0.00	0.00	Isolated_T-Storms(partly_cloudy)	True	False	0.00
2010-06-20 03:00:00 27530 3 0.00 0.00 0.00 0.0 0.00	14.0947144821	0.00	0.00	Isolated_T-Storms(fair)	True	False	0.00
2010-06-20 04:00:00 27531 4 0.00 0.00 0.00 0.0 0.00	14.0947144821	0.00	0.00	Isolated_T-Storms(fair)	True	False	0.00
2010-06-20 05:00:00 27532 5 0.25 0.25 0.25 0.0 1.80	14.0947144821	0.25	0.00	Isolated_T-Storms(partly_cloudy)	True	False	0.00
2010-06-20 06:00:00 27533 6 10.36 10.36 10.36 45.9 73.50	14.0947144821	10.36	45.90	Isolated_T-Storms(mostly_cloudy)	True	False	45.90
2010-06-20 07:00:00 27534 7 31.05 31.05 31.05 151.9 220.30	14.0947144821	31.05	151.90	Mostly_Sunny(mostly_cloudy)	False	False	151.90
2010-06-20 08:00:00 27535 8 63.33 63.33 63.33 226.3 449.30	14.0947144821	63.33	226.30	Mostly_Sunny(partly_cloudy)	False	False	226.30
2010-06-20 09:00:00 27536 9 97.25 97.25 97.25 305.8 690.00	14.0947144821	97.25	305.80	Mostly_Sunny(partly_cloudy)	False	False	305.80
2010-06-20 10:00:00 27537 10 746.70 746.70 746.70 514.9 929.60	80.3248709122	746.70	514.90	Sunny(partly_cloudy)	True	False	514.90
2010-06-20 11:00:00 27538 11 758.43 758.43 758.43 779.1 944.20	80.3248709122	758.43	779.10	Sunny(fair)	True	False	779.10
2010-06-20 12:00:00 27539 12 754.09 754.09 754.09 597.1 938.80	80.3248709122	754.09	597.10	Sunny(fair)	True	False	597.10
2010-06-20 13:00:00 27540 13 836.02 836.02 836.02 738.0 1040.80	80.3248709122	836.02	738.00	Sunny(sunny)	True	False	738.00
2010-06-20 14:00:00 27541 14 763.81 763.81 763.81 724.7 950.90	80.3248709122	763.81	724.70	Sunny(fair)	True	False	724.70
2010-06-20 15:00:00 27542 15 642.84 642.84 642.84 576.1 800.30	80.3248709122	642.84	576.10	Sunny(partly_cloudy)	True	False	576.10
2010-06-20 16:00:00 27543 16 542.68 542.68 542.68 540.6 716.10	75.7826086957	542.68	540.60	Sunny(fair)	True	False	540.60
2010-06-20 17:00:00 27544 17 365.80 365.80 365.80 353.0 482.70	75.7826086957	365.80	353.00	Sunny(fair)	True	False	353.00
2010-06-20 18:00:00 27545 18 162.33 162.33 162.33 142.6 214.20	75.7826086957	162.33	142.60	Sunny(sunny)	True	False	142.60
2010-06-20 19:00:00 27546 19 61.69 61.69 61.69 37.0 81.40	75.7826086957	61.69	37.00	Sunny(sunny)	True	False	37.00
2010-06-20 20:00:00 27547 20 5.08 5.08 5.08 2.8 6.70	75.7826086957	5.08	2.80	Sunny(sunny)	True	False	2.80
2010-06-20 21:00:00 27548 21 0.00 0.00 0.00 0.0 0.00	75.7826086957	0.00	0.00	Clear(clear)	True	False	0.00
2010-06-20 22:00:00 27549 22 0.00 0.00 0.00 0.0 0.00	75.7826086957	0.00	0.00	Clear(clear)	True	False	0.00
2010-06-20 23:00:00 27550 23 0.00 0.00 0.00 0.0 0.00	75.7826086957	0.00	0.00	Clear(clear)	True	False	0.00
2010-06-21 00:00:00 27551 0 0.00 0.00 0.00 0.0 0.00	75.7826086957	0.00	0.00	Clear(clear)	True	False	0.00
2010-06-21 01:00:00 27552 1 0.00 0.00 0.00 0.0 0.00	75.7826086957	0.00	0.00	Clear(fair)	True	False	0.00
2010-06-21 02:00:00 27553 2 0.00 0.00 0.00 0.0 0.00	75.7826086957	0.00	0.00	Clear(clear)	True	False	0.00
2010-06-21 03:00:00 27554 3 0.00 0.00 0.00 0.0 0.00	75.7826086957	0.00	0.00	Clear(clear)	True	False	0.00
2010-06-21 04:00:00 27555 4 0.00 0.00 0.00 0.0 0.00	75.7826086957	0.00	0.00	Mostly_Clear(clear)	False	False	0.00
