2010-06-27 19:00:00 37650 19 59.14 63.04 63.04 36.8 81.40	72.6556129383	63.04	36.80	Sunny(sunny)	True	False	36.80
2010-06-27 20:00:00 37651 20 4.87 3.03 3.03 1.0 6.70	72.6556129383	3.03	1.00	Sunny(sunny)	True	False	1.00
2010-06-27 21:00:00 37652 21 0.00 0.00 0.00 0.0 0.00	72.6556129383	0.00	0.00	Clear(clear)	True	False	0.00
2010-06-27 22:00:00 37653 22 0.00 0.00 0.00 0.0 0.00	45.2088452088	0.00	0.00	Mostly_Clear(clear)	False	False	0.00
2010-06-27 23:00:00 37654 23 0.00 0.00 0.00 0.0 0.00	45.2088452088	0.00	0.00	Mostly_Clear(partly_cloudy)	False	False	0.00
2010-06-28 00:00:00 37655 0 0.00 0.00 0.00 0.0 0.00	45.2088452088	0.00	0.00	Mostly_Clear(clear)	False	False	0.00
2010-06-28 01:00:00 37656 1 0.00 0.00 0.00 0.0 0.00	73.9900136178	0.00	0.00	Partly_Cloudy(partly_cloudy)	True	False	0.00
2010-06-28 02:00:00 37657 2 0.00 0.00 0.00 0.0 0.00	73.9900136178	0.00	0.00	Partly_Cloudy(clear)	True	False	0.00
2010-06-28 03:00:00 37658 3 0.00 0.00 0.00 0.0 0.00	73.9900136178	0.00	0.00	Partly_Cloudy(fair)	True	False	0.00
2010-06-28 04:00:00 37659 4 0.00 0.00 0.00 0.0 0.00	73.9900136178	0.00	0.00	Partly_Cloudy(partly_cloudy)	True	False	0.00
2010-06-28 05:00:00 37660 5 1.33 1.33 1.33 0.0 1.80	73.9900136178	1.33	0.00	Partly_Cloudy(sunny)	True	False	0.00
2010-06-28 06:00:00 37661 6 54.38 54.38 54.38 12.8 73.50	73.9900136178	54.38	12.80	Partly_Cloudy(sunny)	True	False	12.80
2010-06-28 07:00:00 37662 7 163.00 163.00 163.00 155.5 220.30	73.9900136178	163.00	155.50	Partly_Cloudy(sunny)	True	False	155.50
2010-06-28 08:00:00 37663 8 359.52 359.52 359.52 352.6 485.90	73.9900136178	359.52	352.60	Partly_Cloudy(sunny)	True	False	352.60
2010-06-28 09:00:00 37664 9 550.26 550.26 550.26 541.9 743.70	73.9900136178	550.26	541.90	Partly_Cloudy(sunny)	True	False	541.90
2010-06-28 10:00:00 37665 10 687.81 687.81 687.81 694.4 929.60	73.9900136178	687.81	694.40	Mostly_Sunny(fair)	False	False	694.40
2010-06-28 11:00:00 37666 11 766.09 766.09 766.09 700.2 1035.40	73.9900136178	766.09	700.20	Mostly_Sunny(sunny)	False	False	700.20
2010-06-28 12:00:00 37667 12 778.15 778.15 778.15 432.4 1051.70	73.9900136178	778.15	432.40	Mostly_Sunny(sunny)	False	False	432.40
2010-06-28 13:00:00 37668 13 198.14 198.14 198.14 739.9 1024.00	19.3496244176	198.14	739.90	Isolated_T-Storms(sunny)	True	False	739.90
2010-06-28 14:00:00 37669 14 185.43 185.43 185.43 763.0 958.30	19.3496244176	185.43	763.00	Isolated_T-Storms(fair)	True	False	763.00
2010-06-28 15:00:00 37670 15 181.71 181.71 181.71 602.0 939.10	19.3496244176	181.71	602.00	Isolated_T-Storms(partly_cloudy)	True	False	602.00
2010-06-28 16:00:00 37671 16 142.37 142.37 142.37 218.3 735.80	19.3496244176	142.37	218.30	Scattered_T-Storms(mostly_cloudy)	True	False	218.30
2010-06-28 17:00:00 37672 17 93.79 93.79 93.79 102.1 484.70	19.3496244176	93.79	102.10	Scattered_T-Storms(mostly_cloudy)	True	False	102.10
2010-06-28 18:00:00 37673 18 42.53 42.53 42.53 91.6 219.80	19.3496244176	42.53	91.60	Scattered_T-Storms(partly_cloudy)	True	False	91.60
2010-06-28 19:00:00 37674 19 15.75 15.75 15.75 45.4 81.40	19.3496244176	15.75	45.40	Scattered_T-Storms(sunny)	True	False	45.40
2010-06-28 20:00:00 37675 20 1.30 1.30 1.30 2.8 6.70	19.3496244176	1.30	2.80	Scattered_T-Storms(sunny)	True	False	2.80
2010-06-28 21:00:00 37676 21 0.00 0.00 0.00 0.0 0.00	19.3496244176	0.00	0.00	Scattered_T-Storms(fair)	True	False	0.00
2010-06-28 22:00:00 37677 22 0.00 0.00 0.00 0.0 0.00	19.3496244176	0.00	0.00	Scattered_T-Storms(clear)	True	False	0.00
2010-06-28 23:00:00 37678 23 0.00 0.00 0.00 0.0 0.00	19.3496244176	0.00	0.00	Scattered_T-Storms(fair)	True	False	0.00
2010-06-29 00:00:00 37679 0 0.00 0.00 0.00 0.0 0.00	19.3496244176	0.00	0.00	Scattered_T-Storms(partly_cloudy)	True	False	0.00
2010-06-29 01:00:00 37680 1 0.00 0.00 0.00 0.0 0.00	19.3496244176	0.00	0.00	Scattered_T-Storms(partly_cloudy)	True	False	0.00
2010-06-29 02:00:00 37681 2 0.00 0.00 0.00 0.0 0.00	19.3496244176	0.00	0.00	Scattered_T-Storms(partly_cloudy)	True	False	0.00
2010-06-29 03:00:00 37682 3 0.00 0.00 0.00 0.0 0.00	19.3496244176	0.00	0.00	Scattered_T-Storms(mostly_cloudy)	True	False	0.00
2010-06-29 04:00:00 37683 4 0.00 0.00 0.00 0.0 0.00	19.3496244176	0.00	0.00	Few_Showers(cloudy)	True	False	0.00
2010-06-29 05:00:00 37684 5 0.35 0.35 0.35 0.0 1.80	19.3496244176	0.35	0.00	Few_Showers(partly_cloudy)	True	False	0.00
2010-06-29 06:00:00 37685 6 14.22 14.22 14.22 59.2 73.50	19.3496244176	14.22	59.20	Few_Showers(fog)	True	False	59.20
2010-06-29 07:00:00 37686 7 142.37 142.37 142.37 153.9 220.30	64.6258503401	142.37	153.90	Mostly_Cloudy(mostly_cloudy)	True	False	153.90
2010-06-29 08:00:00 37687 8 314.02 314.02 314.02 352.8 485.90	64.6258503401	314.02	352.80	Mostly_Cloudy(sunny)	True	False	352.80
2010-06-29 09:00:00 37688 9 480.62 480.62 480.62 567.7 743.70	64.6258503401	480.62	567.70	Mostly_Cloudy(fair)	True	False	567.70
2010-06-29 10:00:00 37689 10 713.57 713.57 713.57 702.1 929.60	76.760930815	713.57	702.10	Partly_Cloudy(sunny)	True	False	702.10
2010-06-29 11:00:00 37690 11 794.78 794.78 794.78 548.6 1035.40	76.760930815	794.78	548.60	Partly_Cloudy(partly_cloudy)	True	False	548.60
2010-06-29 12:00:00 37691 12 807.29 807.29 807.29 812.2 1051.70	76.760930815	807.29	812.20	Partly_Cloudy(partly_cloudy)	True	False	812.20
2010-06-29 13:00:00 37692 13 786.03 786.03 786.03 709.9 1024.00	76.760930815	786.03	709.90	Partly_Cloudy(partly_cloudy)	True	False	709.90
2010-06-29 14:00:00 37693 14 735.60 735.60 735.60 524.3 958.30	76.760930815	735.60	524.30	Partly_Cloudy(partly_cloudy)	True	False	524.30
2010-06-29 15:00:00 37694 15 720.86 720.86 720.86 402.5 939.10	76.760930815	720.86	402.50	Partly_Cloudy(partly_cloudy)	True	False	402.50
2010-06-29 16:00:00 37695 16 544.42 544.42 544.42 414.7 735.80	73.9900136178	544.42	414.70	Partly_Cloudy(partly_cloudy)	True	False	414.70
2010-06-29 17:00:00 37696 17 358.63 358.63 358.63 301.8 484.70	73.9900136178	358.63	301.80	Partly_Cloudy(partly_cloudy)	True	False	301.80
2010-06-29 18:00:00 37697 18 162.63 162.63 162.63 173.1 219.80	73.9900136178	162.63	173.10	Partly_Cloudy(partly_cloudy)	True	False	173.10
2010-06-29 19:00:00 37698 19 60.23 60.23 60.23 39.4 81.40	73.9900136178	60.23	39.40	Mostly_Sunny(fair)	False	False	39.40
