2010-06-29 03:00:00 39218 3 0.00 0.00 0.00 0.0 0.00	16.8553200247	0.00	0.00	Isolated_T-Storms(mostly_cloudy)	True	False	0.00
2010-06-29 04:00:00 39219 4 0.00 0.00 0.00 0.0 0.00	72.2217206825	0.00	0.00	Partly_Cloudy(cloudy)	True	False	0.00
2010-06-29 05:00:00 39220 5 1.30 1.30 1.30 0.0 1.80	72.2217206825	1.30	0.00	Partly_Cloudy(partly_cloudy)	True	False	0.00
2010-06-29 06:00:00 39221 6 56.12 56.12 56.12 59.2 77.70	72.2217206825	56.12	59.20	Partly_Cloudy(fog)	True	False	59.20
2010-06-29 07:00:00 39222 7 159.10 159.10 159.10 153.9 220.30	72.2217206825	159.10	153.90	Partly_Cloudy(mostly_cloudy)	True	False	153.90
2010-06-29 08:00:00 39223 8 350.93 350.93 350.93 352.8 485.90	72.2217206825	350.93	352.80	Partly_Cloudy(sunny)	True	False	352.80
2010-06-29 09:00:00 39224 9 537.11 537.11 537.11 567.7 743.70	72.2217206825	537.11	567.70	Partly_Cloudy(fair)	True	False	567.70
2010-06-29 10:00:00 39225 10 677.42 677.42 677.42 702.1 929.60	72.8726992387	677.42	702.10	Partly_Cloudy(sunny)	True	False	702.10
2010-06-29 11:00:00 39226 11 756.20 756.20 756.20 548.6 1037.70	72.8726992387	756.20	548.60	Partly_Cloudy(partly_cloudy)	True	False	548.60
2010-06-29 12:00:00 39227 12 800.87 800.87 800.87 812.2 1099.00	72.8726992387	800.87	812.20	Partly_Cloudy(partly_cloudy)	True	False	812.20
2010-06-29 13:00:00 39228 13 807.21 807.21 807.21 709.9 1107.70	72.8726992387	807.21	709.90	Mostly_Sunny(partly_cloudy)	False	False	709.90
2010-06-29 14:00:00 39229 14 772.74 772.74 772.74 524.3 1060.40	72.8726992387	772.74	524.30	Mostly_Sunny(partly_cloudy)	False	False	524.30
2010-06-29 15:00:00 39230 15 684.35 684.35 684.35 402.5 939.10	72.8726992387	684.35	402.50	Mostly_Sunny(partly_cloudy)	False	False	402.50
2010-06-29 16:00:00 39231 16 544.11 544.11 544.11 414.7 744.40	73.0943432591	544.11	414.70	Sunny(partly_cloudy)	True	False	414.70
2010-06-29 17:00:00 39232 17 354.29 354.29 354.29 301.8 484.70	73.0943432591	354.29	301.80	Sunny(partly_cloudy)	True	False	301.80
2010-06-29 18:00:00 39233 18 165.05 165.05 165.05 173.1 225.80	73.0943432591	165.05	173.10	Sunny(partly_cloudy)	True	False	173.10
2010-06-29 19:00:00 39234 19 59.50 59.50 59.50 39.4 81.40	73.0943432591	59.50	39.40	Sunny(fair)	True	False	39.40
2010-06-29 20:00:00 39235 20 4.90 4.90 4.90 7.0 6.70	73.0943432591	4.90	7.00	Sunny(sunny)	True	False	7.00
2010-06-29 21:00:00 39236 21 0.00 0.00 0.00 0.0 0.00	73.0943432591	0.00	0.00	Clear(clear)	True	False	0.00
2010-06-29 22:00:00 39237 22 0.00 0.00 0.00 0.0 0.00	73.0943432591	0.00	0.00	Clear(fair)	True	False	0.00
2010-06-29 23:00:00 39238 23 0.00 0.00 0.00 0.0 0.00	73.0943432591	0.00	0.00	Clear(clear)	True	False	0.00
2010-06-30 00:00:00 39239 0 0.00 0.00 0.00 0.0 0.00	73.0943432591	0.00	0.00	Clear(clear)	True	False	0.00
2010-06-30 01:00:00 39240 1 0.00 0.00 0.00 0.0 0.00	73.0943432591	0.00	0.00	Clear(clear)	True	False	0.00
2010-06-30 02:00:00 39241 2 0.00 0.00 0.00 0.0 0.00	73.0943432591	0.00	0.00	Clear(clear)	True	False	0.00
2010-06-30 03:00:00 39242 3 0.00 0.00 0.00 0.0 0.00	73.0943432591	0.00	0.00	Clear(fair)	True	False	0.00
2010-06-30 04:00:00 39243 4 0.00 0.00 0.00 0.0 0.00	73.0943432591	0.00	0.00	Clear(clear)	True	False	0.00
2010-06-30 05:00:00 39244 5 1.32 1.32 1.32 0.1 1.80	73.0943432591	1.32	0.10	Clear(sunny)	True	False	0.10
2010-06-30 06:00:00 39245 6 56.79 56.79 56.79 33.4 77.70	73.0943432591	56.79	33.40	Sunny(sunny)	True	False	33.40
2010-06-30 07:00:00 39246 7 161.03 161.03 161.03 181.0 220.30	73.0943432591	161.03	181.00	Sunny(sunny)	True	False	181.00
2010-06-30 08:00:00 39247 8 355.17 355.17 355.17 414.9 485.90	73.0943432591	355.17	414.90	Sunny(sunny)	True	False	414.90
2010-06-30 09:00:00 39248 9 543.60 543.60 543.60 617.1 743.70	73.0943432591	543.60	617.10	Sunny(sunny)	True	False	617.10
2010-06-30 10:00:00 39249 10 709.20 709.20 709.20 768.1 929.60	76.2908777969	709.20	768.10	Sunny(sunny)	True	False	768.10
2010-06-30 11:00:00 39250 11 791.67 791.67 791.67 861.7 1037.70	76.2908777969	791.67	861.70	Sunny(sunny)	True	False	861.70
2010-06-30 12:00:00 39251 12 838.44 838.44 838.44 906.5 1099.00	76.2908777969	838.44	906.50	Sunny(sunny)	True	False	906.50
2010-06-30 13:00:00 39252 13 845.07 845.07 845.07 909.6 1107.70	76.2908777969	845.07	909.60	Mostly_Sunny(sunny)	False	False	909.60
2010-06-30 14:00:00 39253 14 808.99 808.99 808.99 870.8 1060.40	76.2908777969	808.99	870.80	Mostly_Sunny(sunny)	False	False	870.80
2010-06-30 15:00:00 39254 15 716.45 716.45 716.45 774.3 939.10	76.2908777969	716.45	774.30	Mostly_Sunny(sunny)	False	False	774.30
2010-06-30 16:00:00 39255 16 567.91 567.91 567.91 611.2 744.40	76.2908777969	567.91	611.20	Mostly_Sunny(sunny)	False	False	611.20
2010-06-30 17:00:00 39256 17 369.78 369.78 369.78 380.9 484.70	76.2908777969	369.78	380.90	Mostly_Sunny(sunny)	False	False	380.90
2010-06-30 18:00:00 39257 18 172.26 172.26 172.26 155.4 225.80	76.2908777969	172.26	155.40	Mostly_Sunny(fair)	False	False	155.40
2010-06-30 19:00:00 39258 19 59.50 59.50 59.50 29.4 81.40	73.0943432591	59.50	29.40	Sunny(fair)	True	False	29.40
2010-06-30 20:00:00 39259 20 4.90 4.90 4.90 2.2 6.70	73.0943432591	4.90	2.20	Sunny(sunny)	True	False	2.20
2010-06-30 21:00:00 39260 21 0.00 0.00 0.00 0.0 0.00	73.0943432591	0.00	0.00	Clear(fair)	True	False	0.00
2010-06-30 22:00:00 39261 22 0.00 0.00 0.00 0.0 0.00	73.0943432591	0.00	0.00	Clear(clear)	True	False	0.00
2010-06-30 23:00:00 39262 23 0.00 0.00 0.00 0.0 0.00	73.0943432591	0.00	0.00	Clear(clear)	True	False	0.00
2010-07-01 00:00:00 39263 0 0.00 0.00 0.00 0.0 0.00	73.0943432591	0.00	0.00	Clear(cloudy)	True	False	0.00
2010-07-01 01:00:00 39264 1 0.00 0.00 0.00 0.0 0.00	73.0943432591	0.00	0.00	Clear(cloudy)	True	False	0.00
2010-07-01 02:00:00 39265 2 0.00 0.00 0.00 0.0 0.00	73.0943432591	0.00	0.00	Clear(cloudy)	True	False	0.00
2010-07-01 03:00:00 39266 3 0.00 0.00 0.00 0.0 0.00	73.0943432591	0.00	0.00	Clear(fair)	True	False	0.00
