2010-06-08 12:00:00 14963 12 1040.29 1040.29 1040.29 884.3 1094.20	95.0730647709	1040.29	884.30	Sunny(fair)	True	False	884.30
2010-06-08 13:00:00 14964 13 1026.69 1026.69 872.74 830.2 1079.90	95.0730647709	872.74	830.20	Sunny(partly_cloudy)	True	False	830.20
2010-06-08 14:00:00 14965 14 962.90 962.90 818.51 705.1 1012.80	95.0730647709	818.51	705.10	Sunny(fair)	True	False	705.10
2010-06-08 15:00:00 14966 15 849.19 849.19 721.86 974.1 893.20	95.0730647709	721.86	974.10	Sunny(partly_cloudy)	True	False	974.10
2010-06-08 16:00:00 14967 16 680.82 680.82 578.73 682.8 716.10	80.8170352769	578.73	682.80	Mostly_Sunny(sunny)	False	False	682.80
2010-06-08 17:00:00 14968 17 398.93 398.93 339.11 338.1 419.60	80.8170352769	339.11	338.10	Mostly_Sunny(partly_cloudy)	False	False	338.10
2010-06-08 18:00:00 14969 18 203.65 203.65 173.11 171.7 214.20	80.8170352769	173.11	171.70	Mostly_Sunny(sunny)	False	False	171.70
2010-06-08 19:00:00 14970 19 45.77 45.77 43.16 30.7 53.40	85.7142857143	43.16	30.70	Sunny(mostly_cloudy)	True	False	30.70
2010-06-08 20:00:00 14971 20 2.40 2.40 2.26 0.4 2.80	85.7142857143	2.26	0.40	Sunny(sunny)	True	False	0.40
2010-06-08 21:00:00 14972 21 0.00 0.00 0.00 0.0 0.00	85.7142857143	0.00	0.00	Clear(fair)	True	False	0.00
2010-06-08 22:00:00 14973 22 0.00 0.00 0.00 0.0 0.00	85.7142857143	0.00	0.00	Clear(clear)	True	False	0.00
2010-06-08 23:00:00 14974 23 0.00 0.00 0.00 0.0 0.00	85.7142857143	0.00	0.00	Clear(fair)	True	False	0.00
2010-06-09 00:00:00 14975 0 0.00 0.00 0.00 0.0 0.00	85.7142857143	0.00	0.00	Clear(partly_cloudy)	True	False	0.00
2010-06-09 01:00:00 14976 1 0.00 0.00 0.00 0.0 0.00	85.7142857143	0.00	0.00	Mostly_Clear(fair)	False	False	0.00
2010-06-09 02:00:00 14977 2 0.00 0.00 0.00 0.0 0.00	85.7142857143	0.00	0.00	Mostly_Clear(partly_cloudy)	False	False	0.00
2010-06-09 03:00:00 14978 3 0.00 0.00 0.00 0.0 0.00	85.7142857143	0.00	0.00	Mostly_Clear(mostly_cloudy)	False	False	0.00
2010-06-09 04:00:00 14979 4 0.00 0.00 0.00 0.0 0.00	78.9788933257	0.00	0.00	Partly_Cloudy(fair)	True	False	0.00
2010-06-09 05:00:00 14980 5 1.42 1.42 1.42 3.7 1.80	78.9788933257	1.42	3.70	Partly_Cloudy(sunny)	True	False	3.70
2010-06-09 06:00:00 14981 6 58.05 58.05 58.05 89.7 73.50	78.9788933257	58.05	89.70	Partly_Cloudy(fair)	True	False	89.70
2010-06-09 07:00:00 14982 7 161.36 161.36 161.36 188.7 248.50	64.9319381424	161.36	188.70	Mostly_Cloudy(partly_cloudy)	True	False	188.70
2010-06-09 08:00:00 14983 8 345.31 345.31 345.31 212.0 531.80	64.9319381424	345.31	212.00	Mostly_Cloudy(mostly_cloudy)	True	False	212.00
2010-06-09 09:00:00 14984 9 493.09 493.09 493.09 347.4 759.40	64.9319381424	493.09	347.40	Mostly_Cloudy(partly_cloudy)	True	False	347.40
2010-06-09 10:00:00 14985 10 118.62 118.62 118.62 319.6 929.60	12.7604407816	118.62	319.60	Showers(mostly_cloudy)	True	False	319.60
2010-06-09 11:00:00 14986 11 134.21 134.21 134.21 302.3 1051.80	12.7604407816	134.21	302.30	Showers(mostly_cloudy)	True	False	302.30
2010-06-09 12:00:00 14987 12 139.62 139.62 139.62 216.2 1094.20	12.7604407816	139.62	216.20	Showers(light_rain)	True	False	216.20
2010-06-09 13:00:00 14988 13 137.80 137.80 137.80 93.7 1079.90	12.7604407816	137.80	93.70	Rain(light_rain)	True	False	93.70
2010-06-09 14:00:00 14989 14 129.24 129.24 129.24 92.0 1012.80	12.7604407816	129.24	92.00	Rain(light_rain)	True	False	92.00
2010-06-09 15:00:00 14990 15 113.98 113.98 113.98 92.8 893.20	12.7604407816	113.98	92.80	Rain(light_rain)	True	False	92.80
2010-06-09 16:00:00 14991 16 101.76 101.76 101.76 70.3 716.10	14.2104130809	101.76	70.30	Rain(light_rain)	True	False	70.30
2010-06-09 17:00:00 14992 17 59.63 59.63 59.63 15.9 419.60	14.2104130809	59.63	15.90	Rain(light_rain)	True	False	15.90
2010-06-09 18:00:00 14993 18 30.44 30.44 30.44 6.2 214.20	14.2104130809	30.44	6.20	Rain(light_rain)	True	False	6.20
2010-06-09 19:00:00 14994 19 7.59 7.59 7.59 0.0 53.40	14.2104130809	7.59	0.00	Showers(light_rain)	True	False	0.00
2010-06-09 20:00:00 14995 20 0.40 0.40 0.40 0.0 2.80	14.2104130809	0.40	0.00	Showers(light_rain)	True	False	0.00
2010-06-09 21:00:00 14996 21 0.00 0.00 0.00 0.0 0.00	14.2104130809	0.00	0.00	Showers(light_rain)	True	False	0.00
2010-06-09 22:00:00 14997 22 0.00 0.00 0.00 0.0 0.00	14.2104130809	0.00	0.00	Showers(light_rain)	True	False	0.00
2010-06-09 23:00:00 14998 23 0.00 0.00 0.00 0.0 0.00	14.2104130809	0.00	0.00	Showers(light_rain)	True	False	0.00
2010-06-10 00:00:00 14999 0 0.00 0.00 0.00 0.0 0.00	14.2104130809	0.00	0.00	Showers(cloudy)	True	False	0.00
2010-06-10 01:00:00 15000 1 0.00 0.00 0.00 0.0 0.00	42.3436041083	0.00	0.00	Cloudy(cloudy)	True	False	0.00
2010-06-10 02:00:00 15001 2 0.00 0.00 0.00 0.0 0.00	42.3436041083	0.00	0.00	Cloudy(cloudy)	True	False	0.00
2010-06-10 03:00:00 15002 3 0.00 0.00 0.00 0.0 0.00	42.3436041083	0.00	0.00	Cloudy(cloudy)	True	False	0.00
2010-06-10 04:00:00 15003 4 0.00 0.00 0.00 0.0 0.00	42.3436041083	0.00	0.00	Cloudy(cloudy)	True	False	0.00
2010-06-10 05:00:00 15004 5 0.76 0.76 0.76 0.0 1.80	42.3436041083	0.76	0.00	Cloudy(cloudy)	True	False	0.00
2010-06-10 06:00:00 15005 6 31.12 31.12 31.12 2.5 73.50	42.3436041083	31.12	2.50	Cloudy(fog)	True	False	2.50
2010-06-10 07:00:00 15006 7 161.36 161.36 161.36 72.6 248.50	64.9319381424	161.36	72.60	Mostly_Cloudy(cloudy)	True	False	72.60
2010-06-10 08:00:00 15007 8 345.31 345.31 345.31 172.6 531.80	64.9319381424	345.31	172.60	Mostly_Cloudy(cloudy)	True	False	172.60
2010-06-10 09:00:00 15008 9 493.09 493.09 493.09 298.0 759.40	64.9319381424	493.09	298.00	Mostly_Cloudy(cloudy)	True	False	298.00
2010-06-10 10:00:00 15009 10 542.58 542.58 542.58 421.5 929.60	58.3665154181	542.58	421.50	Mostly_Cloudy(cloudy)	True	False	421.50
2010-06-10 11:00:00 15010 11 613.90 613.90 613.90 802.2 1051.80	58.3665154181	613.90	802.20	Mostly_Cloudy(cloudy)	True	False	802.20
2010-06-10 12:00:00 15011 12 638.65 638.65 638.65 756.0 1094.20	58.3665154181	638.65	756.00	Mostly_Sunny(cloudy)	False	False	756.00
