2010-07-25 00:00:00 69647 0 0.00 0.00 0.00 0.0 0.00	20.7721587819	0.00	0.00	Isolated_T-Storms(fair)	True	False	0.00
2010-07-25 01:00:00 69648 1 0.00 0.00 0.00 0.0 0.00	20.7721587819	0.00	0.00	Isolated_T-Storms(fair)	True	False	0.00
2010-07-25 02:00:00 69649 2 0.00 0.00 0.00 0.0 0.00	20.7721587819	0.00	0.00	Isolated_T-Storms(clear)	True	False	0.00
2010-07-25 03:00:00 69650 3 0.00 0.00 0.00 0.0 0.00	20.7721587819	0.00	0.00	Isolated_T-Storms(mostly_cloudy)	True	False	0.00
2010-07-25 04:00:00 69651 4 0.00 0.00 0.00 0.0 0.00	20.7721587819	0.00	0.00	Isolated_T-Storms(clear)	True	False	0.00
2010-07-25 05:00:00 69652 5 0.00 0.00 0.00 0.0 0.00	20.7721587819	0.00	0.00	Isolated_T-Storms(clear)	True	False	0.00
2010-07-25 06:00:00 69653 6 16.14 16.14 16.14 14.1 77.70	20.7721587819	16.14	14.10	Isolated_T-Storms(sunny)	True	False	14.10
2010-07-25 07:00:00 69654 7 179.70 179.70 179.70 151.5 203.10	88.4794578568	179.70	151.50	Sunny(sunny)	True	False	151.50
2010-07-25 08:00:00 69655 8 417.80 417.80 417.80 418.2 472.20	88.4794578568	417.80	418.20	Sunny(sunny)	True	False	418.20
2010-07-25 09:00:00 69656 9 659.26 659.26 659.26 644.7 745.10	88.4794578568	659.26	644.70	Sunny(sunny)	True	False	644.70
2010-07-25 10:00:00 69657 10 168.86 168.86 168.86 778.0 919.50	18.3647685227	168.86	778.00	Isolated_T-Storms(partly_cloudy)	True	False	778.00
2010-07-25 11:00:00 69658 11 190.79 190.79 190.79 981.8 1038.90	18.3647685227	190.79	981.80	Isolated_T-Storms(fair)	True	False	981.80
2010-07-25 12:00:00 69659 12 203.50 203.50 203.50 919.7 1108.10	18.3647685227	203.50	919.70	Isolated_T-Storms(fair)	True	False	919.70
2010-07-25 13:00:00 69660 13 203.43 203.43 203.43 983.8 1107.70	18.3647685227	203.43	983.80	Scattered_T-Storms(fair)	True	False	983.80
2010-07-25 14:00:00 69661 14 194.74 194.74 194.74 255.2 1060.40	18.3647685227	194.74	255.20	Scattered_T-Storms(fair)	True	False	255.20
2010-07-25 15:00:00 69662 15 172.46 172.46 172.46 56.1 939.10	18.3647685227	172.46	56.10	Scattered_T-Storms(light_rain)	True	False	56.10
2010-07-25 16:00:00 69663 16 157.64 157.64 157.64 38.6 758.90	20.7721587819	157.64	38.60	Scattered_T-Storms(light_rain)	True	False	38.60
2010-07-25 17:00:00 69664 17 103.59 103.59 103.59 152.0 498.70	20.7721587819	103.59	152.00	Scattered_T-Storms(light_rain)	True	False	152.00
2010-07-25 18:00:00 69665 18 47.24 47.24 47.24 213.6 227.40	20.7721587819	47.24	213.60	Scattered_T-Storms(mostly_cloudy)	True	False	213.60
2010-07-25 19:00:00 69666 19 15.33 15.33 15.33 37.6 73.80	20.7721587819	15.33	37.60	Isolated_T-Storms(sunny)	True	False	37.60
2010-07-25 20:00:00 69667 20 1.41 1.41 1.41 2.7 6.80	20.7721587819	1.41	2.70	Isolated_T-Storms(sunny)	True	False	2.70
2010-07-25 21:00:00 69668 21 0.00 0.00 0.00 0.0 0.00	20.7721587819	0.00	0.00	Isolated_T-Storms(clear)	True	False	0.00
2010-07-25 22:00:00 69669 22 0.00 0.00 0.00 0.0 0.00	74.7967479675	0.00	0.00	Partly_Cloudy(clear)	True	False	0.00
2010-07-25 23:00:00 69670 23 0.00 0.00 0.00 0.0 0.00	74.7967479675	0.00	0.00	Partly_Cloudy(fair)	True	False	0.00
2010-07-26 00:00:00 69671 0 0.00 0.00 0.00 0.0 0.00	74.7967479675	0.00	0.00	Partly_Cloudy(clear)	True	False	0.00
2010-07-26 01:00:00 69672 1 0.00 0.00 0.00 0.0 0.00	74.7967479675	0.00	0.00	Partly_Cloudy(clear)	True	False	0.00
2010-07-26 02:00:00 69673 2 0.00 0.00 0.00 0.0 0.00	74.7967479675	0.00	0.00	Partly_Cloudy(clear)	True	False	0.00
2010-07-26 03:00:00 69674 3 0.00 0.00 0.00 0.0 0.00	74.7967479675	0.00	0.00	Partly_Cloudy(clear)	True	False	0.00
2010-07-26 04:00:00 69675 4 0.00 0.00 0.00 0.0 0.00	74.7967479675	0.00	0.00	Partly_Cloudy(clear)	True	False	0.00
2010-07-26 05:00:00 69676 5 0.00 0.00 0.00 0.0 0.00	74.7967479675	0.00	0.00	Partly_Cloudy(clear)	True	False	0.00
2010-07-26 06:00:00 69677 6 58.12 58.12 58.12 21.7 77.70	74.7967479675	58.12	21.70	Partly_Cloudy(sunny)	True	False	21.70
2010-07-26 07:00:00 69678 7 179.70 179.70 179.70 182.6 203.10	88.4794578568	179.70	182.60	Sunny(sunny)	True	False	182.60
2010-07-26 08:00:00 69679 8 417.80 417.80 417.80 461.9 472.20	88.4794578568	417.80	461.90	Sunny(sunny)	True	False	461.90
2010-07-26 09:00:00 69680 9 659.26 659.26 659.26 719.2 745.10	88.4794578568	659.26	719.20	Sunny(sunny)	True	False	719.20
2010-07-26 10:00:00 69681 10 853.86 853.86 853.86 911.4 919.50	92.8611844587	853.86	911.40	Sunny(sunny)	True	False	911.40
2010-07-26 11:00:00 69682 11 964.73 964.73 964.73 1034.6 1038.90	92.8611844587	964.73	1034.60	Sunny(sunny)	True	False	1034.60
2010-07-26 12:00:00 69683 12 1028.99 1028.99 1028.99 1058.4 1108.10	92.8611844587	1028.99	1058.40	Sunny(sunny)	True	False	1058.40
2010-07-26 13:00:00 69684 13 1028.62 1028.62 1028.62 1041.9 1107.70	92.8611844587	1028.62	1041.90	Sunny(sunny)	True	False	1041.90
2010-07-26 14:00:00 69685 14 984.70 984.70 984.70 1030.8 1060.40	92.8611844587	984.70	1030.80	Sunny(fair)	True	False	1030.80
2010-07-26 15:00:00 69686 15 872.06 872.06 872.06 863.5 939.10	92.8611844587	872.06	863.50	Sunny(sunny)	True	False	863.50
2010-07-26 16:00:00 69687 16 671.47 671.47 671.47 651.5 758.90	88.4794578568	671.47	651.50	Sunny(sunny)	True	False	651.50
2010-07-26 17:00:00 69688 17 441.25 441.25 441.25 421.8 498.70	88.4794578568	441.25	421.80	Sunny(fair)	True	False	421.80
2010-07-26 18:00:00 69689 18 201.20 201.20 201.20 183.7 227.40	88.4794578568	201.20	183.70	Sunny(sunny)	True	False	183.70
2010-07-26 19:00:00 69690 19 65.30 65.30 65.30 29.6 73.80	88.4794578568	65.30	29.60	Sunny(sunny)	True	False	29.60
2010-07-26 20:00:00 69691 20 6.02 6.02 6.02 0.4 6.80	88.4794578568	6.02	0.40	Sunny(sunny)	True	False	0.40
2010-07-26 21:00:00 69692 21 0.00 0.00 0.00 0.0 0.00	88.4794578568	0.00	0.00	Clear(clear)	True	False	0.00
2010-07-26 22:00:00 69693 22 0.00 0.00 0.00 0.0 0.00	88.4794578568	0.00	0.00	Clear(clear)	True	False	0.00
2010-07-26 23:00:00 69694 23 0.00 0.00 0.00 0.0 0.00	88.4794578568	0.00	0.00	Clear(clear)	True	False	0.00
2010-07-27 00:00:00 69695 0 0.00 0.00 0.00 0.0 0.00	88.4794578568	0.00	0.00	Clear(clear)	True	False	0.00
