2010-06-01 21:00:00 7172 21 0.00 0.00 0.00 0.0 0.00	12.6287505598	0.00	0.00	Scattered_T-Storms(partly_cloudy)	True	False	0.00
2010-06-01 22:00:00 7173 22 0.00 0.00 0.00 0.0 0.00	80.0223630265	0.00	0.00	Partly_Cloudy(mostly_cloudy)	True	False	0.00
2010-06-01 23:00:00 7174 23 0.00 0.00 0.00 0.0 0.00	80.0223630265	0.00	0.00	Partly_Cloudy(fair)	True	False	0.00
2010-06-02 00:00:00 7175 0 0.00 0.00 0.00 0.0 0.00	80.0223630265	0.00	0.00	Partly_Cloudy(fog)	True	False	0.00
2010-06-02 01:00:00 7176 1 0.00 0.00 0.00 0.0 0.00	92.6202012672	0.00	0.00	Clear(fog)	True	False	0.00
2010-06-02 02:00:00 7177 2 0.00 0.00 0.00 0.0 0.00	92.6202012672	0.00	0.00	Clear(light_rain)	True	False	0.00
2010-06-02 03:00:00 7178 3 0.00 0.00 0.00 0.0 0.00	92.6202012672	0.00	0.00	Clear(mostly_cloudy)	True	False	0.00
2010-06-02 04:00:00 7179 4 0.00 0.00 0.00 0.0 0.00	80.0223630265	0.00	0.00	Partly_Cloudy(cloudy)	True	False	0.00
2010-06-02 05:00:00 7180 5 0.56 0.56 0.56 0.0 0.70	80.0223630265	0.56	0.00	Partly_Cloudy(fog)	True	False	0.00
2010-06-02 06:00:00 7181 6 58.18 58.18 58.18 54.0 72.70	80.0223630265	58.18	54.00	Partly_Cloudy(fog)	True	False	54.00
2010-06-02 07:00:00 7182 7 214.70 214.70 214.70 244.2 268.30	80.0223630265	214.70	244.20	Partly_Cloudy(fog)	True	False	244.20
2010-06-02 08:00:00 7183 8 425.56 425.56 425.56 507.0 531.80	80.0223630265	425.56	507.00	Partly_Cloudy(sunny)	True	False	507.00
2010-06-02 09:00:00 7184 9 616.17 616.17 616.17 737.0 770.00	80.0223630265	616.17	737.00	Partly_Cloudy(sunny)	True	False	737.00
2010-06-02 10:00:00 7185 10 762.13 762.13 762.13 915.8 952.40	80.0223630265	762.13	915.80	Mostly_Sunny(sunny)	False	False	915.80
2010-06-02 11:00:00 7186 11 841.68 841.68 841.68 1017.0 1051.80	80.0223630265	841.68	1017.00	Mostly_Sunny(sunny)	False	False	1017.00
2010-06-02 12:00:00 7187 12 875.60 875.60 875.60 1052.9 1094.20	80.0223630265	875.60	1052.90	Mostly_Sunny(sunny)	False	False	1052.90
2010-06-02 13:00:00 7188 13 1029.90 1029.90 1029.90 1034.5 1079.90	95.3695926081	1029.90	1034.50	Sunny(sunny)	True	False	1034.50
2010-06-02 14:00:00 7189 14 965.90 965.90 965.90 961.2 1012.80	95.3695926081	965.90	961.20	Sunny(sunny)	True	False	961.20
2010-06-02 15:00:00 7190 15 851.84 851.84 851.84 809.2 893.20	95.3695926081	851.84	809.20	Sunny(sunny)	True	False	809.20
2010-06-02 16:00:00 7191 16 682.94 682.94 682.94 611.2 716.10	95.3695926081	682.94	611.20	Mostly_Sunny(sunny)	False	False	611.20
2010-06-02 17:00:00 7192 17 400.17 400.17 400.17 293.6 419.60	95.3695926081	400.17	293.60	Mostly_Sunny(partly_cloudy)	False	False	293.60
2010-06-02 18:00:00 7193 18 204.28 204.28 204.28 162.1 214.20	95.3695926081	204.28	162.10	Mostly_Sunny(sunny)	False	False	162.10
2010-06-02 19:00:00 7194 19 41.45 41.45 41.45 36.3 51.80	80.0223630265	41.45	36.30	Partly_Cloudy(partly_cloudy)	True	False	36.30
2010-06-02 20:00:00 7195 20 1.92 1.92 1.92 0.1 2.40	80.0223630265	1.92	0.10	Partly_Cloudy(fair)	True	False	0.10
2010-06-02 21:00:00 7196 21 0.00 0.00 0.00 0.0 0.00	80.0223630265	0.00	0.00	Partly_Cloudy(fair)	True	False	0.00
2010-06-02 22:00:00 7197 22 0.00 0.00 0.00 0.0 0.00	80.0223630265	0.00	0.00	Partly_Cloudy(clear)	True	False	0.00
2010-06-02 23:00:00 7198 23 0.00 0.00 0.00 0.0 0.00	80.0223630265	0.00	0.00	Partly_Cloudy(clear)	True	False	0.00
2010-06-03 00:00:00 7199 0 0.00 0.00 0.00 0.0 0.00	80.0223630265	0.00	0.00	Partly_Cloudy(clear)	True	False	0.00
2010-06-03 01:00:00 7200 1 0.00 0.00 0.00 0.0 0.00	80.0223630265	0.00	0.00	Partly_Cloudy(clear)	True	False	0.00
2010-06-03 02:00:00 7201 2 0.00 0.00 0.00 0.0 0.00	80.0223630265	0.00	0.00	Partly_Cloudy(fog)	True	False	0.00
2010-06-03 03:00:00 7202 3 0.00 0.00 0.00 0.0 0.00	80.0223630265	0.00	0.00	Partly_Cloudy(clear)	True	False	0.00
2010-06-03 04:00:00 7203 4 0.00 0.00 0.00 0.0 0.00	80.0223630265	0.00	0.00	Partly_Cloudy(clear)	True	False	0.00
2010-06-03 05:00:00 7204 5 0.56 0.56 0.56 0.0 0.70	80.0223630265	0.56	0.00	Partly_Cloudy(fog)	True	False	0.00
2010-06-03 06:00:00 7205 6 58.18 58.18 58.18 71.3 72.70	80.0223630265	58.18	71.30	Partly_Cloudy(fog)	True	False	71.30
2010-06-03 07:00:00 7206 7 214.70 214.70 214.70 225.3 268.30	80.0223630265	214.70	225.30	Partly_Cloudy(sunny)	True	False	225.30
2010-06-03 08:00:00 7207 8 425.56 425.56 425.56 463.7 531.80	80.0223630265	425.56	463.70	Partly_Cloudy(sunny)	True	False	463.70
2010-06-03 09:00:00 7208 9 616.17 616.17 616.17 597.5 770.00	80.0223630265	616.17	597.50	Partly_Cloudy(partly_cloudy)	True	False	597.50
2010-06-03 10:00:00 7209 10 819.62 819.62 819.62 764.4 952.40	86.0584518167	819.62	764.40	Partly_Cloudy(fair)	True	False	764.40
2010-06-03 11:00:00 7210 11 905.16 905.16 905.16 994.6 1051.80	86.0584518167	905.16	994.60	Partly_Cloudy(sunny)	True	False	994.60
2010-06-03 12:00:00 7211 12 941.65 941.65 941.65 869.2 1094.20	86.0584518167	941.65	869.20	Partly_Cloudy(fair)	True	False	869.20
2010-06-03 13:00:00 7212 13 136.30 136.30 136.30 742.2 1079.90	12.6215390314	136.30	742.20	Isolated_T-Storms(partly_cloudy)	True	False	742.20
2010-06-03 14:00:00 7213 14 127.83 127.83 127.83 988.4 1012.80	12.6215390314	127.83	988.40	Isolated_T-Storms(sunny)	True	False	988.40
2010-06-03 15:00:00 7214 15 112.74 112.74 112.74 836.5 893.20	12.6215390314	112.74	836.50	Isolated_T-Storms(partly_cloudy)	True	False	836.50
2010-06-03 16:00:00 7215 16 90.43 90.43 90.43 663.8 716.10	12.6287505598	90.43	663.80	Isolated_T-Storms(fair)	True	False	663.80
2010-06-03 17:00:00 7216 17 52.99 52.99 52.99 385.1 419.60	12.6287505598	52.99	385.10	Isolated_T-Storms(sunny)	True	False	385.10
2010-06-03 18:00:00 7217 18 27.05 27.05 27.05 154.7 214.20	12.6287505598	27.05	154.70	Isolated_T-Storms(sunny)	True	False	154.70
2010-06-03 19:00:00 7218 19 31.26 31.26 31.26 45.0 51.80	60.3536794067	31.26	45.00	Mostly_Cloudy(sunny)	True	False	45.00
2010-06-03 20:00:00 7219 20 1.45 1.45 1.45 0.2 2.40	60.3536794067	1.45	0.20	Mostly_Cloudy(partly_cloudy)	True	False	0.20
2010-06-03 21:00:00 7220 21 0.00 0.00 0.00 0.0 0.00	60.3536794067	0.00	0.00	Mostly_Cloudy(mostly_cloudy)	True	False	0.00
