2010-06-13 21:00:00 21284 21 0.00 0.00 0.00 0.0 0.00	12.6215390314	0.00	0.00	Scattered_T-Storms(cloudy)	True	False	0.00
2010-06-13 22:00:00 21285 22 0.00 0.00 0.00 0.0 0.00	14.2104130809	0.00	0.00	Showers(cloudy)	True	False	0.00
2010-06-13 23:00:00 21286 23 0.00 0.00 0.00 0.0 0.00	14.2104130809	0.00	0.00	Showers(fog)	True	False	0.00
2010-06-14 00:00:00 21287 0 0.00 0.00 0.00 0.0 0.00	14.2104130809	0.00	0.00	Showers(rain)	True	False	0.00
2010-06-14 01:00:00 21288 1 0.00 0.00 0.00 0.0 0.00	12.6215390314	0.00	0.00	Few_Showers(fog)	True	False	0.00
2010-06-14 02:00:00 21289 2 0.00 0.00 0.00 0.0 0.00	12.6215390314	0.00	0.00	Few_Showers(cloudy)	True	False	0.00
2010-06-14 03:00:00 21290 3 0.00 0.00 0.00 0.0 0.00	12.6215390314	0.00	0.00	Few_Showers(fog)	True	False	0.00
2010-06-14 04:00:00 21291 4 0.00 0.00 0.00 0.0 0.00	42.3436041083	0.00	0.00	Cloudy(cloudy)	True	False	0.00
2010-06-14 05:00:00 21292 5 0.76 0.76 0.76 0.0 1.80	42.3436041083	0.76	0.00	Cloudy(cloudy)	True	False	0.00
2010-06-14 06:00:00 21293 6 31.12 31.12 31.12 16.1 73.50	42.3436041083	31.12	16.10	Cloudy(light_rain)	True	False	16.10
2010-06-14 07:00:00 21294 7 105.22 105.22 105.22 76.0 248.50	42.3436041083	105.22	76.00	Cloudy(fog)	True	False	76.00
2010-06-14 08:00:00 21295 8 225.18 225.18 225.18 110.9 531.80	42.3436041083	225.18	110.90	Cloudy(cloudy)	True	False	110.90
2010-06-14 09:00:00 21296 9 304.92 304.92 304.92 168.0 720.10	42.3436041083	304.92	168.00	Cloudy(cloudy)	True	False	168.00
2010-06-14 10:00:00 21297 10 462.52 462.52 462.52 287.6 929.60	49.754606908	462.52	287.60	Cloudy(cloudy)	True	False	287.60
2010-06-14 11:00:00 21298 11 523.32 523.32 523.32 320.2 1051.80	49.754606908	523.32	320.20	Cloudy(cloudy)	True	False	320.20
2010-06-14 12:00:00 21299 12 544.41 544.41 544.41 489.2 1094.20	49.754606908	544.41	489.20	Cloudy(cloudy)	True	False	489.20
2010-06-14 13:00:00 21300 13 537.30 537.30 537.30 755.2 1079.90	49.754606908	537.30	755.20	Cloudy(cloudy)	True	False	755.20
2010-06-14 14:00:00 21301 14 503.91 503.91 503.91 653.5 1012.80	49.754606908	503.91	653.50	Cloudy(mostly_cloudy)	True	False	653.50
2010-06-14 15:00:00 21302 15 439.58 439.58 439.58 444.1 883.50	49.754606908	439.58	444.10	Cloudy(cloudy)	True	False	444.10
2010-06-14 16:00:00 21303 16 447.98 447.98 447.98 412.2 716.10	62.558356676	447.98	412.20	Mostly_Cloudy(mostly_cloudy)	True	False	412.20
2010-06-14 17:00:00 21304 17 266.75 266.75 266.75 211.2 426.40	62.558356676	266.75	211.20	Mostly_Cloudy(partly_cloudy)	True	False	211.20
2010-06-14 18:00:00 21305 18 134.00 134.00 134.00 97.6 214.20	62.558356676	134.00	97.60	Mostly_Cloudy(cloudy)	True	False	97.60
2010-06-14 19:00:00 21306 19 39.97 39.97 39.97 47.7 53.40	74.849523104	39.97	47.70	Partly_Cloudy(mostly_cloudy)	True	False	47.70
2010-06-14 20:00:00 21307 20 2.62 2.62 2.62 2.5 3.50	74.849523104	2.62	2.50	Partly_Cloudy(partly_cloudy)	True	False	2.50
2010-06-14 21:00:00 21308 21 0.00 0.00 0.00 0.0 0.00	74.849523104	0.00	0.00	Partly_Cloudy(clear)	True	False	0.00
2010-06-14 22:00:00 21309 22 0.00 0.00 0.00 0.0 0.00	12.6215390314	0.00	0.00	Few_Showers(clear)	True	False	0.00
2010-06-14 23:00:00 21310 23 0.00 0.00 0.00 0.0 0.00	12.6215390314	0.00	0.00	Few_Showers(clear)	True	False	0.00
2010-06-15 00:00:00 21311 0 0.00 0.00 0.00 0.0 0.00	12.6215390314	0.00	0.00	Few_Showers(clear)	True	False	0.00
2010-06-15 01:00:00 21312 1 0.00 0.00 0.00 0.0 0.00	42.3436041083	0.00	0.00	Cloudy(clear)	True	False	0.00
2010-06-15 02:00:00 21313 2 0.00 0.00 0.00 0.0 0.00	42.3436041083	0.00	0.00	Cloudy(fair)	True	False	0.00
2010-06-15 03:00:00 21314 3 0.00 0.00 0.00 0.0 0.00	42.3436041083	0.00	0.00	Cloudy(clear)	True	False	0.00
2010-06-15 04:00:00 21315 4 0.00 0.00 0.00 0.0 0.00	42.3436041083	0.00	0.00	Cloudy(clear)	True	False	0.00
2010-06-15 05:00:00 21316 5 0.76 0.76 0.76 0.0 1.80	42.3436041083	0.76	0.00	Cloudy(fair)	True	False	0.00
2010-06-15 06:00:00 21317 6 31.12 31.12 31.12 45.9 73.50	42.3436041083	31.12	45.90	Cloudy(partly_cloudy)	True	False	45.90
2010-06-15 07:00:00 21318 7 155.46 155.46 155.46 225.9 248.50	62.558356676	155.46	225.90	Mostly_Cloudy(sunny)	True	False	225.90
2010-06-15 08:00:00 21319 8 332.69 332.69 332.69 505.2 531.80	62.558356676	332.69	505.20	Mostly_Cloudy(fair)	True	False	505.20
2010-06-15 09:00:00 21320 9 450.48 450.48 450.48 755.8 720.10	62.558356676	450.48	755.80	Mostly_Cloudy(sunny)	True	False	755.80
2010-06-15 10:00:00 21321 10 710.75 710.75 710.75 935.8 929.60	76.4572722128	710.75	935.80	Partly_Cloudy(sunny)	True	False	935.80
2010-06-15 11:00:00 21322 11 804.18 804.18 804.18 1041.9 1051.80	76.4572722128	804.18	1041.90	Partly_Cloudy(sunny)	True	False	1041.90
2010-06-15 12:00:00 21323 12 836.60 836.60 836.60 1082.1 1094.20	76.4572722128	836.60	1082.10	Partly_Cloudy(sunny)	True	False	1082.10
2010-06-15 13:00:00 21324 13 825.66 825.66 825.66 1084.8 1079.90	76.4572722128	825.66	1084.80	Partly_Cloudy(sunny)	True	False	1084.80
2010-06-15 14:00:00 21325 14 774.36 774.36 774.36 1016.8 1012.80	76.4572722128	774.36	1016.80	Partly_Cloudy(sunny)	True	False	1016.80
2010-06-15 15:00:00 21326 15 675.50 675.50 675.50 895.8 883.50	76.4572722128	675.50	895.80	Partly_Cloudy(sunny)	True	False	895.80
2010-06-15 16:00:00 21327 16 536.00 536.00 536.00 710.0 716.10	74.849523104	536.00	710.00	Partly_Cloudy(fair)	True	False	710.00
2010-06-15 17:00:00 21328 17 319.16 319.16 319.16 448.1 426.40	74.849523104	319.16	448.10	Partly_Cloudy(sunny)	True	False	448.10
2010-06-15 18:00:00 21329 18 160.33 160.33 160.33 184.4 214.20	74.849523104	160.33	184.40	Partly_Cloudy(sunny)	True	False	184.40
2010-06-15 19:00:00 21330 19 39.97 39.97 39.97 44.0 53.40	74.849523104	39.97	44.00	Partly_Cloudy(sunny)	True	False	44.00
2010-06-15 20:00:00 21331 20 2.62 2.62 2.62 1.9 3.50	74.849523104	2.62	1.90	Partly_Cloudy(sunny)	True	False	1.90
2010-06-15 21:00:00 21332 21 0.00 0.00 0.00 0.0 0.00	74.849523104	0.00	0.00	Partly_Cloudy(clear)	True	False	0.00
