2010-07-03 15:00:00 44510 15 733.85 733.85 733.85 711.3 939.10	78.144239226	733.85	711.30	Sunny(sunny)	True	False	711.30
2010-07-03 16:00:00 44511 16 563.30 563.30 563.83 563.3 744.40	75.6716818915	563.83	563.30	Sunny(sunny)	True	False	563.30
2010-07-03 17:00:00 44512 17 366.78 366.78 367.13 349.9 484.70	75.6716818915	367.13	349.90	Sunny(sunny)	True	False	349.90
2010-07-03 18:00:00 44513 18 170.87 170.87 171.03 142.1 225.80	75.6716818915	171.03	142.10	Sunny(sunny)	True	False	142.10
2010-07-03 19:00:00 44514 19 61.60 61.60 61.65 23.9 81.40	75.6716818915	61.65	23.90	Sunny(sunny)	True	False	23.90
2010-07-03 20:00:00 44515 20 5.15 5.15 5.15 1.7 6.80	75.6716818915	5.15	1.70	Sunny(sunny)	True	False	1.70
2010-07-03 21:00:00 44516 21 0.00 0.00 0.00 0.0 0.00	75.6716818915	0.00	0.00	Clear(clear)	True	False	0.00
2010-07-03 22:00:00 44517 22 0.00 0.00 0.00 0.0 0.00	75.6716818915	0.00	0.00	Clear(clear)	True	False	0.00
2010-07-03 23:00:00 44518 23 0.00 0.00 0.00 0.0 0.00	75.6716818915	0.00	0.00	Clear(clear)	True	False	0.00
2010-07-04 00:00:00 44519 0 0.00 0.00 0.00 0.0 0.00	75.6716818915	0.00	0.00	Clear(clear)	True	False	0.00
2010-07-04 01:00:00 44520 1 0.00 0.00 0.00 0.0 0.00	75.6716818915	0.00	0.00	Clear(clear)	True	False	0.00
2010-07-04 02:00:00 44521 2 0.00 0.00 0.00 0.0 0.00	75.6716818915	0.00	0.00	Clear(clear)	True	False	0.00
2010-07-04 03:00:00 44522 3 0.00 0.00 0.00 0.0 0.00	75.6716818915	0.00	0.00	Clear(clear)	True	False	0.00
2010-07-04 04:00:00 44523 4 0.00 0.00 0.00 0.0 0.00	75.6716818915	0.00	0.00	Clear(clear)	True	False	0.00
2010-07-04 05:00:00 44524 5 0.23 0.23 0.23 0.0 0.30	75.6716818915	0.23	0.00	Clear(sunny)	True	False	0.00
2010-07-04 06:00:00 44525 6 58.80 58.80 58.80 24.5 77.70	75.6716818915	58.80	24.50	Sunny(sunny)	True	False	24.50
2010-07-04 07:00:00 44526 7 166.70 166.70 166.70 166.2 220.30	75.6716818915	166.70	166.20	Sunny(sunny)	True	False	166.20
2010-07-04 08:00:00 44527 8 367.69 367.69 367.69 384.9 485.90	75.6716818915	367.69	384.90	Sunny(sunny)	True	False	384.90
2010-07-04 09:00:00 44528 9 562.77 562.77 562.77 574.2 743.70	75.6716818915	562.77	574.20	Sunny(sunny)	True	False	574.20
2010-07-04 10:00:00 44529 10 710.80 710.80 710.80 710.8 909.60	78.144239226	710.80	710.80	Sunny(sunny)	True	False	710.80
2010-07-04 11:00:00 44530 11 810.90 810.90 810.90 801.8 1037.70	78.144239226	810.90	801.80	Sunny(sunny)	True	False	801.80
2010-07-04 12:00:00 44531 12 865.92 865.92 865.92 849.9 1108.10	78.144239226	865.92	849.90	Sunny(sunny)	True	False	849.90
2010-07-04 13:00:00 44532 13 865.60 865.60 865.60 840.5 1107.70	78.144239226	865.60	840.50	Sunny(sunny)	True	False	840.50
2010-07-04 14:00:00 44533 14 828.64 828.64 828.64 775.2 1060.40	78.144239226	828.64	775.20	Sunny(sunny)	True	False	775.20
2010-07-04 15:00:00 44534 15 733.85 733.85 733.85 695.1 939.10	78.144239226	733.85	695.10	Sunny(sunny)	True	False	695.10
2010-07-04 16:00:00 44535 16 563.30 563.30 563.30 555.8 744.40	75.6716818915	563.30	555.80	Sunny(sunny)	True	False	555.80
2010-07-04 17:00:00 44536 17 366.78 366.78 366.78 346.8 484.70	75.6716818915	366.78	346.80	Sunny(sunny)	True	False	346.80
2010-07-04 18:00:00 44537 18 170.87 170.87 170.87 149.8 225.80	75.6716818915	170.87	149.80	Sunny(sunny)	True	False	149.80
2010-07-04 19:00:00 44538 19 61.60 61.60 61.60 40.3 81.40	75.6716818915	61.60	40.30	Sunny(sunny)	True	False	40.30
2010-07-04 20:00:00 44539 20 5.15 5.15 5.15 4.9 6.80	75.6716818915	5.15	4.90	Sunny(sunny)	True	False	4.90
2010-07-04 21:00:00 44540 21 0.00 0.00 0.00 0.0 0.00	75.6716818915	0.00	0.00	Clear(clear)	True	False	0.00
2010-07-04 22:00:00 44541 22 0.00 0.00 0.00 0.0 0.00	75.6716818915	0.00	0.00	Clear(clear)	True	False	0.00
2010-07-04 23:00:00 44542 23 0.00 0.00 0.00 0.0 0.00	75.6716818915	0.00	0.00	Clear(fair)	True	False	0.00
2010-07-05 00:00:00 44543 0 0.00 0.00 0.00 0.0 0.00	75.6716818915	0.00	0.00	Clear(fair)	True	False	0.00
2010-07-05 01:00:00 44544 1 0.00 0.00 0.00 0.0 0.00	75.6716818915	0.00	0.00	Mostly_Clear(fair)	False	False	0.00
2010-07-05 02:00:00 44545 2 0.00 0.00 0.00 0.0 0.00	75.6716818915	0.00	0.00	Mostly_Clear(clear)	False	False	0.00
2010-07-05 03:00:00 44546 3 0.00 0.00 0.00 0.0 0.00	75.6716818915	0.00	0.00	Mostly_Clear(clear)	False	False	0.00
2010-07-05 04:00:00 44547 4 0.00 0.00 0.00 0.0 0.00	75.6716818915	0.00	0.00	Clear(clear)	True	False	0.00
2010-07-05 05:00:00 44548 5 0.23 0.23 0.23 0.0 0.30	75.6716818915	0.23	0.00	Clear(sunny)	True	False	0.00
2010-07-05 06:00:00 44549 6 58.80 58.80 58.80 46.2 77.70	75.6716818915	58.80	46.20	Sunny(sunny)	True	False	46.20
2010-07-05 07:00:00 44550 7 159.91 159.91 159.91 161.7 220.30	72.5868725869	159.91	161.70	Partly_Cloudy(sunny)	True	False	161.70
2010-07-05 08:00:00 44551 8 352.70 352.70 352.70 352.8 485.90	72.5868725869	352.70	352.80	Partly_Cloudy(sunny)	True	False	352.80
2010-07-05 09:00:00 44552 9 539.83 539.83 539.83 530.7 743.70	72.5868725869	539.83	530.70	Partly_Cloudy(sunny)	True	False	530.70
2010-07-05 10:00:00 44553 10 657.96 657.96 657.96 678.2 909.60	72.3352145671	657.96	678.20	Partly_Cloudy(sunny)	True	False	678.20
2010-07-05 11:00:00 44554 11 750.62 750.62 750.62 760.5 1037.70	72.3352145671	750.62	760.50	Partly_Cloudy(sunny)	True	False	760.50
2010-07-05 12:00:00 44555 12 801.55 801.55 801.55 817.3 1108.10	72.3352145671	801.55	817.30	Mostly_Sunny(sunny)	False	False	817.30
2010-07-05 13:00:00 44556 13 801.26 801.26 801.26 822.2 1107.70	72.3352145671	801.26	822.20	Partly_Cloudy(sunny)	True	False	822.20
2010-07-05 14:00:00 44557 14 767.04 767.04 767.04 770.8 1060.40	72.3352145671	767.04	770.80	Partly_Cloudy(sunny)	True	False	770.80
2010-07-05 15:00:00 44558 15 679.30 679.30 679.30 680.5 939.10	72.3352145671	679.30	680.50	Partly_Cloudy(sunny)	True	False	680.50
