2010-07-06 03:00:00 47450 3 0.00 0.00 0.00 0.0 0.00	76.6988538941	0.00	0.00	Clear(clear)	True	False	0.00
2010-07-06 04:00:00 47451 4 0.00 0.00 0.00 0.0 0.00	76.6988538941	0.00	0.00	Clear(clear)	True	False	0.00
2010-07-06 05:00:00 47452 5 0.23 0.23 0.23 0.0 0.30	76.6988538941	0.23	0.00	Clear(sunny)	True	False	0.00
2010-07-06 06:00:00 47453 6 59.60 59.60 59.60 27.7 77.70	76.6988538941	59.60	27.70	Sunny(sunny)	True	False	27.70
2010-07-06 07:00:00 47454 7 159.07 159.07 159.07 152.1 207.40	76.6988538941	159.07	152.10	Sunny(sunny)	True	False	152.10
2010-07-06 08:00:00 47455 8 372.68 372.68 372.68 341.2 485.90	76.6988538941	372.68	341.20	Sunny(sunny)	True	False	341.20
2010-07-06 09:00:00 47456 9 571.48 571.48 571.48 522.9 745.10	76.6988538941	571.48	522.90	Sunny(sunny)	True	False	522.90
2010-07-06 10:00:00 47457 10 733.30 733.30 733.30 665.8 919.50	79.7498640566	733.30	665.80	Sunny(sunny)	True	False	665.80
2010-07-06 11:00:00 47458 11 828.52 828.52 828.52 748.1 1038.90	79.7498640566	828.52	748.10	Sunny(sunny)	True	False	748.10
2010-07-06 12:00:00 47459 12 883.71 883.71 883.71 685.8 1108.10	79.7498640566	883.71	685.80	Sunny(sunny)	True	False	685.80
2010-07-06 13:00:00 47460 13 883.39 883.39 883.39 566.1 1107.70	79.7498640566	883.39	566.10	Sunny(sunny)	True	False	566.10
2010-07-06 14:00:00 47461 14 845.67 845.67 845.67 714.4 1060.40	79.7498640566	845.67	714.40	Sunny(sunny)	True	False	714.40
2010-07-06 15:00:00 47462 15 748.93 748.93 748.93 499.2 939.10	79.7498640566	748.93	499.20	Sunny(fair)	True	False	499.20
2010-07-06 16:00:00 47463 16 582.07 582.07 582.07 534.6 758.90	76.6988538941	582.07	534.60	Sunny(sunny)	True	False	534.60
2010-07-06 17:00:00 47464 17 382.50 382.50 382.50 334.5 498.70	76.6988538941	382.50	334.50	Sunny(sunny)	True	False	334.50
2010-07-06 18:00:00 47465 18 173.19 173.19 173.19 141.3 225.80	76.6988538941	173.19	141.30	Sunny(sunny)	True	False	141.30
2010-07-06 19:00:00 47466 19 62.43 62.43 62.43 43.9 81.40	76.6988538941	62.43	43.90	Mostly_Sunny(sunny)	False	False	43.90
2010-07-06 20:00:00 47467 20 5.22 5.22 5.22 1.8 6.80	76.6988538941	5.22	1.80	Mostly_Sunny(sunny)	False	False	1.80
2010-07-06 21:00:00 47468 21 0.00 0.00 0.00 0.0 0.00	76.6988538941	0.00	0.00	Mostly_Clear(clear)	False	False	0.00
2010-07-06 22:00:00 47469 22 0.00 0.00 0.00 0.0 0.00	76.6988538941	0.00	0.00	Mostly_Clear(fair)	False	False	0.00
2010-07-06 23:00:00 47470 23 0.00 0.00 0.00 0.0 0.00	76.6988538941	0.00	0.00	Mostly_Clear(fair)	False	False	0.00
2010-07-07 00:00:00 47471 0 0.00 0.00 0.00 0.0 0.00	76.6988538941	0.00	0.00	Mostly_Clear(fair)	False	False	0.00
2010-07-07 01:00:00 47472 1 0.00 0.00 0.00 0.0 0.00	76.6988538941	0.00	0.00	Clear(fair)	True	False	0.00
2010-07-07 02:00:00 47473 2 0.00 0.00 0.00 0.0 0.00	76.6988538941	0.00	0.00	Clear(fair)	True	False	0.00
2010-07-07 03:00:00 47474 3 0.00 0.00 0.00 0.0 0.00	76.6988538941	0.00	0.00	Clear(fair)	True	False	0.00
2010-07-07 04:00:00 47475 4 0.00 0.00 0.00 0.0 0.00	76.6988538941	0.00	0.00	Clear(cloudy)	True	False	0.00
2010-07-07 05:00:00 47476 5 0.23 0.23 0.23 0.0 0.30	76.6988538941	0.23	0.00	Clear(partly_cloudy)	True	False	0.00
2010-07-07 06:00:00 47477 6 59.60 59.60 59.60 41.1 77.70	76.6988538941	59.60	41.10	Sunny(mostly_cloudy)	True	False	41.10
2010-07-07 07:00:00 47478 7 159.07 159.07 159.07 155.3 207.40	76.6988538941	159.07	155.30	Sunny(partly_cloudy)	True	False	155.30
2010-07-07 08:00:00 47479 8 372.68 372.68 372.68 350.2 485.90	76.6988538941	372.68	350.20	Sunny(fair)	True	False	350.20
2010-07-07 09:00:00 47480 9 571.48 571.48 571.48 521.5 745.10	76.6988538941	571.48	521.50	Sunny(sunny)	True	False	521.50
2010-07-07 10:00:00 47481 10 733.30 733.30 733.30 656.0 919.50	79.7498640566	733.30	656.00	Sunny(sunny)	True	False	656.00
2010-07-07 11:00:00 47482 11 828.52 828.52 828.52 758.5 1038.90	79.7498640566	828.52	758.50	Sunny(sunny)	True	False	758.50
2010-07-07 12:00:00 47483 12 883.71 883.71 883.71 803.8 1108.10	79.7498640566	883.71	803.80	Sunny(sunny)	True	False	803.80
2010-07-07 13:00:00 47484 13 818.76 818.76 818.76 226.6 1107.70	73.9155035836	818.76	226.60	Partly_Cloudy(sunny)	True	False	226.60
2010-07-07 14:00:00 47485 14 783.80 783.80 783.80 5.3 1060.40	73.9155035836	783.80	5.30	Partly_Cloudy(fair)	True	False	5.30
2010-07-07 15:00:00 47486 15 694.14 694.14 694.14 646.8 939.10	73.9155035836	694.14	646.80	Partly_Cloudy(fair)	True	False	646.80
2010-07-07 16:00:00 47487 16 559.50 559.50 559.50 505.8 758.90	73.7248504622	559.50	505.80	Partly_Cloudy(fair)	True	False	505.80
2010-07-07 17:00:00 47488 17 367.67 367.67 367.67 312.2 498.70	73.7248504622	367.67	312.20	Partly_Cloudy(fair)	True	False	312.20
2010-07-07 18:00:00 47489 18 166.47 166.47 166.47 141.8 225.80	73.7248504622	166.47	141.80	Partly_Cloudy(mostly_cloudy)	True	False	141.80
2010-07-07 19:00:00 47490 19 60.01 60.01 60.01 41.0 81.40	73.7248504622	60.01	41.00	Partly_Cloudy(fair)	True	False	41.00
2010-07-07 20:00:00 47491 20 5.01 5.01 5.01 2.6 6.80	73.7248504622	5.01	2.60	Partly_Cloudy(sunny)	True	False	2.60
2010-07-07 21:00:00 47492 21 0.00 0.00 0.00 0.0 0.00	73.7248504622	0.00	0.00	Partly_Cloudy(clear)	True	False	0.00
2010-07-07 22:00:00 47493 22 0.00 0.00 0.00 0.0 0.00	73.7248504622	0.00	0.00	Partly_Cloudy(clear)	True	False	0.00
2010-07-07 23:00:00 47494 23 0.00 0.00 0.00 0.0 0.00	73.7248504622	0.00	0.00	Partly_Cloudy(partly_cloudy)	True	False	0.00
2010-07-08 00:00:00 47495 0 0.00 0.00 0.00 0.0 0.00	73.7248504622	0.00	0.00	Partly_Cloudy(fair)	True	False	0.00
2010-07-08 01:00:00 47496 1 0.00 0.00 0.00 0.0 0.00	73.7248504622	0.00	0.00	Partly_Cloudy(clear)	True	False	0.00
2010-07-08 02:00:00 47497 2 0.00 0.00 0.00 0.0 0.00	73.7248504622	0.00	0.00	Partly_Cloudy(clear)	True	False	0.00
2010-07-08 03:00:00 47498 3 0.00 0.00 0.00 0.0 0.00	73.7248504622	0.00	0.00	Partly_Cloudy(clear)	True	False	0.00
