2010-06-27 12:00:00 37307 12 814.42 814.42 814.42 724.0 1051.70	19.3496244176	814.42	724.00	Few_Showers(fair)	True	False	724.00
2010-06-27 13:00:00 37308 13 704.93 704.93 704.93 729.9 1024.00	77.438671045	704.93	729.90	Mostly_Sunny(fair)	False	False	729.90
2010-06-27 14:00:00 37309 14 659.70 659.70 659.70 664.1 958.30	68.8409242179	659.70	664.10	Mostly_Sunny(mostly_cloudy)	False	False	664.10
2010-06-27 15:00:00 37310 15 646.49 646.49 646.49 679.1 939.10	68.8409242179	646.49	679.10	Mostly_Sunny(fair)	False	False	679.10
2010-06-27 16:00:00 37311 16 544.42 506.53 506.53 519.5 735.80	73.9900136178	506.53	519.50	Partly_Cloudy(fair)	True	False	519.50
2010-06-27 17:00:00 37312 17 358.63 333.67 333.67 320.6 484.70	73.9900136178	333.67	320.60	Partly_Cloudy(fair)	True	False	320.60
2010-06-27 18:00:00 37313 18 162.63 151.31 151.31 145.0 219.80	73.9900136178	151.31	145.00	Partly_Cloudy(sunny)	True	False	145.00
2010-06-27 19:00:00 37314 19 60.23 56.04 56.04 36.8 81.40	73.9900136178	56.04	36.80	Partly_Cloudy(sunny)	True	False	36.80
2010-06-27 20:00:00 37315 20 4.96 4.61 4.61 1.0 6.70	73.9900136178	4.61	1.00	Partly_Cloudy(sunny)	True	False	1.00
2010-06-27 21:00:00 37316 21 0.00 0.00 0.00 0.0 0.00	73.9900136178	0.00	0.00	Partly_Cloudy(clear)	True	False	0.00
2010-06-27 22:00:00 37317 22 0.00 0.00 0.00 0.0 0.00	73.9900136178	0.00	0.00	Partly_Cloudy(clear)	True	False	0.00
2010-06-27 23:00:00 37318 23 0.00 0.00 0.00 0.0 0.00	73.9900136178	0.00	0.00	Partly_Cloudy(partly_cloudy)	True	False	0.00
2010-06-28 00:00:00 37319 0 0.00 0.00 0.00 0.0 0.00	73.9900136178	0.00	0.00	Partly_Cloudy(clear)	True	False	0.00
2010-06-28 01:00:00 37320 1 0.00 0.00 0.00 0.0 0.00	73.9900136178	0.00	0.00	Partly_Cloudy(partly_cloudy)	True	False	0.00
2010-06-28 02:00:00 37321 2 0.00 0.00 0.00 0.0 0.00	73.9900136178	0.00	0.00	Partly_Cloudy(clear)	True	False	0.00
2010-06-28 03:00:00 37322 3 0.00 0.00 0.00 0.0 0.00	73.9900136178	0.00	0.00	Partly_Cloudy(fair)	True	False	0.00
2010-06-28 04:00:00 37323 4 0.00 0.00 0.00 0.0 0.00	73.9900136178	0.00	0.00	Partly_Cloudy(partly_cloudy)	True	False	0.00
2010-06-28 05:00:00 37324 5 1.33 1.33 1.33 0.0 1.80	73.9900136178	1.33	0.00	Partly_Cloudy(sunny)	True	False	0.00
2010-06-28 06:00:00 37325 6 54.38 54.38 54.38 12.8 73.50	73.9900136178	54.38	12.80	Partly_Cloudy(sunny)	True	False	12.80
2010-06-28 07:00:00 37326 7 163.00 163.00 163.00 155.5 220.30	73.9900136178	163.00	155.50	Partly_Cloudy(sunny)	True	False	155.50
2010-06-28 08:00:00 37327 8 359.52 359.52 359.52 352.6 485.90	73.9900136178	359.52	352.60	Partly_Cloudy(sunny)	True	False	352.60
2010-06-28 09:00:00 37328 9 550.26 550.26 550.26 541.9 743.70	73.9900136178	550.26	541.90	Partly_Cloudy(sunny)	True	False	541.90
2010-06-28 10:00:00 37329 10 713.57 713.57 713.57 694.4 929.60	76.760930815	713.57	694.40	Partly_Cloudy(fair)	True	False	694.40
2010-06-28 11:00:00 37330 11 794.78 794.78 794.78 700.2 1035.40	76.760930815	794.78	700.20	Partly_Cloudy(sunny)	True	False	700.20
2010-06-28 12:00:00 37331 12 807.29 807.29 807.29 432.4 1051.70	76.760930815	807.29	432.40	Partly_Cloudy(sunny)	True	False	432.40
2010-06-28 13:00:00 37332 13 198.14 198.14 198.14 739.9 1024.00	19.3496244176	198.14	739.90	Isolated_T-Storms(sunny)	True	False	739.90
2010-06-28 14:00:00 37333 14 185.43 185.43 185.43 763.0 958.30	19.3496244176	185.43	763.00	Isolated_T-Storms(fair)	True	False	763.00
2010-06-28 15:00:00 37334 15 181.71 181.71 181.71 602.0 939.10	19.3496244176	181.71	602.00	Isolated_T-Storms(partly_cloudy)	True	False	602.00
2010-06-28 16:00:00 37335 16 142.37 142.37 142.37 218.3 735.80	19.3496244176	142.37	218.30	Scattered_T-Storms(mostly_cloudy)	True	False	218.30
2010-06-28 17:00:00 37336 17 93.79 93.79 93.79 102.1 484.70	19.3496244176	93.79	102.10	Scattered_T-Storms(mostly_cloudy)	True	False	102.10
2010-06-28 18:00:00 37337 18 42.53 42.53 42.53 91.6 219.80	19.3496244176	42.53	91.60	Scattered_T-Storms(partly_cloudy)	True	False	91.60
2010-06-28 19:00:00 37338 19 15.75 15.75 15.75 45.4 81.40	19.3496244176	15.75	45.40	Scattered_T-Storms(sunny)	True	False	45.40
2010-06-28 20:00:00 37339 20 1.30 1.30 1.30 2.8 6.70	19.3496244176	1.30	2.80	Scattered_T-Storms(sunny)	True	False	2.80
2010-06-28 21:00:00 37340 21 0.00 0.00 0.00 0.0 0.00	19.3496244176	0.00	0.00	Scattered_T-Storms(fair)	True	False	0.00
2010-06-28 22:00:00 37341 22 0.00 0.00 0.00 0.0 0.00	19.3496244176	0.00	0.00	Scattered_T-Storms(clear)	True	False	0.00
2010-06-28 23:00:00 37342 23 0.00 0.00 0.00 0.0 0.00	19.3496244176	0.00	0.00	Scattered_T-Storms(fair)	True	False	0.00
2010-06-29 00:00:00 37343 0 0.00 0.00 0.00 0.0 0.00	19.3496244176	0.00	0.00	Scattered_T-Storms(partly_cloudy)	True	False	0.00
2010-06-29 01:00:00 37344 1 0.00 0.00 0.00 0.0 0.00	19.3496244176	0.00	0.00	Scattered_T-Storms(partly_cloudy)	True	False	0.00
2010-06-29 02:00:00 37345 2 0.00 0.00 0.00 0.0 0.00	19.3496244176	0.00	0.00	Scattered_T-Storms(partly_cloudy)	True	False	0.00
2010-06-29 03:00:00 37346 3 0.00 0.00 0.00 0.0 0.00	19.3496244176	0.00	0.00	Scattered_T-Storms(mostly_cloudy)	True	False	0.00
2010-06-29 04:00:00 37347 4 0.00 0.00 0.00 0.0 0.00	19.3496244176	0.00	0.00	Few_Showers(cloudy)	True	False	0.00
2010-06-29 05:00:00 37348 5 0.35 0.35 0.35 0.0 1.80	19.3496244176	0.35	0.00	Few_Showers(partly_cloudy)	True	False	0.00
2010-06-29 06:00:00 37349 6 14.22 14.22 14.22 59.2 73.50	19.3496244176	14.22	59.20	Few_Showers(fog)	True	False	59.20
2010-06-29 07:00:00 37350 7 142.37 142.37 142.37 153.9 220.30	64.6258503401	142.37	153.90	Mostly_Cloudy(mostly_cloudy)	True	False	153.90
2010-06-29 08:00:00 37351 8 314.02 314.02 314.02 352.8 485.90	64.6258503401	314.02	352.80	Mostly_Cloudy(sunny)	True	False	352.80
2010-06-29 09:00:00 37352 9 480.62 480.62 480.62 567.7 743.70	64.6258503401	480.62	567.70	Mostly_Cloudy(fair)	True	False	567.70
2010-06-29 10:00:00 37353 10 713.57 713.57 713.57 702.1 929.60	76.760930815	713.57	702.10	Partly_Cloudy(sunny)	True	False	702.10
2010-06-29 11:00:00 37354 11 794.78 794.78 794.78 548.6 1035.40	76.760930815	794.78	548.60	Partly_Cloudy(partly_cloudy)	True	False	548.60
2010-06-29 12:00:00 37355 12 807.29 807.29 807.29 812.2 1051.70	76.760930815	807.29	812.20	Partly_Cloudy(partly_cloudy)	True	False	812.20
