2010-05-30 09:00:00 4232 9 652.31 652.31 652.31 720.1 770.00	84.7153465347	652.31	720.10	Sunny(sunny)	True	False	720.10
2010-05-30 10:00:00 4233 10 919.07 919.07 904.05 928.4 966.70	95.0730647709	904.05	928.40	Sunny(sunny)	True	False	928.40
2010-05-30 11:00:00 4234 11 999.98 999.98 983.64 1051.8 1051.80	95.0730647709	983.64	1051.80	Sunny(sunny)	True	False	1051.80
2010-05-30 12:00:00 4235 12 1040.29 1040.29 1023.29 1094.2 1094.20	95.0730647709	1023.29	1094.20	Sunny(sunny)	True	False	1094.20
2010-05-30 13:00:00 4236 13 1026.69 1026.69 1009.92 1079.9 1079.90	93.5194805195	1009.92	1079.90	Mostly_Sunny(sunny)	False	False	1079.90
2010-05-30 14:00:00 4237 14 962.90 962.90 947.17 1012.8 1012.80	93.5194805195	947.17	1012.80	Mostly_Sunny(sunny)	False	False	1012.80
2010-05-30 15:00:00 4238 15 849.19 849.19 835.32 883.5 893.20	93.5194805195	835.32	883.50	Mostly_Sunny(sunny)	False	False	883.50
2010-05-30 16:00:00 4239 16 680.82 680.82 669.69 690.5 716.10	93.5194805195	669.69	690.50	Mostly_Sunny(sunny)	False	False	690.50
2010-05-30 17:00:00 4240 17 460.91 460.91 453.38 419.6 484.80	93.5194805195	453.38	419.60	Mostly_Sunny(sunny)	False	False	419.60
2010-05-30 18:00:00 4241 18 186.06 186.06 183.02 161.0 195.70	93.5194805195	183.02	161.00	Mostly_Sunny(sunny)	False	False	161.00
2010-05-30 19:00:00 4242 19 51.25 51.25 56.58 26.7 60.50	84.7153465347	56.58	26.70	Sunny(sunny)	True	False	26.70
2010-05-30 20:00:00 4243 20 1.19 1.19 1.31 0.7 1.40	84.7153465347	1.31	0.70	Sunny(sunny)	True	False	0.70
2010-05-30 21:00:00 4244 21 0.00 0.00 0.00 0.0 0.00	84.7153465347	0.00	0.00	Clear(clear)	True	False	0.00
2010-05-30 22:00:00 4245 22 0.00 0.00 0.00 0.0 0.00	84.7153465347	0.00	0.00	Clear(fair)	True	False	0.00
2010-05-30 23:00:00 4246 23 0.00 0.00 0.00 0.0 0.00	84.7153465347	0.00	0.00	Clear(clear)	True	False	0.00
2010-05-31 00:00:00 4247 0 0.00 0.00 0.00 0.0 0.00	84.7153465347	0.00	0.00	Clear(clear)	True	False	0.00
2010-05-31 01:00:00 4248 1 0.00 0.00 0.00 0.0 0.00	84.7153465347	0.00	0.00	Mostly_Clear(clear)	False	False	0.00
2010-05-31 02:00:00 4249 2 0.00 0.00 0.00 0.0 0.00	84.7153465347	0.00	0.00	Mostly_Clear(clear)	False	False	0.00
2010-05-31 03:00:00 4250 3 0.00 0.00 0.00 0.0 0.00	84.7153465347	0.00	0.00	Mostly_Clear(clear)	False	False	0.00
2010-05-31 04:00:00 4251 4 0.00 0.00 0.00 0.0 0.00	80.0223630265	0.00	0.00	Partly_Cloudy(clear)	True	False	0.00
2010-05-31 05:00:00 4252 5 0.56 0.56 0.56 0.0 0.70	80.0223630265	0.56	0.00	Partly_Cloudy(sunny)	True	False	0.00
2010-05-31 06:00:00 4253 6 58.18 58.18 58.18 48.1 72.70	80.0223630265	58.18	48.10	Partly_Cloudy(sunny)	True	False	48.10
2010-05-31 07:00:00 4254 7 214.70 214.70 214.70 228.2 268.30	80.0223630265	214.70	228.20	Partly_Cloudy(sunny)	True	False	228.20
2010-05-31 08:00:00 4255 8 425.56 425.56 425.56 491.2 531.80	80.0223630265	425.56	491.20	Partly_Cloudy(sunny)	True	False	491.20
2010-05-31 09:00:00 4256 9 616.17 616.17 616.17 720.4 770.00	80.0223630265	616.17	720.40	Partly_Cloudy(sunny)	True	False	720.40
2010-05-31 10:00:00 4257 10 919.07 919.07 919.07 882.6 966.70	95.0730647709	919.07	882.60	Sunny(sunny)	True	False	882.60
2010-05-31 11:00:00 4258 11 999.98 999.98 999.98 982.4 1051.80	95.0730647709	999.98	982.40	Sunny(sunny)	True	False	982.40
2010-05-31 12:00:00 4259 12 1040.29 1040.29 1040.29 1030.3 1094.20	95.0730647709	1040.29	1030.30	Sunny(sunny)	True	False	1030.30
2010-05-31 13:00:00 4260 13 929.35 929.35 929.35 896.5 1079.90	86.0584518167	929.35	896.50	Partly_Cloudy(sunny)	True	False	896.50
2010-05-31 14:00:00 4261 14 871.60 871.60 871.60 887.0 1012.80	86.0584518167	871.60	887.00	Partly_Cloudy(fair)	True	False	887.00
2010-05-31 15:00:00 4262 15 768.67 768.67 768.67 846.8 893.20	86.0584518167	768.67	846.80	Partly_Cloudy(sunny)	True	False	846.80
2010-05-31 16:00:00 4263 16 573.04 573.04 573.04 538.5 716.10	80.0223630265	573.04	538.50	Partly_Cloudy(fair)	True	False	538.50
2010-05-31 17:00:00 4264 17 387.95 387.95 387.95 60.9 484.80	80.0223630265	387.95	60.90	Partly_Cloudy(fair)	True	False	60.90
2010-05-31 18:00:00 4265 18 156.60 156.60 156.60 213.0 195.70	80.0223630265	156.60	213.00	Partly_Cloudy(thunder)	True	False	213.00
2010-05-31 19:00:00 4266 19 48.41 48.41 48.41 42.8 60.50	80.0223630265	48.41	42.80	Partly_Cloudy(partly_cloudy)	True	False	42.80
2010-05-31 20:00:00 4267 20 1.12 1.12 1.12 0.3 1.40	80.0223630265	1.12	0.30	Partly_Cloudy(sunny)	True	False	0.30
2010-05-31 21:00:00 4268 21 0.00 0.00 0.00 0.0 0.00	80.0223630265	0.00	0.00	Partly_Cloudy(fair)	True	False	0.00
2010-05-31 22:00:00 4269 22 0.00 0.00 0.00 0.0 0.00	60.909555442	0.00	0.00	Mostly_Cloudy(mostly_cloudy)	True	False	0.00
2010-05-31 23:00:00 4270 23 0.00 0.00 0.00 0.0 0.00	60.909555442	0.00	0.00	Mostly_Cloudy(mostly_cloudy)	True	False	0.00
2010-06-01 00:00:00 4271 0 0.00 0.00 0.00 0.0 0.00	60.909555442	0.00	0.00	Mostly_Cloudy(mostly_cloudy)	True	False	0.00
2010-06-01 01:00:00 4272 1 0.00 0.00 0.00 0.0 0.00	60.909555442	0.00	0.00	Mostly_Cloudy(mostly_cloudy)	True	False	0.00
2010-06-01 02:00:00 4273 2 0.00 0.00 0.00 0.0 0.00	60.909555442	0.00	0.00	Mostly_Cloudy(partly_cloudy)	True	False	0.00
2010-06-01 03:00:00 4274 3 0.00 0.00 0.00 0.0 0.00	60.909555442	0.00	0.00	Mostly_Cloudy(fog)	True	False	0.00
2010-06-01 04:00:00 4275 4 0.00 0.00 0.00 0.0 0.00	12.6287505598	0.00	0.00	Few_Showers(mostly_cloudy)	True	False	0.00
2010-06-01 05:00:00 4276 5 0.09 0.09 0.09 0.0 0.70	12.6287505598	0.09	0.00	Few_Showers(sunny)	True	False	0.00
2010-06-01 06:00:00 4277 6 9.18 9.18 9.18 42.1 72.70	12.6287505598	9.18	42.10	Few_Showers(partly_cloudy)	True	False	42.10
2010-06-01 07:00:00 4278 7 33.88 33.88 33.88 235.5 268.30	12.6287505598	33.88	235.50	Few_Showers(fair)	True	False	235.50
2010-06-01 08:00:00 4279 8 67.16 67.16 67.16 435.7 531.80	12.6287505598	67.16	435.70	Few_Showers(fair)	True	False	435.70
2010-06-01 09:00:00 4280 9 97.24 97.24 97.24 669.2 770.00	12.6287505598	97.24	669.20	Few_Showers(mostly_cloudy)	True	False	669.20
