2010-06-01 01:00:00 6192 1 0.00 0.00 0.00 0.0 0.00	12.6287505598	0.00	0.00	Scattered_T-Storms(mostly_cloudy)	True	False	0.00
2010-06-01 02:00:00 6193 2 0.00 0.00 0.00 0.0 0.00	12.6287505598	0.00	0.00	Scattered_T-Storms(partly_cloudy)	True	False	0.00
2010-06-01 03:00:00 6194 3 0.00 0.00 0.00 0.0 0.00	12.6287505598	0.00	0.00	Scattered_T-Storms(fog)	True	False	0.00
2010-06-01 04:00:00 6195 4 0.00 0.00 0.00 0.0 0.00	12.6287505598	0.00	0.00	Few_Showers(mostly_cloudy)	True	False	0.00
2010-06-01 05:00:00 6196 5 0.09 0.09 0.09 0.0 0.70	12.6287505598	0.09	0.00	Few_Showers(sunny)	True	False	0.00
2010-06-01 06:00:00 6197 6 9.18 9.18 9.18 42.1 72.70	12.6287505598	9.18	42.10	Few_Showers(partly_cloudy)	True	False	42.10
2010-06-01 07:00:00 6198 7 33.88 33.88 33.88 235.5 268.30	12.6287505598	33.88	235.50	Few_Showers(fair)	True	False	235.50
2010-06-01 08:00:00 6199 8 67.16 67.16 67.16 435.7 531.80	12.6287505598	67.16	435.70	Few_Showers(fair)	True	False	435.70
2010-06-01 09:00:00 6200 9 97.24 97.24 97.24 669.2 770.00	12.6287505598	97.24	669.20	Few_Showers(mostly_cloudy)	True	False	669.20
2010-06-01 10:00:00 6201 10 120.21 120.21 120.21 813.4 952.40	12.6215390314	120.21	813.40	Scattered_T-Storms(mostly_cloudy)	True	False	813.40
2010-06-01 11:00:00 6202 11 132.75 132.75 132.75 833.3 1051.80	12.6215390314	132.75	833.30	Scattered_T-Storms(mostly_cloudy)	True	False	833.30
2010-06-01 12:00:00 6203 12 138.10 138.10 138.10 882.1 1094.20	12.6215390314	138.10	882.10	Scattered_T-Storms(partly_cloudy)	True	False	882.10
2010-06-01 13:00:00 6204 13 136.30 136.30 136.30 499.8 1079.90	12.6215390314	136.30	499.80	Scattered_T-Storms(mostly_cloudy)	True	False	499.80
2010-06-01 14:00:00 6205 14 127.83 127.83 127.83 490.2 1012.80	12.6215390314	127.83	490.20	Scattered_T-Storms(mostly_cloudy)	True	False	490.20
2010-06-01 15:00:00 6206 15 112.74 112.74 112.74 488.5 893.20	12.6215390314	112.74	488.50	Scattered_T-Storms(light_rain)	True	False	488.50
2010-06-01 16:00:00 6207 16 90.43 90.43 90.43 105.4 716.10	12.6287505598	90.43	105.40	T-Storms(thunder)	True	False	105.40
2010-06-01 17:00:00 6208 17 52.99 52.99 52.99 265.4 419.60	12.6287505598	52.99	265.40	T-Storms(thunder_in_the_vicinity)	True	False	265.40
2010-06-01 18:00:00 6209 18 27.05 27.05 27.05 15.0 214.20	12.6287505598	27.05	15.00	T-Storms(t-storm)	True	False	15.00
2010-06-01 19:00:00 6210 19 6.54 6.54 6.54 27.4 51.80	12.6287505598	6.54	27.40	Scattered_T-Storms(mostly_cloudy)	True	False	27.40
2010-06-01 20:00:00 6211 20 0.30 0.30 0.30 0.0 2.40	12.6287505598	0.30	0.00	Scattered_T-Storms(cloudy)	True	False	0.00
2010-06-01 21:00:00 6212 21 0.00 0.00 0.00 0.0 0.00	12.6287505598	0.00	0.00	Scattered_T-Storms(partly_cloudy)	True	False	0.00
2010-06-01 22:00:00 6213 22 0.00 0.00 0.00 0.0 0.00	80.0223630265	0.00	0.00	Partly_Cloudy(mostly_cloudy)	True	False	0.00
2010-06-01 23:00:00 6214 23 0.00 0.00 0.00 0.0 0.00	80.0223630265	0.00	0.00	Partly_Cloudy(fair)	True	False	0.00
2010-06-02 00:00:00 6215 0 0.00 0.00 0.00 0.0 0.00	80.0223630265	0.00	0.00	Partly_Cloudy(fog)	True	False	0.00
2010-06-02 01:00:00 6216 1 0.00 0.00 0.00 0.0 0.00	92.6202012672	0.00	0.00	Clear(fog)	True	False	0.00
2010-06-02 02:00:00 6217 2 0.00 0.00 0.00 0.0 0.00	92.6202012672	0.00	0.00	Clear(light_rain)	True	False	0.00
2010-06-02 03:00:00 6218 3 0.00 0.00 0.00 0.0 0.00	92.6202012672	0.00	0.00	Clear(mostly_cloudy)	True	False	0.00
2010-06-02 04:00:00 6219 4 0.00 0.00 0.00 0.0 0.00	92.6202012672	0.00	0.00	Mostly_Clear(cloudy)	False	False	0.00
2010-06-02 05:00:00 6220 5 0.65 0.65 0.65 0.0 0.70	92.6202012672	0.65	0.00	Mostly_Clear(fog)	False	False	0.00
2010-06-02 06:00:00 6221 6 67.33 67.33 67.33 54.0 72.70	92.6202012672	67.33	54.00	Mostly_Sunny(fog)	False	False	54.00
2010-06-02 07:00:00 6222 7 248.50 248.50 248.50 244.2 268.30	92.6202012672	248.50	244.20	Mostly_Sunny(fog)	False	False	244.20
2010-06-02 08:00:00 6223 8 492.55 492.55 492.55 507.0 531.80	92.6202012672	492.55	507.00	Mostly_Sunny(sunny)	False	False	507.00
2010-06-02 09:00:00 6224 9 713.18 713.18 713.18 737.0 770.00	92.6202012672	713.18	737.00	Mostly_Sunny(sunny)	False	False	737.00
2010-06-02 10:00:00 6225 10 908.30 908.30 908.30 915.8 952.40	95.3695926081	908.30	915.80	Sunny(sunny)	True	False	915.80
2010-06-02 11:00:00 6226 11 1003.10 1003.10 1003.10 1017.0 1051.80	95.3695926081	1003.10	1017.00	Sunny(sunny)	True	False	1017.00
2010-06-02 12:00:00 6227 12 1043.53 1043.53 1043.53 1052.9 1094.20	95.3695926081	1043.53	1052.90	Sunny(sunny)	True	False	1052.90
2010-06-02 13:00:00 6228 13 1029.90 1029.90 1029.90 1034.5 1079.90	95.3695926081	1029.90	1034.50	Sunny(sunny)	True	False	1034.50
2010-06-02 14:00:00 6229 14 965.90 965.90 965.90 961.2 1012.80	95.3695926081	965.90	961.20	Sunny(sunny)	True	False	961.20
2010-06-02 15:00:00 6230 15 851.84 851.84 851.84 809.2 893.20	95.3695926081	851.84	809.20	Sunny(sunny)	True	False	809.20
2010-06-02 16:00:00 6231 16 663.25 663.25 663.25 611.2 716.10	92.6202012672	663.25	611.20	Sunny(sunny)	True	False	611.20
2010-06-02 17:00:00 6232 17 388.63 388.63 388.63 293.6 419.60	92.6202012672	388.63	293.60	Sunny(partly_cloudy)	True	False	293.60
2010-06-02 18:00:00 6233 18 198.39 198.39 198.39 162.1 214.20	92.6202012672	198.39	162.10	Sunny(sunny)	True	False	162.10
2010-06-02 19:00:00 6234 19 47.98 47.98 47.98 36.3 51.80	92.6202012672	47.98	36.30	Mostly_Sunny(partly_cloudy)	False	False	36.30
2010-06-02 20:00:00 6235 20 2.22 2.22 2.22 0.1 2.40	92.6202012672	2.22	0.10	Mostly_Sunny(fair)	False	False	0.10
2010-06-02 21:00:00 6236 21 0.00 0.00 0.00 0.0 0.00	92.6202012672	0.00	0.00	Mostly_Clear(fair)	False	False	0.00
2010-06-02 22:00:00 6237 22 0.00 0.00 0.00 0.0 0.00	80.0223630265	0.00	0.00	Partly_Cloudy(clear)	True	False	0.00
2010-06-02 23:00:00 6238 23 0.00 0.00 0.00 0.0 0.00	80.0223630265	0.00	0.00	Partly_Cloudy(clear)	True	False	0.00
2010-06-03 00:00:00 6239 0 0.00 0.00 0.00 0.0 0.00	80.0223630265	0.00	0.00	Partly_Cloudy(clear)	True	False	0.00
2010-06-03 01:00:00 6240 1 0.00 0.00 0.00 0.0 0.00	80.0223630265	0.00	0.00	Partly_Cloudy(clear)	True	False	0.00
