2010-06-30 09:00:00 40688 9 545.17 545.17 545.17 617.1 743.70	73.3056583341	545.17	617.10	Sunny(sunny)	True	False	617.10
2010-06-30 10:00:00 40689 10 712.99 712.99 712.99 768.1 929.60	76.6988538941	712.99	768.10	Sunny(sunny)	True	False	768.10
2010-06-30 11:00:00 40690 11 795.90 795.90 795.90 861.7 1037.70	76.6988538941	795.90	861.70	Sunny(sunny)	True	False	861.70
2010-06-30 12:00:00 40691 12 849.90 849.90 849.90 906.5 1108.10	76.6988538941	849.90	906.50	Sunny(sunny)	True	False	906.50
2010-06-30 13:00:00 40692 13 849.59 849.59 849.59 909.6 1107.70	76.6988538941	849.59	909.60	Sunny(sunny)	True	False	909.60
2010-06-30 14:00:00 40693 14 813.31 813.31 813.31 870.8 1060.40	76.6988538941	813.31	870.80	Sunny(sunny)	True	False	870.80
2010-06-30 15:00:00 40694 15 720.28 720.28 720.28 774.3 939.10	76.6988538941	720.28	774.30	Sunny(sunny)	True	False	774.30
2010-06-30 16:00:00 40695 16 545.69 545.69 570.95 611.2 744.40	73.3056583341	570.95	611.20	Sunny(sunny)	True	False	611.20
2010-06-30 17:00:00 40696 17 355.31 355.31 371.76 380.9 484.70	73.3056583341	371.76	380.90	Sunny(sunny)	True	False	380.90
2010-06-30 18:00:00 40697 18 165.52 165.52 173.19 155.4 225.80	73.3056583341	173.19	155.40	Sunny(fair)	True	False	155.40
2010-06-30 19:00:00 40698 19 59.67 59.67 62.43 29.4 81.40	73.3056583341	62.43	29.40	Sunny(fair)	True	False	29.40
2010-06-30 20:00:00 40699 20 4.98 4.98 5.22 2.2 6.80	73.3056583341	5.22	2.20	Sunny(sunny)	True	False	2.20
2010-06-30 21:00:00 40700 21 0.00 0.00 0.00 0.0 0.00	73.3056583341	0.00	0.00	Clear(fair)	True	False	0.00
2010-06-30 22:00:00 40701 22 0.00 0.00 0.00 0.0 0.00	73.3056583341	0.00	0.00	Clear(clear)	True	False	0.00
2010-06-30 23:00:00 40702 23 0.00 0.00 0.00 0.0 0.00	73.3056583341	0.00	0.00	Clear(clear)	True	False	0.00
2010-07-01 00:00:00 40703 0 0.00 0.00 0.00 0.0 0.00	73.3056583341	0.00	0.00	Clear(cloudy)	True	False	0.00
2010-07-01 01:00:00 40704 1 0.00 0.00 0.00 0.0 0.00	73.3056583341	0.00	0.00	Clear(cloudy)	True	False	0.00
2010-07-01 02:00:00 40705 2 0.00 0.00 0.00 0.0 0.00	73.3056583341	0.00	0.00	Clear(cloudy)	True	False	0.00
2010-07-01 03:00:00 40706 3 0.00 0.00 0.00 0.0 0.00	73.3056583341	0.00	0.00	Clear(fair)	True	False	0.00
2010-07-01 04:00:00 40707 4 0.00 0.00 0.00 0.0 0.00	73.3056583341	0.00	0.00	Clear(partly_cloudy)	True	False	0.00
2010-07-01 05:00:00 40708 5 1.32 1.32 1.32 0.3 1.80	73.3056583341	1.32	0.30	Clear(fair)	True	False	0.30
2010-07-01 06:00:00 40709 6 56.96 56.96 56.96 31.2 77.70	73.3056583341	56.96	31.20	Sunny(sunny)	True	False	31.20
2010-07-01 07:00:00 40710 7 161.49 161.49 161.49 174.2 220.30	73.3056583341	161.49	174.20	Sunny(sunny)	True	False	174.20
2010-07-01 08:00:00 40711 8 356.19 356.19 356.19 404.9 485.90	73.3056583341	356.19	404.90	Sunny(sunny)	True	False	404.90
2010-07-01 09:00:00 40712 9 545.17 545.17 545.17 607.6 743.70	73.3056583341	545.17	607.60	Sunny(sunny)	True	False	607.60
2010-07-01 10:00:00 40713 10 712.99 712.99 712.99 746.7 929.60	76.6988538941	712.99	746.70	Sunny(sunny)	True	False	746.70
2010-07-01 11:00:00 40714 11 795.90 795.90 795.90 691.6 1037.70	76.6988538941	795.90	691.60	Sunny(sunny)	True	False	691.60
2010-07-01 12:00:00 40715 12 849.90 849.90 849.90 800.5 1108.10	76.6988538941	849.90	800.50	Sunny(mostly_cloudy)	True	False	800.50
2010-07-01 13:00:00 40716 13 849.59 849.59 849.59 780.3 1107.70	76.6988538941	849.59	780.30	Sunny(fair)	True	False	780.30
2010-07-01 14:00:00 40717 14 813.31 813.31 813.31 676.3 1060.40	76.6988538941	813.31	676.30	Sunny(partly_cloudy)	True	False	676.30
2010-07-01 15:00:00 40718 15 720.28 720.28 720.28 458.2 939.10	76.6988538941	720.28	458.20	Sunny(fair)	True	False	458.20
2010-07-01 16:00:00 40719 16 545.69 545.69 545.69 424.4 744.40	73.3056583341	545.69	424.40	Sunny(mostly_cloudy)	True	False	424.40
2010-07-01 17:00:00 40720 17 355.31 355.31 355.31 244.2 484.70	73.3056583341	355.31	244.20	Sunny(fair)	True	False	244.20
2010-07-01 18:00:00 40721 18 165.52 165.52 165.52 117.6 225.80	73.3056583341	165.52	117.60	Sunny(fair)	True	False	117.60
2010-07-01 19:00:00 40722 19 59.67 59.67 59.67 26.2 81.40	73.3056583341	59.67	26.20	Sunny(fair)	True	False	26.20
2010-07-01 20:00:00 40723 20 4.98 4.98 4.98 1.7 6.80	73.3056583341	4.98	1.70	Sunny(sunny)	True	False	1.70
2010-07-01 21:00:00 40724 21 0.00 0.00 0.00 0.0 0.00	73.3056583341	0.00	0.00	Clear(clear)	True	False	0.00
2010-07-01 22:00:00 40725 22 0.00 0.00 0.00 0.0 0.00	73.3056583341	0.00	0.00	Clear(clear)	True	False	0.00
2010-07-01 23:00:00 40726 23 0.00 0.00 0.00 0.0 0.00	73.3056583341	0.00	0.00	Clear(clear)	True	False	0.00
2010-07-02 00:00:00 40727 0 0.00 0.00 0.00 0.0 0.00	73.3056583341	0.00	0.00	Clear(clear)	True	False	0.00
2010-07-02 01:00:00 40728 1 0.00 0.00 0.00 0.0 0.00	73.3056583341	0.00	0.00	Clear(clear)	True	False	0.00
2010-07-02 02:00:00 40729 2 0.00 0.00 0.00 0.0 0.00	73.3056583341	0.00	0.00	Clear(clear)	True	False	0.00
2010-07-02 03:00:00 40730 3 0.00 0.00 0.00 0.0 0.00	73.3056583341	0.00	0.00	Clear(clear)	True	False	0.00
2010-07-02 04:00:00 40731 4 0.00 0.00 0.00 0.0 0.00	73.3056583341	0.00	0.00	Clear(clear)	True	False	0.00
2010-07-02 05:00:00 40732 5 1.32 1.32 1.32 0.2 1.80	73.3056583341	1.32	0.20	Clear(sunny)	True	False	0.20
2010-07-02 06:00:00 40733 6 56.96 56.96 56.96 33.8 77.70	73.3056583341	56.96	33.80	Sunny(sunny)	True	False	33.80
2010-07-02 07:00:00 40734 7 161.49 161.49 161.49 174.8 220.30	73.3056583341	161.49	174.80	Sunny(sunny)	True	False	174.80
2010-07-02 08:00:00 40735 8 356.19 356.19 356.19 402.7 485.90	73.3056583341	356.19	402.70	Sunny(sunny)	True	False	402.70
2010-07-02 09:00:00 40736 9 545.17 545.17 545.17 601.8 743.70	73.3056583341	545.17	601.80	Sunny(sunny)	True	False	601.80
