2010-07-24 11:00:00 69010 11 964.73 964.73 964.73 980.3 1038.90	92.8611844587	964.73	980.30	Sunny(fair)	True	False	980.30
2010-07-24 12:00:00 69011 12 1028.99 1028.99 1028.99 877.6 1108.10	92.8611844587	1028.99	877.60	Sunny(sunny)	True	False	877.60
2010-07-24 13:00:00 69012 13 843.31 843.31 843.31 893.3 1107.70	76.1316484346	843.31	893.30	Partly_Cloudy(sunny)	True	False	893.30
2010-07-24 14:00:00 69013 14 807.30 807.30 807.30 940.8 1060.40	76.1316484346	807.30	940.80	Partly_Cloudy(fair)	True	False	940.80
2010-07-24 15:00:00 69014 15 714.95 714.95 714.95 800.4 939.10	76.1316484346	714.95	800.40	Partly_Cloudy(sunny)	True	False	800.40
2010-07-24 16:00:00 69015 16 567.63 567.63 567.63 609.8 758.90	74.7967479675	567.63	609.80	Partly_Cloudy(sunny)	True	False	609.80
2010-07-24 17:00:00 69016 17 373.01 373.01 373.01 401.9 498.70	74.7967479675	373.01	401.90	Partly_Cloudy(sunny)	True	False	401.90
2010-07-24 18:00:00 69017 18 170.09 170.09 170.09 163.6 227.40	74.7967479675	170.09	163.60	Partly_Cloudy(partly_cloudy)	True	False	163.60
2010-07-24 19:00:00 69018 19 18.55 18.55 18.55 29.6 73.80	25.1376535366	18.55	29.60	Isolated_T-Storms(fair)	True	False	29.60
2010-07-24 20:00:00 69019 20 1.71 1.71 1.71 0.0 6.80	25.1376535366	1.71	0.00	Isolated_T-Storms(sunny)	True	False	0.00
2010-07-24 21:00:00 69020 21 0.00 0.00 0.00 0.0 0.00	25.1376535366	0.00	0.00	Isolated_T-Storms(clear)	True	False	0.00
2010-07-24 22:00:00 69021 22 0.00 0.00 0.00 0.0 0.00	25.1376535366	0.00	0.00	Isolated_T-Storms(clear)	True	False	0.00
2010-07-24 23:00:00 69022 23 0.00 0.00 0.00 0.0 0.00	25.1376535366	0.00	0.00	Isolated_T-Storms(clear)	True	False	0.00
2010-07-25 00:00:00 69023 0 0.00 0.00 0.00 0.0 0.00	25.1376535366	0.00	0.00	Isolated_T-Storms(fair)	True	False	0.00
2010-07-25 01:00:00 69024 1 0.00 0.00 0.00 0.0 0.00	74.7967479675	0.00	0.00	Partly_Cloudy(fair)	True	False	0.00
2010-07-25 02:00:00 69025 2 0.00 0.00 0.00 0.0 0.00	74.7967479675	0.00	0.00	Partly_Cloudy(clear)	True	False	0.00
2010-07-25 03:00:00 69026 3 0.00 0.00 0.00 0.0 0.00	74.7967479675	0.00	0.00	Partly_Cloudy(mostly_cloudy)	True	False	0.00
2010-07-25 04:00:00 69027 4 0.00 0.00 0.00 0.0 0.00	74.7967479675	0.00	0.00	Mostly_Clear(clear)	False	False	0.00
2010-07-25 05:00:00 69028 5 0.00 0.00 0.00 0.0 0.00	74.7967479675	0.00	0.00	Mostly_Clear(clear)	False	False	0.00
2010-07-25 06:00:00 69029 6 58.12 58.12 58.12 14.1 77.70	74.7967479675	58.12	14.10	Mostly_Sunny(sunny)	False	False	14.10
2010-07-25 07:00:00 69030 7 151.91 151.91 151.91 151.5 203.10	74.7967479675	151.91	151.50	Mostly_Sunny(sunny)	False	False	151.50
2010-07-25 08:00:00 69031 8 353.19 353.19 353.19 418.2 472.20	74.7967479675	353.19	418.20	Mostly_Sunny(sunny)	False	False	418.20
2010-07-25 09:00:00 69032 9 557.31 557.31 557.31 644.7 745.10	74.7967479675	557.31	644.70	Mostly_Sunny(sunny)	False	False	644.70
2010-07-25 10:00:00 69033 10 700.03 700.03 700.03 778.0 919.50	76.1316484346	700.03	778.00	Partly_Cloudy(partly_cloudy)	True	False	778.00
2010-07-25 11:00:00 69034 11 790.93 790.93 790.93 981.8 1038.90	76.1316484346	790.93	981.80	Partly_Cloudy(fair)	True	False	981.80
2010-07-25 12:00:00 69035 12 843.61 843.61 843.61 919.7 1108.10	76.1316484346	843.61	919.70	Partly_Cloudy(fair)	True	False	919.70
2010-07-25 13:00:00 69036 13 212.40 212.40 212.40 983.8 1107.70	19.1748668412	212.40	983.80	Isolated_T-Storms(fair)	True	False	983.80
2010-07-25 14:00:00 69037 14 203.33 203.33 203.33 255.2 1060.40	19.1748668412	203.33	255.20	Isolated_T-Storms(fair)	True	False	255.20
2010-07-25 15:00:00 69038 15 180.07 180.07 180.07 56.1 939.10	19.1748668412	180.07	56.10	Isolated_T-Storms(light_rain)	True	False	56.10
2010-07-25 16:00:00 69039 16 419.50 419.50 419.50 38.6 758.90	55.2770448549	419.50	38.60	Mostly_Cloudy(light_rain)	True	False	38.60
2010-07-25 17:00:00 69040 17 275.67 275.67 275.67 152.0 498.70	55.2770448549	275.67	152.00	Mostly_Cloudy(light_rain)	True	False	152.00
2010-07-25 18:00:00 69041 18 125.70 125.70 125.70 213.6 227.40	55.2770448549	125.70	213.60	Mostly_Cloudy(mostly_cloudy)	True	False	213.60
2010-07-25 19:00:00 69042 19 40.79 40.79 40.79 37.6 73.80	55.2770448549	40.79	37.60	Mostly_Cloudy(sunny)	True	False	37.60
2010-07-25 20:00:00 69043 20 3.76 3.76 3.76 2.7 6.80	55.2770448549	3.76	2.70	Mostly_Cloudy(sunny)	True	False	2.70
2010-07-25 21:00:00 69044 21 0.00 0.00 0.00 0.0 0.00	55.2770448549	0.00	0.00	Mostly_Cloudy(clear)	True	False	0.00
2010-07-25 22:00:00 69045 22 0.00 0.00 0.00 0.0 0.00	55.2770448549	0.00	0.00	Mostly_Cloudy(clear)	True	False	0.00
2010-07-25 23:00:00 69046 23 0.00 0.00 0.00 0.0 0.00	55.2770448549	0.00	0.00	Mostly_Cloudy(fair)	True	False	0.00
2010-07-26 00:00:00 69047 0 0.00 0.00 0.00 0.0 0.00	55.2770448549	0.00	0.00	Mostly_Cloudy(clear)	True	False	0.00
2010-07-26 01:00:00 69048 1 0.00 0.00 0.00 0.0 0.00	74.7967479675	0.00	0.00	Partly_Cloudy(clear)	True	False	0.00
2010-07-26 02:00:00 69049 2 0.00 0.00 0.00 0.0 0.00	74.7967479675	0.00	0.00	Partly_Cloudy(clear)	True	False	0.00
2010-07-26 03:00:00 69050 3 0.00 0.00 0.00 0.0 0.00	74.7967479675	0.00	0.00	Partly_Cloudy(clear)	True	False	0.00
2010-07-26 04:00:00 69051 4 0.00 0.00 0.00 0.0 0.00	74.7967479675	0.00	0.00	Mostly_Clear(clear)	False	False	0.00
2010-07-26 05:00:00 69052 5 0.00 0.00 0.00 0.0 0.00	74.7967479675	0.00	0.00	Mostly_Clear(clear)	False	False	0.00
2010-07-26 06:00:00 69053 6 58.12 58.12 58.12 21.7 77.70	74.7967479675	58.12	21.70	Mostly_Sunny(sunny)	False	False	21.70
2010-07-26 07:00:00 69054 7 178.60 178.60 178.60 182.6 203.10	87.938972646	178.60	182.60	Sunny(sunny)	True	False	182.60
2010-07-26 08:00:00 69055 8 415.25 415.25 415.25 461.9 472.20	87.938972646	415.25	461.90	Sunny(sunny)	True	False	461.90
2010-07-26 09:00:00 69056 9 655.23 655.23 655.23 719.2 745.10	87.938972646	655.23	719.20	Sunny(sunny)	True	False	719.20
2010-07-26 10:00:00 69057 10 853.86 853.86 853.86 911.4 919.50	92.8611844587	853.86	911.40	Sunny(sunny)	True	False	911.40
2010-07-26 11:00:00 69058 11 964.73 964.73 964.73 1034.6 1038.90	92.8611844587	964.73	1034.60	Sunny(sunny)	True	False	1034.60
