2010-06-13 15:00:00 20990 15 800.30 800.30 800.30 44.6 883.50	12.6215390314	800.30	44.60	Scattered_T-Storms(light_rain)	True	False	44.60
2010-06-13 16:00:00 20991 16 36.15 36.15 36.15 341.9 716.10	12.6215390314	36.15	341.90	Scattered_T-Storms(light_rain)	True	False	341.90
2010-06-13 17:00:00 20992 17 53.82 21.53 21.53 61.0 426.40	12.6215390314	21.53	61.00	Scattered_T-Storms(cloudy)	True	False	61.00
2010-06-13 18:00:00 20993 18 27.04 10.81 10.81 44.4 214.20	12.6215390314	10.81	44.40	Scattered_T-Storms(heavy_rain)	True	False	44.40
2010-06-13 19:00:00 20994 19 6.74 2.70 2.70 21.7 53.40	12.6215390314	2.70	21.70	Scattered_T-Storms(light_rain)	True	False	21.70
2010-06-13 20:00:00 20995 20 0.44 0.18 0.18 0.2 3.50	12.6215390314	0.18	0.20	Scattered_T-Storms(fog)	True	False	0.20
2010-06-13 21:00:00 20996 21 0.00 0.00 0.00 0.0 0.00	12.6215390314	0.00	0.00	Scattered_T-Storms(cloudy)	True	False	0.00
2010-06-13 22:00:00 20997 22 0.00 0.00 0.00 0.0 0.00	12.6215390314	0.00	0.00	Few_Showers(cloudy)	True	False	0.00
2010-06-13 23:00:00 20998 23 0.00 0.00 0.00 0.0 0.00	12.6215390314	0.00	0.00	Few_Showers(fog)	True	False	0.00
2010-06-14 00:00:00 20999 0 0.00 0.00 0.00 0.0 0.00	12.6215390314	0.00	0.00	Few_Showers(rain)	True	False	0.00
2010-06-14 01:00:00 21000 1 0.00 0.00 0.00 0.0 0.00	62.558356676	0.00	0.00	Mostly_Cloudy(fog)	True	False	0.00
2010-06-14 02:00:00 21001 2 0.00 0.00 0.00 0.0 0.00	62.558356676	0.00	0.00	Mostly_Cloudy(cloudy)	True	False	0.00
2010-06-14 03:00:00 21002 3 0.00 0.00 0.00 0.0 0.00	62.558356676	0.00	0.00	Mostly_Cloudy(fog)	True	False	0.00
2010-06-14 04:00:00 21003 4 0.00 0.00 0.00 0.0 0.00	62.558356676	0.00	0.00	Mostly_Cloudy(cloudy)	True	False	0.00
2010-06-14 05:00:00 21004 5 1.13 1.13 1.13 0.0 1.80	62.558356676	1.13	0.00	Mostly_Cloudy(cloudy)	True	False	0.00
2010-06-14 06:00:00 21005 6 45.98 45.98 45.98 16.1 73.50	62.558356676	45.98	16.10	Mostly_Cloudy(light_rain)	True	False	16.10
2010-06-14 07:00:00 21006 7 155.46 155.46 155.46 76.0 248.50	62.558356676	155.46	76.00	Mostly_Cloudy(fog)	True	False	76.00
2010-06-14 08:00:00 21007 8 332.69 332.69 332.69 110.9 531.80	62.558356676	332.69	110.90	Mostly_Cloudy(cloudy)	True	False	110.90
2010-06-14 09:00:00 21008 9 450.48 450.48 450.48 168.0 720.10	62.558356676	450.48	168.00	Mostly_Cloudy(cloudy)	True	False	168.00
2010-06-14 10:00:00 21009 10 514.91 514.91 514.91 287.6 929.60	55.3907586994	514.91	287.60	Mostly_Cloudy(cloudy)	True	False	287.60
2010-06-14 11:00:00 21010 11 582.60 582.60 582.60 320.2 1051.80	55.3907586994	582.60	320.20	Mostly_Cloudy(cloudy)	True	False	320.20
2010-06-14 12:00:00 21011 12 606.09 606.09 606.09 489.2 1094.20	55.3907586994	606.09	489.20	Mostly_Cloudy(cloudy)	True	False	489.20
2010-06-14 13:00:00 21012 13 825.66 825.66 825.66 755.2 1079.90	76.4572722128	825.66	755.20	Partly_Cloudy(cloudy)	True	False	755.20
2010-06-14 14:00:00 21013 14 774.36 774.36 774.36 653.5 1012.80	76.4572722128	774.36	653.50	Partly_Cloudy(mostly_cloudy)	True	False	653.50
2010-06-14 15:00:00 21014 15 675.50 675.50 675.50 444.1 883.50	76.4572722128	675.50	444.10	Partly_Cloudy(cloudy)	True	False	444.10
2010-06-14 16:00:00 21015 16 447.98 447.98 447.98 412.2 716.10	62.558356676	447.98	412.20	Mostly_Cloudy(mostly_cloudy)	True	False	412.20
2010-06-14 17:00:00 21016 17 266.75 266.75 266.75 211.2 426.40	62.558356676	266.75	211.20	Mostly_Cloudy(partly_cloudy)	True	False	211.20
2010-06-14 18:00:00 21017 18 134.00 134.00 134.00 97.6 214.20	62.558356676	134.00	97.60	Mostly_Cloudy(cloudy)	True	False	97.60
2010-06-14 19:00:00 21018 19 6.74 6.74 6.74 47.7 53.40	12.6215390314	6.74	47.70	Isolated_T-Storms(mostly_cloudy)	True	False	47.70
2010-06-14 20:00:00 21019 20 0.44 0.44 0.44 2.5 3.50	12.6215390314	0.44	2.50	Isolated_T-Storms(partly_cloudy)	True	False	2.50
2010-06-14 21:00:00 21020 21 0.00 0.00 0.00 0.0 0.00	12.6215390314	0.00	0.00	Isolated_T-Storms(clear)	True	False	0.00
2010-06-14 22:00:00 21021 22 0.00 0.00 0.00 0.0 0.00	12.6215390314	0.00	0.00	Isolated_T-Storms(clear)	True	False	0.00
2010-06-14 23:00:00 21022 23 0.00 0.00 0.00 0.0 0.00	12.6215390314	0.00	0.00	Isolated_T-Storms(clear)	True	False	0.00
2010-06-15 00:00:00 21023 0 0.00 0.00 0.00 0.0 0.00	12.6215390314	0.00	0.00	Isolated_T-Storms(clear)	True	False	0.00
2010-06-15 01:00:00 21024 1 0.00 0.00 0.00 0.0 0.00	12.6215390314	0.00	0.00	Few_Showers(clear)	True	False	0.00
2010-06-15 02:00:00 21025 2 0.00 0.00 0.00 0.0 0.00	12.6215390314	0.00	0.00	Few_Showers(fair)	True	False	0.00
2010-06-15 03:00:00 21026 3 0.00 0.00 0.00 0.0 0.00	12.6215390314	0.00	0.00	Few_Showers(clear)	True	False	0.00
2010-06-15 04:00:00 21027 4 0.00 0.00 0.00 0.0 0.00	12.6215390314	0.00	0.00	Few_Showers(clear)	True	False	0.00
2010-06-15 05:00:00 21028 5 0.23 0.23 0.23 0.0 1.80	12.6215390314	0.23	0.00	Few_Showers(fair)	True	False	0.00
2010-06-15 06:00:00 21029 6 9.28 9.28 9.28 45.9 73.50	12.6215390314	9.28	45.90	Few_Showers(partly_cloudy)	True	False	45.90
2010-06-15 07:00:00 21030 7 186.00 186.00 186.00 225.9 248.50	74.849523104	186.00	225.90	Partly_Cloudy(sunny)	True	False	225.90
2010-06-15 08:00:00 21031 8 398.05 398.05 398.05 505.2 531.80	74.849523104	398.05	505.20	Partly_Cloudy(fair)	True	False	505.20
2010-06-15 09:00:00 21032 9 538.99 538.99 538.99 755.8 720.10	74.849523104	538.99	755.80	Partly_Cloudy(sunny)	True	False	755.80
2010-06-15 10:00:00 21033 10 710.75 710.75 710.75 935.8 929.60	76.4572722128	710.75	935.80	Partly_Cloudy(sunny)	True	False	935.80
2010-06-15 11:00:00 21034 11 804.18 804.18 804.18 1041.9 1051.80	76.4572722128	804.18	1041.90	Partly_Cloudy(sunny)	True	False	1041.90
2010-06-15 12:00:00 21035 12 836.60 836.60 836.60 1082.1 1094.20	76.4572722128	836.60	1082.10	Partly_Cloudy(sunny)	True	False	1082.10
2010-06-15 13:00:00 21036 13 825.66 825.66 825.66 1084.8 1079.90	76.4572722128	825.66	1084.80	Partly_Cloudy(sunny)	True	False	1084.80
2010-06-15 14:00:00 21037 14 774.36 774.36 774.36 1016.8 1012.80	76.4572722128	774.36	1016.80	Partly_Cloudy(sunny)	True	False	1016.80
2010-06-15 15:00:00 21038 15 675.50 675.50 675.50 895.8 883.50	76.4572722128	675.50	895.80	Partly_Cloudy(sunny)	True	False	895.80
