2010-06-30 02:00:00 40345 2 0.00 0.00 0.00 0.0 0.00	72.5868725869	0.00	0.00	Partly_Cloudy(clear)	True	False	0.00
2010-06-30 03:00:00 40346 3 0.00 0.00 0.00 0.0 0.00	72.5868725869	0.00	0.00	Partly_Cloudy(fair)	True	False	0.00
2010-06-30 04:00:00 40347 4 0.00 0.00 0.00 0.0 0.00	72.5868725869	0.00	0.00	Partly_Cloudy(clear)	True	False	0.00
2010-06-30 05:00:00 40348 5 1.31 1.31 1.31 0.1 1.80	72.5868725869	1.31	0.10	Partly_Cloudy(sunny)	True	False	0.10
2010-06-30 06:00:00 40349 6 56.40 56.40 56.40 33.4 77.70	72.5868725869	56.40	33.40	Partly_Cloudy(sunny)	True	False	33.40
2010-06-30 07:00:00 40350 7 161.49 161.49 161.49 181.0 220.30	73.3056583341	161.49	181.00	Sunny(sunny)	True	False	181.00
2010-06-30 08:00:00 40351 8 356.19 356.19 356.19 414.9 485.90	73.3056583341	356.19	414.90	Sunny(sunny)	True	False	414.90
2010-06-30 09:00:00 40352 9 545.17 545.17 545.17 617.1 743.70	73.3056583341	545.17	617.10	Sunny(sunny)	True	False	617.10
2010-06-30 10:00:00 40353 10 712.99 712.99 712.99 768.1 929.60	76.6988538941	712.99	768.10	Sunny(sunny)	True	False	768.10
2010-06-30 11:00:00 40354 11 795.90 795.90 795.90 861.7 1037.70	76.6988538941	795.90	861.70	Sunny(sunny)	True	False	861.70
2010-06-30 12:00:00 40355 12 849.90 849.90 849.90 906.5 1108.10	76.6988538941	849.90	906.50	Sunny(sunny)	True	False	906.50
2010-06-30 13:00:00 40356 13 849.59 849.59 849.59 909.6 1107.70	76.6988538941	849.59	909.60	Sunny(sunny)	True	False	909.60
2010-06-30 14:00:00 40357 14 813.31 813.31 813.31 870.8 1060.40	76.6988538941	813.31	870.80	Sunny(sunny)	True	False	870.80
2010-06-30 15:00:00 40358 15 720.28 720.28 720.28 774.3 939.10	76.6988538941	720.28	774.30	Sunny(sunny)	True	False	774.30
2010-06-30 16:00:00 40359 16 545.69 545.69 545.69 611.2 744.40	73.3056583341	545.69	611.20	Sunny(sunny)	True	False	611.20
2010-06-30 17:00:00 40360 17 355.31 355.31 355.31 380.9 484.70	73.3056583341	355.31	380.90	Sunny(sunny)	True	False	380.90
2010-06-30 18:00:00 40361 18 165.52 165.52 165.52 155.4 225.80	73.3056583341	165.52	155.40	Sunny(fair)	True	False	155.40
2010-06-30 19:00:00 40362 19 59.67 59.67 59.67 29.4 81.40	73.3056583341	59.67	29.40	Sunny(fair)	True	False	29.40
2010-06-30 20:00:00 40363 20 4.98 4.98 4.98 2.2 6.80	73.3056583341	4.98	2.20	Sunny(sunny)	True	False	2.20
2010-06-30 21:00:00 40364 21 0.00 0.00 0.00 0.0 0.00	73.3056583341	0.00	0.00	Clear(fair)	True	False	0.00
2010-06-30 22:00:00 40365 22 0.00 0.00 0.00 0.0 0.00	73.3056583341	0.00	0.00	Clear(clear)	True	False	0.00
2010-06-30 23:00:00 40366 23 0.00 0.00 0.00 0.0 0.00	73.3056583341	0.00	0.00	Clear(clear)	True	False	0.00
2010-07-01 00:00:00 40367 0 0.00 0.00 0.00 0.0 0.00	73.3056583341	0.00	0.00	Clear(cloudy)	True	False	0.00
2010-07-01 01:00:00 40368 1 0.00 0.00 0.00 0.0 0.00	73.3056583341	0.00	0.00	Clear(cloudy)	True	False	0.00
2010-07-01 02:00:00 40369 2 0.00 0.00 0.00 0.0 0.00	73.3056583341	0.00	0.00	Clear(cloudy)	True	False	0.00
2010-07-01 03:00:00 40370 3 0.00 0.00 0.00 0.0 0.00	73.3056583341	0.00	0.00	Clear(fair)	True	False	0.00
2010-07-01 04:00:00 40371 4 0.00 0.00 0.00 0.0 0.00	73.3056583341	0.00	0.00	Clear(partly_cloudy)	True	False	0.00
2010-07-01 05:00:00 40372 5 1.32 1.32 1.32 0.3 1.80	73.3056583341	1.32	0.30	Clear(fair)	True	False	0.30
2010-07-01 06:00:00 40373 6 56.96 56.96 56.96 31.2 77.70	73.3056583341	56.96	31.20	Sunny(sunny)	True	False	31.20
2010-07-01 07:00:00 40374 7 161.49 161.49 161.49 174.2 220.30	73.3056583341	161.49	174.20	Sunny(sunny)	True	False	174.20
2010-07-01 08:00:00 40375 8 356.19 356.19 356.19 404.9 485.90	73.3056583341	356.19	404.90	Sunny(sunny)	True	False	404.90
2010-07-01 09:00:00 40376 9 545.17 545.17 545.17 607.6 743.70	73.3056583341	545.17	607.60	Sunny(sunny)	True	False	607.60
2010-07-01 10:00:00 40377 10 712.99 712.99 712.99 746.7 929.60	76.6988538941	712.99	746.70	Sunny(sunny)	True	False	746.70
2010-07-01 11:00:00 40378 11 795.90 795.90 795.90 691.6 1037.70	76.6988538941	795.90	691.60	Sunny(sunny)	True	False	691.60
2010-07-01 12:00:00 40379 12 849.90 849.90 849.90 800.5 1108.10	76.6988538941	849.90	800.50	Sunny(mostly_cloudy)	True	False	800.50
2010-07-01 13:00:00 40380 13 849.59 849.59 849.59 780.3 1107.70	76.6988538941	849.59	780.30	Sunny(fair)	True	False	780.30
2010-07-01 14:00:00 40381 14 813.31 813.31 813.31 676.3 1060.40	76.6988538941	813.31	676.30	Sunny(partly_cloudy)	True	False	676.30
2010-07-01 15:00:00 40382 15 720.28 720.28 720.28 458.2 939.10	76.6988538941	720.28	458.20	Sunny(fair)	True	False	458.20
2010-07-01 16:00:00 40383 16 545.69 545.69 545.69 424.4 744.40	73.3056583341	545.69	424.40	Sunny(mostly_cloudy)	True	False	424.40
2010-07-01 17:00:00 40384 17 355.31 355.31 355.31 244.2 484.70	73.3056583341	355.31	244.20	Sunny(fair)	True	False	244.20
2010-07-01 18:00:00 40385 18 165.52 165.52 165.52 117.6 225.80	73.3056583341	165.52	117.60	Sunny(fair)	True	False	117.60
2010-07-01 19:00:00 40386 19 59.67 59.67 59.67 26.2 81.40	73.3056583341	59.67	26.20	Sunny(fair)	True	False	26.20
2010-07-01 20:00:00 40387 20 4.98 4.98 4.98 1.7 6.80	73.3056583341	4.98	1.70	Sunny(sunny)	True	False	1.70
2010-07-01 21:00:00 40388 21 0.00 0.00 0.00 0.0 0.00	73.3056583341	0.00	0.00	Clear(clear)	True	False	0.00
2010-07-01 22:00:00 40389 22 0.00 0.00 0.00 0.0 0.00	73.3056583341	0.00	0.00	Clear(clear)	True	False	0.00
2010-07-01 23:00:00 40390 23 0.00 0.00 0.00 0.0 0.00	73.3056583341	0.00	0.00	Clear(clear)	True	False	0.00
2010-07-02 00:00:00 40391 0 0.00 0.00 0.00 0.0 0.00	73.3056583341	0.00	0.00	Clear(clear)	True	False	0.00
2010-07-02 01:00:00 40392 1 0.00 0.00 0.00 0.0 0.00	73.3056583341	0.00	0.00	Clear(clear)	True	False	0.00
2010-07-02 02:00:00 40393 2 0.00 0.00 0.00 0.0 0.00	73.3056583341	0.00	0.00	Clear(clear)	True	False	0.00
