2010-06-01 10:00:00 6633 10 440.48 440.48 908.30 813.4 952.40	46.249440215	908.30	813.40	Cloudy(mostly_cloudy)	True	False	813.40
2010-06-01 11:00:00 6634 11 898.29 898.29 898.29 833.3 1051.80	46.249440215	898.29	833.30	Cloudy(mostly_cloudy)	True	False	833.30
2010-06-01 12:00:00 6635 12 674.50 934.50 934.50 882.1 1094.20	61.6432096509	934.50	882.10	Mostly_Cloudy(partly_cloudy)	True	False	882.10
2010-06-01 13:00:00 6636 13 136.30 922.29 922.29 499.8 1079.90	12.6215390314	922.29	499.80	Scattered_T-Storms(mostly_cloudy)	True	False	499.80
2010-06-01 14:00:00 6637 14 127.83 864.98 864.98 490.2 1012.80	12.6215390314	864.98	490.20	Scattered_T-Storms(mostly_cloudy)	True	False	490.20
2010-06-01 15:00:00 6638 15 112.74 762.84 762.84 488.5 893.20	12.6215390314	762.84	488.50	Scattered_T-Storms(light_rain)	True	False	488.50
2010-06-01 16:00:00 6639 16 90.43 611.59 611.59 105.4 716.10	12.6287505598	611.59	105.40	Scattered_T-Storms(thunder)	True	False	105.40
2010-06-01 17:00:00 6640 17 52.99 358.36 358.36 265.4 419.60	12.6287505598	358.36	265.40	Scattered_T-Storms(thunder_in_the_vicinity)	True	False	265.40
2010-06-01 18:00:00 6641 18 27.05 182.94 182.94 15.0 214.20	12.6287505598	182.94	15.00	Scattered_T-Storms(t-storm)	True	False	15.00
2010-06-01 19:00:00 6642 19 6.54 44.24 44.24 27.4 51.80	12.6287505598	44.24	27.40	Isolated_T-Storms(mostly_cloudy)	True	False	27.40
2010-06-01 20:00:00 6643 20 0.30 2.05 2.05 0.0 2.40	12.6287505598	2.05	0.00	Isolated_T-Storms(cloudy)	True	False	0.00
2010-06-01 21:00:00 6644 21 0.00 0.00 0.00 0.0 0.00	12.6287505598	0.00	0.00	Isolated_T-Storms(partly_cloudy)	True	False	0.00
2010-06-01 22:00:00 6645 22 0.00 0.00 0.00 0.0 0.00	80.0223630265	0.00	0.00	Partly_Cloudy(mostly_cloudy)	True	False	0.00
2010-06-01 23:00:00 6646 23 0.00 0.00 0.00 0.0 0.00	80.0223630265	0.00	0.00	Partly_Cloudy(fair)	True	False	0.00
2010-06-02 00:00:00 6647 0 0.00 0.00 0.00 0.0 0.00	80.0223630265	0.00	0.00	Partly_Cloudy(fog)	True	False	0.00
2010-06-02 01:00:00 6648 1 0.00 0.00 0.00 0.0 0.00	80.0223630265	0.00	0.00	Mostly_Clear(fog)	False	False	0.00
2010-06-02 02:00:00 6649 2 0.00 0.00 0.00 0.0 0.00	80.0223630265	0.00	0.00	Mostly_Clear(light_rain)	False	False	0.00
2010-06-02 03:00:00 6650 3 0.00 0.00 0.00 0.0 0.00	80.0223630265	0.00	0.00	Mostly_Clear(mostly_cloudy)	False	False	0.00
2010-06-02 04:00:00 6651 4 0.00 0.00 0.00 0.0 0.00	92.6202012672	0.00	0.00	Clear(cloudy)	True	False	0.00
2010-06-02 05:00:00 6652 5 0.65 0.65 0.65 0.0 0.70	92.6202012672	0.65	0.00	Clear(fog)	True	False	0.00
2010-06-02 06:00:00 6653 6 67.33 67.33 67.33 54.0 72.70	92.6202012672	67.33	54.00	Sunny(fog)	True	False	54.00
2010-06-02 07:00:00 6654 7 248.50 248.50 248.50 244.2 268.30	92.6202012672	248.50	244.20	Sunny(fog)	True	False	244.20
2010-06-02 08:00:00 6655 8 492.55 492.55 492.55 507.0 531.80	92.6202012672	492.55	507.00	Sunny(sunny)	True	False	507.00
2010-06-02 09:00:00 6656 9 713.18 713.18 713.18 737.0 770.00	92.6202012672	713.18	737.00	Sunny(sunny)	True	False	737.00
2010-06-02 10:00:00 6657 10 908.30 908.30 908.30 915.8 952.40	95.3695926081	908.30	915.80	Sunny(sunny)	True	False	915.80
2010-06-02 11:00:00 6658 11 1003.10 1003.10 1003.10 1017.0 1051.80	95.3695926081	1003.10	1017.00	Sunny(sunny)	True	False	1017.00
2010-06-02 12:00:00 6659 12 1043.53 1043.53 1043.53 1052.9 1094.20	95.3695926081	1043.53	1052.90	Sunny(sunny)	True	False	1052.90
2010-06-02 13:00:00 6660 13 1029.90 1029.90 1029.90 1034.5 1079.90	95.3695926081	1029.90	1034.50	Sunny(sunny)	True	False	1034.50
2010-06-02 14:00:00 6661 14 965.90 965.90 965.90 961.2 1012.80	95.3695926081	965.90	961.20	Sunny(sunny)	True	False	961.20
2010-06-02 15:00:00 6662 15 851.84 851.84 851.84 809.2 893.20	95.3695926081	851.84	809.20	Sunny(sunny)	True	False	809.20
2010-06-02 16:00:00 6663 16 682.94 682.94 682.94 611.2 716.10	95.3695926081	682.94	611.20	Mostly_Sunny(sunny)	False	False	611.20
2010-06-02 17:00:00 6664 17 400.17 400.17 400.17 293.6 419.60	95.3695926081	400.17	293.60	Mostly_Sunny(partly_cloudy)	False	False	293.60
2010-06-02 18:00:00 6665 18 204.28 204.28 204.28 162.1 214.20	95.3695926081	204.28	162.10	Mostly_Sunny(sunny)	False	False	162.10
2010-06-02 19:00:00 6666 19 49.40 49.40 49.40 36.3 51.80	95.3695926081	49.40	36.30	Mostly_Sunny(partly_cloudy)	False	False	36.30
2010-06-02 20:00:00 6667 20 2.29 2.29 2.29 0.1 2.40	95.3695926081	2.29	0.10	Mostly_Sunny(fair)	False	False	0.10
2010-06-02 21:00:00 6668 21 0.00 0.00 0.00 0.0 0.00	95.3695926081	0.00	0.00	Mostly_Clear(fair)	False	False	0.00
2010-06-02 22:00:00 6669 22 0.00 0.00 0.00 0.0 0.00	80.0223630265	0.00	0.00	Partly_Cloudy(clear)	True	False	0.00
2010-06-02 23:00:00 6670 23 0.00 0.00 0.00 0.0 0.00	80.0223630265	0.00	0.00	Partly_Cloudy(clear)	True	False	0.00
2010-06-03 00:00:00 6671 0 0.00 0.00 0.00 0.0 0.00	80.0223630265	0.00	0.00	Partly_Cloudy(clear)	True	False	0.00
2010-06-03 01:00:00 6672 1 0.00 0.00 0.00 0.0 0.00	80.0223630265	0.00	0.00	Partly_Cloudy(clear)	True	False	0.00
2010-06-03 02:00:00 6673 2 0.00 0.00 0.00 0.0 0.00	80.0223630265	0.00	0.00	Partly_Cloudy(fog)	True	False	0.00
2010-06-03 03:00:00 6674 3 0.00 0.00 0.00 0.0 0.00	80.0223630265	0.00	0.00	Partly_Cloudy(clear)	True	False	0.00
2010-06-03 04:00:00 6675 4 0.00 0.00 0.00 0.0 0.00	80.0223630265	0.00	0.00	Partly_Cloudy(clear)	True	False	0.00
2010-06-03 05:00:00 6676 5 0.56 0.56 0.56 0.0 0.70	80.0223630265	0.56	0.00	Partly_Cloudy(fog)	True	False	0.00
2010-06-03 06:00:00 6677 6 58.18 58.18 58.18 71.3 72.70	80.0223630265	58.18	71.30	Partly_Cloudy(fog)	True	False	71.30
2010-06-03 07:00:00 6678 7 214.70 214.70 214.70 225.3 268.30	80.0223630265	214.70	225.30	Partly_Cloudy(sunny)	True	False	225.30
2010-06-03 08:00:00 6679 8 425.56 425.56 425.56 463.7 531.80	80.0223630265	425.56	463.70	Partly_Cloudy(sunny)	True	False	463.70
2010-06-03 09:00:00 6680 9 616.17 616.17 616.17 597.5 770.00	80.0223630265	616.17	597.50	Partly_Cloudy(partly_cloudy)	True	False	597.50
2010-06-03 10:00:00 6681 10 762.13 762.13 762.13 764.4 952.40	80.0223630265	762.13	764.40	Mostly_Sunny(fair)	False	False	764.40
