2010-07-05 19:00:00 47058 19 62.45 62.45 62.45 30.4 81.40	76.7244856797	62.45	30.40	Sunny(sunny)	True	False	30.40
2010-07-05 20:00:00 47059 20 5.22 5.22 5.22 2.0 6.80	76.7244856797	5.22	2.00	Sunny(sunny)	True	False	2.00
2010-07-05 21:00:00 47060 21 0.00 0.00 0.00 0.0 0.00	76.7244856797	0.00	0.00	Clear(clear)	True	False	0.00
2010-07-05 22:00:00 47061 22 0.00 0.00 0.00 0.0 0.00	76.7244856797	0.00	0.00	Clear(clear)	True	False	0.00
2010-07-05 23:00:00 47062 23 0.00 0.00 0.00 0.0 0.00	76.7244856797	0.00	0.00	Clear(clear)	True	False	0.00
2010-07-06 00:00:00 47063 0 0.00 0.00 0.00 0.0 0.00	76.7244856797	0.00	0.00	Clear(clear)	True	False	0.00
2010-07-06 01:00:00 47064 1 0.00 0.00 0.00 0.0 0.00	76.7244856797	0.00	0.00	Clear(clear)	True	False	0.00
2010-07-06 02:00:00 47065 2 0.00 0.00 0.00 0.0 0.00	76.7244856797	0.00	0.00	Clear(clear)	True	False	0.00
2010-07-06 03:00:00 47066 3 0.00 0.00 0.00 0.0 0.00	76.7244856797	0.00	0.00	Clear(clear)	True	False	0.00
2010-07-06 04:00:00 47067 4 0.00 0.00 0.00 0.0 0.00	76.7244856797	0.00	0.00	Clear(clear)	True	False	0.00
2010-07-06 05:00:00 47068 5 0.23 0.23 0.23 0.0 0.30	76.7244856797	0.23	0.00	Clear(sunny)	True	False	0.00
2010-07-06 06:00:00 47069 6 59.61 59.61 59.61 27.7 77.70	76.7244856797	59.61	27.70	Sunny(sunny)	True	False	27.70
2010-07-06 07:00:00 47070 7 159.13 159.13 159.13 152.1 207.40	76.7244856797	159.13	152.10	Sunny(sunny)	True	False	152.10
2010-07-06 08:00:00 47071 8 372.80 372.80 372.80 341.2 485.90	76.7244856797	372.80	341.20	Sunny(sunny)	True	False	341.20
2010-07-06 09:00:00 47072 9 570.60 570.60 570.60 522.9 743.70	76.7244856797	570.60	522.90	Sunny(sunny)	True	False	522.90
2010-07-06 10:00:00 47073 10 733.30 733.30 733.30 665.8 919.50	79.7498640566	733.30	665.80	Sunny(sunny)	True	False	665.80
2010-07-06 11:00:00 47074 11 828.52 828.52 828.52 748.1 1038.90	79.7498640566	828.52	748.10	Sunny(sunny)	True	False	748.10
2010-07-06 12:00:00 47075 12 883.71 883.71 883.71 685.8 1108.10	79.7498640566	883.71	685.80	Sunny(sunny)	True	False	685.80
2010-07-06 13:00:00 47076 13 883.39 883.39 883.39 566.1 1107.70	79.7498640566	883.39	566.10	Sunny(sunny)	True	False	566.10
2010-07-06 14:00:00 47077 14 845.67 845.67 845.67 714.4 1060.40	79.7498640566	845.67	714.40	Sunny(sunny)	True	False	714.40
2010-07-06 15:00:00 47078 15 748.93 748.93 748.93 499.2 939.10	79.7498640566	748.93	499.20	Sunny(fair)	True	False	499.20
2010-07-06 16:00:00 47079 16 582.26 582.26 582.26 534.6 758.90	76.7244856797	582.26	534.60	Sunny(sunny)	True	False	534.60
2010-07-06 17:00:00 47080 17 382.63 382.63 382.63 334.5 498.70	76.7244856797	382.63	334.50	Sunny(sunny)	True	False	334.50
2010-07-06 18:00:00 47081 18 173.24 173.24 173.24 141.3 225.80	76.7244856797	173.24	141.30	Sunny(sunny)	True	False	141.30
2010-07-06 19:00:00 47082 19 62.45 62.45 62.45 43.9 81.40	76.7244856797	62.45	43.90	Mostly_Sunny(sunny)	False	False	43.90
2010-07-06 20:00:00 47083 20 5.22 5.22 5.22 1.8 6.80	76.7244856797	5.22	1.80	Mostly_Sunny(sunny)	False	False	1.80
2010-07-06 21:00:00 47084 21 0.00 0.00 0.00 0.0 0.00	76.7244856797	0.00	0.00	Mostly_Clear(clear)	False	False	0.00
2010-07-06 22:00:00 47085 22 0.00 0.00 0.00 0.0 0.00	76.7244856797	0.00	0.00	Mostly_Clear(fair)	False	False	0.00
2010-07-06 23:00:00 47086 23 0.00 0.00 0.00 0.0 0.00	76.7244856797	0.00	0.00	Mostly_Clear(fair)	False	False	0.00
2010-07-07 00:00:00 47087 0 0.00 0.00 0.00 0.0 0.00	76.7244856797	0.00	0.00	Mostly_Clear(fair)	False	False	0.00
2010-07-07 01:00:00 47088 1 0.00 0.00 0.00 0.0 0.00	76.7244856797	0.00	0.00	Clear(fair)	True	False	0.00
2010-07-07 02:00:00 47089 2 0.00 0.00 0.00 0.0 0.00	76.7244856797	0.00	0.00	Clear(fair)	True	False	0.00
2010-07-07 03:00:00 47090 3 0.00 0.00 0.00 0.0 0.00	76.7244856797	0.00	0.00	Clear(fair)	True	False	0.00
2010-07-07 04:00:00 47091 4 0.00 0.00 0.00 0.0 0.00	76.7244856797	0.00	0.00	Clear(cloudy)	True	False	0.00
2010-07-07 05:00:00 47092 5 0.23 0.23 0.23 0.0 0.30	76.7244856797	0.23	0.00	Clear(partly_cloudy)	True	False	0.00
2010-07-07 06:00:00 47093 6 59.61 59.61 59.61 41.1 77.70	76.7244856797	59.61	41.10	Sunny(mostly_cloudy)	True	False	41.10
2010-07-07 07:00:00 47094 7 159.13 159.13 159.13 155.3 207.40	76.7244856797	159.13	155.30	Sunny(partly_cloudy)	True	False	155.30
2010-07-07 08:00:00 47095 8 372.80 372.80 372.80 350.2 485.90	76.7244856797	372.80	350.20	Sunny(fair)	True	False	350.20
2010-07-07 09:00:00 47096 9 570.60 570.60 570.60 521.5 743.70	76.7244856797	570.60	521.50	Sunny(sunny)	True	False	521.50
2010-07-07 10:00:00 47097 10 733.30 733.30 733.30 656.0 919.50	79.7498640566	733.30	656.00	Sunny(sunny)	True	False	656.00
2010-07-07 11:00:00 47098 11 828.52 828.52 828.52 758.5 1038.90	79.7498640566	828.52	758.50	Sunny(sunny)	True	False	758.50
2010-07-07 12:00:00 47099 12 883.71 883.71 883.71 803.8 1108.10	79.7498640566	883.71	803.80	Sunny(sunny)	True	False	803.80
2010-07-07 13:00:00 47100 13 818.76 818.76 818.76 226.6 1107.70	73.9155035836	818.76	226.60	Partly_Cloudy(sunny)	True	False	226.60
2010-07-07 14:00:00 47101 14 783.80 783.80 783.80 5.3 1060.40	73.9155035836	783.80	5.30	Partly_Cloudy(fair)	True	False	5.30
2010-07-07 15:00:00 47102 15 694.14 694.14 694.14 646.8 939.10	73.9155035836	694.14	646.80	Partly_Cloudy(fair)	True	False	646.80
2010-07-07 16:00:00 47103 16 559.50 559.50 559.50 505.8 758.90	73.7248504622	559.50	505.80	Partly_Cloudy(fair)	True	False	505.80
2010-07-07 17:00:00 47104 17 367.67 367.67 367.67 312.2 498.70	73.7248504622	367.67	312.20	Partly_Cloudy(fair)	True	False	312.20
2010-07-07 18:00:00 47105 18 166.47 166.47 166.47 141.8 225.80	73.7248504622	166.47	141.80	Partly_Cloudy(mostly_cloudy)	True	False	141.80
2010-07-07 19:00:00 47106 19 47.97 47.97 47.97 41.0 81.40	58.9373375686	47.97	41.00	Mostly_Cloudy(fair)	True	False	41.00
