2010-07-23 16:00:00 68079 16 701.42 701.42 185.39 418.7 758.90	24.4288948343	185.39	418.70	Scattered_T-Storms(partly_cloudy)	True	False	418.70
2010-07-23 17:00:00 68080 17 275.14 275.14 121.83 281.9 498.70	24.4288948343	121.83	281.90	Scattered_T-Storms(sunny)	True	False	281.90
2010-07-23 18:00:00 68081 18 55.55 125.46 55.55 134.0 227.40	24.4288948343	55.55	134.00	Scattered_T-Storms(sunny)	True	False	134.00
2010-07-23 19:00:00 68082 19 18.03 40.72 18.03 30.4 73.80	24.4288948343	18.03	30.40	Scattered_T-Storms(sunny)	True	False	30.40
2010-07-23 20:00:00 68083 20 1.66 3.75 1.66 0.0 6.80	24.4288948343	1.66	0.00	Scattered_T-Storms(partly_cloudy)	True	False	0.00
2010-07-23 21:00:00 68084 21 0.00 0.00 0.00 0.0 0.00	24.4288948343	0.00	0.00	Scattered_T-Storms(partly_cloudy)	True	False	0.00
2010-07-23 22:00:00 68085 22 0.00 0.00 0.00 0.0 0.00	24.4288948343	0.00	0.00	Scattered_T-Storms(clear)	True	False	0.00
2010-07-23 23:00:00 68086 23 0.00 0.00 0.00 0.0 0.00	24.4288948343	0.00	0.00	Scattered_T-Storms(clear)	True	False	0.00
2010-07-24 00:00:00 68087 0 0.00 0.00 0.00 0.0 0.00	24.4288948343	0.00	0.00	Scattered_T-Storms(light_rain)	True	False	0.00
2010-07-24 01:00:00 68088 1 0.00 0.00 0.00 0.0 0.00	24.4288948343	0.00	0.00	Isolated_T-Storms(partly_cloudy)	True	False	0.00
2010-07-24 02:00:00 68089 2 0.00 0.00 0.00 0.0 0.00	24.4288948343	0.00	0.00	Isolated_T-Storms(clear)	True	False	0.00
2010-07-24 03:00:00 68090 3 0.00 0.00 0.00 0.0 0.00	24.4288948343	0.00	0.00	Isolated_T-Storms(clear)	True	False	0.00
2010-07-24 04:00:00 68091 4 0.00 0.00 0.00 0.0 0.00	73.3069481091	0.00	0.00	Partly_Cloudy(mostly_cloudy)	True	False	0.00
2010-07-24 05:00:00 68092 5 0.00 0.00 0.00 0.0 0.00	73.3069481091	0.00	0.00	Partly_Cloudy(partly_cloudy)	True	False	0.00
2010-07-24 06:00:00 68093 6 56.96 56.96 56.96 26.0 77.70	73.3069481091	56.96	26.00	Partly_Cloudy(fog)	True	False	26.00
2010-07-24 07:00:00 68094 7 152.04 152.04 152.04 139.7 207.40	73.3069481091	152.04	139.70	Partly_Cloudy(partly_cloudy)	True	False	139.70
2010-07-24 08:00:00 68095 8 356.20 356.20 356.20 408.6 485.90	73.3069481091	356.20	408.60	Partly_Cloudy(partly_cloudy)	True	False	408.60
2010-07-24 09:00:00 68096 9 546.21 546.21 546.21 663.9 745.10	73.3069481091	546.21	663.90	Partly_Cloudy(fair)	True	False	663.90
2010-07-24 10:00:00 68097 10 849.85 849.85 849.85 848.0 919.50	92.4257470434	849.85	848.00	Sunny(fair)	True	False	848.00
2010-07-24 11:00:00 68098 11 960.21 960.21 960.21 980.3 1038.90	92.4257470434	960.21	980.30	Sunny(fair)	True	False	980.30
2010-07-24 12:00:00 68099 12 1024.17 1024.17 1024.17 877.6 1108.10	92.4257470434	1024.17	877.60	Sunny(sunny)	True	False	877.60
2010-07-24 13:00:00 68100 13 212.40 212.40 212.40 893.3 1107.70	19.1748668412	212.40	893.30	Isolated_T-Storms(sunny)	True	False	893.30
2010-07-24 14:00:00 68101 14 203.33 203.33 203.33 940.8 1060.40	19.1748668412	203.33	940.80	Isolated_T-Storms(fair)	True	False	940.80
2010-07-24 15:00:00 68102 15 180.07 180.07 180.07 800.4 939.10	19.1748668412	180.07	800.40	Isolated_T-Storms(sunny)	True	False	800.40
2010-07-24 16:00:00 68103 16 185.39 185.39 185.39 609.8 758.90	24.4288948343	185.39	609.80	Isolated_T-Storms(sunny)	True	False	609.80
2010-07-24 17:00:00 68104 17 121.83 121.83 121.83 401.9 498.70	24.4288948343	121.83	401.90	Isolated_T-Storms(sunny)	True	False	401.90
2010-07-24 18:00:00 68105 18 55.55 55.55 55.55 163.6 227.40	24.4288948343	55.55	163.60	Isolated_T-Storms(partly_cloudy)	True	False	163.60
2010-07-24 19:00:00 68106 19 54.10 54.10 54.10 29.6 73.80	73.3069481091	54.10	29.60	Partly_Cloudy(fair)	True	False	29.60
2010-07-24 20:00:00 68107 20 4.98 4.98 4.98 0.0 6.80	73.3069481091	4.98	0.00	Partly_Cloudy(sunny)	True	False	0.00
2010-07-24 21:00:00 68108 21 0.00 0.00 0.00 0.0 0.00	73.3069481091	0.00	0.00	Partly_Cloudy(clear)	True	False	0.00
2010-07-24 22:00:00 68109 22 0.00 0.00 0.00 0.0 0.00	73.3069481091	0.00	0.00	Partly_Cloudy(clear)	True	False	0.00
2010-07-24 23:00:00 68110 23 0.00 0.00 0.00 0.0 0.00	73.3069481091	0.00	0.00	Partly_Cloudy(clear)	True	False	0.00
2010-07-25 00:00:00 68111 0 0.00 0.00 0.00 0.0 0.00	73.3069481091	0.00	0.00	Partly_Cloudy(fair)	True	False	0.00
2010-07-25 01:00:00 68112 1 0.00 0.00 0.00 0.0 0.00	73.3069481091	0.00	0.00	Partly_Cloudy(fair)	True	False	0.00
2010-07-25 02:00:00 68113 2 0.00 0.00 0.00 0.0 0.00	73.3069481091	0.00	0.00	Partly_Cloudy(clear)	True	False	0.00
2010-07-25 03:00:00 68114 3 0.00 0.00 0.00 0.0 0.00	73.3069481091	0.00	0.00	Partly_Cloudy(mostly_cloudy)	True	False	0.00
2010-07-25 04:00:00 68115 4 0.00 0.00 0.00 0.0 0.00	87.0712401055	0.00	0.00	Clear(clear)	True	False	0.00
2010-07-25 05:00:00 68116 5 0.00 0.00 0.00 0.0 0.00	87.0712401055	0.00	0.00	Clear(clear)	True	False	0.00
2010-07-25 06:00:00 68117 6 67.65 67.65 67.65 14.1 77.70	87.0712401055	67.65	14.10	Sunny(sunny)	True	False	14.10
2010-07-25 07:00:00 68118 7 180.59 180.59 180.59 151.5 207.40	87.0712401055	180.59	151.50	Sunny(sunny)	True	False	151.50
2010-07-25 08:00:00 68119 8 423.08 423.08 423.08 418.2 485.90	87.0712401055	423.08	418.20	Sunny(sunny)	True	False	418.20
2010-07-25 09:00:00 68120 9 648.77 648.77 648.77 644.7 745.10	87.0712401055	648.77	644.70	Sunny(sunny)	True	False	644.70
2010-07-25 10:00:00 68121 10 176.31 176.31 176.31 778.0 919.50	19.1748668412	176.31	778.00	Isolated_T-Storms(partly_cloudy)	True	False	778.00
2010-07-25 11:00:00 68122 11 199.21 199.21 199.21 981.8 1038.90	19.1748668412	199.21	981.80	Isolated_T-Storms(fair)	True	False	981.80
2010-07-25 12:00:00 68123 12 212.48 212.48 212.48 919.7 1108.10	19.1748668412	212.48	919.70	Isolated_T-Storms(fair)	True	False	919.70
2010-07-25 13:00:00 68124 13 212.40 212.40 212.40 983.8 1107.70	19.1748668412	212.40	983.80	Isolated_T-Storms(fair)	True	False	983.80
2010-07-25 14:00:00 68125 14 203.33 203.33 203.33 255.2 1060.40	19.1748668412	203.33	255.20	Isolated_T-Storms(fair)	True	False	255.20
2010-07-25 15:00:00 68126 15 180.07 180.07 180.07 56.1 939.10	19.1748668412	180.07	56.10	Isolated_T-Storms(light_rain)	True	False	56.10
2010-07-25 16:00:00 68127 16 421.23 421.23 421.23 38.6 758.90	55.5052479934	421.23	38.60	Mostly_Cloudy(light_rain)	True	False	38.60
