2010-06-07 12:00:00 13787 12 1040.29 1040.29 1040.29 864.9 1094.20	95.0730647709	1040.29	864.90	Sunny(partly_cloudy)	True	False	864.90
2010-06-07 13:00:00 13788 13 1026.69 1026.69 853.60 563.7 1079.90	95.0730647709	853.60	563.70	Sunny(mostly_cloudy)	True	False	563.70
2010-06-07 14:00:00 13789 14 962.90 962.90 800.56 638.8 1012.80	95.0730647709	800.56	638.80	Sunny(mostly_cloudy)	True	False	638.80
2010-06-07 15:00:00 13790 15 849.19 849.19 706.02 761.9 893.20	95.0730647709	706.02	761.90	Sunny(mostly_cloudy)	True	False	761.90
2010-06-07 16:00:00 13791 16 613.80 613.80 566.03 551.8 716.10	85.7142857143	566.03	551.80	Sunny(mostly_cloudy)	True	False	551.80
2010-06-07 17:00:00 13792 17 359.66 359.66 331.67 381.9 419.60	85.7142857143	331.67	381.90	Sunny(sunny)	True	False	381.90
2010-06-07 18:00:00 13793 18 183.60 183.60 169.31 182.0 214.20	85.7142857143	169.31	182.00	Sunny(mostly_cloudy)	True	False	182.00
2010-06-07 19:00:00 13794 19 45.77 45.77 42.21 35.4 53.40	85.7142857143	42.21	35.40	Sunny(sunny)	True	False	35.40
2010-06-07 20:00:00 13795 20 2.40 2.40 2.21 1.8 2.80	85.7142857143	2.21	1.80	Sunny(sunny)	True	False	1.80
2010-06-07 21:00:00 13796 21 0.00 0.00 0.00 0.0 0.00	85.7142857143	0.00	0.00	Clear(clear)	True	False	0.00
2010-06-07 22:00:00 13797 22 0.00 0.00 0.00 0.0 0.00	85.7142857143	0.00	0.00	Clear(clear)	True	False	0.00
2010-06-07 23:00:00 13798 23 0.00 0.00 0.00 0.0 0.00	85.7142857143	0.00	0.00	Clear(clear)	True	False	0.00
2010-06-08 00:00:00 13799 0 0.00 0.00 0.00 0.0 0.00	85.7142857143	0.00	0.00	Clear(partly_cloudy)	True	False	0.00
2010-06-08 01:00:00 13800 1 0.00 0.00 0.00 0.0 0.00	85.7142857143	0.00	0.00	Clear(mostly_cloudy)	True	False	0.00
2010-06-08 02:00:00 13801 2 0.00 0.00 0.00 0.0 0.00	85.7142857143	0.00	0.00	Clear(mostly_cloudy)	True	False	0.00
2010-06-08 03:00:00 13802 3 0.00 0.00 0.00 0.0 0.00	85.7142857143	0.00	0.00	Clear(partly_cloudy)	True	False	0.00
2010-06-08 04:00:00 13803 4 0.00 0.00 0.00 0.0 0.00	85.7142857143	0.00	0.00	Clear(fair)	True	False	0.00
2010-06-08 05:00:00 13804 5 1.54 1.54 1.54 1.8 1.80	85.7142857143	1.54	1.80	Clear(sunny)	True	False	1.80
2010-06-08 06:00:00 13805 6 63.00 63.00 63.00 49.6 73.50	85.7142857143	63.00	49.60	Sunny(sunny)	True	False	49.60
2010-06-08 07:00:00 13806 7 213.00 213.00 213.00 240.8 248.50	85.7142857143	213.00	240.80	Sunny(sunny)	True	False	240.80
2010-06-08 08:00:00 13807 8 455.83 455.83 455.83 530.1 531.80	85.7142857143	455.83	530.10	Sunny(sunny)	True	False	530.10
2010-06-08 09:00:00 13808 9 650.91 650.91 650.91 784.7 759.40	85.7142857143	650.91	784.70	Sunny(sunny)	True	False	784.70
2010-06-08 10:00:00 13809 10 883.80 883.80 883.80 932.0 929.60	95.0730647709	883.80	932.00	Sunny(sunny)	True	False	932.00
2010-06-08 11:00:00 13810 11 999.98 999.98 999.98 771.9 1051.80	95.0730647709	999.98	771.90	Sunny(sunny)	True	False	771.90
2010-06-08 12:00:00 13811 12 1040.29 1040.29 1040.29 884.3 1094.20	95.0730647709	1040.29	884.30	Sunny(fair)	True	False	884.30
2010-06-08 13:00:00 13812 13 1026.69 1026.69 1026.69 830.2 1079.90	95.0730647709	1026.69	830.20	Sunny(partly_cloudy)	True	False	830.20
2010-06-08 14:00:00 13813 14 962.90 962.90 962.90 705.1 1012.80	95.0730647709	962.90	705.10	Sunny(fair)	True	False	705.10
2010-06-08 15:00:00 13814 15 849.19 849.19 849.19 974.1 893.20	95.0730647709	849.19	974.10	Sunny(partly_cloudy)	True	False	974.10
2010-06-08 16:00:00 13815 16 613.80 613.80 613.80 682.8 716.10	85.7142857143	613.80	682.80	Sunny(sunny)	True	False	682.80
2010-06-08 17:00:00 13816 17 359.66 359.66 359.66 338.1 419.60	85.7142857143	359.66	338.10	Sunny(partly_cloudy)	True	False	338.10
2010-06-08 18:00:00 13817 18 183.60 183.60 183.60 171.7 214.20	85.7142857143	183.60	171.70	Sunny(sunny)	True	False	171.70
2010-06-08 19:00:00 13818 19 45.77 45.77 45.77 30.7 53.40	85.7142857143	45.77	30.70	Mostly_Sunny(mostly_cloudy)	False	False	30.70
2010-06-08 20:00:00 13819 20 2.40 2.40 2.40 0.4 2.80	85.7142857143	2.40	0.40	Mostly_Sunny(sunny)	False	False	0.40
2010-06-08 21:00:00 13820 21 0.00 0.00 0.00 0.0 0.00	85.7142857143	0.00	0.00	Mostly_Clear(fair)	False	False	0.00
2010-06-08 22:00:00 13821 22 0.00 0.00 0.00 0.0 0.00	85.7142857143	0.00	0.00	Clear(clear)	True	False	0.00
2010-06-08 23:00:00 13822 23 0.00 0.00 0.00 0.0 0.00	85.7142857143	0.00	0.00	Clear(fair)	True	False	0.00
2010-06-09 00:00:00 13823 0 0.00 0.00 0.00 0.0 0.00	85.7142857143	0.00	0.00	Clear(partly_cloudy)	True	False	0.00
2010-06-09 01:00:00 13824 1 0.00 0.00 0.00 0.0 0.00	85.7142857143	0.00	0.00	Clear(fair)	True	False	0.00
2010-06-09 02:00:00 13825 2 0.00 0.00 0.00 0.0 0.00	85.7142857143	0.00	0.00	Clear(partly_cloudy)	True	False	0.00
2010-06-09 03:00:00 13826 3 0.00 0.00 0.00 0.0 0.00	85.7142857143	0.00	0.00	Clear(mostly_cloudy)	True	False	0.00
2010-06-09 04:00:00 13827 4 0.00 0.00 0.00 0.0 0.00	78.9788933257	0.00	0.00	Partly_Cloudy(fair)	True	False	0.00
2010-06-09 05:00:00 13828 5 1.42 1.42 1.42 3.7 1.80	78.9788933257	1.42	3.70	Partly_Cloudy(sunny)	True	False	3.70
2010-06-09 06:00:00 13829 6 58.05 58.05 58.05 89.7 73.50	78.9788933257	58.05	89.70	Partly_Cloudy(fair)	True	False	89.70
2010-06-09 07:00:00 13830 7 196.26 196.26 196.26 188.7 248.50	78.9788933257	196.26	188.70	Partly_Cloudy(partly_cloudy)	True	False	188.70
2010-06-09 08:00:00 13831 8 420.01 420.01 420.01 212.0 531.80	78.9788933257	420.01	212.00	Partly_Cloudy(mostly_cloudy)	True	False	212.00
2010-06-09 09:00:00 13832 9 599.77 599.77 599.77 347.4 759.40	78.9788933257	599.77	347.40	Partly_Cloudy(partly_cloudy)	True	False	347.40
2010-06-09 10:00:00 13833 10 514.91 514.91 514.91 319.6 929.60	55.3907586994	514.91	319.60	Mostly_Cloudy(mostly_cloudy)	True	False	319.60
2010-06-09 11:00:00 13834 11 582.60 582.60 582.60 302.3 1051.80	55.3907586994	582.60	302.30	Mostly_Cloudy(mostly_cloudy)	True	False	302.30
2010-06-09 12:00:00 13835 12 544.41 544.41 544.41 216.2 1094.20	49.754606908	544.41	216.20	Cloudy(light_rain)	True	False	216.20
