2010-06-20 19:00:00 29418 19 62.24 66.36 66.36 37.0 81.40	76.4629948365	66.36	37.00	Sunny(sunny)	True	False	37.00
2010-06-20 20:00:00 29419 20 5.12 3.05 3.05 2.8 6.70	76.4629948365	3.05	2.80	Sunny(sunny)	True	False	2.80
2010-06-20 21:00:00 29420 21 0.00 0.00 0.00 0.0 0.00	76.4629948365	0.00	0.00	Clear(clear)	True	False	0.00
2010-06-20 22:00:00 29421 22 0.00 0.00 0.00 0.0 0.00	76.4629948365	0.00	0.00	Clear(clear)	True	False	0.00
2010-06-20 23:00:00 29422 23 0.00 0.00 0.00 0.0 0.00	76.4629948365	0.00	0.00	Clear(clear)	True	False	0.00
2010-06-21 00:00:00 29423 0 0.00 0.00 0.00 0.0 0.00	76.4629948365	0.00	0.00	Clear(clear)	True	False	0.00
2010-06-21 01:00:00 29424 1 0.00 0.00 0.00 0.0 0.00	76.4629948365	0.00	0.00	Clear(fair)	True	False	0.00
2010-06-21 02:00:00 29425 2 0.00 0.00 0.00 0.0 0.00	76.4629948365	0.00	0.00	Clear(clear)	True	False	0.00
2010-06-21 03:00:00 29426 3 0.00 0.00 0.00 0.0 0.00	76.4629948365	0.00	0.00	Clear(clear)	True	False	0.00
2010-06-21 04:00:00 29427 4 0.00 0.00 0.00 0.0 0.00	76.4629948365	0.00	0.00	Mostly_Clear(clear)	False	False	0.00
2010-06-21 05:00:00 29428 5 1.38 1.38 1.38 0.0 1.80	76.4629948365	1.38	0.00	Mostly_Clear(sunny)	False	False	0.00
2010-06-21 06:00:00 29429 6 56.20 56.20 56.20 35.2 73.50	76.4629948365	56.20	35.20	Mostly_Sunny(sunny)	False	False	35.20
2010-06-21 07:00:00 29430 7 168.45 168.45 168.45 175.9 220.30	76.4629948365	168.45	175.90	Sunny(sunny)	True	False	175.90
2010-06-21 08:00:00 29431 8 371.23 371.23 371.23 390.0 485.50	76.4629948365	371.23	390.00	Sunny(sunny)	True	False	390.00
2010-06-21 09:00:00 29432 9 530.96 530.96 530.96 579.6 694.40	76.4629948365	530.96	579.60	Sunny(sunny)	True	False	579.60
2010-06-21 10:00:00 29433 10 757.84 757.84 757.84 694.0 929.60	81.5227679041	757.84	694.00	Sunny(sunny)	True	False	694.00
2010-06-21 11:00:00 29434 11 769.74 769.74 769.74 806.3 944.20	81.5227679041	769.74	806.30	Sunny(sunny)	True	False	806.30
2010-06-21 12:00:00 29435 12 765.34 765.34 765.34 710.9 938.80	81.5227679041	765.34	710.90	Sunny(fair)	True	False	710.90
2010-06-21 13:00:00 29436 13 865.09 865.09 865.09 759.8 1040.80	83.1179834781	865.09	759.80	Partly_Cloudy(partly_cloudy)	True	False	759.80
2010-06-21 14:00:00 29437 14 790.37 790.37 790.37 741.8 950.90	83.1179834781	790.37	741.80	Partly_Cloudy(fair)	True	False	741.80
2010-06-21 15:00:00 29438 15 665.19 665.19 665.19 695.9 800.30	83.1179834781	665.19	695.90	Partly_Cloudy(fair)	True	False	695.90
2010-06-21 16:00:00 29439 16 540.73 540.73 540.73 415.9 716.10	75.5102040816	540.73	415.90	Partly_Cloudy(fair)	True	False	415.90
2010-06-21 17:00:00 29440 17 364.49 364.49 364.49 352.2 482.70	75.5102040816	364.49	352.20	Partly_Cloudy(fair)	True	False	352.20
2010-06-21 18:00:00 29441 18 161.74 161.74 161.74 125.3 214.20	75.5102040816	161.74	125.30	Partly_Cloudy(sunny)	True	False	125.30
2010-06-21 19:00:00 29442 19 61.47 61.47 61.47 37.2 81.40	75.5102040816	61.47	37.20	Partly_Cloudy(sunny)	True	False	37.20
2010-06-21 20:00:00 29443 20 5.06 5.06 5.06 2.3 6.70	75.5102040816	5.06	2.30	Partly_Cloudy(sunny)	True	False	2.30
2010-06-21 21:00:00 29444 21 0.00 0.00 0.00 0.0 0.00	75.5102040816	0.00	0.00	Partly_Cloudy(clear)	True	False	0.00
2010-06-21 22:00:00 29445 22 0.00 0.00 0.00 0.0 0.00	75.5102040816	0.00	0.00	Partly_Cloudy(clear)	True	False	0.00
2010-06-21 23:00:00 29446 23 0.00 0.00 0.00 0.0 0.00	75.5102040816	0.00	0.00	Partly_Cloudy(clear)	True	False	0.00
2010-06-22 00:00:00 29447 0 0.00 0.00 0.00 0.0 0.00	75.5102040816	0.00	0.00	Partly_Cloudy(mostly_cloudy)	True	False	0.00
2010-06-22 01:00:00 29448 1 0.00 0.00 0.00 0.0 0.00	75.5102040816	0.00	0.00	Partly_Cloudy(clear)	True	False	0.00
2010-06-22 02:00:00 29449 2 0.00 0.00 0.00 0.0 0.00	75.5102040816	0.00	0.00	Partly_Cloudy(partly_cloudy)	True	False	0.00
2010-06-22 03:00:00 29450 3 0.00 0.00 0.00 0.0 0.00	75.5102040816	0.00	0.00	Partly_Cloudy(clear)	True	False	0.00
2010-06-22 04:00:00 29451 4 0.00 0.00 0.00 0.0 0.00	75.5102040816	0.00	0.00	Partly_Cloudy(partly_cloudy)	True	False	0.00
2010-06-22 05:00:00 29452 5 1.36 1.36 1.36 0.0 1.80	75.5102040816	1.36	0.00	Partly_Cloudy(partly_cloudy)	True	False	0.00
2010-06-22 06:00:00 29453 6 55.50 55.50 55.50 45.9 73.50	75.5102040816	55.50	45.90	Partly_Cloudy(partly_cloudy)	True	False	45.90
2010-06-22 07:00:00 29454 7 166.35 166.35 166.35 182.7 220.30	75.5102040816	166.35	182.70	Partly_Cloudy(sunny)	True	False	182.70
2010-06-22 08:00:00 29455 8 366.60 366.60 366.60 369.8 485.50	75.5102040816	366.60	369.80	Partly_Cloudy(partly_cloudy)	True	False	369.80
2010-06-22 09:00:00 29456 9 524.34 524.34 524.34 533.2 694.40	75.5102040816	524.34	533.20	Partly_Cloudy(partly_cloudy)	True	False	533.20
2010-06-22 10:00:00 29457 10 772.66 772.66 772.66 696.1 929.60	83.1179834781	772.66	696.10	Partly_Cloudy(sunny)	True	False	696.10
2010-06-22 11:00:00 29458 11 784.80 784.80 784.80 779.6 944.20	83.1179834781	784.80	779.60	Partly_Cloudy(sunny)	True	False	779.60
2010-06-22 12:00:00 29459 12 780.31 780.31 780.31 594.7 938.80	83.1179834781	780.31	594.70	Partly_Cloudy(fair)	True	False	594.70
2010-06-22 13:00:00 29460 13 715.41 715.41 715.41 638.4 1040.80	68.73668513	715.41	638.40	Mostly_Cloudy(sunny)	True	False	638.40
2010-06-22 14:00:00 29461 14 653.62 653.62 653.62 506.2 950.90	68.73668513	653.62	506.20	Mostly_Cloudy(partly_cloudy)	True	False	506.20
2010-06-22 15:00:00 29462 15 550.10 550.10 550.10 226.5 800.30	68.73668513	550.10	226.50	Mostly_Cloudy(mostly_cloudy)	True	False	226.50
2010-06-22 16:00:00 29463 16 470.90 470.90 470.90 225.0 716.10	65.7589722106	470.90	225.00	Mostly_Cloudy(mostly_cloudy)	True	False	225.00
2010-06-22 17:00:00 29464 17 317.42 317.42 317.42 148.2 482.70	65.7589722106	317.42	148.20	Mostly_Cloudy(mostly_cloudy)	True	False	148.20
2010-06-22 18:00:00 29465 18 140.86 140.86 140.86 31.6 214.20	65.7589722106	140.86	31.60	Mostly_Cloudy(sunny)	True	False	31.60
2010-06-22 19:00:00 29466 19 53.53 53.53 53.53 3.6 81.40	65.7589722106	53.53	3.60	Mostly_Cloudy(heavy_t-storm)	True	False	3.60
