2010-07-20 06:00:00 64061 6 71.02 71.02 71.02 29.5 77.70	91.3974986406	71.02	29.50	Mostly_Sunny(mostly_cloudy)	False	False	29.50
2010-07-20 07:00:00 64062 7 155.30 155.30 155.30 168.7 207.40	74.8794599807	155.30	168.70	Partly_Cloudy(fog)	True	False	168.70
2010-07-20 08:00:00 64063 8 363.84 363.84 363.84 389.8 485.90	74.8794599807	363.84	389.80	Partly_Cloudy(partly_cloudy)	True	False	389.80
2010-07-20 09:00:00 64064 9 557.93 557.93 557.93 489.4 745.10	74.8794599807	557.93	489.40	Partly_Cloudy(sunny)	True	False	489.40
2010-07-20 10:00:00 64065 10 700.03 700.03 700.03 781.8 919.50	76.1316484346	700.03	781.80	Partly_Cloudy(fair)	True	False	781.80
2010-07-20 11:00:00 64066 11 790.93 790.93 790.93 614.1 1038.90	76.1316484346	790.93	614.10	Partly_Cloudy(partly_cloudy)	True	False	614.10
2010-07-20 12:00:00 64067 12 843.61 843.61 843.61 401.2 1108.10	76.1316484346	843.61	401.20	Partly_Cloudy(partly_cloudy)	True	False	401.20
2010-07-20 13:00:00 64068 13 843.31 843.31 843.31 348.4 1107.70	76.1316484346	843.31	348.40	Partly_Cloudy(mostly_cloudy)	True	False	348.40
2010-07-20 14:00:00 64069 14 807.30 807.30 807.30 619.6 1060.40	76.1316484346	807.30	619.60	Partly_Cloudy(mostly_cloudy)	True	False	619.60
2010-07-20 15:00:00 64070 15 714.95 714.95 714.95 632.3 939.10	76.1316484346	714.95	632.30	Partly_Cloudy(partly_cloudy)	True	False	632.30
2010-07-20 16:00:00 64071 16 568.26 568.26 568.26 698.7 758.90	74.8794599807	568.26	698.70	Partly_Cloudy(partly_cloudy)	True	False	698.70
2010-07-20 17:00:00 64072 17 373.42 373.42 373.42 420.2 498.70	74.8794599807	373.42	420.20	Partly_Cloudy(fair)	True	False	420.20
2010-07-20 18:00:00 64073 18 170.28 170.28 170.28 152.7 227.40	74.8794599807	170.28	152.70	Partly_Cloudy(sunny)	True	False	152.70
2010-07-20 19:00:00 64074 19 55.26 55.26 55.26 56.0 73.80	74.8794599807	55.26	56.00	Partly_Cloudy(sunny)	True	False	56.00
2010-07-20 20:00:00 64075 20 5.09 5.09 5.09 0.6 6.80	74.8794599807	5.09	0.60	Partly_Cloudy(partly_cloudy)	True	False	0.60
2010-07-20 21:00:00 64076 21 0.00 0.00 0.00 0.0 0.00	74.8794599807	0.00	0.00	Partly_Cloudy(partly_cloudy)	True	False	0.00
2010-07-20 22:00:00 64077 22 0.00 0.00 0.00 0.0 0.00	74.8794599807	0.00	0.00	Partly_Cloudy(partly_cloudy)	True	False	0.00
2010-07-20 23:00:00 64078 23 0.00 0.00 0.00 0.0 0.00	74.8794599807	0.00	0.00	Partly_Cloudy(partly_cloudy)	True	False	0.00
2010-07-21 00:00:00 64079 0 0.00 0.00 0.00 0.0 0.00	74.8794599807	0.00	0.00	Partly_Cloudy(partly_cloudy)	True	False	0.00
2010-07-21 01:00:00 64080 1 0.00 0.00 0.00 0.0 0.00	57.2691995307	0.00	0.00	Mostly_Cloudy(partly_cloudy)	True	False	0.00
2010-07-21 02:00:00 64081 2 0.00 0.00 0.00 0.0 0.00	57.2691995307	0.00	0.00	Mostly_Cloudy(partly_cloudy)	True	False	0.00
2010-07-21 03:00:00 64082 3 0.00 0.00 0.00 0.0 0.00	57.2691995307	0.00	0.00	Mostly_Cloudy(partly_cloudy)	True	False	0.00
2010-07-21 04:00:00 64083 4 0.00 0.00 0.00 0.0 0.00	44.8647608047	0.00	0.00	Cloudy(partly_cloudy)	True	False	0.00
2010-07-21 05:00:00 64084 5 0.04 0.04 0.04 0.0 0.10	44.8647608047	0.04	0.00	Cloudy(fog)	True	False	0.00
2010-07-21 06:00:00 64085 6 34.86 34.86 34.86 22.3 77.70	44.8647608047	34.86	22.30	Cloudy(mostly_cloudy)	True	False	22.30
2010-07-21 07:00:00 64086 7 53.23 53.23 53.23 168.8 207.40	25.6667335071	53.23	168.80	Few_Showers(fair)	True	False	168.80
2010-07-21 08:00:00 64087 8 124.71 124.71 124.71 416.8 485.90	25.6667335071	124.71	416.80	Few_Showers(sunny)	True	False	416.80
2010-07-21 09:00:00 64088 9 191.24 191.24 191.24 651.7 745.10	25.6667335071	191.24	651.70	Few_Showers(sunny)	True	False	651.70
2010-07-21 10:00:00 64089 10 189.90 189.90 189.90 723.8 919.50	20.6525839306	189.90	723.80	Scattered_T-Storms(fair)	True	False	723.80
2010-07-21 11:00:00 64090 11 214.56 214.56 214.56 772.9 1038.90	20.6525839306	214.56	772.90	Scattered_T-Storms(partly_cloudy)	True	False	772.90
2010-07-21 12:00:00 64091 12 228.85 228.85 228.85 487.1 1108.10	20.6525839306	228.85	487.10	Scattered_T-Storms(fair)	True	False	487.10
2010-07-21 13:00:00 64092 13 228.77 228.77 228.77 496.0 1107.70	20.6525839306	228.77	496.00	Scattered_T-Storms(partly_cloudy)	True	False	496.00
2010-07-21 14:00:00 64093 14 219.00 219.00 219.00 921.4 1060.40	20.6525839306	219.00	921.40	Scattered_T-Storms(fair)	True	False	921.40
2010-07-21 15:00:00 64094 15 193.95 193.95 193.95 640.2 939.10	20.6525839306	193.95	640.20	Scattered_T-Storms(fair)	True	False	640.20
2010-07-21 16:00:00 64095 16 194.78 194.78 194.78 498.2 758.90	25.6667335071	194.78	498.20	Scattered_T-Storms(mostly_cloudy)	True	False	498.20
2010-07-21 17:00:00 64096 17 128.00 128.00 128.00 366.7 498.70	25.6667335071	128.00	366.70	Scattered_T-Storms(fair)	True	False	366.70
2010-07-21 18:00:00 64097 18 58.37 58.37 58.37 61.8 227.40	25.6667335071	58.37	61.80	Scattered_T-Storms(t-storm)	True	False	61.80
2010-07-21 19:00:00 64098 19 18.94 18.94 18.94 25.6 73.80	25.6667335071	18.94	25.60	Isolated_T-Storms(fair)	True	False	25.60
2010-07-21 20:00:00 64099 20 1.75 1.75 1.75 0.0 6.80	25.6667335071	1.75	0.00	Isolated_T-Storms(partly_cloudy)	True	False	0.00
2010-07-21 21:00:00 64100 21 0.00 0.00 0.00 0.0 0.00	25.6667335071	0.00	0.00	Isolated_T-Storms(light_rain)	True	False	0.00
2010-07-21 22:00:00 64101 22 0.00 0.00 0.00 0.0 0.00	74.8794599807	0.00	0.00	Partly_Cloudy(fair)	True	False	0.00
2010-07-21 23:00:00 64102 23 0.00 0.00 0.00 0.0 0.00	74.8794599807	0.00	0.00	Partly_Cloudy(fair)	True	False	0.00
2010-07-22 00:00:00 64103 0 0.00 0.00 0.00 0.0 0.00	74.8794599807	0.00	0.00	Partly_Cloudy(partly_cloudy)	True	False	0.00
2010-07-22 01:00:00 64104 1 0.00 0.00 0.00 0.0 0.00	74.8794599807	0.00	0.00	Mostly_Clear(partly_cloudy)	False	False	0.00
2010-07-22 02:00:00 64105 2 0.00 0.00 0.00 0.0 0.00	74.8794599807	0.00	0.00	Mostly_Clear(fog)	False	False	0.00
2010-07-22 03:00:00 64106 3 0.00 0.00 0.00 0.0 0.00	74.8794599807	0.00	0.00	Mostly_Clear(clear)	False	False	0.00
2010-07-22 04:00:00 64107 4 0.00 0.00 0.00 0.0 0.00	81.9715990945	0.00	0.00	Clear(clear)	True	False	0.00
2010-07-22 05:00:00 64108 5 0.08 0.08 0.08 0.0 0.10	81.9715990945	0.08	0.00	Clear(clear)	True	False	0.00
2010-07-22 06:00:00 64109 6 63.69 63.69 63.69 16.5 77.70	81.9715990945	63.69	16.50	Sunny(sunny)	True	False	16.50
