2010-06-15 02:00:00 22705 2 0.00 0.00 0.00 0.0 0.00	78.1684981685	0.00	0.00	Partly_Cloudy(fair)	True	False	0.00
2010-06-15 03:00:00 22706 3 0.00 0.00 0.00 0.0 0.00	78.1684981685	0.00	0.00	Partly_Cloudy(clear)	True	False	0.00
2010-06-15 04:00:00 22707 4 0.00 0.00 0.00 0.0 0.00	78.1684981685	0.00	0.00	Partly_Cloudy(clear)	True	False	0.00
2010-06-15 05:00:00 22708 5 1.41 1.41 1.41 0.0 1.80	78.1684981685	1.41	0.00	Partly_Cloudy(fair)	True	False	0.00
2010-06-15 06:00:00 22709 6 57.45 57.45 57.45 45.9 73.50	78.1684981685	57.45	45.90	Partly_Cloudy(partly_cloudy)	True	False	45.90
2010-06-15 07:00:00 22710 7 172.21 172.21 172.21 225.9 220.30	78.1684981685	172.21	225.90	Partly_Cloudy(sunny)	True	False	225.90
2010-06-15 08:00:00 22711 8 320.10 320.10 320.10 505.2 409.50	78.1684981685	320.10	505.20	Partly_Cloudy(fair)	True	False	505.20
2010-06-15 09:00:00 22712 9 535.30 535.30 535.30 755.8 684.80	78.1684981685	535.30	755.80	Partly_Cloudy(sunny)	True	False	755.80
2010-06-15 10:00:00 22713 10 791.46 791.46 791.46 935.8 929.60	85.1401260048	791.46	935.80	Partly_Cloudy(sunny)	True	False	935.80
2010-06-15 11:00:00 22714 11 803.89 803.89 803.89 1041.9 944.20	85.1401260048	803.89	1041.90	Partly_Cloudy(sunny)	True	False	1041.90
2010-06-15 12:00:00 22715 12 799.30 799.30 799.30 1082.1 938.80	85.1401260048	799.30	1082.10	Partly_Cloudy(sunny)	True	False	1082.10
2010-06-15 13:00:00 22716 13 803.33 803.33 803.33 1084.8 1040.80	77.1837349398	803.33	1084.80	Sunny(sunny)	True	False	1084.80
2010-06-15 14:00:00 22717 14 710.55 710.55 710.55 1016.8 920.60	77.1837349398	710.55	1016.80	Sunny(sunny)	True	False	1016.80
2010-06-15 15:00:00 22718 15 617.70 617.70 617.70 895.8 800.30	77.1837349398	617.70	895.80	Sunny(sunny)	True	False	895.80
2010-06-15 16:00:00 22719 16 546.80 546.80 546.80 710.0 716.10	76.3580607477	546.80	710.00	Sunny(fair)	True	False	710.00
2010-06-15 17:00:00 22720 17 325.59 325.59 325.59 448.1 426.40	76.3580607477	325.59	448.10	Sunny(sunny)	True	False	448.10
2010-06-15 18:00:00 22721 18 163.56 163.56 163.56 184.4 214.20	76.3580607477	163.56	184.40	Sunny(sunny)	True	False	184.40
2010-06-15 19:00:00 22722 19 40.78 40.78 40.78 44.0 53.40	76.3580607477	40.78	44.00	Mostly_Sunny(sunny)	False	False	44.00
2010-06-15 20:00:00 22723 20 2.67 2.67 2.67 1.9 3.50	76.3580607477	2.67	1.90	Mostly_Sunny(sunny)	False	False	1.90
2010-06-15 21:00:00 22724 21 0.00 0.00 0.00 0.0 0.00	76.3580607477	0.00	0.00	Mostly_Clear(clear)	False	False	0.00
2010-06-15 22:00:00 22725 22 0.00 0.00 0.00 0.0 0.00	78.1684981685	0.00	0.00	Partly_Cloudy(clear)	True	False	0.00
2010-06-15 23:00:00 22726 23 0.00 0.00 0.00 0.0 0.00	78.1684981685	0.00	0.00	Partly_Cloudy(clear)	True	False	0.00
2010-06-16 00:00:00 22727 0 0.00 0.00 0.00 0.0 0.00	78.1684981685	0.00	0.00	Partly_Cloudy(clear)	True	False	0.00
2010-06-16 01:00:00 22728 1 0.00 0.00 0.00 0.0 0.00	64.6258503401	0.00	0.00	Mostly_Cloudy(clear)	True	False	0.00
2010-06-16 02:00:00 22729 2 0.00 0.00 0.00 0.0 0.00	64.6258503401	0.00	0.00	Mostly_Cloudy(clear)	True	False	0.00
2010-06-16 03:00:00 22730 3 0.00 0.00 0.00 0.0 0.00	64.6258503401	0.00	0.00	Mostly_Cloudy(mostly_cloudy)	True	False	0.00
2010-06-16 04:00:00 22731 4 0.00 0.00 0.00 0.0 0.00	46.2470794393	0.00	0.00	Cloudy(cloudy)	True	False	0.00
2010-06-16 05:00:00 22732 5 0.83 0.83 0.83 0.0 1.80	46.2470794393	0.83	0.00	Cloudy(cloudy)	True	False	0.00
2010-06-16 06:00:00 22733 6 33.99 33.99 33.99 25.3 73.50	46.2470794393	33.99	25.30	Cloudy(cloudy)	True	False	25.30
2010-06-16 07:00:00 22734 7 101.88 101.88 101.88 131.9 220.30	46.2470794393	101.88	131.90	Cloudy(cloudy)	True	False	131.90
2010-06-16 08:00:00 22735 8 189.38 189.38 189.38 127.3 409.50	46.2470794393	189.38	127.30	Cloudy(cloudy)	True	False	127.30
2010-06-16 09:00:00 22736 9 316.70 316.70 316.70 265.3 684.80	46.2470794393	316.70	265.30	Cloudy(cloudy)	True	False	265.30
2010-06-16 10:00:00 22737 10 123.29 123.29 123.29 186.9 929.60	13.2630892896	123.29	186.90	Few_Showers(cloudy)	True	False	186.90
2010-06-16 11:00:00 22738 11 125.23 125.23 125.23 369.6 944.20	13.2630892896	125.23	369.60	Few_Showers(cloudy)	True	False	369.60
2010-06-16 12:00:00 22739 12 124.51 124.51 124.51 361.7 938.80	13.2630892896	124.51	361.70	Few_Showers(cloudy)	True	False	361.70
2010-06-16 13:00:00 22740 13 146.97 146.97 146.97 746.4 1040.80	14.1212252879	146.97	746.40	Showers(cloudy)	True	False	746.40
2010-06-16 14:00:00 22741 14 130.00 130.00 130.00 522.7 920.60	14.1212252879	130.00	522.70	Showers(cloudy)	True	False	522.70
2010-06-16 15:00:00 22742 15 113.01 113.01 113.01 667.9 800.30	14.1212252879	113.01	667.90	Showers(cloudy)	True	False	667.90
2010-06-16 16:00:00 22743 16 105.04 105.04 105.04 486.1 716.10	14.6676608436	105.04	486.10	Showers(partly_cloudy)	True	False	486.10
2010-06-16 17:00:00 22744 17 62.54 62.54 62.54 211.4 426.40	14.6676608436	62.54	211.40	Showers(cloudy)	True	False	211.40
2010-06-16 18:00:00 22745 18 31.42 31.42 31.42 51.7 214.20	14.6676608436	31.42	51.70	Showers(cloudy)	True	False	51.70
2010-06-16 19:00:00 22746 19 7.53 7.53 7.53 7.8 53.40	14.0947144821	7.53	7.80	Scattered_T-Storms(cloudy)	True	False	7.80
2010-06-16 20:00:00 22747 20 0.49 0.49 0.49 0.0 3.50	14.0947144821	0.49	0.00	Scattered_T-Storms(cloudy)	True	False	0.00
2010-06-16 21:00:00 22748 21 0.00 0.00 0.00 0.0 0.00	14.0947144821	0.00	0.00	Scattered_T-Storms(cloudy)	True	False	0.00
2010-06-16 22:00:00 22749 22 0.00 0.00 0.00 0.0 0.00	14.0947144821	0.00	0.00	Isolated_T-Storms(cloudy)	True	False	0.00
2010-06-16 23:00:00 22750 23 0.00 0.00 0.00 0.0 0.00	14.0947144821	0.00	0.00	Isolated_T-Storms(cloudy)	True	False	0.00
2010-06-17 00:00:00 22751 0 0.00 0.00 0.00 0.0 0.00	14.0947144821	0.00	0.00	Isolated_T-Storms(cloudy)	True	False	0.00
2010-06-17 01:00:00 22752 1 0.00 0.00 0.00 0.0 0.00	64.6258503401	0.00	0.00	Mostly_Cloudy(t-storm)	True	False	0.00
2010-06-17 02:00:00 22753 2 0.00 0.00 0.00 0.0 0.00	64.6258503401	0.00	0.00	Mostly_Cloudy(cloudy)	True	False	0.00
