2010-07-02 06:00:00 42893 6 57.67 57.67 57.67 33.8 77.70	74.2258734314	57.67	33.80	Sunny(sunny)	True	False	33.80
2010-07-02 07:00:00 42894 7 163.52 163.52 163.52 174.8 220.30	74.2258734314	163.52	174.80	Sunny(sunny)	True	False	174.80
2010-07-02 08:00:00 42895 8 360.66 360.66 360.66 402.7 485.90	74.2258734314	360.66	402.70	Sunny(sunny)	True	False	402.70
2010-07-02 09:00:00 42896 9 552.02 552.02 552.02 601.8 743.70	74.2258734314	552.02	601.80	Sunny(sunny)	True	False	601.80
2010-07-02 10:00:00 42897 10 716.52 716.52 716.52 709.2 929.60	77.0786313984	716.52	709.20	Sunny(sunny)	True	False	709.20
2010-07-02 11:00:00 42898 11 799.84 799.84 799.84 475.6 1037.70	77.0786313984	799.84	475.60	Sunny(sunny)	True	False	475.60
2010-07-02 12:00:00 42899 12 854.11 854.11 854.11 570.8 1108.10	77.0786313984	854.11	570.80	Sunny(fair)	True	False	570.80
2010-07-02 13:00:00 42900 13 853.80 853.80 853.80 785.8 1107.70	77.0786313984	853.80	785.80	Sunny(fair)	True	False	785.80
2010-07-02 14:00:00 42901 14 817.34 817.34 817.34 716.5 1060.40	77.0786313984	817.34	716.50	Sunny(mostly_cloudy)	True	False	716.50
2010-07-02 15:00:00 42902 15 723.85 723.85 723.85 791.5 939.10	77.0786313984	723.85	791.50	Sunny(mostly_cloudy)	True	False	791.50
2010-07-02 16:00:00 42903 16 552.54 552.54 552.54 510.9 744.40	74.2258734314	552.54	510.90	Sunny(partly_cloudy)	True	False	510.90
2010-07-02 17:00:00 42904 17 359.77 359.77 359.77 407.2 484.70	74.2258734314	359.77	407.20	Sunny(partly_cloudy)	True	False	407.20
2010-07-02 18:00:00 42905 18 167.60 167.60 167.60 159.1 225.80	74.2258734314	167.60	159.10	Sunny(sunny)	True	False	159.10
2010-07-02 19:00:00 42906 19 60.42 60.42 60.42 34.5 81.40	74.2258734314	60.42	34.50	Sunny(sunny)	True	False	34.50
2010-07-02 20:00:00 42907 20 5.05 5.05 5.05 1.9 6.80	74.2258734314	5.05	1.90	Sunny(sunny)	True	False	1.90
2010-07-02 21:00:00 42908 21 0.00 0.00 0.00 0.0 0.00	74.2258734314	0.00	0.00	Clear(clear)	True	False	0.00
2010-07-02 22:00:00 42909 22 0.00 0.00 0.00 0.0 0.00	74.2258734314	0.00	0.00	Clear(clear)	True	False	0.00
2010-07-02 23:00:00 42910 23 0.00 0.00 0.00 0.0 0.00	74.2258734314	0.00	0.00	Clear(clear)	True	False	0.00
2010-07-03 00:00:00 42911 0 0.00 0.00 0.00 0.0 0.00	74.2258734314	0.00	0.00	Clear(clear)	True	False	0.00
2010-07-03 01:00:00 42912 1 0.00 0.00 0.00 0.0 0.00	74.2258734314	0.00	0.00	Clear(clear)	True	False	0.00
2010-07-03 02:00:00 42913 2 0.00 0.00 0.00 0.0 0.00	74.2258734314	0.00	0.00	Clear(clear)	True	False	0.00
2010-07-03 03:00:00 42914 3 0.00 0.00 0.00 0.0 0.00	74.2258734314	0.00	0.00	Clear(clear)	True	False	0.00
2010-07-03 04:00:00 42915 4 0.00 0.00 0.00 0.0 0.00	72.3352145671	0.00	0.00	Partly_Cloudy(clear)	True	False	0.00
2010-07-03 05:00:00 42916 5 1.23 1.23 1.23 0.0 1.70	72.3352145671	1.23	0.00	Partly_Cloudy(sunny)	True	False	0.00
2010-07-03 06:00:00 42917 6 56.20 56.20 56.20 36.9 77.70	72.3352145671	56.20	36.90	Partly_Cloudy(sunny)	True	False	36.90
2010-07-03 07:00:00 42918 7 159.35 159.35 159.35 190.1 220.30	72.3352145671	159.35	190.10	Partly_Cloudy(sunny)	True	False	190.10
2010-07-03 08:00:00 42919 8 351.48 351.48 351.48 385.4 485.90	72.3352145671	351.48	385.40	Partly_Cloudy(sunny)	True	False	385.40
2010-07-03 09:00:00 42920 9 537.96 537.96 537.96 585.9 743.70	72.3352145671	537.96	585.90	Partly_Cloudy(sunny)	True	False	585.90
2010-07-03 10:00:00 42921 10 716.52 716.52 716.52 735.8 929.60	77.0786313984	716.52	735.80	Sunny(sunny)	True	False	735.80
2010-07-03 11:00:00 42922 11 799.84 799.84 799.84 823.1 1037.70	77.0786313984	799.84	823.10	Sunny(sunny)	True	False	823.10
2010-07-03 12:00:00 42923 12 854.11 854.11 854.11 857.9 1108.10	77.0786313984	854.11	857.90	Sunny(sunny)	True	False	857.90
2010-07-03 13:00:00 42924 13 853.80 853.80 853.80 853.4 1107.70	77.0786313984	853.80	853.40	Sunny(sunny)	True	False	853.40
2010-07-03 14:00:00 42925 14 817.34 817.34 817.34 806.0 1060.40	77.0786313984	817.34	806.00	Sunny(sunny)	True	False	806.00
2010-07-03 15:00:00 42926 15 723.85 723.85 723.85 711.3 939.10	77.0786313984	723.85	711.30	Sunny(sunny)	True	False	711.30
2010-07-03 16:00:00 42927 16 552.54 552.54 552.54 563.3 744.40	74.2258734314	552.54	563.30	Sunny(sunny)	True	False	563.30
2010-07-03 17:00:00 42928 17 359.77 359.77 359.77 349.9 484.70	74.2258734314	359.77	349.90	Sunny(sunny)	True	False	349.90
2010-07-03 18:00:00 42929 18 167.60 167.60 167.60 142.1 225.80	74.2258734314	167.60	142.10	Sunny(sunny)	True	False	142.10
2010-07-03 19:00:00 42930 19 60.42 60.42 60.42 23.9 81.40	74.2258734314	60.42	23.90	Sunny(sunny)	True	False	23.90
2010-07-03 20:00:00 42931 20 5.05 5.05 5.05 1.7 6.80	74.2258734314	5.05	1.70	Sunny(sunny)	True	False	1.70
2010-07-03 21:00:00 42932 21 0.00 0.00 0.00 0.0 0.00	74.2258734314	0.00	0.00	Clear(clear)	True	False	0.00
2010-07-03 22:00:00 42933 22 0.00 0.00 0.00 0.0 0.00	74.2258734314	0.00	0.00	Clear(clear)	True	False	0.00
2010-07-03 23:00:00 42934 23 0.00 0.00 0.00 0.0 0.00	74.2258734314	0.00	0.00	Clear(clear)	True	False	0.00
2010-07-04 00:00:00 42935 0 0.00 0.00 0.00 0.0 0.00	74.2258734314	0.00	0.00	Clear(clear)	True	False	0.00
2010-07-04 01:00:00 42936 1 0.00 0.00 0.00 0.0 0.00	74.2258734314	0.00	0.00	Clear(clear)	True	False	0.00
2010-07-04 02:00:00 42937 2 0.00 0.00 0.00 0.0 0.00	74.2258734314	0.00	0.00	Clear(clear)	True	False	0.00
2010-07-04 03:00:00 42938 3 0.00 0.00 0.00 0.0 0.00	74.2258734314	0.00	0.00	Clear(clear)	True	False	0.00
2010-07-04 04:00:00 42939 4 0.00 0.00 0.00 0.0 0.00	74.2258734314	0.00	0.00	Clear(clear)	True	False	0.00
2010-07-04 05:00:00 42940 5 1.26 1.26 1.26 0.0 1.70	74.2258734314	1.26	0.00	Clear(sunny)	True	False	0.00
2010-07-04 06:00:00 42941 6 57.67 57.67 57.67 24.5 77.70	74.2258734314	57.67	24.50	Sunny(sunny)	True	False	24.50
