2010-07-06 16:00:00 48087 16 605.22 605.22 605.22 534.6 758.90	79.7498640566	605.22	534.60	Mostly_Sunny(sunny)	False	False	534.60
2010-07-06 17:00:00 48088 17 351.30 351.30 351.30 334.5 498.70	79.7498640566	351.30	334.50	Mostly_Sunny(sunny)	False	False	334.50
2010-07-06 18:00:00 48089 18 180.08 159.06 180.08 141.3 225.80	79.7498640566	180.08	141.30	Mostly_Sunny(sunny)	False	False	141.30
2010-07-06 19:00:00 48090 19 62.43 57.34 62.43 43.9 81.40	76.6988538941	62.43	43.90	Sunny(sunny)	True	False	43.90
2010-07-06 20:00:00 48091 20 5.22 4.79 5.22 1.8 6.80	76.6988538941	5.22	1.80	Sunny(sunny)	True	False	1.80
2010-07-06 21:00:00 48092 21 0.00 0.00 0.00 0.0 0.00	76.6988538941	0.00	0.00	Clear(clear)	True	False	0.00
2010-07-06 22:00:00 48093 22 0.00 0.00 0.00 0.0 0.00	76.6988538941	0.00	0.00	Clear(fair)	True	False	0.00
2010-07-06 23:00:00 48094 23 0.00 0.00 0.00 0.0 0.00	76.6988538941	0.00	0.00	Clear(fair)	True	False	0.00
2010-07-07 00:00:00 48095 0 0.00 0.00 0.00 0.0 0.00	76.6988538941	0.00	0.00	Clear(fair)	True	False	0.00
2010-07-07 01:00:00 48096 1 0.00 0.00 0.00 0.0 0.00	76.6988538941	0.00	0.00	Clear(fair)	True	False	0.00
2010-07-07 02:00:00 48097 2 0.00 0.00 0.00 0.0 0.00	76.6988538941	0.00	0.00	Clear(fair)	True	False	0.00
2010-07-07 03:00:00 48098 3 0.00 0.00 0.00 0.0 0.00	76.6988538941	0.00	0.00	Clear(fair)	True	False	0.00
2010-07-07 04:00:00 48099 4 0.00 0.00 0.00 0.0 0.00	76.6988538941	0.00	0.00	Clear(cloudy)	True	False	0.00
2010-07-07 05:00:00 48100 5 0.23 0.23 0.23 0.0 0.30	76.6988538941	0.23	0.00	Clear(partly_cloudy)	True	False	0.00
2010-07-07 06:00:00 48101 6 59.60 59.60 59.60 41.1 77.70	76.6988538941	59.60	41.10	Sunny(mostly_cloudy)	True	False	41.10
2010-07-07 07:00:00 48102 7 159.07 159.07 159.07 155.3 207.40	76.6988538941	159.07	155.30	Sunny(partly_cloudy)	True	False	155.30
2010-07-07 08:00:00 48103 8 372.68 372.68 372.68 350.2 485.90	76.6988538941	372.68	350.20	Sunny(fair)	True	False	350.20
2010-07-07 09:00:00 48104 9 571.48 571.48 571.48 521.5 745.10	76.6988538941	571.48	521.50	Sunny(sunny)	True	False	521.50
2010-07-07 10:00:00 48105 10 733.30 733.30 733.30 656.0 919.50	79.7498640566	733.30	656.00	Sunny(sunny)	True	False	656.00
2010-07-07 11:00:00 48106 11 828.52 828.52 828.52 758.5 1038.90	79.7498640566	828.52	758.50	Sunny(sunny)	True	False	758.50
2010-07-07 12:00:00 48107 12 883.71 883.71 883.71 803.8 1108.10	79.7498640566	883.71	803.80	Sunny(sunny)	True	False	803.80
2010-07-07 13:00:00 48108 13 883.39 883.39 883.39 226.6 1107.70	79.7498640566	883.39	226.60	Sunny(sunny)	True	False	226.60
2010-07-07 14:00:00 48109 14 845.67 845.67 845.67 5.3 1060.40	79.7498640566	845.67	5.30	Sunny(fair)	True	False	5.30
2010-07-07 15:00:00 48110 15 748.93 748.93 748.93 646.8 939.10	79.7498640566	748.93	646.80	Sunny(fair)	True	False	646.80
2010-07-07 16:00:00 48111 16 605.22 605.22 605.22 505.8 758.90	79.7498640566	605.22	505.80	Mostly_Sunny(fair)	False	False	505.80
2010-07-07 17:00:00 48112 17 397.71 397.71 397.71 312.2 498.70	79.7498640566	397.71	312.20	Mostly_Sunny(fair)	False	False	312.20
2010-07-07 18:00:00 48113 18 180.08 180.08 180.08 141.8 225.80	79.7498640566	180.08	141.80	Mostly_Sunny(mostly_cloudy)	False	False	141.80
2010-07-07 19:00:00 48114 19 64.92 64.92 64.92 41.0 81.40	79.7498640566	64.92	41.00	Mostly_Sunny(fair)	False	False	41.00
2010-07-07 20:00:00 48115 20 5.42 5.42 5.42 2.6 6.80	79.7498640566	5.42	2.60	Mostly_Sunny(sunny)	False	False	2.60
2010-07-07 21:00:00 48116 21 0.00 0.00 0.00 0.0 0.00	79.7498640566	0.00	0.00	Mostly_Clear(clear)	False	False	0.00
2010-07-07 22:00:00 48117 22 0.00 0.00 0.00 0.0 0.00	76.6988538941	0.00	0.00	Clear(clear)	True	False	0.00
2010-07-07 23:00:00 48118 23 0.00 0.00 0.00 0.0 0.00	76.6988538941	0.00	0.00	Clear(partly_cloudy)	True	False	0.00
2010-07-08 00:00:00 48119 0 0.00 0.00 0.00 0.0 0.00	76.6988538941	0.00	0.00	Clear(fair)	True	False	0.00
2010-07-08 01:00:00 48120 1 0.00 0.00 0.00 0.0 0.00	76.6988538941	0.00	0.00	Clear(clear)	True	False	0.00
2010-07-08 02:00:00 48121 2 0.00 0.00 0.00 0.0 0.00	76.6988538941	0.00	0.00	Clear(clear)	True	False	0.00
2010-07-08 03:00:00 48122 3 0.00 0.00 0.00 0.0 0.00	76.6988538941	0.00	0.00	Clear(clear)	True	False	0.00
2010-07-08 04:00:00 48123 4 0.00 0.00 0.00 0.0 0.00	76.6988538941	0.00	0.00	Clear(clear)	True	False	0.00
2010-07-08 05:00:00 48124 5 0.23 0.23 0.23 0.0 0.30	76.6988538941	0.23	0.00	Clear(clear)	True	False	0.00
2010-07-08 06:00:00 48125 6 59.60 59.60 59.60 22.0 77.70	76.6988538941	59.60	22.00	Sunny(fog)	True	False	22.00
2010-07-08 07:00:00 48126 7 159.07 159.07 159.07 75.0 207.40	76.6988538941	159.07	75.00	Sunny(sunny)	True	False	75.00
2010-07-08 08:00:00 48127 8 372.68 372.68 372.68 120.0 485.90	76.6988538941	372.68	120.00	Sunny(cloudy)	True	False	120.00
2010-07-08 09:00:00 48128 9 571.48 571.48 571.48 246.0 745.10	76.6988538941	571.48	246.00	Sunny(fair)	True	False	246.00
2010-07-08 10:00:00 48129 10 733.30 733.30 733.30 296.5 919.50	79.7498640566	733.30	296.50	Sunny(cloudy)	True	False	296.50
2010-07-08 11:00:00 48130 11 828.52 828.52 828.52 195.1 1038.90	79.7498640566	828.52	195.10	Sunny(partly_cloudy)	True	False	195.10
2010-07-08 12:00:00 48131 12 883.71 883.71 883.71 313.9 1108.10	79.7498640566	883.71	313.90	Sunny(partly_cloudy)	True	False	313.90
2010-07-08 13:00:00 48132 13 883.39 883.39 883.39 441.0 1107.70	79.7498640566	883.39	441.00	Mostly_Sunny(light_rain)	False	False	441.00
2010-07-08 14:00:00 48133 14 845.67 845.67 845.67 624.2 1060.40	79.7498640566	845.67	624.20	Mostly_Sunny(partly_cloudy)	False	False	624.20
2010-07-08 15:00:00 48134 15 748.93 748.93 748.93 622.4 939.10	79.7498640566	748.93	622.40	Mostly_Sunny(mostly_cloudy)	False	False	622.40
2010-07-08 16:00:00 48135 16 559.50 559.50 559.50 535.7 758.90	73.7248504622	559.50	535.70	Partly_Cloudy(mostly_cloudy)	True	False	535.70
