2010-07-23 08:00:00 67687 8 269.70 269.70 269.70 343.3 485.90	55.5052479934	269.70	343.30	Mostly_Cloudy(partly_cloudy)	True	False	343.30
2010-07-23 09:00:00 67688 9 546.21 546.21 546.21 215.8 745.10	73.3069481091	546.21	215.80	Partly_Cloudy(partly_cloudy)	True	False	215.80
2010-07-23 10:00:00 67689 10 534.41 534.41 534.41 186.0 919.50	58.1195775179	534.41	186.00	Mostly_Cloudy(mostly_cloudy)	True	False	186.00
2010-07-23 11:00:00 67690 11 603.80 603.80 603.80 220.9 1038.90	58.1195775179	603.80	220.90	Mostly_Cloudy(mostly_cloudy)	True	False	220.90
2010-07-23 12:00:00 67691 12 644.02 644.02 644.02 462.6 1108.10	58.1195775179	644.02	462.60	Mostly_Cloudy(light_rain)	True	False	462.60
2010-07-23 13:00:00 67692 13 643.79 643.79 643.79 463.5 1107.70	58.1195775179	643.79	463.50	Mostly_Cloudy(mostly_cloudy)	True	False	463.50
2010-07-23 14:00:00 67693 14 616.30 616.30 616.30 463.5 1060.40	58.1195775179	616.30	463.50	Mostly_Cloudy(mostly_cloudy)	True	False	463.50
2010-07-23 15:00:00 67694 15 545.80 545.80 545.80 479.4 939.10	58.1195775179	545.80	479.40	Mostly_Cloudy(mostly_cloudy)	True	False	479.40
2010-07-23 16:00:00 67695 16 185.39 185.39 185.39 418.7 758.90	24.4288948343	185.39	418.70	Scattered_T-Storms(partly_cloudy)	True	False	418.70
2010-07-23 17:00:00 67696 17 121.83 121.83 121.83 281.9 498.70	24.4288948343	121.83	281.90	Scattered_T-Storms(sunny)	True	False	281.90
2010-07-23 18:00:00 67697 18 55.55 55.55 55.55 134.0 227.40	24.4288948343	55.55	134.00	Scattered_T-Storms(sunny)	True	False	134.00
2010-07-23 19:00:00 67698 19 18.03 18.03 18.03 30.4 73.80	24.4288948343	18.03	30.40	Scattered_T-Storms(sunny)	True	False	30.40
2010-07-23 20:00:00 67699 20 1.66 1.66 1.66 0.0 6.80	24.4288948343	1.66	0.00	Scattered_T-Storms(partly_cloudy)	True	False	0.00
2010-07-23 21:00:00 67700 21 0.00 0.00 0.00 0.0 0.00	24.4288948343	0.00	0.00	Scattered_T-Storms(partly_cloudy)	True	False	0.00
2010-07-23 22:00:00 67701 22 0.00 0.00 0.00 0.0 0.00	24.4288948343	0.00	0.00	Scattered_T-Storms(clear)	True	False	0.00
2010-07-23 23:00:00 67702 23 0.00 0.00 0.00 0.0 0.00	24.4288948343	0.00	0.00	Scattered_T-Storms(clear)	True	False	0.00
2010-07-24 00:00:00 67703 0 0.00 0.00 0.00 0.0 0.00	24.4288948343	0.00	0.00	Scattered_T-Storms(light_rain)	True	False	0.00
2010-07-24 01:00:00 67704 1 0.00 0.00 0.00 0.0 0.00	24.4288948343	0.00	0.00	Scattered_T-Storms(partly_cloudy)	True	False	0.00
2010-07-24 02:00:00 67705 2 0.00 0.00 0.00 0.0 0.00	24.4288948343	0.00	0.00	Scattered_T-Storms(clear)	True	False	0.00
2010-07-24 03:00:00 67706 3 0.00 0.00 0.00 0.0 0.00	24.4288948343	0.00	0.00	Scattered_T-Storms(clear)	True	False	0.00
2010-07-24 04:00:00 67707 4 0.00 0.00 0.00 0.0 0.00	24.4288948343	0.00	0.00	Few_Showers(mostly_cloudy)	True	False	0.00
2010-07-24 05:00:00 67708 5 0.00 0.00 0.00 0.0 0.00	24.4288948343	0.00	0.00	Few_Showers(partly_cloudy)	True	False	0.00
2010-07-24 06:00:00 67709 6 18.98 18.98 18.98 26.0 77.70	24.4288948343	18.98	26.00	Few_Showers(fog)	True	False	26.00
2010-07-24 07:00:00 67710 7 152.04 152.04 152.04 139.7 207.40	73.3069481091	152.04	139.70	Partly_Cloudy(partly_cloudy)	True	False	139.70
2010-07-24 08:00:00 67711 8 356.20 356.20 356.20 408.6 485.90	73.3069481091	356.20	408.60	Partly_Cloudy(partly_cloudy)	True	False	408.60
2010-07-24 09:00:00 67712 9 546.21 546.21 546.21 663.9 745.10	73.3069481091	546.21	663.90	Partly_Cloudy(fair)	True	False	663.90
2010-07-24 10:00:00 67713 10 684.07 684.07 684.07 848.0 919.50	74.3959957648	684.07	848.00	Partly_Cloudy(fair)	True	False	848.00
2010-07-24 11:00:00 67714 11 772.90 772.90 772.90 980.3 1038.90	74.3959957648	772.90	980.30	Partly_Cloudy(fair)	True	False	980.30
2010-07-24 12:00:00 67715 12 824.38 824.38 824.38 877.6 1108.10	74.3959957648	824.38	877.60	Partly_Cloudy(sunny)	True	False	877.60
2010-07-24 13:00:00 67716 13 824.08 824.08 824.08 893.3 1107.70	74.3959957648	824.08	893.30	Partly_Cloudy(sunny)	True	False	893.30
2010-07-24 14:00:00 67717 14 788.90 788.90 788.90 940.8 1060.40	74.3959957648	788.90	940.80	Partly_Cloudy(fair)	True	False	940.80
2010-07-24 15:00:00 67718 15 698.65 698.65 698.65 800.4 939.10	74.3959957648	698.65	800.40	Partly_Cloudy(sunny)	True	False	800.40
2010-07-24 16:00:00 67719 16 556.33 556.33 556.33 609.8 758.90	73.3069481091	556.33	609.80	Partly_Cloudy(sunny)	True	False	609.80
2010-07-24 17:00:00 67720 17 365.58 365.58 365.58 401.9 498.70	73.3069481091	365.58	401.90	Partly_Cloudy(sunny)	True	False	401.90
2010-07-24 18:00:00 67721 18 166.70 166.70 166.70 163.6 227.40	73.3069481091	166.70	163.60	Partly_Cloudy(partly_cloudy)	True	False	163.60
2010-07-24 19:00:00 67722 19 54.10 54.10 54.10 29.6 73.80	73.3069481091	54.10	29.60	Partly_Cloudy(fair)	True	False	29.60
2010-07-24 20:00:00 67723 20 4.98 4.98 4.98 0.0 6.80	73.3069481091	4.98	0.00	Partly_Cloudy(sunny)	True	False	0.00
2010-07-24 21:00:00 67724 21 0.00 0.00 0.00 0.0 0.00	73.3069481091	0.00	0.00	Partly_Cloudy(clear)	True	False	0.00
2010-07-24 22:00:00 67725 22 0.00 0.00 0.00 0.0 0.00	73.3069481091	0.00	0.00	Partly_Cloudy(clear)	True	False	0.00
2010-07-24 23:00:00 67726 23 0.00 0.00 0.00 0.0 0.00	73.3069481091	0.00	0.00	Partly_Cloudy(clear)	True	False	0.00
2010-07-25 00:00:00 67727 0 0.00 0.00 0.00 0.0 0.00	73.3069481091	0.00	0.00	Partly_Cloudy(fair)	True	False	0.00
2010-07-25 01:00:00 67728 1 0.00 0.00 0.00 0.0 0.00	73.3069481091	0.00	0.00	Partly_Cloudy(fair)	True	False	0.00
2010-07-25 02:00:00 67729 2 0.00 0.00 0.00 0.0 0.00	73.3069481091	0.00	0.00	Partly_Cloudy(clear)	True	False	0.00
2010-07-25 03:00:00 67730 3 0.00 0.00 0.00 0.0 0.00	73.3069481091	0.00	0.00	Partly_Cloudy(mostly_cloudy)	True	False	0.00
2010-07-25 04:00:00 67731 4 0.00 0.00 0.00 0.0 0.00	73.3069481091	0.00	0.00	Partly_Cloudy(clear)	True	False	0.00
2010-07-25 05:00:00 67732 5 0.00 0.00 0.00 0.0 0.00	73.3069481091	0.00	0.00	Partly_Cloudy(clear)	True	False	0.00
2010-07-25 06:00:00 67733 6 56.96 56.96 56.96 14.1 77.70	73.3069481091	56.96	14.10	Partly_Cloudy(sunny)	True	False	14.10
2010-07-25 07:00:00 67734 7 180.59 180.59 180.59 151.5 207.40	87.0712401055	180.59	151.50	Sunny(sunny)	True	False	151.50
2010-07-25 08:00:00 67735 8 423.08 423.08 423.08 418.2 485.90	87.0712401055	423.08	418.20	Sunny(sunny)	True	False	418.20
