2010-07-18 04:00:00 61611 4 0.00 0.00 0.00 0.0 0.00	74.3959957648	0.00	0.00	Partly_Cloudy(fair)	True	False	0.00
2010-07-18 05:00:00 61612 5 0.07 0.07 0.07 0.0 0.10	74.3959957648	0.07	0.00	Partly_Cloudy(fair)	True	False	0.00
2010-07-18 06:00:00 61613 6 57.81 57.81 57.81 24.2 77.70	74.3959957648	57.81	24.20	Partly_Cloudy(fog)	True	False	24.20
2010-07-18 07:00:00 61614 7 166.20 166.20 166.20 176.8 207.40	80.1350048216	166.20	176.80	Sunny(sunny)	True	False	176.80
2010-07-18 08:00:00 61615 8 389.38 389.38 389.38 422.5 485.90	80.1350048216	389.38	422.50	Sunny(sunny)	True	False	422.50
2010-07-18 09:00:00 61616 9 597.09 597.09 597.09 661.7 745.10	80.1350048216	597.09	661.70	Sunny(sunny)	True	False	661.70
2010-07-18 10:00:00 61617 10 736.84 736.84 736.84 861.5 919.50	80.1350048216	736.84	861.50	Mostly_Sunny(sunny)	False	False	861.50
2010-07-18 11:00:00 61618 11 832.52 832.52 832.52 832.1 1038.90	80.1350048216	832.52	832.10	Mostly_Sunny(fair)	False	False	832.10
2010-07-18 12:00:00 61619 12 887.98 887.98 887.98 1019.8 1108.10	80.1350048216	887.98	1019.80	Mostly_Sunny(partly_cloudy)	False	False	1019.80
2010-07-18 13:00:00 61620 13 887.66 887.66 887.66 974.1 1107.70	80.1350048216	887.66	974.10	Mostly_Sunny(sunny)	False	False	974.10
2010-07-18 14:00:00 61621 14 849.75 849.75 849.75 767.6 1060.40	80.1350048216	849.75	767.60	Mostly_Sunny(fair)	False	False	767.60
2010-07-18 15:00:00 61622 15 752.55 752.55 752.55 831.6 939.10	80.1350048216	752.55	831.60	Mostly_Sunny(sunny)	False	False	831.60
2010-07-18 16:00:00 61623 16 608.14 608.14 608.14 566.3 758.90	80.1350048216	608.14	566.30	Mostly_Sunny(sunny)	False	False	566.30
2010-07-18 17:00:00 61624 17 399.63 399.63 399.63 425.6 498.70	80.1350048216	399.63	425.60	Mostly_Sunny(sunny)	False	False	425.60
2010-07-18 18:00:00 61625 18 180.94 180.94 180.94 195.5 225.80	80.1350048216	180.94	195.50	Mostly_Sunny(sunny)	False	False	195.50
2010-07-18 19:00:00 61626 19 65.23 65.23 65.23 40.3 81.40	80.1350048216	65.23	40.30	Sunny(sunny)	True	False	40.30
2010-07-18 20:00:00 61627 20 5.45 5.45 5.45 0.5 6.80	80.1350048216	5.45	0.50	Sunny(sunny)	True	False	0.50
2010-07-18 21:00:00 61628 21 0.00 0.00 0.00 0.0 0.00	80.1350048216	0.00	0.00	Clear(clear)	True	False	0.00
2010-07-18 22:00:00 61629 22 0.00 0.00 0.00 0.0 0.00	80.1350048216	0.00	0.00	Clear(clear)	True	False	0.00
2010-07-18 23:00:00 61630 23 0.00 0.00 0.00 0.0 0.00	80.1350048216	0.00	0.00	Clear(partly_cloudy)	True	False	0.00
2010-07-19 00:00:00 61631 0 0.00 0.00 0.00 0.0 0.00	80.1350048216	0.00	0.00	Clear(partly_cloudy)	True	False	0.00
2010-07-19 01:00:00 61632 1 0.00 0.00 0.00 0.0 0.00	80.1350048216	0.00	0.00	Clear(partly_cloudy)	True	False	0.00
2010-07-19 02:00:00 61633 2 0.00 0.00 0.00 0.0 0.00	80.1350048216	0.00	0.00	Clear(mostly_cloudy)	True	False	0.00
2010-07-19 03:00:00 61634 3 0.00 0.00 0.00 0.0 0.00	80.1350048216	0.00	0.00	Clear(mostly_cloudy)	True	False	0.00
2010-07-19 04:00:00 61635 4 0.00 0.00 0.00 0.0 0.00	74.3959957648	0.00	0.00	Partly_Cloudy(fair)	True	False	0.00
2010-07-19 05:00:00 61636 5 0.07 0.07 0.07 0.0 0.10	74.3959957648	0.07	0.00	Partly_Cloudy(partly_cloudy)	True	False	0.00
2010-07-19 06:00:00 61637 6 57.81 57.81 57.81 31.8 77.70	74.3959957648	57.81	31.80	Partly_Cloudy(partly_cloudy)	True	False	31.80
2010-07-19 07:00:00 61638 7 154.30 154.30 154.30 168.5 207.40	74.3959957648	154.30	168.50	Partly_Cloudy(partly_cloudy)	True	False	168.50
2010-07-19 08:00:00 61639 8 361.49 361.49 361.49 328.2 485.90	74.3959957648	361.49	328.20	Partly_Cloudy(thunder)	True	False	328.20
2010-07-19 09:00:00 61640 9 554.32 554.32 554.32 188.2 745.10	74.3959957648	554.32	188.20	Partly_Cloudy(mostly_cloudy)	True	False	188.20
2010-07-19 10:00:00 61641 10 189.90 189.90 189.90 345.0 919.50	20.6525839306	189.90	345.00	Isolated_T-Storms(mostly_cloudy)	True	False	345.00
2010-07-19 11:00:00 61642 11 214.56 214.56 214.56 931.2 1038.90	20.6525839306	214.56	931.20	Isolated_T-Storms(partly_cloudy)	True	False	931.20
2010-07-19 12:00:00 61643 12 228.85 228.85 228.85 877.2 1108.10	20.6525839306	228.85	877.20	Isolated_T-Storms(fair)	True	False	877.20
2010-07-19 13:00:00 61644 13 228.77 228.77 228.77 984.8 1107.70	20.6525839306	228.77	984.80	Scattered_T-Storms(fair)	True	False	984.80
2010-07-19 14:00:00 61645 14 219.00 219.00 219.00 968.8 1060.40	20.6525839306	219.00	968.80	Scattered_T-Storms(partly_cloudy)	True	False	968.80
2010-07-19 15:00:00 61646 15 193.95 193.95 193.95 719.2 939.10	20.6525839306	193.95	719.20	Scattered_T-Storms(mostly_cloudy)	True	False	719.20
2010-07-19 16:00:00 61647 16 194.78 194.78 194.78 516.3 758.90	25.6667335071	194.78	516.30	Scattered_T-Storms(mostly_cloudy)	True	False	516.30
2010-07-19 17:00:00 61648 17 128.00 128.00 128.00 232.3 498.70	25.6667335071	128.00	232.30	Scattered_T-Storms(fair)	True	False	232.30
2010-07-19 18:00:00 61649 18 57.96 57.96 57.96 86.2 225.80	25.6667335071	57.96	86.20	Scattered_T-Storms(mostly_cloudy)	True	False	86.20
2010-07-19 19:00:00 61650 19 20.89 20.89 20.89 44.7 81.40	25.6667335071	20.89	44.70	Scattered_T-Storms(t-storm)	True	False	44.70
2010-07-19 20:00:00 61651 20 1.75 1.75 1.75 5.2 6.80	25.6667335071	1.75	5.20	Scattered_T-Storms(partly_cloudy)	True	False	5.20
2010-07-19 21:00:00 61652 21 0.00 0.00 0.00 0.0 0.00	25.6667335071	0.00	0.00	Scattered_T-Storms(heavy_t-storm)	True	False	0.00
2010-07-19 22:00:00 61653 22 0.00 0.00 0.00 0.0 0.00	25.6667335071	0.00	0.00	Isolated_T-Storms(fair)	True	False	0.00
2010-07-19 23:00:00 61654 23 0.00 0.00 0.00 0.0 0.00	25.6667335071	0.00	0.00	Isolated_T-Storms(fair)	True	False	0.00
2010-07-20 00:00:00 61655 0 0.00 0.00 0.00 0.0 0.00	25.6667335071	0.00	0.00	Isolated_T-Storms(fog)	True	False	0.00
2010-07-20 01:00:00 61656 1 0.00 0.00 0.00 0.0 0.00	25.6667335071	0.00	0.00	Mostly_Clear(clear)	False	False	0.00
2010-07-20 02:00:00 61657 2 0.00 0.00 0.00 0.0 0.00	25.6667335071	0.00	0.00	Mostly_Clear(partly_cloudy)	False	False	0.00
2010-07-20 03:00:00 61658 3 0.00 0.00 0.00 0.0 0.00	25.6667335071	0.00	0.00	Mostly_Clear(fog)	False	False	0.00
2010-07-20 04:00:00 61659 4 0.00 0.00 0.00 0.0 0.00	25.6667335071	0.00	0.00	Mostly_Clear(fog)	False	False	0.00
