2010-06-23 12:00:00 32603 12 765.34 765.34 765.34 781.6 938.80	81.5227679041	765.34	781.60	Mostly_Sunny(fair)	False	False	781.60
2010-06-23 13:00:00 32604 13 811.64 811.64 811.64 852.3 995.60	81.5227679041	811.64	852.30	Mostly_Sunny(partly_cloudy)	False	False	852.30
2010-06-23 14:00:00 32605 14 775.20 775.20 775.20 689.7 950.90	81.5227679041	775.20	689.70	Sunny(fair)	True	False	689.70
2010-06-23 15:00:00 32606 15 645.25 645.25 645.25 658.5 791.50	81.5227679041	645.25	658.50	Sunny(partly_cloudy)	True	False	658.50
2010-06-23 16:00:00 32607 16 514.83 514.83 555.82 532.5 681.80	75.5102040816	555.82	532.50	Partly_Cloudy(partly_cloudy)	True	False	532.50
2010-06-23 17:00:00 32608 17 364.49 364.49 393.51 330.9 482.70	75.5102040816	393.51	330.90	Partly_Cloudy(sunny)	True	False	330.90
2010-06-23 18:00:00 32609 18 161.74 161.74 174.62 131.7 214.20	75.5102040816	174.62	131.70	Partly_Cloudy(fair)	True	False	131.70
2010-06-23 19:00:00 32610 19 61.47 61.47 66.36 31.2 81.40	75.5102040816	66.36	31.20	Partly_Cloudy(sunny)	True	False	31.20
2010-06-23 20:00:00 32611 20 5.06 5.06 5.46 1.0 6.70	75.5102040816	5.46	1.00	Partly_Cloudy(sunny)	True	False	1.00
2010-06-23 21:00:00 32612 21 0.00 0.00 0.00 0.0 0.00	75.5102040816	0.00	0.00	Partly_Cloudy(clear)	True	False	0.00
2010-06-23 22:00:00 32613 22 0.00 0.00 0.00 0.0 0.00	81.5227679041	0.00	0.00	Mostly_Clear(clear)	False	False	0.00
2010-06-23 23:00:00 32614 23 0.00 0.00 0.00 0.0 0.00	81.5227679041	0.00	0.00	Mostly_Clear(partly_cloudy)	False	False	0.00
2010-06-24 00:00:00 32615 0 0.00 0.00 0.00 0.0 0.00	81.5227679041	0.00	0.00	Mostly_Clear(clear)	False	False	0.00
2010-06-24 01:00:00 32616 1 0.00 0.00 0.00 0.0 0.00	75.5102040816	0.00	0.00	Partly_Cloudy(clear)	True	False	0.00
2010-06-24 02:00:00 32617 2 0.00 0.00 0.00 0.0 0.00	75.5102040816	0.00	0.00	Partly_Cloudy(partly_cloudy)	True	False	0.00
2010-06-24 03:00:00 32618 3 0.00 0.00 0.00 0.0 0.00	75.5102040816	0.00	0.00	Partly_Cloudy(mostly_cloudy)	True	False	0.00
2010-06-24 04:00:00 32619 4 0.00 0.00 0.00 0.0 0.00	14.2514213519	0.00	0.00	Isolated_T-Storms(mostly_cloudy)	True	False	0.00
2010-06-24 05:00:00 32620 5 0.26 0.26 0.26 0.0 1.80	14.2514213519	0.26	0.00	Isolated_T-Storms(partly_cloudy)	True	False	0.00
2010-06-24 06:00:00 32621 6 10.47 10.47 10.47 46.5 73.50	14.2514213519	10.47	46.50	Isolated_T-Storms(partly_cloudy)	True	False	46.50
2010-06-24 07:00:00 32622 7 166.35 166.35 166.35 152.6 220.30	75.5102040816	166.35	152.60	Partly_Cloudy(partly_cloudy)	True	False	152.60
2010-06-24 08:00:00 32623 8 366.60 366.60 366.60 369.6 485.50	75.5102040816	366.60	369.60	Partly_Cloudy(fair)	True	False	369.60
2010-06-24 09:00:00 32624 9 524.34 524.34 524.34 574.6 694.40	75.5102040816	524.34	574.60	Partly_Cloudy(fair)	True	False	574.60
2010-06-24 10:00:00 32625 10 132.48 132.48 132.48 662.9 929.60	14.2514213519	132.48	662.90	Isolated_T-Storms(sunny)	True	False	662.90
2010-06-24 11:00:00 32626 11 134.56 134.56 134.56 667.5 944.20	14.2514213519	134.56	667.50	Isolated_T-Storms(sunny)	True	False	667.50
2010-06-24 12:00:00 32627 12 133.79 133.79 133.79 405.8 938.80	14.2514213519	133.79	405.80	Isolated_T-Storms(fair)	True	False	405.80
2010-06-24 13:00:00 32628 13 141.89 141.89 141.89 736.7 995.60	14.2514213519	141.89	736.70	Scattered_T-Storms(partly_cloudy)	True	False	736.70
2010-06-24 14:00:00 32629 14 135.52 135.52 135.52 700.6 950.90	14.2514213519	135.52	700.60	Scattered_T-Storms(partly_cloudy)	True	False	700.60
2010-06-24 15:00:00 32630 15 112.80 112.80 112.80 128.9 791.50	14.2514213519	112.80	128.90	Scattered_T-Storms(fair)	True	False	128.90
2010-06-24 16:00:00 32631 16 97.17 97.17 97.17 332.4 681.80	14.2514213519	97.17	332.40	Scattered_T-Storms(fair)	True	False	332.40
2010-06-24 17:00:00 32632 17 68.79 68.79 68.79 329.8 482.70	14.2514213519	68.79	329.80	Scattered_T-Storms(partly_cloudy)	True	False	329.80
2010-06-24 18:00:00 32633 18 30.53 30.53 30.53 143.6 214.20	14.2514213519	30.53	143.60	Scattered_T-Storms(partly_cloudy)	True	False	143.60
2010-06-24 19:00:00 32634 19 11.60 11.60 11.60 28.7 81.40	14.2514213519	11.60	28.70	Isolated_T-Storms(sunny)	True	False	28.70
2010-06-24 20:00:00 32635 20 0.95 0.95 0.95 2.0 6.70	14.2514213519	0.95	2.00	Isolated_T-Storms(sunny)	True	False	2.00
2010-06-24 21:00:00 32636 21 0.00 0.00 0.00 0.0 0.00	14.2514213519	0.00	0.00	Isolated_T-Storms(clear)	True	False	0.00
2010-06-24 22:00:00 32637 22 0.00 0.00 0.00 0.0 0.00	75.1008064516	0.00	0.00	Clear(clear)	True	False	0.00
2010-06-24 23:00:00 32638 23 0.00 0.00 0.00 0.0 0.00	75.1008064516	0.00	0.00	Clear(clear)	True	False	0.00
2010-06-25 00:00:00 32639 0 0.00 0.00 0.00 0.0 0.00	75.1008064516	0.00	0.00	Clear(clear)	True	False	0.00
2010-06-25 01:00:00 32640 1 0.00 0.00 0.00 0.0 0.00	75.1008064516	0.00	0.00	Clear(clear)	True	False	0.00
2010-06-25 02:00:00 32641 2 0.00 0.00 0.00 0.0 0.00	75.1008064516	0.00	0.00	Clear(clear)	True	False	0.00
2010-06-25 03:00:00 32642 3 0.00 0.00 0.00 0.0 0.00	75.1008064516	0.00	0.00	Clear(clear)	True	False	0.00
2010-06-25 04:00:00 32643 4 0.00 0.00 0.00 0.0 0.00	75.1008064516	0.00	0.00	Clear(clear)	True	False	0.00
2010-06-25 05:00:00 32644 5 1.35 1.35 1.35 0.0 1.80	75.1008064516	1.35	0.00	Clear(sunny)	True	False	0.00
2010-06-25 06:00:00 32645 6 55.20 55.20 55.20 24.1 73.50	75.1008064516	55.20	24.10	Sunny(sunny)	True	False	24.10
2010-06-25 07:00:00 32646 7 165.45 165.45 165.45 175.0 220.30	75.1008064516	165.45	175.00	Sunny(sunny)	True	False	175.00
2010-06-25 08:00:00 32647 8 364.61 364.61 364.61 391.3 485.50	75.1008064516	364.61	391.30	Sunny(sunny)	True	False	391.30
2010-06-25 09:00:00 32648 9 521.50 521.50 521.50 557.1 694.40	75.1008064516	521.50	557.10	Sunny(sunny)	True	False	557.10
2010-06-25 10:00:00 32649 10 757.84 757.84 757.84 615.3 929.60	81.5227679041	757.84	615.30	Sunny(sunny)	True	False	615.30
2010-06-25 11:00:00 32650 11 769.74 769.74 769.74 712.8 944.20	81.5227679041	769.74	712.80	Sunny(sunny)	True	False	712.80
2010-06-25 12:00:00 32651 12 765.34 765.34 765.34 737.8 938.80	81.5227679041	765.34	737.80	Sunny(mostly_cloudy)	True	False	737.80
