2010-06-07 15:00:00 13934 15 849.19 849.19 849.19 761.9 893.20	95.0730647709	849.19	761.90	Sunny(mostly_cloudy)	True	False	761.90
2010-06-07 16:00:00 13935 16 613.80 610.83 610.83 551.8 716.10	85.7142857143	610.83	551.80	Sunny(mostly_cloudy)	True	False	551.80
2010-06-07 17:00:00 13936 17 359.66 357.92 357.92 381.9 419.60	85.7142857143	357.92	381.90	Sunny(sunny)	True	False	381.90
2010-06-07 18:00:00 13937 18 183.60 182.71 182.71 182.0 214.20	85.7142857143	182.71	182.00	Sunny(mostly_cloudy)	True	False	182.00
2010-06-07 19:00:00 13938 19 45.77 45.55 45.55 35.4 53.40	85.7142857143	45.55	35.40	Sunny(sunny)	True	False	35.40
2010-06-07 20:00:00 13939 20 2.40 2.39 2.39 1.8 2.80	85.7142857143	2.39	1.80	Sunny(sunny)	True	False	1.80
2010-06-07 21:00:00 13940 21 0.00 0.00 0.00 0.0 0.00	85.7142857143	0.00	0.00	Clear(clear)	True	False	0.00
2010-06-07 22:00:00 13941 22 0.00 0.00 0.00 0.0 0.00	85.7142857143	0.00	0.00	Clear(clear)	True	False	0.00
2010-06-07 23:00:00 13942 23 0.00 0.00 0.00 0.0 0.00	85.7142857143	0.00	0.00	Clear(clear)	True	False	0.00
2010-06-08 00:00:00 13943 0 0.00 0.00 0.00 0.0 0.00	85.7142857143	0.00	0.00	Clear(partly_cloudy)	True	False	0.00
2010-06-08 01:00:00 13944 1 0.00 0.00 0.00 0.0 0.00	85.7142857143	0.00	0.00	Clear(mostly_cloudy)	True	False	0.00
2010-06-08 02:00:00 13945 2 0.00 0.00 0.00 0.0 0.00	85.7142857143	0.00	0.00	Clear(mostly_cloudy)	True	False	0.00
2010-06-08 03:00:00 13946 3 0.00 0.00 0.00 0.0 0.00	85.7142857143	0.00	0.00	Clear(partly_cloudy)	True	False	0.00
2010-06-08 04:00:00 13947 4 0.00 0.00 0.00 0.0 0.00	85.7142857143	0.00	0.00	Clear(fair)	True	False	0.00
2010-06-08 05:00:00 13948 5 1.54 1.54 1.54 1.8 1.80	85.7142857143	1.54	1.80	Clear(sunny)	True	False	1.80
2010-06-08 06:00:00 13949 6 63.00 63.00 63.00 49.6 73.50	85.7142857143	63.00	49.60	Sunny(sunny)	True	False	49.60
2010-06-08 07:00:00 13950 7 213.00 213.00 213.00 240.8 248.50	85.7142857143	213.00	240.80	Sunny(sunny)	True	False	240.80
2010-06-08 08:00:00 13951 8 455.83 455.83 455.83 530.1 531.80	85.7142857143	455.83	530.10	Sunny(sunny)	True	False	530.10
2010-06-08 09:00:00 13952 9 650.91 650.91 650.91 784.7 759.40	85.7142857143	650.91	784.70	Sunny(sunny)	True	False	784.70
2010-06-08 10:00:00 13953 10 883.80 883.80 883.80 932.0 929.60	95.0730647709	883.80	932.00	Sunny(sunny)	True	False	932.00
2010-06-08 11:00:00 13954 11 999.98 999.98 999.98 771.9 1051.80	95.0730647709	999.98	771.90	Sunny(sunny)	True	False	771.90
2010-06-08 12:00:00 13955 12 1040.29 1040.29 1040.29 884.3 1094.20	95.0730647709	1040.29	884.30	Sunny(fair)	True	False	884.30
2010-06-08 13:00:00 13956 13 1026.69 1026.69 1026.69 830.2 1079.90	95.0730647709	1026.69	830.20	Sunny(partly_cloudy)	True	False	830.20
2010-06-08 14:00:00 13957 14 962.90 962.90 962.90 705.1 1012.80	95.0730647709	962.90	705.10	Sunny(fair)	True	False	705.10
2010-06-08 15:00:00 13958 15 849.19 849.19 849.19 974.1 893.20	95.0730647709	849.19	974.10	Sunny(partly_cloudy)	True	False	974.10
2010-06-08 16:00:00 13959 16 613.80 613.80 613.80 682.8 716.10	85.7142857143	613.80	682.80	Sunny(sunny)	True	False	682.80
2010-06-08 17:00:00 13960 17 359.66 359.66 359.66 338.1 419.60	85.7142857143	359.66	338.10	Sunny(partly_cloudy)	True	False	338.10
2010-06-08 18:00:00 13961 18 183.60 183.60 183.60 171.7 214.20	85.7142857143	183.60	171.70	Sunny(sunny)	True	False	171.70
2010-06-08 19:00:00 13962 19 45.77 45.77 45.77 30.7 53.40	85.7142857143	45.77	30.70	Mostly_Sunny(mostly_cloudy)	False	False	30.70
2010-06-08 20:00:00 13963 20 2.40 2.40 2.40 0.4 2.80	85.7142857143	2.40	0.40	Mostly_Sunny(sunny)	False	False	0.40
2010-06-08 21:00:00 13964 21 0.00 0.00 0.00 0.0 0.00	85.7142857143	0.00	0.00	Mostly_Clear(fair)	False	False	0.00
2010-06-08 22:00:00 13965 22 0.00 0.00 0.00 0.0 0.00	85.7142857143	0.00	0.00	Clear(clear)	True	False	0.00
2010-06-08 23:00:00 13966 23 0.00 0.00 0.00 0.0 0.00	85.7142857143	0.00	0.00	Clear(fair)	True	False	0.00
2010-06-09 00:00:00 13967 0 0.00 0.00 0.00 0.0 0.00	85.7142857143	0.00	0.00	Clear(partly_cloudy)	True	False	0.00
2010-06-09 01:00:00 13968 1 0.00 0.00 0.00 0.0 0.00	85.7142857143	0.00	0.00	Clear(fair)	True	False	0.00
2010-06-09 02:00:00 13969 2 0.00 0.00 0.00 0.0 0.00	85.7142857143	0.00	0.00	Clear(partly_cloudy)	True	False	0.00
2010-06-09 03:00:00 13970 3 0.00 0.00 0.00 0.0 0.00	85.7142857143	0.00	0.00	Clear(mostly_cloudy)	True	False	0.00
2010-06-09 04:00:00 13971 4 0.00 0.00 0.00 0.0 0.00	78.9788933257	0.00	0.00	Partly_Cloudy(fair)	True	False	0.00
2010-06-09 05:00:00 13972 5 1.42 1.42 1.42 3.7 1.80	78.9788933257	1.42	3.70	Partly_Cloudy(sunny)	True	False	3.70
2010-06-09 06:00:00 13973 6 58.05 58.05 58.05 89.7 73.50	78.9788933257	58.05	89.70	Partly_Cloudy(fair)	True	False	89.70
2010-06-09 07:00:00 13974 7 196.26 196.26 196.26 188.7 248.50	78.9788933257	196.26	188.70	Partly_Cloudy(partly_cloudy)	True	False	188.70
2010-06-09 08:00:00 13975 8 420.01 420.01 420.01 212.0 531.80	78.9788933257	420.01	212.00	Partly_Cloudy(mostly_cloudy)	True	False	212.00
2010-06-09 09:00:00 13976 9 599.77 599.77 599.77 347.4 759.40	78.9788933257	599.77	347.40	Partly_Cloudy(partly_cloudy)	True	False	347.40
2010-06-09 10:00:00 13977 10 514.91 514.91 514.91 319.6 929.60	55.3907586994	514.91	319.60	Mostly_Cloudy(mostly_cloudy)	True	False	319.60
2010-06-09 11:00:00 13978 11 582.60 582.60 582.60 302.3 1051.80	55.3907586994	582.60	302.30	Mostly_Cloudy(mostly_cloudy)	True	False	302.30
2010-06-09 12:00:00 13979 12 544.41 544.41 544.41 216.2 1094.20	49.754606908	544.41	216.20	Cloudy(light_rain)	True	False	216.20
2010-06-09 13:00:00 13980 13 130.19 130.19 130.19 93.7 1079.90	12.0556872038	130.19	93.70	Few_Showers(light_rain)	True	False	93.70
2010-06-09 14:00:00 13981 14 122.10 122.10 122.10 92.0 1012.80	12.0556872038	122.10	92.00	Few_Showers(light_rain)	True	False	92.00
2010-06-09 15:00:00 13982 15 107.68 107.68 107.68 92.8 893.20	12.0556872038	107.68	92.80	Few_Showers(light_rain)	True	False	92.80
