2010-07-06 10:00:00 47793 10 733.30 733.30 733.30 665.8 919.50	79.7498640566	733.30	665.80	Mostly_Sunny(sunny)	False	False	665.80
2010-07-06 11:00:00 47794 11 752.26 752.26 752.26 748.1 1038.90	79.7498640566	752.26	748.10	Mostly_Sunny(sunny)	False	False	748.10
2010-07-06 12:00:00 47795 12 883.71 883.71 883.71 685.8 1108.10	79.7498640566	883.71	685.80	Mostly_Sunny(sunny)	False	False	685.80
2010-07-06 13:00:00 47796 13 883.39 883.39 883.39 566.1 1107.70	79.7498640566	883.39	566.10	Mostly_Sunny(sunny)	False	False	566.10
2010-07-06 14:00:00 47797 14 845.67 845.67 845.67 714.4 1060.40	79.7498640566	845.67	714.40	Mostly_Sunny(sunny)	False	False	714.40
2010-07-06 15:00:00 47798 15 748.93 748.93 748.93 499.2 939.10	79.7498640566	748.93	499.20	Mostly_Sunny(fair)	False	False	499.20
2010-07-06 16:00:00 47799 16 605.22 605.22 605.22 534.6 758.90	79.7498640566	605.22	534.60	Mostly_Sunny(sunny)	False	False	534.60
2010-07-06 17:00:00 47800 17 397.71 397.71 397.71 334.5 498.70	79.7498640566	397.71	334.50	Mostly_Sunny(sunny)	False	False	334.50
2010-07-06 18:00:00 47801 18 180.08 180.08 180.08 141.3 225.80	79.7498640566	180.08	141.30	Mostly_Sunny(sunny)	False	False	141.30
2010-07-06 19:00:00 47802 19 64.92 64.92 64.92 43.9 81.40	79.7498640566	64.92	43.90	Mostly_Sunny(sunny)	False	False	43.90
2010-07-06 20:00:00 47803 20 5.42 5.42 5.42 1.8 6.80	79.7498640566	5.42	1.80	Mostly_Sunny(sunny)	False	False	1.80
2010-07-06 21:00:00 47804 21 0.00 0.00 0.00 0.0 0.00	79.7498640566	0.00	0.00	Mostly_Clear(clear)	False	False	0.00
2010-07-06 22:00:00 47805 22 0.00 0.00 0.00 0.0 0.00	79.7498640566	0.00	0.00	Mostly_Clear(fair)	False	False	0.00
2010-07-06 23:00:00 47806 23 0.00 0.00 0.00 0.0 0.00	79.7498640566	0.00	0.00	Mostly_Clear(fair)	False	False	0.00
2010-07-07 00:00:00 47807 0 0.00 0.00 0.00 0.0 0.00	79.7498640566	0.00	0.00	Mostly_Clear(fair)	False	False	0.00
2010-07-07 01:00:00 47808 1 0.00 0.00 0.00 0.0 0.00	76.6988538941	0.00	0.00	Clear(fair)	True	False	0.00
2010-07-07 02:00:00 47809 2 0.00 0.00 0.00 0.0 0.00	76.6988538941	0.00	0.00	Clear(fair)	True	False	0.00
2010-07-07 03:00:00 47810 3 0.00 0.00 0.00 0.0 0.00	76.6988538941	0.00	0.00	Clear(fair)	True	False	0.00
2010-07-07 04:00:00 47811 4 0.00 0.00 0.00 0.0 0.00	76.6988538941	0.00	0.00	Clear(cloudy)	True	False	0.00
2010-07-07 05:00:00 47812 5 0.23 0.23 0.23 0.0 0.30	76.6988538941	0.23	0.00	Clear(partly_cloudy)	True	False	0.00
2010-07-07 06:00:00 47813 6 59.60 59.60 59.60 41.1 77.70	76.6988538941	59.60	41.10	Sunny(mostly_cloudy)	True	False	41.10
2010-07-07 07:00:00 47814 7 159.07 159.07 159.07 155.3 207.40	76.6988538941	159.07	155.30	Sunny(partly_cloudy)	True	False	155.30
2010-07-07 08:00:00 47815 8 372.68 372.68 372.68 350.2 485.90	76.6988538941	372.68	350.20	Sunny(fair)	True	False	350.20
2010-07-07 09:00:00 47816 9 571.48 571.48 571.48 521.5 745.10	76.6988538941	571.48	521.50	Sunny(sunny)	True	False	521.50
2010-07-07 10:00:00 47817 10 733.30 733.30 733.30 656.0 919.50	79.7498640566	733.30	656.00	Sunny(sunny)	True	False	656.00
2010-07-07 11:00:00 47818 11 828.52 828.52 828.52 758.5 1038.90	79.7498640566	828.52	758.50	Sunny(sunny)	True	False	758.50
2010-07-07 12:00:00 47819 12 883.71 883.71 883.71 803.8 1108.10	79.7498640566	883.71	803.80	Sunny(sunny)	True	False	803.80
2010-07-07 13:00:00 47820 13 883.39 883.39 883.39 226.6 1107.70	79.7498640566	883.39	226.60	Mostly_Sunny(sunny)	False	False	226.60
2010-07-07 14:00:00 47821 14 845.67 845.67 845.67 5.3 1060.40	79.7498640566	845.67	5.30	Mostly_Sunny(fair)	False	False	5.30
2010-07-07 15:00:00 47822 15 748.93 748.93 748.93 646.8 939.10	79.7498640566	748.93	646.80	Mostly_Sunny(fair)	False	False	646.80
2010-07-07 16:00:00 47823 16 559.50 559.50 559.50 505.8 758.90	73.7248504622	559.50	505.80	Partly_Cloudy(fair)	True	False	505.80
2010-07-07 17:00:00 47824 17 367.67 367.67 367.67 312.2 498.70	73.7248504622	367.67	312.20	Partly_Cloudy(fair)	True	False	312.20
2010-07-07 18:00:00 47825 18 166.47 166.47 166.47 141.8 225.80	73.7248504622	166.47	141.80	Partly_Cloudy(mostly_cloudy)	True	False	141.80
2010-07-07 19:00:00 47826 19 60.01 60.01 60.01 41.0 81.40	73.7248504622	60.01	41.00	Partly_Cloudy(fair)	True	False	41.00
2010-07-07 20:00:00 47827 20 5.01 5.01 5.01 2.6 6.80	73.7248504622	5.01	2.60	Partly_Cloudy(sunny)	True	False	2.60
2010-07-07 21:00:00 47828 21 0.00 0.00 0.00 0.0 0.00	73.7248504622	0.00	0.00	Partly_Cloudy(clear)	True	False	0.00
2010-07-07 22:00:00 47829 22 0.00 0.00 0.00 0.0 0.00	73.7248504622	0.00	0.00	Partly_Cloudy(clear)	True	False	0.00
2010-07-07 23:00:00 47830 23 0.00 0.00 0.00 0.0 0.00	73.7248504622	0.00	0.00	Partly_Cloudy(partly_cloudy)	True	False	0.00
2010-07-08 00:00:00 47831 0 0.00 0.00 0.00 0.0 0.00	73.7248504622	0.00	0.00	Partly_Cloudy(fair)	True	False	0.00
2010-07-08 01:00:00 47832 1 0.00 0.00 0.00 0.0 0.00	73.7248504622	0.00	0.00	Partly_Cloudy(clear)	True	False	0.00
2010-07-08 02:00:00 47833 2 0.00 0.00 0.00 0.0 0.00	73.7248504622	0.00	0.00	Partly_Cloudy(clear)	True	False	0.00
2010-07-08 03:00:00 47834 3 0.00 0.00 0.00 0.0 0.00	73.7248504622	0.00	0.00	Partly_Cloudy(clear)	True	False	0.00
2010-07-08 04:00:00 47835 4 0.00 0.00 0.00 0.0 0.00	73.7248504622	0.00	0.00	Partly_Cloudy(clear)	True	False	0.00
2010-07-08 05:00:00 47836 5 0.22 0.22 0.22 0.0 0.30	73.7248504622	0.22	0.00	Partly_Cloudy(clear)	True	False	0.00
2010-07-08 06:00:00 47837 6 57.28 57.28 57.28 22.0 77.70	73.7248504622	57.28	22.00	Partly_Cloudy(fog)	True	False	22.00
2010-07-08 07:00:00 47838 7 152.91 152.91 152.91 75.0 207.40	73.7248504622	152.91	75.00	Partly_Cloudy(sunny)	True	False	75.00
2010-07-08 08:00:00 47839 8 358.23 358.23 358.23 120.0 485.90	73.7248504622	358.23	120.00	Partly_Cloudy(cloudy)	True	False	120.00
2010-07-08 09:00:00 47840 9 549.32 549.32 549.32 246.0 745.10	73.7248504622	549.32	246.00	Partly_Cloudy(fair)	True	False	246.00
2010-07-08 10:00:00 47841 10 679.65 679.65 679.65 296.5 919.50	73.9155035836	679.65	296.50	Partly_Cloudy(cloudy)	True	False	296.50
