2010-06-20 13:00:00 29124 13 865.09 848.49 848.49 738.0 1040.80	83.1179834781	848.49	738.00	Partly_Cloudy(sunny)	True	False	738.00
2010-06-20 14:00:00 29125 14 790.37 674.25 674.25 724.7 950.90	83.1179834781	674.25	724.70	Partly_Cloudy(fair)	True	False	724.70
2010-06-20 15:00:00 29126 15 665.19 567.47 567.47 576.1 800.30	83.1179834781	567.47	576.10	Partly_Cloudy(partly_cloudy)	True	False	576.10
2010-06-20 16:00:00 29127 16 540.73 507.76 507.76 540.6 716.10	75.5102040816	507.76	540.60	Partly_Cloudy(fair)	True	False	540.60
2010-06-20 17:00:00 29128 17 364.49 342.27 342.27 353.0 482.70	75.5102040816	342.27	353.00	Partly_Cloudy(fair)	True	False	353.00
2010-06-20 18:00:00 29129 18 161.74 151.88 151.88 142.6 214.20	75.5102040816	151.88	142.60	Partly_Cloudy(sunny)	True	False	142.60
2010-06-20 19:00:00 29130 19 61.47 57.72 57.72 37.0 81.40	75.5102040816	57.72	37.00	Partly_Cloudy(sunny)	True	False	37.00
2010-06-20 20:00:00 29131 20 5.06 4.75 4.75 2.8 6.70	75.5102040816	4.75	2.80	Partly_Cloudy(sunny)	True	False	2.80
2010-06-20 21:00:00 29132 21 0.00 0.00 0.00 0.0 0.00	75.5102040816	0.00	0.00	Partly_Cloudy(clear)	True	False	0.00
2010-06-20 22:00:00 29133 22 0.00 0.00 0.00 0.0 0.00	76.4629948365	0.00	0.00	Clear(clear)	True	False	0.00
2010-06-20 23:00:00 29134 23 0.00 0.00 0.00 0.0 0.00	76.4629948365	0.00	0.00	Clear(clear)	True	False	0.00
2010-06-21 00:00:00 29135 0 0.00 0.00 0.00 0.0 0.00	76.4629948365	0.00	0.00	Clear(clear)	True	False	0.00
2010-06-21 01:00:00 29136 1 0.00 0.00 0.00 0.0 0.00	76.4629948365	0.00	0.00	Clear(fair)	True	False	0.00
2010-06-21 02:00:00 29137 2 0.00 0.00 0.00 0.0 0.00	76.4629948365	0.00	0.00	Clear(clear)	True	False	0.00
2010-06-21 03:00:00 29138 3 0.00 0.00 0.00 0.0 0.00	76.4629948365	0.00	0.00	Clear(clear)	True	False	0.00
2010-06-21 04:00:00 29139 4 0.00 0.00 0.00 0.0 0.00	76.4629948365	0.00	0.00	Clear(clear)	True	False	0.00
2010-06-21 05:00:00 29140 5 1.38 1.38 1.38 0.0 1.80	76.4629948365	1.38	0.00	Clear(sunny)	True	False	0.00
2010-06-21 06:00:00 29141 6 56.20 56.20 56.20 35.2 73.50	76.4629948365	56.20	35.20	Sunny(sunny)	True	False	35.20
2010-06-21 07:00:00 29142 7 168.45 168.45 168.45 175.9 220.30	76.4629948365	168.45	175.90	Sunny(sunny)	True	False	175.90
2010-06-21 08:00:00 29143 8 371.23 371.23 371.23 390.0 485.50	76.4629948365	371.23	390.00	Sunny(sunny)	True	False	390.00
2010-06-21 09:00:00 29144 9 530.96 530.96 530.96 579.6 694.40	76.4629948365	530.96	579.60	Sunny(sunny)	True	False	579.60
2010-06-21 10:00:00 29145 10 710.80 710.80 710.80 694.0 929.60	76.4629948365	710.80	694.00	Mostly_Sunny(sunny)	False	False	694.00
2010-06-21 11:00:00 29146 11 721.96 721.96 721.96 806.3 944.20	76.4629948365	721.96	806.30	Mostly_Sunny(sunny)	False	False	806.30
2010-06-21 12:00:00 29147 12 717.83 717.83 717.83 710.9 938.80	76.4629948365	717.83	710.90	Mostly_Sunny(fair)	False	False	710.90
2010-06-21 13:00:00 29148 13 795.83 795.83 795.83 759.8 1040.80	76.4629948365	795.83	759.80	Mostly_Sunny(partly_cloudy)	False	False	759.80
2010-06-21 14:00:00 29149 14 727.09 727.09 727.09 741.8 950.90	76.4629948365	727.09	741.80	Mostly_Sunny(fair)	False	False	741.80
2010-06-21 15:00:00 29150 15 611.93 611.93 611.93 695.9 800.30	76.4629948365	611.93	695.90	Mostly_Sunny(fair)	False	False	695.90
2010-06-21 16:00:00 29151 16 540.73 540.73 540.73 415.9 716.10	75.5102040816	540.73	415.90	Partly_Cloudy(fair)	True	False	415.90
2010-06-21 17:00:00 29152 17 364.49 364.49 364.49 352.2 482.70	75.5102040816	364.49	352.20	Partly_Cloudy(fair)	True	False	352.20
2010-06-21 18:00:00 29153 18 161.74 161.74 161.74 125.3 214.20	75.5102040816	161.74	125.30	Partly_Cloudy(sunny)	True	False	125.30
2010-06-21 19:00:00 29154 19 61.47 61.47 61.47 37.2 81.40	75.5102040816	61.47	37.20	Partly_Cloudy(sunny)	True	False	37.20
2010-06-21 20:00:00 29155 20 5.06 5.06 5.06 2.3 6.70	75.5102040816	5.06	2.30	Partly_Cloudy(sunny)	True	False	2.30
2010-06-21 21:00:00 29156 21 0.00 0.00 0.00 0.0 0.00	75.5102040816	0.00	0.00	Partly_Cloudy(clear)	True	False	0.00
2010-06-21 22:00:00 29157 22 0.00 0.00 0.00 0.0 0.00	75.5102040816	0.00	0.00	Partly_Cloudy(clear)	True	False	0.00
2010-06-21 23:00:00 29158 23 0.00 0.00 0.00 0.0 0.00	75.5102040816	0.00	0.00	Partly_Cloudy(clear)	True	False	0.00
2010-06-22 00:00:00 29159 0 0.00 0.00 0.00 0.0 0.00	75.5102040816	0.00	0.00	Partly_Cloudy(mostly_cloudy)	True	False	0.00
2010-06-22 01:00:00 29160 1 0.00 0.00 0.00 0.0 0.00	75.5102040816	0.00	0.00	Partly_Cloudy(clear)	True	False	0.00
2010-06-22 02:00:00 29161 2 0.00 0.00 0.00 0.0 0.00	75.5102040816	0.00	0.00	Partly_Cloudy(partly_cloudy)	True	False	0.00
2010-06-22 03:00:00 29162 3 0.00 0.00 0.00 0.0 0.00	75.5102040816	0.00	0.00	Partly_Cloudy(clear)	True	False	0.00
2010-06-22 04:00:00 29163 4 0.00 0.00 0.00 0.0 0.00	75.5102040816	0.00	0.00	Partly_Cloudy(partly_cloudy)	True	False	0.00
2010-06-22 05:00:00 29164 5 1.36 1.36 1.36 0.0 1.80	75.5102040816	1.36	0.00	Partly_Cloudy(partly_cloudy)	True	False	0.00
2010-06-22 06:00:00 29165 6 55.50 55.50 55.50 45.9 73.50	75.5102040816	55.50	45.90	Partly_Cloudy(partly_cloudy)	True	False	45.90
2010-06-22 07:00:00 29166 7 166.35 166.35 166.35 182.7 220.30	75.5102040816	166.35	182.70	Partly_Cloudy(sunny)	True	False	182.70
2010-06-22 08:00:00 29167 8 366.60 366.60 366.60 369.8 485.50	75.5102040816	366.60	369.80	Partly_Cloudy(partly_cloudy)	True	False	369.80
2010-06-22 09:00:00 29168 9 524.34 524.34 524.34 533.2 694.40	75.5102040816	524.34	533.20	Partly_Cloudy(partly_cloudy)	True	False	533.20
2010-06-22 10:00:00 29169 10 638.98 638.98 638.98 696.1 929.60	68.73668513	638.98	696.10	Mostly_Cloudy(sunny)	True	False	696.10
2010-06-22 11:00:00 29170 11 649.01 649.01 649.01 779.6 944.20	68.73668513	649.01	779.60	Mostly_Cloudy(sunny)	True	False	779.60
2010-06-22 12:00:00 29171 12 780.31 780.31 780.31 594.7 938.80	83.1179834781	780.31	594.70	Partly_Cloudy(fair)	True	False	594.70
2010-06-22 13:00:00 29172 13 715.41 715.41 715.41 638.4 1040.80	68.73668513	715.41	638.40	Mostly_Cloudy(sunny)	True	False	638.40
