2010-07-15 01:00:00 57936 1 0.00 0.00 0.00 0.0 0.00	25.6667335071	0.00	0.00	Few_Showers(fog)	True	False	0.00
2010-07-15 02:00:00 57937 2 0.00 0.00 0.00 0.0 0.00	25.6667335071	0.00	0.00	Few_Showers(cloudy)	True	False	0.00
2010-07-15 03:00:00 57938 3 0.00 0.00 0.00 0.0 0.00	25.6667335071	0.00	0.00	Few_Showers(partly_cloudy)	True	False	0.00
2010-07-15 04:00:00 57939 4 0.00 0.00 0.00 0.0 0.00	74.2951224532	0.00	0.00	Partly_Cloudy(fair)	True	False	0.00
2010-07-15 05:00:00 57940 5 0.22 0.22 0.22 0.0 0.30	74.2951224532	0.22	0.00	Partly_Cloudy(clear)	True	False	0.00
2010-07-15 06:00:00 57941 6 57.73 57.73 57.73 10.1 77.70	74.2951224532	57.73	10.10	Partly_Cloudy(cloudy)	True	False	10.10
2010-07-15 07:00:00 57942 7 154.09 154.09 154.09 141.2 207.40	74.2951224532	154.09	141.20	Partly_Cloudy(cloudy)	True	False	141.20
2010-07-15 08:00:00 57943 8 361.00 361.00 361.00 247.0 485.90	74.2951224532	361.00	247.00	Partly_Cloudy(partly_cloudy)	True	False	247.00
2010-07-15 09:00:00 57944 9 553.57 553.57 553.57 232.3 745.10	74.2951224532	553.57	232.30	Partly_Cloudy(cloudy)	True	False	232.30
2010-07-15 10:00:00 57945 10 693.88 693.88 693.88 427.8 919.50	75.4625033842	693.88	427.80	Partly_Cloudy(cloudy)	True	False	427.80
2010-07-15 11:00:00 57946 11 783.98 783.98 783.98 590.3 1038.90	75.4625033842	783.98	590.30	Partly_Cloudy(mostly_cloudy)	True	False	590.30
2010-07-15 12:00:00 57947 12 836.20 836.20 836.20 575.1 1108.10	75.4625033842	836.20	575.10	Partly_Cloudy(fair)	True	False	575.10
2010-07-15 13:00:00 57948 13 835.90 835.90 835.90 499.9 1107.70	75.4625033842	835.90	499.90	Partly_Cloudy(fair)	True	False	499.90
2010-07-15 14:00:00 57949 14 800.20 800.20 800.20 671.5 1060.40	75.4625033842	800.20	671.50	Partly_Cloudy(mostly_cloudy)	True	False	671.50
2010-07-15 15:00:00 57950 15 708.67 708.67 708.67 723.7 939.10	75.4625033842	708.67	723.70	Partly_Cloudy(partly_cloudy)	True	False	723.70
2010-07-15 16:00:00 57951 16 572.68 572.68 572.68 629.9 758.90	75.4625033842	572.68	629.90	Mostly_Sunny(fair)	False	False	629.90
2010-07-15 17:00:00 57952 17 376.33 376.33 376.33 371.2 498.70	75.4625033842	376.33	371.20	Mostly_Sunny(fair)	False	False	371.20
2010-07-15 18:00:00 57953 18 170.39 170.39 170.39 190.2 225.80	75.4625033842	170.39	190.20	Mostly_Sunny(fair)	False	False	190.20
2010-07-15 19:00:00 57954 19 60.48 60.48 60.48 32.3 81.40	74.2951224532	60.48	32.30	Partly_Cloudy(fair)	True	False	32.30
2010-07-15 20:00:00 57955 20 5.05 5.05 5.05 0.0 6.80	74.2951224532	5.05	0.00	Partly_Cloudy(sunny)	True	False	0.00
2010-07-15 21:00:00 57956 21 0.00 0.00 0.00 0.0 0.00	74.2951224532	0.00	0.00	Partly_Cloudy(clear)	True	False	0.00
2010-07-15 22:00:00 57957 22 0.00 0.00 0.00 0.0 0.00	74.2951224532	0.00	0.00	Mostly_Clear(clear)	False	False	0.00
2010-07-15 23:00:00 57958 23 0.00 0.00 0.00 0.0 0.00	74.2951224532	0.00	0.00	Mostly_Clear(fair)	False	False	0.00
2010-07-16 00:00:00 57959 0 0.00 0.00 0.00 0.0 0.00	74.2951224532	0.00	0.00	Mostly_Clear(clear)	False	False	0.00
2010-07-16 01:00:00 57960 1 0.00 0.00 0.00 0.0 0.00	74.2951224532	0.00	0.00	Partly_Cloudy(partly_cloudy)	True	False	0.00
2010-07-16 02:00:00 57961 2 0.00 0.00 0.00 0.0 0.00	74.2951224532	0.00	0.00	Partly_Cloudy(cloudy)	True	False	0.00
2010-07-16 03:00:00 57962 3 0.00 0.00 0.00 0.0 0.00	74.2951224532	0.00	0.00	Partly_Cloudy(cloudy)	True	False	0.00
2010-07-16 04:00:00 57963 4 0.00 0.00 0.00 0.0 0.00	74.2951224532	0.00	0.00	Mostly_Clear(cloudy)	False	False	0.00
2010-07-16 05:00:00 57964 5 0.22 0.22 0.22 0.0 0.30	74.2951224532	0.22	0.00	Mostly_Clear(cloudy)	False	False	0.00
2010-07-16 06:00:00 57965 6 57.73 57.73 57.73 14.2 77.70	74.2951224532	57.73	14.20	Mostly_Sunny(cloudy)	False	False	14.20
2010-07-16 07:00:00 57966 7 154.09 154.09 154.09 146.1 207.40	74.2951224532	154.09	146.10	Mostly_Sunny(fair)	False	False	146.10
2010-07-16 08:00:00 57967 8 361.00 361.00 361.00 374.5 485.90	74.2951224532	361.00	374.50	Mostly_Sunny(cloudy)	False	False	374.50
2010-07-16 09:00:00 57968 9 553.57 553.57 553.57 634.1 745.10	74.2951224532	553.57	634.10	Mostly_Sunny(cloudy)	False	False	634.10
2010-07-16 10:00:00 57969 10 683.14 683.14 683.14 820.4 919.50	74.2951224532	683.14	820.40	Mostly_Sunny(fair)	False	False	820.40
2010-07-16 11:00:00 57970 11 771.85 771.85 771.85 942.7 1038.90	74.2951224532	771.85	942.70	Mostly_Sunny(sunny)	False	False	942.70
2010-07-16 12:00:00 57971 12 823.26 823.26 823.26 953.4 1108.10	74.2951224532	823.26	953.40	Mostly_Sunny(fair)	False	False	953.40
2010-07-16 13:00:00 57972 13 835.90 835.90 835.90 638.1 1107.70	75.4625033842	835.90	638.10	Partly_Cloudy(sunny)	True	False	638.10
2010-07-16 14:00:00 57973 14 800.20 800.20 800.20 952.4 1060.40	75.4625033842	800.20	952.40	Partly_Cloudy(partly_cloudy)	True	False	952.40
2010-07-16 15:00:00 57974 15 708.67 708.67 708.67 791.1 939.10	75.4625033842	708.67	791.10	Partly_Cloudy(sunny)	True	False	791.10
2010-07-16 16:00:00 57975 16 563.83 563.83 563.83 450.5 758.90	74.2951224532	563.83	450.50	Partly_Cloudy(fair)	True	False	450.50
2010-07-16 17:00:00 57976 17 370.51 370.51 370.51 324.1 498.70	74.2951224532	370.51	324.10	Partly_Cloudy(fair)	True	False	324.10
2010-07-16 18:00:00 57977 18 167.76 167.76 167.76 147.2 225.80	74.2951224532	167.76	147.20	Partly_Cloudy(sunny)	True	False	147.20
2010-07-16 19:00:00 57978 19 60.48 60.48 60.48 13.1 81.40	74.2951224532	60.48	13.10	Partly_Cloudy(fair)	True	False	13.10
2010-07-16 20:00:00 57979 20 5.05 5.05 5.05 1.0 6.80	74.2951224532	5.05	1.00	Partly_Cloudy(partly_cloudy)	True	False	1.00
2010-07-16 21:00:00 57980 21 0.00 0.00 0.00 0.0 0.00	74.2951224532	0.00	0.00	Partly_Cloudy(partly_cloudy)	True	False	0.00
2010-07-16 22:00:00 57981 22 0.00 0.00 0.00 0.0 0.00	74.2951224532	0.00	0.00	Partly_Cloudy(partly_cloudy)	True	False	0.00
2010-07-16 23:00:00 57982 23 0.00 0.00 0.00 0.0 0.00	74.2951224532	0.00	0.00	Partly_Cloudy(partly_cloudy)	True	False	0.00
2010-07-17 00:00:00 57983 0 0.00 0.00 0.00 0.0 0.00	74.2951224532	0.00	0.00	Partly_Cloudy(partly_cloudy)	True	False	0.00
2010-07-17 01:00:00 57984 1 0.00 0.00 0.00 0.0 0.00	57.7800829876	0.00	0.00	Mostly_Cloudy(mostly_cloudy)	True	False	0.00
