2010-06-10 10:00:00 17217 10 735.25 735.25 735.25 421.5 929.60	79.0929834569	735.25	421.50	Partly_Cloudy(cloudy)	True	False	421.50
2010-06-10 11:00:00 17218 11 476.91 476.91 831.90 802.2 1051.80	79.0929834569	831.90	802.20	Partly_Cloudy(cloudy)	True	False	802.20
2010-06-10 12:00:00 17219 12 865.44 496.13 865.44 756.0 1094.20	79.0929834569	865.44	756.00	Partly_Cloudy(cloudy)	True	False	756.00
2010-06-10 13:00:00 17220 13 854.13 489.65 854.13 1010.9 1079.90	79.0929834569	854.13	1010.90	Partly_Cloudy(partly_cloudy)	True	False	1010.90
2010-06-10 14:00:00 17221 14 801.05 459.22 801.05 676.7 1012.80	79.0929834569	801.05	676.70	Partly_Cloudy(fair)	True	False	676.70
2010-06-10 15:00:00 17222 15 698.79 400.60 698.79 356.6 883.50	79.0929834569	698.79	356.60	Partly_Cloudy(fair)	True	False	356.60
2010-06-10 16:00:00 17223 16 549.36 324.69 549.36 302.0 716.10	76.7159199237	549.36	302.00	Partly_Cloudy(cloudy)	True	False	302.00
2010-06-10 17:00:00 17224 17 321.90 190.26 321.90 262.9 419.60	76.7159199237	321.90	262.90	Partly_Cloudy(partly_cloudy)	True	False	262.90
2010-06-10 18:00:00 17225 18 164.33 97.12 164.33 110.6 214.20	76.7159199237	164.33	110.60	Partly_Cloudy(cloudy)	True	False	110.60
2010-06-10 19:00:00 17226 19 40.97 24.21 40.97 18.3 53.40	76.7159199237	40.97	18.30	Partly_Cloudy(partly_cloudy)	True	False	18.30
2010-06-10 20:00:00 17227 20 2.69 1.59 2.69 0.0 3.50	76.7159199237	2.69	0.00	Partly_Cloudy(cloudy)	True	False	0.00
2010-06-10 21:00:00 17228 21 0.00 0.00 0.00 0.0 0.00	76.7159199237	0.00	0.00	Partly_Cloudy(mostly_cloudy)	True	False	0.00
2010-06-10 22:00:00 17229 22 0.00 0.00 0.00 0.0 0.00	76.7159199237	0.00	0.00	Partly_Cloudy(mostly_cloudy)	True	False	0.00
2010-06-10 23:00:00 17230 23 0.00 0.00 0.00 0.0 0.00	76.7159199237	0.00	0.00	Partly_Cloudy(fair)	True	False	0.00
2010-06-11 00:00:00 17231 0 0.00 0.00 0.00 0.0 0.00	76.7159199237	0.00	0.00	Partly_Cloudy(clear)	True	False	0.00
2010-06-11 01:00:00 17232 1 0.00 0.00 0.00 0.0 0.00	76.7159199237	0.00	0.00	Partly_Cloudy(clear)	True	False	0.00
2010-06-11 02:00:00 17233 2 0.00 0.00 0.00 0.0 0.00	76.7159199237	0.00	0.00	Partly_Cloudy(clear)	True	False	0.00
2010-06-11 03:00:00 17234 3 0.00 0.00 0.00 0.0 0.00	76.7159199237	0.00	0.00	Partly_Cloudy(clear)	True	False	0.00
2010-06-11 04:00:00 17235 4 0.00 0.00 0.00 0.0 0.00	76.7159199237	0.00	0.00	Partly_Cloudy(partly_cloudy)	True	False	0.00
2010-06-11 05:00:00 17236 5 1.38 1.38 1.38 3.2 1.80	76.7159199237	1.38	3.20	Partly_Cloudy(sunny)	True	False	3.20
2010-06-11 06:00:00 17237 6 56.39 56.39 56.39 101.3 73.50	76.7159199237	56.39	101.30	Partly_Cloudy(partly_cloudy)	True	False	101.30
2010-06-11 07:00:00 17238 7 190.64 190.64 190.64 293.1 248.50	76.7159199237	190.64	293.10	Partly_Cloudy(partly_cloudy)	True	False	293.10
2010-06-11 08:00:00 17239 8 407.98 407.98 407.98 509.2 531.80	76.7159199237	407.98	509.20	Partly_Cloudy(partly_cloudy)	True	False	509.20
2010-06-11 09:00:00 17240 9 568.77 568.77 568.77 704.0 741.40	76.7159199237	568.77	704.00	Partly_Cloudy(partly_cloudy)	True	False	704.00
2010-06-11 10:00:00 17241 10 514.91 514.91 514.91 689.2 929.60	55.3907586994	514.91	689.20	Mostly_Cloudy(partly_cloudy)	True	False	689.20
2010-06-11 11:00:00 17242 11 582.60 582.60 582.60 920.2 1051.80	55.3907586994	582.60	920.20	Mostly_Cloudy(mostly_cloudy)	True	False	920.20
2010-06-11 12:00:00 17243 12 606.09 606.09 606.09 789.5 1094.20	55.3907586994	606.09	789.50	Mostly_Cloudy(mostly_cloudy)	True	False	789.50
2010-06-11 13:00:00 17244 13 854.13 854.13 854.13 603.3 1079.90	79.0929834569	854.13	603.30	Partly_Cloudy(mostly_cloudy)	True	False	603.30
2010-06-11 14:00:00 17245 14 801.05 801.05 801.05 696.8 1012.80	79.0929834569	801.05	696.80	Partly_Cloudy(partly_cloudy)	True	False	696.80
2010-06-11 15:00:00 17246 15 698.79 698.79 698.79 541.1 883.50	79.0929834569	698.79	541.10	Partly_Cloudy(partly_cloudy)	True	False	541.10
2010-06-11 16:00:00 17247 16 549.36 549.36 549.36 587.1 716.10	76.7159199237	549.36	587.10	Partly_Cloudy(mostly_cloudy)	True	False	587.10
2010-06-11 17:00:00 17248 17 321.90 321.90 321.90 366.7 419.60	76.7159199237	321.90	366.70	Partly_Cloudy(mostly_cloudy)	True	False	366.70
2010-06-11 18:00:00 17249 18 164.33 164.33 164.33 176.0 214.20	76.7159199237	164.33	176.00	Partly_Cloudy(fair)	True	False	176.00
2010-06-11 19:00:00 17250 19 40.97 40.97 40.97 36.7 53.40	76.7159199237	40.97	36.70	Partly_Cloudy(fair)	True	False	36.70
2010-06-11 20:00:00 17251 20 2.69 2.69 2.69 0.4 3.50	76.7159199237	2.69	0.40	Partly_Cloudy(sunny)	True	False	0.40
2010-06-11 21:00:00 17252 21 0.00 0.00 0.00 0.0 0.00	76.7159199237	0.00	0.00	Partly_Cloudy(fair)	True	False	0.00
2010-06-11 22:00:00 17253 22 0.00 0.00 0.00 0.0 0.00	76.7159199237	0.00	0.00	Partly_Cloudy(clear)	True	False	0.00
2010-06-11 23:00:00 17254 23 0.00 0.00 0.00 0.0 0.00	76.7159199237	0.00	0.00	Partly_Cloudy(clear)	True	False	0.00
2010-06-12 00:00:00 17255 0 0.00 0.00 0.00 0.0 0.00	76.7159199237	0.00	0.00	Partly_Cloudy(clear)	True	False	0.00
2010-06-12 01:00:00 17256 1 0.00 0.00 0.00 0.0 0.00	76.7159199237	0.00	0.00	Partly_Cloudy(clear)	True	False	0.00
2010-06-12 02:00:00 17257 2 0.00 0.00 0.00 0.0 0.00	76.7159199237	0.00	0.00	Partly_Cloudy(fair)	True	False	0.00
2010-06-12 03:00:00 17258 3 0.00 0.00 0.00 0.0 0.00	76.7159199237	0.00	0.00	Partly_Cloudy(mostly_cloudy)	True	False	0.00
2010-06-12 04:00:00 17259 4 0.00 0.00 0.00 0.0 0.00	76.7159199237	0.00	0.00	Partly_Cloudy(cloudy)	True	False	0.00
2010-06-12 05:00:00 17260 5 1.38 1.38 1.38 0.0 1.80	76.7159199237	1.38	0.00	Partly_Cloudy(cloudy)	True	False	0.00
2010-06-12 06:00:00 17261 6 56.39 56.39 56.39 46.8 73.50	76.7159199237	56.39	46.80	Partly_Cloudy(cloudy)	True	False	46.80
2010-06-12 07:00:00 17262 7 154.78 154.78 154.78 216.7 248.50	62.287564068	154.78	216.70	Mostly_Cloudy(cloudy)	True	False	216.70
2010-06-12 08:00:00 17263 8 331.25 331.25 331.25 313.5 531.80	62.287564068	331.25	313.50	Mostly_Cloudy(cloudy)	True	False	313.50
2010-06-12 09:00:00 17264 9 461.80 461.80 461.80 193.5 741.40	62.287564068	461.80	193.50	Mostly_Cloudy(mostly_cloudy)	True	False	193.50
2010-06-12 10:00:00 17265 10 735.25 735.25 735.25 716.2 929.60	79.0929834569	735.25	716.20	Partly_Cloudy(partly_cloudy)	True	False	716.20
