2010-06-11 06:00:00 18197 6 55.55 55.55 55.55 101.3 73.50	75.5760368664	55.55	101.30	Partly_Cloudy(partly_cloudy)	True	False	101.30
2010-06-11 07:00:00 18198 7 187.81 187.81 187.81 293.1 248.50	75.5760368664	187.81	293.10	Partly_Cloudy(partly_cloudy)	True	False	293.10
2010-06-11 08:00:00 18199 8 401.91 401.91 401.91 509.2 531.80	75.5760368664	401.91	509.20	Partly_Cloudy(partly_cloudy)	True	False	509.20
2010-06-11 09:00:00 18200 9 544.22 544.22 544.22 704.0 720.10	75.5760368664	544.22	704.00	Partly_Cloudy(partly_cloudy)	True	False	704.00
2010-06-11 10:00:00 18201 10 517.57 517.57 517.57 689.2 929.60	55.6762874929	517.57	689.20	Mostly_Cloudy(partly_cloudy)	True	False	689.20
2010-06-11 11:00:00 18202 11 585.60 585.60 585.60 920.2 1051.80	55.6762874929	585.60	920.20	Mostly_Cloudy(mostly_cloudy)	True	False	920.20
2010-06-11 12:00:00 18203 12 609.21 609.21 609.21 789.5 1094.20	55.6762874929	609.21	789.50	Mostly_Cloudy(mostly_cloudy)	True	False	789.50
2010-06-11 13:00:00 18204 13 852.89 852.89 852.89 603.3 1079.90	78.9788933257	852.89	603.30	Partly_Cloudy(mostly_cloudy)	True	False	603.30
2010-06-11 14:00:00 18205 14 799.90 799.90 799.90 696.8 1012.80	78.9788933257	799.90	696.80	Partly_Cloudy(partly_cloudy)	True	False	696.80
2010-06-11 15:00:00 18206 15 697.78 697.78 697.78 541.1 883.50	78.9788933257	697.78	541.10	Partly_Cloudy(partly_cloudy)	True	False	541.10
2010-06-11 16:00:00 18207 16 541.20 541.20 541.20 587.1 716.10	75.5760368664	541.20	587.10	Partly_Cloudy(mostly_cloudy)	True	False	587.10
2010-06-11 17:00:00 18208 17 322.26 322.26 322.26 366.7 426.40	75.5760368664	322.26	366.70	Partly_Cloudy(mostly_cloudy)	True	False	366.70
2010-06-11 18:00:00 18209 18 161.88 161.88 161.88 176.0 214.20	75.5760368664	161.88	176.00	Partly_Cloudy(fair)	True	False	176.00
2010-06-11 19:00:00 18210 19 40.36 40.36 40.36 36.7 53.40	75.5760368664	40.36	36.70	Partly_Cloudy(fair)	True	False	36.70
2010-06-11 20:00:00 18211 20 2.65 2.65 2.65 0.4 3.50	75.5760368664	2.65	0.40	Partly_Cloudy(sunny)	True	False	0.40
2010-06-11 21:00:00 18212 21 0.00 0.00 0.00 0.0 0.00	75.5760368664	0.00	0.00	Partly_Cloudy(fair)	True	False	0.00
2010-06-11 22:00:00 18213 22 0.00 0.00 0.00 0.0 0.00	62.558356676	0.00	0.00	Mostly_Cloudy(clear)	True	False	0.00
2010-06-11 23:00:00 18214 23 0.00 0.00 0.00 0.0 0.00	62.558356676	0.00	0.00	Mostly_Cloudy(clear)	True	False	0.00
2010-06-12 00:00:00 18215 0 0.00 0.00 0.00 0.0 0.00	62.558356676	0.00	0.00	Mostly_Cloudy(clear)	True	False	0.00
2010-06-12 01:00:00 18216 1 0.00 0.00 0.00 0.0 0.00	62.558356676	0.00	0.00	Mostly_Cloudy(clear)	True	False	0.00
2010-06-12 02:00:00 18217 2 0.00 0.00 0.00 0.0 0.00	62.558356676	0.00	0.00	Mostly_Cloudy(fair)	True	False	0.00
2010-06-12 03:00:00 18218 3 0.00 0.00 0.00 0.0 0.00	62.558356676	0.00	0.00	Mostly_Cloudy(mostly_cloudy)	True	False	0.00
2010-06-12 04:00:00 18219 4 0.00 0.00 0.00 0.0 0.00	62.558356676	0.00	0.00	Mostly_Cloudy(cloudy)	True	False	0.00
2010-06-12 05:00:00 18220 5 1.13 1.13 1.13 0.0 1.80	62.558356676	1.13	0.00	Mostly_Cloudy(cloudy)	True	False	0.00
2010-06-12 06:00:00 18221 6 45.98 45.98 45.98 46.8 73.50	62.558356676	45.98	46.80	Mostly_Cloudy(cloudy)	True	False	46.80
2010-06-12 07:00:00 18222 7 155.46 155.46 155.46 216.7 248.50	62.558356676	155.46	216.70	Mostly_Cloudy(cloudy)	True	False	216.70
2010-06-12 08:00:00 18223 8 332.69 332.69 332.69 313.5 531.80	62.558356676	332.69	313.50	Mostly_Cloudy(cloudy)	True	False	313.50
2010-06-12 09:00:00 18224 9 450.48 450.48 450.48 193.5 720.10	62.558356676	450.48	193.50	Mostly_Cloudy(mostly_cloudy)	True	False	193.50
2010-06-12 10:00:00 18225 10 734.19 734.19 734.19 716.2 929.60	78.9788933257	734.19	716.20	Partly_Cloudy(partly_cloudy)	True	False	716.20
2010-06-12 11:00:00 18226 11 830.70 830.70 830.70 536.9 1051.80	78.9788933257	830.70	536.90	Partly_Cloudy(mostly_cloudy)	True	False	536.90
2010-06-12 12:00:00 18227 12 864.19 864.19 864.19 500.5 1094.20	78.9788933257	864.19	500.50	Partly_Cloudy(partly_cloudy)	True	False	500.50
2010-06-12 13:00:00 18228 13 852.89 852.89 852.89 882.0 1079.90	78.9788933257	852.89	882.00	Partly_Cloudy(mostly_cloudy)	True	False	882.00
2010-06-12 14:00:00 18229 14 799.90 799.90 799.90 686.9 1012.80	78.9788933257	799.90	686.90	Partly_Cloudy(partly_cloudy)	True	False	686.90
2010-06-12 15:00:00 18230 15 697.78 697.78 697.78 645.9 883.50	78.9788933257	697.78	645.90	Partly_Cloudy(partly_cloudy)	True	False	645.90
2010-06-12 16:00:00 18231 16 90.38 90.38 90.38 626.2 716.10	12.6215390314	90.38	626.20	Few_Showers(sunny)	True	False	626.20
2010-06-12 17:00:00 18232 17 53.82 53.82 53.82 410.0 426.40	12.6215390314	53.82	410.00	Few_Showers(fair)	True	False	410.00
2010-06-12 18:00:00 18233 18 27.04 27.04 27.04 160.5 214.20	12.6215390314	27.04	160.50	Few_Showers(fair)	True	False	160.50
2010-06-12 19:00:00 18234 19 6.74 6.74 6.74 42.1 53.40	12.6215390314	6.74	42.10	Scattered_T-Storms(sunny)	True	False	42.10
2010-06-12 20:00:00 18235 20 0.44 0.44 0.44 2.2 3.50	12.6215390314	0.44	2.20	Scattered_T-Storms(fair)	True	False	2.20
2010-06-12 21:00:00 18236 21 0.00 0.00 0.00 0.0 0.00	12.6215390314	0.00	0.00	Scattered_T-Storms(fair)	True	False	0.00
2010-06-12 22:00:00 18237 22 0.00 0.00 0.00 0.0 0.00	12.6215390314	0.00	0.00	Scattered_T-Storms(partly_cloudy)	True	False	0.00
2010-06-12 23:00:00 18238 23 0.00 0.00 0.00 0.0 0.00	12.6215390314	0.00	0.00	Scattered_T-Storms(clear)	True	False	0.00
2010-06-13 00:00:00 18239 0 0.00 0.00 0.00 0.0 0.00	12.6215390314	0.00	0.00	Scattered_T-Storms(clear)	True	False	0.00
2010-06-13 01:00:00 18240 1 0.00 0.00 0.00 0.0 0.00	12.6215390314	0.00	0.00	Scattered_T-Storms(clear)	True	False	0.00
2010-06-13 02:00:00 18241 2 0.00 0.00 0.00 0.0 0.00	12.6215390314	0.00	0.00	Scattered_T-Storms(mostly_cloudy)	True	False	0.00
2010-06-13 03:00:00 18242 3 0.00 0.00 0.00 0.0 0.00	12.6215390314	0.00	0.00	Scattered_T-Storms(clear)	True	False	0.00
2010-06-13 04:00:00 18243 4 0.00 0.00 0.00 0.0 0.00	12.6215390314	0.00	0.00	Scattered_T-Storms(fair)	True	False	0.00
2010-06-13 05:00:00 18244 5 0.23 0.23 0.23 0.0 1.80	12.6215390314	0.23	0.00	Scattered_T-Storms(cloudy)	True	False	0.00
2010-06-13 06:00:00 18245 6 9.28 9.28 9.28 14.8 73.50	12.6215390314	9.28	14.80	Scattered_T-Storms(partly_cloudy)	True	False	14.80
