2010-06-28 04:00:00 38091 4 0.00 0.00 0.00 0.0 0.00	72.3352145671	0.00	0.00	Partly_Cloudy(partly_cloudy)	True	False	0.00
2010-06-28 05:00:00 38092 5 1.37 1.37 1.37 0.0 1.80	72.3352145671	1.37	0.00	Mostly_Clear(sunny)	False	False	0.00
2010-06-28 06:00:00 38093 6 56.20 56.20 56.20 12.8 77.70	72.3352145671	56.20	12.80	Partly_Cloudy(sunny)	True	False	12.80
2010-06-28 07:00:00 38094 7 159.35 159.35 159.35 155.5 220.30	72.3352145671	159.35	155.50	Mostly_Sunny(sunny)	False	False	155.50
2010-06-28 08:00:00 38095 8 351.48 351.48 351.48 352.6 485.90	72.3352145671	351.48	352.60	Mostly_Sunny(sunny)	False	False	352.60
2010-06-28 09:00:00 38096 9 537.96 537.96 537.96 541.9 743.70	72.3352145671	537.96	541.90	Mostly_Sunny(sunny)	False	False	541.90
2010-06-28 10:00:00 38097 10 677.42 677.42 677.42 694.4 929.60	72.8726992387	677.42	694.40	Partly_Cloudy(fair)	True	False	694.40
2010-06-28 11:00:00 38098 11 756.20 756.20 756.20 700.2 1037.70	72.8726992387	756.20	700.20	Partly_Cloudy(sunny)	True	False	700.20
2010-06-28 12:00:00 38099 12 800.87 800.87 800.87 432.4 1099.00	72.8726992387	800.87	432.40	Partly_Cloudy(sunny)	True	False	432.40
2010-06-28 13:00:00 38100 13 205.11 205.11 205.11 739.9 1107.70	18.516833485	205.11	739.90	Isolated_T-Storms(sunny)	True	False	739.90
2010-06-28 14:00:00 38101 14 196.35 196.35 196.35 763.0 1060.40	18.516833485	196.35	763.00	Isolated_T-Storms(fair)	True	False	763.00
2010-06-28 15:00:00 38102 15 173.89 173.89 173.89 602.0 939.10	18.516833485	173.89	602.00	Isolated_T-Storms(partly_cloudy)	True	False	602.00
2010-06-28 16:00:00 38103 16 137.84 137.84 137.84 218.3 744.40	18.516833485	137.84	218.30	Scattered_T-Storms(mostly_cloudy)	True	False	218.30
2010-06-28 17:00:00 38104 17 89.75 89.75 89.75 102.1 484.70	18.516833485	89.75	102.10	Scattered_T-Storms(mostly_cloudy)	True	False	102.10
2010-06-28 18:00:00 38105 18 40.70 40.70 40.70 91.6 219.80	18.516833485	40.70	91.60	Scattered_T-Storms(partly_cloudy)	True	False	91.60
2010-06-28 19:00:00 38106 19 15.07 15.07 15.07 45.4 81.40	18.516833485	15.07	45.40	Scattered_T-Storms(sunny)	True	False	45.40
2010-06-28 20:00:00 38107 20 1.24 1.24 1.24 2.8 6.70	18.516833485	1.24	2.80	Scattered_T-Storms(sunny)	True	False	2.80
2010-06-28 21:00:00 38108 21 0.00 0.00 0.00 0.0 0.00	18.516833485	0.00	0.00	Scattered_T-Storms(fair)	True	False	0.00
2010-06-28 22:00:00 38109 22 0.00 0.00 0.00 0.0 0.00	18.516833485	0.00	0.00	Scattered_T-Storms(clear)	True	False	0.00
2010-06-28 23:00:00 38110 23 0.00 0.00 0.00 0.0 0.00	18.516833485	0.00	0.00	Scattered_T-Storms(fair)	True	False	0.00
2010-06-29 00:00:00 38111 0 0.00 0.00 0.00 0.0 0.00	18.516833485	0.00	0.00	Scattered_T-Storms(partly_cloudy)	True	False	0.00
2010-06-29 01:00:00 38112 1 0.00 0.00 0.00 0.0 0.00	18.516833485	0.00	0.00	Scattered_T-Storms(partly_cloudy)	True	False	0.00
2010-06-29 02:00:00 38113 2 0.00 0.00 0.00 0.0 0.00	18.516833485	0.00	0.00	Scattered_T-Storms(partly_cloudy)	True	False	0.00
2010-06-29 03:00:00 38114 3 0.00 0.00 0.00 0.0 0.00	18.516833485	0.00	0.00	Scattered_T-Storms(mostly_cloudy)	True	False	0.00
2010-06-29 04:00:00 38115 4 0.00 0.00 0.00 0.0 0.00	18.516833485	0.00	0.00	Few_Showers(cloudy)	True	False	0.00
2010-06-29 05:00:00 38116 5 0.33 0.33 0.33 0.0 1.80	18.516833485	0.33	0.00	Few_Showers(partly_cloudy)	True	False	0.00
2010-06-29 06:00:00 38117 6 14.39 14.39 14.39 59.2 77.70	18.516833485	14.39	59.20	Few_Showers(fog)	True	False	59.20
2010-06-29 07:00:00 38118 7 159.35 159.35 159.35 153.9 220.30	72.3352145671	159.35	153.90	Partly_Cloudy(mostly_cloudy)	True	False	153.90
2010-06-29 08:00:00 38119 8 351.48 351.48 351.48 352.8 485.90	72.3352145671	351.48	352.80	Partly_Cloudy(sunny)	True	False	352.80
2010-06-29 09:00:00 38120 9 537.96 537.96 537.96 567.7 743.70	72.3352145671	537.96	567.70	Partly_Cloudy(fair)	True	False	567.70
2010-06-29 10:00:00 38121 10 672.43 672.43 672.43 702.1 929.60	72.3352145671	672.43	702.10	Mostly_Sunny(sunny)	False	False	702.10
2010-06-29 11:00:00 38122 11 750.62 750.62 750.62 548.6 1037.70	72.3352145671	750.62	548.60	Mostly_Sunny(partly_cloudy)	False	False	548.60
2010-06-29 12:00:00 38123 12 794.96 794.96 794.96 812.2 1099.00	72.3352145671	794.96	812.20	Mostly_Sunny(partly_cloudy)	False	False	812.20
2010-06-29 13:00:00 38124 13 801.26 801.26 801.26 709.9 1107.70	72.3352145671	801.26	709.90	Mostly_Sunny(partly_cloudy)	False	False	709.90
2010-06-29 14:00:00 38125 14 767.04 767.04 767.04 524.3 1060.40	72.3352145671	767.04	524.30	Mostly_Sunny(partly_cloudy)	False	False	524.30
2010-06-29 15:00:00 38126 15 679.30 679.30 679.30 402.5 939.10	72.3352145671	679.30	402.50	Mostly_Sunny(partly_cloudy)	False	False	402.50
2010-06-29 16:00:00 38127 16 538.46 538.46 538.46 414.7 744.40	72.3352145671	538.46	414.70	Mostly_Sunny(partly_cloudy)	False	False	414.70
2010-06-29 17:00:00 38128 17 350.61 350.61 350.61 301.8 484.70	72.3352145671	350.61	301.80	Mostly_Sunny(partly_cloudy)	False	False	301.80
2010-06-29 18:00:00 38129 18 158.99 158.99 158.99 173.1 219.80	72.3352145671	158.99	173.10	Mostly_Sunny(partly_cloudy)	False	False	173.10
2010-06-29 19:00:00 38130 19 58.88 58.88 58.88 39.4 81.40	72.3352145671	58.88	39.40	Partly_Cloudy(fair)	True	False	39.40
2010-06-29 20:00:00 38131 20 4.85 4.85 4.85 7.0 6.70	72.3352145671	4.85	7.00	Partly_Cloudy(sunny)	True	False	7.00
2010-06-29 21:00:00 38132 21 0.00 0.00 0.00 0.0 0.00	72.3352145671	0.00	0.00	Partly_Cloudy(clear)	True	False	0.00
2010-06-29 22:00:00 38133 22 0.00 0.00 0.00 0.0 0.00	72.9561101549	0.00	0.00	Clear(fair)	True	False	0.00
2010-06-29 23:00:00 38134 23 0.00 0.00 0.00 0.0 0.00	72.9561101549	0.00	0.00	Clear(clear)	True	False	0.00
2010-06-30 00:00:00 38135 0 0.00 0.00 0.00 0.0 0.00	72.9561101549	0.00	0.00	Clear(clear)	True	False	0.00
2010-06-30 01:00:00 38136 1 0.00 0.00 0.00 0.0 0.00	72.9561101549	0.00	0.00	Clear(clear)	True	False	0.00
2010-06-30 02:00:00 38137 2 0.00 0.00 0.00 0.0 0.00	72.9561101549	0.00	0.00	Clear(clear)	True	False	0.00
2010-06-30 03:00:00 38138 3 0.00 0.00 0.00 0.0 0.00	72.9561101549	0.00	0.00	Clear(fair)	True	False	0.00
2010-06-30 04:00:00 38139 4 0.00 0.00 0.00 0.0 0.00	72.9561101549	0.00	0.00	Clear(clear)	True	False	0.00
