2010-06-29 11:00:00 39610 11 756.20 756.20 791.67 548.6 1037.70	72.8726992387	791.67	548.60	Partly_Cloudy(partly_cloudy)	True	False	548.60
2010-06-29 12:00:00 39611 12 800.87 800.87 581.01 812.2 1099.00	72.8726992387	581.01	812.20	Partly_Cloudy(partly_cloudy)	True	False	812.20
2010-06-29 13:00:00 39612 13 807.21 807.21 585.61 709.9 1107.70	72.8726992387	585.61	709.90	Partly_Cloudy(partly_cloudy)	True	False	709.90
2010-06-29 14:00:00 39613 14 772.74 772.74 560.60 524.3 1060.40	72.8726992387	560.60	524.30	Partly_Cloudy(partly_cloudy)	True	False	524.30
2010-06-29 15:00:00 39614 15 684.35 684.35 496.47 402.5 939.10	72.8726992387	496.47	402.50	Partly_Cloudy(partly_cloudy)	True	False	402.50
2010-06-29 16:00:00 39615 16 537.62 537.62 393.54 414.7 744.40	72.2217206825	393.54	414.70	Partly_Cloudy(partly_cloudy)	True	False	414.70
2010-06-29 17:00:00 39616 17 350.06 350.06 256.25 301.8 484.70	72.2217206825	256.25	301.80	Partly_Cloudy(partly_cloudy)	True	False	301.80
2010-06-29 18:00:00 39617 18 163.08 163.08 119.37 173.1 225.80	72.2217206825	119.37	173.10	Partly_Cloudy(partly_cloudy)	True	False	173.10
2010-06-29 19:00:00 39618 19 58.79 58.79 43.03 39.4 81.40	52.8669172208	43.03	39.40	Mostly_Sunny(fair)	False	False	39.40
2010-06-29 20:00:00 39619 20 4.84 4.84 3.54 7.0 6.70	52.8669172208	3.54	7.00	Mostly_Sunny(sunny)	False	False	7.00
2010-06-29 21:00:00 39620 21 0.00 0.00 0.00 0.0 0.00	52.8669172208	0.00	0.00	Mostly_Clear(clear)	False	False	0.00
2010-06-29 22:00:00 39621 22 0.00 0.00 0.00 0.0 0.00	72.2217206825	0.00	0.00	Partly_Cloudy(fair)	True	False	0.00
2010-06-29 23:00:00 39622 23 0.00 0.00 0.00 0.0 0.00	72.2217206825	0.00	0.00	Partly_Cloudy(clear)	True	False	0.00
2010-06-30 00:00:00 39623 0 0.00 0.00 0.00 0.0 0.00	72.2217206825	0.00	0.00	Partly_Cloudy(clear)	True	False	0.00
2010-06-30 01:00:00 39624 1 0.00 0.00 0.00 0.0 0.00	72.2217206825	0.00	0.00	Mostly_Clear(clear)	False	False	0.00
2010-06-30 02:00:00 39625 2 0.00 0.00 0.00 0.0 0.00	72.2217206825	0.00	0.00	Mostly_Clear(clear)	False	False	0.00
2010-06-30 03:00:00 39626 3 0.00 0.00 0.00 0.0 0.00	72.2217206825	0.00	0.00	Mostly_Clear(fair)	False	False	0.00
2010-06-30 04:00:00 39627 4 0.00 0.00 0.00 0.0 0.00	73.0943432591	0.00	0.00	Clear(clear)	True	False	0.00
2010-06-30 05:00:00 39628 5 1.32 1.32 1.32 0.1 1.80	73.0943432591	1.32	0.10	Clear(sunny)	True	False	0.10
2010-06-30 06:00:00 39629 6 56.79 56.79 56.79 33.4 77.70	73.0943432591	56.79	33.40	Sunny(sunny)	True	False	33.40
2010-06-30 07:00:00 39630 7 161.03 161.03 161.03 181.0 220.30	73.0943432591	161.03	181.00	Sunny(sunny)	True	False	181.00
2010-06-30 08:00:00 39631 8 355.17 355.17 355.17 414.9 485.90	73.0943432591	355.17	414.90	Sunny(sunny)	True	False	414.90
2010-06-30 09:00:00 39632 9 543.60 543.60 543.60 617.1 743.70	73.0943432591	543.60	617.10	Sunny(sunny)	True	False	617.10
2010-06-30 10:00:00 39633 10 709.20 709.20 709.20 768.1 929.60	76.2908777969	709.20	768.10	Sunny(sunny)	True	False	768.10
2010-06-30 11:00:00 39634 11 791.67 791.67 791.67 861.7 1037.70	76.2908777969	791.67	861.70	Sunny(sunny)	True	False	861.70
2010-06-30 12:00:00 39635 12 838.44 838.44 838.44 906.5 1099.00	76.2908777969	838.44	906.50	Sunny(sunny)	True	False	906.50
2010-06-30 13:00:00 39636 13 845.07 845.07 845.07 909.6 1107.70	76.2908777969	845.07	909.60	Sunny(sunny)	True	False	909.60
2010-06-30 14:00:00 39637 14 808.99 808.99 808.99 870.8 1060.40	76.2908777969	808.99	870.80	Sunny(sunny)	True	False	870.80
2010-06-30 15:00:00 39638 15 716.45 716.45 716.45 774.3 939.10	76.2908777969	716.45	774.30	Sunny(sunny)	True	False	774.30
2010-06-30 16:00:00 39639 16 544.11 544.11 544.11 611.2 744.40	73.0943432591	544.11	611.20	Sunny(sunny)	True	False	611.20
2010-06-30 17:00:00 39640 17 354.29 354.29 354.29 380.9 484.70	73.0943432591	354.29	380.90	Sunny(sunny)	True	False	380.90
2010-06-30 18:00:00 39641 18 165.05 165.05 165.05 155.4 225.80	73.0943432591	165.05	155.40	Sunny(fair)	True	False	155.40
2010-06-30 19:00:00 39642 19 59.50 59.50 59.50 29.4 81.40	73.0943432591	59.50	29.40	Sunny(fair)	True	False	29.40
2010-06-30 20:00:00 39643 20 4.90 4.90 4.90 2.2 6.70	73.0943432591	4.90	2.20	Sunny(sunny)	True	False	2.20
2010-06-30 21:00:00 39644 21 0.00 0.00 0.00 0.0 0.00	73.0943432591	0.00	0.00	Clear(fair)	True	False	0.00
2010-06-30 22:00:00 39645 22 0.00 0.00 0.00 0.0 0.00	73.0943432591	0.00	0.00	Clear(clear)	True	False	0.00
2010-06-30 23:00:00 39646 23 0.00 0.00 0.00 0.0 0.00	73.0943432591	0.00	0.00	Clear(clear)	True	False	0.00
2010-07-01 00:00:00 39647 0 0.00 0.00 0.00 0.0 0.00	73.0943432591	0.00	0.00	Clear(cloudy)	True	False	0.00
2010-07-01 01:00:00 39648 1 0.00 0.00 0.00 0.0 0.00	73.0943432591	0.00	0.00	Clear(cloudy)	True	False	0.00
2010-07-01 02:00:00 39649 2 0.00 0.00 0.00 0.0 0.00	73.0943432591	0.00	0.00	Clear(cloudy)	True	False	0.00
2010-07-01 03:00:00 39650 3 0.00 0.00 0.00 0.0 0.00	73.0943432591	0.00	0.00	Clear(fair)	True	False	0.00
2010-07-01 04:00:00 39651 4 0.00 0.00 0.00 0.0 0.00	73.0943432591	0.00	0.00	Clear(partly_cloudy)	True	False	0.00
2010-07-01 05:00:00 39652 5 1.32 1.32 1.32 0.3 1.80	73.0943432591	1.32	0.30	Clear(fair)	True	False	0.30
2010-07-01 06:00:00 39653 6 56.79 56.79 56.79 31.2 77.70	73.0943432591	56.79	31.20	Sunny(sunny)	True	False	31.20
2010-07-01 07:00:00 39654 7 161.03 161.03 161.03 174.2 220.30	73.0943432591	161.03	174.20	Sunny(sunny)	True	False	174.20
2010-07-01 08:00:00 39655 8 355.17 355.17 355.17 404.9 485.90	73.0943432591	355.17	404.90	Sunny(sunny)	True	False	404.90
2010-07-01 09:00:00 39656 9 543.60 543.60 543.60 607.6 743.70	73.0943432591	543.60	607.60	Sunny(sunny)	True	False	607.60
2010-07-01 10:00:00 39657 10 709.20 709.20 709.20 746.7 929.60	76.2908777969	709.20	746.70	Sunny(sunny)	True	False	746.70
2010-07-01 11:00:00 39658 11 791.67 791.67 791.67 691.6 1037.70	76.2908777969	791.67	691.60	Sunny(sunny)	True	False	691.60
