2010-07-04 17:00:00 45784 17 353.69 353.69 353.69 346.8 484.70	72.9710210346	353.69	346.80	Partly_Cloudy(sunny)	True	False	346.80
2010-07-04 18:00:00 45785 18 161.56 161.56 161.56 149.8 225.80	72.9710210346	161.56	149.80	Mostly_Sunny(sunny)	False	False	149.80
2010-07-04 19:00:00 45786 19 61.87 61.87 61.87 40.3 81.40	76.0090531875	61.87	40.30	Sunny(sunny)	True	False	40.30
2010-07-04 20:00:00 45787 20 5.17 5.17 5.17 4.9 6.80	76.0090531875	5.17	4.90	Sunny(sunny)	True	False	4.90
2010-07-04 21:00:00 45788 21 0.00 0.00 0.00 0.0 0.00	76.0090531875	0.00	0.00	Clear(clear)	True	False	0.00
2010-07-04 22:00:00 45789 22 0.00 0.00 0.00 0.0 0.00	76.0090531875	0.00	0.00	Clear(clear)	True	False	0.00
2010-07-04 23:00:00 45790 23 0.00 0.00 0.00 0.0 0.00	76.0090531875	0.00	0.00	Clear(fair)	True	False	0.00
2010-07-05 00:00:00 45791 0 0.00 0.00 0.00 0.0 0.00	76.0090531875	0.00	0.00	Clear(fair)	True	False	0.00
2010-07-05 01:00:00 45792 1 0.00 0.00 0.00 0.0 0.00	76.0090531875	0.00	0.00	Clear(fair)	True	False	0.00
2010-07-05 02:00:00 45793 2 0.00 0.00 0.00 0.0 0.00	76.0090531875	0.00	0.00	Clear(clear)	True	False	0.00
2010-07-05 03:00:00 45794 3 0.00 0.00 0.00 0.0 0.00	76.0090531875	0.00	0.00	Clear(clear)	True	False	0.00
2010-07-05 04:00:00 45795 4 0.00 0.00 0.00 0.0 0.00	76.0090531875	0.00	0.00	Clear(clear)	True	False	0.00
2010-07-05 05:00:00 45796 5 0.23 0.23 0.23 0.0 0.30	76.0090531875	0.23	0.00	Clear(sunny)	True	False	0.00
2010-07-05 06:00:00 45797 6 59.06 59.06 59.06 46.2 77.70	76.0090531875	59.06	46.20	Sunny(sunny)	True	False	46.20
2010-07-05 07:00:00 45798 7 167.45 167.45 167.45 161.7 220.30	76.0090531875	167.45	161.70	Mostly_Sunny(sunny)	False	False	161.70
2010-07-05 08:00:00 45799 8 369.33 369.33 369.33 352.8 485.90	76.0090531875	369.33	352.80	Mostly_Sunny(sunny)	False	False	352.80
2010-07-05 09:00:00 45800 9 565.28 565.28 565.28 530.7 743.70	76.0090531875	565.28	530.70	Mostly_Sunny(sunny)	False	False	530.70
2010-07-05 10:00:00 45801 10 663.74 663.74 663.74 678.2 909.60	72.9710210346	663.74	678.20	Partly_Cloudy(sunny)	True	False	678.20
2010-07-05 11:00:00 45802 11 757.22 757.22 757.22 760.5 1037.70	72.9710210346	757.22	760.50	Partly_Cloudy(sunny)	True	False	760.50
2010-07-05 12:00:00 45803 12 808.59 808.59 808.59 817.3 1108.10	72.9710210346	808.59	817.30	Partly_Cloudy(sunny)	True	False	817.30
2010-07-05 13:00:00 45804 13 878.62 878.62 878.62 822.2 1107.70	79.3196492242	878.62	822.20	Sunny(sunny)	True	False	822.20
2010-07-05 14:00:00 45805 14 841.11 841.11 841.11 770.8 1060.40	79.3196492242	841.11	770.80	Sunny(sunny)	True	False	770.80
2010-07-05 15:00:00 45806 15 744.89 744.89 744.89 680.5 939.10	79.3196492242	744.89	680.50	Sunny(sunny)	True	False	680.50
2010-07-05 16:00:00 45807 16 565.81 565.81 565.81 532.1 744.40	76.0090531875	565.81	532.10	Sunny(sunny)	True	False	532.10
2010-07-05 17:00:00 45808 17 368.42 368.42 368.42 341.1 484.70	76.0090531875	368.42	341.10	Sunny(sunny)	True	False	341.10
2010-07-05 18:00:00 45809 18 171.63 171.63 171.63 141.1 225.80	76.0090531875	171.63	141.10	Sunny(sunny)	True	False	141.10
2010-07-05 19:00:00 45810 19 61.87 61.87 61.87 30.4 81.40	76.0090531875	61.87	30.40	Sunny(sunny)	True	False	30.40
2010-07-05 20:00:00 45811 20 5.17 5.17 5.17 2.0 6.80	76.0090531875	5.17	2.00	Sunny(sunny)	True	False	2.00
2010-07-05 21:00:00 45812 21 0.00 0.00 0.00 0.0 0.00	76.0090531875	0.00	0.00	Clear(clear)	True	False	0.00
2010-07-05 22:00:00 45813 22 0.00 0.00 0.00 0.0 0.00	76.0090531875	0.00	0.00	Clear(clear)	True	False	0.00
2010-07-05 23:00:00 45814 23 0.00 0.00 0.00 0.0 0.00	76.0090531875	0.00	0.00	Clear(clear)	True	False	0.00
2010-07-06 00:00:00 45815 0 0.00 0.00 0.00 0.0 0.00	76.0090531875	0.00	0.00	Clear(clear)	True	False	0.00
2010-07-06 01:00:00 45816 1 0.00 0.00 0.00 0.0 0.00	76.0090531875	0.00	0.00	Clear(clear)	True	False	0.00
2010-07-06 02:00:00 45817 2 0.00 0.00 0.00 0.0 0.00	76.0090531875	0.00	0.00	Clear(clear)	True	False	0.00
2010-07-06 03:00:00 45818 3 0.00 0.00 0.00 0.0 0.00	76.0090531875	0.00	0.00	Clear(clear)	True	False	0.00
2010-07-06 04:00:00 45819 4 0.00 0.00 0.00 0.0 0.00	76.0090531875	0.00	0.00	Clear(clear)	True	False	0.00
2010-07-06 05:00:00 45820 5 0.23 0.23 0.23 0.0 0.30	76.0090531875	0.23	0.00	Clear(sunny)	True	False	0.00
2010-07-06 06:00:00 45821 6 59.06 59.06 59.06 27.7 77.70	76.0090531875	59.06	27.70	Sunny(sunny)	True	False	27.70
2010-07-06 07:00:00 45822 7 167.45 167.45 167.45 152.1 220.30	76.0090531875	167.45	152.10	Sunny(sunny)	True	False	152.10
2010-07-06 08:00:00 45823 8 369.33 369.33 369.33 341.2 485.90	76.0090531875	369.33	341.20	Sunny(sunny)	True	False	341.20
2010-07-06 09:00:00 45824 9 565.28 565.28 565.28 522.9 743.70	76.0090531875	565.28	522.90	Sunny(sunny)	True	False	522.90
2010-07-06 10:00:00 45825 10 721.49 721.49 721.49 665.8 909.60	79.3196492242	721.49	665.80	Sunny(sunny)	True	False	665.80
2010-07-06 11:00:00 45826 11 823.10 823.10 823.10 748.1 1037.70	79.3196492242	823.10	748.10	Sunny(sunny)	True	False	748.10
2010-07-06 12:00:00 45827 12 878.94 878.94 878.94 685.8 1108.10	79.3196492242	878.94	685.80	Sunny(sunny)	True	False	685.80
2010-07-06 13:00:00 45828 13 878.62 878.62 878.62 566.1 1107.70	79.3196492242	878.62	566.10	Sunny(sunny)	True	False	566.10
2010-07-06 14:00:00 45829 14 841.11 841.11 841.11 714.4 1060.40	79.3196492242	841.11	714.40	Sunny(sunny)	True	False	714.40
2010-07-06 15:00:00 45830 15 744.89 744.89 744.89 499.2 939.10	79.3196492242	744.89	499.20	Sunny(fair)	True	False	499.20
2010-07-06 16:00:00 45831 16 565.81 565.81 565.81 534.6 744.40	76.0090531875	565.81	534.60	Sunny(sunny)	True	False	534.60
2010-07-06 17:00:00 45832 17 368.42 368.42 368.42 334.5 484.70	76.0090531875	368.42	334.50	Sunny(sunny)	True	False	334.50
