2010-06-09 05:00:00 15796 5 1.42 1.42 1.42 3.7 1.80	78.9788933257	1.42	3.70	Partly_Cloudy(sunny)	True	False	3.70
2010-06-09 06:00:00 15797 6 58.05 58.05 58.05 89.7 73.50	78.9788933257	58.05	89.70	Partly_Cloudy(fair)	True	False	89.70
2010-06-09 07:00:00 15798 7 160.60 160.60 160.60 188.7 248.50	64.6258503401	160.60	188.70	Mostly_Cloudy(partly_cloudy)	True	False	188.70
2010-06-09 08:00:00 15799 8 343.68 343.68 343.68 212.0 531.80	64.6258503401	343.68	212.00	Mostly_Cloudy(mostly_cloudy)	True	False	212.00
2010-06-09 09:00:00 15800 9 490.77 490.77 490.77 347.4 759.40	64.6258503401	490.77	347.40	Mostly_Cloudy(partly_cloudy)	True	False	347.40
2010-06-09 10:00:00 15801 10 112.07 112.07 112.07 319.6 929.60	12.0556872038	112.07	319.60	Few_Showers(mostly_cloudy)	True	False	319.60
2010-06-09 11:00:00 15802 11 126.80 126.80 126.80 302.3 1051.80	12.0556872038	126.80	302.30	Few_Showers(mostly_cloudy)	True	False	302.30
2010-06-09 12:00:00 15803 12 131.91 131.91 131.91 216.2 1094.20	12.0556872038	131.91	216.20	Few_Showers(light_rain)	True	False	216.20
2010-06-09 13:00:00 15804 13 137.80 137.80 137.80 93.7 1079.90	12.7604407816	137.80	93.70	Showers(light_rain)	True	False	93.70
2010-06-09 14:00:00 15805 14 129.24 129.24 129.24 92.0 1012.80	12.7604407816	129.24	92.00	Showers(light_rain)	True	False	92.00
2010-06-09 15:00:00 15806 15 112.74 112.74 112.74 92.8 883.50	12.7604407816	112.74	92.80	Showers(light_rain)	True	False	92.80
2010-06-09 16:00:00 15807 16 101.76 101.76 101.76 70.3 716.10	14.2104130809	101.76	70.30	Rain(light_rain)	True	False	70.30
2010-06-09 17:00:00 15808 17 59.63 59.63 59.63 15.9 419.60	14.2104130809	59.63	15.90	Rain(light_rain)	True	False	15.90
2010-06-09 18:00:00 15809 18 30.44 30.44 30.44 6.2 214.20	14.2104130809	30.44	6.20	Rain(light_rain)	True	False	6.20
2010-06-09 19:00:00 15810 19 7.59 7.59 7.59 0.0 53.40	14.2104130809	7.59	0.00	Rain(light_rain)	True	False	0.00
2010-06-09 20:00:00 15811 20 0.40 0.40 0.40 0.0 2.80	14.2104130809	0.40	0.00	Rain(light_rain)	True	False	0.00
2010-06-09 21:00:00 15812 21 0.00 0.00 0.00 0.0 0.00	14.2104130809	0.00	0.00	Rain(light_rain)	True	False	0.00
2010-06-09 22:00:00 15813 22 0.00 0.00 0.00 0.0 0.00	14.2104130809	0.00	0.00	T-Showers(light_rain)	True	False	0.00
2010-06-09 23:00:00 15814 23 0.00 0.00 0.00 0.0 0.00	14.2104130809	0.00	0.00	T-Showers(light_rain)	True	False	0.00
2010-06-10 00:00:00 15815 0 0.00 0.00 0.00 0.0 0.00	14.2104130809	0.00	0.00	T-Showers(cloudy)	True	False	0.00
2010-06-10 01:00:00 15816 1 0.00 0.00 0.00 0.0 0.00	64.6258503401	0.00	0.00	Mostly_Cloudy(cloudy)	True	False	0.00
2010-06-10 02:00:00 15817 2 0.00 0.00 0.00 0.0 0.00	64.6258503401	0.00	0.00	Mostly_Cloudy(cloudy)	True	False	0.00
2010-06-10 03:00:00 15818 3 0.00 0.00 0.00 0.0 0.00	64.6258503401	0.00	0.00	Mostly_Cloudy(cloudy)	True	False	0.00
2010-06-10 04:00:00 15819 4 0.00 0.00 0.00 0.0 0.00	64.6258503401	0.00	0.00	Mostly_Cloudy(cloudy)	True	False	0.00
2010-06-10 05:00:00 15820 5 1.16 1.16 1.16 0.0 1.80	64.6258503401	1.16	0.00	Mostly_Cloudy(cloudy)	True	False	0.00
2010-06-10 06:00:00 15821 6 47.50 47.50 47.50 2.5 73.50	64.6258503401	47.50	2.50	Mostly_Cloudy(fog)	True	False	2.50
2010-06-10 07:00:00 15822 7 196.26 196.26 196.26 72.6 248.50	78.9788933257	196.26	72.60	Partly_Cloudy(cloudy)	True	False	72.60
2010-06-10 08:00:00 15823 8 420.01 420.01 420.01 172.6 531.80	78.9788933257	420.01	172.60	Partly_Cloudy(cloudy)	True	False	172.60
2010-06-10 09:00:00 15824 9 599.77 599.77 599.77 298.0 759.40	78.9788933257	599.77	298.00	Partly_Cloudy(cloudy)	True	False	298.00
2010-06-10 10:00:00 15825 10 734.19 734.19 734.19 421.5 929.60	78.9788933257	734.19	421.50	Mostly_Sunny(cloudy)	False	False	421.50
2010-06-10 11:00:00 15826 11 830.70 830.70 830.70 802.2 1051.80	78.9788933257	830.70	802.20	Mostly_Sunny(cloudy)	False	False	802.20
2010-06-10 12:00:00 15827 12 864.19 864.19 864.19 756.0 1094.20	78.9788933257	864.19	756.00	Mostly_Sunny(cloudy)	False	False	756.00
2010-06-10 13:00:00 15828 13 852.89 852.89 852.89 1010.9 1079.90	78.9788933257	852.89	1010.90	Mostly_Sunny(partly_cloudy)	False	False	1010.90
2010-06-10 14:00:00 15829 14 799.90 799.90 799.90 676.7 1012.80	78.9788933257	799.90	676.70	Mostly_Sunny(fair)	False	False	676.70
2010-06-10 15:00:00 15830 15 697.78 697.78 697.78 356.6 883.50	78.9788933257	697.78	356.60	Mostly_Sunny(fair)	False	False	356.60
2010-06-10 16:00:00 15831 16 565.57 565.57 565.57 302.0 716.10	78.9788933257	565.57	302.00	Partly_Cloudy(cloudy)	True	False	302.00
2010-06-10 17:00:00 15832 17 331.40 331.40 331.40 262.9 419.60	78.9788933257	331.40	262.90	Partly_Cloudy(partly_cloudy)	True	False	262.90
2010-06-10 18:00:00 15833 18 169.17 169.17 169.17 110.6 214.20	78.9788933257	169.17	110.60	Partly_Cloudy(cloudy)	True	False	110.60
2010-06-10 19:00:00 15834 19 42.17 42.17 42.17 18.3 53.40	78.9788933257	42.17	18.30	Partly_Cloudy(partly_cloudy)	True	False	18.30
2010-06-10 20:00:00 15835 20 2.21 2.21 2.21 0.0 2.80	78.9788933257	2.21	0.00	Partly_Cloudy(cloudy)	True	False	0.00
2010-06-10 21:00:00 15836 21 0.00 0.00 0.00 0.0 0.00	78.9788933257	0.00	0.00	Partly_Cloudy(mostly_cloudy)	True	False	0.00
2010-06-10 22:00:00 15837 22 0.00 0.00 0.00 0.0 0.00	78.9788933257	0.00	0.00	Partly_Cloudy(mostly_cloudy)	True	False	0.00
2010-06-10 23:00:00 15838 23 0.00 0.00 0.00 0.0 0.00	78.9788933257	0.00	0.00	Partly_Cloudy(fair)	True	False	0.00
2010-06-11 00:00:00 15839 0 0.00 0.00 0.00 0.0 0.00	78.9788933257	0.00	0.00	Partly_Cloudy(clear)	True	False	0.00
2010-06-11 01:00:00 15840 1 0.00 0.00 0.00 0.0 0.00	64.6258503401	0.00	0.00	Mostly_Cloudy(clear)	True	False	0.00
2010-06-11 02:00:00 15841 2 0.00 0.00 0.00 0.0 0.00	64.6258503401	0.00	0.00	Mostly_Cloudy(clear)	True	False	0.00
2010-06-11 03:00:00 15842 3 0.00 0.00 0.00 0.0 0.00	64.6258503401	0.00	0.00	Mostly_Cloudy(clear)	True	False	0.00
2010-06-11 04:00:00 15843 4 0.00 0.00 0.00 0.0 0.00	78.9788933257	0.00	0.00	Partly_Cloudy(partly_cloudy)	True	False	0.00
2010-06-11 05:00:00 15844 5 1.42 1.42 1.42 3.2 1.80	78.9788933257	1.42	3.20	Partly_Cloudy(sunny)	True	False	3.20
