2010-05-30 20:00:00 4771 20 1.19 1.19 1.33 0.7 1.40	84.7153465347	1.33	0.70	Sunny(sunny)	True	False	0.70
2010-05-30 21:00:00 4772 21 0.00 0.00 0.00 0.0 0.00	84.7153465347	0.00	0.00	Clear(clear)	True	False	0.00
2010-05-30 22:00:00 4773 22 0.00 0.00 0.00 0.0 0.00	84.7153465347	0.00	0.00	Clear(fair)	True	False	0.00
2010-05-30 23:00:00 4774 23 0.00 0.00 0.00 0.0 0.00	84.7153465347	0.00	0.00	Clear(clear)	True	False	0.00
2010-05-31 00:00:00 4775 0 0.00 0.00 0.00 0.0 0.00	84.7153465347	0.00	0.00	Clear(clear)	True	False	0.00
2010-05-31 01:00:00 4776 1 0.00 0.00 0.00 0.0 0.00	84.7153465347	0.00	0.00	Clear(clear)	True	False	0.00
2010-05-31 02:00:00 4777 2 0.00 0.00 0.00 0.0 0.00	84.7153465347	0.00	0.00	Clear(clear)	True	False	0.00
2010-05-31 03:00:00 4778 3 0.00 0.00 0.00 0.0 0.00	84.7153465347	0.00	0.00	Clear(clear)	True	False	0.00
2010-05-31 04:00:00 4779 4 0.00 0.00 0.00 0.0 0.00	84.7153465347	0.00	0.00	Clear(clear)	True	False	0.00
2010-05-31 05:00:00 4780 5 0.59 0.59 0.59 0.0 0.70	84.7153465347	0.59	0.00	Clear(sunny)	True	False	0.00
2010-05-31 06:00:00 4781 6 61.59 61.59 61.59 48.1 72.70	84.7153465347	61.59	48.10	Sunny(sunny)	True	False	48.10
2010-05-31 07:00:00 4782 7 227.29 227.29 227.29 228.2 268.30	84.7153465347	227.29	228.20	Sunny(sunny)	True	False	228.20
2010-05-31 08:00:00 4783 8 450.52 450.52 450.52 491.2 531.80	84.7153465347	450.52	491.20	Sunny(sunny)	True	False	491.20
2010-05-31 09:00:00 4784 9 652.31 652.31 652.31 720.4 770.00	84.7153465347	652.31	720.40	Sunny(sunny)	True	False	720.40
2010-05-31 10:00:00 4785 10 919.07 919.07 919.07 882.6 966.70	95.0730647709	919.07	882.60	Sunny(sunny)	True	False	882.60
2010-05-31 11:00:00 4786 11 999.98 999.98 999.98 982.4 1051.80	95.0730647709	999.98	982.40	Sunny(sunny)	True	False	982.40
2010-05-31 12:00:00 4787 12 1040.29 1040.29 1040.29 1030.3 1094.20	95.0730647709	1040.29	1030.30	Sunny(sunny)	True	False	1030.30
2010-05-31 13:00:00 4788 13 136.30 136.30 136.30 896.5 1079.90	12.6215390314	136.30	896.50	Isolated_T-Storms(sunny)	True	False	896.50
2010-05-31 14:00:00 4789 14 127.83 127.83 127.83 887.0 1012.80	12.6215390314	127.83	887.00	Isolated_T-Storms(fair)	True	False	887.00
2010-05-31 15:00:00 4790 15 112.74 112.74 112.74 846.8 893.20	12.6215390314	112.74	846.80	Isolated_T-Storms(sunny)	True	False	846.80
2010-05-31 16:00:00 4791 16 90.43 90.43 90.43 538.5 716.10	12.6287505598	90.43	538.50	Isolated_T-Storms(fair)	True	False	538.50
2010-05-31 17:00:00 4792 17 61.22 61.22 61.22 60.9 484.80	12.6287505598	61.22	60.90	Isolated_T-Storms(fair)	True	False	60.90
2010-05-31 18:00:00 4793 18 24.71 24.71 24.71 213.0 195.70	12.6287505598	24.71	213.00	Isolated_T-Storms(thunder)	True	False	213.00
2010-05-31 19:00:00 4794 19 36.85 36.85 36.85 42.8 60.50	60.909555442	36.85	42.80	Mostly_Cloudy(partly_cloudy)	True	False	42.80
2010-05-31 20:00:00 4795 20 0.85 0.85 0.85 0.3 1.40	60.909555442	0.85	0.30	Mostly_Cloudy(sunny)	True	False	0.30
2010-05-31 21:00:00 4796 21 0.00 0.00 0.00 0.0 0.00	60.909555442	0.00	0.00	Mostly_Cloudy(fair)	True	False	0.00
2010-05-31 22:00:00 4797 22 0.00 0.00 0.00 0.0 0.00	12.6287505598	0.00	0.00	Isolated_T-Storms(mostly_cloudy)	True	False	0.00
2010-05-31 23:00:00 4798 23 0.00 0.00 0.00 0.0 0.00	12.6287505598	0.00	0.00	Isolated_T-Storms(mostly_cloudy)	True	False	0.00
2010-06-01 00:00:00 4799 0 0.00 0.00 0.00 0.0 0.00	12.6287505598	0.00	0.00	Isolated_T-Storms(mostly_cloudy)	True	False	0.00
2010-06-01 01:00:00 4800 1 0.00 0.00 0.00 0.0 0.00	60.909555442	0.00	0.00	Mostly_Cloudy(mostly_cloudy)	True	False	0.00
2010-06-01 02:00:00 4801 2 0.00 0.00 0.00 0.0 0.00	60.909555442	0.00	0.00	Mostly_Cloudy(partly_cloudy)	True	False	0.00
2010-06-01 03:00:00 4802 3 0.00 0.00 0.00 0.0 0.00	60.909555442	0.00	0.00	Mostly_Cloudy(fog)	True	False	0.00
2010-06-01 04:00:00 4803 4 0.00 0.00 0.00 0.0 0.00	12.6287505598	0.00	0.00	Few_Showers(mostly_cloudy)	True	False	0.00
2010-06-01 05:00:00 4804 5 0.09 0.09 0.09 0.0 0.70	12.6287505598	0.09	0.00	Few_Showers(sunny)	True	False	0.00
2010-06-01 06:00:00 4805 6 9.18 9.18 9.18 42.1 72.70	12.6287505598	9.18	42.10	Few_Showers(partly_cloudy)	True	False	42.10
2010-06-01 07:00:00 4806 7 33.88 33.88 33.88 235.5 268.30	12.6287505598	33.88	235.50	Isolated_T-Storms(fair)	True	False	235.50
2010-06-01 08:00:00 4807 8 67.16 67.16 67.16 435.7 531.80	12.6287505598	67.16	435.70	Isolated_T-Storms(fair)	True	False	435.70
2010-06-01 09:00:00 4808 9 97.24 97.24 97.24 669.2 770.00	12.6287505598	97.24	669.20	Isolated_T-Storms(mostly_cloudy)	True	False	669.20
2010-06-01 10:00:00 4809 10 122.01 122.01 122.01 813.4 966.70	12.6215390314	122.01	813.40	Isolated_T-Storms(mostly_cloudy)	True	False	813.40
2010-06-01 11:00:00 4810 11 132.75 132.75 132.75 833.3 1051.80	12.6215390314	132.75	833.30	Isolated_T-Storms(mostly_cloudy)	True	False	833.30
2010-06-01 12:00:00 4811 12 138.10 138.10 138.10 882.1 1094.20	12.6215390314	138.10	882.10	Isolated_T-Storms(partly_cloudy)	True	False	882.10
2010-06-01 13:00:00 4812 13 136.30 136.30 136.30 499.8 1079.90	12.6215390314	136.30	499.80	Scattered_T-Storms(mostly_cloudy)	True	False	499.80
2010-06-01 14:00:00 4813 14 127.83 127.83 127.83 490.2 1012.80	12.6215390314	127.83	490.20	Scattered_T-Storms(mostly_cloudy)	True	False	490.20
2010-06-01 15:00:00 4814 15 112.74 112.74 112.74 488.5 893.20	12.6215390314	112.74	488.50	Scattered_T-Storms(light_rain)	True	False	488.50
2010-06-01 16:00:00 4815 16 90.43 90.43 90.43 105.4 716.10	12.6287505598	90.43	105.40	Scattered_T-Storms(thunder)	True	False	105.40
2010-06-01 17:00:00 4816 17 61.22 61.22 61.22 265.4 484.80	12.6287505598	61.22	265.40	Scattered_T-Storms(thunder_in_the_vicinity)	True	False	265.40
2010-06-01 18:00:00 4817 18 24.71 24.71 24.71 15.0 195.70	12.6287505598	24.71	15.00	Scattered_T-Storms(t-storm)	True	False	15.00
2010-06-01 19:00:00 4818 19 20.90 20.90 20.90 27.4 60.50	34.540235207	20.90	27.40	Cloudy(mostly_cloudy)	True	False	27.40
2010-06-01 20:00:00 4819 20 0.48 0.48 0.48 0.0 1.40	34.540235207	0.48	0.00	Cloudy(cloudy)	True	False	0.00
