2010-05-31 08:00:00 5359 8 470.75 470.75 470.75 491.2 531.80	88.5203130824	470.75	491.20	Sunny(sunny)	True	False	491.20
2010-05-31 09:00:00 5360 9 681.61 681.61 681.61 720.4 770.00	88.5203130824	681.61	720.40	Sunny(sunny)	True	False	720.40
2010-05-31 10:00:00 5361 10 920.60 920.60 920.60 882.6 966.70	95.2310399111	920.60	882.60	Sunny(sunny)	True	False	882.60
2010-05-31 11:00:00 5362 11 1001.64 1001.64 1001.64 982.4 1051.80	95.2310399111	1001.64	982.40	Sunny(sunny)	True	False	982.40
2010-05-31 12:00:00 5363 12 1042.02 1042.02 1042.02 1030.3 1094.20	95.2310399111	1042.02	1030.30	Sunny(sunny)	True	False	1030.30
2010-05-31 13:00:00 5364 13 929.35 929.35 929.35 896.5 1079.90	86.0584518167	929.35	896.50	Partly_Cloudy(sunny)	True	False	896.50
2010-05-31 14:00:00 5365 14 871.60 871.60 871.60 887.0 1012.80	86.0584518167	871.60	887.00	Partly_Cloudy(fair)	True	False	887.00
2010-05-31 15:00:00 5366 15 768.67 768.67 768.67 846.8 893.20	86.0584518167	768.67	846.80	Partly_Cloudy(sunny)	True	False	846.80
2010-05-31 16:00:00 5367 16 565.57 565.57 565.57 538.5 716.10	78.9788933257	565.57	538.50	Partly_Cloudy(fair)	True	False	538.50
2010-05-31 17:00:00 5368 17 382.89 382.89 382.89 60.9 484.80	78.9788933257	382.89	60.90	Partly_Cloudy(fair)	True	False	60.90
2010-05-31 18:00:00 5369 18 154.56 154.56 154.56 213.0 195.70	78.9788933257	154.56	213.00	Partly_Cloudy(thunder)	True	False	213.00
2010-05-31 19:00:00 5370 19 30.94 30.94 30.94 42.8 50.20	61.6432096509	30.94	42.80	Mostly_Cloudy(partly_cloudy)	True	False	42.80
2010-05-31 20:00:00 5371 20 1.48 1.48 1.48 0.3 2.40	61.6432096509	1.48	0.30	Mostly_Cloudy(sunny)	True	False	0.30
2010-05-31 21:00:00 5372 21 0.00 0.00 0.00 0.0 0.00	61.6432096509	0.00	0.00	Mostly_Cloudy(fair)	True	False	0.00
2010-05-31 22:00:00 5373 22 0.00 0.00 0.00 0.0 0.00	12.6287505598	0.00	0.00	Isolated_T-Storms(mostly_cloudy)	True	False	0.00
2010-05-31 23:00:00 5374 23 0.00 0.00 0.00 0.0 0.00	12.6287505598	0.00	0.00	Isolated_T-Storms(mostly_cloudy)	True	False	0.00
2010-06-01 00:00:00 5375 0 0.00 0.00 0.00 0.0 0.00	12.6287505598	0.00	0.00	Isolated_T-Storms(mostly_cloudy)	True	False	0.00
2010-06-01 01:00:00 5376 1 0.00 0.00 0.00 0.0 0.00	12.6287505598	0.00	0.00	Scattered_T-Storms(mostly_cloudy)	True	False	0.00
2010-06-01 02:00:00 5377 2 0.00 0.00 0.00 0.0 0.00	12.6287505598	0.00	0.00	Scattered_T-Storms(partly_cloudy)	True	False	0.00
2010-06-01 03:00:00 5378 3 0.00 0.00 0.00 0.0 0.00	12.6287505598	0.00	0.00	Scattered_T-Storms(fog)	True	False	0.00
2010-06-01 04:00:00 5379 4 0.00 0.00 0.00 0.0 0.00	12.6287505598	0.00	0.00	Few_Showers(mostly_cloudy)	True	False	0.00
2010-06-01 05:00:00 5380 5 0.09 0.09 0.09 0.0 0.70	12.6287505598	0.09	0.00	Few_Showers(sunny)	True	False	0.00
2010-06-01 06:00:00 5381 6 9.18 9.18 9.18 42.1 72.70	12.6287505598	9.18	42.10	Few_Showers(partly_cloudy)	True	False	42.10
2010-06-01 07:00:00 5382 7 33.88 33.88 33.88 235.5 268.30	12.6287505598	33.88	235.50	Few_Showers(fair)	True	False	235.50
2010-06-01 08:00:00 5383 8 67.16 67.16 67.16 435.7 531.80	12.6287505598	67.16	435.70	Few_Showers(fair)	True	False	435.70
2010-06-01 09:00:00 5384 9 97.24 97.24 97.24 669.2 770.00	12.6287505598	97.24	669.20	Few_Showers(mostly_cloudy)	True	False	669.20
2010-06-01 10:00:00 5385 10 122.01 122.01 122.01 813.4 966.70	12.6215390314	122.01	813.40	Scattered_T-Storms(mostly_cloudy)	True	False	813.40
2010-06-01 11:00:00 5386 11 132.75 132.75 132.75 833.3 1051.80	12.6215390314	132.75	833.30	Scattered_T-Storms(mostly_cloudy)	True	False	833.30
2010-06-01 12:00:00 5387 12 138.10 138.10 138.10 882.1 1094.20	12.6215390314	138.10	882.10	Scattered_T-Storms(partly_cloudy)	True	False	882.10
2010-06-01 13:00:00 5388 13 136.30 136.30 136.30 499.8 1079.90	12.6215390314	136.30	499.80	Scattered_T-Storms(mostly_cloudy)	True	False	499.80
2010-06-01 14:00:00 5389 14 127.83 127.83 127.83 490.2 1012.80	12.6215390314	127.83	490.20	Scattered_T-Storms(mostly_cloudy)	True	False	490.20
2010-06-01 15:00:00 5390 15 112.74 112.74 112.74 488.5 893.20	12.6215390314	112.74	488.50	Scattered_T-Storms(light_rain)	True	False	488.50
2010-06-01 16:00:00 5391 16 90.43 90.43 90.43 105.4 716.10	12.6287505598	90.43	105.40	T-Storms(thunder)	True	False	105.40
2010-06-01 17:00:00 5392 17 61.22 61.22 61.22 265.4 484.80	12.6287505598	61.22	265.40	T-Storms(thunder_in_the_vicinity)	True	False	265.40
2010-06-01 18:00:00 5393 18 24.71 24.71 24.71 15.0 195.70	12.6287505598	24.71	15.00	T-Storms(t-storm)	True	False	15.00
2010-06-01 19:00:00 5394 19 6.34 6.34 6.34 27.4 50.20	12.6287505598	6.34	27.40	Scattered_T-Storms(mostly_cloudy)	True	False	27.40
2010-06-01 20:00:00 5395 20 0.30 0.30 0.30 0.0 2.40	12.6287505598	0.30	0.00	Scattered_T-Storms(cloudy)	True	False	0.00
2010-06-01 21:00:00 5396 21 0.00 0.00 0.00 0.0 0.00	12.6287505598	0.00	0.00	Scattered_T-Storms(partly_cloudy)	True	False	0.00
2010-06-01 22:00:00 5397 22 0.00 0.00 0.00 0.0 0.00	12.6287505598	0.00	0.00	Few_Showers(mostly_cloudy)	True	False	0.00
2010-06-01 23:00:00 5398 23 0.00 0.00 0.00 0.0 0.00	12.6287505598	0.00	0.00	Few_Showers(fair)	True	False	0.00
2010-06-02 00:00:00 5399 0 0.00 0.00 0.00 0.0 0.00	12.6287505598	0.00	0.00	Few_Showers(fog)	True	False	0.00
2010-06-02 01:00:00 5400 1 0.00 0.00 0.00 0.0 0.00	78.9788933257	0.00	0.00	Partly_Cloudy(fog)	True	False	0.00
2010-06-02 02:00:00 5401 2 0.00 0.00 0.00 0.0 0.00	78.9788933257	0.00	0.00	Partly_Cloudy(light_rain)	True	False	0.00
2010-06-02 03:00:00 5402 3 0.00 0.00 0.00 0.0 0.00	78.9788933257	0.00	0.00	Partly_Cloudy(mostly_cloudy)	True	False	0.00
2010-06-02 04:00:00 5403 4 0.00 0.00 0.00 0.0 0.00	78.9788933257	0.00	0.00	Partly_Cloudy(cloudy)	True	False	0.00
2010-06-02 05:00:00 5404 5 0.55 0.55 0.55 0.0 0.70	78.9788933257	0.55	0.00	Partly_Cloudy(fog)	True	False	0.00
2010-06-02 06:00:00 5405 6 57.42 57.42 57.42 54.0 72.70	78.9788933257	57.42	54.00	Partly_Cloudy(fog)	True	False	54.00
2010-06-02 07:00:00 5406 7 211.90 211.90 211.90 244.2 268.30	78.9788933257	211.90	244.20	Partly_Cloudy(fog)	True	False	244.20
2010-06-02 08:00:00 5407 8 420.01 420.01 420.01 507.0 531.80	78.9788933257	420.01	507.00	Partly_Cloudy(sunny)	True	False	507.00
