2010-07-15 13:00:00 58524 13 835.90 944.10 835.90 499.9 1107.70	75.4625033842	835.90	499.90	Partly_Cloudy(fair)	True	False	499.90
2010-07-15 14:00:00 58525 14 478.55 478.55 800.20 671.5 1060.40	75.4625033842	800.20	671.50	Partly_Cloudy(mostly_cloudy)	True	False	671.50
2010-07-15 15:00:00 58526 15 708.67 423.81 708.67 723.7 939.10	75.4625033842	708.67	723.70	Partly_Cloudy(partly_cloudy)	True	False	723.70
2010-07-15 16:00:00 58527 16 563.83 342.49 563.83 629.9 758.90	74.2951224532	563.83	629.90	Partly_Cloudy(fair)	True	False	629.90
2010-07-15 17:00:00 58528 17 370.51 225.06 370.51 371.2 498.70	74.2951224532	370.51	371.20	Partly_Cloudy(fair)	True	False	371.20
2010-07-15 18:00:00 58529 18 167.76 101.90 167.76 190.2 225.80	74.2951224532	167.76	190.20	Partly_Cloudy(fair)	True	False	190.20
2010-07-15 19:00:00 58530 19 60.48 36.74 60.48 32.3 81.40	74.2951224532	60.48	32.30	Mostly_Sunny(fair)	False	False	32.30
2010-07-15 20:00:00 58531 20 5.05 3.07 5.05 0.0 6.80	74.2951224532	5.05	0.00	Mostly_Sunny(sunny)	False	False	0.00
2010-07-15 21:00:00 58532 21 0.00 0.00 0.00 0.0 0.00	74.2951224532	0.00	0.00	Mostly_Clear(clear)	False	False	0.00
2010-07-15 22:00:00 58533 22 0.00 0.00 0.00 0.0 0.00	74.2951224532	0.00	0.00	Partly_Cloudy(clear)	True	False	0.00
2010-07-15 23:00:00 58534 23 0.00 0.00 0.00 0.0 0.00	74.2951224532	0.00	0.00	Partly_Cloudy(fair)	True	False	0.00
2010-07-16 00:00:00 58535 0 0.00 0.00 0.00 0.0 0.00	74.2951224532	0.00	0.00	Partly_Cloudy(clear)	True	False	0.00
2010-07-16 01:00:00 58536 1 0.00 0.00 0.00 0.0 0.00	79.1986282826	0.00	0.00	Clear(partly_cloudy)	True	False	0.00
2010-07-16 02:00:00 58537 2 0.00 0.00 0.00 0.0 0.00	79.1986282826	0.00	0.00	Clear(cloudy)	True	False	0.00
2010-07-16 03:00:00 58538 3 0.00 0.00 0.00 0.0 0.00	79.1986282826	0.00	0.00	Clear(cloudy)	True	False	0.00
2010-07-16 04:00:00 58539 4 0.00 0.00 0.00 0.0 0.00	79.1986282826	0.00	0.00	Clear(cloudy)	True	False	0.00
2010-07-16 05:00:00 58540 5 0.24 0.24 0.24 0.0 0.30	79.1986282826	0.24	0.00	Clear(cloudy)	True	False	0.00
2010-07-16 06:00:00 58541 6 61.54 61.54 61.54 14.2 77.70	79.1986282826	61.54	14.20	Sunny(cloudy)	True	False	14.20
2010-07-16 07:00:00 58542 7 164.26 164.26 164.26 146.1 207.40	79.1986282826	164.26	146.10	Sunny(fair)	True	False	146.10
2010-07-16 08:00:00 58543 8 384.83 384.83 384.83 374.5 485.90	79.1986282826	384.83	374.50	Sunny(cloudy)	True	False	374.50
2010-07-16 09:00:00 58544 9 590.11 590.11 590.11 634.1 745.10	79.1986282826	590.11	634.10	Sunny(cloudy)	True	False	634.10
2010-07-16 10:00:00 58545 10 783.69 783.69 783.69 820.4 919.50	85.2305398786	783.69	820.40	Sunny(fair)	True	False	820.40
2010-07-16 11:00:00 58546 11 885.46 885.46 885.46 942.7 1038.90	85.2305398786	885.46	942.70	Sunny(sunny)	True	False	942.70
2010-07-16 12:00:00 58547 12 944.44 944.44 944.44 953.4 1108.10	85.2305398786	944.44	953.40	Sunny(fair)	True	False	953.40
2010-07-16 13:00:00 58548 13 944.10 944.10 944.10 638.1 1107.70	85.2305398786	944.10	638.10	Sunny(sunny)	True	False	638.10
2010-07-16 14:00:00 58549 14 903.78 903.78 903.78 952.4 1060.40	85.2305398786	903.78	952.40	Sunny(partly_cloudy)	True	False	952.40
2010-07-16 15:00:00 58550 15 800.40 800.40 800.40 791.1 939.10	85.2305398786	800.40	791.10	Sunny(sunny)	True	False	791.10
2010-07-16 16:00:00 58551 16 601.04 601.04 601.04 450.5 758.90	79.1986282826	601.04	450.50	Sunny(fair)	True	False	450.50
2010-07-16 17:00:00 58552 17 394.96 394.96 394.96 324.1 498.70	79.1986282826	394.96	324.10	Sunny(fair)	True	False	324.10
2010-07-16 18:00:00 58553 18 178.83 178.83 178.83 147.2 225.80	79.1986282826	178.83	147.20	Sunny(sunny)	True	False	147.20
2010-07-16 19:00:00 58554 19 20.89 20.89 20.89 13.1 81.40	25.6667335071	20.89	13.10	Isolated_T-Storms(fair)	True	False	13.10
2010-07-16 20:00:00 58555 20 1.75 1.75 1.75 1.0 6.80	25.6667335071	1.75	1.00	Isolated_T-Storms(partly_cloudy)	True	False	1.00
2010-07-16 21:00:00 58556 21 0.00 0.00 0.00 0.0 0.00	25.6667335071	0.00	0.00	Isolated_T-Storms(partly_cloudy)	True	False	0.00
2010-07-16 22:00:00 58557 22 0.00 0.00 0.00 0.0 0.00	74.2951224532	0.00	0.00	Partly_Cloudy(partly_cloudy)	True	False	0.00
2010-07-16 23:00:00 58558 23 0.00 0.00 0.00 0.0 0.00	74.2951224532	0.00	0.00	Partly_Cloudy(partly_cloudy)	True	False	0.00
2010-07-17 00:00:00 58559 0 0.00 0.00 0.00 0.0 0.00	74.2951224532	0.00	0.00	Partly_Cloudy(partly_cloudy)	True	False	0.00
2010-07-17 01:00:00 58560 1 0.00 0.00 0.00 0.0 0.00	74.2951224532	0.00	0.00	Partly_Cloudy(mostly_cloudy)	True	False	0.00
2010-07-17 02:00:00 58561 2 0.00 0.00 0.00 0.0 0.00	74.2951224532	0.00	0.00	Partly_Cloudy(partly_cloudy)	True	False	0.00
2010-07-17 03:00:00 58562 3 0.00 0.00 0.00 0.0 0.00	74.2951224532	0.00	0.00	Partly_Cloudy(partly_cloudy)	True	False	0.00
2010-07-17 04:00:00 58563 4 0.00 0.00 0.00 0.0 0.00	74.2951224532	0.00	0.00	Partly_Cloudy(partly_cloudy)	True	False	0.00
2010-07-17 05:00:00 58564 5 0.22 0.22 0.22 0.0 0.30	74.2951224532	0.22	0.00	Partly_Cloudy(partly_cloudy)	True	False	0.00
2010-07-17 06:00:00 58565 6 57.73 57.73 57.73 8.9 77.70	74.2951224532	57.73	8.90	Partly_Cloudy(fog)	True	False	8.90
2010-07-17 07:00:00 58566 7 154.09 154.09 154.09 180.8 207.40	74.2951224532	154.09	180.80	Mostly_Sunny(sunny)	False	False	180.80
2010-07-17 08:00:00 58567 8 361.00 361.00 361.00 425.3 485.90	74.2951224532	361.00	425.30	Mostly_Sunny(sunny)	False	False	425.30
2010-07-17 09:00:00 58568 9 553.57 553.57 553.57 661.6 745.10	74.2951224532	553.57	661.60	Mostly_Sunny(sunny)	False	False	661.60
2010-07-17 10:00:00 58569 10 191.00 191.00 191.00 845.5 919.50	20.7721587819	191.00	845.50	Scattered_T-Storms(sunny)	True	False	845.50
2010-07-17 11:00:00 58570 11 215.80 215.80 215.80 957.9 1038.90	20.7721587819	215.80	957.90	Scattered_T-Storms(sunny)	True	False	957.90
2010-07-17 12:00:00 58571 12 230.18 230.18 230.18 856.7 1108.10	20.7721587819	230.18	856.70	Scattered_T-Storms(sunny)	True	False	856.70
2010-07-17 13:00:00 58572 13 230.09 230.09 230.09 969.2 1107.70	20.7721587819	230.09	969.20	Mostly_Sunny(sunny)	False	False	969.20
