2010-07-07 21:00:00 49508 21 0.00 0.00 0.00 0.0 0.00	79.7498640566	0.00	0.00	Mostly_Clear(clear)	False	False	0.00
2010-07-07 22:00:00 49509 22 0.00 0.00 0.00 0.0 0.00	79.7498640566	0.00	0.00	Mostly_Clear(clear)	False	False	0.00
2010-07-07 23:00:00 49510 23 0.00 0.00 0.00 0.0 0.00	79.7498640566	0.00	0.00	Mostly_Clear(partly_cloudy)	False	False	0.00
2010-07-08 00:00:00 49511 0 0.00 0.00 0.00 0.0 0.00	79.7498640566	0.00	0.00	Mostly_Clear(fair)	False	False	0.00
2010-07-08 01:00:00 49512 1 0.00 0.00 0.00 0.0 0.00	73.8263950399	0.00	0.00	Partly_Cloudy(clear)	True	False	0.00
2010-07-08 02:00:00 49513 2 0.00 0.00 0.00 0.0 0.00	73.8263950399	0.00	0.00	Partly_Cloudy(clear)	True	False	0.00
2010-07-08 03:00:00 49514 3 0.00 0.00 0.00 0.0 0.00	73.8263950399	0.00	0.00	Partly_Cloudy(clear)	True	False	0.00
2010-07-08 04:00:00 49515 4 0.00 0.00 0.00 0.0 0.00	73.8263950399	0.00	0.00	Partly_Cloudy(clear)	True	False	0.00
2010-07-08 05:00:00 49516 5 0.22 0.22 0.22 0.0 0.30	73.8263950399	0.22	0.00	Partly_Cloudy(clear)	True	False	0.00
2010-07-08 06:00:00 49517 6 57.36 57.36 57.36 22.0 77.70	73.8263950399	57.36	22.00	Partly_Cloudy(fog)	True	False	22.00
2010-07-08 07:00:00 49518 7 153.12 153.12 153.12 75.0 207.40	73.8263950399	153.12	75.00	Partly_Cloudy(sunny)	True	False	75.00
2010-07-08 08:00:00 49519 8 358.72 358.72 358.72 120.0 485.90	73.8263950399	358.72	120.00	Partly_Cloudy(cloudy)	True	False	120.00
2010-07-08 09:00:00 49520 9 550.08 550.08 550.08 246.0 745.10	73.8263950399	550.08	246.00	Partly_Cloudy(fair)	True	False	246.00
2010-07-08 10:00:00 49521 10 679.65 679.65 679.65 296.5 919.50	73.9155035836	679.65	296.50	Partly_Cloudy(cloudy)	True	False	296.50
2010-07-08 11:00:00 49522 11 767.91 767.91 767.91 195.1 1038.90	73.9155035836	767.91	195.10	Partly_Cloudy(partly_cloudy)	True	False	195.10
2010-07-08 12:00:00 49523 12 819.06 819.06 819.06 313.9 1108.10	73.9155035836	819.06	313.90	Partly_Cloudy(partly_cloudy)	True	False	313.90
2010-07-08 13:00:00 49524 13 818.76 818.76 818.76 441.0 1107.70	73.9155035836	818.76	441.00	Partly_Cloudy(light_rain)	True	False	441.00
2010-07-08 14:00:00 49525 14 783.80 783.80 783.80 624.2 1060.40	73.9155035836	783.80	624.20	Partly_Cloudy(partly_cloudy)	True	False	624.20
2010-07-08 15:00:00 49526 15 694.14 694.14 694.14 622.4 939.10	73.9155035836	694.14	622.40	Partly_Cloudy(mostly_cloudy)	True	False	622.40
2010-07-08 16:00:00 49527 16 560.27 560.27 560.27 535.7 758.90	73.8263950399	560.27	535.70	Partly_Cloudy(mostly_cloudy)	True	False	535.70
2010-07-08 17:00:00 49528 17 368.17 368.17 368.17 325.4 498.70	73.8263950399	368.17	325.40	Partly_Cloudy(partly_cloudy)	True	False	325.40
2010-07-08 18:00:00 49529 18 166.70 166.70 166.70 138.8 225.80	73.8263950399	166.70	138.80	Partly_Cloudy(fair)	True	False	138.80
2010-07-08 19:00:00 49530 19 60.09 60.09 60.09 24.1 81.40	73.8263950399	60.09	24.10	Partly_Cloudy(sunny)	True	False	24.10
2010-07-08 20:00:00 49531 20 5.02 5.02 5.02 1.2 6.80	73.8263950399	5.02	1.20	Partly_Cloudy(fair)	True	False	1.20
2010-07-08 21:00:00 49532 21 0.00 0.00 0.00 0.0 0.00	73.8263950399	0.00	0.00	Partly_Cloudy(clear)	True	False	0.00
2010-07-08 22:00:00 49533 22 0.00 0.00 0.00 0.0 0.00	73.8263950399	0.00	0.00	Mostly_Clear(clear)	False	False	0.00
2010-07-08 23:00:00 49534 23 0.00 0.00 0.00 0.0 0.00	73.8263950399	0.00	0.00	Mostly_Clear(clear)	False	False	0.00
2010-07-09 00:00:00 49535 0 0.00 0.00 0.00 0.0 0.00	73.8263950399	0.00	0.00	Mostly_Clear(fair)	False	False	0.00
2010-07-09 01:00:00 49536 1 0.00 0.00 0.00 0.0 0.00	73.8263950399	0.00	0.00	Partly_Cloudy(partly_cloudy)	True	False	0.00
2010-07-09 02:00:00 49537 2 0.00 0.00 0.00 0.0 0.00	73.8263950399	0.00	0.00	Partly_Cloudy(mostly_cloudy)	True	False	0.00
2010-07-09 03:00:00 49538 3 0.00 0.00 0.00 0.0 0.00	73.8263950399	0.00	0.00	Partly_Cloudy(cloudy)	True	False	0.00
2010-07-09 04:00:00 49539 4 0.00 0.00 0.00 0.0 0.00	73.8263950399	0.00	0.00	Partly_Cloudy(fair)	True	False	0.00
2010-07-09 05:00:00 49540 5 0.22 0.22 0.22 0.0 0.30	73.8263950399	0.22	0.00	Partly_Cloudy(fair)	True	False	0.00
2010-07-09 06:00:00 49541 6 57.36 57.36 57.36 28.4 77.70	73.8263950399	57.36	28.40	Partly_Cloudy(mostly_cloudy)	True	False	28.40
2010-07-09 07:00:00 49542 7 153.12 153.12 153.12 139.4 207.40	73.8263950399	153.12	139.40	Partly_Cloudy(cloudy)	True	False	139.40
2010-07-09 08:00:00 49543 8 358.72 358.72 358.72 318.2 485.90	73.8263950399	358.72	318.20	Partly_Cloudy(light_rain)	True	False	318.20
2010-07-09 09:00:00 49544 9 550.08 550.08 550.08 475.7 745.10	73.8263950399	550.08	475.70	Partly_Cloudy(light_rain)	True	False	475.70
2010-07-09 10:00:00 49545 10 679.65 679.65 679.65 183.0 919.50	73.9155035836	679.65	183.00	Partly_Cloudy(mostly_cloudy)	True	False	183.00
2010-07-09 11:00:00 49546 11 767.91 767.91 767.91 628.3 1038.90	73.9155035836	767.91	628.30	Partly_Cloudy(partly_cloudy)	True	False	628.30
2010-07-09 12:00:00 49547 12 819.06 819.06 819.06 661.5 1108.10	73.9155035836	819.06	661.50	Partly_Cloudy(mostly_cloudy)	True	False	661.50
2010-07-09 13:00:00 49548 13 818.76 818.76 818.76 880.7 1107.70	73.9155035836	818.76	880.70	Partly_Cloudy(partly_cloudy)	True	False	880.70
2010-07-09 14:00:00 49549 14 783.80 783.80 783.80 670.8 1060.40	73.9155035836	783.80	670.80	Partly_Cloudy(partly_cloudy)	True	False	670.80
2010-07-09 15:00:00 49550 15 694.14 694.14 694.14 643.1 939.10	73.9155035836	694.14	643.10	Partly_Cloudy(mostly_cloudy)	True	False	643.10
2010-07-09 16:00:00 49551 16 560.27 560.27 560.27 627.0 758.90	73.8263950399	560.27	627.00	Partly_Cloudy(partly_cloudy)	True	False	627.00
2010-07-09 17:00:00 49552 17 368.17 368.17 368.17 336.7 498.70	73.8263950399	368.17	336.70	Partly_Cloudy(partly_cloudy)	True	False	336.70
2010-07-09 18:00:00 49553 18 166.70 166.70 166.70 194.1 225.80	73.8263950399	166.70	194.10	Partly_Cloudy(mostly_cloudy)	True	False	194.10
2010-07-09 19:00:00 49554 19 60.09 60.09 60.09 28.0 81.40	73.8263950399	60.09	28.00	Partly_Cloudy(fair)	True	False	28.00
2010-07-09 20:00:00 49555 20 5.02 5.02 5.02 0.2 6.80	73.8263950399	5.02	0.20	Partly_Cloudy(mostly_cloudy)	True	False	0.20
2010-07-09 21:00:00 49556 21 0.00 0.00 0.00 0.0 0.00	73.8263950399	0.00	0.00	Partly_Cloudy(mostly_cloudy)	True	False	0.00
