2010-07-20 14:00:00 64453 14 969.18 969.18 969.18 619.6 1060.40	91.3974986406	969.18	619.60	Mostly_Sunny(mostly_cloudy)	False	False	619.60
2010-07-20 15:00:00 64454 15 548.72 548.72 548.72 632.3 939.10	76.1316484346	548.72	632.30	Partly_Cloudy(partly_cloudy)	True	False	632.30
2010-07-20 16:00:00 64455 16 194.78 443.43 443.43 698.7 758.90	25.6667335071	443.43	698.70	Isolated_T-Storms(partly_cloudy)	True	False	698.70
2010-07-20 17:00:00 64456 17 128.00 291.39 291.39 420.2 498.70	25.6667335071	291.39	420.20	Isolated_T-Storms(fair)	True	False	420.20
2010-07-20 18:00:00 64457 18 58.37 132.87 132.87 152.7 227.40	25.6667335071	132.87	152.70	Isolated_T-Storms(sunny)	True	False	152.70
2010-07-20 19:00:00 64458 19 55.26 43.12 43.12 56.0 73.80	74.8794599807	43.12	56.00	Partly_Cloudy(sunny)	True	False	56.00
2010-07-20 20:00:00 64459 20 5.09 3.97 3.97 0.6 6.80	74.8794599807	3.97	0.60	Partly_Cloudy(partly_cloudy)	True	False	0.60
2010-07-20 21:00:00 64460 21 0.00 0.00 0.00 0.0 0.00	74.8794599807	0.00	0.00	Partly_Cloudy(partly_cloudy)	True	False	0.00
2010-07-20 22:00:00 64461 22 0.00 0.00 0.00 0.0 0.00	74.8794599807	0.00	0.00	Partly_Cloudy(partly_cloudy)	True	False	0.00
2010-07-20 23:00:00 64462 23 0.00 0.00 0.00 0.0 0.00	74.8794599807	0.00	0.00	Partly_Cloudy(partly_cloudy)	True	False	0.00
2010-07-21 00:00:00 64463 0 0.00 0.00 0.00 0.0 0.00	74.8794599807	0.00	0.00	Partly_Cloudy(partly_cloudy)	True	False	0.00
2010-07-21 01:00:00 64464 1 0.00 0.00 0.00 0.0 0.00	57.2691995307	0.00	0.00	Mostly_Cloudy(partly_cloudy)	True	False	0.00
2010-07-21 02:00:00 64465 2 0.00 0.00 0.00 0.0 0.00	57.2691995307	0.00	0.00	Mostly_Cloudy(partly_cloudy)	True	False	0.00
2010-07-21 03:00:00 64466 3 0.00 0.00 0.00 0.0 0.00	57.2691995307	0.00	0.00	Mostly_Cloudy(partly_cloudy)	True	False	0.00
2010-07-21 04:00:00 64467 4 0.00 0.00 0.00 0.0 0.00	57.2691995307	0.00	0.00	Mostly_Cloudy(partly_cloudy)	True	False	0.00
2010-07-21 05:00:00 64468 5 0.06 0.06 0.06 0.0 0.10	57.2691995307	0.06	0.00	Mostly_Cloudy(fog)	True	False	0.00
2010-07-21 06:00:00 64469 6 44.50 44.50 44.50 22.3 77.70	57.2691995307	44.50	22.30	Mostly_Cloudy(mostly_cloudy)	True	False	22.30
2010-07-21 07:00:00 64470 7 53.23 53.23 53.23 168.8 207.40	25.6667335071	53.23	168.80	Few_Showers(fair)	True	False	168.80
2010-07-21 08:00:00 64471 8 124.71 124.71 124.71 416.8 485.90	25.6667335071	124.71	416.80	Few_Showers(sunny)	True	False	416.80
2010-07-21 09:00:00 64472 9 191.24 191.24 191.24 651.7 745.10	25.6667335071	191.24	651.70	Few_Showers(sunny)	True	False	651.70
2010-07-21 10:00:00 64473 10 189.90 189.90 189.90 723.8 919.50	20.6525839306	189.90	723.80	Scattered_T-Storms(fair)	True	False	723.80
2010-07-21 11:00:00 64474 11 214.56 214.56 214.56 772.9 1038.90	20.6525839306	214.56	772.90	Scattered_T-Storms(partly_cloudy)	True	False	772.90
2010-07-21 12:00:00 64475 12 228.85 228.85 228.85 487.1 1108.10	20.6525839306	228.85	487.10	Scattered_T-Storms(fair)	True	False	487.10
2010-07-21 13:00:00 64476 13 228.77 228.77 228.77 496.0 1107.70	20.6525839306	228.77	496.00	Scattered_T-Storms(partly_cloudy)	True	False	496.00
2010-07-21 14:00:00 64477 14 219.00 219.00 219.00 921.4 1060.40	20.6525839306	219.00	921.40	Scattered_T-Storms(fair)	True	False	921.40
2010-07-21 15:00:00 64478 15 193.95 193.95 193.95 640.2 939.10	20.6525839306	193.95	640.20	Scattered_T-Storms(fair)	True	False	640.20
2010-07-21 16:00:00 64479 16 194.78 194.78 194.78 498.2 758.90	25.6667335071	194.78	498.20	Scattered_T-Storms(mostly_cloudy)	True	False	498.20
2010-07-21 17:00:00 64480 17 128.00 128.00 128.00 366.7 498.70	25.6667335071	128.00	366.70	Scattered_T-Storms(fair)	True	False	366.70
2010-07-21 18:00:00 64481 18 58.37 58.37 58.37 61.8 227.40	25.6667335071	58.37	61.80	Scattered_T-Storms(t-storm)	True	False	61.80
2010-07-21 19:00:00 64482 19 18.94 18.94 18.94 25.6 73.80	25.6667335071	18.94	25.60	Isolated_T-Storms(fair)	True	False	25.60
2010-07-21 20:00:00 64483 20 1.75 1.75 1.75 0.0 6.80	25.6667335071	1.75	0.00	Isolated_T-Storms(partly_cloudy)	True	False	0.00
2010-07-21 21:00:00 64484 21 0.00 0.00 0.00 0.0 0.00	25.6667335071	0.00	0.00	Isolated_T-Storms(light_rain)	True	False	0.00
2010-07-21 22:00:00 64485 22 0.00 0.00 0.00 0.0 0.00	74.8794599807	0.00	0.00	Partly_Cloudy(fair)	True	False	0.00
2010-07-21 23:00:00 64486 23 0.00 0.00 0.00 0.0 0.00	74.8794599807	0.00	0.00	Partly_Cloudy(fair)	True	False	0.00
2010-07-22 00:00:00 64487 0 0.00 0.00 0.00 0.0 0.00	74.8794599807	0.00	0.00	Partly_Cloudy(partly_cloudy)	True	False	0.00
2010-07-22 01:00:00 64488 1 0.00 0.00 0.00 0.0 0.00	74.8794599807	0.00	0.00	Mostly_Clear(partly_cloudy)	False	False	0.00
2010-07-22 02:00:00 64489 2 0.00 0.00 0.00 0.0 0.00	74.8794599807	0.00	0.00	Mostly_Clear(fog)	False	False	0.00
2010-07-22 03:00:00 64490 3 0.00 0.00 0.00 0.0 0.00	74.8794599807	0.00	0.00	Mostly_Clear(clear)	False	False	0.00
2010-07-22 04:00:00 64491 4 0.00 0.00 0.00 0.0 0.00	74.8794599807	0.00	0.00	Partly_Cloudy(clear)	True	False	0.00
2010-07-22 05:00:00 64492 5 0.07 0.07 0.07 0.0 0.10	74.8794599807	0.07	0.00	Partly_Cloudy(clear)	True	False	0.00
2010-07-22 06:00:00 64493 6 58.18 58.18 58.18 16.5 77.70	74.8794599807	58.18	16.50	Partly_Cloudy(sunny)	True	False	16.50
2010-07-22 07:00:00 64494 7 170.01 170.01 170.01 184.7 207.40	81.9715990945	170.01	184.70	Sunny(sunny)	True	False	184.70
2010-07-22 08:00:00 64495 8 398.30 398.30 398.30 461.6 485.90	81.9715990945	398.30	461.60	Sunny(sunny)	True	False	461.60
2010-07-22 09:00:00 64496 9 610.77 610.77 610.77 713.0 745.10	81.9715990945	610.77	713.00	Sunny(sunny)	True	False	713.00
2010-07-22 10:00:00 64497 10 840.40 840.40 840.40 903.1 919.50	91.3974986406	840.40	903.10	Sunny(sunny)	True	False	903.10
2010-07-22 11:00:00 64498 11 949.53 949.53 949.53 1007.0 1038.90	91.3974986406	949.53	1007.00	Sunny(sunny)	True	False	1007.00
2010-07-22 12:00:00 64499 12 1012.78 1012.78 1012.78 950.0 1108.10	91.3974986406	1012.78	950.00	Sunny(fair)	True	False	950.00
2010-07-22 13:00:00 64500 13 1012.41 1012.41 1012.41 792.3 1107.70	91.3974986406	1012.41	792.30	Sunny(fair)	True	False	792.30
2010-07-22 14:00:00 64501 14 969.18 969.18 969.18 807.3 1060.40	91.3974986406	969.18	807.30	Mostly_Sunny(partly_cloudy)	False	False	807.30
