2010-06-09 14:00:00 16237 14 962.90 962.90 129.24 92.0 1012.80	12.7604407816	129.24	92.00	Rain(light_rain)	True	False	92.00
2010-06-09 15:00:00 16238 15 80.25 80.25 112.74 92.8 883.50	12.7604407816	112.74	92.80	Rain(light_rain)	True	False	92.80
2010-06-09 16:00:00 16239 16 101.76 65.05 101.76 70.3 716.10	14.2104130809	101.76	70.30	Rain(light_rain)	True	False	70.30
2010-06-09 17:00:00 16240 17 59.63 38.12 59.63 15.9 419.60	14.2104130809	59.63	15.90	Rain(light_rain)	True	False	15.90
2010-06-09 18:00:00 16241 18 30.44 19.46 30.44 6.2 214.20	14.2104130809	30.44	6.20	Rain(light_rain)	True	False	6.20
2010-06-09 19:00:00 16242 19 7.59 4.85 7.59 0.0 53.40	14.2104130809	7.59	0.00	Rain(light_rain)	True	False	0.00
2010-06-09 20:00:00 16243 20 0.40 0.25 0.40 0.0 2.80	14.2104130809	0.40	0.00	Rain(light_rain)	True	False	0.00
2010-06-09 21:00:00 16244 21 0.00 0.00 0.00 0.0 0.00	14.2104130809	0.00	0.00	Rain(light_rain)	True	False	0.00
2010-06-09 22:00:00 16245 22 0.00 0.00 0.00 0.0 0.00	14.2104130809	0.00	0.00	T-Showers(light_rain)	True	False	0.00
2010-06-09 23:00:00 16246 23 0.00 0.00 0.00 0.0 0.00	14.2104130809	0.00	0.00	T-Showers(light_rain)	True	False	0.00
2010-06-10 00:00:00 16247 0 0.00 0.00 0.00 0.0 0.00	14.2104130809	0.00	0.00	T-Showers(cloudy)	True	False	0.00
2010-06-10 01:00:00 16248 1 0.00 0.00 0.00 0.0 0.00	64.6258503401	0.00	0.00	Mostly_Cloudy(cloudy)	True	False	0.00
2010-06-10 02:00:00 16249 2 0.00 0.00 0.00 0.0 0.00	64.6258503401	0.00	0.00	Mostly_Cloudy(cloudy)	True	False	0.00
2010-06-10 03:00:00 16250 3 0.00 0.00 0.00 0.0 0.00	64.6258503401	0.00	0.00	Mostly_Cloudy(cloudy)	True	False	0.00
2010-06-10 04:00:00 16251 4 0.00 0.00 0.00 0.0 0.00	64.6258503401	0.00	0.00	Mostly_Cloudy(cloudy)	True	False	0.00
2010-06-10 05:00:00 16252 5 1.16 1.16 1.16 0.0 1.80	64.6258503401	1.16	0.00	Mostly_Cloudy(cloudy)	True	False	0.00
2010-06-10 06:00:00 16253 6 47.50 47.50 47.50 2.5 73.50	64.6258503401	47.50	2.50	Mostly_Cloudy(fog)	True	False	2.50
2010-06-10 07:00:00 16254 7 196.26 196.26 196.26 72.6 248.50	78.9788933257	196.26	72.60	Partly_Cloudy(cloudy)	True	False	72.60
2010-06-10 08:00:00 16255 8 420.01 420.01 420.01 172.6 531.80	78.9788933257	420.01	172.60	Partly_Cloudy(cloudy)	True	False	172.60
2010-06-10 09:00:00 16256 9 599.77 599.77 599.77 298.0 759.40	78.9788933257	599.77	298.00	Partly_Cloudy(cloudy)	True	False	298.00
2010-06-10 10:00:00 16257 10 734.19 734.19 734.19 421.5 929.60	78.9788933257	734.19	421.50	Mostly_Sunny(cloudy)	False	False	421.50
2010-06-10 11:00:00 16258 11 830.70 830.70 830.70 802.2 1051.80	78.9788933257	830.70	802.20	Mostly_Sunny(cloudy)	False	False	802.20
2010-06-10 12:00:00 16259 12 864.19 864.19 864.19 756.0 1094.20	78.9788933257	864.19	756.00	Mostly_Sunny(cloudy)	False	False	756.00
2010-06-10 13:00:00 16260 13 852.89 852.89 852.89 1010.9 1079.90	78.9788933257	852.89	1010.90	Mostly_Sunny(partly_cloudy)	False	False	1010.90
2010-06-10 14:00:00 16261 14 799.90 799.90 799.90 676.7 1012.80	78.9788933257	799.90	676.70	Mostly_Sunny(fair)	False	False	676.70
2010-06-10 15:00:00 16262 15 697.78 697.78 697.78 356.6 883.50	78.9788933257	697.78	356.60	Mostly_Sunny(fair)	False	False	356.60
2010-06-10 16:00:00 16263 16 565.57 565.57 565.57 302.0 716.10	78.9788933257	565.57	302.00	Partly_Cloudy(cloudy)	True	False	302.00
2010-06-10 17:00:00 16264 17 331.40 331.40 331.40 262.9 419.60	78.9788933257	331.40	262.90	Partly_Cloudy(partly_cloudy)	True	False	262.90
2010-06-10 18:00:00 16265 18 169.17 169.17 169.17 110.6 214.20	78.9788933257	169.17	110.60	Partly_Cloudy(cloudy)	True	False	110.60
2010-06-10 19:00:00 16266 19 42.17 42.17 42.17 18.3 53.40	78.9788933257	42.17	18.30	Partly_Cloudy(partly_cloudy)	True	False	18.30
2010-06-10 20:00:00 16267 20 2.21 2.21 2.21 0.0 2.80	78.9788933257	2.21	0.00	Partly_Cloudy(cloudy)	True	False	0.00
2010-06-10 21:00:00 16268 21 0.00 0.00 0.00 0.0 0.00	78.9788933257	0.00	0.00	Partly_Cloudy(mostly_cloudy)	True	False	0.00
2010-06-10 22:00:00 16269 22 0.00 0.00 0.00 0.0 0.00	78.9788933257	0.00	0.00	Partly_Cloudy(mostly_cloudy)	True	False	0.00
2010-06-10 23:00:00 16270 23 0.00 0.00 0.00 0.0 0.00	78.9788933257	0.00	0.00	Partly_Cloudy(fair)	True	False	0.00
2010-06-11 00:00:00 16271 0 0.00 0.00 0.00 0.0 0.00	78.9788933257	0.00	0.00	Partly_Cloudy(clear)	True	False	0.00
2010-06-11 01:00:00 16272 1 0.00 0.00 0.00 0.0 0.00	64.6258503401	0.00	0.00	Mostly_Cloudy(clear)	True	False	0.00
2010-06-11 02:00:00 16273 2 0.00 0.00 0.00 0.0 0.00	64.6258503401	0.00	0.00	Mostly_Cloudy(clear)	True	False	0.00
2010-06-11 03:00:00 16274 3 0.00 0.00 0.00 0.0 0.00	64.6258503401	0.00	0.00	Mostly_Cloudy(clear)	True	False	0.00
2010-06-11 04:00:00 16275 4 0.00 0.00 0.00 0.0 0.00	78.9788933257	0.00	0.00	Partly_Cloudy(partly_cloudy)	True	False	0.00
2010-06-11 05:00:00 16276 5 1.42 1.42 1.42 3.2 1.80	78.9788933257	1.42	3.20	Partly_Cloudy(sunny)	True	False	3.20
2010-06-11 06:00:00 16277 6 58.05 58.05 58.05 101.3 73.50	78.9788933257	58.05	101.30	Partly_Cloudy(partly_cloudy)	True	False	101.30
2010-06-11 07:00:00 16278 7 196.26 196.26 196.26 293.1 248.50	78.9788933257	196.26	293.10	Partly_Cloudy(partly_cloudy)	True	False	293.10
2010-06-11 08:00:00 16279 8 420.01 420.01 420.01 509.2 531.80	78.9788933257	420.01	509.20	Partly_Cloudy(partly_cloudy)	True	False	509.20
2010-06-11 09:00:00 16280 9 599.77 599.77 599.77 704.0 759.40	78.9788933257	599.77	704.00	Partly_Cloudy(partly_cloudy)	True	False	704.00
2010-06-11 10:00:00 16281 10 521.20 521.20 521.20 689.2 929.60	56.0671256454	521.20	689.20	Mostly_Cloudy(partly_cloudy)	True	False	689.20
2010-06-11 11:00:00 16282 11 589.71 589.71 589.71 920.2 1051.80	56.0671256454	589.71	920.20	Mostly_Cloudy(mostly_cloudy)	True	False	920.20
2010-06-11 12:00:00 16283 12 613.49 613.49 613.49 789.5 1094.20	56.0671256454	613.49	789.50	Mostly_Cloudy(mostly_cloudy)	True	False	789.50
2010-06-11 13:00:00 16284 13 859.40 859.40 859.40 603.3 1079.90	79.5812110922	859.40	603.30	Partly_Cloudy(mostly_cloudy)	True	False	603.30
2010-06-11 14:00:00 16285 14 806.00 806.00 806.00 696.8 1012.80	79.5812110922	806.00	696.80	Partly_Cloudy(partly_cloudy)	True	False	696.80
