2010-07-15 06:00:00 58181 6 57.73 57.73 57.73 10.1 77.70	74.2951224532	57.73	10.10	Partly_Cloudy(cloudy)	True	False	10.10
2010-07-15 07:00:00 58182 7 154.09 154.09 154.09 141.2 207.40	74.2951224532	154.09	141.20	Partly_Cloudy(cloudy)	True	False	141.20
2010-07-15 08:00:00 58183 8 361.00 361.00 361.00 247.0 485.90	74.2951224532	361.00	247.00	Partly_Cloudy(partly_cloudy)	True	False	247.00
2010-07-15 09:00:00 58184 9 553.57 553.57 553.57 232.3 745.10	74.2951224532	553.57	232.30	Partly_Cloudy(cloudy)	True	False	232.30
2010-07-15 10:00:00 58185 10 693.88 693.88 693.88 427.8 919.50	75.4625033842	693.88	427.80	Partly_Cloudy(cloudy)	True	False	427.80
2010-07-15 11:00:00 58186 11 783.98 783.98 783.98 590.3 1038.90	75.4625033842	783.98	590.30	Partly_Cloudy(mostly_cloudy)	True	False	590.30
2010-07-15 12:00:00 58187 12 836.20 836.20 836.20 575.1 1108.10	75.4625033842	836.20	575.10	Partly_Cloudy(fair)	True	False	575.10
2010-07-15 13:00:00 58188 13 835.90 835.90 835.90 499.9 1107.70	75.4625033842	835.90	499.90	Partly_Cloudy(fair)	True	False	499.90
2010-07-15 14:00:00 58189 14 800.20 800.20 800.20 671.5 1060.40	75.4625033842	800.20	671.50	Partly_Cloudy(mostly_cloudy)	True	False	671.50
2010-07-15 15:00:00 58190 15 708.67 708.67 708.67 723.7 939.10	75.4625033842	708.67	723.70	Partly_Cloudy(partly_cloudy)	True	False	723.70
2010-07-15 16:00:00 58191 16 563.83 563.83 563.83 629.9 758.90	74.2951224532	563.83	629.90	Partly_Cloudy(fair)	True	False	629.90
2010-07-15 17:00:00 58192 17 370.51 370.51 370.51 371.2 498.70	74.2951224532	370.51	371.20	Partly_Cloudy(fair)	True	False	371.20
2010-07-15 18:00:00 58193 18 167.76 167.76 167.76 190.2 225.80	74.2951224532	167.76	190.20	Partly_Cloudy(fair)	True	False	190.20
2010-07-15 19:00:00 58194 19 60.48 60.48 60.48 32.3 81.40	74.2951224532	60.48	32.30	Partly_Cloudy(fair)	True	False	32.30
2010-07-15 20:00:00 58195 20 5.05 5.05 5.05 0.0 6.80	74.2951224532	5.05	0.00	Partly_Cloudy(sunny)	True	False	0.00
2010-07-15 21:00:00 58196 21 0.00 0.00 0.00 0.0 0.00	74.2951224532	0.00	0.00	Partly_Cloudy(clear)	True	False	0.00
2010-07-15 22:00:00 58197 22 0.00 0.00 0.00 0.0 0.00	74.2951224532	0.00	0.00	Partly_Cloudy(clear)	True	False	0.00
2010-07-15 23:00:00 58198 23 0.00 0.00 0.00 0.0 0.00	74.2951224532	0.00	0.00	Partly_Cloudy(fair)	True	False	0.00
2010-07-16 00:00:00 58199 0 0.00 0.00 0.00 0.0 0.00	74.2951224532	0.00	0.00	Partly_Cloudy(clear)	True	False	0.00
2010-07-16 01:00:00 58200 1 0.00 0.00 0.00 0.0 0.00	74.2951224532	0.00	0.00	Partly_Cloudy(partly_cloudy)	True	False	0.00
2010-07-16 02:00:00 58201 2 0.00 0.00 0.00 0.0 0.00	74.2951224532	0.00	0.00	Partly_Cloudy(cloudy)	True	False	0.00
2010-07-16 03:00:00 58202 3 0.00 0.00 0.00 0.0 0.00	74.2951224532	0.00	0.00	Partly_Cloudy(cloudy)	True	False	0.00
2010-07-16 04:00:00 58203 4 0.00 0.00 0.00 0.0 0.00	74.2951224532	0.00	0.00	Partly_Cloudy(cloudy)	True	False	0.00
2010-07-16 05:00:00 58204 5 0.22 0.22 0.22 0.0 0.30	74.2951224532	0.22	0.00	Partly_Cloudy(cloudy)	True	False	0.00
2010-07-16 06:00:00 58205 6 57.73 57.73 57.73 14.2 77.70	74.2951224532	57.73	14.20	Partly_Cloudy(cloudy)	True	False	14.20
2010-07-16 07:00:00 58206 7 154.09 154.09 154.09 146.1 207.40	74.2951224532	154.09	146.10	Mostly_Sunny(fair)	False	False	146.10
2010-07-16 08:00:00 58207 8 361.00 361.00 361.00 374.5 485.90	74.2951224532	361.00	374.50	Mostly_Sunny(cloudy)	False	False	374.50
2010-07-16 09:00:00 58208 9 553.57 553.57 553.57 634.1 745.10	74.2951224532	553.57	634.10	Mostly_Sunny(cloudy)	False	False	634.10
2010-07-16 10:00:00 58209 10 783.69 783.69 783.69 820.4 919.50	85.2305398786	783.69	820.40	Sunny(fair)	True	False	820.40
2010-07-16 11:00:00 58210 11 885.46 885.46 885.46 942.7 1038.90	85.2305398786	885.46	942.70	Sunny(sunny)	True	False	942.70
2010-07-16 12:00:00 58211 12 944.44 944.44 944.44 953.4 1108.10	85.2305398786	944.44	953.40	Sunny(fair)	True	False	953.40
2010-07-16 13:00:00 58212 13 835.90 835.90 835.90 638.1 1107.70	75.4625033842	835.90	638.10	Partly_Cloudy(sunny)	True	False	638.10
2010-07-16 14:00:00 58213 14 800.20 800.20 800.20 952.4 1060.40	75.4625033842	800.20	952.40	Partly_Cloudy(partly_cloudy)	True	False	952.40
2010-07-16 15:00:00 58214 15 708.67 708.67 708.67 791.1 939.10	75.4625033842	708.67	791.10	Partly_Cloudy(sunny)	True	False	791.10
2010-07-16 16:00:00 58215 16 563.83 563.83 563.83 450.5 758.90	74.2951224532	563.83	450.50	Partly_Cloudy(fair)	True	False	450.50
2010-07-16 17:00:00 58216 17 370.51 370.51 370.51 324.1 498.70	74.2951224532	370.51	324.10	Partly_Cloudy(fair)	True	False	324.10
2010-07-16 18:00:00 58217 18 167.76 167.76 167.76 147.2 225.80	74.2951224532	167.76	147.20	Partly_Cloudy(sunny)	True	False	147.20
2010-07-16 19:00:00 58218 19 60.48 60.48 60.48 13.1 81.40	74.2951224532	60.48	13.10	Partly_Cloudy(fair)	True	False	13.10
2010-07-16 20:00:00 58219 20 5.05 5.05 5.05 1.0 6.80	74.2951224532	5.05	1.00	Partly_Cloudy(partly_cloudy)	True	False	1.00
2010-07-16 21:00:00 58220 21 0.00 0.00 0.00 0.0 0.00	74.2951224532	0.00	0.00	Partly_Cloudy(partly_cloudy)	True	False	0.00
2010-07-16 22:00:00 58221 22 0.00 0.00 0.00 0.0 0.00	74.2951224532	0.00	0.00	Partly_Cloudy(partly_cloudy)	True	False	0.00
2010-07-16 23:00:00 58222 23 0.00 0.00 0.00 0.0 0.00	74.2951224532	0.00	0.00	Partly_Cloudy(partly_cloudy)	True	False	0.00
2010-07-17 00:00:00 58223 0 0.00 0.00 0.00 0.0 0.00	74.2951224532	0.00	0.00	Partly_Cloudy(partly_cloudy)	True	False	0.00
2010-07-17 01:00:00 58224 1 0.00 0.00 0.00 0.0 0.00	57.7800829876	0.00	0.00	Mostly_Cloudy(mostly_cloudy)	True	False	0.00
2010-07-17 02:00:00 58225 2 0.00 0.00 0.00 0.0 0.00	57.7800829876	0.00	0.00	Mostly_Cloudy(partly_cloudy)	True	False	0.00
2010-07-17 03:00:00 58226 3 0.00 0.00 0.00 0.0 0.00	57.7800829876	0.00	0.00	Mostly_Cloudy(partly_cloudy)	True	False	0.00
2010-07-17 04:00:00 58227 4 0.00 0.00 0.00 0.0 0.00	57.7800829876	0.00	0.00	Mostly_Cloudy(partly_cloudy)	True	False	0.00
2010-07-17 05:00:00 58228 5 0.17 0.17 0.17 0.0 0.30	57.7800829876	0.17	0.00	Mostly_Cloudy(partly_cloudy)	True	False	0.00
2010-07-17 06:00:00 58229 6 44.90 44.90 44.90 8.9 77.70	57.7800829876	44.90	8.90	Mostly_Cloudy(fog)	True	False	8.90
