2010-07-15 12:00:00 58475 12 515.55 944.44 515.55 575.1 1108.10	46.5252854812	515.55	575.10	Cloudy(fair)	True	False	575.10
2010-07-15 13:00:00 58476 13 835.90 574.89 835.90 499.9 1107.70	75.4625033842	835.90	499.90	Partly_Cloudy(fair)	True	False	499.90
2010-07-15 14:00:00 58477 14 800.20 550.34 800.20 671.5 1060.40	75.4625033842	800.20	671.50	Partly_Cloudy(mostly_cloudy)	True	False	671.50
2010-07-15 15:00:00 58478 15 708.67 487.39 708.67 723.7 939.10	75.4625033842	708.67	723.70	Partly_Cloudy(partly_cloudy)	True	False	723.70
2010-07-15 16:00:00 58479 16 563.83 393.87 563.83 629.9 758.90	74.2951224532	563.83	629.90	Partly_Cloudy(fair)	True	False	629.90
2010-07-15 17:00:00 58480 17 370.51 258.82 370.51 371.2 498.70	74.2951224532	370.51	371.20	Partly_Cloudy(fair)	True	False	371.20
2010-07-15 18:00:00 58481 18 167.76 117.19 167.76 190.2 225.80	74.2951224532	167.76	190.20	Partly_Cloudy(fair)	True	False	190.20
2010-07-15 19:00:00 58482 19 60.48 42.25 60.48 32.3 81.40	74.2951224532	60.48	32.30	Partly_Cloudy(fair)	True	False	32.30
2010-07-15 20:00:00 58483 20 5.05 3.53 5.05 0.0 6.80	74.2951224532	5.05	0.00	Partly_Cloudy(sunny)	True	False	0.00
2010-07-15 21:00:00 58484 21 0.00 0.00 0.00 0.0 0.00	74.2951224532	0.00	0.00	Partly_Cloudy(clear)	True	False	0.00
2010-07-15 22:00:00 58485 22 0.00 0.00 0.00 0.0 0.00	74.2951224532	0.00	0.00	Partly_Cloudy(clear)	True	False	0.00
2010-07-15 23:00:00 58486 23 0.00 0.00 0.00 0.0 0.00	74.2951224532	0.00	0.00	Partly_Cloudy(fair)	True	False	0.00
2010-07-16 00:00:00 58487 0 0.00 0.00 0.00 0.0 0.00	74.2951224532	0.00	0.00	Partly_Cloudy(clear)	True	False	0.00
2010-07-16 01:00:00 58488 1 0.00 0.00 0.00 0.0 0.00	74.2951224532	0.00	0.00	Partly_Cloudy(partly_cloudy)	True	False	0.00
2010-07-16 02:00:00 58489 2 0.00 0.00 0.00 0.0 0.00	74.2951224532	0.00	0.00	Partly_Cloudy(cloudy)	True	False	0.00
2010-07-16 03:00:00 58490 3 0.00 0.00 0.00 0.0 0.00	74.2951224532	0.00	0.00	Partly_Cloudy(cloudy)	True	False	0.00
2010-07-16 04:00:00 58491 4 0.00 0.00 0.00 0.0 0.00	74.2951224532	0.00	0.00	Partly_Cloudy(cloudy)	True	False	0.00
2010-07-16 05:00:00 58492 5 0.22 0.22 0.22 0.0 0.30	74.2951224532	0.22	0.00	Partly_Cloudy(cloudy)	True	False	0.00
2010-07-16 06:00:00 58493 6 57.73 57.73 57.73 14.2 77.70	74.2951224532	57.73	14.20	Partly_Cloudy(cloudy)	True	False	14.20
2010-07-16 07:00:00 58494 7 154.09 154.09 154.09 146.1 207.40	74.2951224532	154.09	146.10	Mostly_Sunny(fair)	False	False	146.10
2010-07-16 08:00:00 58495 8 361.00 361.00 361.00 374.5 485.90	74.2951224532	361.00	374.50	Mostly_Sunny(cloudy)	False	False	374.50
2010-07-16 09:00:00 58496 9 553.57 553.57 553.57 634.1 745.10	74.2951224532	553.57	634.10	Mostly_Sunny(cloudy)	False	False	634.10
2010-07-16 10:00:00 58497 10 783.69 783.69 783.69 820.4 919.50	85.2305398786	783.69	820.40	Sunny(fair)	True	False	820.40
2010-07-16 11:00:00 58498 11 885.46 885.46 885.46 942.7 1038.90	85.2305398786	885.46	942.70	Sunny(sunny)	True	False	942.70
2010-07-16 12:00:00 58499 12 944.44 944.44 944.44 953.4 1108.10	85.2305398786	944.44	953.40	Sunny(fair)	True	False	953.40
2010-07-16 13:00:00 58500 13 835.90 835.90 835.90 638.1 1107.70	75.4625033842	835.90	638.10	Partly_Cloudy(sunny)	True	False	638.10
2010-07-16 14:00:00 58501 14 800.20 800.20 800.20 952.4 1060.40	75.4625033842	800.20	952.40	Partly_Cloudy(partly_cloudy)	True	False	952.40
2010-07-16 15:00:00 58502 15 708.67 708.67 708.67 791.1 939.10	75.4625033842	708.67	791.10	Partly_Cloudy(sunny)	True	False	791.10
2010-07-16 16:00:00 58503 16 563.83 563.83 563.83 450.5 758.90	74.2951224532	563.83	450.50	Partly_Cloudy(fair)	True	False	450.50
2010-07-16 17:00:00 58504 17 370.51 370.51 370.51 324.1 498.70	74.2951224532	370.51	324.10	Partly_Cloudy(fair)	True	False	324.10
2010-07-16 18:00:00 58505 18 167.76 167.76 167.76 147.2 225.80	74.2951224532	167.76	147.20	Partly_Cloudy(sunny)	True	False	147.20
2010-07-16 19:00:00 58506 19 60.48 60.48 60.48 13.1 81.40	74.2951224532	60.48	13.10	Partly_Cloudy(fair)	True	False	13.10
2010-07-16 20:00:00 58507 20 5.05 5.05 5.05 1.0 6.80	74.2951224532	5.05	1.00	Partly_Cloudy(partly_cloudy)	True	False	1.00
2010-07-16 21:00:00 58508 21 0.00 0.00 0.00 0.0 0.00	74.2951224532	0.00	0.00	Partly_Cloudy(partly_cloudy)	True	False	0.00
2010-07-16 22:00:00 58509 22 0.00 0.00 0.00 0.0 0.00	74.2951224532	0.00	0.00	Partly_Cloudy(partly_cloudy)	True	False	0.00
2010-07-16 23:00:00 58510 23 0.00 0.00 0.00 0.0 0.00	74.2951224532	0.00	0.00	Partly_Cloudy(partly_cloudy)	True	False	0.00
2010-07-17 00:00:00 58511 0 0.00 0.00 0.00 0.0 0.00	74.2951224532	0.00	0.00	Partly_Cloudy(partly_cloudy)	True	False	0.00
2010-07-17 01:00:00 58512 1 0.00 0.00 0.00 0.0 0.00	74.2951224532	0.00	0.00	Partly_Cloudy(mostly_cloudy)	True	False	0.00
2010-07-17 02:00:00 58513 2 0.00 0.00 0.00 0.0 0.00	74.2951224532	0.00	0.00	Partly_Cloudy(partly_cloudy)	True	False	0.00
2010-07-17 03:00:00 58514 3 0.00 0.00 0.00 0.0 0.00	74.2951224532	0.00	0.00	Partly_Cloudy(partly_cloudy)	True	False	0.00
2010-07-17 04:00:00 58515 4 0.00 0.00 0.00 0.0 0.00	74.2951224532	0.00	0.00	Partly_Cloudy(partly_cloudy)	True	False	0.00
2010-07-17 05:00:00 58516 5 0.22 0.22 0.22 0.0 0.30	74.2951224532	0.22	0.00	Partly_Cloudy(partly_cloudy)	True	False	0.00
2010-07-17 06:00:00 58517 6 57.73 57.73 57.73 8.9 77.70	74.2951224532	57.73	8.90	Partly_Cloudy(fog)	True	False	8.90
2010-07-17 07:00:00 58518 7 154.09 154.09 154.09 180.8 207.40	74.2951224532	154.09	180.80	Mostly_Sunny(sunny)	False	False	180.80
2010-07-17 08:00:00 58519 8 361.00 361.00 361.00 425.3 485.90	74.2951224532	361.00	425.30	Mostly_Sunny(sunny)	False	False	425.30
2010-07-17 09:00:00 58520 9 553.57 553.57 553.57 661.6 745.10	74.2951224532	553.57	661.60	Mostly_Sunny(sunny)	False	False	661.60
2010-07-17 10:00:00 58521 10 191.00 191.00 191.00 845.5 919.50	20.7721587819	191.00	845.50	Scattered_T-Storms(sunny)	True	False	845.50
2010-07-17 11:00:00 58522 11 215.80 215.80 215.80 957.9 1038.90	20.7721587819	215.80	957.90	Scattered_T-Storms(sunny)	True	False	957.90
2010-07-17 12:00:00 58523 12 230.18 230.18 230.18 856.7 1108.10	20.7721587819	230.18	856.70	Scattered_T-Storms(sunny)	True	False	856.70
