2010-07-25 16:00:00 70431 16 704.72 704.72 704.72 38.6 758.90	20.7721587819	704.72	38.60	Scattered_Strong_Storms(light_rain)	True	False	38.60
2010-07-25 17:00:00 70432 17 25.37 25.37 25.37 152.0 498.70	20.7721587819	25.37	152.00	Scattered_Strong_Storms(light_rain)	True	False	152.00
2010-07-25 18:00:00 70433 18 47.24 11.57 11.57 213.6 227.40	20.7721587819	11.57	213.60	Scattered_Strong_Storms(mostly_cloudy)	True	False	213.60
2010-07-25 19:00:00 70434 19 15.33 3.75 3.75 37.6 73.80	20.7721587819	3.75	37.60	T-Storms(sunny)	True	False	37.60
2010-07-25 20:00:00 70435 20 1.41 0.35 0.35 2.7 6.80	20.7721587819	0.35	2.70	T-Storms(sunny)	True	False	2.70
2010-07-25 21:00:00 70436 21 0.00 0.00 0.00 0.0 0.00	20.7721587819	0.00	0.00	T-Storms(clear)	True	False	0.00
2010-07-25 22:00:00 70437 22 0.00 0.00 0.00 0.0 0.00	74.7967479675	0.00	0.00	Partly_Cloudy(clear)	True	False	0.00
2010-07-25 23:00:00 70438 23 0.00 0.00 0.00 0.0 0.00	74.7967479675	0.00	0.00	Partly_Cloudy(fair)	True	False	0.00
2010-07-26 00:00:00 70439 0 0.00 0.00 0.00 0.0 0.00	74.7967479675	0.00	0.00	Partly_Cloudy(clear)	True	False	0.00
2010-07-26 01:00:00 70440 1 0.00 0.00 0.00 0.0 0.00	74.7967479675	0.00	0.00	Mostly_Clear(clear)	False	False	0.00
2010-07-26 02:00:00 70441 2 0.00 0.00 0.00 0.0 0.00	74.7967479675	0.00	0.00	Mostly_Clear(clear)	False	False	0.00
2010-07-26 03:00:00 70442 3 0.00 0.00 0.00 0.0 0.00	74.7967479675	0.00	0.00	Mostly_Clear(clear)	False	False	0.00
2010-07-26 04:00:00 70443 4 0.00 0.00 0.00 0.0 0.00	88.4794578568	0.00	0.00	Clear(clear)	True	False	0.00
2010-07-26 05:00:00 70444 5 0.00 0.00 0.00 0.0 0.00	88.4794578568	0.00	0.00	Clear(clear)	True	False	0.00
2010-07-26 06:00:00 70445 6 68.75 68.75 68.75 21.7 77.70	88.4794578568	68.75	21.70	Sunny(sunny)	True	False	21.70
2010-07-26 07:00:00 70446 7 179.70 179.70 179.70 182.6 203.10	88.4794578568	179.70	182.60	Sunny(sunny)	True	False	182.60
2010-07-26 08:00:00 70447 8 417.80 417.80 417.80 461.9 472.20	88.4794578568	417.80	461.90	Sunny(sunny)	True	False	461.90
2010-07-26 09:00:00 70448 9 659.26 659.26 659.26 719.2 745.10	88.4794578568	659.26	719.20	Sunny(sunny)	True	False	719.20
2010-07-26 10:00:00 70449 10 853.86 853.86 853.86 911.4 919.50	92.8611844587	853.86	911.40	Sunny(sunny)	True	False	911.40
2010-07-26 11:00:00 70450 11 964.73 964.73 964.73 1034.6 1038.90	92.8611844587	964.73	1034.60	Sunny(sunny)	True	False	1034.60
2010-07-26 12:00:00 70451 12 1028.99 1028.99 1028.99 1058.4 1108.10	92.8611844587	1028.99	1058.40	Sunny(sunny)	True	False	1058.40
2010-07-26 13:00:00 70452 13 1028.62 1028.62 1028.62 1041.9 1107.70	92.8611844587	1028.62	1041.90	Sunny(sunny)	True	False	1041.90
2010-07-26 14:00:00 70453 14 984.70 984.70 984.70 1030.8 1060.40	92.8611844587	984.70	1030.80	Sunny(fair)	True	False	1030.80
2010-07-26 15:00:00 70454 15 872.06 872.06 872.06 863.5 939.10	92.8611844587	872.06	863.50	Sunny(sunny)	True	False	863.50
2010-07-26 16:00:00 70455 16 671.47 671.47 671.47 651.5 758.90	88.4794578568	671.47	651.50	Sunny(sunny)	True	False	651.50
2010-07-26 17:00:00 70456 17 441.25 441.25 441.25 421.8 498.70	88.4794578568	441.25	421.80	Sunny(fair)	True	False	421.80
2010-07-26 18:00:00 70457 18 201.20 201.20 201.20 183.7 227.40	88.4794578568	201.20	183.70	Sunny(sunny)	True	False	183.70
2010-07-26 19:00:00 70458 19 65.30 65.30 65.30 29.6 73.80	88.4794578568	65.30	29.60	Sunny(sunny)	True	False	29.60
2010-07-26 20:00:00 70459 20 6.02 6.02 6.02 0.4 6.80	88.4794578568	6.02	0.40	Sunny(sunny)	True	False	0.40
2010-07-26 21:00:00 70460 21 0.00 0.00 0.00 0.0 0.00	88.4794578568	0.00	0.00	Clear(clear)	True	False	0.00
2010-07-26 22:00:00 70461 22 0.00 0.00 0.00 0.0 0.00	88.4794578568	0.00	0.00	Clear(clear)	True	False	0.00
2010-07-26 23:00:00 70462 23 0.00 0.00 0.00 0.0 0.00	88.4794578568	0.00	0.00	Clear(clear)	True	False	0.00
2010-07-27 00:00:00 70463 0 0.00 0.00 0.00 0.0 0.00	88.4794578568	0.00	0.00	Clear(clear)	True	False	0.00
2010-07-27 01:00:00 70464 1 0.00 0.00 0.00 0.0 0.00	88.4794578568	0.00	0.00	Clear(fair)	True	False	0.00
2010-07-27 02:00:00 70465 2 0.00 0.00 0.00 0.0 0.00	88.4794578568	0.00	0.00	Clear(clear)	True	False	0.00
2010-07-27 03:00:00 70466 3 0.00 0.00 0.00 0.0 0.00	88.4794578568	0.00	0.00	Clear(clear)	True	False	0.00
2010-07-27 04:00:00 70467 4 0.00 0.00 0.00 0.0 0.00	88.4794578568	0.00	0.00	Clear(clear)	True	False	0.00
2010-07-27 05:00:00 70468 5 0.00 0.00 0.00 0.0 0.00	88.4794578568	0.00	0.00	Clear(clear)	True	False	0.00
2010-07-27 06:00:00 70469 6 68.75 68.75 68.75 21.2 77.70	88.4794578568	68.75	21.20	Sunny(sunny)	True	False	21.20
2010-07-27 07:00:00 70470 7 179.70 179.70 179.70 179.8 203.10	88.4794578568	179.70	179.80	Sunny(sunny)	True	False	179.80
2010-07-27 08:00:00 70471 8 417.80 417.80 417.80 458.1 472.20	88.4794578568	417.80	458.10	Sunny(sunny)	True	False	458.10
2010-07-27 09:00:00 70472 9 659.26 659.26 659.26 707.6 745.10	88.4794578568	659.26	707.60	Sunny(sunny)	True	False	707.60
2010-07-27 10:00:00 70473 10 853.86 853.86 853.86 863.6 919.50	92.8611844587	853.86	863.60	Sunny(sunny)	True	False	863.60
2010-07-27 11:00:00 70474 11 964.73 964.73 964.73 994.7 1038.90	92.8611844587	964.73	994.70	Sunny(sunny)	True	False	994.70
2010-07-27 12:00:00 70475 12 1028.99 1028.99 1028.99 1046.6 1108.10	92.8611844587	1028.99	1046.60	Sunny(sunny)	True	False	1046.60
2010-07-27 13:00:00 70476 13 843.31 843.31 843.31 981.9 1107.70	76.1316484346	843.31	981.90	Partly_Cloudy(sunny)	True	False	981.90
2010-07-27 14:00:00 70477 14 807.30 807.30 807.30 943.4 1060.40	76.1316484346	807.30	943.40	Partly_Cloudy(fair)	True	False	943.40
2010-07-27 15:00:00 70478 15 714.95 714.95 714.95 889.8 939.10	76.1316484346	714.95	889.80	Partly_Cloudy(fair)	True	False	889.80
2010-07-27 16:00:00 70479 16 671.47 671.47 671.47 713.4 758.90	88.4794578568	671.47	713.40	Sunny(fair)	True	False	713.40
