2010-06-15 07:00:00 22950 7 172.21 172.21 172.21 225.9 220.30	78.1684981685	172.21	225.90	Partly_Cloudy(sunny)	True	False	225.90
2010-06-15 08:00:00 22951 8 320.10 320.10 320.10 505.2 409.50	78.1684981685	320.10	505.20	Partly_Cloudy(fair)	True	False	505.20
2010-06-15 09:00:00 22952 9 535.30 535.30 535.30 755.8 684.80	78.1684981685	535.30	755.80	Partly_Cloudy(sunny)	True	False	755.80
2010-06-15 10:00:00 22953 10 717.50 717.50 717.50 935.8 929.60	77.1837349398	717.50	935.80	Sunny(sunny)	True	False	935.80
2010-06-15 11:00:00 22954 11 728.77 728.77 728.77 1041.9 944.20	77.1837349398	728.77	1041.90	Sunny(sunny)	True	False	1041.90
2010-06-15 12:00:00 22955 12 724.60 724.60 724.60 1082.1 938.80	77.1837349398	724.60	1082.10	Sunny(sunny)	True	False	1082.10
2010-06-15 13:00:00 22956 13 803.33 803.33 803.33 1084.8 1040.80	77.1837349398	803.33	1084.80	Mostly_Sunny(sunny)	False	False	1084.80
2010-06-15 14:00:00 22957 14 710.55 710.55 710.55 1016.8 920.60	77.1837349398	710.55	1016.80	Mostly_Sunny(sunny)	False	False	1016.80
2010-06-15 15:00:00 22958 15 617.70 617.70 617.70 895.8 800.30	77.1837349398	617.70	895.80	Mostly_Sunny(sunny)	False	False	895.80
2010-06-15 16:00:00 22959 16 559.76 559.76 559.76 710.0 716.10	78.1684981685	559.76	710.00	Partly_Cloudy(fair)	True	False	710.00
2010-06-15 17:00:00 22960 17 333.31 333.31 333.31 448.1 426.40	78.1684981685	333.31	448.10	Partly_Cloudy(sunny)	True	False	448.10
2010-06-15 18:00:00 22961 18 167.44 167.44 167.44 184.4 214.20	78.1684981685	167.44	184.40	Partly_Cloudy(sunny)	True	False	184.40
2010-06-15 19:00:00 22962 19 34.51 34.51 34.51 44.0 53.40	64.6258503401	34.51	44.00	Mostly_Cloudy(sunny)	True	False	44.00
2010-06-15 20:00:00 22963 20 2.26 2.26 2.26 1.9 3.50	64.6258503401	2.26	1.90	Mostly_Cloudy(sunny)	True	False	1.90
2010-06-15 21:00:00 22964 21 0.00 0.00 0.00 0.0 0.00	64.6258503401	0.00	0.00	Mostly_Cloudy(clear)	True	False	0.00
2010-06-15 22:00:00 22965 22 0.00 0.00 0.00 0.0 0.00	78.1684981685	0.00	0.00	Partly_Cloudy(clear)	True	False	0.00
2010-06-15 23:00:00 22966 23 0.00 0.00 0.00 0.0 0.00	78.1684981685	0.00	0.00	Partly_Cloudy(clear)	True	False	0.00
2010-06-16 00:00:00 22967 0 0.00 0.00 0.00 0.0 0.00	78.1684981685	0.00	0.00	Partly_Cloudy(clear)	True	False	0.00
2010-06-16 01:00:00 22968 1 0.00 0.00 0.00 0.0 0.00	78.1684981685	0.00	0.00	Partly_Cloudy(clear)	True	False	0.00
2010-06-16 02:00:00 22969 2 0.00 0.00 0.00 0.0 0.00	78.1684981685	0.00	0.00	Partly_Cloudy(clear)	True	False	0.00
2010-06-16 03:00:00 22970 3 0.00 0.00 0.00 0.0 0.00	78.1684981685	0.00	0.00	Partly_Cloudy(mostly_cloudy)	True	False	0.00
2010-06-16 04:00:00 22971 4 0.00 0.00 0.00 0.0 0.00	46.2470794393	0.00	0.00	Cloudy(cloudy)	True	False	0.00
2010-06-16 05:00:00 22972 5 0.83 0.83 0.83 0.0 1.80	46.2470794393	0.83	0.00	Cloudy(cloudy)	True	False	0.00
2010-06-16 06:00:00 22973 6 33.99 33.99 33.99 25.3 73.50	46.2470794393	33.99	25.30	Cloudy(cloudy)	True	False	25.30
2010-06-16 07:00:00 22974 7 31.05 31.05 31.05 131.9 220.30	14.0947144821	31.05	131.90	Few_Showers(cloudy)	True	False	131.90
2010-06-16 08:00:00 22975 8 57.72 57.72 57.72 127.3 409.50	14.0947144821	57.72	127.30	Few_Showers(cloudy)	True	False	127.30
2010-06-16 09:00:00 22976 9 96.52 96.52 96.52 265.3 684.80	14.0947144821	96.52	265.30	Few_Showers(cloudy)	True	False	265.30
2010-06-16 10:00:00 22977 10 123.29 123.29 123.29 186.9 929.60	13.2630892896	123.29	186.90	Few_Showers(cloudy)	True	False	186.90
2010-06-16 11:00:00 22978 11 125.23 125.23 125.23 369.6 944.20	13.2630892896	125.23	369.60	Few_Showers(cloudy)	True	False	369.60
2010-06-16 12:00:00 22979 12 124.51 124.51 124.51 361.7 938.80	13.2630892896	124.51	361.70	Few_Showers(cloudy)	True	False	361.70
2010-06-16 13:00:00 22980 13 146.97 146.97 146.97 746.4 1040.80	14.1212252879	146.97	746.40	Showers(cloudy)	True	False	746.40
2010-06-16 14:00:00 22981 14 130.00 130.00 130.00 522.7 920.60	14.1212252879	130.00	522.70	Showers(cloudy)	True	False	522.70
2010-06-16 15:00:00 22982 15 113.01 113.01 113.01 667.9 800.30	14.1212252879	113.01	667.90	Showers(cloudy)	True	False	667.90
2010-06-16 16:00:00 22983 16 105.04 105.04 105.04 486.1 716.10	14.6676608436	105.04	486.10	T-Showers(partly_cloudy)	True	False	486.10
2010-06-16 17:00:00 22984 17 62.54 62.54 62.54 211.4 426.40	14.6676608436	62.54	211.40	T-Showers(cloudy)	True	False	211.40
2010-06-16 18:00:00 22985 18 31.42 31.42 31.42 51.7 214.20	14.6676608436	31.42	51.70	T-Showers(cloudy)	True	False	51.70
2010-06-16 19:00:00 22986 19 7.53 7.53 7.53 7.8 53.40	14.0947144821	7.53	7.80	Scattered_T-Storms(cloudy)	True	False	7.80
2010-06-16 20:00:00 22987 20 0.49 0.49 0.49 0.0 3.50	14.0947144821	0.49	0.00	Scattered_T-Storms(cloudy)	True	False	0.00
2010-06-16 21:00:00 22988 21 0.00 0.00 0.00 0.0 0.00	14.0947144821	0.00	0.00	Scattered_T-Storms(cloudy)	True	False	0.00
2010-06-16 22:00:00 22989 22 0.00 0.00 0.00 0.0 0.00	14.0947144821	0.00	0.00	Isolated_T-Storms(cloudy)	True	False	0.00
2010-06-16 23:00:00 22990 23 0.00 0.00 0.00 0.0 0.00	14.0947144821	0.00	0.00	Isolated_T-Storms(cloudy)	True	False	0.00
2010-06-17 00:00:00 22991 0 0.00 0.00 0.00 0.0 0.00	14.0947144821	0.00	0.00	Isolated_T-Storms(cloudy)	True	False	0.00
2010-06-17 01:00:00 22992 1 0.00 0.00 0.00 0.0 0.00	64.6258503401	0.00	0.00	Mostly_Cloudy(t-storm)	True	False	0.00
2010-06-17 02:00:00 22993 2 0.00 0.00 0.00 0.0 0.00	64.6258503401	0.00	0.00	Mostly_Cloudy(cloudy)	True	False	0.00
2010-06-17 03:00:00 22994 3 0.00 0.00 0.00 0.0 0.00	64.6258503401	0.00	0.00	Mostly_Cloudy(fog)	True	False	0.00
2010-06-17 04:00:00 22995 4 0.00 0.00 0.00 0.0 0.00	78.1684981685	0.00	0.00	Partly_Cloudy(fog)	True	False	0.00
2010-06-17 05:00:00 22996 5 1.41 1.41 1.41 0.0 1.80	78.1684981685	1.41	0.00	Partly_Cloudy(sunny)	True	False	0.00
2010-06-17 06:00:00 22997 6 57.45 57.45 57.45 39.7 73.50	78.1684981685	57.45	39.70	Partly_Cloudy(sunny)	True	False	39.70
2010-06-17 07:00:00 22998 7 172.21 172.21 172.21 225.9 220.30	78.1684981685	172.21	225.90	Partly_Cloudy(sunny)	True	False	225.90
