2010-06-14 05:00:00 21676 5 0.76 0.76 0.76 0.0 1.80	42.3436041083	0.76	0.00	Cloudy(cloudy)	True	False	0.00
2010-06-14 06:00:00 21677 6 31.12 31.12 31.12 16.1 73.50	42.3436041083	31.12	16.10	Cloudy(light_rain)	True	False	16.10
2010-06-14 07:00:00 21678 7 105.22 105.22 105.22 76.0 248.50	42.3436041083	105.22	76.00	Cloudy(fog)	True	False	76.00
2010-06-14 08:00:00 21679 8 225.18 225.18 225.18 110.9 531.80	42.3436041083	225.18	110.90	Cloudy(cloudy)	True	False	110.90
2010-06-14 09:00:00 21680 9 304.92 304.92 304.92 168.0 720.10	42.3436041083	304.92	168.00	Cloudy(cloudy)	True	False	168.00
2010-06-14 10:00:00 21681 10 454.86 454.86 454.86 287.6 929.60	48.9304565238	454.86	287.60	Cloudy(cloudy)	True	False	287.60
2010-06-14 11:00:00 21682 11 514.65 514.65 514.65 320.2 1051.80	48.9304565238	514.65	320.20	Cloudy(cloudy)	True	False	320.20
2010-06-14 12:00:00 21683 12 535.40 535.40 535.40 489.2 1094.20	48.9304565238	535.40	489.20	Cloudy(cloudy)	True	False	489.20
2010-06-14 13:00:00 21684 13 598.16 598.16 598.16 755.2 1079.90	55.3907586994	598.16	755.20	Mostly_Cloudy(cloudy)	True	False	755.20
2010-06-14 14:00:00 21685 14 561.00 561.00 561.00 653.5 1012.80	55.3907586994	561.00	653.50	Mostly_Cloudy(mostly_cloudy)	True	False	653.50
2010-06-14 15:00:00 21686 15 489.38 489.38 489.38 444.1 883.50	55.3907586994	489.38	444.10	Mostly_Cloudy(cloudy)	True	False	444.10
2010-06-14 16:00:00 21687 16 522.21 522.21 522.21 412.2 716.10	72.92383821	522.21	412.20	Partly_Cloudy(mostly_cloudy)	True	False	412.20
2010-06-14 17:00:00 21688 17 310.95 310.95 310.95 211.2 426.40	72.92383821	310.95	211.20	Partly_Cloudy(partly_cloudy)	True	False	211.20
2010-06-14 18:00:00 21689 18 156.20 156.20 156.20 97.6 214.20	72.92383821	156.20	97.60	Partly_Cloudy(cloudy)	True	False	97.60
2010-06-14 19:00:00 21690 19 38.94 38.94 38.94 47.7 53.40	72.92383821	38.94	47.70	Partly_Cloudy(mostly_cloudy)	True	False	47.70
2010-06-14 20:00:00 21691 20 2.55 2.55 2.55 2.5 3.50	72.92383821	2.55	2.50	Partly_Cloudy(partly_cloudy)	True	False	2.50
2010-06-14 21:00:00 21692 21 0.00 0.00 0.00 0.0 0.00	72.92383821	0.00	0.00	Partly_Cloudy(clear)	True	False	0.00
2010-06-14 22:00:00 21693 22 0.00 0.00 0.00 0.0 0.00	12.6215390314	0.00	0.00	Few_Showers(clear)	True	False	0.00
2010-06-14 23:00:00 21694 23 0.00 0.00 0.00 0.0 0.00	12.6215390314	0.00	0.00	Few_Showers(clear)	True	False	0.00
2010-06-15 00:00:00 21695 0 0.00 0.00 0.00 0.0 0.00	12.6215390314	0.00	0.00	Few_Showers(clear)	True	False	0.00
2010-06-15 01:00:00 21696 1 0.00 0.00 0.00 0.0 0.00	72.92383821	0.00	0.00	Partly_Cloudy(clear)	True	False	0.00
2010-06-15 02:00:00 21697 2 0.00 0.00 0.00 0.0 0.00	72.92383821	0.00	0.00	Partly_Cloudy(fair)	True	False	0.00
2010-06-15 03:00:00 21698 3 0.00 0.00 0.00 0.0 0.00	72.92383821	0.00	0.00	Partly_Cloudy(clear)	True	False	0.00
2010-06-15 04:00:00 21699 4 0.00 0.00 0.00 0.0 0.00	62.6961770624	0.00	0.00	Mostly_Cloudy(clear)	True	False	0.00
2010-06-15 05:00:00 21700 5 1.13 1.13 1.13 0.0 1.80	62.6961770624	1.13	0.00	Mostly_Cloudy(fair)	True	False	0.00
2010-06-15 06:00:00 21701 6 46.08 46.08 46.08 45.9 73.50	62.6961770624	46.08	45.90	Mostly_Cloudy(partly_cloudy)	True	False	45.90
2010-06-15 07:00:00 21702 7 181.22 181.22 181.22 225.9 248.50	72.92383821	181.22	225.90	Partly_Cloudy(sunny)	True	False	225.90
2010-06-15 08:00:00 21703 8 387.81 387.81 387.81 505.2 531.80	72.92383821	387.81	505.20	Partly_Cloudy(fair)	True	False	505.20
2010-06-15 09:00:00 21704 9 525.12 525.12 525.12 755.8 720.10	72.92383821	525.12	755.80	Partly_Cloudy(sunny)	True	False	755.80
2010-06-15 10:00:00 21705 10 729.40 729.40 729.40 935.8 929.60	78.4638554217	729.40	935.80	Sunny(sunny)	True	False	935.80
2010-06-15 11:00:00 21706 11 825.28 825.28 825.28 1041.9 1051.80	78.4638554217	825.28	1041.90	Sunny(sunny)	True	False	1041.90
2010-06-15 12:00:00 21707 12 858.55 858.55 858.55 1082.1 1094.20	78.4638554217	858.55	1082.10	Sunny(sunny)	True	False	1082.10
2010-06-15 13:00:00 21708 13 847.33 847.33 847.33 1084.8 1079.90	78.4638554217	847.33	1084.80	Mostly_Sunny(sunny)	False	False	1084.80
2010-06-15 14:00:00 21709 14 794.68 794.68 794.68 1016.8 1012.80	78.4638554217	794.68	1016.80	Mostly_Sunny(sunny)	False	False	1016.80
2010-06-15 15:00:00 21710 15 693.23 693.23 693.23 895.8 883.50	78.4638554217	693.23	895.80	Mostly_Sunny(sunny)	False	False	895.80
2010-06-15 16:00:00 21711 16 522.21 522.21 522.21 710.0 716.10	72.92383821	522.21	710.00	Partly_Cloudy(fair)	True	False	710.00
2010-06-15 17:00:00 21712 17 310.95 310.95 310.95 448.1 426.40	72.92383821	310.95	448.10	Partly_Cloudy(sunny)	True	False	448.10
2010-06-15 18:00:00 21713 18 156.20 156.20 156.20 184.4 214.20	72.92383821	156.20	184.40	Partly_Cloudy(sunny)	True	False	184.40
2010-06-15 19:00:00 21714 19 38.94 38.94 38.94 44.0 53.40	72.92383821	38.94	44.00	Partly_Cloudy(sunny)	True	False	44.00
2010-06-15 20:00:00 21715 20 2.55 2.55 2.55 1.9 3.50	72.92383821	2.55	1.90	Partly_Cloudy(sunny)	True	False	1.90
2010-06-15 21:00:00 21716 21 0.00 0.00 0.00 0.0 0.00	72.92383821	0.00	0.00	Partly_Cloudy(clear)	True	False	0.00
2010-06-15 22:00:00 21717 22 0.00 0.00 0.00 0.0 0.00	62.6961770624	0.00	0.00	Mostly_Cloudy(clear)	True	False	0.00
2010-06-15 23:00:00 21718 23 0.00 0.00 0.00 0.0 0.00	62.6961770624	0.00	0.00	Mostly_Cloudy(clear)	True	False	0.00
2010-06-16 00:00:00 21719 0 0.00 0.00 0.00 0.0 0.00	62.6961770624	0.00	0.00	Mostly_Cloudy(clear)	True	False	0.00
2010-06-16 01:00:00 21720 1 0.00 0.00 0.00 0.0 0.00	62.6961770624	0.00	0.00	Mostly_Cloudy(clear)	True	False	0.00
2010-06-16 02:00:00 21721 2 0.00 0.00 0.00 0.0 0.00	62.6961770624	0.00	0.00	Mostly_Cloudy(clear)	True	False	0.00
2010-06-16 03:00:00 21722 3 0.00 0.00 0.00 0.0 0.00	62.6961770624	0.00	0.00	Mostly_Cloudy(mostly_cloudy)	True	False	0.00
2010-06-16 04:00:00 21723 4 0.00 0.00 0.00 0.0 0.00	12.6215390314	0.00	0.00	Few_Showers(cloudy)	True	False	0.00
2010-06-16 05:00:00 21724 5 0.23 0.23 0.23 0.0 1.80	12.6215390314	0.23	0.00	Few_Showers(cloudy)	True	False	0.00
