2010-07-19 18:00:00 63473 18 58.37 201.57 201.57 86.2 227.40	25.6667335071	201.57	86.20	Scattered_T-Storms(mostly_cloudy)	True	False	86.20
2010-07-19 19:00:00 63474 19 18.94 27.98 27.98 44.7 73.80	25.6667335071	27.98	44.70	Scattered_T-Storms(t-storm)	True	False	44.70
2010-07-19 20:00:00 63475 20 1.75 2.58 2.58 5.2 6.80	25.6667335071	2.58	5.20	Scattered_T-Storms(partly_cloudy)	True	False	5.20
2010-07-19 21:00:00 63476 21 0.00 0.00 0.00 0.0 0.00	25.6667335071	0.00	0.00	Scattered_T-Storms(heavy_t-storm)	True	False	0.00
2010-07-19 22:00:00 63477 22 0.00 0.00 0.00 0.0 0.00	74.8695559578	0.00	0.00	Partly_Cloudy(fair)	True	False	0.00
2010-07-19 23:00:00 63478 23 0.00 0.00 0.00 0.0 0.00	74.8695559578	0.00	0.00	Partly_Cloudy(fair)	True	False	0.00
2010-07-20 00:00:00 63479 0 0.00 0.00 0.00 0.0 0.00	74.8695559578	0.00	0.00	Partly_Cloudy(fog)	True	False	0.00
2010-07-20 01:00:00 63480 1 0.00 0.00 0.00 0.0 0.00	80.5895327852	0.00	0.00	Clear(clear)	True	False	0.00
2010-07-20 02:00:00 63481 2 0.00 0.00 0.00 0.0 0.00	80.5895327852	0.00	0.00	Clear(partly_cloudy)	True	False	0.00
2010-07-20 03:00:00 63482 3 0.00 0.00 0.00 0.0 0.00	80.5895327852	0.00	0.00	Clear(fog)	True	False	0.00
2010-07-20 04:00:00 63483 4 0.00 0.00 0.00 0.0 0.00	80.5895327852	0.00	0.00	Mostly_Clear(fog)	False	False	0.00
2010-07-20 05:00:00 63484 5 0.08 0.08 0.08 0.0 0.10	80.5895327852	0.08	0.00	Mostly_Clear(fog)	False	False	0.00
2010-07-20 06:00:00 63485 6 62.62 62.62 62.62 29.5 77.70	80.5895327852	62.62	29.50	Mostly_Sunny(mostly_cloudy)	False	False	29.50
2010-07-20 07:00:00 63486 7 167.14 167.14 167.14 168.7 207.40	80.5895327852	167.14	168.70	Mostly_Sunny(fog)	False	False	168.70
2010-07-20 08:00:00 63487 8 391.58 391.58 391.58 389.8 485.90	80.5895327852	391.58	389.80	Mostly_Sunny(partly_cloudy)	False	False	389.80
2010-07-20 09:00:00 63488 9 600.47 600.47 600.47 489.4 745.10	80.5895327852	600.47	489.40	Mostly_Sunny(sunny)	False	False	489.40
2010-07-20 10:00:00 63489 10 693.88 693.88 693.88 781.8 919.50	75.4625033842	693.88	781.80	Partly_Cloudy(fair)	True	False	781.80
2010-07-20 11:00:00 63490 11 783.98 783.98 783.98 614.1 1038.90	75.4625033842	783.98	614.10	Partly_Cloudy(partly_cloudy)	True	False	614.10
2010-07-20 12:00:00 63491 12 836.20 836.20 836.20 401.2 1108.10	75.4625033842	836.20	401.20	Partly_Cloudy(partly_cloudy)	True	False	401.20
2010-07-20 13:00:00 63492 13 835.90 835.90 835.90 348.4 1107.70	75.4625033842	835.90	348.40	Partly_Cloudy(mostly_cloudy)	True	False	348.40
2010-07-20 14:00:00 63493 14 800.20 800.20 800.20 619.6 1060.40	75.4625033842	800.20	619.60	Partly_Cloudy(mostly_cloudy)	True	False	619.60
2010-07-20 15:00:00 63494 15 708.67 708.67 708.67 632.3 939.10	75.4625033842	708.67	632.30	Partly_Cloudy(partly_cloudy)	True	False	632.30
2010-07-20 16:00:00 63495 16 194.78 194.78 194.78 698.7 758.90	25.6667335071	194.78	698.70	Few_Showers(partly_cloudy)	True	False	698.70
2010-07-20 17:00:00 63496 17 128.00 128.00 128.00 420.2 498.70	25.6667335071	128.00	420.20	Few_Showers(fair)	True	False	420.20
2010-07-20 18:00:00 63497 18 58.37 58.37 58.37 152.7 227.40	25.6667335071	58.37	152.70	Few_Showers(sunny)	True	False	152.70
2010-07-20 19:00:00 63498 19 18.94 18.94 18.94 56.0 73.80	25.6667335071	18.94	56.00	Few_Showers(sunny)	True	False	56.00
2010-07-20 20:00:00 63499 20 1.75 1.75 1.75 0.6 6.80	25.6667335071	1.75	0.60	Few_Showers(partly_cloudy)	True	False	0.60
2010-07-20 21:00:00 63500 21 0.00 0.00 0.00 0.0 0.00	25.6667335071	0.00	0.00	Few_Showers(partly_cloudy)	True	False	0.00
2010-07-20 22:00:00 63501 22 0.00 0.00 0.00 0.0 0.00	25.6667335071	0.00	0.00	Scattered_T-Storms(partly_cloudy)	True	False	0.00
2010-07-20 23:00:00 63502 23 0.00 0.00 0.00 0.0 0.00	25.6667335071	0.00	0.00	Scattered_T-Storms(partly_cloudy)	True	False	0.00
2010-07-21 00:00:00 63503 0 0.00 0.00 0.00 0.0 0.00	25.6667335071	0.00	0.00	Scattered_T-Storms(partly_cloudy)	True	False	0.00
2010-07-21 01:00:00 63504 1 0.00 0.00 0.00 0.0 0.00	25.6667335071	0.00	0.00	Scattered_T-Storms(partly_cloudy)	True	False	0.00
2010-07-21 02:00:00 63505 2 0.00 0.00 0.00 0.0 0.00	25.6667335071	0.00	0.00	Scattered_T-Storms(partly_cloudy)	True	False	0.00
2010-07-21 03:00:00 63506 3 0.00 0.00 0.00 0.0 0.00	25.6667335071	0.00	0.00	Scattered_T-Storms(partly_cloudy)	True	False	0.00
2010-07-21 04:00:00 63507 4 0.00 0.00 0.00 0.0 0.00	25.6667335071	0.00	0.00	Scattered_T-Storms(partly_cloudy)	True	False	0.00
2010-07-21 05:00:00 63508 5 0.03 0.03 0.03 0.0 0.10	25.6667335071	0.03	0.00	Scattered_T-Storms(fog)	True	False	0.00
2010-07-21 06:00:00 63509 6 19.94 19.94 19.94 22.3 77.70	25.6667335071	19.94	22.30	Scattered_T-Storms(mostly_cloudy)	True	False	22.30
2010-07-21 07:00:00 63510 7 33.40 33.40 33.40 168.8 207.40	16.1022532613	33.40	168.80	Showers(fair)	True	False	168.80
2010-07-21 08:00:00 63511 8 78.24 78.24 78.24 416.8 485.90	16.1022532613	78.24	416.80	Showers(sunny)	True	False	416.80
2010-07-21 09:00:00 63512 9 119.98 119.98 119.98 651.7 745.10	16.1022532613	119.98	651.70	Showers(sunny)	True	False	651.70
2010-07-21 10:00:00 63513 10 189.90 189.90 189.90 723.8 919.50	20.6525839306	189.90	723.80	Scattered_T-Storms(fair)	True	False	723.80
2010-07-21 11:00:00 63514 11 214.56 214.56 214.56 772.9 1038.90	20.6525839306	214.56	772.90	Scattered_T-Storms(partly_cloudy)	True	False	772.90
2010-07-21 12:00:00 63515 12 228.85 228.85 228.85 487.1 1108.10	20.6525839306	228.85	487.10	Scattered_T-Storms(fair)	True	False	487.10
2010-07-21 13:00:00 63516 13 228.77 228.77 228.77 496.0 1107.70	20.6525839306	228.77	496.00	Scattered_T-Storms(partly_cloudy)	True	False	496.00
2010-07-21 14:00:00 63517 14 219.00 219.00 219.00 921.4 1060.40	20.6525839306	219.00	921.40	Scattered_T-Storms(fair)	True	False	921.40
2010-07-21 15:00:00 63518 15 193.95 193.95 193.95 640.2 939.10	20.6525839306	193.95	640.20	Scattered_T-Storms(fair)	True	False	640.20
2010-07-21 16:00:00 63519 16 194.78 194.78 194.78 498.2 758.90	25.6667335071	194.78	498.20	Scattered_T-Storms(mostly_cloudy)	True	False	498.20
2010-07-21 17:00:00 63520 17 128.00 128.00 128.00 366.7 498.70	25.6667335071	128.00	366.70	Scattered_T-Storms(fair)	True	False	366.70
2010-07-21 18:00:00 63521 18 58.37 58.37 58.37 61.8 227.40	25.6667335071	58.37	61.80	Scattered_T-Storms(t-storm)	True	False	61.80
