2010-06-30 17:00:00 41080 17 371.76 371.76 371.76 380.9 484.70	76.6988538941	371.76	380.90	Mostly_Sunny(sunny)	False	False	380.90
2010-06-30 18:00:00 41081 18 165.52 165.52 173.19 155.4 225.80	73.3056583341	173.19	155.40	Sunny(fair)	True	False	155.40
2010-06-30 19:00:00 41082 19 59.67 59.67 62.43 29.4 81.40	73.3056583341	62.43	29.40	Sunny(fair)	True	False	29.40
2010-06-30 20:00:00 41083 20 4.98 4.98 5.22 2.2 6.80	73.3056583341	5.22	2.20	Sunny(sunny)	True	False	2.20
2010-06-30 21:00:00 41084 21 0.00 0.00 0.00 0.0 0.00	73.3056583341	0.00	0.00	Clear(fair)	True	False	0.00
2010-06-30 22:00:00 41085 22 0.00 0.00 0.00 0.0 0.00	73.3056583341	0.00	0.00	Clear(clear)	True	False	0.00
2010-06-30 23:00:00 41086 23 0.00 0.00 0.00 0.0 0.00	73.3056583341	0.00	0.00	Clear(clear)	True	False	0.00
2010-07-01 00:00:00 41087 0 0.00 0.00 0.00 0.0 0.00	73.3056583341	0.00	0.00	Clear(cloudy)	True	False	0.00
2010-07-01 01:00:00 41088 1 0.00 0.00 0.00 0.0 0.00	73.3056583341	0.00	0.00	Clear(cloudy)	True	False	0.00
2010-07-01 02:00:00 41089 2 0.00 0.00 0.00 0.0 0.00	73.3056583341	0.00	0.00	Clear(cloudy)	True	False	0.00
2010-07-01 03:00:00 41090 3 0.00 0.00 0.00 0.0 0.00	73.3056583341	0.00	0.00	Clear(fair)	True	False	0.00
2010-07-01 04:00:00 41091 4 0.00 0.00 0.00 0.0 0.00	73.3056583341	0.00	0.00	Clear(partly_cloudy)	True	False	0.00
2010-07-01 05:00:00 41092 5 1.32 1.32 1.32 0.3 1.80	73.3056583341	1.32	0.30	Clear(fair)	True	False	0.30
2010-07-01 06:00:00 41093 6 56.96 56.96 56.96 31.2 77.70	73.3056583341	56.96	31.20	Sunny(sunny)	True	False	31.20
2010-07-01 07:00:00 41094 7 161.49 161.49 161.49 174.2 220.30	73.3056583341	161.49	174.20	Sunny(sunny)	True	False	174.20
2010-07-01 08:00:00 41095 8 356.19 356.19 356.19 404.9 485.90	73.3056583341	356.19	404.90	Sunny(sunny)	True	False	404.90
2010-07-01 09:00:00 41096 9 545.17 545.17 545.17 607.6 743.70	73.3056583341	545.17	607.60	Sunny(sunny)	True	False	607.60
2010-07-01 10:00:00 41097 10 712.99 712.99 712.99 746.7 929.60	76.6988538941	712.99	746.70	Sunny(sunny)	True	False	746.70
2010-07-01 11:00:00 41098 11 795.90 795.90 795.90 691.6 1037.70	76.6988538941	795.90	691.60	Sunny(sunny)	True	False	691.60
2010-07-01 12:00:00 41099 12 849.90 849.90 849.90 800.5 1108.10	76.6988538941	849.90	800.50	Sunny(mostly_cloudy)	True	False	800.50
2010-07-01 13:00:00 41100 13 849.59 849.59 849.59 780.3 1107.70	76.6988538941	849.59	780.30	Sunny(fair)	True	False	780.30
2010-07-01 14:00:00 41101 14 813.31 813.31 813.31 676.3 1060.40	76.6988538941	813.31	676.30	Sunny(partly_cloudy)	True	False	676.30
2010-07-01 15:00:00 41102 15 720.28 720.28 720.28 458.2 939.10	76.6988538941	720.28	458.20	Sunny(fair)	True	False	458.20
2010-07-01 16:00:00 41103 16 545.69 545.69 545.69 424.4 744.40	73.3056583341	545.69	424.40	Sunny(mostly_cloudy)	True	False	424.40
2010-07-01 17:00:00 41104 17 355.31 355.31 355.31 244.2 484.70	73.3056583341	355.31	244.20	Sunny(fair)	True	False	244.20
2010-07-01 18:00:00 41105 18 165.52 165.52 165.52 117.6 225.80	73.3056583341	165.52	117.60	Sunny(fair)	True	False	117.60
2010-07-01 19:00:00 41106 19 59.67 59.67 59.67 26.2 81.40	73.3056583341	59.67	26.20	Sunny(fair)	True	False	26.20
2010-07-01 20:00:00 41107 20 4.98 4.98 4.98 1.7 6.80	73.3056583341	4.98	1.70	Sunny(sunny)	True	False	1.70
2010-07-01 21:00:00 41108 21 0.00 0.00 0.00 0.0 0.00	73.3056583341	0.00	0.00	Clear(clear)	True	False	0.00
2010-07-01 22:00:00 41109 22 0.00 0.00 0.00 0.0 0.00	73.3056583341	0.00	0.00	Clear(clear)	True	False	0.00
2010-07-01 23:00:00 41110 23 0.00 0.00 0.00 0.0 0.00	73.3056583341	0.00	0.00	Clear(clear)	True	False	0.00
2010-07-02 00:00:00 41111 0 0.00 0.00 0.00 0.0 0.00	73.3056583341	0.00	0.00	Clear(clear)	True	False	0.00
2010-07-02 01:00:00 41112 1 0.00 0.00 0.00 0.0 0.00	73.3056583341	0.00	0.00	Clear(clear)	True	False	0.00
2010-07-02 02:00:00 41113 2 0.00 0.00 0.00 0.0 0.00	73.3056583341	0.00	0.00	Clear(clear)	True	False	0.00
2010-07-02 03:00:00 41114 3 0.00 0.00 0.00 0.0 0.00	73.3056583341	0.00	0.00	Clear(clear)	True	False	0.00
2010-07-02 04:00:00 41115 4 0.00 0.00 0.00 0.0 0.00	73.3056583341	0.00	0.00	Clear(clear)	True	False	0.00
2010-07-02 05:00:00 41116 5 1.32 1.32 1.32 0.2 1.80	73.3056583341	1.32	0.20	Clear(sunny)	True	False	0.20
2010-07-02 06:00:00 41117 6 56.96 56.96 56.96 33.8 77.70	73.3056583341	56.96	33.80	Sunny(sunny)	True	False	33.80
2010-07-02 07:00:00 41118 7 161.49 161.49 161.49 174.8 220.30	73.3056583341	161.49	174.80	Sunny(sunny)	True	False	174.80
2010-07-02 08:00:00 41119 8 356.19 356.19 356.19 402.7 485.90	73.3056583341	356.19	402.70	Sunny(sunny)	True	False	402.70
2010-07-02 09:00:00 41120 9 545.17 545.17 545.17 601.8 743.70	73.3056583341	545.17	601.80	Sunny(sunny)	True	False	601.80
2010-07-02 10:00:00 41121 10 712.99 712.99 712.99 709.2 929.60	76.6988538941	712.99	709.20	Sunny(sunny)	True	False	709.20
2010-07-02 11:00:00 41122 11 795.90 795.90 795.90 475.6 1037.70	76.6988538941	795.90	475.60	Sunny(sunny)	True	False	475.60
2010-07-02 12:00:00 41123 12 849.90 849.90 849.90 570.8 1108.10	76.6988538941	849.90	570.80	Sunny(fair)	True	False	570.80
2010-07-02 13:00:00 41124 13 849.59 849.59 849.59 785.8 1107.70	76.6988538941	849.59	785.80	Sunny(fair)	True	False	785.80
2010-07-02 14:00:00 41125 14 813.31 813.31 813.31 716.5 1060.40	76.6988538941	813.31	716.50	Sunny(mostly_cloudy)	True	False	716.50
2010-07-02 15:00:00 41126 15 720.28 720.28 720.28 791.5 939.10	76.6988538941	720.28	791.50	Sunny(mostly_cloudy)	True	False	791.50
2010-07-02 16:00:00 41127 16 545.69 545.69 545.69 510.9 744.40	73.3056583341	545.69	510.90	Sunny(partly_cloudy)	True	False	510.90
2010-07-02 17:00:00 41128 17 355.31 355.31 355.31 407.2 484.70	73.3056583341	355.31	407.20	Sunny(partly_cloudy)	True	False	407.20
