2010-06-24 22:00:00 34269 22 0.00 0.00 0.00 0.0 0.00	73.2471933912	0.00	0.00	Clear(clear)	True	False	0.00
2010-06-24 23:00:00 34270 23 0.00 0.00 0.00 0.0 0.00	73.2471933912	0.00	0.00	Clear(clear)	True	False	0.00
2010-06-25 00:00:00 34271 0 0.00 0.00 0.00 0.0 0.00	73.2471933912	0.00	0.00	Clear(clear)	True	False	0.00
2010-06-25 01:00:00 34272 1 0.00 0.00 0.00 0.0 0.00	73.2471933912	0.00	0.00	Clear(clear)	True	False	0.00
2010-06-25 02:00:00 34273 2 0.00 0.00 0.00 0.0 0.00	73.2471933912	0.00	0.00	Clear(clear)	True	False	0.00
2010-06-25 03:00:00 34274 3 0.00 0.00 0.00 0.0 0.00	73.2471933912	0.00	0.00	Clear(clear)	True	False	0.00
2010-06-25 04:00:00 34275 4 0.00 0.00 0.00 0.0 0.00	73.2471933912	0.00	0.00	Clear(clear)	True	False	0.00
2010-06-25 05:00:00 34276 5 1.32 1.32 1.32 0.0 1.80	73.2471933912	1.32	0.00	Clear(sunny)	True	False	0.00
2010-06-25 06:00:00 34277 6 53.84 53.84 53.84 24.1 73.50	73.2471933912	53.84	24.10	Sunny(sunny)	True	False	24.10
2010-06-25 07:00:00 34278 7 161.36 161.36 161.36 175.0 220.30	73.2471933912	161.36	175.00	Sunny(sunny)	True	False	175.00
2010-06-25 08:00:00 34279 8 355.91 355.91 355.91 391.3 485.90	73.2471933912	355.91	391.30	Sunny(sunny)	True	False	391.30
2010-06-25 09:00:00 34280 9 544.74 544.74 544.74 557.1 743.70	73.2471933912	544.74	557.10	Sunny(sunny)	True	False	557.10
2010-06-25 10:00:00 34281 10 748.74 748.74 748.74 615.3 929.60	80.5443761915	748.74	615.30	Sunny(sunny)	True	False	615.30
2010-06-25 11:00:00 34282 11 760.50 760.50 760.50 712.8 944.20	80.5443761915	760.50	712.80	Sunny(sunny)	True	False	712.80
2010-06-25 12:00:00 34283 12 756.15 756.15 756.15 737.8 938.80	80.5443761915	756.15	737.80	Sunny(mostly_cloudy)	True	False	737.80
2010-06-25 13:00:00 34284 13 801.90 801.90 801.90 706.1 995.60	80.5443761915	801.90	706.10	Sunny(sunny)	True	False	706.10
2010-06-25 14:00:00 34285 14 765.90 765.90 765.90 778.4 950.90	80.5443761915	765.90	778.40	Sunny(fair)	True	False	778.40
2010-06-25 15:00:00 34286 15 756.39 756.39 756.39 655.8 939.10	80.5443761915	756.39	655.80	Sunny(sunny)	True	False	655.80
2010-06-25 16:00:00 34287 16 507.60 507.60 507.60 465.9 693.00	73.2471933912	507.60	465.90	Sunny(fair)	True	False	465.90
2010-06-25 17:00:00 34288 17 355.03 355.03 355.03 327.8 484.70	73.2471933912	355.03	327.80	Sunny(fair)	True	False	327.80
2010-06-25 18:00:00 34289 18 156.90 156.90 156.90 138.8 214.20	73.2471933912	156.90	138.80	Sunny(sunny)	True	False	138.80
2010-06-25 19:00:00 34290 19 59.62 59.62 59.62 44.7 81.40	73.2471933912	59.62	44.70	Sunny(fair)	True	False	44.70
2010-06-25 20:00:00 34291 20 4.91 4.91 4.91 2.6 6.70	73.2471933912	4.91	2.60	Sunny(sunny)	True	False	2.60
2010-06-25 21:00:00 34292 21 0.00 0.00 0.00 0.0 0.00	73.2471933912	0.00	0.00	Clear(clear)	True	False	0.00
2010-06-25 22:00:00 34293 22 0.00 0.00 0.00 0.0 0.00	73.2471933912	0.00	0.00	Clear(mostly_cloudy)	True	False	0.00
2010-06-25 23:00:00 34294 23 0.00 0.00 0.00 0.0 0.00	73.2471933912	0.00	0.00	Clear(mostly_cloudy)	True	False	0.00
2010-06-26 00:00:00 34295 0 0.00 0.00 0.00 0.0 0.00	73.2471933912	0.00	0.00	Clear(clear)	True	False	0.00
2010-06-26 01:00:00 34296 1 0.00 0.00 0.00 0.0 0.00	73.2471933912	0.00	0.00	Clear(clear)	True	False	0.00
2010-06-26 02:00:00 34297 2 0.00 0.00 0.00 0.0 0.00	73.2471933912	0.00	0.00	Clear(clear)	True	False	0.00
2010-06-26 03:00:00 34298 3 0.00 0.00 0.00 0.0 0.00	73.2471933912	0.00	0.00	Clear(clear)	True	False	0.00
2010-06-26 04:00:00 34299 4 0.00 0.00 0.00 0.0 0.00	73.2471933912	0.00	0.00	Clear(fog)	True	False	0.00
2010-06-26 05:00:00 34300 5 1.32 1.32 1.32 0.0 1.80	73.2471933912	1.32	0.00	Clear(sunny)	True	False	0.00
2010-06-26 06:00:00 34301 6 53.84 53.84 53.84 42.1 73.50	73.2471933912	53.84	42.10	Sunny(sunny)	True	False	42.10
2010-06-26 07:00:00 34302 7 163.00 163.00 163.00 175.7 220.30	73.9900136178	163.00	175.70	Partly_Cloudy(sunny)	True	False	175.70
2010-06-26 08:00:00 34303 8 359.52 359.52 359.52 376.4 485.90	73.9900136178	359.52	376.40	Partly_Cloudy(sunny)	True	False	376.40
2010-06-26 09:00:00 34304 9 550.26 550.26 550.26 558.7 743.70	73.9900136178	550.26	558.70	Partly_Cloudy(sunny)	True	False	558.70
2010-06-26 10:00:00 34305 10 743.05 743.05 743.05 702.7 929.60	79.9316994777	743.05	702.70	Partly_Cloudy(sunny)	True	False	702.70
2010-06-26 11:00:00 34306 11 754.72 754.72 754.72 765.0 944.20	79.9316994777	754.72	765.00	Partly_Cloudy(sunny)	True	False	765.00
2010-06-26 12:00:00 34307 12 750.40 750.40 750.40 745.9 938.80	79.9316994777	750.40	745.90	Partly_Cloudy(sunny)	True	False	745.90
2010-06-26 13:00:00 34308 13 795.80 795.80 795.80 746.9 995.60	79.9316994777	795.80	746.90	Partly_Cloudy(sunny)	True	False	746.90
2010-06-26 14:00:00 34309 14 760.07 760.07 760.07 778.4 950.90	79.9316994777	760.07	778.40	Partly_Cloudy(sunny)	True	False	778.40
2010-06-26 15:00:00 34310 15 750.64 750.64 750.64 594.3 939.10	79.9316994777	750.64	594.30	Partly_Cloudy(fair)	True	False	594.30
2010-06-26 16:00:00 34311 16 512.75 512.75 512.75 398.0 693.00	73.9900136178	512.75	398.00	Partly_Cloudy(partly_cloudy)	True	False	398.00
2010-06-26 17:00:00 34312 17 358.63 358.63 358.63 252.0 484.70	73.9900136178	358.63	252.00	Partly_Cloudy(partly_cloudy)	True	False	252.00
2010-06-26 18:00:00 34313 18 158.49 158.49 158.49 103.7 214.20	73.9900136178	158.49	103.70	Partly_Cloudy(partly_cloudy)	True	False	103.70
2010-06-26 19:00:00 34314 19 60.23 60.23 60.23 17.6 81.40	73.9900136178	60.23	17.60	Partly_Cloudy(cloudy)	True	False	17.60
2010-06-26 20:00:00 34315 20 4.96 4.96 4.96 0.0 6.70	73.9900136178	4.96	0.00	Partly_Cloudy(mostly_cloudy)	True	False	0.00
2010-06-26 21:00:00 34316 21 0.00 0.00 0.00 0.0 0.00	73.9900136178	0.00	0.00	Partly_Cloudy(mostly_cloudy)	True	False	0.00
2010-06-26 22:00:00 34317 22 0.00 0.00 0.00 0.0 0.00	73.9900136178	0.00	0.00	Partly_Cloudy(mostly_cloudy)	True	False	0.00
