2010-06-29 20:00:00 40051 20 4.84 5.11 5.11 7.0 6.70	72.2217206825	5.11	7.00	Partly_Cloudy(sunny)	True	False	7.00
2010-06-29 21:00:00 40052 21 0.00 0.00 0.00 0.0 0.00	72.2217206825	0.00	0.00	Partly_Cloudy(clear)	True	False	0.00
2010-06-29 22:00:00 40053 22 0.00 0.00 0.00 0.0 0.00	76.2908777969	0.00	0.00	Mostly_Clear(fair)	False	False	0.00
2010-06-29 23:00:00 40054 23 0.00 0.00 0.00 0.0 0.00	76.2908777969	0.00	0.00	Mostly_Clear(clear)	False	False	0.00
2010-06-30 00:00:00 40055 0 0.00 0.00 0.00 0.0 0.00	76.2908777969	0.00	0.00	Mostly_Clear(clear)	False	False	0.00
2010-06-30 01:00:00 40056 1 0.00 0.00 0.00 0.0 0.00	72.2217206825	0.00	0.00	Partly_Cloudy(clear)	True	False	0.00
2010-06-30 02:00:00 40057 2 0.00 0.00 0.00 0.0 0.00	72.2217206825	0.00	0.00	Partly_Cloudy(clear)	True	False	0.00
2010-06-30 03:00:00 40058 3 0.00 0.00 0.00 0.0 0.00	72.2217206825	0.00	0.00	Partly_Cloudy(fair)	True	False	0.00
2010-06-30 04:00:00 40059 4 0.00 0.00 0.00 0.0 0.00	72.2217206825	0.00	0.00	Partly_Cloudy(clear)	True	False	0.00
2010-06-30 05:00:00 40060 5 1.30 1.30 1.30 0.1 1.80	72.2217206825	1.30	0.10	Partly_Cloudy(sunny)	True	False	0.10
2010-06-30 06:00:00 40061 6 56.12 56.12 56.12 33.4 77.70	72.2217206825	56.12	33.40	Partly_Cloudy(sunny)	True	False	33.40
2010-06-30 07:00:00 40062 7 161.03 161.03 161.03 181.0 220.30	73.0943432591	161.03	181.00	Sunny(sunny)	True	False	181.00
2010-06-30 08:00:00 40063 8 355.17 355.17 355.17 414.9 485.90	73.0943432591	355.17	414.90	Sunny(sunny)	True	False	414.90
2010-06-30 09:00:00 40064 9 543.60 543.60 543.60 617.1 743.70	73.0943432591	543.60	617.10	Sunny(sunny)	True	False	617.10
2010-06-30 10:00:00 40065 10 709.20 709.20 709.20 768.1 929.60	76.2908777969	709.20	768.10	Sunny(sunny)	True	False	768.10
2010-06-30 11:00:00 40066 11 791.67 791.67 791.67 861.7 1037.70	76.2908777969	791.67	861.70	Sunny(sunny)	True	False	861.70
2010-06-30 12:00:00 40067 12 838.44 838.44 838.44 906.5 1099.00	76.2908777969	838.44	906.50	Sunny(sunny)	True	False	906.50
2010-06-30 13:00:00 40068 13 845.07 845.07 845.07 909.6 1107.70	76.2908777969	845.07	909.60	Sunny(sunny)	True	False	909.60
2010-06-30 14:00:00 40069 14 808.99 808.99 808.99 870.8 1060.40	76.2908777969	808.99	870.80	Sunny(sunny)	True	False	870.80
2010-06-30 15:00:00 40070 15 716.45 716.45 716.45 774.3 939.10	76.2908777969	716.45	774.30	Sunny(sunny)	True	False	774.30
2010-06-30 16:00:00 40071 16 544.11 544.11 544.11 611.2 744.40	73.0943432591	544.11	611.20	Sunny(sunny)	True	False	611.20
2010-06-30 17:00:00 40072 17 354.29 354.29 354.29 380.9 484.70	73.0943432591	354.29	380.90	Sunny(sunny)	True	False	380.90
2010-06-30 18:00:00 40073 18 165.05 165.05 165.05 155.4 225.80	73.0943432591	165.05	155.40	Sunny(fair)	True	False	155.40
2010-06-30 19:00:00 40074 19 59.50 59.50 59.50 29.4 81.40	73.0943432591	59.50	29.40	Sunny(fair)	True	False	29.40
2010-06-30 20:00:00 40075 20 4.90 4.90 4.90 2.2 6.70	73.0943432591	4.90	2.20	Sunny(sunny)	True	False	2.20
2010-06-30 21:00:00 40076 21 0.00 0.00 0.00 0.0 0.00	73.0943432591	0.00	0.00	Clear(fair)	True	False	0.00
2010-06-30 22:00:00 40077 22 0.00 0.00 0.00 0.0 0.00	73.0943432591	0.00	0.00	Clear(clear)	True	False	0.00
2010-06-30 23:00:00 40078 23 0.00 0.00 0.00 0.0 0.00	73.0943432591	0.00	0.00	Clear(clear)	True	False	0.00
2010-07-01 00:00:00 40079 0 0.00 0.00 0.00 0.0 0.00	73.0943432591	0.00	0.00	Clear(cloudy)	True	False	0.00
2010-07-01 01:00:00 40080 1 0.00 0.00 0.00 0.0 0.00	73.0943432591	0.00	0.00	Clear(cloudy)	True	False	0.00
2010-07-01 02:00:00 40081 2 0.00 0.00 0.00 0.0 0.00	73.0943432591	0.00	0.00	Clear(cloudy)	True	False	0.00
2010-07-01 03:00:00 40082 3 0.00 0.00 0.00 0.0 0.00	73.0943432591	0.00	0.00	Clear(fair)	True	False	0.00
2010-07-01 04:00:00 40083 4 0.00 0.00 0.00 0.0 0.00	73.0943432591	0.00	0.00	Clear(partly_cloudy)	True	False	0.00
2010-07-01 05:00:00 40084 5 1.32 1.32 1.32 0.3 1.80	73.0943432591	1.32	0.30	Clear(fair)	True	False	0.30
2010-07-01 06:00:00 40085 6 56.79 56.79 56.79 31.2 77.70	73.0943432591	56.79	31.20	Sunny(sunny)	True	False	31.20
2010-07-01 07:00:00 40086 7 161.03 161.03 161.03 174.2 220.30	73.0943432591	161.03	174.20	Sunny(sunny)	True	False	174.20
2010-07-01 08:00:00 40087 8 355.17 355.17 355.17 404.9 485.90	73.0943432591	355.17	404.90	Sunny(sunny)	True	False	404.90
2010-07-01 09:00:00 40088 9 543.60 543.60 543.60 607.6 743.70	73.0943432591	543.60	607.60	Sunny(sunny)	True	False	607.60
2010-07-01 10:00:00 40089 10 709.20 709.20 709.20 746.7 929.60	76.2908777969	709.20	746.70	Sunny(sunny)	True	False	746.70
2010-07-01 11:00:00 40090 11 791.67 791.67 791.67 691.6 1037.70	76.2908777969	791.67	691.60	Sunny(sunny)	True	False	691.60
2010-07-01 12:00:00 40091 12 838.44 838.44 838.44 800.5 1099.00	76.2908777969	838.44	800.50	Sunny(mostly_cloudy)	True	False	800.50
2010-07-01 13:00:00 40092 13 845.07 845.07 845.07 780.3 1107.70	76.2908777969	845.07	780.30	Sunny(fair)	True	False	780.30
2010-07-01 14:00:00 40093 14 808.99 808.99 808.99 676.3 1060.40	76.2908777969	808.99	676.30	Sunny(partly_cloudy)	True	False	676.30
2010-07-01 15:00:00 40094 15 716.45 716.45 716.45 458.2 939.10	76.2908777969	716.45	458.20	Sunny(fair)	True	False	458.20
2010-07-01 16:00:00 40095 16 544.11 544.11 544.11 424.4 744.40	73.0943432591	544.11	424.40	Sunny(mostly_cloudy)	True	False	424.40
2010-07-01 17:00:00 40096 17 354.29 354.29 354.29 244.2 484.70	73.0943432591	354.29	244.20	Sunny(fair)	True	False	244.20
2010-07-01 18:00:00 40097 18 165.05 165.05 165.05 117.6 225.80	73.0943432591	165.05	117.60	Sunny(fair)	True	False	117.60
2010-07-01 19:00:00 40098 19 59.50 59.50 59.50 26.2 81.40	73.0943432591	59.50	26.20	Sunny(fair)	True	False	26.20
2010-07-01 20:00:00 40099 20 4.90 4.90 4.90 1.7 6.70	73.0943432591	4.90	1.70	Sunny(sunny)	True	False	1.70
