2010-07-18 12:00:00 62003 12 974.45 974.45 974.45 1019.8 1108.10	87.938972646	974.45	1019.80	Mostly_Sunny(partly_cloudy)	False	False	1019.80
2010-07-18 13:00:00 62004 13 974.10 974.10 974.10 974.1 1107.70	87.938972646	974.10	974.10	Mostly_Sunny(sunny)	False	False	974.10
2010-07-18 14:00:00 62005 14 932.50 932.50 932.50 767.6 1060.40	87.938972646	932.50	767.60	Mostly_Sunny(fair)	False	False	767.60
2010-07-18 15:00:00 62006 15 825.83 825.83 825.83 831.6 939.10	87.938972646	825.83	831.60	Mostly_Sunny(sunny)	False	False	831.60
2010-07-18 16:00:00 62007 16 667.37 667.37 667.37 566.3 758.90	87.938972646	667.37	566.30	Mostly_Sunny(sunny)	False	False	566.30
2010-07-18 17:00:00 62008 17 438.55 438.55 438.55 425.6 498.70	87.938972646	438.55	425.60	Mostly_Sunny(sunny)	False	False	425.60
2010-07-18 18:00:00 62009 18 198.57 198.57 198.57 195.5 225.80	87.938972646	198.57	195.50	Mostly_Sunny(sunny)	False	False	195.50
2010-07-18 19:00:00 62010 19 65.23 65.23 71.58 40.3 81.40	80.1350048216	71.58	40.30	Sunny(sunny)	True	False	40.30
2010-07-18 20:00:00 62011 20 5.45 5.45 5.98 0.5 6.80	80.1350048216	5.98	0.50	Sunny(sunny)	True	False	0.50
2010-07-18 21:00:00 62012 21 0.00 0.00 0.00 0.0 0.00	80.1350048216	0.00	0.00	Clear(clear)	True	False	0.00
2010-07-18 22:00:00 62013 22 0.00 0.00 0.00 0.0 0.00	80.1350048216	0.00	0.00	Clear(clear)	True	False	0.00
2010-07-18 23:00:00 62014 23 0.00 0.00 0.00 0.0 0.00	80.1350048216	0.00	0.00	Clear(partly_cloudy)	True	False	0.00
2010-07-19 00:00:00 62015 0 0.00 0.00 0.00 0.0 0.00	80.1350048216	0.00	0.00	Clear(partly_cloudy)	True	False	0.00
2010-07-19 01:00:00 62016 1 0.00 0.00 0.00 0.0 0.00	80.1350048216	0.00	0.00	Clear(partly_cloudy)	True	False	0.00
2010-07-19 02:00:00 62017 2 0.00 0.00 0.00 0.0 0.00	80.1350048216	0.00	0.00	Clear(mostly_cloudy)	True	False	0.00
2010-07-19 03:00:00 62018 3 0.00 0.00 0.00 0.0 0.00	80.1350048216	0.00	0.00	Clear(mostly_cloudy)	True	False	0.00
2010-07-19 04:00:00 62019 4 0.00 0.00 0.00 0.0 0.00	74.3959957648	0.00	0.00	Partly_Cloudy(fair)	True	False	0.00
2010-07-19 05:00:00 62020 5 0.07 0.07 0.07 0.0 0.10	74.3959957648	0.07	0.00	Partly_Cloudy(partly_cloudy)	True	False	0.00
2010-07-19 06:00:00 62021 6 57.81 57.81 57.81 31.8 77.70	74.3959957648	57.81	31.80	Partly_Cloudy(partly_cloudy)	True	False	31.80
2010-07-19 07:00:00 62022 7 154.30 154.30 154.30 168.5 207.40	74.3959957648	154.30	168.50	Partly_Cloudy(partly_cloudy)	True	False	168.50
2010-07-19 08:00:00 62023 8 361.49 361.49 361.49 328.2 485.90	74.3959957648	361.49	328.20	Partly_Cloudy(thunder)	True	False	328.20
2010-07-19 09:00:00 62024 9 554.32 554.32 554.32 188.2 745.10	74.3959957648	554.32	188.20	Partly_Cloudy(mostly_cloudy)	True	False	188.20
2010-07-19 10:00:00 62025 10 189.90 189.90 189.90 345.0 919.50	20.6525839306	189.90	345.00	Isolated_T-Storms(mostly_cloudy)	True	False	345.00
2010-07-19 11:00:00 62026 11 214.56 214.56 214.56 931.2 1038.90	20.6525839306	214.56	931.20	Isolated_T-Storms(partly_cloudy)	True	False	931.20
2010-07-19 12:00:00 62027 12 228.85 228.85 228.85 877.2 1108.10	20.6525839306	228.85	877.20	Isolated_T-Storms(fair)	True	False	877.20
2010-07-19 13:00:00 62028 13 228.77 228.77 228.77 984.8 1107.70	20.6525839306	228.77	984.80	Scattered_T-Storms(fair)	True	False	984.80
2010-07-19 14:00:00 62029 14 219.00 219.00 219.00 968.8 1060.40	20.6525839306	219.00	968.80	Scattered_T-Storms(partly_cloudy)	True	False	968.80
2010-07-19 15:00:00 62030 15 193.95 193.95 193.95 719.2 939.10	20.6525839306	193.95	719.20	Scattered_T-Storms(mostly_cloudy)	True	False	719.20
2010-07-19 16:00:00 62031 16 194.78 194.78 194.78 516.3 758.90	25.6667335071	194.78	516.30	Scattered_T-Storms(mostly_cloudy)	True	False	516.30
2010-07-19 17:00:00 62032 17 128.00 128.00 128.00 232.3 498.70	25.6667335071	128.00	232.30	Scattered_T-Storms(fair)	True	False	232.30
2010-07-19 18:00:00 62033 18 57.96 57.96 57.96 86.2 225.80	25.6667335071	57.96	86.20	Scattered_T-Storms(mostly_cloudy)	True	False	86.20
2010-07-19 19:00:00 62034 19 20.89 20.89 20.89 44.7 81.40	25.6667335071	20.89	44.70	Scattered_T-Storms(t-storm)	True	False	44.70
2010-07-19 20:00:00 62035 20 1.75 1.75 1.75 5.2 6.80	25.6667335071	1.75	5.20	Scattered_T-Storms(partly_cloudy)	True	False	5.20
2010-07-19 21:00:00 62036 21 0.00 0.00 0.00 0.0 0.00	25.6667335071	0.00	0.00	Scattered_T-Storms(heavy_t-storm)	True	False	0.00
2010-07-19 22:00:00 62037 22 0.00 0.00 0.00 0.0 0.00	25.6667335071	0.00	0.00	Isolated_T-Storms(fair)	True	False	0.00
2010-07-19 23:00:00 62038 23 0.00 0.00 0.00 0.0 0.00	25.6667335071	0.00	0.00	Isolated_T-Storms(fair)	True	False	0.00
2010-07-20 00:00:00 62039 0 0.00 0.00 0.00 0.0 0.00	25.6667335071	0.00	0.00	Isolated_T-Storms(fog)	True	False	0.00
2010-07-20 01:00:00 62040 1 0.00 0.00 0.00 0.0 0.00	25.6667335071	0.00	0.00	Mostly_Clear(clear)	False	False	0.00
2010-07-20 02:00:00 62041 2 0.00 0.00 0.00 0.0 0.00	25.6667335071	0.00	0.00	Mostly_Clear(partly_cloudy)	False	False	0.00
2010-07-20 03:00:00 62042 3 0.00 0.00 0.00 0.0 0.00	25.6667335071	0.00	0.00	Mostly_Clear(fog)	False	False	0.00
2010-07-20 04:00:00 62043 4 0.00 0.00 0.00 0.0 0.00	25.6667335071	0.00	0.00	Mostly_Clear(fog)	False	False	0.00
2010-07-20 05:00:00 62044 5 0.03 0.03 0.03 0.0 0.10	25.6667335071	0.03	0.00	Mostly_Clear(fog)	False	False	0.00
2010-07-20 06:00:00 62045 6 19.94 19.94 19.94 29.5 77.70	25.6667335071	19.94	29.50	Mostly_Sunny(mostly_cloudy)	False	False	29.50
2010-07-20 07:00:00 62046 7 53.23 53.23 53.23 168.7 207.40	25.6667335071	53.23	168.70	Mostly_Sunny(fog)	False	False	168.70
2010-07-20 08:00:00 62047 8 124.71 124.71 124.71 389.8 485.90	25.6667335071	124.71	389.80	Mostly_Sunny(partly_cloudy)	False	False	389.80
2010-07-20 09:00:00 62048 9 191.24 191.24 191.24 489.4 745.10	25.6667335071	191.24	489.40	Mostly_Sunny(sunny)	False	False	489.40
2010-07-20 10:00:00 62049 10 693.88 693.88 693.88 781.8 919.50	75.4625033842	693.88	781.80	Partly_Cloudy(fair)	True	False	781.80
2010-07-20 11:00:00 62050 11 783.98 783.98 783.98 614.1 1038.90	75.4625033842	783.98	614.10	Partly_Cloudy(partly_cloudy)	True	False	614.10
2010-07-20 12:00:00 62051 12 836.20 836.20 836.20 401.2 1108.10	75.4625033842	836.20	401.20	Partly_Cloudy(partly_cloudy)	True	False	401.20
