2010-07-10 19:00:00 52938 19 65.48 65.48 19.89 49.3 81.40	24.4288948343	19.89	49.30	Scattered_T-Storms(partly_cloudy)	True	False	49.30
2010-07-10 20:00:00 52939 20 4.12 4.12 1.66 0.8 6.80	24.4288948343	1.66	0.80	Scattered_T-Storms(fair)	True	False	0.80
2010-07-10 21:00:00 52940 21 0.00 0.00 0.00 0.0 0.00	24.4288948343	0.00	0.00	Scattered_T-Storms(fair)	True	False	0.00
2010-07-10 22:00:00 52941 22 0.00 0.00 0.00 0.0 0.00	24.4288948343	0.00	0.00	Isolated_T-Storms(fair)	True	False	0.00
2010-07-10 23:00:00 52942 23 0.00 0.00 0.00 0.0 0.00	24.4288948343	0.00	0.00	Isolated_T-Storms(partly_cloudy)	True	False	0.00
2010-07-11 00:00:00 52943 0 0.00 0.00 0.00 0.0 0.00	24.4288948343	0.00	0.00	Isolated_T-Storms(fair)	True	False	0.00
2010-07-11 01:00:00 52944 1 0.00 0.00 0.00 0.0 0.00	59.4021124104	0.00	0.00	Mostly_Cloudy(partly_cloudy)	True	False	0.00
2010-07-11 02:00:00 52945 2 0.00 0.00 0.00 0.0 0.00	59.4021124104	0.00	0.00	Mostly_Cloudy(mostly_cloudy)	True	False	0.00
2010-07-11 03:00:00 52946 3 0.00 0.00 0.00 0.0 0.00	59.4021124104	0.00	0.00	Mostly_Cloudy(fair)	True	False	0.00
2010-07-11 04:00:00 52947 4 0.00 0.00 0.00 0.0 0.00	73.8263950399	0.00	0.00	Partly_Cloudy(fair)	True	False	0.00
2010-07-11 05:00:00 52948 5 0.22 0.22 0.22 0.0 0.30	73.8263950399	0.22	0.00	Partly_Cloudy(partly_cloudy)	True	False	0.00
2010-07-11 06:00:00 52949 6 57.36 57.36 57.36 34.9 77.70	73.8263950399	57.36	34.90	Partly_Cloudy(partly_cloudy)	True	False	34.90
2010-07-11 07:00:00 52950 7 153.12 153.12 153.12 197.6 207.40	73.8263950399	153.12	197.60	Partly_Cloudy(fair)	True	False	197.60
2010-07-11 08:00:00 52951 8 358.72 358.72 358.72 420.7 485.90	73.8263950399	358.72	420.70	Partly_Cloudy(fair)	True	False	420.70
2010-07-11 09:00:00 52952 9 550.08 550.08 550.08 516.0 745.10	73.8263950399	550.08	516.00	Partly_Cloudy(fair)	True	False	516.00
2010-07-11 10:00:00 52953 10 678.83 678.83 678.83 629.8 919.50	73.8263950399	678.83	629.80	Mostly_Sunny(mostly_cloudy)	False	False	629.80
2010-07-11 11:00:00 52954 11 766.98 766.98 766.98 741.7 1038.90	73.8263950399	766.98	741.70	Mostly_Sunny(fair)	False	False	741.70
2010-07-11 12:00:00 52955 12 818.07 818.07 818.07 836.2 1108.10	73.8263950399	818.07	836.20	Mostly_Sunny(partly_cloudy)	False	False	836.20
2010-07-11 13:00:00 52956 13 817.77 817.77 817.77 400.6 1107.70	73.8263950399	817.77	400.60	Mostly_Sunny(fair)	False	False	400.60
2010-07-11 14:00:00 52957 14 782.86 782.86 782.86 311.1 1060.40	73.8263950399	782.86	311.10	Mostly_Sunny(fair)	False	False	311.10
2010-07-11 15:00:00 52958 15 693.30 693.30 693.30 206.1 939.10	73.8263950399	693.30	206.10	Mostly_Sunny(fair)	False	False	206.10
2010-07-11 16:00:00 52959 16 560.27 560.27 560.27 445.3 758.90	73.8263950399	560.27	445.30	Mostly_Sunny(fair)	False	False	445.30
2010-07-11 17:00:00 52960 17 368.17 368.17 368.17 452.3 498.70	73.8263950399	368.17	452.30	Mostly_Sunny(sunny)	False	False	452.30
2010-07-11 18:00:00 52961 18 166.70 166.70 166.70 219.8 225.80	73.8263950399	166.70	219.80	Mostly_Sunny(sunny)	False	False	219.80
2010-07-11 19:00:00 52962 19 62.73 62.73 62.73 37.2 81.40	77.0634814119	62.73	37.20	Sunny(sunny)	True	False	37.20
2010-07-11 20:00:00 52963 20 5.24 5.24 5.24 1.7 6.80	77.0634814119	5.24	1.70	Sunny(sunny)	True	False	1.70
2010-07-11 21:00:00 52964 21 0.00 0.00 0.00 0.0 0.00	77.0634814119	0.00	0.00	Clear(clear)	True	False	0.00
2010-07-11 22:00:00 52965 22 0.00 0.00 0.00 0.0 0.00	77.0634814119	0.00	0.00	Mostly_Clear(clear)	False	False	0.00
2010-07-11 23:00:00 52966 23 0.00 0.00 0.00 0.0 0.00	77.0634814119	0.00	0.00	Mostly_Clear(clear)	False	False	0.00
2010-07-12 00:00:00 52967 0 0.00 0.00 0.00 0.0 0.00	77.0634814119	0.00	0.00	Mostly_Clear(clear)	False	False	0.00
2010-07-12 01:00:00 52968 1 0.00 0.00 0.00 0.0 0.00	77.0634814119	0.00	0.00	Mostly_Clear(clear)	False	False	0.00
2010-07-12 02:00:00 52969 2 0.00 0.00 0.00 0.0 0.00	77.0634814119	0.00	0.00	Mostly_Clear(clear)	False	False	0.00
2010-07-12 03:00:00 52970 3 0.00 0.00 0.00 0.0 0.00	77.0634814119	0.00	0.00	Mostly_Clear(clear)	False	False	0.00
2010-07-12 04:00:00 52971 4 0.00 0.00 0.00 0.0 0.00	77.0634814119	0.00	0.00	Clear(fog)	True	False	0.00
2010-07-12 05:00:00 52972 5 0.23 0.23 0.23 0.0 0.30	77.0634814119	0.23	0.00	Clear(fair)	True	False	0.00
2010-07-12 06:00:00 52973 6 59.88 59.88 59.88 77.7 77.70	77.0634814119	59.88	77.70	Sunny(sunny)	True	False	77.70
2010-07-12 07:00:00 52974 7 159.83 159.83 159.83 186.0 207.40	77.0634814119	159.83	186.00	Sunny(sunny)	True	False	186.00
2010-07-12 08:00:00 52975 8 374.45 374.45 374.45 454.0 485.90	77.0634814119	374.45	454.00	Sunny(sunny)	True	False	454.00
2010-07-12 09:00:00 52976 9 574.20 574.20 574.20 518.0 745.10	77.0634814119	574.20	518.00	Sunny(sunny)	True	False	518.00
2010-07-12 10:00:00 52977 10 739.70 739.70 739.70 597.2 919.50	80.4459691252	739.70	597.20	Sunny(partly_cloudy)	True	False	597.20
2010-07-12 11:00:00 52978 11 835.75 835.75 835.75 898.0 1038.90	80.4459691252	835.75	898.00	Sunny(mostly_cloudy)	True	False	898.00
2010-07-12 12:00:00 52979 12 891.42 891.42 891.42 1031.2 1108.10	80.4459691252	891.42	1031.20	Sunny(partly_cloudy)	True	False	1031.20
2010-07-12 13:00:00 52980 13 891.10 891.10 891.10 927.1 1107.70	80.4459691252	891.10	927.10	Mostly_Sunny(fair)	False	False	927.10
2010-07-12 14:00:00 52981 14 853.05 853.05 853.05 907.1 1060.40	80.4459691252	853.05	907.10	Mostly_Sunny(sunny)	False	False	907.10
2010-07-12 15:00:00 52982 15 755.47 755.47 755.47 485.2 939.10	80.4459691252	755.47	485.20	Mostly_Sunny(sunny)	False	False	485.20
2010-07-12 16:00:00 52983 16 450.80 450.80 450.80 399.8 758.90	59.4021124104	450.80	399.80	Mostly_Cloudy(partly_cloudy)	True	False	399.80
2010-07-12 17:00:00 52984 17 296.24 296.24 296.24 220.2 498.70	59.4021124104	296.24	220.20	Mostly_Cloudy(mostly_cloudy)	True	False	220.20
2010-07-12 18:00:00 52985 18 134.13 134.13 134.13 71.7 225.80	59.4021124104	134.13	71.70	Mostly_Cloudy(mostly_cloudy)	True	False	71.70
2010-07-12 19:00:00 52986 19 60.09 60.09 60.09 9.2 81.40	73.8263950399	60.09	9.20	Partly_Cloudy(mostly_cloudy)	True	False	9.20
