2010-06-10 16:00:00 17511 16 672.05 672.05 672.05 302.0 716.10	76.7159199237	672.05	302.00	Partly_Cloudy(cloudy)	True	False	302.00
2010-06-10 17:00:00 17512 17 176.96 176.96 176.96 262.9 419.60	62.287564068	176.96	262.90	Mostly_Cloudy(partly_cloudy)	True	False	262.90
2010-06-10 18:00:00 17513 18 164.33 90.33 90.33 110.6 214.20	76.7159199237	90.33	110.60	Partly_Cloudy(cloudy)	True	False	110.60
2010-06-10 19:00:00 17514 19 40.97 22.52 22.52 18.3 53.40	76.7159199237	22.52	18.30	Partly_Cloudy(partly_cloudy)	True	False	18.30
2010-06-10 20:00:00 17515 20 2.69 1.48 1.48 0.0 3.50	76.7159199237	1.48	0.00	Partly_Cloudy(cloudy)	True	False	0.00
2010-06-10 21:00:00 17516 21 0.00 0.00 0.00 0.0 0.00	76.7159199237	0.00	0.00	Partly_Cloudy(mostly_cloudy)	True	False	0.00
2010-06-10 22:00:00 17517 22 0.00 0.00 0.00 0.0 0.00	76.7159199237	0.00	0.00	Partly_Cloudy(mostly_cloudy)	True	False	0.00
2010-06-10 23:00:00 17518 23 0.00 0.00 0.00 0.0 0.00	76.7159199237	0.00	0.00	Partly_Cloudy(fair)	True	False	0.00
2010-06-11 00:00:00 17519 0 0.00 0.00 0.00 0.0 0.00	76.7159199237	0.00	0.00	Partly_Cloudy(clear)	True	False	0.00
2010-06-11 01:00:00 17520 1 0.00 0.00 0.00 0.0 0.00	76.7159199237	0.00	0.00	Partly_Cloudy(clear)	True	False	0.00
2010-06-11 02:00:00 17521 2 0.00 0.00 0.00 0.0 0.00	76.7159199237	0.00	0.00	Partly_Cloudy(clear)	True	False	0.00
2010-06-11 03:00:00 17522 3 0.00 0.00 0.00 0.0 0.00	76.7159199237	0.00	0.00	Partly_Cloudy(clear)	True	False	0.00
2010-06-11 04:00:00 17523 4 0.00 0.00 0.00 0.0 0.00	76.7159199237	0.00	0.00	Partly_Cloudy(partly_cloudy)	True	False	0.00
2010-06-11 05:00:00 17524 5 1.38 1.38 1.38 3.2 1.80	76.7159199237	1.38	3.20	Partly_Cloudy(sunny)	True	False	3.20
2010-06-11 06:00:00 17525 6 56.39 56.39 56.39 101.3 73.50	76.7159199237	56.39	101.30	Partly_Cloudy(partly_cloudy)	True	False	101.30
2010-06-11 07:00:00 17526 7 190.64 190.64 190.64 293.1 248.50	76.7159199237	190.64	293.10	Partly_Cloudy(partly_cloudy)	True	False	293.10
2010-06-11 08:00:00 17527 8 407.98 407.98 407.98 509.2 531.80	76.7159199237	407.98	509.20	Partly_Cloudy(partly_cloudy)	True	False	509.20
2010-06-11 09:00:00 17528 9 568.77 568.77 568.77 704.0 741.40	76.7159199237	568.77	704.00	Partly_Cloudy(partly_cloudy)	True	False	704.00
2010-06-11 10:00:00 17529 10 514.91 514.91 514.91 689.2 929.60	55.3907586994	514.91	689.20	Mostly_Cloudy(partly_cloudy)	True	False	689.20
2010-06-11 11:00:00 17530 11 582.60 582.60 582.60 920.2 1051.80	55.3907586994	582.60	920.20	Mostly_Cloudy(mostly_cloudy)	True	False	920.20
2010-06-11 12:00:00 17531 12 606.09 606.09 606.09 789.5 1094.20	55.3907586994	606.09	789.50	Mostly_Cloudy(mostly_cloudy)	True	False	789.50
2010-06-11 13:00:00 17532 13 598.16 598.16 598.16 603.3 1079.90	55.3907586994	598.16	603.30	Mostly_Cloudy(mostly_cloudy)	True	False	603.30
2010-06-11 14:00:00 17533 14 561.00 561.00 561.00 696.8 1012.80	55.3907586994	561.00	696.80	Mostly_Cloudy(partly_cloudy)	True	False	696.80
2010-06-11 15:00:00 17534 15 489.38 489.38 489.38 541.1 883.50	55.3907586994	489.38	541.10	Mostly_Cloudy(partly_cloudy)	True	False	541.10
2010-06-11 16:00:00 17535 16 549.36 549.36 549.36 587.1 716.10	76.7159199237	549.36	587.10	Partly_Cloudy(mostly_cloudy)	True	False	587.10
2010-06-11 17:00:00 17536 17 321.90 321.90 321.90 366.7 419.60	76.7159199237	321.90	366.70	Partly_Cloudy(mostly_cloudy)	True	False	366.70
2010-06-11 18:00:00 17537 18 164.33 164.33 164.33 176.0 214.20	76.7159199237	164.33	176.00	Partly_Cloudy(fair)	True	False	176.00
2010-06-11 19:00:00 17538 19 40.97 40.97 40.97 36.7 53.40	76.7159199237	40.97	36.70	Partly_Cloudy(fair)	True	False	36.70
2010-06-11 20:00:00 17539 20 2.69 2.69 2.69 0.4 3.50	76.7159199237	2.69	0.40	Partly_Cloudy(sunny)	True	False	0.40
2010-06-11 21:00:00 17540 21 0.00 0.00 0.00 0.0 0.00	76.7159199237	0.00	0.00	Partly_Cloudy(fair)	True	False	0.00
2010-06-11 22:00:00 17541 22 0.00 0.00 0.00 0.0 0.00	76.7159199237	0.00	0.00	Partly_Cloudy(clear)	True	False	0.00
2010-06-11 23:00:00 17542 23 0.00 0.00 0.00 0.0 0.00	76.7159199237	0.00	0.00	Partly_Cloudy(clear)	True	False	0.00
2010-06-12 00:00:00 17543 0 0.00 0.00 0.00 0.0 0.00	76.7159199237	0.00	0.00	Partly_Cloudy(clear)	True	False	0.00
2010-06-12 01:00:00 17544 1 0.00 0.00 0.00 0.0 0.00	76.7159199237	0.00	0.00	Partly_Cloudy(clear)	True	False	0.00
2010-06-12 02:00:00 17545 2 0.00 0.00 0.00 0.0 0.00	76.7159199237	0.00	0.00	Partly_Cloudy(fair)	True	False	0.00
2010-06-12 03:00:00 17546 3 0.00 0.00 0.00 0.0 0.00	76.7159199237	0.00	0.00	Partly_Cloudy(mostly_cloudy)	True	False	0.00
2010-06-12 04:00:00 17547 4 0.00 0.00 0.00 0.0 0.00	62.287564068	0.00	0.00	Mostly_Cloudy(cloudy)	True	False	0.00
2010-06-12 05:00:00 17548 5 1.12 1.12 1.12 0.0 1.80	62.287564068	1.12	0.00	Mostly_Cloudy(cloudy)	True	False	0.00
2010-06-12 06:00:00 17549 6 45.78 45.78 45.78 46.8 73.50	62.287564068	45.78	46.80	Mostly_Cloudy(cloudy)	True	False	46.80
2010-06-12 07:00:00 17550 7 154.78 154.78 154.78 216.7 248.50	62.287564068	154.78	216.70	Mostly_Cloudy(cloudy)	True	False	216.70
2010-06-12 08:00:00 17551 8 331.25 331.25 331.25 313.5 531.80	62.287564068	331.25	313.50	Mostly_Cloudy(cloudy)	True	False	313.50
2010-06-12 09:00:00 17552 9 461.80 461.80 461.80 193.5 741.40	62.287564068	461.80	193.50	Mostly_Cloudy(mostly_cloudy)	True	False	193.50
2010-06-12 10:00:00 17553 10 735.25 735.25 735.25 716.2 929.60	79.0929834569	735.25	716.20	Partly_Cloudy(partly_cloudy)	True	False	716.20
2010-06-12 11:00:00 17554 11 831.90 831.90 831.90 536.9 1051.80	79.0929834569	831.90	536.90	Partly_Cloudy(mostly_cloudy)	True	False	536.90
2010-06-12 12:00:00 17555 12 865.44 865.44 865.44 500.5 1094.20	79.0929834569	865.44	500.50	Partly_Cloudy(partly_cloudy)	True	False	500.50
2010-06-12 13:00:00 17556 13 136.30 136.30 136.30 882.0 1079.90	12.6215390314	136.30	882.00	Scattered_T-Storms(mostly_cloudy)	True	False	882.00
2010-06-12 14:00:00 17557 14 127.83 127.83 127.83 686.9 1012.80	12.6215390314	127.83	686.90	Scattered_T-Storms(partly_cloudy)	True	False	686.90
2010-06-12 15:00:00 17558 15 111.51 111.51 111.51 645.9 883.50	12.6215390314	111.51	645.90	Scattered_T-Storms(partly_cloudy)	True	False	645.90
2010-06-12 16:00:00 17559 16 90.38 90.38 90.38 626.2 716.10	12.6215390314	90.38	626.20	Scattered_T-Storms(sunny)	True	False	626.20
