2010-06-14 01:00:00 21480 1 0.00 0.00 0.00 0.0 0.00	12.6215390314	0.00	0.00	Few_Showers(fog)	True	False	0.00
2010-06-14 02:00:00 21481 2 0.00 0.00 0.00 0.0 0.00	12.6215390314	0.00	0.00	Few_Showers(cloudy)	True	False	0.00
2010-06-14 03:00:00 21482 3 0.00 0.00 0.00 0.0 0.00	12.6215390314	0.00	0.00	Few_Showers(fog)	True	False	0.00
2010-06-14 04:00:00 21483 4 0.00 0.00 0.00 0.0 0.00	42.3436041083	0.00	0.00	Cloudy(cloudy)	True	False	0.00
2010-06-14 05:00:00 21484 5 0.76 0.76 0.76 0.0 1.80	42.3436041083	0.76	0.00	Cloudy(cloudy)	True	False	0.00
2010-06-14 06:00:00 21485 6 31.12 31.12 31.12 16.1 73.50	42.3436041083	31.12	16.10	Cloudy(light_rain)	True	False	16.10
2010-06-14 07:00:00 21486 7 105.22 105.22 105.22 76.0 248.50	42.3436041083	105.22	76.00	Cloudy(fog)	True	False	76.00
2010-06-14 08:00:00 21487 8 225.18 225.18 225.18 110.9 531.80	42.3436041083	225.18	110.90	Cloudy(cloudy)	True	False	110.90
2010-06-14 09:00:00 21488 9 304.92 304.92 304.92 168.0 720.10	42.3436041083	304.92	168.00	Cloudy(cloudy)	True	False	168.00
2010-06-14 10:00:00 21489 10 454.86 454.86 454.86 287.6 929.60	48.9304565238	454.86	287.60	Cloudy(cloudy)	True	False	287.60
2010-06-14 11:00:00 21490 11 514.65 514.65 514.65 320.2 1051.80	48.9304565238	514.65	320.20	Cloudy(cloudy)	True	False	320.20
2010-06-14 12:00:00 21491 12 535.40 535.40 535.40 489.2 1094.20	48.9304565238	535.40	489.20	Cloudy(cloudy)	True	False	489.20
2010-06-14 13:00:00 21492 13 528.40 528.40 528.40 755.2 1079.90	48.9304565238	528.40	755.20	Cloudy(cloudy)	True	False	755.20
2010-06-14 14:00:00 21493 14 495.57 495.57 495.57 653.5 1012.80	48.9304565238	495.57	653.50	Cloudy(mostly_cloudy)	True	False	653.50
2010-06-14 15:00:00 21494 15 432.30 432.30 432.30 444.1 883.50	48.9304565238	432.30	444.10	Cloudy(cloudy)	True	False	444.10
2010-06-14 16:00:00 21495 16 448.97 448.97 448.97 412.2 716.10	62.6961770624	448.97	412.20	Mostly_Cloudy(mostly_cloudy)	True	False	412.20
2010-06-14 17:00:00 21496 17 267.34 267.34 267.34 211.2 426.40	62.6961770624	267.34	211.20	Mostly_Cloudy(partly_cloudy)	True	False	211.20
2010-06-14 18:00:00 21497 18 134.30 134.30 134.30 97.6 214.20	62.6961770624	134.30	97.60	Mostly_Cloudy(cloudy)	True	False	97.60
2010-06-14 19:00:00 21498 19 38.94 38.94 38.94 47.7 53.40	72.92383821	38.94	47.70	Partly_Cloudy(mostly_cloudy)	True	False	47.70
2010-06-14 20:00:00 21499 20 2.55 2.55 2.55 2.5 3.50	72.92383821	2.55	2.50	Partly_Cloudy(partly_cloudy)	True	False	2.50
2010-06-14 21:00:00 21500 21 0.00 0.00 0.00 0.0 0.00	72.92383821	0.00	0.00	Partly_Cloudy(clear)	True	False	0.00
2010-06-14 22:00:00 21501 22 0.00 0.00 0.00 0.0 0.00	12.6215390314	0.00	0.00	Few_Showers(clear)	True	False	0.00
2010-06-14 23:00:00 21502 23 0.00 0.00 0.00 0.0 0.00	12.6215390314	0.00	0.00	Few_Showers(clear)	True	False	0.00
2010-06-15 00:00:00 21503 0 0.00 0.00 0.00 0.0 0.00	12.6215390314	0.00	0.00	Few_Showers(clear)	True	False	0.00
2010-06-15 01:00:00 21504 1 0.00 0.00 0.00 0.0 0.00	42.3436041083	0.00	0.00	Cloudy(clear)	True	False	0.00
2010-06-15 02:00:00 21505 2 0.00 0.00 0.00 0.0 0.00	42.3436041083	0.00	0.00	Cloudy(fair)	True	False	0.00
2010-06-15 03:00:00 21506 3 0.00 0.00 0.00 0.0 0.00	42.3436041083	0.00	0.00	Cloudy(clear)	True	False	0.00
2010-06-15 04:00:00 21507 4 0.00 0.00 0.00 0.0 0.00	42.3436041083	0.00	0.00	Cloudy(clear)	True	False	0.00
2010-06-15 05:00:00 21508 5 0.76 0.76 0.76 0.0 1.80	42.3436041083	0.76	0.00	Cloudy(fair)	True	False	0.00
2010-06-15 06:00:00 21509 6 31.12 31.12 31.12 45.9 73.50	42.3436041083	31.12	45.90	Cloudy(partly_cloudy)	True	False	45.90
2010-06-15 07:00:00 21510 7 155.80 155.80 155.80 225.9 248.50	62.6961770624	155.80	225.90	Mostly_Cloudy(sunny)	True	False	225.90
2010-06-15 08:00:00 21511 8 333.42 333.42 333.42 505.2 531.80	62.6961770624	333.42	505.20	Mostly_Cloudy(fair)	True	False	505.20
2010-06-15 09:00:00 21512 9 451.48 451.48 451.48 755.8 720.10	62.6961770624	451.48	755.80	Mostly_Cloudy(sunny)	True	False	755.80
2010-06-15 10:00:00 21513 10 710.75 710.75 710.75 935.8 929.60	76.4572722128	710.75	935.80	Partly_Cloudy(sunny)	True	False	935.80
2010-06-15 11:00:00 21514 11 804.18 804.18 804.18 1041.9 1051.80	76.4572722128	804.18	1041.90	Partly_Cloudy(sunny)	True	False	1041.90
2010-06-15 12:00:00 21515 12 836.60 836.60 836.60 1082.1 1094.20	76.4572722128	836.60	1082.10	Partly_Cloudy(sunny)	True	False	1082.10
2010-06-15 13:00:00 21516 13 825.66 825.66 825.66 1084.8 1079.90	76.4572722128	825.66	1084.80	Partly_Cloudy(sunny)	True	False	1084.80
2010-06-15 14:00:00 21517 14 774.36 774.36 774.36 1016.8 1012.80	76.4572722128	774.36	1016.80	Partly_Cloudy(sunny)	True	False	1016.80
2010-06-15 15:00:00 21518 15 675.50 675.50 675.50 895.8 883.50	76.4572722128	675.50	895.80	Partly_Cloudy(sunny)	True	False	895.80
2010-06-15 16:00:00 21519 16 522.21 522.21 522.21 710.0 716.10	72.92383821	522.21	710.00	Partly_Cloudy(fair)	True	False	710.00
2010-06-15 17:00:00 21520 17 310.95 310.95 310.95 448.1 426.40	72.92383821	310.95	448.10	Partly_Cloudy(sunny)	True	False	448.10
2010-06-15 18:00:00 21521 18 156.20 156.20 156.20 184.4 214.20	72.92383821	156.20	184.40	Partly_Cloudy(sunny)	True	False	184.40
2010-06-15 19:00:00 21522 19 38.94 38.94 38.94 44.0 53.40	72.92383821	38.94	44.00	Partly_Cloudy(sunny)	True	False	44.00
2010-06-15 20:00:00 21523 20 2.55 2.55 2.55 1.9 3.50	72.92383821	2.55	1.90	Partly_Cloudy(sunny)	True	False	1.90
2010-06-15 21:00:00 21524 21 0.00 0.00 0.00 0.0 0.00	72.92383821	0.00	0.00	Partly_Cloudy(clear)	True	False	0.00
2010-06-15 22:00:00 21525 22 0.00 0.00 0.00 0.0 0.00	62.6961770624	0.00	0.00	Mostly_Cloudy(clear)	True	False	0.00
2010-06-15 23:00:00 21526 23 0.00 0.00 0.00 0.0 0.00	62.6961770624	0.00	0.00	Mostly_Cloudy(clear)	True	False	0.00
2010-06-16 00:00:00 21527 0 0.00 0.00 0.00 0.0 0.00	62.6961770624	0.00	0.00	Mostly_Cloudy(clear)	True	False	0.00
2010-06-16 01:00:00 21528 1 0.00 0.00 0.00 0.0 0.00	62.6961770624	0.00	0.00	Mostly_Cloudy(clear)	True	False	0.00
