2010-07-14 08:00:00 57103 8 110.75 110.75 110.75 118.7 485.90	22.7933391087	110.75	118.70	Rain_/_Thunder(light_rain)	True	False	118.70
2010-07-14 09:00:00 57104 9 169.83 169.83 169.83 272.1 745.10	22.7933391087	169.83	272.10	Rain_/_Thunder(light_rain)	True	False	272.10
2010-07-14 10:00:00 57105 10 209.58 209.58 209.58 508.0 919.50	22.7933391087	209.58	508.00	Rain_/_Thunder(rain)	True	False	508.00
2010-07-14 11:00:00 57106 11 236.80 236.80 236.80 635.2 1038.90	22.7933391087	236.80	635.20	Rain_/_Thunder(light_rain)	True	False	635.20
2010-07-14 12:00:00 57107 12 252.57 252.57 252.57 410.0 1108.10	22.7933391087	252.57	410.00	Rain_/_Thunder(light_rain)	True	False	410.00
2010-07-14 13:00:00 57108 13 230.09 230.09 230.09 110.6 1107.70	20.7721587819	230.09	110.60	Scattered_T-Storms(cloudy)	True	False	110.60
2010-07-14 14:00:00 57109 14 220.27 220.27 220.27 219.0 1060.40	20.7721587819	220.27	219.00	Scattered_T-Storms(light_rain)	True	False	219.00
2010-07-14 15:00:00 57110 15 195.07 195.07 195.07 61.9 939.10	20.7721587819	195.07	61.90	Scattered_T-Storms(cloudy)	True	False	61.90
2010-07-14 16:00:00 57111 16 207.71 207.71 207.71 122.2 758.90	27.3693534101	207.71	122.20	Scattered_T-Storms(cloudy)	True	False	122.20
2010-07-14 17:00:00 57112 17 136.49 136.49 136.49 161.6 498.70	27.3693534101	136.49	161.60	Scattered_T-Storms(mostly_cloudy)	True	False	161.60
2010-07-14 18:00:00 57113 18 61.80 61.80 61.80 125.7 225.80	27.3693534101	61.80	125.70	Scattered_T-Storms(mostly_cloudy)	True	False	125.70
2010-07-14 19:00:00 57114 19 22.28 22.28 22.28 51.3 81.40	27.3693534101	22.28	51.30	Scattered_T-Storms(mostly_cloudy)	True	False	51.30
2010-07-14 20:00:00 57115 20 1.86 1.86 1.86 6.8 6.80	27.3693534101	1.86	6.80	Scattered_T-Storms(mostly_cloudy)	True	False	6.80
2010-07-14 21:00:00 57116 21 0.00 0.00 0.00 0.0 0.00	27.3693534101	0.00	0.00	Scattered_T-Storms(cloudy)	True	False	0.00
2010-07-14 22:00:00 57117 22 0.00 0.00 0.00 0.0 0.00	27.3693534101	0.00	0.00	Isolated_T-Storms(partly_cloudy)	True	False	0.00
2010-07-14 23:00:00 57118 23 0.00 0.00 0.00 0.0 0.00	27.3693534101	0.00	0.00	Isolated_T-Storms(fair)	True	False	0.00
2010-07-15 00:00:00 57119 0 0.00 0.00 0.00 0.0 0.00	27.3693534101	0.00	0.00	Isolated_T-Storms(clear)	True	False	0.00
2010-07-15 01:00:00 57120 1 0.00 0.00 0.00 0.0 0.00	27.3693534101	0.00	0.00	Mostly_Clear(fog)	False	False	0.00
2010-07-15 02:00:00 57121 2 0.00 0.00 0.00 0.0 0.00	27.3693534101	0.00	0.00	Mostly_Clear(cloudy)	False	False	0.00
2010-07-15 03:00:00 57122 3 0.00 0.00 0.00 0.0 0.00	27.3693534101	0.00	0.00	Mostly_Clear(partly_cloudy)	False	False	0.00
2010-07-15 04:00:00 57123 4 0.00 0.00 0.00 0.0 0.00	79.1986282826	0.00	0.00	Clear(fair)	True	False	0.00
2010-07-15 05:00:00 57124 5 0.24 0.24 0.24 0.0 0.30	79.1986282826	0.24	0.00	Clear(clear)	True	False	0.00
2010-07-15 06:00:00 57125 6 61.54 61.54 61.54 10.1 77.70	79.1986282826	61.54	10.10	Sunny(cloudy)	True	False	10.10
2010-07-15 07:00:00 57126 7 164.26 164.26 164.26 141.2 207.40	79.1986282826	164.26	141.20	Sunny(cloudy)	True	False	141.20
2010-07-15 08:00:00 57127 8 384.83 384.83 384.83 247.0 485.90	79.1986282826	384.83	247.00	Sunny(partly_cloudy)	True	False	247.00
2010-07-15 09:00:00 57128 9 590.11 590.11 590.11 232.3 745.10	79.1986282826	590.11	232.30	Sunny(cloudy)	True	False	232.30
2010-07-15 10:00:00 57129 10 693.88 693.88 693.88 427.8 919.50	75.4625033842	693.88	427.80	Partly_Cloudy(cloudy)	True	False	427.80
2010-07-15 11:00:00 57130 11 783.98 783.98 783.98 590.3 1038.90	75.4625033842	783.98	590.30	Partly_Cloudy(mostly_cloudy)	True	False	590.30
2010-07-15 12:00:00 57131 12 836.20 836.20 836.20 575.1 1108.10	75.4625033842	836.20	575.10	Partly_Cloudy(fair)	True	False	575.10
2010-07-15 13:00:00 57132 13 835.90 835.90 835.90 499.9 1107.70	75.4625033842	835.90	499.90	Partly_Cloudy(fair)	True	False	499.90
2010-07-15 14:00:00 57133 14 800.20 800.20 800.20 671.5 1060.40	75.4625033842	800.20	671.50	Partly_Cloudy(mostly_cloudy)	True	False	671.50
2010-07-15 15:00:00 57134 15 708.67 708.67 708.67 723.7 939.10	75.4625033842	708.67	723.70	Partly_Cloudy(partly_cloudy)	True	False	723.70
2010-07-15 16:00:00 57135 16 564.59 564.59 564.59 629.9 758.90	74.3959957648	564.59	629.90	Partly_Cloudy(fair)	True	False	629.90
2010-07-15 17:00:00 57136 17 371.01 371.01 371.01 371.2 498.70	74.3959957648	371.01	371.20	Partly_Cloudy(fair)	True	False	371.20
2010-07-15 18:00:00 57137 18 167.99 167.99 167.99 190.2 225.80	74.3959957648	167.99	190.20	Partly_Cloudy(fair)	True	False	190.20
2010-07-15 19:00:00 57138 19 60.56 60.56 60.56 32.3 81.40	74.3959957648	60.56	32.30	Partly_Cloudy(fair)	True	False	32.30
2010-07-15 20:00:00 57139 20 5.06 5.06 5.06 0.0 6.80	74.3959957648	5.06	0.00	Partly_Cloudy(sunny)	True	False	0.00
2010-07-15 21:00:00 57140 21 0.00 0.00 0.00 0.0 0.00	74.3959957648	0.00	0.00	Partly_Cloudy(clear)	True	False	0.00
2010-07-15 22:00:00 57141 22 0.00 0.00 0.00 0.0 0.00	74.3959957648	0.00	0.00	Mostly_Clear(clear)	False	False	0.00
2010-07-15 23:00:00 57142 23 0.00 0.00 0.00 0.0 0.00	74.3959957648	0.00	0.00	Mostly_Clear(fair)	False	False	0.00
2010-07-16 00:00:00 57143 0 0.00 0.00 0.00 0.0 0.00	74.3959957648	0.00	0.00	Mostly_Clear(clear)	False	False	0.00
2010-07-16 01:00:00 57144 1 0.00 0.00 0.00 0.0 0.00	79.1986282826	0.00	0.00	Clear(partly_cloudy)	True	False	0.00
2010-07-16 02:00:00 57145 2 0.00 0.00 0.00 0.0 0.00	79.1986282826	0.00	0.00	Clear(cloudy)	True	False	0.00
2010-07-16 03:00:00 57146 3 0.00 0.00 0.00 0.0 0.00	79.1986282826	0.00	0.00	Clear(cloudy)	True	False	0.00
2010-07-16 04:00:00 57147 4 0.00 0.00 0.00 0.0 0.00	79.1986282826	0.00	0.00	Clear(cloudy)	True	False	0.00
2010-07-16 05:00:00 57148 5 0.24 0.24 0.24 0.0 0.30	79.1986282826	0.24	0.00	Clear(cloudy)	True	False	0.00
2010-07-16 06:00:00 57149 6 61.54 61.54 61.54 14.2 77.70	79.1986282826	61.54	14.20	Sunny(cloudy)	True	False	14.20
2010-07-16 07:00:00 57150 7 154.30 154.30 154.30 146.1 207.40	74.3959957648	154.30	146.10	Partly_Cloudy(fair)	True	False	146.10
2010-07-16 08:00:00 57151 8 361.49 361.49 361.49 374.5 485.90	74.3959957648	361.49	374.50	Partly_Cloudy(cloudy)	True	False	374.50
