2010-06-12 07:00:00 19422 7 225.10 225.10 225.10 216.7 248.50	90.5829088851	225.10	216.70	Mostly_Sunny(cloudy)	False	False	216.70
2010-06-12 08:00:00 19423 8 463.75 463.75 463.75 313.5 531.80	90.5829088851	463.75	313.50	Mostly_Sunny(cloudy)	False	False	313.50
2010-06-12 09:00:00 19424 9 652.29 652.29 652.29 193.5 720.10	90.5829088851	652.29	193.50	Mostly_Sunny(mostly_cloudy)	False	False	193.50
2010-06-12 10:00:00 19425 10 698.50 698.50 698.50 716.2 929.60	75.1398450947	698.50	716.20	Partly_Cloudy(partly_cloudy)	True	False	716.20
2010-06-12 11:00:00 19426 11 790.32 790.32 790.32 536.9 1051.80	75.1398450947	790.32	536.90	Partly_Cloudy(mostly_cloudy)	True	False	536.90
2010-06-12 12:00:00 19427 12 822.18 822.18 822.18 500.5 1094.20	75.1398450947	822.18	500.50	Partly_Cloudy(partly_cloudy)	True	False	500.50
2010-06-12 13:00:00 19428 13 598.16 598.16 598.16 882.0 1079.90	55.3907586994	598.16	882.00	Mostly_Cloudy(mostly_cloudy)	True	False	882.00
2010-06-12 14:00:00 19429 14 561.00 561.00 561.00 686.9 1012.80	55.3907586994	561.00	686.90	Mostly_Cloudy(partly_cloudy)	True	False	686.90
2010-06-12 15:00:00 19430 15 489.38 489.38 489.38 645.9 883.50	55.3907586994	489.38	645.90	Mostly_Cloudy(partly_cloudy)	True	False	645.90
2010-06-12 16:00:00 19431 16 435.83 435.83 435.83 626.2 716.10	60.861423221	435.83	626.20	Mostly_Cloudy(sunny)	True	False	626.20
2010-06-12 17:00:00 19432 17 259.51 259.51 259.51 410.0 426.40	60.861423221	259.51	410.00	Mostly_Cloudy(fair)	True	False	410.00
2010-06-12 18:00:00 19433 18 130.37 130.37 130.37 160.5 214.20	60.861423221	130.37	160.50	Mostly_Cloudy(fair)	True	False	160.50
2010-06-12 19:00:00 19434 19 6.74 6.74 6.74 42.1 53.40	12.6215390314	6.74	42.10	Isolated_T-Storms(sunny)	True	False	42.10
2010-06-12 20:00:00 19435 20 0.44 0.44 0.44 2.2 3.50	12.6215390314	0.44	2.20	Isolated_T-Storms(fair)	True	False	2.20
2010-06-12 21:00:00 19436 21 0.00 0.00 0.00 0.0 0.00	12.6215390314	0.00	0.00	Isolated_T-Storms(fair)	True	False	0.00
2010-06-12 22:00:00 19437 22 0.00 0.00 0.00 0.0 0.00	12.6215390314	0.00	0.00	Scattered_T-Storms(partly_cloudy)	True	False	0.00
2010-06-12 23:00:00 19438 23 0.00 0.00 0.00 0.0 0.00	12.6215390314	0.00	0.00	Scattered_T-Storms(clear)	True	False	0.00
2010-06-13 00:00:00 19439 0 0.00 0.00 0.00 0.0 0.00	12.6215390314	0.00	0.00	Scattered_T-Storms(clear)	True	False	0.00
2010-06-13 01:00:00 19440 1 0.00 0.00 0.00 0.0 0.00	12.6215390314	0.00	0.00	Scattered_T-Storms(clear)	True	False	0.00
2010-06-13 02:00:00 19441 2 0.00 0.00 0.00 0.0 0.00	12.6215390314	0.00	0.00	Scattered_T-Storms(mostly_cloudy)	True	False	0.00
2010-06-13 03:00:00 19442 3 0.00 0.00 0.00 0.0 0.00	12.6215390314	0.00	0.00	Scattered_T-Storms(clear)	True	False	0.00
2010-06-13 04:00:00 19443 4 0.00 0.00 0.00 0.0 0.00	12.6215390314	0.00	0.00	Scattered_T-Storms(fair)	True	False	0.00
2010-06-13 05:00:00 19444 5 0.23 0.23 0.23 0.0 1.80	12.6215390314	0.23	0.00	Scattered_T-Storms(cloudy)	True	False	0.00
2010-06-13 06:00:00 19445 6 9.28 9.28 9.28 14.8 73.50	12.6215390314	9.28	14.80	Scattered_T-Storms(partly_cloudy)	True	False	14.80
2010-06-13 07:00:00 19446 7 31.36 31.36 31.36 156.1 248.50	12.6215390314	31.36	156.10	Scattered_T-Storms(partly_cloudy)	True	False	156.10
2010-06-13 08:00:00 19447 8 67.12 67.12 67.12 333.0 531.80	12.6215390314	67.12	333.00	Scattered_T-Storms(partly_cloudy)	True	False	333.00
2010-06-13 09:00:00 19448 9 90.89 90.89 90.89 670.4 720.10	12.6215390314	90.89	670.40	Scattered_T-Storms(partly_cloudy)	True	False	670.40
2010-06-13 10:00:00 19449 10 117.33 117.33 117.33 814.2 929.60	12.6215390314	117.33	814.20	Isolated_T-Storms(sunny)	True	False	814.20
2010-06-13 11:00:00 19450 11 132.75 132.75 132.75 751.8 1051.80	12.6215390314	132.75	751.80	Isolated_T-Storms(sunny)	True	False	751.80
2010-06-13 12:00:00 19451 12 138.10 138.10 138.10 826.3 1094.20	12.6215390314	138.10	826.30	Isolated_T-Storms(partly_cloudy)	True	False	826.30
2010-06-13 13:00:00 19452 13 136.30 136.30 136.30 778.2 1079.90	12.6215390314	136.30	778.20	Scattered_T-Storms(partly_cloudy)	True	False	778.20
2010-06-13 14:00:00 19453 14 127.83 127.83 127.83 353.6 1012.80	12.6215390314	127.83	353.60	Scattered_T-Storms(light_rain)	True	False	353.60
2010-06-13 15:00:00 19454 15 111.51 111.51 111.51 44.6 883.50	12.6215390314	111.51	44.60	Scattered_T-Storms(light_rain)	True	False	44.60
2010-06-13 16:00:00 19455 16 90.38 90.38 90.38 341.9 716.10	12.6215390314	90.38	341.90	Scattered_T-Storms(light_rain)	True	False	341.90
2010-06-13 17:00:00 19456 17 53.82 53.82 53.82 61.0 426.40	12.6215390314	53.82	61.00	Scattered_T-Storms(cloudy)	True	False	61.00
2010-06-13 18:00:00 19457 18 27.04 27.04 27.04 44.4 214.20	12.6215390314	27.04	44.40	Scattered_T-Storms(heavy_rain)	True	False	44.40
2010-06-13 19:00:00 19458 19 6.74 6.74 6.74 21.7 53.40	12.6215390314	6.74	21.70	Scattered_T-Storms(light_rain)	True	False	21.70
2010-06-13 20:00:00 19459 20 0.44 0.44 0.44 0.2 3.50	12.6215390314	0.44	0.20	Scattered_T-Storms(fog)	True	False	0.20
2010-06-13 21:00:00 19460 21 0.00 0.00 0.00 0.0 0.00	12.6215390314	0.00	0.00	Scattered_T-Storms(cloudy)	True	False	0.00
2010-06-13 22:00:00 19461 22 0.00 0.00 0.00 0.0 0.00	12.6215390314	0.00	0.00	Isolated_T-Storms(cloudy)	True	False	0.00
2010-06-13 23:00:00 19462 23 0.00 0.00 0.00 0.0 0.00	12.6215390314	0.00	0.00	Isolated_T-Storms(fog)	True	False	0.00
2010-06-14 00:00:00 19463 0 0.00 0.00 0.00 0.0 0.00	12.6215390314	0.00	0.00	Isolated_T-Storms(rain)	True	False	0.00
2010-06-14 01:00:00 19464 1 0.00 0.00 0.00 0.0 0.00	75.1398450947	0.00	0.00	Partly_Cloudy(fog)	True	False	0.00
2010-06-14 02:00:00 19465 2 0.00 0.00 0.00 0.0 0.00	75.1398450947	0.00	0.00	Partly_Cloudy(cloudy)	True	False	0.00
2010-06-14 03:00:00 19466 3 0.00 0.00 0.00 0.0 0.00	75.1398450947	0.00	0.00	Partly_Cloudy(fog)	True	False	0.00
2010-06-14 04:00:00 19467 4 0.00 0.00 0.00 0.0 0.00	60.861423221	0.00	0.00	Mostly_Cloudy(cloudy)	True	False	0.00
2010-06-14 05:00:00 19468 5 1.10 1.10 1.10 0.0 1.80	60.861423221	1.10	0.00	Mostly_Cloudy(cloudy)	True	False	0.00
2010-06-14 06:00:00 19469 6 44.73 44.73 44.73 16.1 73.50	60.861423221	44.73	16.10	Mostly_Cloudy(light_rain)	True	False	16.10
2010-06-14 07:00:00 19470 7 151.24 151.24 151.24 76.0 248.50	60.861423221	151.24	76.00	Mostly_Cloudy(fog)	True	False	76.00
