2010-07-07 02:00:00 48577 2 0.00 0.00 0.00 0.0 0.00	76.8890172298	0.00	0.00	Clear(fair)	True	False	0.00
2010-07-07 03:00:00 48578 3 0.00 0.00 0.00 0.0 0.00	76.8890172298	0.00	0.00	Clear(fair)	True	False	0.00
2010-07-07 04:00:00 48579 4 0.00 0.00 0.00 0.0 0.00	76.8890172298	0.00	0.00	Clear(cloudy)	True	False	0.00
2010-07-07 05:00:00 48580 5 0.23 0.23 0.23 0.0 0.30	76.8890172298	0.23	0.00	Clear(partly_cloudy)	True	False	0.00
2010-07-07 06:00:00 48581 6 59.74 59.74 59.74 41.1 77.70	76.8890172298	59.74	41.10	Sunny(mostly_cloudy)	True	False	41.10
2010-07-07 07:00:00 48582 7 159.47 159.47 159.47 155.3 207.40	76.8890172298	159.47	155.30	Sunny(partly_cloudy)	True	False	155.30
2010-07-07 08:00:00 48583 8 373.60 373.60 373.60 350.2 485.90	76.8890172298	373.60	350.20	Sunny(fair)	True	False	350.20
2010-07-07 09:00:00 48584 9 572.90 572.90 572.90 521.5 745.10	76.8890172298	572.90	521.50	Sunny(sunny)	True	False	521.50
2010-07-07 10:00:00 48585 10 733.30 733.30 733.30 656.0 919.50	79.7498640566	733.30	656.00	Sunny(sunny)	True	False	656.00
2010-07-07 11:00:00 48586 11 828.52 828.52 828.52 758.5 1038.90	79.7498640566	828.52	758.50	Sunny(sunny)	True	False	758.50
2010-07-07 12:00:00 48587 12 883.71 883.71 883.71 803.8 1108.10	79.7498640566	883.71	803.80	Sunny(sunny)	True	False	803.80
2010-07-07 13:00:00 48588 13 883.39 883.39 883.39 226.6 1107.70	79.7498640566	883.39	226.60	Sunny(sunny)	True	False	226.60
2010-07-07 14:00:00 48589 14 845.67 845.67 845.67 5.3 1060.40	79.7498640566	845.67	5.30	Sunny(fair)	True	False	5.30
2010-07-07 15:00:00 48590 15 748.93 748.93 748.93 646.8 939.10	79.7498640566	748.93	646.80	Sunny(fair)	True	False	646.80
2010-07-07 16:00:00 48591 16 605.22 605.22 605.22 505.8 758.90	79.7498640566	605.22	505.80	Mostly_Sunny(fair)	False	False	505.80
2010-07-07 17:00:00 48592 17 397.71 397.71 397.71 312.2 498.70	79.7498640566	397.71	312.20	Mostly_Sunny(fair)	False	False	312.20
2010-07-07 18:00:00 48593 18 180.08 180.08 180.08 141.8 225.80	79.7498640566	180.08	141.80	Mostly_Sunny(mostly_cloudy)	False	False	141.80
2010-07-07 19:00:00 48594 19 64.92 64.92 64.92 41.0 81.40	79.7498640566	64.92	41.00	Mostly_Sunny(fair)	False	False	41.00
2010-07-07 20:00:00 48595 20 5.42 5.42 5.42 2.6 6.80	79.7498640566	5.42	2.60	Mostly_Sunny(sunny)	False	False	2.60
2010-07-07 21:00:00 48596 21 0.00 0.00 0.00 0.0 0.00	79.7498640566	0.00	0.00	Mostly_Clear(clear)	False	False	0.00
2010-07-07 22:00:00 48597 22 0.00 0.00 0.00 0.0 0.00	76.8890172298	0.00	0.00	Clear(clear)	True	False	0.00
2010-07-07 23:00:00 48598 23 0.00 0.00 0.00 0.0 0.00	76.8890172298	0.00	0.00	Clear(partly_cloudy)	True	False	0.00
2010-07-08 00:00:00 48599 0 0.00 0.00 0.00 0.0 0.00	76.8890172298	0.00	0.00	Clear(fair)	True	False	0.00
2010-07-08 01:00:00 48600 1 0.00 0.00 0.00 0.0 0.00	76.8890172298	0.00	0.00	Clear(clear)	True	False	0.00
2010-07-08 02:00:00 48601 2 0.00 0.00 0.00 0.0 0.00	76.8890172298	0.00	0.00	Clear(clear)	True	False	0.00
2010-07-08 03:00:00 48602 3 0.00 0.00 0.00 0.0 0.00	76.8890172298	0.00	0.00	Clear(clear)	True	False	0.00
2010-07-08 04:00:00 48603 4 0.00 0.00 0.00 0.0 0.00	76.8890172298	0.00	0.00	Clear(clear)	True	False	0.00
2010-07-08 05:00:00 48604 5 0.23 0.23 0.23 0.0 0.30	76.8890172298	0.23	0.00	Clear(clear)	True	False	0.00
2010-07-08 06:00:00 48605 6 59.74 59.74 59.74 22.0 77.70	76.8890172298	59.74	22.00	Sunny(fog)	True	False	22.00
2010-07-08 07:00:00 48606 7 159.47 159.47 159.47 75.0 207.40	76.8890172298	159.47	75.00	Sunny(sunny)	True	False	75.00
2010-07-08 08:00:00 48607 8 373.60 373.60 373.60 120.0 485.90	76.8890172298	373.60	120.00	Sunny(cloudy)	True	False	120.00
2010-07-08 09:00:00 48608 9 572.90 572.90 572.90 246.0 745.10	76.8890172298	572.90	246.00	Sunny(fair)	True	False	246.00
2010-07-08 10:00:00 48609 10 733.30 733.30 733.30 296.5 919.50	79.7498640566	733.30	296.50	Sunny(cloudy)	True	False	296.50
2010-07-08 11:00:00 48610 11 828.52 828.52 828.52 195.1 1038.90	79.7498640566	828.52	195.10	Sunny(partly_cloudy)	True	False	195.10
2010-07-08 12:00:00 48611 12 883.71 883.71 883.71 313.9 1108.10	79.7498640566	883.71	313.90	Sunny(partly_cloudy)	True	False	313.90
2010-07-08 13:00:00 48612 13 883.39 883.39 883.39 441.0 1107.70	79.7498640566	883.39	441.00	Mostly_Sunny(light_rain)	False	False	441.00
2010-07-08 14:00:00 48613 14 845.67 845.67 845.67 624.2 1060.40	79.7498640566	845.67	624.20	Mostly_Sunny(partly_cloudy)	False	False	624.20
2010-07-08 15:00:00 48614 15 748.93 748.93 748.93 622.4 939.10	79.7498640566	748.93	622.40	Mostly_Sunny(mostly_cloudy)	False	False	622.40
2010-07-08 16:00:00 48615 16 560.27 560.27 560.27 535.7 758.90	73.8263950399	560.27	535.70	Partly_Cloudy(mostly_cloudy)	True	False	535.70
2010-07-08 17:00:00 48616 17 368.17 368.17 368.17 325.4 498.70	73.8263950399	368.17	325.40	Partly_Cloudy(partly_cloudy)	True	False	325.40
2010-07-08 18:00:00 48617 18 166.70 166.70 166.70 138.8 225.80	73.8263950399	166.70	138.80	Partly_Cloudy(fair)	True	False	138.80
2010-07-08 19:00:00 48618 19 60.09 60.09 60.09 24.1 81.40	73.8263950399	60.09	24.10	Partly_Cloudy(sunny)	True	False	24.10
2010-07-08 20:00:00 48619 20 5.02 5.02 5.02 1.2 6.80	73.8263950399	5.02	1.20	Partly_Cloudy(fair)	True	False	1.20
2010-07-08 21:00:00 48620 21 0.00 0.00 0.00 0.0 0.00	73.8263950399	0.00	0.00	Partly_Cloudy(clear)	True	False	0.00
2010-07-08 22:00:00 48621 22 0.00 0.00 0.00 0.0 0.00	73.8263950399	0.00	0.00	Partly_Cloudy(clear)	True	False	0.00
2010-07-08 23:00:00 48622 23 0.00 0.00 0.00 0.0 0.00	73.8263950399	0.00	0.00	Partly_Cloudy(clear)	True	False	0.00
2010-07-09 00:00:00 48623 0 0.00 0.00 0.00 0.0 0.00	73.8263950399	0.00	0.00	Partly_Cloudy(fair)	True	False	0.00
2010-07-09 01:00:00 48624 1 0.00 0.00 0.00 0.0 0.00	73.8263950399	0.00	0.00	Partly_Cloudy(partly_cloudy)	True	False	0.00
2010-07-09 02:00:00 48625 2 0.00 0.00 0.00 0.0 0.00	73.8263950399	0.00	0.00	Partly_Cloudy(mostly_cloudy)	True	False	0.00
