2010-07-09 01:00:00 50880 1 0.00 0.00 0.00 0.0 0.00	76.8890172298	0.00	0.00	Clear(partly_cloudy)	True	False	0.00
2010-07-09 02:00:00 50881 2 0.00 0.00 0.00 0.0 0.00	76.8890172298	0.00	0.00	Clear(mostly_cloudy)	True	False	0.00
2010-07-09 03:00:00 50882 3 0.00 0.00 0.00 0.0 0.00	76.8890172298	0.00	0.00	Clear(cloudy)	True	False	0.00
2010-07-09 04:00:00 50883 4 0.00 0.00 0.00 0.0 0.00	72.972972973	0.00	0.00	Partly_Cloudy(fair)	True	False	0.00
2010-07-09 05:00:00 50884 5 0.22 0.22 0.22 0.0 0.30	72.972972973	0.22	0.00	Partly_Cloudy(fair)	True	False	0.00
2010-07-09 06:00:00 50885 6 56.70 56.70 56.70 28.4 77.70	72.972972973	56.70	28.40	Partly_Cloudy(mostly_cloudy)	True	False	28.40
2010-07-09 07:00:00 50886 7 151.35 151.35 151.35 139.4 207.40	72.972972973	151.35	139.40	Partly_Cloudy(cloudy)	True	False	139.40
2010-07-09 08:00:00 50887 8 354.58 354.58 354.58 318.2 485.90	72.972972973	354.58	318.20	Partly_Cloudy(light_rain)	True	False	318.20
2010-07-09 09:00:00 50888 9 543.72 543.72 543.72 475.7 745.10	72.972972973	543.72	475.70	Partly_Cloudy(light_rain)	True	False	475.70
2010-07-09 10:00:00 50889 10 679.65 679.65 679.65 183.0 919.50	73.9155035836	679.65	183.00	Partly_Cloudy(mostly_cloudy)	True	False	183.00
2010-07-09 11:00:00 50890 11 767.91 767.91 767.91 628.3 1038.90	73.9155035836	767.91	628.30	Partly_Cloudy(partly_cloudy)	True	False	628.30
2010-07-09 12:00:00 50891 12 819.06 819.06 819.06 661.5 1108.10	73.9155035836	819.06	661.50	Partly_Cloudy(mostly_cloudy)	True	False	661.50
2010-07-09 13:00:00 50892 13 818.76 818.76 818.76 880.7 1107.70	73.9155035836	818.76	880.70	Partly_Cloudy(partly_cloudy)	True	False	880.70
2010-07-09 14:00:00 50893 14 783.80 783.80 783.80 670.8 1060.40	73.9155035836	783.80	670.80	Partly_Cloudy(partly_cloudy)	True	False	670.80
2010-07-09 15:00:00 50894 15 694.14 694.14 694.14 643.1 939.10	73.9155035836	694.14	643.10	Partly_Cloudy(mostly_cloudy)	True	False	643.10
2010-07-09 16:00:00 50895 16 553.79 553.79 553.79 627.0 758.90	72.972972973	553.79	627.00	Partly_Cloudy(partly_cloudy)	True	False	627.00
2010-07-09 17:00:00 50896 17 363.92 363.92 363.92 336.7 498.70	72.972972973	363.92	336.70	Partly_Cloudy(partly_cloudy)	True	False	336.70
2010-07-09 18:00:00 50897 18 164.77 164.77 164.77 194.1 225.80	72.972972973	164.77	194.10	Partly_Cloudy(mostly_cloudy)	True	False	194.10
2010-07-09 19:00:00 50898 19 59.40 59.40 59.40 28.0 81.40	72.972972973	59.40	28.00	Partly_Cloudy(fair)	True	False	28.00
2010-07-09 20:00:00 50899 20 4.96 4.96 4.96 0.2 6.80	72.972972973	4.96	0.20	Partly_Cloudy(mostly_cloudy)	True	False	0.20
2010-07-09 21:00:00 50900 21 0.00 0.00 0.00 0.0 0.00	72.972972973	0.00	0.00	Partly_Cloudy(mostly_cloudy)	True	False	0.00
2010-07-09 22:00:00 50901 22 0.00 0.00 0.00 0.0 0.00	72.972972973	0.00	0.00	Partly_Cloudy(cloudy)	True	False	0.00
2010-07-09 23:00:00 50902 23 0.00 0.00 0.00 0.0 0.00	72.972972973	0.00	0.00	Partly_Cloudy(partly_cloudy)	True	False	0.00
2010-07-10 00:00:00 50903 0 0.00 0.00 0.00 0.0 0.00	72.972972973	0.00	0.00	Partly_Cloudy(cloudy)	True	False	0.00
2010-07-10 01:00:00 50904 1 0.00 0.00 0.00 0.0 0.00	72.972972973	0.00	0.00	Partly_Cloudy(mostly_cloudy)	True	False	0.00
2010-07-10 02:00:00 50905 2 0.00 0.00 0.00 0.0 0.00	72.972972973	0.00	0.00	Partly_Cloudy(partly_cloudy)	True	False	0.00
2010-07-10 03:00:00 50906 3 0.00 0.00 0.00 0.0 0.00	72.972972973	0.00	0.00	Partly_Cloudy(partly_cloudy)	True	False	0.00
2010-07-10 04:00:00 50907 4 0.00 0.00 0.00 0.0 0.00	58.2348163523	0.00	0.00	Mostly_Cloudy(cloudy)	True	False	0.00
2010-07-10 05:00:00 50908 5 0.17 0.17 0.17 0.0 0.30	58.2348163523	0.17	0.00	Mostly_Cloudy(cloudy)	True	False	0.00
2010-07-10 06:00:00 50909 6 45.25 45.25 45.25 69.5 77.70	58.2348163523	45.25	69.50	Mostly_Cloudy(cloudy)	True	False	69.50
2010-07-10 07:00:00 50910 7 56.76 56.76 56.76 182.8 207.40	27.3693534101	56.76	182.80	Few_Showers(cloudy)	True	False	182.80
2010-07-10 08:00:00 50911 8 132.99 132.99 132.99 173.9 485.90	27.3693534101	132.99	173.90	Few_Showers(cloudy)	True	False	173.90
2010-07-10 09:00:00 50912 9 203.93 203.93 203.93 247.3 745.10	27.3693534101	203.93	247.30	Few_Showers(cloudy)	True	False	247.30
2010-07-10 10:00:00 50913 10 209.58 209.58 209.58 188.2 919.50	22.7933391087	209.58	188.20	Showers(light_rain)	True	False	188.20
2010-07-10 11:00:00 50914 11 236.80 236.80 236.80 145.8 1038.90	22.7933391087	236.80	145.80	Showers(light_rain)	True	False	145.80
2010-07-10 12:00:00 50915 12 252.57 252.57 252.57 203.5 1108.10	22.7933391087	252.57	203.50	Showers(light_rain)	True	False	203.50
2010-07-10 13:00:00 50916 13 357.78 357.78 357.78 242.7 1107.70	32.2991324029	357.78	242.70	Scattered_T-Storms(fair)	True	False	242.70
2010-07-10 14:00:00 50917 14 342.50 342.50 342.50 269.3 1060.40	32.2991324029	342.50	269.30	Scattered_T-Storms(cloudy)	True	False	269.30
2010-07-10 15:00:00 50918 15 303.32 303.32 303.32 233.6 939.10	32.2991324029	303.32	233.60	Scattered_T-Storms(fair)	True	False	233.60
2010-07-10 16:00:00 50919 16 207.71 207.71 207.71 321.8 758.90	27.3693534101	207.71	321.80	T-Storms(partly_cloudy)	True	False	321.80
2010-07-10 17:00:00 50920 17 136.49 136.49 136.49 357.1 498.70	27.3693534101	136.49	357.10	T-Storms(mostly_cloudy)	True	False	357.10
2010-07-10 18:00:00 50921 18 61.80 61.80 61.80 211.2 225.80	27.3693534101	61.80	211.20	T-Storms(mostly_cloudy)	True	False	211.20
2010-07-10 19:00:00 50922 19 22.28 22.28 22.28 49.3 81.40	27.3693534101	22.28	49.30	Isolated_T-Storms(partly_cloudy)	True	False	49.30
2010-07-10 20:00:00 50923 20 1.86 1.86 1.86 0.8 6.80	27.3693534101	1.86	0.80	Isolated_T-Storms(fair)	True	False	0.80
2010-07-10 21:00:00 50924 21 0.00 0.00 0.00 0.0 0.00	27.3693534101	0.00	0.00	Isolated_T-Storms(fair)	True	False	0.00
2010-07-10 22:00:00 50925 22 0.00 0.00 0.00 0.0 0.00	27.3693534101	0.00	0.00	Scattered_T-Storms(fair)	True	False	0.00
2010-07-10 23:00:00 50926 23 0.00 0.00 0.00 0.0 0.00	27.3693534101	0.00	0.00	Scattered_T-Storms(partly_cloudy)	True	False	0.00
2010-07-11 00:00:00 50927 0 0.00 0.00 0.00 0.0 0.00	27.3693534101	0.00	0.00	Scattered_T-Storms(fair)	True	False	0.00
2010-07-11 01:00:00 50928 1 0.00 0.00 0.00 0.0 0.00	58.2348163523	0.00	0.00	Mostly_Cloudy(partly_cloudy)	True	False	0.00
