2010-06-09 01:00:00 15600 1 0.00 0.00 0.00 0.0 0.00	78.9788933257	0.00	0.00	Partly_Cloudy(fair)	True	False	0.00
2010-06-09 02:00:00 15601 2 0.00 0.00 0.00 0.0 0.00	78.9788933257	0.00	0.00	Partly_Cloudy(partly_cloudy)	True	False	0.00
2010-06-09 03:00:00 15602 3 0.00 0.00 0.00 0.0 0.00	78.9788933257	0.00	0.00	Partly_Cloudy(mostly_cloudy)	True	False	0.00
2010-06-09 04:00:00 15603 4 0.00 0.00 0.00 0.0 0.00	78.9788933257	0.00	0.00	Partly_Cloudy(fair)	True	False	0.00
2010-06-09 05:00:00 15604 5 1.42 1.42 1.42 3.7 1.80	78.9788933257	1.42	3.70	Partly_Cloudy(sunny)	True	False	3.70
2010-06-09 06:00:00 15605 6 58.05 58.05 58.05 89.7 73.50	78.9788933257	58.05	89.70	Partly_Cloudy(fair)	True	False	89.70
2010-06-09 07:00:00 15606 7 160.60 160.60 160.60 188.7 248.50	64.6258503401	160.60	188.70	Mostly_Cloudy(partly_cloudy)	True	False	188.70
2010-06-09 08:00:00 15607 8 343.68 343.68 343.68 212.0 531.80	64.6258503401	343.68	212.00	Mostly_Cloudy(mostly_cloudy)	True	False	212.00
2010-06-09 09:00:00 15608 9 490.77 490.77 490.77 347.4 759.40	64.6258503401	490.77	347.40	Mostly_Cloudy(partly_cloudy)	True	False	347.40
2010-06-09 10:00:00 15609 10 118.62 118.62 118.62 319.6 929.60	12.7604407816	118.62	319.60	Showers(mostly_cloudy)	True	False	319.60
2010-06-09 11:00:00 15610 11 134.21 134.21 134.21 302.3 1051.80	12.7604407816	134.21	302.30	Showers(mostly_cloudy)	True	False	302.30
2010-06-09 12:00:00 15611 12 139.62 139.62 139.62 216.2 1094.20	12.7604407816	139.62	216.20	Showers(light_rain)	True	False	216.20
2010-06-09 13:00:00 15612 13 137.80 137.80 137.80 93.7 1079.90	12.7604407816	137.80	93.70	Rain(light_rain)	True	False	93.70
2010-06-09 14:00:00 15613 14 129.24 129.24 129.24 92.0 1012.80	12.7604407816	129.24	92.00	Rain(light_rain)	True	False	92.00
2010-06-09 15:00:00 15614 15 112.74 112.74 112.74 92.8 883.50	12.7604407816	112.74	92.80	Rain(light_rain)	True	False	92.80
2010-06-09 16:00:00 15615 16 101.76 101.76 101.76 70.3 716.10	14.2104130809	101.76	70.30	Rain(light_rain)	True	False	70.30
2010-06-09 17:00:00 15616 17 59.63 59.63 59.63 15.9 419.60	14.2104130809	59.63	15.90	Rain(light_rain)	True	False	15.90
2010-06-09 18:00:00 15617 18 30.44 30.44 30.44 6.2 214.20	14.2104130809	30.44	6.20	Rain(light_rain)	True	False	6.20
2010-06-09 19:00:00 15618 19 7.59 7.59 7.59 0.0 53.40	14.2104130809	7.59	0.00	Rain(light_rain)	True	False	0.00
2010-06-09 20:00:00 15619 20 0.40 0.40 0.40 0.0 2.80	14.2104130809	0.40	0.00	Rain(light_rain)	True	False	0.00
2010-06-09 21:00:00 15620 21 0.00 0.00 0.00 0.0 0.00	14.2104130809	0.00	0.00	Rain(light_rain)	True	False	0.00
2010-06-09 22:00:00 15621 22 0.00 0.00 0.00 0.0 0.00	14.2104130809	0.00	0.00	Showers(light_rain)	True	False	0.00
2010-06-09 23:00:00 15622 23 0.00 0.00 0.00 0.0 0.00	14.2104130809	0.00	0.00	Showers(light_rain)	True	False	0.00
2010-06-10 00:00:00 15623 0 0.00 0.00 0.00 0.0 0.00	14.2104130809	0.00	0.00	Showers(cloudy)	True	False	0.00
2010-06-10 01:00:00 15624 1 0.00 0.00 0.00 0.0 0.00	46.3169438859	0.00	0.00	Cloudy(cloudy)	True	False	0.00
2010-06-10 02:00:00 15625 2 0.00 0.00 0.00 0.0 0.00	46.3169438859	0.00	0.00	Cloudy(cloudy)	True	False	0.00
2010-06-10 03:00:00 15626 3 0.00 0.00 0.00 0.0 0.00	46.3169438859	0.00	0.00	Cloudy(cloudy)	True	False	0.00
2010-06-10 04:00:00 15627 4 0.00 0.00 0.00 0.0 0.00	46.3169438859	0.00	0.00	Cloudy(cloudy)	True	False	0.00
2010-06-10 05:00:00 15628 5 0.83 0.83 0.83 0.0 1.80	46.3169438859	0.83	0.00	Cloudy(cloudy)	True	False	0.00
2010-06-10 06:00:00 15629 6 34.04 34.04 34.04 2.5 73.50	46.3169438859	34.04	2.50	Cloudy(fog)	True	False	2.50
2010-06-10 07:00:00 15630 7 160.60 160.60 160.60 72.6 248.50	64.6258503401	160.60	72.60	Mostly_Cloudy(cloudy)	True	False	72.60
2010-06-10 08:00:00 15631 8 343.68 343.68 343.68 172.6 531.80	64.6258503401	343.68	172.60	Mostly_Cloudy(cloudy)	True	False	172.60
2010-06-10 09:00:00 15632 9 490.77 490.77 490.77 298.0 759.40	64.6258503401	490.77	298.00	Mostly_Cloudy(cloudy)	True	False	298.00
2010-06-10 10:00:00 15633 10 600.76 600.76 600.76 421.5 929.60	64.6258503401	600.76	421.50	Mostly_Sunny(cloudy)	False	False	421.50
2010-06-10 11:00:00 15634 11 679.73 679.73 679.73 802.2 1051.80	64.6258503401	679.73	802.20	Mostly_Sunny(cloudy)	False	False	802.20
2010-06-10 12:00:00 15635 12 707.14 707.14 707.14 756.0 1094.20	64.6258503401	707.14	756.00	Mostly_Sunny(cloudy)	False	False	756.00
2010-06-10 13:00:00 15636 13 859.40 859.40 859.40 1010.9 1079.90	79.5812110922	859.40	1010.90	Partly_Cloudy(partly_cloudy)	True	False	1010.90
2010-06-10 14:00:00 15637 14 806.00 806.00 806.00 676.7 1012.80	79.5812110922	806.00	676.70	Partly_Cloudy(fair)	True	False	676.70
2010-06-10 15:00:00 15638 15 703.10 703.10 703.10 356.6 883.50	79.5812110922	703.10	356.60	Partly_Cloudy(fair)	True	False	356.60
2010-06-10 16:00:00 15639 16 565.57 565.57 565.57 302.0 716.10	78.9788933257	565.57	302.00	Partly_Cloudy(cloudy)	True	False	302.00
2010-06-10 17:00:00 15640 17 331.40 331.40 331.40 262.9 419.60	78.9788933257	331.40	262.90	Partly_Cloudy(partly_cloudy)	True	False	262.90
2010-06-10 18:00:00 15641 18 169.17 169.17 169.17 110.6 214.20	78.9788933257	169.17	110.60	Partly_Cloudy(cloudy)	True	False	110.60
2010-06-10 19:00:00 15642 19 42.17 42.17 42.17 18.3 53.40	78.9788933257	42.17	18.30	Partly_Cloudy(partly_cloudy)	True	False	18.30
2010-06-10 20:00:00 15643 20 2.21 2.21 2.21 0.0 2.80	78.9788933257	2.21	0.00	Partly_Cloudy(cloudy)	True	False	0.00
2010-06-10 21:00:00 15644 21 0.00 0.00 0.00 0.0 0.00	78.9788933257	0.00	0.00	Partly_Cloudy(mostly_cloudy)	True	False	0.00
2010-06-10 22:00:00 15645 22 0.00 0.00 0.00 0.0 0.00	78.9788933257	0.00	0.00	Partly_Cloudy(mostly_cloudy)	True	False	0.00
2010-06-10 23:00:00 15646 23 0.00 0.00 0.00 0.0 0.00	78.9788933257	0.00	0.00	Partly_Cloudy(fair)	True	False	0.00
2010-06-11 00:00:00 15647 0 0.00 0.00 0.00 0.0 0.00	78.9788933257	0.00	0.00	Partly_Cloudy(clear)	True	False	0.00
2010-06-11 01:00:00 15648 1 0.00 0.00 0.00 0.0 0.00	64.6258503401	0.00	0.00	Mostly_Cloudy(clear)	True	False	0.00
