2010-06-30 21:00:00 41276 21 0.00 0.00 0.00 0.0 0.00	73.3056583341	0.00	0.00	Clear(fair)	True	False	0.00
2010-06-30 22:00:00 41277 22 0.00 0.00 0.00 0.0 0.00	73.3056583341	0.00	0.00	Clear(clear)	True	False	0.00
2010-06-30 23:00:00 41278 23 0.00 0.00 0.00 0.0 0.00	73.3056583341	0.00	0.00	Clear(clear)	True	False	0.00
2010-07-01 00:00:00 41279 0 0.00 0.00 0.00 0.0 0.00	73.3056583341	0.00	0.00	Clear(cloudy)	True	False	0.00
2010-07-01 01:00:00 41280 1 0.00 0.00 0.00 0.0 0.00	73.3056583341	0.00	0.00	Clear(cloudy)	True	False	0.00
2010-07-01 02:00:00 41281 2 0.00 0.00 0.00 0.0 0.00	73.3056583341	0.00	0.00	Clear(cloudy)	True	False	0.00
2010-07-01 03:00:00 41282 3 0.00 0.00 0.00 0.0 0.00	73.3056583341	0.00	0.00	Clear(fair)	True	False	0.00
2010-07-01 04:00:00 41283 4 0.00 0.00 0.00 0.0 0.00	73.3056583341	0.00	0.00	Clear(partly_cloudy)	True	False	0.00
2010-07-01 05:00:00 41284 5 1.32 1.32 1.32 0.3 1.80	73.3056583341	1.32	0.30	Clear(fair)	True	False	0.30
2010-07-01 06:00:00 41285 6 56.96 56.96 56.96 31.2 77.70	73.3056583341	56.96	31.20	Sunny(sunny)	True	False	31.20
2010-07-01 07:00:00 41286 7 161.49 161.49 161.49 174.2 220.30	73.3056583341	161.49	174.20	Sunny(sunny)	True	False	174.20
2010-07-01 08:00:00 41287 8 356.19 356.19 356.19 404.9 485.90	73.3056583341	356.19	404.90	Sunny(sunny)	True	False	404.90
2010-07-01 09:00:00 41288 9 545.17 545.17 545.17 607.6 743.70	73.3056583341	545.17	607.60	Sunny(sunny)	True	False	607.60
2010-07-01 10:00:00 41289 10 712.99 712.99 712.99 746.7 929.60	76.6988538941	712.99	746.70	Sunny(sunny)	True	False	746.70
2010-07-01 11:00:00 41290 11 795.90 795.90 795.90 691.6 1037.70	76.6988538941	795.90	691.60	Sunny(sunny)	True	False	691.60
2010-07-01 12:00:00 41291 12 849.90 849.90 849.90 800.5 1108.10	76.6988538941	849.90	800.50	Sunny(mostly_cloudy)	True	False	800.50
2010-07-01 13:00:00 41292 13 849.59 849.59 849.59 780.3 1107.70	76.6988538941	849.59	780.30	Sunny(fair)	True	False	780.30
2010-07-01 14:00:00 41293 14 813.31 813.31 813.31 676.3 1060.40	76.6988538941	813.31	676.30	Sunny(partly_cloudy)	True	False	676.30
2010-07-01 15:00:00 41294 15 720.28 720.28 720.28 458.2 939.10	76.6988538941	720.28	458.20	Sunny(fair)	True	False	458.20
2010-07-01 16:00:00 41295 16 545.69 545.69 545.69 424.4 744.40	73.3056583341	545.69	424.40	Sunny(mostly_cloudy)	True	False	424.40
2010-07-01 17:00:00 41296 17 355.31 355.31 355.31 244.2 484.70	73.3056583341	355.31	244.20	Sunny(fair)	True	False	244.20
2010-07-01 18:00:00 41297 18 165.52 165.52 165.52 117.6 225.80	73.3056583341	165.52	117.60	Sunny(fair)	True	False	117.60
2010-07-01 19:00:00 41298 19 59.67 59.67 59.67 26.2 81.40	73.3056583341	59.67	26.20	Sunny(fair)	True	False	26.20
2010-07-01 20:00:00 41299 20 4.98 4.98 4.98 1.7 6.80	73.3056583341	4.98	1.70	Sunny(sunny)	True	False	1.70
2010-07-01 21:00:00 41300 21 0.00 0.00 0.00 0.0 0.00	73.3056583341	0.00	0.00	Clear(clear)	True	False	0.00
2010-07-01 22:00:00 41301 22 0.00 0.00 0.00 0.0 0.00	73.3056583341	0.00	0.00	Clear(clear)	True	False	0.00
2010-07-01 23:00:00 41302 23 0.00 0.00 0.00 0.0 0.00	73.3056583341	0.00	0.00	Clear(clear)	True	False	0.00
2010-07-02 00:00:00 41303 0 0.00 0.00 0.00 0.0 0.00	73.3056583341	0.00	0.00	Clear(clear)	True	False	0.00
2010-07-02 01:00:00 41304 1 0.00 0.00 0.00 0.0 0.00	73.3056583341	0.00	0.00	Clear(clear)	True	False	0.00
2010-07-02 02:00:00 41305 2 0.00 0.00 0.00 0.0 0.00	73.3056583341	0.00	0.00	Clear(clear)	True	False	0.00
2010-07-02 03:00:00 41306 3 0.00 0.00 0.00 0.0 0.00	73.3056583341	0.00	0.00	Clear(clear)	True	False	0.00
2010-07-02 04:00:00 41307 4 0.00 0.00 0.00 0.0 0.00	73.3056583341	0.00	0.00	Clear(clear)	True	False	0.00
2010-07-02 05:00:00 41308 5 1.32 1.32 1.32 0.2 1.80	73.3056583341	1.32	0.20	Clear(sunny)	True	False	0.20
2010-07-02 06:00:00 41309 6 56.96 56.96 56.96 33.8 77.70	73.3056583341	56.96	33.80	Sunny(sunny)	True	False	33.80
2010-07-02 07:00:00 41310 7 161.49 161.49 161.49 174.8 220.30	73.3056583341	161.49	174.80	Sunny(sunny)	True	False	174.80
2010-07-02 08:00:00 41311 8 356.19 356.19 356.19 402.7 485.90	73.3056583341	356.19	402.70	Sunny(sunny)	True	False	402.70
2010-07-02 09:00:00 41312 9 545.17 545.17 545.17 601.8 743.70	73.3056583341	545.17	601.80	Sunny(sunny)	True	False	601.80
2010-07-02 10:00:00 41313 10 712.99 712.99 712.99 709.2 929.60	76.6988538941	712.99	709.20	Sunny(sunny)	True	False	709.20
2010-07-02 11:00:00 41314 11 795.90 795.90 795.90 475.6 1037.70	76.6988538941	795.90	475.60	Sunny(sunny)	True	False	475.60
2010-07-02 12:00:00 41315 12 849.90 849.90 849.90 570.8 1108.10	76.6988538941	849.90	570.80	Sunny(fair)	True	False	570.80
2010-07-02 13:00:00 41316 13 849.59 849.59 849.59 785.8 1107.70	76.6988538941	849.59	785.80	Sunny(fair)	True	False	785.80
2010-07-02 14:00:00 41317 14 813.31 813.31 813.31 716.5 1060.40	76.6988538941	813.31	716.50	Sunny(mostly_cloudy)	True	False	716.50
2010-07-02 15:00:00 41318 15 720.28 720.28 720.28 791.5 939.10	76.6988538941	720.28	791.50	Sunny(mostly_cloudy)	True	False	791.50
2010-07-02 16:00:00 41319 16 545.69 545.69 545.69 510.9 744.40	73.3056583341	545.69	510.90	Sunny(partly_cloudy)	True	False	510.90
2010-07-02 17:00:00 41320 17 355.31 355.31 355.31 407.2 484.70	73.3056583341	355.31	407.20	Sunny(partly_cloudy)	True	False	407.20
2010-07-02 18:00:00 41321 18 165.52 165.52 165.52 159.1 225.80	73.3056583341	165.52	159.10	Sunny(sunny)	True	False	159.10
2010-07-02 19:00:00 41322 19 59.67 59.67 59.67 34.5 81.40	73.3056583341	59.67	34.50	Sunny(sunny)	True	False	34.50
2010-07-02 20:00:00 41323 20 4.98 4.98 4.98 1.9 6.80	73.3056583341	4.98	1.90	Sunny(sunny)	True	False	1.90
2010-07-02 21:00:00 41324 21 0.00 0.00 0.00 0.0 0.00	73.3056583341	0.00	0.00	Clear(clear)	True	False	0.00
