2010-06-02 18:00:00 8201 18 169.17 169.17 169.17 162.1 214.20	78.9788933257	169.17	162.10	Partly_Cloudy(sunny)	True	False	162.10
2010-06-02 19:00:00 8202 19 40.26 40.26 40.26 36.3 53.20	78.9788933257	40.26	36.30	Mostly_Sunny(partly_cloudy)	False	False	36.30
2010-06-02 20:00:00 8203 20 1.90 1.90 1.90 0.1 2.40	78.9788933257	1.90	0.10	Mostly_Sunny(fair)	False	False	0.10
2010-06-02 21:00:00 8204 21 0.00 0.00 0.00 0.0 0.00	78.9788933257	0.00	0.00	Mostly_Clear(fair)	False	False	0.00
2010-06-02 22:00:00 8205 22 0.00 0.00 0.00 0.0 0.00	92.6202012672	0.00	0.00	Clear(clear)	True	False	0.00
2010-06-02 23:00:00 8206 23 0.00 0.00 0.00 0.0 0.00	92.6202012672	0.00	0.00	Clear(clear)	True	False	0.00
2010-06-03 00:00:00 8207 0 0.00 0.00 0.00 0.0 0.00	92.6202012672	0.00	0.00	Clear(clear)	True	False	0.00
2010-06-03 01:00:00 8208 1 0.00 0.00 0.00 0.0 0.00	78.9788933257	0.00	0.00	Partly_Cloudy(clear)	True	False	0.00
2010-06-03 02:00:00 8209 2 0.00 0.00 0.00 0.0 0.00	78.9788933257	0.00	0.00	Partly_Cloudy(fog)	True	False	0.00
2010-06-03 03:00:00 8210 3 0.00 0.00 0.00 0.0 0.00	78.9788933257	0.00	0.00	Partly_Cloudy(clear)	True	False	0.00
2010-06-03 04:00:00 8211 4 0.00 0.00 0.00 0.0 0.00	78.9788933257	0.00	0.00	Partly_Cloudy(clear)	True	False	0.00
2010-06-03 05:00:00 8212 5 1.42 1.42 1.42 0.0 1.80	78.9788933257	1.42	0.00	Partly_Cloudy(fog)	True	False	0.00
2010-06-03 06:00:00 8213 6 46.12 46.12 46.12 71.3 58.40	78.9788933257	46.12	71.30	Partly_Cloudy(fog)	True	False	71.30
2010-06-03 07:00:00 8214 7 211.90 211.90 211.90 225.3 268.30	78.9788933257	211.90	225.30	Partly_Cloudy(sunny)	True	False	225.30
2010-06-03 08:00:00 8215 8 420.01 420.01 420.01 463.7 531.80	78.9788933257	420.01	463.70	Partly_Cloudy(sunny)	True	False	463.70
2010-06-03 09:00:00 8216 9 608.14 608.14 608.14 597.5 770.00	78.9788933257	608.14	597.50	Partly_Cloudy(partly_cloudy)	True	False	597.50
2010-06-03 10:00:00 8217 10 819.62 819.62 819.62 764.4 952.40	86.0584518167	819.62	764.40	Partly_Cloudy(fair)	True	False	764.40
2010-06-03 11:00:00 8218 11 905.16 905.16 905.16 994.6 1051.80	86.0584518167	905.16	994.60	Partly_Cloudy(sunny)	True	False	994.60
2010-06-03 12:00:00 8219 12 941.65 941.65 941.65 869.2 1094.20	86.0584518167	941.65	869.20	Partly_Cloudy(fair)	True	False	869.20
2010-06-03 13:00:00 8220 13 136.30 136.30 136.30 742.2 1079.90	12.6215390314	136.30	742.20	Isolated_T-Storms(partly_cloudy)	True	False	742.20
2010-06-03 14:00:00 8221 14 127.83 127.83 127.83 988.4 1012.80	12.6215390314	127.83	988.40	Isolated_T-Storms(sunny)	True	False	988.40
2010-06-03 15:00:00 8222 15 112.74 112.74 112.74 836.5 893.20	12.6215390314	112.74	836.50	Isolated_T-Storms(partly_cloudy)	True	False	836.50
2010-06-03 16:00:00 8223 16 90.43 90.43 90.43 663.8 716.10	12.6287505598	90.43	663.80	Isolated_T-Storms(fair)	True	False	663.80
2010-06-03 17:00:00 8224 17 52.99 52.99 52.99 385.1 419.60	12.6287505598	52.99	385.10	Isolated_T-Storms(sunny)	True	False	385.10
2010-06-03 18:00:00 8225 18 27.05 27.05 27.05 154.7 214.20	12.6287505598	27.05	154.70	Isolated_T-Storms(sunny)	True	False	154.70
2010-06-03 19:00:00 8226 19 6.72 6.72 6.72 45.0 53.20	12.6287505598	6.72	45.00	Scattered_T-Storms(sunny)	True	False	45.00
2010-06-03 20:00:00 8227 20 0.30 0.30 0.30 0.2 2.40	12.6287505598	0.30	0.20	Scattered_T-Storms(partly_cloudy)	True	False	0.20
2010-06-03 21:00:00 8228 21 0.00 0.00 0.00 0.0 0.00	12.6287505598	0.00	0.00	Scattered_T-Storms(mostly_cloudy)	True	False	0.00
2010-06-03 22:00:00 8229 22 0.00 0.00 0.00 0.0 0.00	12.6287505598	0.00	0.00	Scattered_T-Storms(mostly_cloudy)	True	False	0.00
2010-06-03 23:00:00 8230 23 0.00 0.00 0.00 0.0 0.00	12.6287505598	0.00	0.00	Scattered_T-Storms(mostly_cloudy)	True	False	0.00
2010-06-04 00:00:00 8231 0 0.00 0.00 0.00 0.0 0.00	12.6287505598	0.00	0.00	Scattered_T-Storms(mostly_cloudy)	True	False	0.00
2010-06-04 01:00:00 8232 1 0.00 0.00 0.00 0.0 0.00	16.4384864043	0.00	0.00	T-Showers(partly_cloudy)	True	False	0.00
2010-06-04 02:00:00 8233 2 0.00 0.00 0.00 0.0 0.00	16.4384864043	0.00	0.00	T-Showers(mostly_cloudy)	True	False	0.00
2010-06-04 03:00:00 8234 3 0.00 0.00 0.00 0.0 0.00	16.4384864043	0.00	0.00	T-Showers(fog)	True	False	0.00
2010-06-04 04:00:00 8235 4 0.00 0.00 0.00 0.0 0.00	12.6287505598	0.00	0.00	Scattered_T-Storms(fog)	True	False	0.00
2010-06-04 05:00:00 8236 5 0.23 0.23 0.23 0.0 1.80	12.6287505598	0.23	0.00	Scattered_T-Storms(fog)	True	False	0.00
2010-06-04 06:00:00 8237 6 7.38 7.38 7.38 55.2 58.40	12.6287505598	7.38	55.20	Scattered_T-Storms(sunny)	True	False	55.20
2010-06-04 07:00:00 8238 7 44.10 44.10 44.10 225.0 268.30	16.4384864043	44.10	225.00	Showers(sunny)	True	False	225.00
2010-06-04 08:00:00 8239 8 87.42 87.42 87.42 482.6 531.80	16.4384864043	87.42	482.60	Showers(sunny)	True	False	482.60
2010-06-04 09:00:00 8240 9 126.58 126.58 126.58 710.4 770.00	16.4384864043	126.58	710.40	Showers(sunny)	True	False	710.40
2010-06-04 10:00:00 8241 10 120.21 120.21 120.21 882.2 952.40	12.6215390314	120.21	882.20	Few_Showers(sunny)	True	False	882.20
2010-06-04 11:00:00 8242 11 132.75 132.75 132.75 915.4 1051.80	12.6215390314	132.75	915.40	Few_Showers(sunny)	True	False	915.40
2010-06-04 12:00:00 8243 12 138.10 138.10 138.10 962.6 1094.20	12.6215390314	138.10	962.60	Few_Showers(partly_cloudy)	True	False	962.60
2010-06-04 13:00:00 8244 13 136.30 136.30 136.30 645.3 1079.90	12.6215390314	136.30	645.30	Isolated_T-Storms(partly_cloudy)	True	False	645.30
2010-06-04 14:00:00 8245 14 127.83 127.83 127.83 979.6 1012.80	12.6215390314	127.83	979.60	Isolated_T-Storms(partly_cloudy)	True	False	979.60
2010-06-04 15:00:00 8246 15 112.74 112.74 112.74 713.0 893.20	12.6215390314	112.74	713.00	Isolated_T-Storms(fair)	True	False	713.00
2010-06-04 16:00:00 8247 16 90.43 90.43 90.43 609.0 716.10	12.6287505598	90.43	609.00	Isolated_T-Storms(partly_cloudy)	True	False	609.00
2010-06-04 17:00:00 8248 17 52.99 52.99 52.99 290.5 419.60	12.6287505598	52.99	290.50	Isolated_T-Storms(fair)	True	False	290.50
2010-06-04 18:00:00 8249 18 27.05 27.05 27.05 123.1 214.20	12.6287505598	27.05	123.10	Isolated_T-Storms(fair)	True	False	123.10
