2010-05-31 15:00:00 5702 15 768.67 768.67 850.60 846.8 893.20	86.0584518167	850.60	846.80	Partly_Cloudy(sunny)	True	False	846.80
2010-05-31 16:00:00 5703 16 565.57 565.57 678.90 538.5 716.10	78.9788933257	678.90	538.50	Partly_Cloudy(fair)	True	False	538.50
2010-05-31 17:00:00 5704 17 382.89 382.89 459.62 60.9 484.80	78.9788933257	459.62	60.90	Partly_Cloudy(fair)	True	False	60.90
2010-05-31 18:00:00 5705 18 154.56 154.56 185.53 213.0 195.70	78.9788933257	185.53	213.00	Partly_Cloudy(thunder)	True	False	213.00
2010-05-31 19:00:00 5706 19 30.94 30.94 47.59 42.8 50.20	61.6432096509	47.59	42.80	Mostly_Cloudy(partly_cloudy)	True	False	42.80
2010-05-31 20:00:00 5707 20 1.48 1.48 2.28 0.3 2.40	61.6432096509	2.28	0.30	Mostly_Cloudy(sunny)	True	False	0.30
2010-05-31 21:00:00 5708 21 0.00 0.00 0.00 0.0 0.00	61.6432096509	0.00	0.00	Mostly_Cloudy(fair)	True	False	0.00
2010-05-31 22:00:00 5709 22 0.00 0.00 0.00 0.0 0.00	12.6287505598	0.00	0.00	Isolated_T-Storms(mostly_cloudy)	True	False	0.00
2010-05-31 23:00:00 5710 23 0.00 0.00 0.00 0.0 0.00	12.6287505598	0.00	0.00	Isolated_T-Storms(mostly_cloudy)	True	False	0.00
2010-06-01 00:00:00 5711 0 0.00 0.00 0.00 0.0 0.00	12.6287505598	0.00	0.00	Isolated_T-Storms(mostly_cloudy)	True	False	0.00
2010-06-01 01:00:00 5712 1 0.00 0.00 0.00 0.0 0.00	12.6287505598	0.00	0.00	Scattered_T-Storms(mostly_cloudy)	True	False	0.00
2010-06-01 02:00:00 5713 2 0.00 0.00 0.00 0.0 0.00	12.6287505598	0.00	0.00	Scattered_T-Storms(partly_cloudy)	True	False	0.00
2010-06-01 03:00:00 5714 3 0.00 0.00 0.00 0.0 0.00	12.6287505598	0.00	0.00	Scattered_T-Storms(fog)	True	False	0.00
2010-06-01 04:00:00 5715 4 0.00 0.00 0.00 0.0 0.00	12.6287505598	0.00	0.00	Few_Showers(mostly_cloudy)	True	False	0.00
2010-06-01 05:00:00 5716 5 0.09 0.09 0.09 0.0 0.70	12.6287505598	0.09	0.00	Few_Showers(sunny)	True	False	0.00
2010-06-01 06:00:00 5717 6 9.18 9.18 9.18 42.1 72.70	12.6287505598	9.18	42.10	Few_Showers(partly_cloudy)	True	False	42.10
2010-06-01 07:00:00 5718 7 33.88 33.88 33.88 235.5 268.30	12.6287505598	33.88	235.50	Few_Showers(fair)	True	False	235.50
2010-06-01 08:00:00 5719 8 67.16 67.16 67.16 435.7 531.80	12.6287505598	67.16	435.70	Few_Showers(fair)	True	False	435.70
2010-06-01 09:00:00 5720 9 97.24 97.24 97.24 669.2 770.00	12.6287505598	97.24	669.20	Few_Showers(mostly_cloudy)	True	False	669.20
2010-06-01 10:00:00 5721 10 122.01 122.01 122.01 813.4 966.70	12.6215390314	122.01	813.40	Scattered_T-Storms(mostly_cloudy)	True	False	813.40
2010-06-01 11:00:00 5722 11 132.75 132.75 132.75 833.3 1051.80	12.6215390314	132.75	833.30	Scattered_T-Storms(mostly_cloudy)	True	False	833.30
2010-06-01 12:00:00 5723 12 138.10 138.10 138.10 882.1 1094.20	12.6215390314	138.10	882.10	Scattered_T-Storms(partly_cloudy)	True	False	882.10
2010-06-01 13:00:00 5724 13 136.30 136.30 136.30 499.8 1079.90	12.6215390314	136.30	499.80	Scattered_T-Storms(mostly_cloudy)	True	False	499.80
2010-06-01 14:00:00 5725 14 127.83 127.83 127.83 490.2 1012.80	12.6215390314	127.83	490.20	Scattered_T-Storms(mostly_cloudy)	True	False	490.20
2010-06-01 15:00:00 5726 15 112.74 112.74 112.74 488.5 893.20	12.6215390314	112.74	488.50	Scattered_T-Storms(light_rain)	True	False	488.50
2010-06-01 16:00:00 5727 16 90.43 90.43 90.43 105.4 716.10	12.6287505598	90.43	105.40	T-Storms(thunder)	True	False	105.40
2010-06-01 17:00:00 5728 17 61.22 61.22 61.22 265.4 484.80	12.6287505598	61.22	265.40	T-Storms(thunder_in_the_vicinity)	True	False	265.40
2010-06-01 18:00:00 5729 18 24.71 24.71 24.71 15.0 195.70	12.6287505598	24.71	15.00	T-Storms(t-storm)	True	False	15.00
2010-06-01 19:00:00 5730 19 6.34 6.34 6.34 27.4 50.20	12.6287505598	6.34	27.40	Scattered_T-Storms(mostly_cloudy)	True	False	27.40
2010-06-01 20:00:00 5731 20 0.30 0.30 0.30 0.0 2.40	12.6287505598	0.30	0.00	Scattered_T-Storms(cloudy)	True	False	0.00
2010-06-01 21:00:00 5732 21 0.00 0.00 0.00 0.0 0.00	12.6287505598	0.00	0.00	Scattered_T-Storms(partly_cloudy)	True	False	0.00
2010-06-01 22:00:00 5733 22 0.00 0.00 0.00 0.0 0.00	12.6287505598	0.00	0.00	Few_Showers(mostly_cloudy)	True	False	0.00
2010-06-01 23:00:00 5734 23 0.00 0.00 0.00 0.0 0.00	12.6287505598	0.00	0.00	Few_Showers(fair)	True	False	0.00
2010-06-02 00:00:00 5735 0 0.00 0.00 0.00 0.0 0.00	12.6287505598	0.00	0.00	Few_Showers(fog)	True	False	0.00
2010-06-02 01:00:00 5736 1 0.00 0.00 0.00 0.0 0.00	78.9788933257	0.00	0.00	Partly_Cloudy(fog)	True	False	0.00
2010-06-02 02:00:00 5737 2 0.00 0.00 0.00 0.0 0.00	78.9788933257	0.00	0.00	Partly_Cloudy(light_rain)	True	False	0.00
2010-06-02 03:00:00 5738 3 0.00 0.00 0.00 0.0 0.00	78.9788933257	0.00	0.00	Partly_Cloudy(mostly_cloudy)	True	False	0.00
2010-06-02 04:00:00 5739 4 0.00 0.00 0.00 0.0 0.00	78.9788933257	0.00	0.00	Partly_Cloudy(cloudy)	True	False	0.00
2010-06-02 05:00:00 5740 5 0.55 0.55 0.55 0.0 0.70	78.9788933257	0.55	0.00	Partly_Cloudy(fog)	True	False	0.00
2010-06-02 06:00:00 5741 6 57.42 57.42 57.42 54.0 72.70	78.9788933257	57.42	54.00	Partly_Cloudy(fog)	True	False	54.00
2010-06-02 07:00:00 5742 7 211.90 211.90 211.90 244.2 268.30	78.9788933257	211.90	244.20	Partly_Cloudy(fog)	True	False	244.20
2010-06-02 08:00:00 5743 8 420.01 420.01 420.01 507.0 531.80	78.9788933257	420.01	507.00	Partly_Cloudy(sunny)	True	False	507.00
2010-06-02 09:00:00 5744 9 608.14 608.14 608.14 737.0 770.00	78.9788933257	608.14	737.00	Partly_Cloudy(sunny)	True	False	737.00
2010-06-02 10:00:00 5745 10 763.49 763.49 763.49 915.8 966.70	78.9788933257	763.49	915.80	Mostly_Sunny(sunny)	False	False	915.80
2010-06-02 11:00:00 5746 11 830.70 830.70 830.70 1017.0 1051.80	78.9788933257	830.70	1017.00	Mostly_Sunny(sunny)	False	False	1017.00
2010-06-02 12:00:00 5747 12 1042.02 1042.02 1042.02 1052.9 1094.20	95.2310399111	1042.02	1052.90	Sunny(sunny)	True	False	1052.90
2010-06-02 13:00:00 5748 13 1028.40 1028.40 1028.40 1034.5 1079.90	95.2310399111	1028.40	1034.50	Sunny(sunny)	True	False	1034.50
2010-06-02 14:00:00 5749 14 964.50 964.50 964.50 961.2 1012.80	95.2310399111	964.50	961.20	Sunny(sunny)	True	False	961.20
2010-06-02 15:00:00 5750 15 850.60 850.60 850.60 809.2 893.20	95.2310399111	850.60	809.20	Sunny(sunny)	True	False	809.20
