2010-07-21 02:00:00 65041 2 0.00 0.00 0.00 0.0 0.00	57.2691995307	0.00	0.00	Mostly_Cloudy(partly_cloudy)	True	False	0.00
2010-07-21 03:00:00 65042 3 0.00 0.00 0.00 0.0 0.00	74.3959957648	0.00	0.00	Partly_Cloudy(partly_cloudy)	True	False	0.00
2010-07-21 04:00:00 65043 4 0.00 0.00 0.00 0.0 0.00	57.2691995307	0.00	0.00	Mostly_Cloudy(partly_cloudy)	True	False	0.00
2010-07-21 05:00:00 65044 5 0.00 0.00 0.00 0.0 0.00	57.2691995307	0.00	0.00	Mostly_Cloudy(fog)	True	False	0.00
2010-07-21 06:00:00 65045 6 44.50 44.50 44.50 22.3 77.70	57.2691995307	44.50	22.30	Mostly_Cloudy(mostly_cloudy)	True	False	22.30
2010-07-21 07:00:00 65046 7 118.78 118.78 118.78 168.8 207.40	57.2691995307	118.78	168.80	Mostly_Cloudy(fair)	True	False	168.80
2010-07-21 08:00:00 65047 8 278.27 278.27 278.27 416.8 485.90	57.2691995307	278.27	416.80	Mostly_Cloudy(sunny)	True	False	416.80
2010-07-21 09:00:00 65048 9 426.71 426.71 426.71 651.7 745.10	57.2691995307	426.71	651.70	Mostly_Cloudy(sunny)	True	False	651.70
2010-07-21 10:00:00 65049 10 189.90 189.90 189.90 723.8 919.50	20.6525839306	189.90	723.80	Scattered_T-Storms(fair)	True	False	723.80
2010-07-21 11:00:00 65050 11 214.56 214.56 214.56 772.9 1038.90	20.6525839306	214.56	772.90	Scattered_T-Storms(partly_cloudy)	True	False	772.90
2010-07-21 12:00:00 65051 12 228.85 228.85 228.85 487.1 1108.10	20.6525839306	228.85	487.10	Scattered_T-Storms(fair)	True	False	487.10
2010-07-21 13:00:00 65052 13 228.77 228.77 228.77 496.0 1107.70	20.6525839306	228.77	496.00	Scattered_T-Storms(partly_cloudy)	True	False	496.00
2010-07-21 14:00:00 65053 14 219.00 219.00 219.00 921.4 1060.40	20.6525839306	219.00	921.40	Scattered_T-Storms(fair)	True	False	921.40
2010-07-21 15:00:00 65054 15 193.95 193.95 193.95 640.2 939.10	20.6525839306	193.95	640.20	Scattered_T-Storms(fair)	True	False	640.20
2010-07-21 16:00:00 65055 16 194.78 194.78 194.78 498.2 758.90	25.6667335071	194.78	498.20	Scattered_T-Storms(mostly_cloudy)	True	False	498.20
2010-07-21 17:00:00 65056 17 128.00 128.00 128.00 366.7 498.70	25.6667335071	128.00	366.70	Scattered_T-Storms(fair)	True	False	366.70
2010-07-21 18:00:00 65057 18 58.37 58.37 58.37 61.8 227.40	25.6667335071	58.37	61.80	Scattered_T-Storms(t-storm)	True	False	61.80
2010-07-21 19:00:00 65058 19 18.94 18.94 18.94 25.6 73.80	25.6667335071	18.94	25.60	Scattered_T-Storms(fair)	True	False	25.60
2010-07-21 20:00:00 65059 20 1.75 1.75 1.75 0.0 6.80	25.6667335071	1.75	0.00	Scattered_T-Storms(partly_cloudy)	True	False	0.00
2010-07-21 21:00:00 65060 21 0.00 0.00 0.00 0.0 0.00	25.6667335071	0.00	0.00	Scattered_T-Storms(light_rain)	True	False	0.00
2010-07-21 22:00:00 65061 22 0.00 0.00 0.00 0.0 0.00	74.3959957648	0.00	0.00	Partly_Cloudy(fair)	True	False	0.00
2010-07-21 23:00:00 65062 23 0.00 0.00 0.00 0.0 0.00	74.3959957648	0.00	0.00	Partly_Cloudy(fair)	True	False	0.00
2010-07-22 00:00:00 65063 0 0.00 0.00 0.00 0.0 0.00	74.3959957648	0.00	0.00	Partly_Cloudy(partly_cloudy)	True	False	0.00
2010-07-22 01:00:00 65064 1 0.00 0.00 0.00 0.0 0.00	74.3959957648	0.00	0.00	Mostly_Clear(partly_cloudy)	False	False	0.00
2010-07-22 02:00:00 65065 2 0.00 0.00 0.00 0.0 0.00	74.3959957648	0.00	0.00	Mostly_Clear(fog)	False	False	0.00
2010-07-22 03:00:00 65066 3 0.00 0.00 0.00 0.0 0.00	74.3959957648	0.00	0.00	Mostly_Clear(clear)	False	False	0.00
2010-07-22 04:00:00 65067 4 0.00 0.00 0.00 0.0 0.00	74.3959957648	0.00	0.00	Partly_Cloudy(clear)	True	False	0.00
2010-07-22 05:00:00 65068 5 0.00 0.00 0.00 0.0 0.00	74.3959957648	0.00	0.00	Partly_Cloudy(clear)	True	False	0.00
2010-07-22 06:00:00 65069 6 57.81 57.81 57.81 16.5 77.70	74.3959957648	57.81	16.50	Partly_Cloudy(sunny)	True	False	16.50
2010-07-22 07:00:00 65070 7 174.92 174.92 174.92 184.7 207.40	84.3383412225	174.92	184.70	Sunny(sunny)	True	False	184.70
2010-07-22 08:00:00 65071 8 409.80 409.80 409.80 461.6 485.90	84.3383412225	409.80	461.60	Sunny(sunny)	True	False	461.60
2010-07-22 09:00:00 65072 9 628.40 628.40 628.40 713.0 745.10	84.3383412225	628.40	713.00	Sunny(sunny)	True	False	713.00
2010-07-22 10:00:00 65073 10 775.49 775.49 775.49 903.1 919.50	84.3383412225	775.49	903.10	Mostly_Sunny(sunny)	False	False	903.10
2010-07-22 11:00:00 65074 11 876.19 876.19 876.19 1007.0 1038.90	84.3383412225	876.19	1007.00	Mostly_Sunny(sunny)	False	False	1007.00
2010-07-22 12:00:00 65075 12 934.55 934.55 934.55 950.0 1108.10	84.3383412225	934.55	950.00	Mostly_Sunny(fair)	False	False	950.00
2010-07-22 13:00:00 65076 13 934.22 934.22 934.22 792.3 1107.70	84.3383412225	934.22	792.30	Mostly_Sunny(fair)	False	False	792.30
2010-07-22 14:00:00 65077 14 894.32 894.32 894.32 807.3 1060.40	84.3383412225	894.32	807.30	Mostly_Sunny(partly_cloudy)	False	False	807.30
2010-07-22 15:00:00 65078 15 792.02 792.02 792.02 705.3 939.10	84.3383412225	792.02	705.30	Mostly_Sunny(mostly_cloudy)	False	False	705.30
2010-07-22 16:00:00 65079 16 564.59 564.59 564.59 588.6 758.90	74.3959957648	564.59	588.60	Partly_Cloudy(partly_cloudy)	True	False	588.60
2010-07-22 17:00:00 65080 17 371.01 371.01 371.01 405.3 498.70	74.3959957648	371.01	405.30	Partly_Cloudy(partly_cloudy)	True	False	405.30
2010-07-22 18:00:00 65081 18 169.18 169.18 169.18 161.4 227.40	74.3959957648	169.18	161.40	Partly_Cloudy(fair)	True	False	161.40
2010-07-22 19:00:00 65082 19 54.90 54.90 54.90 27.5 73.80	74.3959957648	54.90	27.50	Partly_Cloudy(partly_cloudy)	True	False	27.50
2010-07-22 20:00:00 65083 20 5.06 5.06 5.06 0.6 6.80	74.3959957648	5.06	0.60	Partly_Cloudy(fair)	True	False	0.60
2010-07-22 21:00:00 65084 21 0.00 0.00 0.00 0.0 0.00	74.3959957648	0.00	0.00	Partly_Cloudy(fair)	True	False	0.00
2010-07-22 22:00:00 65085 22 0.00 0.00 0.00 0.0 0.00	74.3959957648	0.00	0.00	Partly_Cloudy(partly_cloudy)	True	False	0.00
2010-07-22 23:00:00 65086 23 0.00 0.00 0.00 0.0 0.00	74.3959957648	0.00	0.00	Partly_Cloudy(partly_cloudy)	True	False	0.00
2010-07-23 00:00:00 65087 0 0.00 0.00 0.00 0.0 0.00	74.3959957648	0.00	0.00	Partly_Cloudy(partly_cloudy)	True	False	0.00
2010-07-23 01:00:00 65088 1 0.00 0.00 0.00 0.0 0.00	57.2691995307	0.00	0.00	Mostly_Cloudy(partly_cloudy)	True	False	0.00
2010-07-23 02:00:00 65089 2 0.00 0.00 0.00 0.0 0.00	57.2691995307	0.00	0.00	Mostly_Cloudy(partly_cloudy)	True	False	0.00
