2010-06-09 12:00:00 16139 12 1040.29 1040.29 131.91 216.2 1094.20	12.0556872038	131.91	216.20	Few_Showers(light_rain)	True	False	216.20
2010-06-09 13:00:00 16140 13 213.37 213.37 137.80 93.7 1079.90	12.7604407816	137.80	93.70	Showers(light_rain)	True	False	93.70
2010-06-09 14:00:00 16141 14 129.24 200.12 129.24 92.0 1012.80	12.7604407816	129.24	92.00	Showers(light_rain)	True	False	92.00
2010-06-09 15:00:00 16142 15 112.74 174.57 112.74 92.8 883.50	12.7604407816	112.74	92.80	Showers(light_rain)	True	False	92.80
2010-06-09 16:00:00 16143 16 101.76 141.49 101.76 70.3 716.10	14.2104130809	101.76	70.30	Rain(light_rain)	True	False	70.30
2010-06-09 17:00:00 16144 17 59.63 82.91 59.63 15.9 419.60	14.2104130809	59.63	15.90	Rain(light_rain)	True	False	15.90
2010-06-09 18:00:00 16145 18 30.44 42.32 30.44 6.2 214.20	14.2104130809	30.44	6.20	Rain(light_rain)	True	False	6.20
2010-06-09 19:00:00 16146 19 7.59 10.55 7.59 0.0 53.40	14.2104130809	7.59	0.00	Rain(light_rain)	True	False	0.00
2010-06-09 20:00:00 16147 20 0.40 0.55 0.40 0.0 2.80	14.2104130809	0.40	0.00	Rain(light_rain)	True	False	0.00
2010-06-09 21:00:00 16148 21 0.00 0.00 0.00 0.0 0.00	14.2104130809	0.00	0.00	Rain(light_rain)	True	False	0.00
2010-06-09 22:00:00 16149 22 0.00 0.00 0.00 0.0 0.00	14.2104130809	0.00	0.00	T-Showers(light_rain)	True	False	0.00
2010-06-09 23:00:00 16150 23 0.00 0.00 0.00 0.0 0.00	14.2104130809	0.00	0.00	T-Showers(light_rain)	True	False	0.00
2010-06-10 00:00:00 16151 0 0.00 0.00 0.00 0.0 0.00	14.2104130809	0.00	0.00	T-Showers(cloudy)	True	False	0.00
2010-06-10 01:00:00 16152 1 0.00 0.00 0.00 0.0 0.00	64.6258503401	0.00	0.00	Mostly_Cloudy(cloudy)	True	False	0.00
2010-06-10 02:00:00 16153 2 0.00 0.00 0.00 0.0 0.00	64.6258503401	0.00	0.00	Mostly_Cloudy(cloudy)	True	False	0.00
2010-06-10 03:00:00 16154 3 0.00 0.00 0.00 0.0 0.00	64.6258503401	0.00	0.00	Mostly_Cloudy(cloudy)	True	False	0.00
2010-06-10 04:00:00 16155 4 0.00 0.00 0.00 0.0 0.00	64.6258503401	0.00	0.00	Mostly_Cloudy(cloudy)	True	False	0.00
2010-06-10 05:00:00 16156 5 1.16 1.16 1.16 0.0 1.80	64.6258503401	1.16	0.00	Mostly_Cloudy(cloudy)	True	False	0.00
2010-06-10 06:00:00 16157 6 47.50 47.50 47.50 2.5 73.50	64.6258503401	47.50	2.50	Mostly_Cloudy(fog)	True	False	2.50
2010-06-10 07:00:00 16158 7 196.26 196.26 196.26 72.6 248.50	78.9788933257	196.26	72.60	Partly_Cloudy(cloudy)	True	False	72.60
2010-06-10 08:00:00 16159 8 420.01 420.01 420.01 172.6 531.80	78.9788933257	420.01	172.60	Partly_Cloudy(cloudy)	True	False	172.60
2010-06-10 09:00:00 16160 9 599.77 599.77 599.77 298.0 759.40	78.9788933257	599.77	298.00	Partly_Cloudy(cloudy)	True	False	298.00
2010-06-10 10:00:00 16161 10 734.19 734.19 734.19 421.5 929.60	78.9788933257	734.19	421.50	Mostly_Sunny(cloudy)	False	False	421.50
2010-06-10 11:00:00 16162 11 830.70 830.70 830.70 802.2 1051.80	78.9788933257	830.70	802.20	Mostly_Sunny(cloudy)	False	False	802.20
2010-06-10 12:00:00 16163 12 864.19 864.19 864.19 756.0 1094.20	78.9788933257	864.19	756.00	Mostly_Sunny(cloudy)	False	False	756.00
2010-06-10 13:00:00 16164 13 852.89 852.89 852.89 1010.9 1079.90	78.9788933257	852.89	1010.90	Mostly_Sunny(partly_cloudy)	False	False	1010.90
2010-06-10 14:00:00 16165 14 799.90 799.90 799.90 676.7 1012.80	78.9788933257	799.90	676.70	Mostly_Sunny(fair)	False	False	676.70
2010-06-10 15:00:00 16166 15 697.78 697.78 697.78 356.6 883.50	78.9788933257	697.78	356.60	Mostly_Sunny(fair)	False	False	356.60
2010-06-10 16:00:00 16167 16 565.57 565.57 565.57 302.0 716.10	78.9788933257	565.57	302.00	Partly_Cloudy(cloudy)	True	False	302.00
2010-06-10 17:00:00 16168 17 331.40 331.40 331.40 262.9 419.60	78.9788933257	331.40	262.90	Partly_Cloudy(partly_cloudy)	True	False	262.90
2010-06-10 18:00:00 16169 18 169.17 169.17 169.17 110.6 214.20	78.9788933257	169.17	110.60	Partly_Cloudy(cloudy)	True	False	110.60
2010-06-10 19:00:00 16170 19 42.17 42.17 42.17 18.3 53.40	78.9788933257	42.17	18.30	Partly_Cloudy(partly_cloudy)	True	False	18.30
2010-06-10 20:00:00 16171 20 2.21 2.21 2.21 0.0 2.80	78.9788933257	2.21	0.00	Partly_Cloudy(cloudy)	True	False	0.00
2010-06-10 21:00:00 16172 21 0.00 0.00 0.00 0.0 0.00	78.9788933257	0.00	0.00	Partly_Cloudy(mostly_cloudy)	True	False	0.00
2010-06-10 22:00:00 16173 22 0.00 0.00 0.00 0.0 0.00	78.9788933257	0.00	0.00	Partly_Cloudy(mostly_cloudy)	True	False	0.00
2010-06-10 23:00:00 16174 23 0.00 0.00 0.00 0.0 0.00	78.9788933257	0.00	0.00	Partly_Cloudy(fair)	True	False	0.00
2010-06-11 00:00:00 16175 0 0.00 0.00 0.00 0.0 0.00	78.9788933257	0.00	0.00	Partly_Cloudy(clear)	True	False	0.00
2010-06-11 01:00:00 16176 1 0.00 0.00 0.00 0.0 0.00	64.6258503401	0.00	0.00	Mostly_Cloudy(clear)	True	False	0.00
2010-06-11 02:00:00 16177 2 0.00 0.00 0.00 0.0 0.00	64.6258503401	0.00	0.00	Mostly_Cloudy(clear)	True	False	0.00
2010-06-11 03:00:00 16178 3 0.00 0.00 0.00 0.0 0.00	64.6258503401	0.00	0.00	Mostly_Cloudy(clear)	True	False	0.00
2010-06-11 04:00:00 16179 4 0.00 0.00 0.00 0.0 0.00	78.9788933257	0.00	0.00	Partly_Cloudy(partly_cloudy)	True	False	0.00
2010-06-11 05:00:00 16180 5 1.42 1.42 1.42 3.2 1.80	78.9788933257	1.42	3.20	Partly_Cloudy(sunny)	True	False	3.20
2010-06-11 06:00:00 16181 6 58.05 58.05 58.05 101.3 73.50	78.9788933257	58.05	101.30	Partly_Cloudy(partly_cloudy)	True	False	101.30
2010-06-11 07:00:00 16182 7 196.26 196.26 196.26 293.1 248.50	78.9788933257	196.26	293.10	Partly_Cloudy(partly_cloudy)	True	False	293.10
2010-06-11 08:00:00 16183 8 420.01 420.01 420.01 509.2 531.80	78.9788933257	420.01	509.20	Partly_Cloudy(partly_cloudy)	True	False	509.20
2010-06-11 09:00:00 16184 9 599.77 599.77 599.77 704.0 759.40	78.9788933257	599.77	704.00	Partly_Cloudy(partly_cloudy)	True	False	704.00
2010-06-11 10:00:00 16185 10 521.20 521.20 521.20 689.2 929.60	56.0671256454	521.20	689.20	Mostly_Cloudy(partly_cloudy)	True	False	689.20
2010-06-11 11:00:00 16186 11 589.71 589.71 589.71 920.2 1051.80	56.0671256454	589.71	920.20	Mostly_Cloudy(mostly_cloudy)	True	False	920.20
2010-06-11 12:00:00 16187 12 613.49 613.49 613.49 789.5 1094.20	56.0671256454	613.49	789.50	Mostly_Cloudy(mostly_cloudy)	True	False	789.50
