2010-06-01 17:00:00 6976 17 52.99 400.17 400.17 265.4 419.60	12.6287505598	400.17	265.40	Scattered_T-Storms(thunder_in_the_vicinity)	True	False	265.40
2010-06-01 18:00:00 6977 18 27.05 135.48 135.48 15.0 214.20	12.6287505598	135.48	15.00	Scattered_T-Storms(t-storm)	True	False	15.00
2010-06-01 19:00:00 6978 19 6.54 32.76 32.76 27.4 51.80	12.6287505598	32.76	27.40	Scattered_T-Storms(mostly_cloudy)	True	False	27.40
2010-06-01 20:00:00 6979 20 0.30 1.52 1.52 0.0 2.40	12.6287505598	1.52	0.00	Scattered_T-Storms(cloudy)	True	False	0.00
2010-06-01 21:00:00 6980 21 0.00 0.00 0.00 0.0 0.00	12.6287505598	0.00	0.00	Scattered_T-Storms(partly_cloudy)	True	False	0.00
2010-06-01 22:00:00 6981 22 0.00 0.00 0.00 0.0 0.00	80.0223630265	0.00	0.00	Partly_Cloudy(mostly_cloudy)	True	False	0.00
2010-06-01 23:00:00 6982 23 0.00 0.00 0.00 0.0 0.00	80.0223630265	0.00	0.00	Partly_Cloudy(fair)	True	False	0.00
2010-06-02 00:00:00 6983 0 0.00 0.00 0.00 0.0 0.00	80.0223630265	0.00	0.00	Partly_Cloudy(fog)	True	False	0.00
2010-06-02 01:00:00 6984 1 0.00 0.00 0.00 0.0 0.00	92.6202012672	0.00	0.00	Clear(fog)	True	False	0.00
2010-06-02 02:00:00 6985 2 0.00 0.00 0.00 0.0 0.00	92.6202012672	0.00	0.00	Clear(light_rain)	True	False	0.00
2010-06-02 03:00:00 6986 3 0.00 0.00 0.00 0.0 0.00	92.6202012672	0.00	0.00	Clear(mostly_cloudy)	True	False	0.00
2010-06-02 04:00:00 6987 4 0.00 0.00 0.00 0.0 0.00	80.0223630265	0.00	0.00	Partly_Cloudy(cloudy)	True	False	0.00
2010-06-02 05:00:00 6988 5 0.56 0.56 0.56 0.0 0.70	80.0223630265	0.56	0.00	Partly_Cloudy(fog)	True	False	0.00
2010-06-02 06:00:00 6989 6 58.18 58.18 58.18 54.0 72.70	80.0223630265	58.18	54.00	Partly_Cloudy(fog)	True	False	54.00
2010-06-02 07:00:00 6990 7 214.70 214.70 214.70 244.2 268.30	80.0223630265	214.70	244.20	Partly_Cloudy(fog)	True	False	244.20
2010-06-02 08:00:00 6991 8 425.56 425.56 425.56 507.0 531.80	80.0223630265	425.56	507.00	Partly_Cloudy(sunny)	True	False	507.00
2010-06-02 09:00:00 6992 9 616.17 616.17 616.17 737.0 770.00	80.0223630265	616.17	737.00	Partly_Cloudy(sunny)	True	False	737.00
2010-06-02 10:00:00 6993 10 762.13 762.13 762.13 915.8 952.40	80.0223630265	762.13	915.80	Mostly_Sunny(sunny)	False	False	915.80
2010-06-02 11:00:00 6994 11 841.68 841.68 841.68 1017.0 1051.80	80.0223630265	841.68	1017.00	Mostly_Sunny(sunny)	False	False	1017.00
2010-06-02 12:00:00 6995 12 875.60 875.60 875.60 1052.9 1094.20	80.0223630265	875.60	1052.90	Mostly_Sunny(sunny)	False	False	1052.90
2010-06-02 13:00:00 6996 13 1029.90 1029.90 1029.90 1034.5 1079.90	95.3695926081	1029.90	1034.50	Sunny(sunny)	True	False	1034.50
2010-06-02 14:00:00 6997 14 965.90 965.90 965.90 961.2 1012.80	95.3695926081	965.90	961.20	Sunny(sunny)	True	False	961.20
2010-06-02 15:00:00 6998 15 851.84 851.84 851.84 809.2 893.20	95.3695926081	851.84	809.20	Sunny(sunny)	True	False	809.20
2010-06-02 16:00:00 6999 16 682.94 682.94 682.94 611.2 716.10	95.3695926081	682.94	611.20	Mostly_Sunny(sunny)	False	False	611.20
2010-06-02 17:00:00 7000 17 400.17 400.17 400.17 293.6 419.60	95.3695926081	400.17	293.60	Mostly_Sunny(partly_cloudy)	False	False	293.60
2010-06-02 18:00:00 7001 18 204.28 204.28 204.28 162.1 214.20	95.3695926081	204.28	162.10	Mostly_Sunny(sunny)	False	False	162.10
2010-06-02 19:00:00 7002 19 41.45 41.45 41.45 36.3 51.80	80.0223630265	41.45	36.30	Partly_Cloudy(partly_cloudy)	True	False	36.30
2010-06-02 20:00:00 7003 20 1.92 1.92 1.92 0.1 2.40	80.0223630265	1.92	0.10	Partly_Cloudy(fair)	True	False	0.10
2010-06-02 21:00:00 7004 21 0.00 0.00 0.00 0.0 0.00	80.0223630265	0.00	0.00	Partly_Cloudy(fair)	True	False	0.00
2010-06-02 22:00:00 7005 22 0.00 0.00 0.00 0.0 0.00	80.0223630265	0.00	0.00	Partly_Cloudy(clear)	True	False	0.00
2010-06-02 23:00:00 7006 23 0.00 0.00 0.00 0.0 0.00	80.0223630265	0.00	0.00	Partly_Cloudy(clear)	True	False	0.00
2010-06-03 00:00:00 7007 0 0.00 0.00 0.00 0.0 0.00	80.0223630265	0.00	0.00	Partly_Cloudy(clear)	True	False	0.00
2010-06-03 01:00:00 7008 1 0.00 0.00 0.00 0.0 0.00	80.0223630265	0.00	0.00	Partly_Cloudy(clear)	True	False	0.00
2010-06-03 02:00:00 7009 2 0.00 0.00 0.00 0.0 0.00	80.0223630265	0.00	0.00	Partly_Cloudy(fog)	True	False	0.00
2010-06-03 03:00:00 7010 3 0.00 0.00 0.00 0.0 0.00	80.0223630265	0.00	0.00	Partly_Cloudy(clear)	True	False	0.00
2010-06-03 04:00:00 7011 4 0.00 0.00 0.00 0.0 0.00	80.0223630265	0.00	0.00	Partly_Cloudy(clear)	True	False	0.00
2010-06-03 05:00:00 7012 5 0.56 0.56 0.56 0.0 0.70	80.0223630265	0.56	0.00	Partly_Cloudy(fog)	True	False	0.00
2010-06-03 06:00:00 7013 6 58.18 58.18 58.18 71.3 72.70	80.0223630265	58.18	71.30	Partly_Cloudy(fog)	True	False	71.30
2010-06-03 07:00:00 7014 7 214.70 214.70 214.70 225.3 268.30	80.0223630265	214.70	225.30	Partly_Cloudy(sunny)	True	False	225.30
2010-06-03 08:00:00 7015 8 425.56 425.56 425.56 463.7 531.80	80.0223630265	425.56	463.70	Partly_Cloudy(sunny)	True	False	463.70
2010-06-03 09:00:00 7016 9 616.17 616.17 616.17 597.5 770.00	80.0223630265	616.17	597.50	Partly_Cloudy(partly_cloudy)	True	False	597.50
2010-06-03 10:00:00 7017 10 819.62 819.62 819.62 764.4 952.40	86.0584518167	819.62	764.40	Partly_Cloudy(fair)	True	False	764.40
2010-06-03 11:00:00 7018 11 905.16 905.16 905.16 994.6 1051.80	86.0584518167	905.16	994.60	Partly_Cloudy(sunny)	True	False	994.60
2010-06-03 12:00:00 7019 12 941.65 941.65 941.65 869.2 1094.20	86.0584518167	941.65	869.20	Partly_Cloudy(fair)	True	False	869.20
2010-06-03 13:00:00 7020 13 136.30 136.30 136.30 742.2 1079.90	12.6215390314	136.30	742.20	Isolated_T-Storms(partly_cloudy)	True	False	742.20
2010-06-03 14:00:00 7021 14 127.83 127.83 127.83 988.4 1012.80	12.6215390314	127.83	988.40	Isolated_T-Storms(sunny)	True	False	988.40
2010-06-03 15:00:00 7022 15 112.74 112.74 112.74 836.5 893.20	12.6215390314	112.74	836.50	Isolated_T-Storms(partly_cloudy)	True	False	836.50
2010-06-03 16:00:00 7023 16 90.43 90.43 90.43 663.8 716.10	12.6287505598	90.43	663.80	Isolated_T-Storms(fair)	True	False	663.80
2010-06-03 17:00:00 7024 17 52.99 52.99 52.99 385.1 419.60	12.6287505598	52.99	385.10	Isolated_T-Storms(sunny)	True	False	385.10
