2010-06-15 23:00:00 23734 23 0.00 0.00 0.00 0.0 0.00	78.1684981685	0.00	0.00	Partly_Cloudy(clear)	True	False	0.00
2010-06-16 00:00:00 23735 0 0.00 0.00 0.00 0.0 0.00	76.3580607477	0.00	0.00	Clear(clear)	True	False	0.00
2010-06-16 01:00:00 23736 1 0.00 0.00 0.00 0.0 0.00	64.6258503401	0.00	0.00	Mostly_Cloudy(clear)	True	False	0.00
2010-06-16 02:00:00 23737 2 0.00 0.00 0.00 0.0 0.00	64.6258503401	0.00	0.00	Mostly_Cloudy(clear)	True	False	0.00
2010-06-16 03:00:00 23738 3 0.00 0.00 0.00 0.0 0.00	64.6258503401	0.00	0.00	Mostly_Cloudy(mostly_cloudy)	True	False	0.00
2010-06-16 04:00:00 23739 4 0.00 0.00 0.00 0.0 0.00	64.6258503401	0.00	0.00	Mostly_Cloudy(cloudy)	True	False	0.00
2010-06-16 05:00:00 23740 5 1.16 1.16 1.16 0.0 1.80	64.6258503401	1.16	0.00	Mostly_Cloudy(cloudy)	True	False	0.00
2010-06-16 06:00:00 23741 6 47.50 47.50 47.50 25.3 73.50	64.6258503401	47.50	25.30	Mostly_Cloudy(cloudy)	True	False	25.30
2010-06-16 07:00:00 23742 7 31.05 31.05 31.05 131.9 220.30	14.0947144821	31.05	131.90	Few_Showers(cloudy)	True	False	131.90
2010-06-16 08:00:00 23743 8 57.72 57.72 57.72 127.3 409.50	14.0947144821	57.72	127.30	Few_Showers(cloudy)	True	False	127.30
2010-06-16 09:00:00 23744 9 96.52 96.52 96.52 265.3 684.80	14.0947144821	96.52	265.30	Few_Showers(cloudy)	True	False	265.30
2010-06-16 10:00:00 23745 10 123.29 123.29 123.29 186.9 929.60	13.2630892896	123.29	186.90	Few_Showers(cloudy)	True	False	186.90
2010-06-16 11:00:00 23746 11 125.23 125.23 125.23 369.6 944.20	13.2630892896	125.23	369.60	Few_Showers(cloudy)	True	False	369.60
2010-06-16 12:00:00 23747 12 124.51 124.51 124.51 361.7 938.80	13.2630892896	124.51	361.70	Few_Showers(cloudy)	True	False	361.70
2010-06-16 13:00:00 23748 13 146.97 146.97 146.97 746.4 1040.80	14.1212252879	146.97	746.40	Showers(cloudy)	True	False	746.40
2010-06-16 14:00:00 23749 14 130.00 130.00 130.00 522.7 920.60	14.1212252879	130.00	522.70	Showers(cloudy)	True	False	522.70
2010-06-16 15:00:00 23750 15 113.01 113.01 113.01 667.9 800.30	14.1212252879	113.01	667.90	Showers(cloudy)	True	False	667.90
2010-06-16 16:00:00 23751 16 100.93 100.93 100.93 486.1 716.10	14.0947144821	100.93	486.10	Scattered_T-Storms(partly_cloudy)	True	False	486.10
2010-06-16 17:00:00 23752 17 60.10 60.10 60.10 211.4 426.40	14.0947144821	60.10	211.40	Scattered_T-Storms(cloudy)	True	False	211.40
2010-06-16 18:00:00 23753 18 30.19 30.19 30.19 51.7 214.20	14.0947144821	30.19	51.70	Scattered_T-Storms(cloudy)	True	False	51.70
2010-06-16 19:00:00 23754 19 7.53 7.53 7.53 7.8 53.40	14.0947144821	7.53	7.80	Scattered_T-Storms(cloudy)	True	False	7.80
2010-06-16 20:00:00 23755 20 0.49 0.49 0.49 0.0 3.50	14.0947144821	0.49	0.00	Scattered_T-Storms(cloudy)	True	False	0.00
2010-06-16 21:00:00 23756 21 0.00 0.00 0.00 0.0 0.00	14.0947144821	0.00	0.00	Scattered_T-Storms(cloudy)	True	False	0.00
2010-06-16 22:00:00 23757 22 0.00 0.00 0.00 0.0 0.00	14.0947144821	0.00	0.00	Isolated_T-Storms(cloudy)	True	False	0.00
2010-06-16 23:00:00 23758 23 0.00 0.00 0.00 0.0 0.00	14.0947144821	0.00	0.00	Isolated_T-Storms(cloudy)	True	False	0.00
2010-06-17 00:00:00 23759 0 0.00 0.00 0.00 0.0 0.00	14.0947144821	0.00	0.00	Isolated_T-Storms(cloudy)	True	False	0.00
2010-06-17 01:00:00 23760 1 0.00 0.00 0.00 0.0 0.00	64.6258503401	0.00	0.00	Mostly_Cloudy(t-storm)	True	False	0.00
2010-06-17 02:00:00 23761 2 0.00 0.00 0.00 0.0 0.00	64.6258503401	0.00	0.00	Mostly_Cloudy(cloudy)	True	False	0.00
2010-06-17 03:00:00 23762 3 0.00 0.00 0.00 0.0 0.00	64.6258503401	0.00	0.00	Mostly_Cloudy(fog)	True	False	0.00
2010-06-17 04:00:00 23763 4 0.00 0.00 0.00 0.0 0.00	78.1684981685	0.00	0.00	Partly_Cloudy(fog)	True	False	0.00
2010-06-17 05:00:00 23764 5 1.41 1.41 1.41 0.0 1.80	78.1684981685	1.41	0.00	Partly_Cloudy(sunny)	True	False	0.00
2010-06-17 06:00:00 23765 6 57.45 57.45 57.45 39.7 73.50	78.1684981685	57.45	39.70	Partly_Cloudy(sunny)	True	False	39.70
2010-06-17 07:00:00 23766 7 172.21 172.21 172.21 225.9 220.30	78.1684981685	172.21	225.90	Mostly_Sunny(sunny)	False	False	225.90
2010-06-17 08:00:00 23767 8 320.10 320.10 320.10 504.2 409.50	78.1684981685	320.10	504.20	Mostly_Sunny(sunny)	False	False	504.20
2010-06-17 09:00:00 23768 9 535.30 535.30 535.30 563.6 684.80	78.1684981685	535.30	563.60	Mostly_Sunny(partly_cloudy)	False	False	563.60
2010-06-17 10:00:00 23769 10 717.50 717.50 717.50 880.7 929.60	77.1837349398	717.50	880.70	Sunny(partly_cloudy)	True	False	880.70
2010-06-17 11:00:00 23770 11 728.77 728.77 728.77 961.2 944.20	77.1837349398	728.77	961.20	Sunny(partly_cloudy)	True	False	961.20
2010-06-17 12:00:00 23771 12 724.60 724.60 724.60 1024.1 938.80	77.1837349398	724.60	1024.10	Sunny(cloudy)	True	False	1024.10
2010-06-17 13:00:00 23772 13 803.33 803.33 803.33 689.0 1040.80	77.1837349398	803.33	689.00	Sunny(fair)	True	False	689.00
2010-06-17 14:00:00 23773 14 710.55 710.55 710.55 672.7 920.60	77.1837349398	710.55	672.70	Sunny(mostly_cloudy)	True	False	672.70
2010-06-17 15:00:00 23774 15 617.70 617.70 617.70 652.4 800.30	77.1837349398	617.70	652.40	Sunny(cloudy)	True	False	652.40
2010-06-17 16:00:00 23775 16 546.80 546.80 546.80 334.4 716.10	76.3580607477	546.80	334.40	Sunny(cloudy)	True	False	334.40
2010-06-17 17:00:00 23776 17 325.59 325.59 325.59 294.3 426.40	76.3580607477	325.59	294.30	Sunny(cloudy)	True	False	294.30
2010-06-17 18:00:00 23777 18 163.56 163.56 163.56 91.8 214.20	76.3580607477	163.56	91.80	Sunny(cloudy)	True	False	91.80
2010-06-17 19:00:00 23778 19 40.78 40.78 40.78 20.6 53.40	76.3580607477	40.78	20.60	Sunny(cloudy)	True	False	20.60
2010-06-17 20:00:00 23779 20 2.67 2.67 2.67 1.6 3.50	76.3580607477	2.67	1.60	Sunny(partly_cloudy)	True	False	1.60
2010-06-17 21:00:00 23780 21 0.00 0.00 0.00 0.0 0.00	76.3580607477	0.00	0.00	Clear(partly_cloudy)	True	False	0.00
2010-06-17 22:00:00 23781 22 0.00 0.00 0.00 0.0 0.00	76.3580607477	0.00	0.00	Clear(partly_cloudy)	True	False	0.00
2010-06-17 23:00:00 23782 23 0.00 0.00 0.00 0.0 0.00	76.3580607477	0.00	0.00	Clear(clear)	True	False	0.00
