2010-07-19 06:00:00 62885 6 58.17 58.17 58.17 31.8 77.70	74.8695559578	58.17	31.80	Partly_Cloudy(partly_cloudy)	True	False	31.80
2010-07-19 07:00:00 62886 7 119.84 119.84 119.84 168.5 207.40	57.7800829876	119.84	168.50	Mostly_Cloudy(partly_cloudy)	True	False	168.50
2010-07-19 08:00:00 62887 8 280.75 280.75 280.75 328.2 485.90	57.7800829876	280.75	328.20	Mostly_Cloudy(thunder)	True	False	328.20
2010-07-19 09:00:00 62888 9 430.52 430.52 430.52 188.2 745.10	57.7800829876	430.52	188.20	Mostly_Cloudy(mostly_cloudy)	True	False	188.20
2010-07-19 10:00:00 62889 10 189.90 189.90 189.90 345.0 919.50	20.6525839306	189.90	345.00	Scattered_T-Storms(mostly_cloudy)	True	False	345.00
2010-07-19 11:00:00 62890 11 214.56 214.56 214.56 931.2 1038.90	20.6525839306	214.56	931.20	Scattered_T-Storms(partly_cloudy)	True	False	931.20
2010-07-19 12:00:00 62891 12 228.85 228.85 228.85 877.2 1108.10	20.6525839306	228.85	877.20	Scattered_T-Storms(fair)	True	False	877.20
2010-07-19 13:00:00 62892 13 228.77 228.77 228.77 984.8 1107.70	20.6525839306	228.77	984.80	Scattered_T-Storms(fair)	True	False	984.80
2010-07-19 14:00:00 62893 14 219.00 219.00 219.00 968.8 1060.40	20.6525839306	219.00	968.80	Scattered_T-Storms(partly_cloudy)	True	False	968.80
2010-07-19 15:00:00 62894 15 193.95 193.95 193.95 719.2 939.10	20.6525839306	193.95	719.20	Scattered_T-Storms(mostly_cloudy)	True	False	719.20
2010-07-19 16:00:00 62895 16 194.78 194.78 194.78 516.3 758.90	25.6667335071	194.78	516.30	Scattered_T-Storms(mostly_cloudy)	True	False	516.30
2010-07-19 17:00:00 62896 17 128.00 128.00 128.00 232.3 498.70	25.6667335071	128.00	232.30	Scattered_T-Storms(fair)	True	False	232.30
2010-07-19 18:00:00 62897 18 58.37 58.37 58.37 86.2 227.40	25.6667335071	58.37	86.20	Scattered_T-Storms(mostly_cloudy)	True	False	86.20
2010-07-19 19:00:00 62898 19 18.94 18.94 18.94 44.7 73.80	25.6667335071	18.94	44.70	Scattered_T-Storms(t-storm)	True	False	44.70
2010-07-19 20:00:00 62899 20 1.75 1.75 1.75 5.2 6.80	25.6667335071	1.75	5.20	Scattered_T-Storms(partly_cloudy)	True	False	5.20
2010-07-19 21:00:00 62900 21 0.00 0.00 0.00 0.0 0.00	25.6667335071	0.00	0.00	Scattered_T-Storms(heavy_t-storm)	True	False	0.00
2010-07-19 22:00:00 62901 22 0.00 0.00 0.00 0.0 0.00	25.6667335071	0.00	0.00	Isolated_T-Storms(fair)	True	False	0.00
2010-07-19 23:00:00 62902 23 0.00 0.00 0.00 0.0 0.00	25.6667335071	0.00	0.00	Isolated_T-Storms(fair)	True	False	0.00
2010-07-20 00:00:00 62903 0 0.00 0.00 0.00 0.0 0.00	25.6667335071	0.00	0.00	Isolated_T-Storms(fog)	True	False	0.00
2010-07-20 01:00:00 62904 1 0.00 0.00 0.00 0.0 0.00	74.8695559578	0.00	0.00	Partly_Cloudy(clear)	True	False	0.00
2010-07-20 02:00:00 62905 2 0.00 0.00 0.00 0.0 0.00	74.8695559578	0.00	0.00	Partly_Cloudy(partly_cloudy)	True	False	0.00
2010-07-20 03:00:00 62906 3 0.00 0.00 0.00 0.0 0.00	74.8695559578	0.00	0.00	Partly_Cloudy(fog)	True	False	0.00
2010-07-20 04:00:00 62907 4 0.00 0.00 0.00 0.0 0.00	74.8695559578	0.00	0.00	Partly_Cloudy(fog)	True	False	0.00
2010-07-20 05:00:00 62908 5 0.07 0.07 0.07 0.0 0.10	74.8695559578	0.07	0.00	Partly_Cloudy(fog)	True	False	0.00
2010-07-20 06:00:00 62909 6 58.17 58.17 58.17 29.5 77.70	74.8695559578	58.17	29.50	Partly_Cloudy(mostly_cloudy)	True	False	29.50
2010-07-20 07:00:00 62910 7 155.28 155.28 155.28 168.7 207.40	74.8695559578	155.28	168.70	Mostly_Sunny(fog)	False	False	168.70
2010-07-20 08:00:00 62911 8 363.79 363.79 363.79 389.8 485.90	74.8695559578	363.79	389.80	Mostly_Sunny(partly_cloudy)	False	False	389.80
2010-07-20 09:00:00 62912 9 557.85 557.85 557.85 489.4 745.10	74.8695559578	557.85	489.40	Mostly_Sunny(sunny)	False	False	489.40
2010-07-20 10:00:00 62913 10 688.43 688.43 688.43 781.8 919.50	74.8695559578	688.43	781.80	Mostly_Sunny(fair)	False	False	781.80
2010-07-20 11:00:00 62914 11 777.82 777.82 777.82 614.1 1038.90	74.8695559578	777.82	614.10	Mostly_Sunny(partly_cloudy)	False	False	614.10
2010-07-20 12:00:00 62915 12 829.63 829.63 829.63 401.2 1108.10	74.8695559578	829.63	401.20	Mostly_Sunny(partly_cloudy)	False	False	401.20
2010-07-20 13:00:00 62916 13 835.90 835.90 835.90 348.4 1107.70	75.4625033842	835.90	348.40	Partly_Cloudy(mostly_cloudy)	True	False	348.40
2010-07-20 14:00:00 62917 14 800.20 800.20 800.20 619.6 1060.40	75.4625033842	800.20	619.60	Partly_Cloudy(mostly_cloudy)	True	False	619.60
2010-07-20 15:00:00 62918 15 708.67 708.67 708.67 632.3 939.10	75.4625033842	708.67	632.30	Partly_Cloudy(partly_cloudy)	True	False	632.30
2010-07-20 16:00:00 62919 16 568.19 568.19 568.19 698.7 758.90	74.8695559578	568.19	698.70	Partly_Cloudy(partly_cloudy)	True	False	698.70
2010-07-20 17:00:00 62920 17 373.37 373.37 373.37 420.2 498.70	74.8695559578	373.37	420.20	Partly_Cloudy(fair)	True	False	420.20
2010-07-20 18:00:00 62921 18 170.25 170.25 170.25 152.7 227.40	74.8695559578	170.25	152.70	Partly_Cloudy(sunny)	True	False	152.70
2010-07-20 19:00:00 62922 19 18.94 18.94 18.94 56.0 73.80	25.6667335071	18.94	56.00	Scattered_T-Storms(sunny)	True	False	56.00
2010-07-20 20:00:00 62923 20 1.75 1.75 1.75 0.6 6.80	25.6667335071	1.75	0.60	Scattered_T-Storms(partly_cloudy)	True	False	0.60
2010-07-20 21:00:00 62924 21 0.00 0.00 0.00 0.0 0.00	25.6667335071	0.00	0.00	Scattered_T-Storms(partly_cloudy)	True	False	0.00
2010-07-20 22:00:00 62925 22 0.00 0.00 0.00 0.0 0.00	25.6667335071	0.00	0.00	Scattered_T-Storms(partly_cloudy)	True	False	0.00
2010-07-20 23:00:00 62926 23 0.00 0.00 0.00 0.0 0.00	25.6667335071	0.00	0.00	Scattered_T-Storms(partly_cloudy)	True	False	0.00
2010-07-21 00:00:00 62927 0 0.00 0.00 0.00 0.0 0.00	25.6667335071	0.00	0.00	Scattered_T-Storms(partly_cloudy)	True	False	0.00
2010-07-21 01:00:00 62928 1 0.00 0.00 0.00 0.0 0.00	25.6667335071	0.00	0.00	Scattered_T-Storms(partly_cloudy)	True	False	0.00
2010-07-21 02:00:00 62929 2 0.00 0.00 0.00 0.0 0.00	25.6667335071	0.00	0.00	Scattered_T-Storms(partly_cloudy)	True	False	0.00
2010-07-21 03:00:00 62930 3 0.00 0.00 0.00 0.0 0.00	25.6667335071	0.00	0.00	Scattered_T-Storms(partly_cloudy)	True	False	0.00
2010-07-21 04:00:00 62931 4 0.00 0.00 0.00 0.0 0.00	25.6667335071	0.00	0.00	Scattered_T-Storms(partly_cloudy)	True	False	0.00
2010-07-21 05:00:00 62932 5 0.03 0.03 0.03 0.0 0.10	25.6667335071	0.03	0.00	Scattered_T-Storms(fog)	True	False	0.00
2010-07-21 06:00:00 62933 6 19.94 19.94 19.94 22.3 77.70	25.6667335071	19.94	22.30	Scattered_T-Storms(mostly_cloudy)	True	False	22.30
