2010-07-17 07:00:00 60582 7 164.40 164.40 164.40 180.8 207.40	79.2665319087	164.40	180.80	Sunny(sunny)	True	False	180.80
2010-07-17 08:00:00 60583 8 415.65 415.65 415.65 425.3 485.90	79.2665319087	415.65	425.30	Mostly_Sunny(sunny)	False	False	425.30
2010-07-17 09:00:00 60584 9 590.61 590.61 590.61 661.6 745.10	79.2665319087	590.61	661.60	Mostly_Sunny(sunny)	False	False	661.60
2010-07-17 10:00:00 60585 10 786.57 786.57 786.57 845.5 919.50	85.5431912486	786.57	845.50	Sunny(sunny)	True	False	845.50
2010-07-17 11:00:00 60586 11 888.71 888.71 888.71 957.9 1038.90	85.5431912486	888.71	957.90	Sunny(sunny)	True	False	957.90
2010-07-17 12:00:00 60587 12 947.90 947.90 947.90 856.7 1108.10	85.5431912486	947.90	856.70	Sunny(sunny)	True	False	856.70
2010-07-17 13:00:00 60588 13 947.56 947.56 947.56 969.2 1107.70	85.5431912486	947.56	969.20	Sunny(sunny)	True	False	969.20
2010-07-17 14:00:00 60589 14 907.10 907.10 907.10 857.4 1060.40	85.5431912486	907.10	857.40	Sunny(sunny)	True	False	857.40
2010-07-17 15:00:00 60590 15 803.34 803.34 803.34 743.0 939.10	85.5431912486	803.34	743.00	Sunny(partly_cloudy)	True	False	743.00
2010-07-17 16:00:00 60591 16 649.19 649.19 649.19 642.6 758.90	85.5431912486	649.19	642.60	Mostly_Sunny(partly_cloudy)	False	False	642.60
2010-07-17 17:00:00 60592 17 426.60 426.60 426.60 372.3 498.70	85.5431912486	426.60	372.30	Mostly_Sunny(fair)	False	False	372.30
2010-07-17 18:00:00 60593 18 193.16 193.16 193.16 166.7 225.80	85.5431912486	193.16	166.70	Mostly_Sunny(partly_cloudy)	False	False	166.70
2010-07-17 19:00:00 60594 19 69.63 69.63 69.63 62.1 81.40	85.5431912486	69.63	62.10	Mostly_Sunny(mostly_cloudy)	False	False	62.10
2010-07-17 20:00:00 60595 20 5.82 5.82 5.82 1.4 6.80	85.5431912486	5.82	1.40	Mostly_Sunny(fair)	False	False	1.40
2010-07-17 21:00:00 60596 21 0.00 0.00 0.00 0.0 0.00	85.5431912486	0.00	0.00	Mostly_Clear(clear)	False	False	0.00
2010-07-17 22:00:00 60597 22 0.00 0.00 0.00 0.0 0.00	79.2665319087	0.00	0.00	Clear(clear)	True	False	0.00
2010-07-17 23:00:00 60598 23 0.00 0.00 0.00 0.0 0.00	79.2665319087	0.00	0.00	Clear(clear)	True	False	0.00
2010-07-18 00:00:00 60599 0 0.00 0.00 0.00 0.0 0.00	79.2665319087	0.00	0.00	Clear(clear)	True	False	0.00
2010-07-18 01:00:00 60600 1 0.00 0.00 0.00 0.0 0.00	73.8263950399	0.00	0.00	Partly_Cloudy(clear)	True	False	0.00
2010-07-18 02:00:00 60601 2 0.00 0.00 0.00 0.0 0.00	73.8263950399	0.00	0.00	Partly_Cloudy(partly_cloudy)	True	False	0.00
2010-07-18 03:00:00 60602 3 0.00 0.00 0.00 0.0 0.00	73.8263950399	0.00	0.00	Partly_Cloudy(clear)	True	False	0.00
2010-07-18 04:00:00 60603 4 0.00 0.00 0.00 0.0 0.00	73.8263950399	0.00	0.00	Mostly_Clear(fair)	False	False	0.00
2010-07-18 05:00:00 60604 5 0.15 0.15 0.15 0.0 0.20	73.8263950399	0.15	0.00	Mostly_Clear(fair)	False	False	0.00
2010-07-18 06:00:00 60605 6 57.36 57.36 57.36 24.2 77.70	73.8263950399	57.36	24.20	Mostly_Sunny(fog)	False	False	24.20
2010-07-18 07:00:00 60606 7 164.40 164.40 164.40 176.8 207.40	79.2665319087	164.40	176.80	Sunny(sunny)	True	False	176.80
2010-07-18 08:00:00 60607 8 385.16 385.16 385.16 422.5 485.90	79.2665319087	385.16	422.50	Sunny(sunny)	True	False	422.50
2010-07-18 09:00:00 60608 9 590.61 590.61 590.61 661.7 745.10	79.2665319087	590.61	661.70	Sunny(sunny)	True	False	661.70
2010-07-18 10:00:00 60609 10 786.57 786.57 786.57 861.5 919.50	85.5431912486	786.57	861.50	Sunny(sunny)	True	False	861.50
2010-07-18 11:00:00 60610 11 888.71 888.71 888.71 832.1 1038.90	85.5431912486	888.71	832.10	Sunny(fair)	True	False	832.10
2010-07-18 12:00:00 60611 12 947.90 947.90 947.90 1019.8 1108.10	85.5431912486	947.90	1019.80	Sunny(partly_cloudy)	True	False	1019.80
2010-07-18 13:00:00 60612 13 947.56 947.56 947.56 974.1 1107.70	85.5431912486	947.56	974.10	Sunny(sunny)	True	False	974.10
2010-07-18 14:00:00 60613 14 907.10 907.10 907.10 767.6 1060.40	85.5431912486	907.10	767.60	Sunny(fair)	True	False	767.60
2010-07-18 15:00:00 60614 15 803.34 803.34 803.34 831.6 939.10	85.5431912486	803.34	831.60	Sunny(sunny)	True	False	831.60
2010-07-18 16:00:00 60615 16 560.27 560.27 560.27 566.3 758.90	73.8263950399	560.27	566.30	Partly_Cloudy(sunny)	True	False	566.30
2010-07-18 17:00:00 60616 17 368.17 368.17 368.17 425.6 498.70	73.8263950399	368.17	425.60	Partly_Cloudy(sunny)	True	False	425.60
2010-07-18 18:00:00 60617 18 166.70 166.70 166.70 195.5 225.80	73.8263950399	166.70	195.50	Partly_Cloudy(sunny)	True	False	195.50
2010-07-18 19:00:00 60618 19 60.09 60.09 60.09 40.3 81.40	73.8263950399	60.09	40.30	Partly_Cloudy(sunny)	True	False	40.30
2010-07-18 20:00:00 60619 20 5.02 5.02 5.02 0.5 6.80	73.8263950399	5.02	0.50	Partly_Cloudy(sunny)	True	False	0.50
2010-07-18 21:00:00 60620 21 0.00 0.00 0.00 0.0 0.00	73.8263950399	0.00	0.00	Partly_Cloudy(clear)	True	False	0.00
2010-07-18 22:00:00 60621 22 0.00 0.00 0.00 0.0 0.00	73.8263950399	0.00	0.00	Partly_Cloudy(clear)	True	False	0.00
2010-07-18 23:00:00 60622 23 0.00 0.00 0.00 0.0 0.00	73.8263950399	0.00	0.00	Partly_Cloudy(partly_cloudy)	True	False	0.00
2010-07-19 00:00:00 60623 0 0.00 0.00 0.00 0.0 0.00	73.8263950399	0.00	0.00	Partly_Cloudy(partly_cloudy)	True	False	0.00
2010-07-19 01:00:00 60624 1 0.00 0.00 0.00 0.0 0.00	73.8263950399	0.00	0.00	Partly_Cloudy(partly_cloudy)	True	False	0.00
2010-07-19 02:00:00 60625 2 0.00 0.00 0.00 0.0 0.00	73.8263950399	0.00	0.00	Partly_Cloudy(mostly_cloudy)	True	False	0.00
2010-07-19 03:00:00 60626 3 0.00 0.00 0.00 0.0 0.00	73.8263950399	0.00	0.00	Partly_Cloudy(mostly_cloudy)	True	False	0.00
2010-07-19 04:00:00 60627 4 0.00 0.00 0.00 0.0 0.00	73.8263950399	0.00	0.00	Partly_Cloudy(fair)	True	False	0.00
2010-07-19 05:00:00 60628 5 0.15 0.15 0.15 0.0 0.20	73.8263950399	0.15	0.00	Partly_Cloudy(partly_cloudy)	True	False	0.00
2010-07-19 06:00:00 60629 6 57.36 57.36 57.36 31.8 77.70	73.8263950399	57.36	31.80	Partly_Cloudy(partly_cloudy)	True	False	31.80
2010-07-19 07:00:00 60630 7 153.12 153.12 153.12 168.5 207.40	73.8263950399	153.12	168.50	Partly_Cloudy(partly_cloudy)	True	False	168.50
