2010-07-20 13:00:00 64404 13 1012.41 1012.41 1012.41 348.4 1107.70	76.1316484346	1012.41	348.40	Partly_Cloudy(mostly_cloudy)	True	False	348.40
2010-07-20 14:00:00 64405 14 333.52 333.52 333.52 619.6 1060.40	91.3974986406	333.52	619.60	Mostly_Sunny(mostly_cloudy)	False	False	619.60
2010-07-20 15:00:00 64406 15 295.37 295.37 295.37 632.3 939.10	31.4525593572	295.37	632.30	Mostly_Sunny(partly_cloudy)	False	False	632.30
2010-07-20 16:00:00 64407 16 568.26 238.69 238.69 698.7 758.90	74.8794599807	238.69	698.70	Partly_Cloudy(partly_cloudy)	True	False	698.70
2010-07-20 17:00:00 64408 17 373.42 156.85 156.85 420.2 498.70	74.8794599807	156.85	420.20	Partly_Cloudy(fair)	True	False	420.20
2010-07-20 18:00:00 64409 18 170.28 71.52 71.52 152.7 227.40	74.8794599807	71.52	152.70	Partly_Cloudy(sunny)	True	False	152.70
2010-07-20 19:00:00 64410 19 55.26 23.21 23.21 56.0 73.80	74.8794599807	23.21	56.00	Partly_Cloudy(sunny)	True	False	56.00
2010-07-20 20:00:00 64411 20 5.09 2.14 2.14 0.6 6.80	74.8794599807	2.14	0.60	Partly_Cloudy(partly_cloudy)	True	False	0.60
2010-07-20 21:00:00 64412 21 0.00 0.00 0.00 0.0 0.00	74.8794599807	0.00	0.00	Partly_Cloudy(partly_cloudy)	True	False	0.00
2010-07-20 22:00:00 64413 22 0.00 0.00 0.00 0.0 0.00	74.8794599807	0.00	0.00	Partly_Cloudy(partly_cloudy)	True	False	0.00
2010-07-20 23:00:00 64414 23 0.00 0.00 0.00 0.0 0.00	74.8794599807	0.00	0.00	Partly_Cloudy(partly_cloudy)	True	False	0.00
2010-07-21 00:00:00 64415 0 0.00 0.00 0.00 0.0 0.00	74.8794599807	0.00	0.00	Partly_Cloudy(partly_cloudy)	True	False	0.00
2010-07-21 01:00:00 64416 1 0.00 0.00 0.00 0.0 0.00	57.2691995307	0.00	0.00	Mostly_Cloudy(partly_cloudy)	True	False	0.00
2010-07-21 02:00:00 64417 2 0.00 0.00 0.00 0.0 0.00	57.2691995307	0.00	0.00	Mostly_Cloudy(partly_cloudy)	True	False	0.00
2010-07-21 03:00:00 64418 3 0.00 0.00 0.00 0.0 0.00	57.2691995307	0.00	0.00	Mostly_Cloudy(partly_cloudy)	True	False	0.00
2010-07-21 04:00:00 64419 4 0.00 0.00 0.00 0.0 0.00	44.8647608047	0.00	0.00	Cloudy(partly_cloudy)	True	False	0.00
2010-07-21 05:00:00 64420 5 0.04 0.04 0.04 0.0 0.10	44.8647608047	0.04	0.00	Cloudy(fog)	True	False	0.00
2010-07-21 06:00:00 64421 6 34.86 34.86 34.86 22.3 77.70	44.8647608047	34.86	22.30	Cloudy(mostly_cloudy)	True	False	22.30
2010-07-21 07:00:00 64422 7 53.23 53.23 53.23 168.8 207.40	25.6667335071	53.23	168.80	Few_Showers(fair)	True	False	168.80
2010-07-21 08:00:00 64423 8 124.71 124.71 124.71 416.8 485.90	25.6667335071	124.71	416.80	Few_Showers(sunny)	True	False	416.80
2010-07-21 09:00:00 64424 9 191.24 191.24 191.24 651.7 745.10	25.6667335071	191.24	651.70	Few_Showers(sunny)	True	False	651.70
2010-07-21 10:00:00 64425 10 189.90 189.90 189.90 723.8 919.50	20.6525839306	189.90	723.80	Scattered_T-Storms(fair)	True	False	723.80
2010-07-21 11:00:00 64426 11 214.56 214.56 214.56 772.9 1038.90	20.6525839306	214.56	772.90	Scattered_T-Storms(partly_cloudy)	True	False	772.90
2010-07-21 12:00:00 64427 12 228.85 228.85 228.85 487.1 1108.10	20.6525839306	228.85	487.10	Scattered_T-Storms(fair)	True	False	487.10
2010-07-21 13:00:00 64428 13 228.77 228.77 228.77 496.0 1107.70	20.6525839306	228.77	496.00	Scattered_T-Storms(partly_cloudy)	True	False	496.00
2010-07-21 14:00:00 64429 14 219.00 219.00 219.00 921.4 1060.40	20.6525839306	219.00	921.40	Scattered_T-Storms(fair)	True	False	921.40
2010-07-21 15:00:00 64430 15 193.95 193.95 193.95 640.2 939.10	20.6525839306	193.95	640.20	Scattered_T-Storms(fair)	True	False	640.20
2010-07-21 16:00:00 64431 16 194.78 194.78 194.78 498.2 758.90	25.6667335071	194.78	498.20	Scattered_T-Storms(mostly_cloudy)	True	False	498.20
2010-07-21 17:00:00 64432 17 128.00 128.00 128.00 366.7 498.70	25.6667335071	128.00	366.70	Scattered_T-Storms(fair)	True	False	366.70
2010-07-21 18:00:00 64433 18 58.37 58.37 58.37 61.8 227.40	25.6667335071	58.37	61.80	Scattered_T-Storms(t-storm)	True	False	61.80
2010-07-21 19:00:00 64434 19 18.94 18.94 18.94 25.6 73.80	25.6667335071	18.94	25.60	Isolated_T-Storms(fair)	True	False	25.60
2010-07-21 20:00:00 64435 20 1.75 1.75 1.75 0.0 6.80	25.6667335071	1.75	0.00	Isolated_T-Storms(partly_cloudy)	True	False	0.00
2010-07-21 21:00:00 64436 21 0.00 0.00 0.00 0.0 0.00	25.6667335071	0.00	0.00	Isolated_T-Storms(light_rain)	True	False	0.00
2010-07-21 22:00:00 64437 22 0.00 0.00 0.00 0.0 0.00	74.8794599807	0.00	0.00	Partly_Cloudy(fair)	True	False	0.00
2010-07-21 23:00:00 64438 23 0.00 0.00 0.00 0.0 0.00	74.8794599807	0.00	0.00	Partly_Cloudy(fair)	True	False	0.00
2010-07-22 00:00:00 64439 0 0.00 0.00 0.00 0.0 0.00	74.8794599807	0.00	0.00	Partly_Cloudy(partly_cloudy)	True	False	0.00
2010-07-22 01:00:00 64440 1 0.00 0.00 0.00 0.0 0.00	74.8794599807	0.00	0.00	Mostly_Clear(partly_cloudy)	False	False	0.00
2010-07-22 02:00:00 64441 2 0.00 0.00 0.00 0.0 0.00	74.8794599807	0.00	0.00	Mostly_Clear(fog)	False	False	0.00
2010-07-22 03:00:00 64442 3 0.00 0.00 0.00 0.0 0.00	74.8794599807	0.00	0.00	Mostly_Clear(clear)	False	False	0.00
2010-07-22 04:00:00 64443 4 0.00 0.00 0.00 0.0 0.00	81.9715990945	0.00	0.00	Clear(clear)	True	False	0.00
2010-07-22 05:00:00 64444 5 0.08 0.08 0.08 0.0 0.10	81.9715990945	0.08	0.00	Clear(clear)	True	False	0.00
2010-07-22 06:00:00 64445 6 63.69 63.69 63.69 16.5 77.70	81.9715990945	63.69	16.50	Sunny(sunny)	True	False	16.50
2010-07-22 07:00:00 64446 7 170.01 170.01 170.01 184.7 207.40	81.9715990945	170.01	184.70	Sunny(sunny)	True	False	184.70
2010-07-22 08:00:00 64447 8 398.30 398.30 398.30 461.6 485.90	81.9715990945	398.30	461.60	Sunny(sunny)	True	False	461.60
2010-07-22 09:00:00 64448 9 610.77 610.77 610.77 713.0 745.10	81.9715990945	610.77	713.00	Sunny(sunny)	True	False	713.00
2010-07-22 10:00:00 64449 10 840.40 840.40 840.40 903.1 919.50	91.3974986406	840.40	903.10	Sunny(sunny)	True	False	903.10
2010-07-22 11:00:00 64450 11 949.53 949.53 949.53 1007.0 1038.90	91.3974986406	949.53	1007.00	Sunny(sunny)	True	False	1007.00
2010-07-22 12:00:00 64451 12 1012.78 1012.78 1012.78 950.0 1108.10	91.3974986406	1012.78	950.00	Sunny(fair)	True	False	950.00
2010-07-22 13:00:00 64452 13 1012.41 1012.41 1012.41 792.3 1107.70	91.3974986406	1012.41	792.30	Sunny(fair)	True	False	792.30
