2010-06-25 05:00:00 34612 5 1.31 1.31 1.31 0.0 1.80	72.9561101549	1.31	0.00	Clear(sunny)	True	False	0.00
2010-06-25 06:00:00 34613 6 53.62 53.62 53.62 24.1 73.50	72.9561101549	53.62	24.10	Sunny(sunny)	True	False	24.10
2010-06-25 07:00:00 34614 7 160.72 160.72 160.72 175.0 220.30	72.9561101549	160.72	175.00	Sunny(sunny)	True	False	175.00
2010-06-25 08:00:00 34615 8 354.49 354.49 354.49 391.3 485.90	72.9561101549	354.49	391.30	Sunny(sunny)	True	False	391.30
2010-06-25 09:00:00 34616 9 542.57 542.57 542.57 557.1 743.70	72.9561101549	542.57	557.10	Sunny(sunny)	True	False	557.10
2010-06-25 10:00:00 34617 10 747.72 747.72 747.72 615.3 929.60	80.4341020557	747.72	615.30	Sunny(sunny)	True	False	615.30
2010-06-25 11:00:00 34618 11 759.46 759.46 759.46 712.8 944.20	80.4341020557	759.46	712.80	Sunny(sunny)	True	False	712.80
2010-06-25 12:00:00 34619 12 755.12 755.12 755.12 737.8 938.80	80.4341020557	755.12	737.80	Sunny(mostly_cloudy)	True	False	737.80
2010-06-25 13:00:00 34620 13 800.80 800.80 800.80 706.1 995.60	80.4341020557	800.80	706.10	Sunny(sunny)	True	False	706.10
2010-06-25 14:00:00 34621 14 770.80 770.80 770.80 778.4 958.30	80.4341020557	770.80	778.40	Sunny(fair)	True	False	778.40
2010-06-25 15:00:00 34622 15 755.36 755.36 755.36 655.8 939.10	80.4341020557	755.36	655.80	Sunny(sunny)	True	False	655.80
2010-06-25 16:00:00 34623 16 536.81 536.81 536.81 465.9 735.80	72.9561101549	536.81	465.90	Sunny(fair)	True	False	465.90
2010-06-25 17:00:00 34624 17 353.62 353.62 353.62 327.8 484.70	72.9561101549	353.62	327.80	Sunny(fair)	True	False	327.80
2010-06-25 18:00:00 34625 18 156.27 156.27 156.27 138.8 214.20	72.9561101549	156.27	138.80	Sunny(sunny)	True	False	138.80
2010-06-25 19:00:00 34626 19 59.39 59.39 59.39 44.7 81.40	72.9561101549	59.39	44.70	Sunny(fair)	True	False	44.70
2010-06-25 20:00:00 34627 20 4.89 4.89 4.89 2.6 6.70	72.9561101549	4.89	2.60	Sunny(sunny)	True	False	2.60
2010-06-25 21:00:00 34628 21 0.00 0.00 0.00 0.0 0.00	72.9561101549	0.00	0.00	Clear(clear)	True	False	0.00
2010-06-25 22:00:00 34629 22 0.00 0.00 0.00 0.0 0.00	72.9561101549	0.00	0.00	Clear(mostly_cloudy)	True	False	0.00
2010-06-25 23:00:00 34630 23 0.00 0.00 0.00 0.0 0.00	72.9561101549	0.00	0.00	Clear(mostly_cloudy)	True	False	0.00
2010-06-26 00:00:00 34631 0 0.00 0.00 0.00 0.0 0.00	72.9561101549	0.00	0.00	Clear(clear)	True	False	0.00
2010-06-26 01:00:00 34632 1 0.00 0.00 0.00 0.0 0.00	72.9561101549	0.00	0.00	Clear(clear)	True	False	0.00
2010-06-26 02:00:00 34633 2 0.00 0.00 0.00 0.0 0.00	72.9561101549	0.00	0.00	Clear(clear)	True	False	0.00
2010-06-26 03:00:00 34634 3 0.00 0.00 0.00 0.0 0.00	72.9561101549	0.00	0.00	Clear(clear)	True	False	0.00
2010-06-26 04:00:00 34635 4 0.00 0.00 0.00 0.0 0.00	72.9561101549	0.00	0.00	Clear(fog)	True	False	0.00
2010-06-26 05:00:00 34636 5 1.31 1.31 1.31 0.0 1.80	72.9561101549	1.31	0.00	Clear(sunny)	True	False	0.00
2010-06-26 06:00:00 34637 6 53.62 53.62 53.62 42.1 73.50	72.9561101549	53.62	42.10	Sunny(sunny)	True	False	42.10
2010-06-26 07:00:00 34638 7 160.72 160.72 160.72 175.7 220.30	72.9561101549	160.72	175.70	Sunny(sunny)	True	False	175.70
2010-06-26 08:00:00 34639 8 354.49 354.49 354.49 376.4 485.90	72.9561101549	354.49	376.40	Sunny(sunny)	True	False	376.40
2010-06-26 09:00:00 34640 9 542.57 542.57 542.57 558.7 743.70	72.9561101549	542.57	558.70	Sunny(sunny)	True	False	558.70
2010-06-26 10:00:00 34641 10 747.72 747.72 747.72 702.7 929.60	80.4341020557	747.72	702.70	Sunny(sunny)	True	False	702.70
2010-06-26 11:00:00 34642 11 759.46 759.46 759.46 765.0 944.20	80.4341020557	759.46	765.00	Sunny(sunny)	True	False	765.00
2010-06-26 12:00:00 34643 12 755.12 755.12 755.12 745.9 938.80	80.4341020557	755.12	745.90	Sunny(sunny)	True	False	745.90
2010-06-26 13:00:00 34644 13 795.80 795.80 795.80 746.9 995.60	79.9316994777	795.80	746.90	Partly_Cloudy(sunny)	True	False	746.90
2010-06-26 14:00:00 34645 14 765.99 765.99 765.99 778.4 958.30	79.9316994777	765.99	778.40	Partly_Cloudy(sunny)	True	False	778.40
2010-06-26 15:00:00 34646 15 750.64 750.64 750.64 594.3 939.10	79.9316994777	750.64	594.30	Partly_Cloudy(fair)	True	False	594.30
2010-06-26 16:00:00 34647 16 546.31 546.31 546.31 398.0 735.80	74.2466854158	546.31	398.00	Partly_Cloudy(partly_cloudy)	True	False	398.00
2010-06-26 17:00:00 34648 17 359.87 359.87 359.87 252.0 484.70	74.2466854158	359.87	252.00	Partly_Cloudy(partly_cloudy)	True	False	252.00
2010-06-26 18:00:00 34649 18 159.04 159.04 159.04 103.7 214.20	74.2466854158	159.04	103.70	Partly_Cloudy(partly_cloudy)	True	False	103.70
2010-06-26 19:00:00 34650 19 13.72 13.72 13.72 17.6 81.40	16.8553200247	13.72	17.60	Scattered_T-Storms(cloudy)	True	False	17.60
2010-06-26 20:00:00 34651 20 1.13 1.13 1.13 0.0 6.70	16.8553200247	1.13	0.00	Scattered_T-Storms(mostly_cloudy)	True	False	0.00
2010-06-26 21:00:00 34652 21 0.00 0.00 0.00 0.0 0.00	16.8553200247	0.00	0.00	Scattered_T-Storms(mostly_cloudy)	True	False	0.00
2010-06-26 22:00:00 34653 22 0.00 0.00 0.00 0.0 0.00	16.8553200247	0.00	0.00	Scattered_T-Storms(mostly_cloudy)	True	False	0.00
2010-06-26 23:00:00 34654 23 0.00 0.00 0.00 0.0 0.00	16.8553200247	0.00	0.00	Scattered_T-Storms(mostly_cloudy)	True	False	0.00
2010-06-27 00:00:00 34655 0 0.00 0.00 0.00 0.0 0.00	16.8553200247	0.00	0.00	Scattered_T-Storms(cloudy)	True	False	0.00
2010-06-27 01:00:00 34656 1 0.00 0.00 0.00 0.0 0.00	16.8553200247	0.00	0.00	Isolated_T-Storms(cloudy)	True	False	0.00
2010-06-27 02:00:00 34657 2 0.00 0.00 0.00 0.0 0.00	16.8553200247	0.00	0.00	Isolated_T-Storms(mostly_cloudy)	True	False	0.00
2010-06-27 03:00:00 34658 3 0.00 0.00 0.00 0.0 0.00	16.8553200247	0.00	0.00	Isolated_T-Storms(clear)	True	False	0.00
2010-06-27 04:00:00 34659 4 0.00 0.00 0.00 0.0 0.00	65.6303786575	0.00	0.00	Mostly_Cloudy(clear)	True	False	0.00
2010-06-27 05:00:00 34660 5 1.18 1.18 1.18 0.0 1.80	65.6303786575	1.18	0.00	Mostly_Cloudy(sunny)	True	False	0.00
