2010-06-05 04:00:00 11043 4 0.00 0.00 0.00 0.0 0.00	12.6175253855	0.00	0.00	Isolated_T-Storms(mostly_cloudy)	True	False	0.00
2010-06-05 05:00:00 11044 5 0.23 0.23 0.23 0.0 1.80	12.6175253855	0.23	0.00	Isolated_T-Storms(mostly_cloudy)	True	False	0.00
2010-06-05 06:00:00 11045 6 9.27 9.27 9.27 22.5 73.50	12.6175253855	9.27	22.50	Isolated_T-Storms(mostly_cloudy)	True	False	22.50
2010-06-05 07:00:00 11046 7 33.85 33.85 33.85 154.1 268.30	12.6175253855	33.85	154.10	Isolated_T-Storms(partly_cloudy)	True	False	154.10
2010-06-05 08:00:00 11047 8 67.10 67.10 67.10 353.6 531.80	12.6175253855	67.10	353.60	Isolated_T-Storms(partly_cloudy)	True	False	353.60
2010-06-05 09:00:00 11048 9 95.82 95.82 95.82 437.0 759.40	12.6175253855	95.82	437.00	Isolated_T-Storms(partly_cloudy)	True	False	437.00
2010-06-05 10:00:00 11049 10 117.33 117.33 117.33 809.6 929.60	12.6215390314	117.33	809.60	Scattered_T-Storms(mostly_cloudy)	True	False	809.60
2010-06-05 11:00:00 11050 11 132.75 132.75 132.75 815.5 1051.80	12.6215390314	132.75	815.50	Scattered_T-Storms(partly_cloudy)	True	False	815.50
2010-06-05 12:00:00 11051 12 138.10 138.10 138.10 969.1 1094.20	12.6215390314	138.10	969.10	Scattered_T-Storms(fair)	True	False	969.10
2010-06-05 13:00:00 11052 13 136.30 136.30 136.30 807.3 1079.90	12.6215390314	136.30	807.30	Isolated_T-Storms(partly_cloudy)	True	False	807.30
2010-06-05 14:00:00 11053 14 127.83 127.83 127.83 685.1 1012.80	12.6215390314	127.83	685.10	Isolated_T-Storms(partly_cloudy)	True	False	685.10
2010-06-05 15:00:00 11054 15 112.74 112.74 112.74 642.6 893.20	12.6215390314	112.74	642.60	Isolated_T-Storms(partly_cloudy)	True	False	642.60
2010-06-05 16:00:00 11055 16 90.35 90.35 90.35 552.1 716.10	12.6175253855	90.35	552.10	Isolated_T-Storms(sunny)	True	False	552.10
2010-06-05 17:00:00 11056 17 52.94 52.94 52.94 411.2 419.60	12.6175253855	52.94	411.20	Isolated_T-Storms(partly_cloudy)	True	False	411.20
2010-06-05 18:00:00 11057 18 27.03 27.03 27.03 156.7 214.20	12.6175253855	27.03	156.70	Isolated_T-Storms(sunny)	True	False	156.70
2010-06-05 19:00:00 11058 19 6.74 6.74 6.74 45.0 53.40	12.6175253855	6.74	45.00	Isolated_T-Storms(partly_cloudy)	True	False	45.00
2010-06-05 20:00:00 11059 20 0.35 0.35 0.35 0.7 2.80	12.6175253855	0.35	0.70	Isolated_T-Storms(mostly_cloudy)	True	False	0.70
2010-06-05 21:00:00 11060 21 0.00 0.00 0.00 0.0 0.00	12.6175253855	0.00	0.00	Isolated_T-Storms(mostly_cloudy)	True	False	0.00
2010-06-05 22:00:00 11061 22 0.00 0.00 0.00 0.0 0.00	12.6175253855	0.00	0.00	Scattered_T-Storms(mostly_cloudy)	True	False	0.00
2010-06-05 23:00:00 11062 23 0.00 0.00 0.00 0.0 0.00	12.6175253855	0.00	0.00	Scattered_T-Storms(mostly_cloudy)	True	False	0.00
2010-06-06 00:00:00 11063 0 0.00 0.00 0.00 0.0 0.00	12.6175253855	0.00	0.00	Scattered_T-Storms(mostly_cloudy)	True	False	0.00
2010-06-06 01:00:00 11064 1 0.00 0.00 0.00 0.0 0.00	12.6175253855	0.00	0.00	Isolated_T-Storms(mostly_cloudy)	True	False	0.00
2010-06-06 02:00:00 11065 2 0.00 0.00 0.00 0.0 0.00	12.6175253855	0.00	0.00	Isolated_T-Storms(cloudy)	True	False	0.00
2010-06-06 03:00:00 11066 3 0.00 0.00 0.00 0.0 0.00	12.6175253855	0.00	0.00	Isolated_T-Storms(partly_cloudy)	True	False	0.00
2010-06-06 04:00:00 11067 4 0.00 0.00 0.00 0.0 0.00	12.6175253855	0.00	0.00	Few_Showers(partly_cloudy)	True	False	0.00
2010-06-06 05:00:00 11068 5 0.23 0.23 0.23 0.0 1.80	12.6175253855	0.23	0.00	Few_Showers(sunny)	True	False	0.00
2010-06-06 06:00:00 11069 6 9.27 9.27 9.27 59.8 73.50	12.6175253855	9.27	59.80	Few_Showers(sunny)	True	False	59.80
2010-06-06 07:00:00 11070 7 33.85 33.85 33.85 153.2 268.30	12.6175253855	33.85	153.20	Scattered_T-Storms(mostly_cloudy)	True	False	153.20
2010-06-06 08:00:00 11071 8 67.10 67.10 67.10 364.9 531.80	12.6175253855	67.10	364.90	Scattered_T-Storms(mostly_cloudy)	True	False	364.90
2010-06-06 09:00:00 11072 9 95.82 95.82 95.82 629.6 759.40	12.6175253855	95.82	629.60	Scattered_T-Storms(partly_cloudy)	True	False	629.60
2010-06-06 10:00:00 11073 10 117.33 117.33 117.33 792.2 929.60	12.6215390314	117.33	792.20	Isolated_T-Storms(partly_cloudy)	True	False	792.20
2010-06-06 11:00:00 11074 11 132.75 132.75 132.75 812.8 1051.80	12.6215390314	132.75	812.80	Isolated_T-Storms(partly_cloudy)	True	False	812.80
2010-06-06 12:00:00 11075 12 138.10 138.10 138.10 875.5 1094.20	12.6215390314	138.10	875.50	Isolated_T-Storms(partly_cloudy)	True	False	875.50
2010-06-06 13:00:00 11076 13 136.30 136.30 136.30 708.8 1079.90	12.6215390314	136.30	708.80	Scattered_T-Storms(partly_cloudy)	True	False	708.80
2010-06-06 14:00:00 11077 14 127.83 127.83 127.83 515.1 1012.80	12.6215390314	127.83	515.10	Scattered_T-Storms(mostly_cloudy)	True	False	515.10
2010-06-06 15:00:00 11078 15 112.74 112.74 112.74 451.2 893.20	12.6215390314	112.74	451.20	Scattered_T-Storms(mostly_cloudy)	True	False	451.20
2010-06-06 16:00:00 11079 16 90.35 90.35 90.35 357.2 716.10	12.6175253855	90.35	357.20	Scattered_T-Storms(heavy_rain)	True	False	357.20
2010-06-06 17:00:00 11080 17 52.94 52.94 52.94 407.5 419.60	12.6175253855	52.94	407.50	Scattered_T-Storms(mostly_cloudy)	True	False	407.50
2010-06-06 18:00:00 11081 18 27.03 27.03 27.03 154.5 214.20	12.6175253855	27.03	154.50	Scattered_T-Storms(partly_cloudy)	True	False	154.50
2010-06-06 19:00:00 11082 19 6.74 6.74 6.74 39.1 53.40	12.6175253855	6.74	39.10	Scattered_T-Storms(fair)	True	False	39.10
2010-06-06 20:00:00 11083 20 0.35 0.35 0.35 1.3 2.80	12.6175253855	0.35	1.30	Scattered_T-Storms(partly_cloudy)	True	False	1.30
2010-06-06 21:00:00 11084 21 0.00 0.00 0.00 0.0 0.00	12.6175253855	0.00	0.00	Scattered_T-Storms(clear)	True	False	0.00
2010-06-06 22:00:00 11085 22 0.00 0.00 0.00 0.0 0.00	80.0223630265	0.00	0.00	Partly_Cloudy(clear)	True	False	0.00
2010-06-06 23:00:00 11086 23 0.00 0.00 0.00 0.0 0.00	80.0223630265	0.00	0.00	Partly_Cloudy(clear)	True	False	0.00
2010-06-07 00:00:00 11087 0 0.00 0.00 0.00 0.0 0.00	80.0223630265	0.00	0.00	Partly_Cloudy(partly_cloudy)	True	False	0.00
2010-06-07 01:00:00 11088 1 0.00 0.00 0.00 0.0 0.00	80.0223630265	0.00	0.00	Partly_Cloudy(fair)	True	False	0.00
2010-06-07 02:00:00 11089 2 0.00 0.00 0.00 0.0 0.00	80.0223630265	0.00	0.00	Partly_Cloudy(clear)	True	False	0.00
2010-06-07 03:00:00 11090 3 0.00 0.00 0.00 0.0 0.00	80.0223630265	0.00	0.00	Partly_Cloudy(clear)	True	False	0.00
2010-06-07 04:00:00 11091 4 0.00 0.00 0.00 0.0 0.00	80.0223630265	0.00	0.00	Partly_Cloudy(clear)	True	False	0.00
