2010-07-04 03:00:00 45098 3 0.00 0.00 0.00 0.0 0.00	76.0090531875	0.00	0.00	Clear(clear)	True	False	0.00
2010-07-04 04:00:00 45099 4 0.00 0.00 0.00 0.0 0.00	76.0090531875	0.00	0.00	Clear(clear)	True	False	0.00
2010-07-04 05:00:00 45100 5 0.23 0.23 0.23 0.0 0.30	76.0090531875	0.23	0.00	Clear(sunny)	True	False	0.00
2010-07-04 06:00:00 45101 6 59.06 59.06 59.06 24.5 77.70	76.0090531875	59.06	24.50	Sunny(sunny)	True	False	24.50
2010-07-04 07:00:00 45102 7 167.45 167.45 167.45 166.2 220.30	76.0090531875	167.45	166.20	Mostly_Sunny(sunny)	False	False	166.20
2010-07-04 08:00:00 45103 8 369.33 369.33 369.33 384.9 485.90	76.0090531875	369.33	384.90	Mostly_Sunny(sunny)	False	False	384.90
2010-07-04 09:00:00 45104 9 565.28 565.28 565.28 574.2 743.70	76.0090531875	565.28	574.20	Mostly_Sunny(sunny)	False	False	574.20
2010-07-04 10:00:00 45105 10 721.49 721.49 721.49 710.8 909.60	79.3196492242	721.49	710.80	Sunny(sunny)	True	False	710.80
2010-07-04 11:00:00 45106 11 823.10 823.10 823.10 801.8 1037.70	79.3196492242	823.10	801.80	Sunny(sunny)	True	False	801.80
2010-07-04 12:00:00 45107 12 878.94 878.94 878.94 849.9 1108.10	79.3196492242	878.94	849.90	Sunny(sunny)	True	False	849.90
2010-07-04 13:00:00 45108 13 878.62 878.62 878.62 840.5 1107.70	79.3196492242	878.62	840.50	Sunny(sunny)	True	False	840.50
2010-07-04 14:00:00 45109 14 841.11 841.11 841.11 775.2 1060.40	79.3196492242	841.11	775.20	Sunny(sunny)	True	False	775.20
2010-07-04 15:00:00 45110 15 744.89 744.89 744.89 695.1 939.10	79.3196492242	744.89	695.10	Sunny(sunny)	True	False	695.10
2010-07-04 16:00:00 45111 16 565.81 565.81 565.81 555.8 744.40	76.0090531875	565.81	555.80	Sunny(sunny)	True	False	555.80
2010-07-04 17:00:00 45112 17 368.42 368.42 368.42 346.8 484.70	76.0090531875	368.42	346.80	Sunny(sunny)	True	False	346.80
2010-07-04 18:00:00 45113 18 171.63 171.63 171.63 149.8 225.80	76.0090531875	171.63	149.80	Sunny(sunny)	True	False	149.80
2010-07-04 19:00:00 45114 19 61.87 61.87 61.87 40.3 81.40	76.0090531875	61.87	40.30	Sunny(sunny)	True	False	40.30
2010-07-04 20:00:00 45115 20 5.17 5.17 5.17 4.9 6.80	76.0090531875	5.17	4.90	Sunny(sunny)	True	False	4.90
2010-07-04 21:00:00 45116 21 0.00 0.00 0.00 0.0 0.00	76.0090531875	0.00	0.00	Clear(clear)	True	False	0.00
2010-07-04 22:00:00 45117 22 0.00 0.00 0.00 0.0 0.00	76.0090531875	0.00	0.00	Clear(clear)	True	False	0.00
2010-07-04 23:00:00 45118 23 0.00 0.00 0.00 0.0 0.00	76.0090531875	0.00	0.00	Clear(fair)	True	False	0.00
2010-07-05 00:00:00 45119 0 0.00 0.00 0.00 0.0 0.00	76.0090531875	0.00	0.00	Clear(fair)	True	False	0.00
2010-07-05 01:00:00 45120 1 0.00 0.00 0.00 0.0 0.00	76.0090531875	0.00	0.00	Clear(fair)	True	False	0.00
2010-07-05 02:00:00 45121 2 0.00 0.00 0.00 0.0 0.00	76.0090531875	0.00	0.00	Clear(clear)	True	False	0.00
2010-07-05 03:00:00 45122 3 0.00 0.00 0.00 0.0 0.00	76.0090531875	0.00	0.00	Clear(clear)	True	False	0.00
2010-07-05 04:00:00 45123 4 0.00 0.00 0.00 0.0 0.00	76.0090531875	0.00	0.00	Clear(clear)	True	False	0.00
2010-07-05 05:00:00 45124 5 0.23 0.23 0.23 0.0 0.30	76.0090531875	0.23	0.00	Clear(sunny)	True	False	0.00
2010-07-05 06:00:00 45125 6 59.06 59.06 59.06 46.2 77.70	76.0090531875	59.06	46.20	Sunny(sunny)	True	False	46.20
2010-07-05 07:00:00 45126 7 167.45 167.45 167.45 161.7 220.30	76.0090531875	167.45	161.70	Sunny(sunny)	True	False	161.70
2010-07-05 08:00:00 45127 8 369.33 369.33 369.33 352.8 485.90	76.0090531875	369.33	352.80	Sunny(sunny)	True	False	352.80
2010-07-05 09:00:00 45128 9 565.28 565.28 565.28 530.7 743.70	76.0090531875	565.28	530.70	Sunny(sunny)	True	False	530.70
2010-07-05 10:00:00 45129 10 691.38 691.38 691.38 678.2 909.60	76.0090531875	691.38	678.20	Mostly_Sunny(sunny)	False	False	678.20
2010-07-05 11:00:00 45130 11 788.75 788.75 788.75 760.5 1037.70	76.0090531875	788.75	760.50	Mostly_Sunny(sunny)	False	False	760.50
2010-07-05 12:00:00 45131 12 842.26 842.26 842.26 817.3 1108.10	76.0090531875	842.26	817.30	Mostly_Sunny(sunny)	False	False	817.30
2010-07-05 13:00:00 45132 13 808.30 808.30 808.30 822.2 1107.70	72.9710210346	808.30	822.20	Partly_Cloudy(sunny)	True	False	822.20
2010-07-05 14:00:00 45133 14 773.78 773.78 773.78 770.8 1060.40	72.9710210346	773.78	770.80	Partly_Cloudy(sunny)	True	False	770.80
2010-07-05 15:00:00 45134 15 685.27 685.27 685.27 680.5 939.10	72.9710210346	685.27	680.50	Partly_Cloudy(sunny)	True	False	680.50
2010-07-05 16:00:00 45135 16 543.20 543.20 543.20 532.1 744.40	72.9710210346	543.20	532.10	Partly_Cloudy(sunny)	True	False	532.10
2010-07-05 17:00:00 45136 17 353.69 353.69 353.69 341.1 484.70	72.9710210346	353.69	341.10	Partly_Cloudy(sunny)	True	False	341.10
2010-07-05 18:00:00 45137 18 164.77 164.77 164.77 141.1 225.80	72.9710210346	164.77	141.10	Partly_Cloudy(sunny)	True	False	141.10
2010-07-05 19:00:00 45138 19 59.40 59.40 59.40 30.4 81.40	72.9710210346	59.40	30.40	Partly_Cloudy(sunny)	True	False	30.40
2010-07-05 20:00:00 45139 20 4.96 4.96 4.96 2.0 6.80	72.9710210346	4.96	2.00	Partly_Cloudy(sunny)	True	False	2.00
2010-07-05 21:00:00 45140 21 0.00 0.00 0.00 0.0 0.00	72.9710210346	0.00	0.00	Partly_Cloudy(clear)	True	False	0.00
2010-07-05 22:00:00 45141 22 0.00 0.00 0.00 0.0 0.00	72.9710210346	0.00	0.00	Mostly_Clear(clear)	False	False	0.00
2010-07-05 23:00:00 45142 23 0.00 0.00 0.00 0.0 0.00	72.9710210346	0.00	0.00	Mostly_Clear(clear)	False	False	0.00
2010-07-06 00:00:00 45143 0 0.00 0.00 0.00 0.0 0.00	72.9710210346	0.00	0.00	Mostly_Clear(clear)	False	False	0.00
2010-07-06 01:00:00 45144 1 0.00 0.00 0.00 0.0 0.00	72.9710210346	0.00	0.00	Mostly_Clear(clear)	False	False	0.00
2010-07-06 02:00:00 45145 2 0.00 0.00 0.00 0.0 0.00	72.9710210346	0.00	0.00	Mostly_Clear(clear)	False	False	0.00
2010-07-06 03:00:00 45146 3 0.00 0.00 0.00 0.0 0.00	72.9710210346	0.00	0.00	Mostly_Clear(clear)	False	False	0.00
