2010-06-05 01:00:00 10896 1 0.00 0.00 0.00 0.0 0.00	12.6175253855	0.00	0.00	Isolated_T-Storms(clear)	True	False	0.00
2010-06-05 02:00:00 10897 2 0.00 0.00 0.00 0.0 0.00	12.6175253855	0.00	0.00	Isolated_T-Storms(mostly_cloudy)	True	False	0.00
2010-06-05 03:00:00 10898 3 0.00 0.00 0.00 0.0 0.00	12.6175253855	0.00	0.00	Isolated_T-Storms(mostly_cloudy)	True	False	0.00
2010-06-05 04:00:00 10899 4 0.00 0.00 0.00 0.0 0.00	12.6175253855	0.00	0.00	Isolated_T-Storms(mostly_cloudy)	True	False	0.00
2010-06-05 05:00:00 10900 5 0.23 0.23 0.23 0.0 1.80	12.6175253855	0.23	0.00	Isolated_T-Storms(mostly_cloudy)	True	False	0.00
2010-06-05 06:00:00 10901 6 9.27 9.27 9.27 22.5 73.50	12.6175253855	9.27	22.50	Isolated_T-Storms(mostly_cloudy)	True	False	22.50
2010-06-05 07:00:00 10902 7 33.85 33.85 33.85 154.1 268.30	12.6175253855	33.85	154.10	Isolated_T-Storms(partly_cloudy)	True	False	154.10
2010-06-05 08:00:00 10903 8 67.10 67.10 67.10 353.6 531.80	12.6175253855	67.10	353.60	Isolated_T-Storms(partly_cloudy)	True	False	353.60
2010-06-05 09:00:00 10904 9 95.82 95.82 95.82 437.0 759.40	12.6175253855	95.82	437.00	Isolated_T-Storms(partly_cloudy)	True	False	437.00
2010-06-05 10:00:00 10905 10 117.33 117.33 117.33 809.6 929.60	12.6215390314	117.33	809.60	Isolated_T-Storms(mostly_cloudy)	True	False	809.60
2010-06-05 11:00:00 10906 11 132.75 132.75 132.75 815.5 1051.80	12.6215390314	132.75	815.50	Isolated_T-Storms(partly_cloudy)	True	False	815.50
2010-06-05 12:00:00 10907 12 138.10 138.10 138.10 969.1 1094.20	12.6215390314	138.10	969.10	Isolated_T-Storms(fair)	True	False	969.10
2010-06-05 13:00:00 10908 13 136.30 136.30 136.30 807.3 1079.90	12.6215390314	136.30	807.30	Isolated_T-Storms(partly_cloudy)	True	False	807.30
2010-06-05 14:00:00 10909 14 127.83 127.83 127.83 685.1 1012.80	12.6215390314	127.83	685.10	Isolated_T-Storms(partly_cloudy)	True	False	685.10
2010-06-05 15:00:00 10910 15 112.74 112.74 112.74 642.6 893.20	12.6215390314	112.74	642.60	Isolated_T-Storms(partly_cloudy)	True	False	642.60
2010-06-05 16:00:00 10911 16 90.35 90.35 90.35 552.1 716.10	12.6175253855	90.35	552.10	Isolated_T-Storms(sunny)	True	False	552.10
2010-06-05 17:00:00 10912 17 52.94 52.94 52.94 411.2 419.60	12.6175253855	52.94	411.20	Isolated_T-Storms(partly_cloudy)	True	False	411.20
2010-06-05 18:00:00 10913 18 27.03 27.03 27.03 156.7 214.20	12.6175253855	27.03	156.70	Isolated_T-Storms(sunny)	True	False	156.70
2010-06-05 19:00:00 10914 19 6.74 6.74 6.74 45.0 53.40	12.6175253855	6.74	45.00	Isolated_T-Storms(partly_cloudy)	True	False	45.00
2010-06-05 20:00:00 10915 20 0.35 0.35 0.35 0.7 2.80	12.6175253855	0.35	0.70	Isolated_T-Storms(mostly_cloudy)	True	False	0.70
2010-06-05 21:00:00 10916 21 0.00 0.00 0.00 0.0 0.00	12.6175253855	0.00	0.00	Isolated_T-Storms(mostly_cloudy)	True	False	0.00
2010-06-05 22:00:00 10917 22 0.00 0.00 0.00 0.0 0.00	12.6175253855	0.00	0.00	Scattered_T-Storms(mostly_cloudy)	True	False	0.00
2010-06-05 23:00:00 10918 23 0.00 0.00 0.00 0.0 0.00	12.6175253855	0.00	0.00	Scattered_T-Storms(mostly_cloudy)	True	False	0.00
2010-06-06 00:00:00 10919 0 0.00 0.00 0.00 0.0 0.00	12.6175253855	0.00	0.00	Scattered_T-Storms(mostly_cloudy)	True	False	0.00
2010-06-06 01:00:00 10920 1 0.00 0.00 0.00 0.0 0.00	12.6175253855	0.00	0.00	Few_Showers(mostly_cloudy)	True	False	0.00
2010-06-06 02:00:00 10921 2 0.00 0.00 0.00 0.0 0.00	12.6175253855	0.00	0.00	Few_Showers(cloudy)	True	False	0.00
2010-06-06 03:00:00 10922 3 0.00 0.00 0.00 0.0 0.00	12.6175253855	0.00	0.00	Few_Showers(partly_cloudy)	True	False	0.00
2010-06-06 04:00:00 10923 4 0.00 0.00 0.00 0.0 0.00	12.6175253855	0.00	0.00	Few_Showers(partly_cloudy)	True	False	0.00
2010-06-06 05:00:00 10924 5 0.23 0.23 0.23 0.0 1.80	12.6175253855	0.23	0.00	Few_Showers(sunny)	True	False	0.00
2010-06-06 06:00:00 10925 6 9.27 9.27 9.27 59.8 73.50	12.6175253855	9.27	59.80	Few_Showers(sunny)	True	False	59.80
2010-06-06 07:00:00 10926 7 44.10 44.10 44.10 153.2 268.30	16.4384864043	44.10	153.20	T-Showers(mostly_cloudy)	True	False	153.20
2010-06-06 08:00:00 10927 8 87.42 87.42 87.42 364.9 531.80	16.4384864043	87.42	364.90	T-Showers(mostly_cloudy)	True	False	364.90
2010-06-06 09:00:00 10928 9 124.83 124.83 124.83 629.6 759.40	16.4384864043	124.83	629.60	T-Showers(partly_cloudy)	True	False	629.60
2010-06-06 10:00:00 10929 10 603.61 603.61 603.61 792.2 929.60	64.9319381424	603.61	792.20	Mostly_Cloudy(partly_cloudy)	True	False	792.20
2010-06-06 11:00:00 10930 11 682.95 682.95 682.95 812.8 1051.80	64.9319381424	682.95	812.80	Mostly_Cloudy(partly_cloudy)	True	False	812.80
2010-06-06 12:00:00 10931 12 710.49 710.49 710.49 875.5 1094.20	64.9319381424	710.49	875.50	Mostly_Cloudy(partly_cloudy)	True	False	875.50
2010-06-06 13:00:00 10932 13 136.30 136.30 136.30 708.8 1079.90	12.6215390314	136.30	708.80	Scattered_T-Storms(partly_cloudy)	True	False	708.80
2010-06-06 14:00:00 10933 14 127.83 127.83 127.83 515.1 1012.80	12.6215390314	127.83	515.10	Scattered_T-Storms(mostly_cloudy)	True	False	515.10
2010-06-06 15:00:00 10934 15 112.74 112.74 112.74 451.2 893.20	12.6215390314	112.74	451.20	Scattered_T-Storms(mostly_cloudy)	True	False	451.20
2010-06-06 16:00:00 10935 16 90.35 90.35 90.35 357.2 716.10	12.6175253855	90.35	357.20	Scattered_T-Storms(heavy_rain)	True	False	357.20
2010-06-06 17:00:00 10936 17 52.94 52.94 52.94 407.5 419.60	12.6175253855	52.94	407.50	Scattered_T-Storms(mostly_cloudy)	True	False	407.50
2010-06-06 18:00:00 10937 18 27.03 27.03 27.03 154.5 214.20	12.6175253855	27.03	154.50	Scattered_T-Storms(partly_cloudy)	True	False	154.50
2010-06-06 19:00:00 10938 19 6.74 6.74 6.74 39.1 53.40	12.6175253855	6.74	39.10	Isolated_T-Storms(fair)	True	False	39.10
2010-06-06 20:00:00 10939 20 0.35 0.35 0.35 1.3 2.80	12.6175253855	0.35	1.30	Isolated_T-Storms(partly_cloudy)	True	False	1.30
2010-06-06 21:00:00 10940 21 0.00 0.00 0.00 0.0 0.00	12.6175253855	0.00	0.00	Isolated_T-Storms(clear)	True	False	0.00
2010-06-06 22:00:00 10941 22 0.00 0.00 0.00 0.0 0.00	12.6175253855	0.00	0.00	Mostly_Clear(clear)	False	False	0.00
2010-06-06 23:00:00 10942 23 0.00 0.00 0.00 0.0 0.00	12.6175253855	0.00	0.00	Mostly_Clear(clear)	False	False	0.00
2010-06-07 00:00:00 10943 0 0.00 0.00 0.00 0.0 0.00	12.6175253855	0.00	0.00	Mostly_Clear(partly_cloudy)	False	False	0.00
2010-06-07 01:00:00 10944 1 0.00 0.00 0.00 0.0 0.00	12.6175253855	0.00	0.00	Mostly_Clear(fair)	False	False	0.00
