2011-03-02 18:00:00 26210 18 43.32 43.32 43.32 0.0 48.10	90.0711682	43.32	0.00	Mostly_Clear(fair)	False	False	0.00
2011-03-02 19:00:00 26211 19 0.00 0.00 0.00 0.0 0.00	90.0711682	0.00	0.00	Mostly_Clear(fair)	False	False	0.00
2011-03-02 20:00:00 26212 20 0.00 0.00 0.00 0.0 0.00	80.9590973202	0.00	0.00	Clear(fair)	True	False	0.00
2011-03-02 21:00:00 26213 21 0.00 0.00 0.00 0.0 0.00	80.9590973202	0.00	0.00	Clear(fair)	True	False	0.00
2011-03-02 22:00:00 26214 22 0.00 0.00 0.00 0.0 0.00	80.9590973202	0.00	0.00	Clear(fair)	True	False	0.00
2011-03-02 23:00:00 26215 23 0.00 0.00 0.00 0.0 0.00	80.9590973202	0.00	0.00	Clear(fair)	True	False	0.00
2011-03-03 00:00:00 26216 0 0.00 0.00 0.00 0.0 0.00	80.9590973202	0.00	0.00	Clear(fair)	True	False	0.00
2011-03-03 01:00:00 26217 1 0.00 0.00 0.00 0.0 0.00	80.9590973202	0.00	0.00	Clear(fair)	True	False	0.00
2011-03-03 02:00:00 26218 2 0.00 0.00 0.00 0.0 0.00	80.9590973202	0.00	0.00	Clear(fair)	True	False	0.00
2011-03-03 03:00:00 26219 3 0.00 0.00 0.00 0.0 0.00	80.9590973202	0.00	0.00	Clear(fair)	True	False	0.00
2011-03-03 04:00:00 26220 4 0.00 0.00 0.00 0.0 0.00	80.9590973202	0.00	0.00	Clear(fair)	True	False	0.00
2011-03-03 05:00:00 26221 5 0.00 0.00 0.00 0.0 0.00	80.9590973202	0.00	0.00	Clear(fair)	True	False	0.00
2011-03-03 06:00:00 26222 6 22.10 22.10 22.10 9.3 27.30	80.9590973202	22.10	9.30	Clear(fair)	True	False	9.30
2011-03-03 07:00:00 26223 7 196.08 196.08 196.08 226.7 242.20	80.9590973202	196.08	226.70	Sunny(fair)	True	False	226.70
2011-03-03 08:00:00 26224 8 492.15 492.15 492.15 605.9 607.90	80.9590973202	492.15	605.90	Sunny(fair)	True	False	605.90
2011-03-03 09:00:00 26225 9 717.78 717.78 717.78 914.7 886.60	80.9590973202	717.78	914.70	Sunny(fair)	True	False	914.70
2011-03-03 10:00:00 26226 10 958.09 958.09 958.09 1099.4 1063.70	90.0711682	958.09	1099.40	Sunny(fair)	True	False	1099.40
2011-03-03 11:00:00 26227 11 1035.55 1035.55 1035.55 1183.5 1149.70	90.0711682	1035.55	1183.50	Sunny(fair)	True	False	1183.50
2011-03-03 12:00:00 26228 12 1036.18 1036.18 1036.18 1174.4 1150.40	90.0711682	1036.18	1174.40	Sunny(fair)	True	False	1174.40
2011-03-03 13:00:00 26229 13 1037.80 1037.80 1037.80 1068.6 1152.20	90.0711682	1037.80	1068.60	Sunny(fair)	True	False	1068.60
2011-03-03 14:00:00 26230 14 957.91 957.91 957.91 904.4 1063.50	90.0711682	957.91	904.40	Sunny(fair)	True	False	904.40
2011-03-03 15:00:00 26231 15 820.64 820.64 820.64 640.6 911.10	90.0711682	820.64	640.60	Sunny(fair)	True	False	640.60
2011-03-03 16:00:00 26232 16 537.08 537.08 537.08 274.8 663.40	80.9590973202	537.08	274.80	Sunny(fair)	True	False	274.80
2011-03-03 17:00:00 26233 17 266.36 266.36 266.36 31.2 329.00	80.9590973202	266.36	31.20	Sunny(fair)	True	False	31.20
2011-03-03 18:00:00 26234 18 38.94 38.94 38.94 0.0 48.10	80.9590973202	38.94	0.00	Clear(fair)	True	False	0.00
2011-03-03 19:00:00 26235 19 0.00 0.00 0.00 0.0 0.00	80.9590973202	0.00	0.00	Clear(fair)	True	False	0.00
2011-03-03 20:00:00 26236 20 0.00 0.00 0.00 0.0 0.00	80.9590973202	0.00	0.00	Clear(fair)	True	False	0.00
2011-03-03 21:00:00 26237 21 0.00 0.00 0.00 0.0 0.00	80.9590973202	0.00	0.00	Mostly_Clear(fair)	False	False	0.00
2011-03-03 22:00:00 26238 22 0.00 0.00 0.00 0.0 0.00	80.9590973202	0.00	0.00	Mostly_Clear(fair)	False	False	0.00
2011-03-03 23:00:00 26239 23 0.00 0.00 0.00 0.0 0.00	80.9590973202	0.00	0.00	Mostly_Clear(fair)	False	False	0.00
2011-03-04 00:00:00 26240 0 0.00 0.00 0.00 0.0 0.00	71.0796244784	0.00	0.00	Partly_Cloudy(fair)	True	False	0.00
2011-03-04 01:00:00 26241 1 0.00 0.00 0.00 0.0 0.00	71.0796244784	0.00	0.00	Partly_Cloudy(fair)	True	False	0.00
2011-03-04 02:00:00 26242 2 0.00 0.00 0.00 0.0 0.00	71.0796244784	0.00	0.00	Partly_Cloudy(fair)	True	False	0.00
2011-03-04 03:00:00 26243 3 0.00 0.00 0.00 0.0 0.00	71.0796244784	0.00	0.00	Partly_Cloudy(fair)	True	False	0.00
2011-03-04 04:00:00 26244 4 0.00 0.00 0.00 0.0 0.00	71.0796244784	0.00	0.00	Partly_Cloudy(fair)	True	False	0.00
2011-03-04 05:00:00 26245 5 0.00 0.00 0.00 0.0 0.00	71.0796244784	0.00	0.00	Partly_Cloudy(fair)	True	False	0.00
2011-03-04 06:00:00 26246 6 19.40 19.40 19.40 8.8 27.30	71.0796244784	19.40	8.80	Partly_Cloudy(fair)	True	False	8.80
2011-03-04 07:00:00 26247 7 172.15 172.15 172.15 160.0 242.20	71.0796244784	172.15	160.00	Partly_Cloudy(fair)	True	False	160.00
2011-03-04 08:00:00 26248 8 432.09 432.09 432.09 410.0 607.90	71.0796244784	432.09	410.00	Partly_Cloudy(fair)	True	False	410.00
2011-03-04 09:00:00 26249 9 168.82 168.82 168.82 748.1 886.60	19.0409026798	168.82	748.10	Mostly_Cloudy(fair)	True	False	748.10
2011-03-04 10:00:00 26250 10 545.88 545.88 545.88 1019.2 1063.70	51.319215414	545.88	1019.20	Mostly_Cloudy(fair)	True	False	1019.20
2011-03-04 11:00:00 26251 11 590.02 590.02 590.02 964.7 1149.70	51.319215414	590.02	964.70	Mostly_Cloudy(fair)	True	False	964.70
2011-03-04 12:00:00 26252 12 590.38 590.38 590.38 1068.1 1150.40	51.319215414	590.38	1068.10	Mostly_Cloudy(fair)	True	False	1068.10
2011-03-04 13:00:00 26253 13 591.30 591.30 591.30 999.6 1152.20	51.319215414	591.30	999.60	Mostly_Cloudy(fair)	True	False	999.60
2011-03-04 14:00:00 26254 14 545.78 545.78 545.78 849.5 1063.50	51.319215414	545.78	849.50	Mostly_Cloudy(fair)	True	False	849.50
2011-03-04 15:00:00 26255 15 467.57 467.57 467.57 568.2 911.10	51.319215414	467.57	568.20	Mostly_Cloudy(fair)	True	False	568.20
2011-03-04 16:00:00 26256 16 126.32 126.32 126.32 216.4 663.40	19.0409026798	126.32	216.40	Mostly_Cloudy(fair)	True	False	216.40
2011-03-04 17:00:00 26257 17 62.64 62.64 62.64 17.4 329.00	19.0409026798	62.64	17.40	Mostly_Cloudy(fair)	True	False	17.40
2011-03-04 18:00:00 26258 18 9.16 9.16 9.16 0.0 48.10	19.0409026798	9.16	0.00	Mostly_Cloudy(fair)	True	False	0.00
