2011-02-13 22:00:00 6879 22 0.00 0.00 0.00 0.0 0.00	53.3368365738	0.00	0.00	Partly_Cloudy(fair)	True	False	0.00
2011-02-13 23:00:00 6880 23 0.00 0.00 0.00 0.0 0.00	53.3368365738	0.00	0.00	Partly_Cloudy(fair)	True	False	0.00
2011-02-14 00:00:00 6881 0 0.00 0.00 0.00 0.0 0.00	19.1848272089	0.00	0.00	Mostly_Cloudy(fair)	True	False	0.00
2011-02-14 01:00:00 6882 1 0.00 0.00 0.00 0.0 0.00	19.1848272089	0.00	0.00	Mostly_Cloudy(fair)	True	False	0.00
2011-02-14 02:00:00 6883 2 0.00 0.00 0.00 0.0 0.00	19.1848272089	0.00	0.00	Mostly_Cloudy(fair)	True	False	0.00
2011-02-14 03:00:00 6884 3 0.00 0.00 0.00 0.0 0.00	19.1848272089	0.00	0.00	Mostly_Cloudy(fair)	True	False	0.00
2011-02-14 04:00:00 6885 4 0.00 0.00 0.00 0.0 0.00	19.1848272089	0.00	0.00	Mostly_Cloudy(fair)	True	False	0.00
2011-02-14 05:00:00 6886 5 0.00 0.00 0.00 0.0 0.00	19.1848272089	0.00	0.00	Mostly_Cloudy(clear)	True	False	0.00
2011-02-14 06:00:00 6887 6 0.50 0.50 0.50 0.0 2.60	19.1848272089	0.50	0.00	Mostly_Cloudy(fair)	True	False	0.00
2011-02-14 07:00:00 6888 7 31.48 31.48 31.48 24.1 164.10	19.1848272089	31.48	24.10	Mostly_Cloudy(fair)	True	False	24.10
2011-02-14 08:00:00 6889 8 97.84 97.84 97.84 147.2 510.00	19.1848272089	97.84	147.20	Mostly_Cloudy(fair)	True	False	147.20
2011-02-14 09:00:00 6890 9 430.75 430.75 430.75 226.8 807.60	53.3368365738	430.75	226.80	Partly_Cloudy(fair)	True	False	226.80
2011-02-14 10:00:00 6891 10 729.10 729.10 729.10 531.0 1001.50	72.8011558606	729.10	531.00	Partly_Cloudy(fair)	True	False	531.00
2011-02-14 11:00:00 6892 11 798.41 798.41 798.41 1030.0 1096.70	72.8011558606	798.41	1030.00	Partly_Cloudy(fair)	True	False	1030.00
2011-02-14 12:00:00 6893 12 806.20 806.20 806.20 1023.3 1107.40	72.8011558606	806.20	1023.30	Partly_Cloudy_/_Wind(fair)	True	False	1023.30
2011-02-14 13:00:00 6894 13 731.14 731.14 731.14 894.0 1004.30	72.8011558606	731.14	894.00	Partly_Cloudy_/_Wind(fair)	True	False	894.00
2011-02-14 14:00:00 6895 14 607.45 607.45 607.45 654.7 834.40	72.8011558606	607.45	654.70	Partly_Cloudy_/_Wind(fair)	True	False	654.70
2011-02-14 15:00:00 6896 15 415.62 415.62 415.62 352.9 570.90	72.8011558606	415.62	352.90	Partly_Cloudy_/_Wind(partly_cloudy)	True	False	352.90
2011-02-14 16:00:00 6897 16 119.10 119.10 119.10 174.3 223.30	53.3368365738	119.10	174.30	Partly_Cloudy_/_Wind(fair)	True	False	174.30
2011-02-14 17:00:00 6898 17 6.13 6.13 6.13 5.9 11.50	53.3368365738	6.13	5.90	Partly_Cloudy_/_Wind(fair)	True	False	5.90
2011-02-14 18:00:00 6899 18 0.00 0.00 0.00 0.0 0.00	53.3368365738	0.00	0.00	Partly_Cloudy(cloudy)	True	False	0.00
2011-02-14 19:00:00 6900 19 0.00 0.00 0.00 0.0 0.00	53.3368365738	0.00	0.00	Partly_Cloudy(cloudy)	True	False	0.00
2011-02-14 20:00:00 6901 20 0.00 0.00 0.00 0.0 0.00	53.3368365738	0.00	0.00	Partly_Cloudy(cloudy)	True	False	0.00
2011-02-14 21:00:00 6902 21 0.00 0.00 0.00 0.0 0.00	53.3368365738	0.00	0.00	Partly_Cloudy(cloudy_and_windy)	True	False	0.00
2011-02-14 22:00:00 6903 22 0.00 0.00 0.00 0.0 0.00	53.3368365738	0.00	0.00	Partly_Cloudy(cloudy_and_windy)	True	False	0.00
2011-02-14 23:00:00 6904 23 0.00 0.00 0.00 0.0 0.00	53.3368365738	0.00	0.00	Partly_Cloudy(cloudy)	True	False	0.00
2011-02-15 00:00:00 6905 0 0.00 0.00 0.00 0.0 0.00	53.3368365738	0.00	0.00	Partly_Cloudy(mostly_cloudy)	True	False	0.00
2011-02-15 01:00:00 6906 1 0.00 0.00 0.00 0.0 0.00	53.3368365738	0.00	0.00	Partly_Cloudy(cloudy)	True	False	0.00
2011-02-15 02:00:00 6907 2 0.00 0.00 0.00 0.0 0.00	53.3368365738	0.00	0.00	Partly_Cloudy(cloudy)	True	False	0.00
2011-02-15 03:00:00 6908 3 0.00 0.00 0.00 0.0 0.00	53.3368365738	0.00	0.00	Mostly_Clear(fair)	False	False	0.00
2011-02-15 04:00:00 6909 4 0.00 0.00 0.00 0.0 0.00	53.3368365738	0.00	0.00	Mostly_Clear(fair)	False	False	0.00
2011-02-15 05:00:00 6910 5 0.00 0.00 0.00 0.0 0.00	53.3368365738	0.00	0.00	Mostly_Clear(fair)	False	False	0.00
2011-02-15 06:00:00 6911 6 1.86 1.86 1.86 0.0 2.60	71.4836223507	1.86	0.00	Clear(fair)	True	False	0.00
2011-02-15 07:00:00 6912 7 117.30 117.30 117.30 119.3 164.10	71.4836223507	117.30	119.30	Sunny(fair)	True	False	119.30
2011-02-15 08:00:00 6913 8 364.57 364.57 364.57 492.5 510.00	71.4836223507	364.57	492.50	Sunny(fair)	True	False	492.50
2011-02-15 09:00:00 6914 9 577.30 577.30 577.30 815.0 807.60	71.4836223507	577.30	815.00	Sunny(fair)	True	False	815.00
2011-02-15 10:00:00 6915 10 835.90 835.90 835.90 1023.0 1001.50	83.464704852	835.90	1023.00	Sunny(fair)	True	False	1023.00
2011-02-15 11:00:00 6916 11 915.36 915.36 915.36 1118.6 1096.70	83.464704852	915.36	1118.60	Sunny(fair)	True	False	1118.60
2011-02-15 12:00:00 6917 12 924.29 924.29 924.29 1130.7 1107.40	83.464704852	924.29	1130.70	Sunny(fair)	True	False	1130.70
2011-02-15 13:00:00 6918 13 838.24 838.24 838.24 1023.7 1004.30	83.464704852	838.24	1023.70	Sunny(fair)	True	False	1023.70
2011-02-15 14:00:00 6919 14 696.43 696.43 696.43 856.0 834.40	83.464704852	696.43	856.00	Sunny(fair)	True	False	856.00
2011-02-15 15:00:00 6920 15 476.50 476.50 476.50 574.8 570.90	83.464704852	476.50	574.80	Sunny(fair)	True	False	574.80
2011-02-15 16:00:00 6921 16 159.62 159.62 159.62 204.7 223.30	71.4836223507	159.62	204.70	Sunny(fair)	True	False	204.70
2011-02-15 17:00:00 6922 17 8.22 8.22 8.22 5.6 11.50	71.4836223507	8.22	5.60	Sunny(fair)	True	False	5.60
2011-02-15 18:00:00 6923 18 0.00 0.00 0.00 0.0 0.00	71.4836223507	0.00	0.00	Clear(fair)	True	False	0.00
2011-02-15 19:00:00 6924 19 0.00 0.00 0.00 0.0 0.00	71.4836223507	0.00	0.00	Clear(fair)	True	False	0.00
2011-02-15 20:00:00 6925 20 0.00 0.00 0.00 0.0 0.00	71.4836223507	0.00	0.00	Clear(fair)	True	False	0.00
2011-02-15 21:00:00 6926 21 0.00 0.00 0.00 0.0 0.00	71.4836223507	0.00	0.00	Clear(fair)	True	False	0.00
2011-02-15 22:00:00 6927 22 0.00 0.00 0.00 0.0 0.00	71.4836223507	0.00	0.00	Clear(fair)	True	False	0.00
