2011-02-26 00:00:00 20804 0 0.00 0.00 0.00 0.0 0.00	69.0440984605	0.00	0.00	Partly_Cloudy(fair)	True	False	0.00
2011-02-26 01:00:00 20805 1 0.00 0.00 0.00 0.0 0.00	90.0641552887	0.00	0.00	Clear(fair)	True	False	0.00
2011-02-26 02:00:00 20806 2 0.00 0.00 0.00 0.0 0.00	90.0641552887	0.00	0.00	Clear(fair)	True	False	0.00
2011-02-26 03:00:00 20807 3 0.00 0.00 0.00 0.0 0.00	69.0440984605	0.00	0.00	Partly_Cloudy(fair)	True	False	0.00
2011-02-26 04:00:00 20808 4 0.00 0.00 0.00 0.0 0.00	69.0440984605	0.00	0.00	Partly_Cloudy(fair)	True	False	0.00
2011-02-26 05:00:00 20809 5 0.00 0.00 0.00 0.0 0.00	69.0440984605	0.00	0.00	Partly_Cloudy(fair)	True	False	0.00
2011-02-26 06:00:00 20810 6 18.85 18.85 18.85 0.5 27.30	69.0440984605	18.85	0.50	Partly_Cloudy(fair)	True	False	0.50
2011-02-26 07:00:00 20811 7 167.22 167.22 167.22 59.4 242.20	69.0440984605	167.22	59.40	Partly_Cloudy(fair)	True	False	59.40
2011-02-26 08:00:00 20812 8 419.72 419.72 419.72 228.5 607.90	69.0440984605	419.72	228.50	Partly_Cloudy(fair)	True	False	228.50
2011-02-26 09:00:00 20813 9 201.41 201.41 201.41 504.3 886.60	22.7170742652	201.41	504.30	Mostly_Cloudy(sunny)	True	False	504.30
2011-02-26 10:00:00 20814 10 360.02 360.02 360.02 590.8 1063.70	33.8456360781	360.02	590.80	Mostly_Cloudy(fair)	True	False	590.80
2011-02-26 11:00:00 20815 11 389.12 389.12 389.12 1039.4 1149.70	33.8456360781	389.12	1039.40	Mostly_Cloudy(fair)	True	False	1039.40
2011-02-26 12:00:00 20816 12 387.06 387.06 387.06 1086.2 1143.60	33.8456360781	387.06	1086.20	Mostly_Cloudy(fair)	True	False	1086.20
2011-02-26 13:00:00 20817 13 351.25 351.25 351.25 968.1 1037.80	33.8456360781	351.25	968.10	Mostly_Cloudy(fair)	True	False	968.10
2011-02-26 14:00:00 20818 14 301.70 301.70 301.70 854.5 891.40	33.8456360781	301.70	854.50	Mostly_Cloudy(cloudy)	True	False	854.50
2011-02-26 15:00:00 20819 15 217.36 217.36 217.36 502.1 642.20	33.8456360781	217.36	502.10	Mostly_Cloudy(fair)	True	False	502.10
2011-02-26 16:00:00 20820 16 68.61 68.61 68.61 123.9 302.00	22.7170742652	68.61	123.90	Mostly_Cloudy(fair)	True	False	123.90
2011-02-26 17:00:00 20821 17 7.86 7.86 7.86 18.3 34.60	22.7170742652	7.86	18.30	Mostly_Cloudy(fair)	True	False	18.30
2011-02-26 18:00:00 20822 18 0.00 0.00 0.00 0.0 0.00	22.171758877	0.00	0.00	Cloudy(partly_cloudy)	True	False	0.00
2011-02-26 19:00:00 20823 19 0.00 0.00 0.00 0.0 0.00	22.171758877	0.00	0.00	Cloudy(mostly_cloudy)	True	False	0.00
2011-02-26 20:00:00 20824 20 0.00 0.00 0.00 0.0 0.00	22.171758877	0.00	0.00	Cloudy(cloudy)	True	False	0.00
2011-02-26 21:00:00 20825 21 0.00 0.00 0.00 0.0 0.00	22.171758877	0.00	0.00	Cloudy(fair)	True	False	0.00
2011-02-26 22:00:00 20826 22 0.00 0.00 0.00 0.0 0.00	22.171758877	0.00	0.00	Cloudy(mostly_cloudy)	True	False	0.00
2011-02-26 23:00:00 20827 23 0.00 0.00 0.00 0.0 0.00	22.171758877	0.00	0.00	Cloudy(cloudy)	True	False	0.00
2011-02-27 00:00:00 20828 0 0.00 0.00 0.00 0.0 0.00	1.10933533891	0.00	0.00	Snow_Shower(cloudy)	True	False	0.00
2011-02-27 01:00:00 20829 1 0.00 0.00 0.00 0.0 0.00	1.10933533891	0.00	0.00	Snow_Shower(cloudy)	True	False	0.00
2011-02-27 02:00:00 20830 2 0.00 0.00 0.00 0.0 0.00	1.10933533891	0.00	0.00	Snow_Shower(cloudy)	True	False	0.00
2011-02-27 03:00:00 20831 3 0.00 0.00 0.00 0.0 0.00	1.60911542141	0.00	0.00	Rain_/_Snow(cloudy)	True	False	0.00
2011-02-27 04:00:00 20832 4 0.00 0.00 0.00 0.0 0.00	1.60911542141	0.00	0.00	Rain_/_Snow(cloudy)	True	False	0.00
2011-02-27 05:00:00 20833 5 0.00 0.00 0.00 0.0 0.00	1.60911542141	0.00	0.00	Rain_/_Snow(cloudy)	True	False	0.00
2011-02-27 06:00:00 20834 6 0.44 0.44 0.44 2.5 27.30	1.60911542141	0.44	2.50	Rain_/_Snow_Showers(cloudy)	True	False	2.50
2011-02-27 07:00:00 20835 7 3.90 3.90 3.90 133.8 242.20	1.60911542141	3.90	133.80	Rain_/_Snow_Showers(fair)	True	False	133.80
2011-02-27 08:00:00 20836 8 9.78 9.78 9.78 486.6 607.90	1.60911542141	9.78	486.60	Rain_/_Snow_Showers(fair)	True	False	486.60
2011-02-27 09:00:00 20837 9 196.57 196.57 196.57 780.1 886.60	22.171758877	196.57	780.10	Cloudy(fair)	True	False	780.10
2011-02-27 10:00:00 20838 10 259.11 259.11 259.11 973.8 1063.70	24.3592214299	259.11	973.80	Cloudy(fair)	True	False	973.80
2011-02-27 11:00:00 20839 11 280.06 280.06 280.06 968.6 1149.70	24.3592214299	280.06	968.60	Cloudy(cloudy)	True	False	968.60
2011-02-27 12:00:00 20840 12 278.57 278.57 278.57 962.1 1143.60	24.3592214299	278.57	962.10	Cloudy(cloudy)	True	False	962.10
2011-02-27 13:00:00 20841 13 252.80 252.80 252.80 1005.1 1037.80	24.3592214299	252.80	1005.10	Cloudy(cloudy)	True	False	1005.10
2011-02-27 14:00:00 20842 14 217.14 217.14 217.14 845.0 891.40	24.3592214299	217.14	845.00	Cloudy(partly_cloudy)	True	False	845.00
2011-02-27 15:00:00 20843 15 156.43 156.43 156.43 564.5 642.20	24.3592214299	156.43	564.50	Cloudy(fair)	True	False	564.50
2011-02-27 16:00:00 20844 16 66.96 66.96 66.96 184.2 302.00	22.171758877	66.96	184.20	Cloudy(fair)	True	False	184.20
2011-02-27 17:00:00 20845 17 7.67 7.67 7.67 27.9 34.60	22.171758877	7.67	27.90	Cloudy(fair)	True	False	27.90
2011-02-27 18:00:00 20846 18 0.00 0.00 0.00 0.0 0.00	69.0440984605	0.00	0.00	Partly_Cloudy(fair)	True	False	0.00
2011-02-27 19:00:00 20847 19 0.00 0.00 0.00 0.0 0.00	69.0440984605	0.00	0.00	Partly_Cloudy(fair)	True	False	0.00
2011-02-27 20:00:00 20848 20 0.00 0.00 0.00 0.0 0.00	69.0440984605	0.00	0.00	Partly_Cloudy(fair)	True	False	0.00
2011-02-27 21:00:00 20849 21 0.00 0.00 0.00 0.0 0.00	22.7170742652	0.00	0.00	Mostly_Cloudy(fair)	True	False	0.00
2011-02-27 22:00:00 20850 22 0.00 0.00 0.00 0.0 0.00	22.7170742652	0.00	0.00	Mostly_Cloudy(fair)	True	False	0.00
2011-02-27 23:00:00 20851 23 0.00 0.00 0.00 0.0 0.00	22.7170742652	0.00	0.00	Mostly_Cloudy(fair)	True	False	0.00
