2011-02-28 18:00:00 23914 18 0.29 0.29 0.06 0.0 0.30	21.0300804477	0.06	0.00	Cloudy(cloudy)	True	False	0.00
2011-02-28 19:00:00 23915 19 0.00 0.00 0.00 0.0 0.00	5.58312655087	0.00	0.00	Few_Showers(cloudy)	True	False	0.00
2011-02-28 20:00:00 23916 20 0.00 0.00 0.00 0.0 0.00	21.0300804477	0.00	0.00	Cloudy(Unkown)	True	False	0.00
2011-02-28 21:00:00 23917 21 0.00 0.00 0.00 0.0 0.00	21.0300804477	0.00	0.00	Cloudy(cloudy)	True	False	0.00
2011-02-28 22:00:00 23918 22 0.00 0.00 0.00 0.0 0.00	21.0300804477	0.00	0.00	Cloudy(cloudy)	True	False	0.00
2011-02-28 23:00:00 23919 23 0.00 0.00 0.00 0.0 0.00	5.58312655087	0.00	0.00	Light_Rain(mostly_cloudy)	True	False	0.00
2011-03-01 00:00:00 23920 0 0.00 0.00 0.00 0.0 0.00	22.7170742652	0.00	0.00	Mostly_Cloudy(fair)	True	False	0.00
2011-03-01 01:00:00 23921 1 0.00 0.00 0.00 0.0 0.00	22.7170742652	0.00	0.00	Mostly_Cloudy(fair)	True	False	0.00
2011-03-01 02:00:00 23922 2 0.00 0.00 0.00 0.0 0.00	22.7170742652	0.00	0.00	Mostly_Cloudy(fair)	True	False	0.00
2011-03-01 03:00:00 23923 3 0.00 0.00 0.00 0.0 0.00	94.1931238691	0.00	0.00	Clear(fair)	True	False	0.00
2011-03-01 04:00:00 23924 4 0.00 0.00 0.00 0.0 0.00	94.1931238691	0.00	0.00	Clear(fair)	True	False	0.00
2011-03-01 05:00:00 23925 5 0.00 0.00 0.00 0.0 0.00	94.1931238691	0.00	0.00	Clear(fair)	True	False	0.00
2011-03-01 06:00:00 23926 6 25.71 25.71 25.71 10.5 27.30	94.1931238691	25.71	10.50	Clear(fair)	True	False	10.50
2011-03-01 07:00:00 23927 7 228.14 228.14 228.14 86.9 242.20	94.1931238691	228.14	86.90	Sunny(fair)	True	False	86.90
2011-03-01 08:00:00 23928 8 572.60 572.60 572.60 414.6 607.90	94.1931238691	572.60	414.60	Sunny(fair)	True	False	414.60
2011-03-01 09:00:00 23929 9 835.12 835.12 835.12 872.1 886.60	94.1931238691	835.12	872.10	Sunny(fair)	True	False	872.10
2011-03-01 10:00:00 23930 10 1020.96 1020.96 1020.96 1051.7 1063.70	95.9818847562	1020.96	1051.70	Sunny(fair)	True	False	1051.70
2011-03-01 11:00:00 23931 11 1103.50 1103.50 1103.50 1133.5 1149.70	95.9818847562	1103.50	1133.50	Sunny(fair)	True	False	1133.50
2011-03-01 12:00:00 23932 12 1097.65 1097.65 1097.65 1119.5 1143.60	95.9818847562	1097.65	1119.50	Sunny(fair)	True	False	1119.50
2011-03-01 13:00:00 23933 13 996.10 996.10 996.10 1001.7 1037.80	95.9818847562	996.10	1001.70	Sunny(fair)	True	False	1001.70
2011-03-01 14:00:00 23934 14 855.58 855.58 855.58 862.8 891.40	95.9818847562	855.58	862.80	Sunny(fair)	True	False	862.80
2011-03-01 15:00:00 23935 15 616.40 616.40 616.40 609.4 642.20	95.9818847562	616.40	609.40	Sunny(fair)	True	False	609.40
2011-03-01 16:00:00 23936 16 284.46 284.46 284.46 269.8 302.00	94.1931238691	284.46	269.80	Sunny(fair)	True	False	269.80
2011-03-01 17:00:00 23937 17 32.59 32.59 32.59 22.2 34.60	94.1931238691	32.59	22.20	Sunny(fair)	True	False	22.20
2011-03-01 18:00:00 23938 18 0.28 0.28 0.28 0.0 0.30	94.1931238691	0.28	0.00	Clear(fair)	True	False	0.00
2011-03-01 19:00:00 23939 19 0.00 0.00 0.00 0.0 0.00	94.1931238691	0.00	0.00	Clear(fair)	True	False	0.00
2011-03-01 20:00:00 23940 20 0.00 0.00 0.00 0.0 0.00	94.1931238691	0.00	0.00	Clear(fair)	True	False	0.00
2011-03-01 21:00:00 23941 21 0.00 0.00 0.00 0.0 0.00	94.1931238691	0.00	0.00	Clear(fair)	True	False	0.00
2011-03-01 22:00:00 23942 22 0.00 0.00 0.00 0.0 0.00	94.1931238691	0.00	0.00	Clear(fair)	True	False	0.00
2011-03-01 23:00:00 23943 23 0.00 0.00 0.00 0.0 0.00	94.1931238691	0.00	0.00	Clear(fair)	True	False	0.00
2011-03-02 00:00:00 23944 0 0.00 0.00 0.00 0.0 0.00	94.1931238691	0.00	0.00	Mostly_Clear(fair)	False	False	0.00
2011-03-02 01:00:00 23945 1 0.00 0.00 0.00 0.0 0.00	94.1931238691	0.00	0.00	Mostly_Clear(fair)	False	False	0.00
2011-03-02 02:00:00 23946 2 0.00 0.00 0.00 0.0 0.00	94.1931238691	0.00	0.00	Mostly_Clear(fair)	False	False	0.00
2011-03-02 03:00:00 23947 3 0.00 0.00 0.00 0.0 0.00	94.1931238691	0.00	0.00	Clear(fair)	True	False	0.00
2011-03-02 04:00:00 23948 4 0.00 0.00 0.00 0.0 0.00	94.1931238691	0.00	0.00	Clear(fair)	True	False	0.00
2011-03-02 05:00:00 23949 5 0.00 0.00 0.00 0.0 0.00	94.1931238691	0.00	0.00	Clear(fair)	True	False	0.00
2011-03-02 06:00:00 23950 6 25.71 25.71 25.71 8.3 27.30	94.1931238691	25.71	8.30	Clear(fair)	True	False	8.30
2011-03-02 07:00:00 23951 7 228.14 228.14 228.14 187.1 242.20	94.1931238691	228.14	187.10	Sunny(fair)	True	False	187.10
2011-03-02 08:00:00 23952 8 572.60 572.60 572.60 517.9 607.90	94.1931238691	572.60	517.90	Sunny(fair)	True	False	517.90
2011-03-02 09:00:00 23953 9 835.12 835.12 835.12 813.0 886.60	94.1931238691	835.12	813.00	Sunny(partly_cloudy)	True	False	813.00
2011-03-02 10:00:00 23954 10 1020.96 1020.96 1020.96 978.2 1063.70	95.9818847562	1020.96	978.20	Sunny(fair)	True	False	978.20
2011-03-02 11:00:00 23955 11 1103.50 1103.50 1103.50 1079.3 1149.70	95.9818847562	1103.50	1079.30	Sunny(fair)	True	False	1079.30
2011-03-02 12:00:00 23956 12 1097.65 1097.65 1097.65 1098.6 1143.60	95.9818847562	1097.65	1098.60	Sunny(fair)	True	False	1098.60
2011-03-02 13:00:00 23957 13 996.10 996.10 996.10 987.9 1037.80	95.9818847562	996.10	987.90	Sunny(fair)	True	False	987.90
2011-03-02 14:00:00 23958 14 855.58 855.58 855.58 279.6 891.40	95.9818847562	855.58	279.60	Sunny(mostly_cloudy)	True	False	279.60
2011-03-02 15:00:00 23959 15 616.40 616.40 616.40 438.9 642.20	95.9818847562	616.40	438.90	Sunny(fair)	True	False	438.90
2011-03-02 16:00:00 23960 16 284.46 284.46 284.46 252.5 302.00	94.1931238691	284.46	252.50	Sunny(fair)	True	False	252.50
2011-03-02 17:00:00 23961 17 32.59 32.59 32.59 29.6 34.60	94.1931238691	32.59	29.60	Sunny(mostly_cloudy)	True	False	29.60
2011-03-02 18:00:00 23962 18 0.28 0.28 0.28 0.0 0.30	94.1931238691	0.28	0.00	Clear(fair)	True	False	0.00
