2011-02-14 21:00:00 7976 21 0.00 0.00 0.00 0.0 0.00	49.1267353336	0.00	0.00	Partly_Cloudy(cloudy_and_windy)	True	False	0.00
2011-02-14 22:00:00 7977 22 0.00 0.00 0.00 0.0 0.00	49.1267353336	0.00	0.00	Partly_Cloudy(cloudy_and_windy)	True	False	0.00
2011-02-14 23:00:00 7978 23 0.00 0.00 0.00 0.0 0.00	49.1267353336	0.00	0.00	Partly_Cloudy(cloudy)	True	False	0.00
2011-02-15 00:00:00 7979 0 0.00 0.00 0.00 0.0 0.00	49.1267353336	0.00	0.00	Partly_Cloudy(mostly_cloudy)	True	False	0.00
2011-02-15 01:00:00 7980 1 0.00 0.00 0.00 0.0 0.00	49.1267353336	0.00	0.00	Partly_Cloudy(cloudy)	True	False	0.00
2011-02-15 02:00:00 7981 2 0.00 0.00 0.00 0.0 0.00	19.1848272089	0.00	0.00	Mostly_Cloudy(cloudy)	True	False	0.00
2011-02-15 03:00:00 7982 3 0.00 0.00 0.00 0.0 0.00	67.8571428571	0.00	0.00	Clear(fair)	True	False	0.00
2011-02-15 04:00:00 7983 4 0.00 0.00 0.00 0.0 0.00	67.8571428571	0.00	0.00	Clear(fair)	True	False	0.00
2011-02-15 05:00:00 7984 5 0.00 0.00 0.00 0.0 0.00	67.8571428571	0.00	0.00	Clear(fair)	True	False	0.00
2011-02-15 06:00:00 7985 6 1.90 1.90 1.90 0.0 2.80	67.8571428571	1.90	0.00	Clear(fair)	True	False	0.00
2011-02-15 07:00:00 7986 7 111.35 111.35 111.35 119.3 164.10	67.8571428571	111.35	119.30	Sunny(fair)	True	False	119.30
2011-02-15 08:00:00 7987 8 346.07 346.07 346.07 492.5 510.00	67.8571428571	346.07	492.50	Sunny(fair)	True	False	492.50
2011-02-15 09:00:00 7988 9 548.01 548.01 548.01 815.0 807.60	67.8571428571	548.01	815.00	Sunny(fair)	True	False	815.00
2011-02-15 10:00:00 7989 10 867.70 867.70 867.70 1023.0 1001.50	86.6400399401	867.70	1023.00	Sunny(fair)	True	False	1023.00
2011-02-15 11:00:00 7990 11 950.18 950.18 950.18 1118.6 1096.70	86.6400399401	950.18	1118.60	Sunny(fair)	True	False	1118.60
2011-02-15 12:00:00 7991 12 959.45 959.45 959.45 1130.7 1107.40	86.6400399401	959.45	1130.70	Sunny(fair)	True	False	1130.70
2011-02-15 13:00:00 7992 13 870.13 870.13 870.13 1023.7 1004.30	86.6400399401	870.13	1023.70	Sunny(fair)	True	False	1023.70
2011-02-15 14:00:00 7993 14 722.92 722.92 722.92 856.0 834.40	86.6400399401	722.92	856.00	Sunny(fair)	True	False	856.00
2011-02-15 15:00:00 7994 15 494.63 494.63 494.63 574.8 570.90	86.6400399401	494.63	574.80	Sunny(fair)	True	False	574.80
2011-02-15 16:00:00 7995 16 151.53 151.53 151.53 204.7 223.30	67.8571428571	151.53	204.70	Sunny(fair)	True	False	204.70
2011-02-15 17:00:00 7996 17 20.09 20.09 20.09 5.6 29.60	67.8571428571	20.09	5.60	Sunny(fair)	True	False	5.60
2011-02-15 18:00:00 7997 18 0.00 0.00 0.00 0.0 0.00	67.8571428571	0.00	0.00	Clear(fair)	True	False	0.00
2011-02-15 19:00:00 7998 19 0.00 0.00 0.00 0.0 0.00	67.8571428571	0.00	0.00	Clear(fair)	True	False	0.00
2011-02-15 20:00:00 7999 20 0.00 0.00 0.00 0.0 0.00	67.8571428571	0.00	0.00	Clear(fair)	True	False	0.00
2011-02-15 21:00:00 8000 21 0.00 0.00 0.00 0.0 0.00	67.8571428571	0.00	0.00	Clear(fair)	True	False	0.00
2011-02-15 22:00:00 8001 22 0.00 0.00 0.00 0.0 0.00	67.8571428571	0.00	0.00	Clear(fair)	True	False	0.00
2011-02-15 23:00:00 8002 23 0.00 0.00 0.00 0.0 0.00	67.8571428571	0.00	0.00	Clear(fair)	True	False	0.00
2011-02-16 00:00:00 8003 0 0.00 0.00 0.00 0.0 0.00	67.8571428571	0.00	0.00	Clear(fair)	True	False	0.00
2011-02-16 01:00:00 8004 1 0.00 0.00 0.00 0.0 0.00	67.8571428571	0.00	0.00	Clear(fair)	True	False	0.00
2011-02-16 02:00:00 8005 2 0.00 0.00 0.00 0.0 0.00	67.8571428571	0.00	0.00	Clear(fair)	True	False	0.00
2011-02-16 03:00:00 8006 3 0.00 0.00 0.00 0.0 0.00	67.8571428571	0.00	0.00	Mostly_Clear(fair)	False	False	0.00
2011-02-16 04:00:00 8007 4 0.00 0.00 0.00 0.0 0.00	67.8571428571	0.00	0.00	Mostly_Clear(fair)	False	False	0.00
2011-02-16 05:00:00 8008 5 0.00 0.00 0.00 0.0 0.00	67.8571428571	0.00	0.00	Mostly_Clear(fair)	False	False	0.00
2011-02-16 06:00:00 8009 6 1.38 1.38 1.38 0.0 2.80	49.1267353336	1.38	0.00	Partly_Cloudy(fair)	True	False	0.00
2011-02-16 07:00:00 8010 7 80.62 80.62 80.62 48.4 164.10	49.1267353336	80.62	48.40	Partly_Cloudy(fair)	True	False	48.40
2011-02-16 08:00:00 8011 8 250.55 250.55 250.55 297.8 510.00	49.1267353336	250.55	297.80	Partly_Cloudy(fair)	True	False	297.80
2011-02-16 09:00:00 8012 9 396.75 396.75 396.75 643.9 807.60	49.1267353336	396.75	643.90	Partly_Cloudy(fair)	True	False	643.90
2011-02-16 10:00:00 8013 10 685.91 685.91 685.91 927.1 1001.50	68.4883517253	685.91	927.10	Partly_Cloudy(fair)	True	False	927.10
2011-02-16 11:00:00 8014 11 751.11 751.11 751.11 1071.4 1096.70	68.4883517253	751.11	1071.40	Partly_Cloudy(fair)	True	False	1071.40
2011-02-16 12:00:00 8015 12 758.44 758.44 758.44 1038.6 1107.40	68.4883517253	758.44	1038.60	Partly_Cloudy(sunny)	True	False	1038.60
2011-02-16 13:00:00 8016 13 687.83 687.83 687.83 952.0 1004.30	68.4883517253	687.83	952.00	Partly_Cloudy(sunny)	True	False	952.00
2011-02-16 14:00:00 8017 14 571.47 571.47 571.47 783.7 834.40	68.4883517253	571.47	783.70	Partly_Cloudy(sunny)	True	False	783.70
2011-02-16 15:00:00 8018 15 391.00 391.00 391.00 521.4 570.90	68.4883517253	391.00	521.40	Partly_Cloudy(sunny)	True	False	521.40
2011-02-16 16:00:00 8019 16 109.70 109.70 109.70 194.8 223.30	49.1267353336	109.70	194.80	Partly_Cloudy(fair)	True	False	194.80
2011-02-16 17:00:00 8020 17 14.54 14.54 14.54 10.1 29.60	49.1267353336	14.54	10.10	Partly_Cloudy(fair)	True	False	10.10
2011-02-16 18:00:00 8021 18 0.00 0.00 0.00 0.0 0.00	67.8571428571	0.00	0.00	Clear(mostly_cloudy)	True	False	0.00
2011-02-16 19:00:00 8022 19 0.00 0.00 0.00 0.0 0.00	67.8571428571	0.00	0.00	Clear(mostly_cloudy)	True	False	0.00
2011-02-16 20:00:00 8023 20 0.00 0.00 0.00 0.0 0.00	67.8571428571	0.00	0.00	Clear(cloudy)	True	False	0.00
2011-02-16 21:00:00 8024 21 0.00 0.00 0.00 0.0 0.00	67.8571428571	0.00	0.00	Clear(cloudy)	True	False	0.00
