2011-03-04 00:00:00 27626 0 0.00 0.00 0.00 0.0 0.00	72.5139082058	0.00	0.00	Partly_Cloudy(fair)	True	False	0.00
2011-03-04 01:00:00 27627 1 0.00 0.00 0.00 0.0 0.00	72.5139082058	0.00	0.00	Partly_Cloudy(fair)	True	False	0.00
2011-03-04 02:00:00 27628 2 0.00 0.00 0.00 0.0 0.00	72.5139082058	0.00	0.00	Partly_Cloudy(fair)	True	False	0.00
2011-03-04 03:00:00 27629 3 0.00 0.00 0.00 0.0 0.00	26.4076391176	0.00	0.00	Mostly_Cloudy(fair)	True	False	0.00
2011-03-04 04:00:00 27630 4 0.00 0.00 0.00 0.0 0.00	26.4076391176	0.00	0.00	Mostly_Cloudy(fair)	True	False	0.00
2011-03-04 05:00:00 27631 5 0.00 0.00 0.00 0.0 0.00	26.4076391176	0.00	0.00	Mostly_Cloudy(fair)	True	False	0.00
2011-03-04 06:00:00 27632 6 7.21 7.21 7.21 8.8 27.30	26.4076391176	7.21	8.80	Mostly_Cloudy(fair)	True	False	8.80
2011-03-04 07:00:00 27633 7 63.96 63.96 63.96 160.0 242.20	26.4076391176	63.96	160.00	Mostly_Cloudy(fair)	True	False	160.00
2011-03-04 08:00:00 27634 8 160.53 160.53 160.53 410.0 607.90	26.4076391176	160.53	410.00	Mostly_Cloudy(fair)	True	False	410.00
2011-03-04 09:00:00 27635 9 148.99 148.99 148.99 748.1 886.60	16.8043837523	148.99	748.10	Cloudy(fair)	True	False	748.10
2011-03-04 10:00:00 27636 10 214.30 214.30 214.30 1019.2 1063.70	20.1466578923	214.30	1019.20	Cloudy(fair)	True	False	1019.20
2011-03-04 11:00:00 27637 11 231.63 231.63 231.63 964.7 1149.70	20.1466578923	231.63	964.70	Cloudy(fair)	True	False	964.70
2011-03-04 12:00:00 27638 12 231.77 231.77 231.77 1068.1 1150.40	20.1466578923	231.77	1068.10	Cloudy(fair)	True	False	1068.10
2011-03-04 13:00:00 27639 13 232.13 232.13 232.13 999.6 1152.20	20.1466578923	232.13	999.60	Cloudy(fair)	True	False	999.60
2011-03-04 14:00:00 27640 14 214.26 214.26 214.26 849.5 1063.50	20.1466578923	214.26	849.50	Cloudy(fair)	True	False	849.50
2011-03-04 15:00:00 27641 15 671.65 671.65 671.65 568.2 911.10	73.7188528444	671.65	568.20	Partly_Cloudy(fair)	True	False	568.20
2011-03-04 16:00:00 27642 16 481.06 481.06 481.06 216.4 663.40	72.5139082058	481.06	216.40	Partly_Cloudy(fair)	True	False	216.40
2011-03-04 17:00:00 27643 17 238.57 238.57 238.57 17.4 329.00	72.5139082058	238.57	17.40	Partly_Cloudy(fair)	True	False	17.40
2011-03-04 18:00:00 27644 18 13.78 13.78 13.78 0.0 52.20	26.4076391176	13.78	0.00	Mostly_Cloudy(fair)	True	False	0.00
2011-03-04 19:00:00 27645 19 0.03 0.03 0.03 0.0 0.10	26.4076391176	0.03	0.00	Mostly_Cloudy(fair)	True	False	0.00
2011-03-04 20:00:00 27646 20 0.00 0.00 0.00 0.0 0.00	26.4076391176	0.00	0.00	Mostly_Cloudy(cloudy)	True	False	0.00
2011-03-04 21:00:00 27647 21 0.00 0.00 0.00 0.0 0.00	16.8043837523	0.00	0.00	Cloudy(cloudy)	True	False	0.00
2011-03-04 22:00:00 27648 22 0.00 0.00 0.00 0.0 0.00	16.8043837523	0.00	0.00	Cloudy(cloudy)	True	False	0.00
2011-03-04 23:00:00 27649 23 0.00 0.00 0.00 0.0 0.00	16.8043837523	0.00	0.00	Cloudy(cloudy)	True	False	0.00
2011-03-05 00:00:00 27650 0 0.00 0.00 0.00 0.0 0.00	16.8043837523	0.00	0.00	Cloudy(cloudy)	True	False	0.00
2011-03-05 01:00:00 27651 1 0.00 0.00 0.00 0.0 0.00	16.8043837523	0.00	0.00	Cloudy(cloudy)	True	False	0.00
2011-03-05 02:00:00 27652 2 0.00 0.00 0.00 0.0 0.00	16.8043837523	0.00	0.00	Cloudy(Unkown)	True	False	0.00
2011-03-05 03:00:00 27653 3 0.00 0.00 0.00 0.0 0.00	26.4076391176	0.00	0.00	Mostly_Cloudy(Unkown)	True	False	0.00
2011-03-05 04:00:00 27654 4 0.00 0.00 0.00 0.0 0.00	26.4076391176	0.00	0.00	Mostly_Cloudy(cloudy)	True	False	0.00
2011-03-05 05:00:00 27655 5 0.00 0.00 0.00 0.0 0.00	26.4076391176	0.00	0.00	Mostly_Cloudy(light_rain)	True	False	0.00
2011-03-05 06:00:00 27656 6 7.21 7.21 7.21 0.0 27.30	26.4076391176	7.21	0.00	Mostly_Cloudy(cloudy)	True	False	0.00
2011-03-05 07:00:00 27657 7 63.96 63.96 63.96 31.0 242.20	26.4076391176	63.96	31.00	Mostly_Cloudy(cloudy)	True	False	31.00
2011-03-05 08:00:00 27658 8 160.53 160.53 160.53 253.4 607.90	26.4076391176	160.53	253.40	Mostly_Cloudy(cloudy)	True	False	253.40
2011-03-05 09:00:00 27659 9 148.99 148.99 148.99 747.8 886.60	16.8043837523	148.99	747.80	Cloudy(cloudy)	True	False	747.80
2011-03-05 10:00:00 27660 10 214.30 214.30 214.30 974.6 1063.70	20.1466578923	214.30	974.60	Cloudy(mostly_cloudy)	True	False	974.60
2011-03-05 11:00:00 27661 11 231.63 231.63 231.63 880.7 1149.70	20.1466578923	231.63	880.70	Cloudy(partly_cloudy)	True	False	880.70
2011-03-05 12:00:00 27662 12 58.91 58.91 58.91 529.8 1150.40	5.12063877799	58.91	529.80	Few_Showers(cloudy)	True	False	529.80
2011-03-05 13:00:00 27663 13 59.00 59.00 59.00 493.3 1152.20	5.12063877799	59.00	493.30	Few_Showers(cloudy)	True	False	493.30
2011-03-05 14:00:00 27664 14 54.46 54.46 54.46 269.5 1063.50	5.12063877799	54.46	269.50	Few_Showers(mostly_cloudy)	True	False	269.50
2011-03-05 15:00:00 27665 15 46.65 46.65 46.65 267.4 911.10	5.12063877799	46.65	267.40	Few_Showers(cloudy)	True	False	267.40
2011-03-05 16:00:00 27666 16 37.04 37.04 37.04 73.6 663.40	5.58312655087	37.04	73.60	Few_Showers(cloudy)	True	False	73.60
2011-03-05 17:00:00 27667 17 18.37 18.37 18.37 4.0 329.00	5.58312655087	18.37	4.00	Few_Showers(cloudy)	True	False	4.00
2011-03-05 18:00:00 27668 18 8.77 8.77 8.77 0.0 52.20	16.8043837523	8.77	0.00	Cloudy(cloudy)	True	False	0.00
2011-03-05 19:00:00 27669 19 0.02 0.02 0.02 0.0 0.10	16.8043837523	0.02	0.00	Cloudy(cloudy)	True	False	0.00
2011-03-05 20:00:00 27670 20 0.00 0.00 0.00 0.0 0.00	16.8043837523	0.00	0.00	Cloudy(mostly_cloudy)	True	False	0.00
2011-03-05 21:00:00 27671 21 0.00 0.00 0.00 0.0 0.00	16.8043837523	0.00	0.00	Cloudy(mostly_cloudy)	True	False	0.00
2011-03-05 22:00:00 27672 22 0.00 0.00 0.00 0.0 0.00	16.8043837523	0.00	0.00	Cloudy(cloudy)	True	False	0.00
2011-03-05 23:00:00 27673 23 0.00 0.00 0.00 0.0 0.00	16.8043837523	0.00	0.00	Cloudy(cloudy)	True	False	0.00
