2011-02-27 12:00:00 22537 12 834.20 1090.88 1090.88 962.1 1143.60	72.9450856943	1090.88	962.10	Partly_Cloudy(cloudy)	True	False	962.10
2011-02-27 13:00:00 22538 13 351.25 873.09 873.09 1005.1 1037.80	33.8456360781	873.09	1005.10	Mostly_Cloudy(cloudy)	True	False	1005.10
2011-02-27 14:00:00 22539 14 301.70 749.93 749.93 845.0 891.40	33.8456360781	749.93	845.00	Mostly_Cloudy(partly_cloudy)	True	False	845.00
2011-02-27 15:00:00 22540 15 217.36 540.28 540.28 564.5 642.20	33.8456360781	540.28	564.50	Mostly_Cloudy(fair)	True	False	564.50
2011-02-27 16:00:00 22541 16 68.61 254.07 254.07 184.2 302.00	22.7170742652	254.07	184.20	Mostly_Cloudy(fair)	True	False	184.20
2011-02-27 17:00:00 22542 17 7.86 29.11 29.11 27.9 34.60	22.7170742652	29.11	27.90	Mostly_Cloudy(fair)	True	False	27.90
2011-02-27 18:00:00 22543 18 0.00 0.00 0.00 0.0 0.00	22.7170742652	0.00	0.00	Mostly_Cloudy(fair)	True	False	0.00
2011-02-27 19:00:00 22544 19 0.00 0.00 0.00 0.0 0.00	22.7170742652	0.00	0.00	Mostly_Cloudy(fair)	True	False	0.00
2011-02-27 20:00:00 22545 20 0.00 0.00 0.00 0.0 0.00	22.7170742652	0.00	0.00	Mostly_Cloudy(fair)	True	False	0.00
2011-02-27 21:00:00 22546 21 0.00 0.00 0.00 0.0 0.00	22.171758877	0.00	0.00	Cloudy(fair)	True	False	0.00
2011-02-27 22:00:00 22547 22 0.00 0.00 0.00 0.0 0.00	22.171758877	0.00	0.00	Cloudy(fair)	True	False	0.00
2011-02-27 23:00:00 22548 23 0.00 0.00 0.00 0.0 0.00	22.171758877	0.00	0.00	Cloudy(fair)	True	False	0.00
2011-02-28 00:00:00 22549 0 0.00 0.00 0.00 0.0 0.00	22.171758877	0.00	0.00	Cloudy(fair)	True	False	0.00
2011-02-28 01:00:00 22550 1 0.00 0.00 0.00 0.0 0.00	8.56942987058	0.00	0.00	Rain(mostly_cloudy)	True	False	0.00
2011-02-28 02:00:00 22551 2 0.00 0.00 0.00 0.0 0.00	8.56942987058	0.00	0.00	Rain(cloudy)	True	False	0.00
2011-02-28 03:00:00 22552 3 0.00 0.00 0.00 0.0 0.00	8.56942987058	0.00	0.00	Rain(cloudy)	True	False	0.00
2011-02-28 04:00:00 22553 4 0.00 0.00 0.00 0.0 0.00	4.48905932777	0.00	0.00	Rain(light_rain)	True	False	0.00
2011-02-28 05:00:00 22554 5 0.00 0.00 0.00 0.0 0.00	4.48905932777	0.00	0.00	Rain(light_rain)	True	False	0.00
2011-02-28 06:00:00 22555 6 1.23 1.23 1.23 0.0 27.30	4.48905932777	1.23	0.00	Rain_/_Thunder(light_rain)	True	False	0.00
2011-02-28 07:00:00 22556 7 10.87 10.87 10.87 0.0 242.20	4.48905932777	10.87	0.00	Rain_/_Thunder(cloudy)	True	False	0.00
2011-02-28 08:00:00 22557 8 27.29 27.29 27.29 23.1 607.90	4.48905932777	27.29	23.10	Rain_/_Thunder(rain)	True	False	23.10
2011-02-28 09:00:00 22558 9 39.80 39.80 39.80 24.4 886.60	4.48905932777	39.80	24.40	Rain(light_rain)	True	False	24.40
2011-02-28 10:00:00 22559 10 47.75 47.75 47.75 127.7 1063.70	4.48905932777	47.75	127.70	Rain(rain)	True	False	127.70
2011-02-28 11:00:00 22560 11 51.61 51.61 51.61 194.4 1149.70	4.48905932777	51.61	194.40	Rain(light_rain)	True	False	194.40
2011-02-28 12:00:00 22561 12 51.34 51.34 51.34 181.6 1143.60	4.48905932777	51.34	181.60	Showers(partly_cloudy)	True	False	181.60
2011-02-28 13:00:00 22562 13 46.59 46.59 46.59 167.4 1037.80	4.48905932777	46.59	167.40	Showers(fair)	True	False	167.40
2011-02-28 14:00:00 22563 14 40.02 40.02 40.02 91.1 891.40	4.48905932777	40.02	91.10	Showers(fair)	True	False	91.10
2011-02-28 15:00:00 22564 15 145.89 145.89 145.89 83.2 642.20	22.7170742652	145.89	83.20	Mostly_Cloudy(fair)	True	False	83.20
2011-02-28 16:00:00 22565 16 68.61 68.61 68.61 26.5 302.00	22.7170742652	68.61	26.50	Mostly_Cloudy(cloudy)	True	False	26.50
2011-02-28 17:00:00 22566 17 7.86 7.86 7.86 1.7 34.60	22.7170742652	7.86	1.70	Mostly_Cloudy(cloudy)	True	False	1.70
2011-02-28 18:00:00 22567 18 0.00 0.00 0.00 0.0 0.00	71.3923098618	0.00	0.00	Partly_Cloudy(cloudy)	True	False	0.00
2011-02-28 19:00:00 22568 19 0.00 0.00 0.00 0.0 0.00	71.3923098618	0.00	0.00	Partly_Cloudy(cloudy)	True	False	0.00
2011-02-28 20:00:00 22569 20 0.00 0.00 0.00 0.0 0.00	71.3923098618	0.00	0.00	Partly_Cloudy(Unkown)	True	False	0.00
2011-02-28 21:00:00 22570 21 0.00 0.00 0.00 0.0 0.00	92.2791081751	0.00	0.00	Sunny(cloudy)	True	False	0.00
2011-02-28 22:00:00 22571 22 0.00 0.00 0.00 0.0 0.00	95.3901017657	0.00	0.00	Sunny(cloudy)	True	False	0.00
2011-02-28 23:00:00 22572 23 0.00 0.00 0.00 0.0 0.00	95.3901017657	0.00	0.00	Sunny(mostly_cloudy)	True	False	0.00
2011-03-01 00:00:00 22573 0 0.00 0.00 0.00 0.0 0.00	95.3901017657	0.00	0.00	Sunny(fair)	True	False	0.00
