2011-03-01 09:00:00 24641 9 835.12 835.12 835.12 872.1 886.60	94.1931238691	835.12	872.10	Sunny(fair)	True	False	872.10
2011-03-01 10:00:00 24642 10 775.92 775.92 1020.96 1051.7 1063.70	72.9450856943	1020.96	1051.70	Partly_Cloudy(fair)	True	False	1051.70
2011-03-01 11:00:00 24643 11 838.65 838.65 1103.50 1133.5 1149.70	72.9450856943	1103.50	1133.50	Partly_Cloudy(fair)	True	False	1133.50
2011-03-01 12:00:00 24644 12 834.20 834.20 1097.65 1119.5 1143.60	72.9450856943	1097.65	1119.50	Partly_Cloudy(fair)	True	False	1119.50
2011-03-01 13:00:00 24645 13 757.02 757.02 996.10 1001.7 1037.80	72.9450856943	996.10	1001.70	Partly_Cloudy(fair)	True	False	1001.70
2011-03-01 14:00:00 24646 14 650.23 650.23 855.58 862.8 891.40	72.9450856943	855.58	862.80	Partly_Cloudy(fair)	True	False	862.80
2011-03-01 15:00:00 24647 15 468.45 468.45 616.40 609.4 642.20	72.9450856943	616.40	609.40	Partly_Cloudy(fair)	True	False	609.40
2011-03-01 16:00:00 24648 16 215.94 215.94 289.87 269.8 302.00	71.5022735222	289.87	269.80	Partly_Cloudy(fair)	True	False	269.80
2011-03-01 17:00:00 24649 17 24.74 24.74 33.21 22.2 34.60	71.5022735222	33.21	22.20	Partly_Cloudy(fair)	True	False	22.20
2011-03-01 18:00:00 24650 18 4.62 4.62 4.70 0.0 4.90	94.1931238691	4.70	0.00	Clear(fair)	True	False	0.00
2011-03-01 19:00:00 24651 19 0.00 0.00 0.00 0.0 0.00	94.1931238691	0.00	0.00	Clear(fair)	True	False	0.00
2011-03-01 20:00:00 24652 20 0.00 0.00 0.00 0.0 0.00	94.1931238691	0.00	0.00	Clear(fair)	True	False	0.00
2011-03-01 21:00:00 24653 21 0.00 0.00 0.00 0.0 0.00	94.1931238691	0.00	0.00	Clear(fair)	True	False	0.00
2011-03-01 22:00:00 24654 22 0.00 0.00 0.00 0.0 0.00	94.1931238691	0.00	0.00	Clear(fair)	True	False	0.00
2011-03-01 23:00:00 24655 23 0.00 0.00 0.00 0.0 0.00	94.1931238691	0.00	0.00	Clear(fair)	True	False	0.00
2011-03-02 00:00:00 24656 0 0.00 0.00 0.00 0.0 0.00	94.1931238691	0.00	0.00	Clear(fair)	True	False	0.00
2011-03-02 01:00:00 24657 1 0.00 0.00 0.00 0.0 0.00	94.1931238691	0.00	0.00	Clear(fair)	True	False	0.00
2011-03-02 02:00:00 24658 2 0.00 0.00 0.00 0.0 0.00	94.1931238691	0.00	0.00	Clear(fair)	True	False	0.00
2011-03-02 03:00:00 24659 3 0.00 0.00 0.00 0.0 0.00	94.1931238691	0.00	0.00	Clear(fair)	True	False	0.00
2011-03-02 04:00:00 24660 4 0.00 0.00 0.00 0.0 0.00	94.1931238691	0.00	0.00	Clear(fair)	True	False	0.00
2011-03-02 05:00:00 24661 5 0.00 0.00 0.00 0.0 0.00	94.1931238691	0.00	0.00	Clear(fair)	True	False	0.00
2011-03-02 06:00:00 24662 6 25.71 25.71 25.71 8.3 27.30	94.1931238691	25.71	8.30	Clear(fair)	True	False	8.30
2011-03-02 07:00:00 24663 7 228.14 228.14 228.14 187.1 242.20	94.1931238691	228.14	187.10	Sunny(fair)	True	False	187.10
2011-03-02 08:00:00 24664 8 572.60 572.60 572.60 517.9 607.90	94.1931238691	572.60	517.90	Sunny(fair)	True	False	517.90
2011-03-02 09:00:00 24665 9 835.12 835.12 835.12 813.0 886.60	94.1931238691	835.12	813.00	Sunny(partly_cloudy)	True	False	813.00
