2011-03-09 14:00:00 34066 14 963.70 963.70 545.78 195.8 1063.50	51.319215414	545.78	195.80	Mostly_Cloudy(cloudy)	True	False	195.80
2011-03-09 15:00:00 34067 15 167.74 167.74 153.10 108.9 911.10	16.8043837523	153.10	108.90	Cloudy(cloudy)	True	False	108.90
2011-03-09 16:00:00 34068 16 93.09 122.14 93.09 23.0 663.40	14.0319131436	93.09	23.00	Cloudy(cloudy)	True	False	23.00
2011-03-09 17:00:00 34069 17 21.70 60.57 21.70 3.6 329.00	6.59574468085	21.70	3.60	Few_Showers(cloudy)	True	False	3.60
2011-03-09 18:00:00 34070 18 7.55 9.91 7.55 0.0 53.80	14.0319131436	7.55	0.00	Cloudy(cloudy)	True	False	0.00
2011-03-09 19:00:00 34071 19 0.01 0.02 0.01 0.0 0.10	14.0319131436	0.01	0.00	Cloudy(cloudy)	True	False	0.00
2011-03-09 20:00:00 34072 20 0.00 0.00 0.00 0.0 0.00	14.0319131436	0.00	0.00	Cloudy(cloudy)	True	False	0.00
2011-03-09 21:00:00 34073 21 0.00 0.00 0.00 0.0 0.00	0.64880112835	0.00	0.00	Rain_/_Snow_Showers(cloudy)	True	False	0.00
2011-03-09 22:00:00 34074 22 0.00 0.00 0.00 0.0 0.00	0.64880112835	0.00	0.00	Rain_/_Snow_Showers(cloudy)	True	False	0.00
2011-03-09 23:00:00 34075 23 0.00 0.00 0.00 0.0 0.00	0.64880112835	0.00	0.00	Rain_/_Snow_Showers(cloudy)	True	False	0.00
2011-03-10 00:00:00 34076 0 0.00 0.00 0.00 0.0 0.00	4.48905932777	0.00	0.00	Showers(cloudy)	True	False	0.00
2011-03-10 01:00:00 34077 1 0.00 0.00 0.00 0.0 0.00	4.48905932777	0.00	0.00	Showers(cloudy)	True	False	0.00
2011-03-10 02:00:00 34078 2 0.00 0.00 0.00 0.0 0.00	4.48905932777	0.00	0.00	Showers(light_rain)	True	False	0.00
2011-03-10 03:00:00 34079 3 0.00 0.00 0.00 0.0 0.00	4.48905932777	0.00	0.00	Showers(light_rain)	True	False	0.00
2011-03-10 04:00:00 34080 4 0.00 0.00 0.00 0.0 0.00	4.48905932777	0.00	0.00	Showers(cloudy)	True	False	0.00
2011-03-10 05:00:00 34081 5 0.00 0.00 0.00 0.0 0.00	4.48905932777	0.00	0.00	Showers(light_rain)	True	False	0.00
2011-03-10 06:00:00 34082 6 1.80 1.80 1.80 0.0 27.30	6.59574468085	1.80	0.00	Light_Rain(light_rain)	True	False	0.00
2011-03-10 07:00:00 34083 7 15.97 15.97 15.97 9.9 242.20	6.59574468085	15.97	9.90	Light_Rain(light_rain)	True	False	9.90
2011-03-10 08:00:00 34084 8 40.10 40.10 40.10 106.2 607.90	6.59574468085	40.10	106.20	Light_Rain(light_rain)	True	False	106.20
2011-03-10 09:00:00 34085 9 39.80 39.80 39.80 176.4 886.60	4.48905932777	39.80	176.40	Rain(cloudy)	True	False	176.40
2011-03-10 10:00:00 34086 10 90.61 90.61 90.61 101.9 1063.70	8.51877607789	90.61	101.90	Rain(cloudy)	True	False	101.90
2011-03-10 11:00:00 34087 11 97.94 97.94 97.94 52.7 1149.70	8.51877607789	97.94	52.70	Rain(light_rain)	True	False	52.70
2011-03-10 12:00:00 34088 12 98.00 98.00 98.00 64.4 1150.40	8.51877607789	98.00	64.40	Rain(rain)	True	False	64.40
2011-03-10 13:00:00 34089 13 98.15 98.15 98.15 97.3 1152.20	8.51877607789	98.15	97.30	Rain(rain)	True	False	97.30
2011-03-10 14:00:00 34090 14 90.60 90.60 90.60 50.0 1063.50	8.51877607789	90.60	50.00	Rain(light_rain)	True	False	50.00
2011-03-10 15:00:00 34091 15 77.61 77.61 77.61 38.3 911.10	8.51877607789	77.61	38.30	Rain(light_rain)	True	False	38.30
2011-03-10 16:00:00 34092 16 29.78 29.78 29.78 7.9 663.40	4.48905932777	29.78	7.90	Rain(light_rain)	True	False	7.90
2011-03-10 17:00:00 34093 17 14.77 14.77 14.77 0.0 329.00	4.48905932777	14.77	0.00	Rain(light_rain)	True	False	0.00
2011-03-10 18:00:00 34094 18 2.42 2.42 2.42 0.0 53.80	4.48905932777	2.42	0.00	Rain(rain)	True	False	0.00
2011-03-10 19:00:00 34095 19 0.00 0.00 0.00 0.0 0.10	4.48905932777	0.00	0.00	Rain(light_rain)	True	False	0.00
2011-03-10 20:00:00 34096 20 0.00 0.00 0.00 0.0 0.00	4.48905932777	0.00	0.00	Rain(rain)	True	False	0.00
2011-03-10 21:00:00 34097 21 0.00 0.00 0.00 0.0 0.00	4.48905932777	0.00	0.00	Rain(light_rain)	True	False	0.00
2011-03-10 22:00:00 34098 22 0.00 0.00 0.00 0.0 0.00	4.48905932777	0.00	0.00	Rain(cloudy)	True	False	0.00
2011-03-10 23:00:00 34099 23 0.00 0.00 0.00 0.0 0.00	4.48905932777	0.00	0.00	Rain(rain)	True	False	0.00
2011-03-11 00:00:00 34100 0 0.00 0.00 0.00 0.0 0.00	0.0	0.00	0.00	Heavy_Rain(rain)	True	False	0.00
2011-03-11 01:00:00 34101 1 0.00 0.00 0.00 0.0 0.00	0.0	0.00	0.00	Heavy_Rain(rain)	True	False	0.00
2011-03-11 02:00:00 34102 2 0.00 0.00 0.00 0.0 0.00	0.0	0.00	0.00	Heavy_Rain(light_rain)	True	False	0.00
2011-03-11 03:00:00 34103 3 0.00 0.00 0.00 0.0 0.00	4.48905932777	0.00	0.00	Rain(light_rain)	True	False	0.00
2011-03-11 04:00:00 34104 4 0.00 0.00 0.00 0.0 0.00	4.48905932777	0.00	0.00	Rain(light_rain)	True	False	0.00
2011-03-11 05:00:00 34105 5 0.00 0.00 0.00 0.0 0.00	4.48905932777	0.00	0.00	Rain(mostly_cloudy)	True	False	0.00
2011-03-11 06:00:00 34106 6 1.80 1.80 1.80 0.0 27.30	6.59574468085	1.80	0.00	Few_Showers(cloudy)	True	False	0.00
2011-03-11 07:00:00 34107 7 15.97 15.97 15.97 36.9 242.20	6.59574468085	15.97	36.90	Few_Showers(light_rain)	True	False	36.90
2011-03-11 08:00:00 34108 8 40.10 40.10 40.10 142.0 607.90	6.59574468085	40.10	142.00	Few_Showers(cloudy)	True	False	142.00
2011-03-11 09:00:00 34109 9 124.41 124.41 124.41 589.4 886.60	14.0319131436	124.41	589.40	Cloudy(cloudy)	True	False	589.40
2011-03-11 10:00:00 34110 10 178.75 178.75 178.75 360.2 1063.70	16.8043837523	178.75	360.20	Cloudy(cloudy)	True	False	360.20
2011-03-11 11:00:00 34111 11 193.20 193.20 193.20 675.4 1149.70	16.8043837523	193.20	675.40	Cloudy(cloudy)	True	False	675.40
2011-03-11 12:00:00 34112 12 590.38 590.38 590.38 558.7 1150.40	51.319215414	590.38	558.70	Mostly_Cloudy(cloudy)	True	False	558.70
2011-03-11 13:00:00 34113 13 591.30 591.30 591.30 735.1 1152.20	51.319215414	591.30	735.10	Mostly_Cloudy(mostly_cloudy)	True	False	735.10
