2011-03-28 07:00:00 55571 7 95.78 95.78 95.78 85.2 112.80	84.9153242462	95.78	85.20	Sunny(sunny)	True	False	85.20
2011-03-28 08:00:00 55572 8 337.54 337.54 337.54 398.3 397.50	84.9153242462	337.54	398.30	Sunny(sunny)	True	False	398.30
2011-03-28 09:00:00 55573 9 668.88 668.88 668.88 740.9 787.70	84.9153242462	668.88	740.90	Sunny(sunny)	True	False	740.90
2011-03-28 10:00:00 55574 10 887.60 887.60 887.60 1001.5 1006.40	88.1953183992	887.60	1001.50	Sunny(sunny)	True	False	1001.50
2011-03-28 11:00:00 55575 11 1010.81 1010.81 1010.81 1092.2 1146.10	88.1953183992	1010.81	1092.20	Sunny(sunny)	True	False	1092.20
2011-03-28 12:00:00 55576 12 1067.60 1067.60 1067.60 1156.2 1210.50	88.1953183992	1067.60	1156.20	Sunny(fair)	True	False	1156.20
2011-03-28 13:00:00 55577 13 1051.20 1051.20 1051.20 1171.3 1191.90	88.1953183992	1051.20	1171.30	Sunny(sunny)	True	False	1171.30
2011-03-28 14:00:00 55578 14 1021.21 1021.21 1021.21 1047.7 1157.90	88.1953183992	1021.21	1047.70	Sunny(sunny)	True	False	1047.70
2011-03-28 15:00:00 55579 15 874.63 874.63 874.63 929.5 991.70	88.1953183992	874.63	929.50	Sunny(sunny)	True	False	929.50
2011-03-28 16:00:00 55580 16 563.98 563.98 563.98 714.7 715.40	78.8343248966	563.98	714.70	Partly_Cloudy(sunny)	True	False	714.70
2011-03-28 17:00:00 55581 17 309.42 309.42 309.42 375.1 392.50	78.8343248966	309.42	375.10	Partly_Cloudy(sunny)	True	False	375.10
2011-03-28 18:00:00 55582 18 80.17 80.17 80.17 76.3 101.70	78.8343248966	80.17	76.30	Partly_Cloudy(sunny)	True	False	76.30
2011-03-28 19:00:00 55583 19 5.01 5.01 5.01 1.1 5.90	84.9153242462	5.01	1.10	Sunny(sunny)	True	False	1.10
2011-03-28 20:00:00 55584 20 0.00 0.00 0.00 0.0 0.00	84.9153242462	0.00	0.00	Clear(clear)	True	False	0.00
2011-03-28 21:00:00 55585 21 0.00 0.00 0.00 0.0 0.00	84.9153242462	0.00	0.00	Clear(clear)	True	False	0.00
2011-03-28 22:00:00 55586 22 0.00 0.00 0.00 0.0 0.00	84.9153242462	0.00	0.00	Clear(clear)	True	False	0.00
2011-03-28 23:00:00 55587 23 0.00 0.00 0.00 0.0 0.00	84.9153242462	0.00	0.00	Clear(clear)	True	False	0.00
2011-03-29 00:00:00 55588 0 0.00 0.00 0.00 0.0 0.00	84.9153242462	0.00	0.00	Clear(clear)	True	False	0.00
2011-03-29 01:00:00 55589 1 0.00 0.00 0.00 0.0 0.00	84.9153242462	0.00	0.00	Clear(clear)	True	False	0.00
2011-03-29 02:00:00 55590 2 0.00 0.00 0.00 0.0 0.00	84.9153242462	0.00	0.00	Clear(clear)	True	False	0.00
2011-03-29 03:00:00 55591 3 0.00 0.00 0.00 0.0 0.00	84.9153242462	0.00	0.00	Clear(clear)	True	False	0.00
2011-03-29 04:00:00 55592 4 0.00 0.00 0.00 0.0 0.00	84.9153242462	0.00	0.00	Clear(clear)	True	False	0.00
2011-03-29 05:00:00 55593 5 0.00 0.00 0.00 0.0 0.00	84.9153242462	0.00	0.00	Clear(Unkown)	True	False	0.00
2011-03-29 06:00:00 55594 6 5.69 5.69 5.69 0.4 6.70	84.9153242462	5.69	0.40	Clear(Unkown)	True	False	0.40
2011-03-29 07:00:00 55595 7 95.78 95.78 95.78 84.6 112.80	84.9153242462	95.78	84.60	Sunny(Unkown)	True	False	84.60
2011-03-29 08:00:00 55596 8 337.54 337.54 337.54 395.1 397.50	84.9153242462	337.54	395.10	Sunny(Unkown)	True	False	395.10
2011-03-29 09:00:00 55597 9 668.88 668.88 668.88 734.9 787.70	84.9153242462	668.88	734.90	Sunny(Unkown)	True	False	734.90
2011-03-29 10:00:00 55598 10 887.60 887.60 887.60 989.3 1006.40	88.1953183992	887.60	989.30	Sunny(Unkown)	True	False	989.30
2011-03-29 11:00:00 55599 11 1010.81 1010.81 1010.81 1141.7 1146.10	88.1953183992	1010.81	1141.70	Sunny(Unkown)	True	False	1141.70
2011-03-29 12:00:00 55600 12 1067.60 1067.60 1067.60 1215.4 1210.50	88.1953183992	1067.60	1215.40	Sunny(Unkown)	True	False	1215.40
2011-03-29 13:00:00 55601 13 1051.20 1051.20 1051.20 1203.4 1191.90	88.1953183992	1051.20	1203.40	Sunny(Unkown)	True	False	1203.40
2011-03-29 14:00:00 55602 14 1021.21 1021.21 1021.21 1116.1 1157.90	88.1953183992	1021.21	1116.10	Sunny(Unkown)	True	False	1116.10
2011-03-29 15:00:00 55603 15 874.63 874.63 874.63 963.9 991.70	88.1953183992	874.63	963.90	Sunny(Unkown)	True	False	963.90
2011-03-29 16:00:00 55604 16 607.48 607.48 607.48 714.2 715.40	84.9153242462	607.48	714.20	Sunny(Unkown)	True	False	714.20
2011-03-29 17:00:00 55605 17 333.29 333.29 333.29 376.8 392.50	84.9153242462	333.29	376.80	Sunny(sunny)	True	False	376.80
2011-03-29 18:00:00 55606 18 86.36 86.36 86.36 77.3 101.70	84.9153242462	86.36	77.30	Sunny(sunny)	True	False	77.30
2011-03-29 19:00:00 55607 19 5.01 5.01 5.01 1.0 5.90	84.9153242462	5.01	1.00	Sunny(sunny)	True	False	1.00
2011-03-29 20:00:00 55608 20 0.00 0.00 0.00 0.0 0.00	84.9153242462	0.00	0.00	Clear(clear)	True	False	0.00
2011-03-29 21:00:00 55609 21 0.00 0.00 0.00 0.0 0.00	84.9153242462	0.00	0.00	Clear(clear)	True	False	0.00
2011-03-29 22:00:00 55610 22 0.00 0.00 0.00 0.0 0.00	84.9153242462	0.00	0.00	Clear(clear)	True	False	0.00
2011-03-29 23:00:00 55611 23 0.00 0.00 0.00 0.0 0.00	84.9153242462	0.00	0.00	Clear(clear)	True	False	0.00
2011-03-30 00:00:00 55612 0 0.00 0.00 0.00 0.0 0.00	84.9153242462	0.00	0.00	Clear(clear)	True	False	0.00
2011-03-30 01:00:00 55613 1 0.00 0.00 0.00 0.0 0.00	84.9153242462	0.00	0.00	Clear(clear)	True	False	0.00
2011-03-30 02:00:00 55614 2 0.00 0.00 0.00 0.0 0.00	84.9153242462	0.00	0.00	Clear(fair)	True	False	0.00
2011-03-30 03:00:00 55615 3 0.00 0.00 0.00 0.0 0.00	84.9153242462	0.00	0.00	Clear(clear)	True	False	0.00
2011-03-30 04:00:00 55616 4 0.00 0.00 0.00 0.0 0.00	78.8343248966	0.00	0.00	Partly_Cloudy(clear)	True	False	0.00
2011-03-30 05:00:00 55617 5 0.00 0.00 0.00 0.0 0.00	78.8343248966	0.00	0.00	Partly_Cloudy(clear)	True	False	0.00
2011-03-30 06:00:00 55618 6 5.28 5.28 5.28 0.8 6.70	78.8343248966	5.28	0.80	Partly_Cloudy(clear)	True	False	0.80
2011-03-30 07:00:00 55619 7 88.93 88.93 88.93 112.1 112.80	78.8343248966	88.93	112.10	Partly_Cloudy(sunny)	True	False	112.10
