2011-02-13 02:00:00 5904 2 0.00 0.00 0.00 0.0 0.00	83.464704852	0.00	0.00	Mostly_Clear(fair)	False	False	0.00
2011-02-13 03:00:00 5905 3 0.00 0.00 0.00 0.0 0.00	53.3368365738	0.00	0.00	Partly_Cloudy(partly_cloudy)	True	False	0.00
2011-02-13 04:00:00 5906 4 0.00 0.00 0.00 0.0 0.00	53.3368365738	0.00	0.00	Partly_Cloudy(fair)	True	False	0.00
2011-02-13 05:00:00 5907 5 0.00 0.00 0.00 0.0 0.00	19.1848272089	0.00	0.00	Mostly_Cloudy(fair)	True	False	0.00
2011-02-13 06:00:00 5908 6 0.50 0.50 0.50 0.0 2.60	19.1848272089	0.50	0.00	Mostly_Cloudy(fair)	True	False	0.00
2011-02-13 07:00:00 5909 7 31.48 31.48 31.48 57.1 164.10	19.1848272089	31.48	57.10	Mostly_Cloudy(cloudy)	True	False	57.10
2011-02-13 08:00:00 5910 8 97.84 97.84 97.84 110.9 510.00	19.1848272089	97.84	110.90	Flurries(fair)	False	False	110.90
2011-02-13 09:00:00 5911 9 5.30 5.30 5.30 383.3 807.60	0.656265477959	5.30	383.30	Few_Snow_Showers(fair)	True	False	383.30
2011-02-13 10:00:00 5912 10 16.89 16.89 16.89 268.3 1001.50	1.68687881827	16.89	268.30	Few_Snow_Showers(mostly_cloudy)	True	False	268.30
2011-02-13 11:00:00 5913 11 18.50 18.50 18.50 719.6 1096.70	1.68687881827	18.50	719.60	Few_Snow_Showers(mostly_cloudy)	True	False	719.60
2011-02-13 12:00:00 5914 12 254.95 254.95 254.95 749.3 1107.40	23.0225311601	254.95	749.30	Mostly_Cloudy(partly_cloudy)	True	False	749.30
2011-02-13 13:00:00 5915 13 231.22 231.22 231.22 582.4 1004.30	23.0225311601	231.22	582.40	Mostly_Cloudy(partly_cloudy)	True	False	582.40
2011-02-13 14:00:00 5916 14 192.10 192.10 192.10 423.1 834.40	23.0225311601	192.10	423.10	Mostly_Cloudy(Unkown)	True	False	423.10
2011-02-13 15:00:00 5917 15 415.62 415.62 415.62 245.8 570.90	72.8011558606	415.62	245.80	Partly_Cloudy(Unkown)	True	False	245.80
2011-02-13 16:00:00 5918 16 119.10 119.10 119.10 92.5 223.30	53.3368365738	119.10	92.50	Partly_Cloudy(fair)	True	False	92.50
2011-02-13 17:00:00 5919 17 6.13 6.13 6.13 2.0 11.50	53.3368365738	6.13	2.00	Partly_Cloudy(fair)	True	False	2.00
2011-02-13 18:00:00 5920 18 0.00 0.00 0.00 0.0 0.00	19.1848272089	0.00	0.00	Mostly_Cloudy(fair)	True	False	0.00
2011-02-13 19:00:00 5921 19 0.00 0.00 0.00 0.0 0.00	19.1848272089	0.00	0.00	Mostly_Cloudy(fair)	True	False	0.00
2011-02-13 20:00:00 5922 20 0.00 0.00 0.00 0.0 0.00	19.1848272089	0.00	0.00	Mostly_Cloudy(mostly_cloudy)	True	False	0.00
2011-02-13 21:00:00 5923 21 0.00 0.00 0.00 0.0 0.00	19.1848272089	0.00	0.00	Mostly_Cloudy(fair)	True	False	0.00
2011-02-13 22:00:00 5924 22 0.00 0.00 0.00 0.0 0.00	19.1848272089	0.00	0.00	Mostly_Cloudy(fair)	True	False	0.00
2011-02-13 23:00:00 5925 23 0.00 0.00 0.00 0.0 0.00	19.1848272089	0.00	0.00	Mostly_Cloudy(fair)	True	False	0.00
2011-02-14 00:00:00 5926 0 0.00 0.00 0.00 0.0 0.00	21.7175365722	0.00	0.00	Cloudy(fair)	True	False	0.00
2011-02-14 01:00:00 5927 1 0.00 0.00 0.00 0.0 0.00	21.7175365722	0.00	0.00	Cloudy(fair)	True	False	0.00
2011-02-14 02:00:00 5928 2 0.00 0.00 0.00 0.0 0.00	21.7175365722	0.00	0.00	Cloudy(fair)	True	False	0.00
2011-02-14 03:00:00 5929 3 0.00 0.00 0.00 0.0 0.00	21.7175365722	0.00	0.00	Cloudy(fair)	True	False	0.00
2011-02-14 04:00:00 5930 4 0.00 0.00 0.00 0.0 0.00	21.7175365722	0.00	0.00	Cloudy(fair)	True	False	0.00
2011-02-14 05:00:00 5931 5 0.00 0.00 0.00 0.0 0.00	21.7175365722	0.00	0.00	Cloudy(clear)	True	False	0.00
2011-02-14 06:00:00 5932 6 0.56 0.56 0.56 0.0 2.60	21.7175365722	0.56	0.00	Cloudy(fair)	True	False	0.00
2011-02-14 07:00:00 5933 7 35.64 35.64 35.64 24.1 164.10	21.7175365722	35.64	24.10	Cloudy(fair)	True	False	24.10
2011-02-14 08:00:00 5934 8 110.76 110.76 110.76 147.2 510.00	21.7175365722	110.76	147.20	Cloudy(fair)	True	False	147.20
2011-02-14 09:00:00 5935 9 154.94 154.94 154.94 226.8 807.60	19.1848272089	154.94	226.80	Mostly_Cloudy(fair)	True	False	226.80
2011-02-14 10:00:00 5936 10 230.57 230.57 230.57 531.0 1001.50	23.0225311601	230.57	531.00	Mostly_Cloudy(fair)	True	False	531.00
2011-02-14 11:00:00 5937 11 252.49 252.49 252.49 1030.0 1096.70	23.0225311601	252.49	1030.00	Mostly_Cloudy(fair)	True	False	1030.00
2011-02-14 12:00:00 5938 12 254.95 254.95 254.95 1023.3 1107.40	23.0225311601	254.95	1023.30	Mostly_Cloudy(fair)	True	False	1023.30
2011-02-14 13:00:00 5939 13 231.22 231.22 231.22 894.0 1004.30	23.0225311601	231.22	894.00	Mostly_Cloudy(fair)	True	False	894.00
2011-02-14 14:00:00 5940 14 192.10 192.10 192.10 654.7 834.40	23.0225311601	192.10	654.70	Mostly_Cloudy(fair)	True	False	654.70
2011-02-14 15:00:00 5941 15 415.62 415.62 415.62 352.9 570.90	72.8011558606	415.62	352.90	Partly_Cloudy(partly_cloudy)	True	False	352.90
2011-02-14 16:00:00 5942 16 119.10 119.10 119.10 174.3 223.30	53.3368365738	119.10	174.30	Partly_Cloudy(fair)	True	False	174.30
2011-02-14 17:00:00 5943 17 6.13 6.13 6.13 5.9 11.50	53.3368365738	6.13	5.90	Partly_Cloudy(fair)	True	False	5.90
2011-02-14 18:00:00 5944 18 0.00 0.00 0.00 0.0 0.00	53.3368365738	0.00	0.00	Partly_Cloudy(cloudy)	True	False	0.00
2011-02-14 19:00:00 5945 19 0.00 0.00 0.00 0.0 0.00	53.3368365738	0.00	0.00	Partly_Cloudy(cloudy)	True	False	0.00
2011-02-14 20:00:00 5946 20 0.00 0.00 0.00 0.0 0.00	53.3368365738	0.00	0.00	Partly_Cloudy(cloudy)	True	False	0.00
2011-02-14 21:00:00 5947 21 0.00 0.00 0.00 0.0 0.00	53.3368365738	0.00	0.00	Partly_Cloudy(cloudy_and_windy)	True	False	0.00
2011-02-14 22:00:00 5948 22 0.00 0.00 0.00 0.0 0.00	53.3368365738	0.00	0.00	Partly_Cloudy(cloudy_and_windy)	True	False	0.00
2011-02-14 23:00:00 5949 23 0.00 0.00 0.00 0.0 0.00	53.3368365738	0.00	0.00	Partly_Cloudy(cloudy)	True	False	0.00
2011-02-15 00:00:00 5950 0 0.00 0.00 0.00 0.0 0.00	71.4836223507	0.00	0.00	Clear(mostly_cloudy)	True	False	0.00
2011-02-15 01:00:00 5951 1 0.00 0.00 0.00 0.0 0.00	71.4836223507	0.00	0.00	Clear(cloudy)	True	False	0.00
