2011-02-24 12:00:00 19065 12 371.13 1087.51 371.13 479.5 1143.60	32.4527592366	371.13	479.50	Mostly_Cloudy(mostly_cloudy)	True	False	479.50
2011-02-24 13:00:00 19066 13 757.02 435.14 757.02 284.2 1037.80	72.9450856943	757.02	284.20	Partly_Cloudy(cloudy)	True	False	284.20
2011-02-24 14:00:00 19067 14 289.28 373.76 289.28 344.9 891.40	32.4527592366	289.28	344.90	Mostly_Cloudy(mostly_cloudy)	True	False	344.90
2011-02-24 15:00:00 19068 15 208.41 269.27 208.41 250.5 642.20	32.4527592366	208.41	250.50	Mostly_Cloudy(fair)	True	False	250.50
2011-02-24 16:00:00 19069 16 69.81 126.63 69.81 71.0 302.00	23.1174203253	69.81	71.00	Cloudy(mostly_cloudy)	True	False	71.00
2011-02-24 17:00:00 19070 17 8.00 14.51 8.00 9.5 34.60	23.1174203253	8.00	9.50	Cloudy(mostly_cloudy)	True	False	9.50
2011-02-24 18:00:00 19071 18 0.00 0.00 0.00 0.0 0.00	9.53757225434	0.00	0.00	Showers(fair)	True	False	0.00
2011-02-24 19:00:00 19072 19 0.00 0.00 0.00 0.0 0.00	9.53757225434	0.00	0.00	Showers(cloudy)	True	False	0.00
2011-02-24 20:00:00 19073 20 0.00 0.00 0.00 0.0 0.00	9.53757225434	0.00	0.00	Showers(cloudy)	True	False	0.00
2011-02-24 21:00:00 19074 21 0.00 0.00 0.00 0.0 0.00	6.53379712325	0.00	0.00	Light_Rain(light_rain)	True	False	0.00
2011-02-24 22:00:00 19075 22 0.00 0.00 0.00 0.0 0.00	6.53379712325	0.00	0.00	Light_Rain(light_rain)	True	False	0.00
2011-02-24 23:00:00 19076 23 0.00 0.00 0.00 0.0 0.00	6.53379712325	0.00	0.00	Light_Rain(cloudy)	True	False	0.00
2011-02-25 00:00:00 19077 0 0.00 0.00 0.00 0.0 0.00	9.53757225434	0.00	0.00	Rain(light_rain)	True	False	0.00
2011-02-25 01:00:00 19078 1 0.00 0.00 0.00 0.0 0.00	9.53757225434	0.00	0.00	Rain(light_rain)	True	False	0.00
2011-02-25 02:00:00 19079 2 0.00 0.00 0.00 0.0 0.00	9.53757225434	0.00	0.00	Rain(light_rain)	True	False	0.00
2011-02-25 03:00:00 19080 3 0.00 0.00 0.00 0.0 0.00	9.53757225434	0.00	0.00	Rain(light_rain)	True	False	0.00
2011-02-25 04:00:00 19081 4 0.00 0.00 0.00 0.0 0.00	9.53757225434	0.00	0.00	Rain(rain)	True	False	0.00
2011-02-25 05:00:00 19082 5 0.00 0.00 0.00 0.0 0.00	9.53757225434	0.00	0.00	Rain(rain)	True	False	0.00
2011-02-25 06:00:00 19083 6 2.60 2.60 2.60 0.0 27.30	9.53757225434	2.60	0.00	Rain(light_rain)	True	False	0.00
2011-02-25 07:00:00 19084 7 23.10 23.10 23.10 0.0 242.20	9.53757225434	23.10	0.00	Rain(light_rain)	True	False	0.00
2011-02-25 08:00:00 19085 8 57.98 57.98 57.98 0.0 607.90	9.53757225434	57.98	0.00	Rain(rain)	True	False	0.00
2011-02-25 09:00:00 19086 9 84.56 84.56 84.56 12.4 886.60	9.53757225434	84.56	12.40	Rain(rain)	True	False	12.40
2011-02-25 10:00:00 19087 10 104.18 104.18 104.18 69.9 1063.70	9.79385926764	104.18	69.90	Rain(light_rain)	True	False	69.90
2011-02-25 11:00:00 19088 11 112.60 112.60 112.60 67.4 1149.70	9.79385926764	112.60	67.40	Rain(rain)	True	False	67.40
2011-02-25 12:00:00 19089 12 112.00 112.00 112.00 71.0 1143.60	9.79385926764	112.00	71.00	Showers(rain)	True	False	71.00
2011-02-25 13:00:00 19090 13 101.64 101.64 101.64 58.3 1037.80	9.79385926764	101.64	58.30	Showers(light_rain)	True	False	58.30
2011-02-25 14:00:00 19091 14 87.30 87.30 87.30 184.5 891.40	9.79385926764	87.30	184.50	Showers(fair)	True	False	184.50
2011-02-25 15:00:00 19092 15 162.96 162.96 162.96 52.0 642.20	25.3760055964	162.96	52.00	Cloudy(mostly_cloudy)	True	False	52.00
2011-02-25 16:00:00 19093 16 69.81 69.81 69.81 84.5 302.00	23.1174203253	69.81	84.50	Cloudy(cloudy)	True	False	84.50
2011-02-25 17:00:00 19094 17 8.00 8.00 8.00 3.7 34.60	23.1174203253	8.00	3.70	Cloudy(cloudy_and_windy)	True	False	3.70
2011-02-25 18:00:00 19095 18 0.00 0.00 0.00 0.0 0.00	69.0440984605	0.00	0.00	Partly_Cloudy_/_Wind(cloudy)	True	False	0.00
2011-02-25 19:00:00 19096 19 0.00 0.00 0.00 0.0 0.00	69.0440984605	0.00	0.00	Partly_Cloudy_/_Wind(cloudy)	True	False	0.00
2011-02-25 20:00:00 19097 20 0.00 0.00 0.00 0.0 0.00	69.0440984605	0.00	0.00	Partly_Cloudy_/_Wind(mostly_cloudy)	True	False	0.00
2011-02-25 21:00:00 19098 21 0.00 0.00 0.00 0.0 0.00	88.8975397073	0.00	0.00	Clear_/_Wind(cloudy_and_windy)	True	False	0.00
2011-02-25 22:00:00 19099 22 0.00 0.00 0.00 0.0 0.00	88.8975397073	0.00	0.00	Clear_/_Wind(mostly_cloudy)	True	False	0.00
2011-02-25 23:00:00 19100 23 0.00 0.00 0.00 0.0 0.00	88.8975397073	0.00	0.00	Clear_/_Wind(fair)	True	False	0.00
2011-02-26 00:00:00 19101 0 0.00 0.00 0.00 0.0 0.00	88.8975397073	0.00	0.00	Clear(fair)	True	False	0.00
2011-02-26 01:00:00 19102 1 0.00 0.00 0.00 0.0 0.00	88.8975397073	0.00	0.00	Clear(fair)	True	False	0.00
2011-02-26 02:00:00 19103 2 0.00 0.00 0.00 0.0 0.00	88.8975397073	0.00	0.00	Clear(fair)	True	False	0.00
2011-02-26 03:00:00 19104 3 0.00 0.00 0.00 0.0 0.00	88.8975397073	0.00	0.00	Clear(fair)	True	False	0.00
2011-02-26 04:00:00 19105 4 0.00 0.00 0.00 0.0 0.00	88.8975397073	0.00	0.00	Clear(fair)	True	False	0.00
2011-02-26 05:00:00 19106 5 0.00 0.00 0.00 0.0 0.00	88.8975397073	0.00	0.00	Clear(fair)	True	False	0.00
2011-02-26 06:00:00 19107 6 18.85 18.85 18.85 0.5 27.30	69.0440984605	18.85	0.50	Partly_Cloudy(fair)	True	False	0.50
2011-02-26 07:00:00 19108 7 167.22 167.22 167.22 59.4 242.20	69.0440984605	167.22	59.40	Partly_Cloudy(fair)	True	False	59.40
2011-02-26 08:00:00 19109 8 419.72 419.72 419.72 228.5 607.90	69.0440984605	419.72	228.50	Partly_Cloudy(fair)	True	False	228.50
2011-02-26 09:00:00 19110 9 204.96 204.96 204.96 504.3 886.60	23.1174203253	204.96	504.30	Cloudy(sunny)	True	False	504.30
2011-02-26 10:00:00 19111 10 269.92 269.92 269.92 590.8 1063.70	25.3760055964	269.92	590.80	Cloudy(fair)	True	False	590.80
2011-02-26 11:00:00 19112 11 291.75 291.75 291.75 1039.4 1149.70	25.3760055964	291.75	1039.40	Cloudy(fair)	True	False	1039.40
2011-02-26 12:00:00 19113 12 371.13 371.13 371.13 1086.2 1143.60	32.4527592366	371.13	1086.20	Mostly_Cloudy(fair)	True	False	1086.20
