2011-03-18 18:00:00 44514 18 59.04 59.04 77.51 43.3 87.20	67.7087831419	77.51	43.30	Partly_Cloudy(fair)	True	False	43.30
2011-03-18 19:00:00 44515 19 0.95 0.95 0.70 0.1 1.40	67.7087831419	0.70	0.10	Partly_Cloudy(fair)	True	False	0.10
2011-03-18 20:00:00 44516 20 0.00 0.00 0.00 0.0 0.00	67.7087831419	0.00	0.00	Partly_Cloudy(fair)	True	False	0.00
2011-03-18 21:00:00 44517 21 0.00 0.00 0.00 0.0 0.00	67.7087831419	0.00	0.00	Partly_Cloudy(fair)	True	False	0.00
2011-03-18 22:00:00 44518 22 0.00 0.00 0.00 0.0 0.00	67.7087831419	0.00	0.00	Partly_Cloudy(fair)	True	False	0.00
2011-03-18 23:00:00 44519 23 0.00 0.00 0.00 0.0 0.00	7.0602807597	0.00	0.00	Showers(mostly_cloudy)	True	False	0.00
2011-03-19 00:00:00 44520 0 0.00 0.00 0.00 0.0 0.00	67.7087831419	0.00	0.00	Partly_Cloudy(cloudy)	True	False	0.00
2011-03-19 01:00:00 44521 1 0.00 0.00 0.00 0.0 0.00	29.1659812469	0.00	0.00	Mostly_Cloudy(cloudy)	True	False	0.00
2011-03-19 02:00:00 44522 2 0.00 0.00 0.00 0.0 0.00	29.1659812469	0.00	0.00	Mostly_Cloudy(cloudy)	True	False	0.00
2011-03-19 03:00:00 44523 3 0.00 0.00 0.00 0.0 0.00	29.1659812469	0.00	0.00	Mostly_Cloudy(mostly_cloudy)	True	False	0.00
2011-03-19 04:00:00 44524 4 0.00 0.00 0.00 0.0 0.00	29.1659812469	0.00	0.00	Mostly_Cloudy(mostly_cloudy)	True	False	0.00
2011-03-19 05:00:00 44525 5 0.00 0.00 0.00 0.0 0.00	29.1659812469	0.00	0.00	Mostly_Cloudy(partly_cloudy)	True	False	0.00
2011-03-19 06:00:00 44526 6 7.96 7.96 7.96 0.0 27.30	29.1659812469	7.96	0.00	Mostly_Cloudy(partly_cloudy)	True	False	0.00
2011-03-19 07:00:00 44527 7 70.64 70.64 70.64 36.1 242.20	29.1659812469	70.64	36.10	Mostly_Clear(partly_cloudy)	False	False	36.10
2011-03-19 08:00:00 44528 8 177.30 177.30 177.30 313.9 607.90	29.1659812469	177.30	313.90	Mostly_Sunny(sunny)	False	False	313.90
2011-03-19 09:00:00 44529 9 258.59 258.59 258.59 664.8 886.60	29.1659812469	258.59	664.80	Mostly_Sunny(sunny)	False	False	664.80
2011-03-19 10:00:00 44530 10 945.45 945.45 945.45 924.7 1063.70	88.8831923438	945.45	924.70	Sunny(fair)	True	False	924.70
2011-03-19 11:00:00 44531 11 1021.89 1021.89 1021.89 1080.9 1149.70	88.8831923438	1021.89	1080.90	Sunny(sunny)	True	False	1080.90
2011-03-19 12:00:00 44532 12 1054.24 1054.24 1054.24 1141.6 1186.10	88.8831923438	1054.24	1141.60	Sunny(partly_cloudy)	True	False	1141.60
2011-03-19 13:00:00 44533 13 1040.20 1040.20 1040.20 1126.5 1170.30	88.8831923438	1040.20	1126.50	Sunny(partly_cloudy)	True	False	1126.50
2011-03-19 14:00:00 44534 14 1029.18 1029.18 1029.18 1076.6 1157.90	88.8831923438	1029.18	1076.60	Sunny(fair)	True	False	1076.60
2011-03-19 15:00:00 44535 15 881.45 881.45 881.45 928.9 991.70	88.8831923438	881.45	928.90	Sunny(fair)	True	False	928.90
2011-03-19 16:00:00 44536 16 590.28 590.28 590.28 680.8 684.10	86.2855678031	590.28	680.80	Sunny(fair)	True	False	680.80
2011-03-19 17:00:00 44537 17 301.14 301.14 301.14 338.7 349.00	86.2855678031	301.14	338.70	Sunny(sunny)	True	False	338.70
2011-03-19 18:00:00 44538 18 75.24 75.24 75.24 56.7 87.20	86.2855678031	75.24	56.70	Sunny(sunny)	True	False	56.70
2011-03-19 19:00:00 44539 19 1.21 1.21 1.21 0.1 1.40	86.2855678031	1.21	0.10	Sunny(sunny)	True	False	0.10
2011-03-19 20:00:00 44540 20 0.00 0.00 0.00 0.0 0.00	86.2855678031	0.00	0.00	Clear(clear)	True	False	0.00
2011-03-19 21:00:00 44541 21 0.00 0.00 0.00 0.0 0.00	86.2855678031	0.00	0.00	Clear(clear)	True	False	0.00
2011-03-19 22:00:00 44542 22 0.00 0.00 0.00 0.0 0.00	86.2855678031	0.00	0.00	Clear(clear)	True	False	0.00
2011-03-19 23:00:00 44543 23 0.00 0.00 0.00 0.0 0.00	86.2855678031	0.00	0.00	Clear(clear)	True	False	0.00
2011-03-20 00:00:00 44544 0 0.00 0.00 0.00 0.0 0.00	86.2855678031	0.00	0.00	Clear(clear)	True	False	0.00
2011-03-20 01:00:00 44545 1 0.00 0.00 0.00 0.0 0.00	86.2855678031	0.00	0.00	Clear(clear)	True	False	0.00
2011-03-20 02:00:00 44546 2 0.00 0.00 0.00 0.0 0.00	86.2855678031	0.00	0.00	Clear(clear)	True	False	0.00
2011-03-20 03:00:00 44547 3 0.00 0.00 0.00 0.0 0.00	86.2855678031	0.00	0.00	Clear(clear)	True	False	0.00
2011-03-20 04:00:00 44548 4 0.00 0.00 0.00 0.0 0.00	86.2855678031	0.00	0.00	Clear(clear)	True	False	0.00
2011-03-20 05:00:00 44549 5 0.00 0.00 0.00 0.0 0.00	86.2855678031	0.00	0.00	Clear(clear)	True	False	0.00
2011-03-20 06:00:00 44550 6 23.56 23.56 23.56 0.0 27.30	86.2855678031	23.56	0.00	Clear(clear)	True	False	0.00
2011-03-20 07:00:00 44551 7 208.98 208.98 208.98 50.6 242.20	86.2855678031	208.98	50.60	Clear(sunny)	True	False	50.60
2011-03-20 08:00:00 44552 8 524.53 524.53 524.53 323.6 607.90	86.2855678031	524.53	323.60	Sunny(sunny)	True	False	323.60
2011-03-20 09:00:00 44553 9 765.01 765.01 765.01 671.9 886.60	86.2855678031	765.01	671.90	Sunny(sunny)	True	False	671.90
2011-03-20 10:00:00 44554 10 945.45 945.45 945.45 932.9 1063.70	88.8831923438	945.45	932.90	Sunny(sunny)	True	False	932.90
2011-03-20 11:00:00 44555 11 1021.89 1021.89 1021.89 1072.4 1149.70	88.8831923438	1021.89	1072.40	Sunny(sunny)	True	False	1072.40
2011-03-20 12:00:00 44556 12 1054.24 1054.24 1054.24 1138.6 1186.10	88.8831923438	1054.24	1138.60	Sunny(sunny)	True	False	1138.60
2011-03-20 13:00:00 44557 13 1040.20 1040.20 1040.20 1131.6 1170.30	88.8831923438	1040.20	1131.60	Sunny(sunny)	True	False	1131.60
2011-03-20 14:00:00 44558 14 1029.18 1029.18 1029.18 1051.8 1157.90	88.8831923438	1029.18	1051.80	Sunny(sunny)	True	False	1051.80
2011-03-20 15:00:00 44559 15 881.45 881.45 881.45 901.5 991.70	88.8831923438	881.45	901.50	Sunny(sunny)	True	False	901.50
2011-03-20 16:00:00 44560 16 590.28 590.28 590.28 617.9 684.10	86.2855678031	590.28	617.90	Sunny(sunny)	True	False	617.90
2011-03-20 17:00:00 44561 17 301.14 301.14 301.14 330.6 349.00	86.2855678031	301.14	330.60	Sunny(sunny)	True	False	330.60
2011-03-20 18:00:00 44562 18 75.24 75.24 75.24 51.5 87.20	86.2855678031	75.24	51.50	Sunny(sunny)	True	False	51.50
