2011-03-04 10:00:00 28089 10 784.15 784.15 1001.50 1019.2 1063.70	73.7188528444	1001.50	1019.20	Partly_Cloudy(fair)	True	False	1019.20
2011-03-04 11:00:00 28090 11 847.55 847.55 1082.47 964.7 1149.70	73.7188528444	1082.47	964.70	Partly_Cloudy(fair)	True	False	964.70
2011-03-04 12:00:00 28091 12 848.06 848.06 1083.13 1068.1 1150.40	73.7188528444	1083.13	1068.10	Partly_Cloudy(fair)	True	False	1068.10
2011-03-04 13:00:00 28092 13 849.39 849.39 1084.82 999.6 1152.20	73.7188528444	1084.82	999.60	Partly_Cloudy(fair)	True	False	999.60
2011-03-04 14:00:00 28093 14 784.00 784.00 1001.31 849.5 1063.50	73.7188528444	1001.31	849.50	Partly_Cloudy(fair)	True	False	849.50
2011-03-04 15:00:00 28094 15 467.57 467.57 857.82 568.2 911.10	51.319215414	857.82	568.20	Mostly_Cloudy(fair)	True	False	568.20
2011-03-04 16:00:00 28095 16 175.19 175.19 624.61 216.4 663.40	26.4076391176	624.61	216.40	Mostly_Cloudy(fair)	True	False	216.40
2011-03-04 17:00:00 28096 17 86.88 86.88 309.76 17.4 329.00	26.4076391176	309.76	17.40	Mostly_Cloudy(fair)	True	False	17.40
2011-03-04 18:00:00 28097 18 13.78 13.78 49.15 0.0 52.20	26.4076391176	49.15	0.00	Mostly_Cloudy(fair)	True	False	0.00
2011-03-04 19:00:00 28098 19 0.03 0.03 0.09 0.0 0.10	26.4076391176	0.09	0.00	Mostly_Cloudy(fair)	True	False	0.00
2011-03-04 20:00:00 28099 20 0.00 0.00 0.00 0.0 0.00	26.4076391176	0.00	0.00	Mostly_Cloudy(cloudy)	True	False	0.00
2011-03-04 21:00:00 28100 21 0.00 0.00 0.00 0.0 0.00	16.8043837523	0.00	0.00	Cloudy(cloudy)	True	False	0.00
2011-03-04 22:00:00 28101 22 0.00 0.00 0.00 0.0 0.00	16.8043837523	0.00	0.00	Cloudy(cloudy)	True	False	0.00
2011-03-04 23:00:00 28102 23 0.00 0.00 0.00 0.0 0.00	16.8043837523	0.00	0.00	Cloudy(cloudy)	True	False	0.00
2011-03-05 00:00:00 28103 0 0.00 0.00 0.00 0.0 0.00	26.4076391176	0.00	0.00	Mostly_Cloudy(cloudy)	True	False	0.00
2011-03-05 01:00:00 28104 1 0.00 0.00 0.00 0.0 0.00	26.4076391176	0.00	0.00	Mostly_Cloudy(cloudy)	True	False	0.00
2011-03-05 02:00:00 28105 2 0.00 0.00 0.00 0.0 0.00	26.4076391176	0.00	0.00	Mostly_Cloudy(Unkown)	True	False	0.00
2011-03-05 03:00:00 28106 3 0.00 0.00 0.00 0.0 0.00	16.8043837523	0.00	0.00	Cloudy(Unkown)	True	False	0.00
2011-03-05 04:00:00 28107 4 0.00 0.00 0.00 0.0 0.00	16.8043837523	0.00	0.00	Cloudy(cloudy)	True	False	0.00
2011-03-05 05:00:00 28108 5 0.00 0.00 0.00 0.0 0.00	16.8043837523	0.00	0.00	Cloudy(light_rain)	True	False	0.00
2011-03-05 06:00:00 28109 6 4.59 4.59 4.59 0.0 27.30	16.8043837523	4.59	0.00	Cloudy(cloudy)	True	False	0.00
2011-03-05 07:00:00 28110 7 40.70 40.70 40.70 31.0 242.20	16.8043837523	40.70	31.00	Cloudy(cloudy)	True	False	31.00
2011-03-05 08:00:00 28111 8 102.15 102.15 102.15 253.4 607.90	16.8043837523	102.15	253.40	Cloudy(cloudy)	True	False	253.40
2011-03-05 09:00:00 28112 9 148.99 148.99 148.99 747.8 886.60	16.8043837523	148.99	747.80	Cloudy(cloudy)	True	False	747.80
2011-03-05 10:00:00 28113 10 214.30 214.30 214.30 974.6 1063.70	20.1466578923	214.30	974.60	Cloudy(mostly_cloudy)	True	False	974.60
2011-03-05 11:00:00 28114 11 193.20 193.20 193.20 880.7 1149.70	16.8043837523	193.20	880.70	Cloudy(partly_cloudy)	True	False	880.70
2011-03-05 12:00:00 28115 12 193.32 193.32 193.32 529.8 1150.40	16.8043837523	193.32	529.80	Cloudy(cloudy)	True	False	529.80
2011-03-05 13:00:00 28116 13 193.62 193.62 193.62 493.3 1152.20	16.8043837523	193.62	493.30	Cloudy(cloudy)	True	False	493.30
2011-03-05 14:00:00 28117 14 178.71 178.71 178.71 269.5 1063.50	16.8043837523	178.71	269.50	Cloudy(mostly_cloudy)	True	False	269.50
2011-03-05 15:00:00 28118 15 50.87 50.87 50.87 267.4 911.10	5.58312655087	50.87	267.40	Few_Showers(cloudy)	True	False	267.40
2011-03-05 16:00:00 28119 16 37.04 37.04 37.04 73.6 663.40	5.58312655087	37.04	73.60	Few_Showers(cloudy)	True	False	73.60
2011-03-05 17:00:00 28120 17 18.37 18.37 18.37 4.0 329.00	5.58312655087	18.37	4.00	Few_Showers(cloudy)	True	False	4.00
2011-03-05 18:00:00 28121 18 2.91 2.91 2.91 0.0 52.20	5.58312655087	2.91	0.00	Light_Rain(cloudy)	True	False	0.00
2011-03-05 19:00:00 28122 19 0.01 0.01 0.01 0.0 0.10	5.58312655087	0.01	0.00	Light_Rain(cloudy)	True	False	0.00
2011-03-05 20:00:00 28123 20 0.00 0.00 0.00 0.0 0.00	5.58312655087	0.00	0.00	Light_Rain(mostly_cloudy)	True	False	0.00
2011-03-05 21:00:00 28124 21 0.00 0.00 0.00 0.0 0.00	16.8043837523	0.00	0.00	Cloudy(mostly_cloudy)	True	False	0.00
2011-03-05 22:00:00 28125 22 0.00 0.00 0.00 0.0 0.00	20.1466578923	0.00	0.00	Cloudy(cloudy)	True	False	0.00
