2011-02-22 17:00:00 17018 17 26.79 26.79 29.96 11.7 33.70	79.5032077644	29.96	11.70	Sunny(fair)	True	False	11.70
2011-02-22 18:00:00 17019 18 0.00 0.00 0.00 0.0 0.00	79.5032077644	0.00	0.00	Clear(fair)	True	False	0.00
2011-02-22 19:00:00 17020 19 0.00 0.00 0.00 0.0 0.00	79.5032077644	0.00	0.00	Clear(fair)	True	False	0.00
2011-02-22 20:00:00 17021 20 0.00 0.00 0.00 0.0 0.00	79.5032077644	0.00	0.00	Clear(fair)	True	False	0.00
2011-02-22 21:00:00 17022 21 0.00 0.00 0.00 0.0 0.00	79.5032077644	0.00	0.00	Clear(fair)	True	False	0.00
2011-02-22 22:00:00 17023 22 0.00 0.00 0.00 0.0 0.00	79.5032077644	0.00	0.00	Clear(fair)	True	False	0.00
2011-02-22 23:00:00 17024 23 0.00 0.00 0.00 0.0 0.00	79.5032077644	0.00	0.00	Clear(fair)	True	False	0.00
2011-02-23 00:00:00 17025 0 0.00 0.00 0.00 0.0 0.00	79.5032077644	0.00	0.00	Clear(fair)	True	False	0.00
2011-02-23 01:00:00 17026 1 0.00 0.00 0.00 0.0 0.00	79.5032077644	0.00	0.00	Clear(fair)	True	False	0.00
2011-02-23 02:00:00 17027 2 0.00 0.00 0.00 0.0 0.00	79.5032077644	0.00	0.00	Clear(fair)	True	False	0.00
2011-02-23 03:00:00 17028 3 0.00 0.00 0.00 0.0 0.00	79.5032077644	0.00	0.00	Clear(fair)	True	False	0.00
2011-02-23 04:00:00 17029 4 0.00 0.00 0.00 0.0 0.00	79.5032077644	0.00	0.00	Clear(fair)	True	False	0.00
2011-02-23 05:00:00 17030 5 0.00 0.00 0.00 0.0 0.00	79.5032077644	0.00	0.00	Clear(fair)	True	False	0.00
2011-02-23 06:00:00 17031 6 14.15 14.15 14.15 3.2 17.80	79.5032077644	14.15	3.20	Clear(fair)	True	False	3.20
2011-02-23 07:00:00 17032 7 192.56 192.56 192.56 171.6 242.20	79.5032077644	192.56	171.60	Sunny(fair)	True	False	171.60
2011-02-23 08:00:00 17033 8 483.30 483.30 483.30 533.0 607.90	79.5032077644	483.30	533.00	Sunny(fair)	True	False	533.00
2011-02-23 09:00:00 17034 9 704.88 704.88 704.88 824.3 886.60	79.5032077644	704.88	824.30	Sunny(fair)	True	False	824.30
2011-02-23 10:00:00 17035 10 945.60 945.60 945.60 999.3 1063.70	88.8975397073	945.60	999.30	Sunny(fair)	True	False	999.30
2011-02-23 11:00:00 17036 11 1022.06 1022.06 1022.06 1082.7 1149.70	88.8975397073	1022.06	1082.70	Sunny(fair)	True	False	1082.70
2011-02-23 12:00:00 17037 12 1016.63 1016.63 1016.63 1086.2 1143.60	88.8975397073	1016.63	1086.20	Sunny(fair)	True	False	1086.20
2011-02-23 13:00:00 17038 13 922.58 922.58 922.58 983.5 1037.80	88.8975397073	922.58	983.50	Sunny(fair)	True	False	983.50
2011-02-23 14:00:00 17039 14 792.43 792.43 792.43 828.7 891.40	88.8975397073	792.43	828.70	Sunny(fair)	True	False	828.70
2011-02-23 15:00:00 17040 15 570.90 570.90 570.90 573.7 642.20	88.8975397073	570.90	573.70	Sunny(fair)	True	False	573.70
2011-02-23 16:00:00 17041 16 240.10 240.10 240.10 236.0 302.00	79.5032077644	240.10	236.00	Sunny(fair)	True	False	236.00
2011-02-23 17:00:00 17042 17 26.79 26.79 26.79 13.2 33.70	79.5032077644	26.79	13.20	Sunny(fair)	True	False	13.20
2011-02-23 18:00:00 17043 18 0.00 0.00 0.00 0.0 0.00	79.5032077644	0.00	0.00	Clear(fair)	True	False	0.00
2011-02-23 19:00:00 17044 19 0.00 0.00 0.00 0.0 0.00	79.5032077644	0.00	0.00	Clear(fair)	True	False	0.00
2011-02-23 20:00:00 17045 20 0.00 0.00 0.00 0.0 0.00	79.5032077644	0.00	0.00	Clear(fair)	True	False	0.00
2011-02-23 21:00:00 17046 21 0.00 0.00 0.00 0.0 0.00	79.5032077644	0.00	0.00	Clear(fair)	True	False	0.00
2011-02-23 22:00:00 17047 22 0.00 0.00 0.00 0.0 0.00	79.5032077644	0.00	0.00	Clear(fair)	True	False	0.00
2011-02-23 23:00:00 17048 23 0.00 0.00 0.00 0.0 0.00	79.5032077644	0.00	0.00	Clear(fair)	True	False	0.00
2011-02-24 00:00:00 17049 0 0.00 0.00 0.00 0.0 0.00	79.5032077644	0.00	0.00	Clear(fair)	True	False	0.00
2011-02-24 01:00:00 17050 1 0.00 0.00 0.00 0.0 0.00	79.5032077644	0.00	0.00	Clear(fair)	True	False	0.00
2011-02-24 02:00:00 17051 2 0.00 0.00 0.00 0.0 0.00	79.5032077644	0.00	0.00	Clear(fair)	True	False	0.00
2011-02-24 03:00:00 17052 3 0.00 0.00 0.00 0.0 0.00	79.5032077644	0.00	0.00	Clear(fair)	True	False	0.00
2011-02-24 04:00:00 17053 4 0.00 0.00 0.00 0.0 0.00	79.5032077644	0.00	0.00	Clear(fair)	True	False	0.00
2011-02-24 05:00:00 17054 5 0.00 0.00 0.00 0.0 0.00	79.5032077644	0.00	0.00	Clear(fair)	True	False	0.00
2011-02-24 06:00:00 17055 6 14.15 14.15 14.15 3.7 17.80	79.5032077644	14.15	3.70	Clear(fair)	True	False	3.70
2011-02-24 07:00:00 17056 7 192.56 192.56 192.56 158.1 242.20	79.5032077644	192.56	158.10	Sunny(fair)	True	False	158.10
2011-02-24 08:00:00 17057 8 483.30 483.30 483.30 379.0 607.90	79.5032077644	483.30	379.00	Sunny(fair)	True	False	379.00
2011-02-24 09:00:00 17058 9 704.88 704.88 704.88 312.4 886.60	79.5032077644	704.88	312.40	Sunny(cloudy)	True	False	312.40
2011-02-24 10:00:00 17059 10 945.60 945.60 945.60 509.4 1063.70	88.8975397073	945.60	509.40	Sunny(cloudy)	True	False	509.40
2011-02-24 11:00:00 17060 11 1022.06 1022.06 1022.06 445.0 1149.70	88.8975397073	1022.06	445.00	Sunny(fair)	True	False	445.00
2011-02-24 12:00:00 17061 12 1016.63 1016.63 1016.63 479.5 1143.60	88.8975397073	1016.63	479.50	Sunny(mostly_cloudy)	True	False	479.50
2011-02-24 13:00:00 17062 13 922.58 922.58 922.58 284.2 1037.80	88.8975397073	922.58	284.20	Sunny(cloudy)	True	False	284.20
2011-02-24 14:00:00 17063 14 792.43 792.43 792.43 344.9 891.40	88.8975397073	792.43	344.90	Sunny(mostly_cloudy)	True	False	344.90
2011-02-24 15:00:00 17064 15 62.90 62.90 62.90 250.5 642.20	9.79385926764	62.90	250.50	Showers(fair)	True	False	250.50
2011-02-24 16:00:00 17065 16 28.80 28.80 28.80 71.0 302.00	9.53757225434	28.80	71.00	Showers(mostly_cloudy)	True	False	71.00
2011-02-24 17:00:00 17066 17 3.21 3.21 3.21 9.5 33.70	9.53757225434	3.21	9.50	Showers(mostly_cloudy)	True	False	9.50
