2011-02-18 02:00:00 11681 2 0.00 0.00 0.00 0.0 0.00	9.87199719446	0.00	0.00	Showers(fair)	True	False	0.00
2011-02-18 03:00:00 11682 3 0.00 0.00 0.00 0.0 0.00	9.87199719446	0.00	0.00	Showers(fair)	True	False	0.00
2011-02-18 04:00:00 11683 4 0.00 0.00 0.00 0.0 0.00	23.3279574993	0.00	0.00	Cloudy(clear)	True	False	0.00
2011-02-18 05:00:00 11684 5 0.00 0.00 0.00 0.0 0.00	23.3279574993	0.00	0.00	Cloudy(fair)	True	False	0.00
2011-02-18 06:00:00 11685 6 2.24 2.24 2.24 0.0 9.60	23.3279574993	2.24	0.00	Cloudy(fair)	True	False	0.00
2011-02-18 07:00:00 11686 7 46.84 46.84 46.84 72.0 200.80	23.3279574993	46.84	72.00	Cloudy(fair)	True	False	72.00
2011-02-18 08:00:00 11687 8 130.03 130.03 130.03 144.1 557.40	23.3279574993	130.03	144.10	Cloudy(partly_cloudy)	True	False	144.10
2011-02-18 09:00:00 11688 9 188.40 188.40 188.40 100.6 807.60	23.3279574993	188.40	100.60	Cloudy(fair)	True	False	100.60
2011-02-18 10:00:00 11689 10 251.88 251.88 251.88 132.3 1054.10	23.8949391416	251.88	132.30	Cloudy(fair)	True	False	132.30
2011-02-18 11:00:00 11690 11 272.55 272.55 272.55 195.4 1140.60	23.8949391416	272.55	195.40	Cloudy(fair)	True	False	195.40
2011-02-18 12:00:00 11691 12 269.82 269.82 269.82 708.5 1129.20	23.8949391416	269.82	708.50	Cloudy(fair)	True	False	708.50
2011-02-18 13:00:00 11692 13 247.03 247.03 247.03 894.7 1033.80	23.8949391416	247.03	894.70	Cloudy(fair)	True	False	894.70
2011-02-18 14:00:00 11693 14 204.23 204.23 204.23 738.0 854.70	23.8949391416	204.23	738.00	Cloudy(fair)	True	False	738.00
2011-02-18 15:00:00 11694 15 147.94 147.94 147.94 498.3 624.40	23.6925236925	147.94	498.30	Mostly_Cloudy(fair)	True	False	498.30
2011-02-18 16:00:00 11695 16 50.89 50.89 50.89 191.4 275.90	18.4464317026	50.89	191.40	Mostly_Cloudy(fair)	True	False	191.40
2011-02-18 17:00:00 11696 17 5.46 5.46 5.46 17.7 29.60	18.4464317026	5.46	17.70	Mostly_Cloudy(fair)	True	False	17.70
2011-02-18 18:00:00 11697 18 0.00 0.00 0.00 0.0 0.00	66.9886082219	0.00	0.00	Partly_Cloudy(fair)	True	False	0.00
2011-02-18 19:00:00 11698 19 0.00 0.00 0.00 0.0 0.00	66.9886082219	0.00	0.00	Partly_Cloudy(light_rain)	True	False	0.00
2011-02-18 20:00:00 11699 20 0.00 0.00 0.00 0.0 0.00	66.9886082219	0.00	0.00	Partly_Cloudy(fair)	True	False	0.00
2011-02-18 21:00:00 11700 21 0.00 0.00 0.00 0.0 0.00	66.9886082219	0.00	0.00	Partly_Cloudy(fair)	True	False	0.00
2011-02-18 22:00:00 11701 22 0.00 0.00 0.00 0.0 0.00	66.9886082219	0.00	0.00	Partly_Cloudy(fair)	True	False	0.00
2011-02-18 23:00:00 11702 23 0.00 0.00 0.00 0.0 0.00	66.9886082219	0.00	0.00	Partly_Cloudy(fair)	True	False	0.00
2011-02-19 00:00:00 11703 0 0.00 0.00 0.00 0.0 0.00	66.9886082219	0.00	0.00	Mostly_Clear(fair)	False	False	0.00
2011-02-19 01:00:00 11704 1 0.00 0.00 0.00 0.0 0.00	66.9886082219	0.00	0.00	Mostly_Clear(fair)	False	False	0.00
2011-02-19 02:00:00 11705 2 0.00 0.00 0.00 0.0 0.00	66.9886082219	0.00	0.00	Mostly_Clear(clear)	False	False	0.00
2011-02-19 03:00:00 11706 3 0.00 0.00 0.00 0.0 0.00	63.8808280132	0.00	0.00	Clear(fair)	True	False	0.00
2011-02-19 04:00:00 11707 4 0.00 0.00 0.00 0.0 0.00	63.8808280132	0.00	0.00	Clear(fair)	True	False	0.00
2011-02-19 05:00:00 11708 5 0.00 0.00 0.00 0.0 0.00	63.8808280132	0.00	0.00	Clear(clear)	True	False	0.00
2011-02-19 06:00:00 11709 6 6.13 6.13 6.13 0.1 9.60	63.8808280132	6.13	0.10	Clear(fair)	True	False	0.10
2011-02-19 07:00:00 11710 7 128.27 128.27 128.27 132.9 200.80	63.8808280132	128.27	132.90	Sunny(fair)	True	False	132.90
2011-02-19 08:00:00 11711 8 356.07 356.07 356.07 486.6 557.40	63.8808280132	356.07	486.60	Sunny(partly_cloudy)	True	False	486.60
2011-02-19 09:00:00 11712 9 515.90 515.90 515.90 726.9 807.60	63.8808280132	515.90	726.90	Sunny_/_Wind(partly_cloudy)	True	False	726.90
2011-02-19 10:00:00 11713 10 703.35 703.35 703.35 628.7 1054.10	66.7251667252	703.35	628.70	Sunny_/_Wind(partly_cloudy)	True	False	628.70
2011-02-19 11:00:00 11714 11 761.07 761.07 761.07 614.6 1140.60	66.7251667252	761.07	614.60	Sunny_/_Wind(cloudy_and_windy)	True	False	614.60
2011-02-19 12:00:00 11715 12 834.20 834.20 834.20 717.1 1129.20	73.8753099539	834.20	717.10	Partly_Cloudy_/_Wind(cloudy_and_windy)	True	False	717.10
2011-02-19 13:00:00 11716 13 763.72 763.72 763.72 577.3 1033.80	73.8753099539	763.72	577.30	Partly_Cloudy_/_Wind(cloudy_and_windy)	True	False	577.30
2011-02-19 14:00:00 11717 14 631.41 631.41 631.41 467.3 854.70	73.8753099539	631.41	467.30	Partly_Cloudy_/_Wind(mostly_cloudy_and_windy)	True	False	467.30
2011-02-19 15:00:00 11718 15 461.28 461.28 461.28 203.6 624.40	73.8753099539	461.28	203.60	Partly_Cloudy_/_Wind(mostly_cloudy)	True	False	203.60
2011-02-19 16:00:00 11719 16 184.82 184.82 184.82 64.1 275.90	66.9886082219	184.82	64.10	Partly_Cloudy_/_Wind(mostly_cloudy_and_windy)	True	False	64.10
2011-02-19 17:00:00 11720 17 19.83 19.83 19.83 6.0 29.60	66.9886082219	19.83	6.00	Partly_Cloudy_/_Wind(cloudy_and_windy)	True	False	6.00
2011-02-19 18:00:00 11721 18 0.00 0.00 0.00 0.0 0.00	66.9886082219	0.00	0.00	Partly_Cloudy(cloudy)	True	False	0.00
2011-02-19 19:00:00 11722 19 0.00 0.00 0.00 0.0 0.00	66.9886082219	0.00	0.00	Partly_Cloudy(cloudy_and_windy)	True	False	0.00
2011-02-19 20:00:00 11723 20 0.00 0.00 0.00 0.0 0.00	66.9886082219	0.00	0.00	Partly_Cloudy(cloudy)	True	False	0.00
2011-02-19 21:00:00 11724 21 0.00 0.00 0.00 0.0 0.00	66.9886082219	0.00	0.00	Mostly_Clear(cloudy)	False	False	0.00
2011-02-19 22:00:00 11725 22 0.00 0.00 0.00 0.0 0.00	66.9886082219	0.00	0.00	Mostly_Clear(cloudy_and_windy)	False	False	0.00
2011-02-19 23:00:00 11726 23 0.00 0.00 0.00 0.0 0.00	66.9886082219	0.00	0.00	Mostly_Clear(fair)	False	False	0.00
2011-02-20 00:00:00 11727 0 0.00 0.00 0.00 0.0 0.00	66.9886082219	0.00	0.00	Mostly_Clear(cloudy_and_windy)	False	False	0.00
2011-02-20 01:00:00 11728 1 0.00 0.00 0.00 0.0 0.00	66.9886082219	0.00	0.00	Mostly_Clear(mostly_cloudy_and_windy)	False	False	0.00
