2011-02-26 20:00:00 21767 20 0.00 0.00 0.00 0.0 0.00	8.56942987058	0.00	0.00	Showers(cloudy)	True	False	0.00
2011-02-26 21:00:00 21768 21 0.00 0.00 0.00 0.0 0.00	8.56942987058	0.00	0.00	Showers(fair)	True	False	0.00
2011-02-26 22:00:00 21769 22 0.00 0.00 0.00 0.0 0.00	8.56942987058	0.00	0.00	Showers(mostly_cloudy)	True	False	0.00
2011-02-26 23:00:00 21770 23 0.00 0.00 0.00 0.0 0.00	22.171758877	0.00	0.00	Cloudy(cloudy)	True	False	0.00
2011-02-27 00:00:00 21771 0 0.00 0.00 0.00 0.0 0.00	22.171758877	0.00	0.00	Cloudy(cloudy)	True	False	0.00
2011-02-27 01:00:00 21772 1 0.00 0.00 0.00 0.0 0.00	22.171758877	0.00	0.00	Cloudy(cloudy)	True	False	0.00
2011-02-27 02:00:00 21773 2 0.00 0.00 0.00 0.0 0.00	1.60911542141	0.00	0.00	Rain_/_Snow_Showers(cloudy)	True	False	0.00
2011-02-27 03:00:00 21774 3 0.00 0.00 0.00 0.0 0.00	22.171758877	0.00	0.00	Cloudy(cloudy)	True	False	0.00
2011-02-27 04:00:00 21775 4 0.00 0.00 0.00 0.0 0.00	22.171758877	0.00	0.00	Cloudy(cloudy)	True	False	0.00
2011-02-27 05:00:00 21776 5 0.00 0.00 0.00 0.0 0.00	22.171758877	0.00	0.00	Cloudy(cloudy)	True	False	0.00
2011-02-27 06:00:00 21777 6 6.05 6.05 6.05 2.5 27.30	22.171758877	6.05	2.50	Cloudy(cloudy)	True	False	2.50
2011-02-27 07:00:00 21778 7 53.70 53.70 53.70 133.8 242.20	22.171758877	53.70	133.80	Cloudy(fair)	True	False	133.80
2011-02-27 08:00:00 21779 8 134.78 134.78 134.78 486.6 607.90	22.171758877	134.78	486.60	Cloudy(fair)	True	False	486.60
2011-02-27 09:00:00 21780 9 201.41 201.41 201.41 780.1 886.60	22.7170742652	201.41	780.10	Mostly_Cloudy(fair)	True	False	780.10
2011-02-27 10:00:00 21781 10 360.02 360.02 360.02 973.8 1063.70	33.8456360781	360.02	973.80	Mostly_Cloudy(fair)	True	False	973.80
2011-02-27 11:00:00 21782 11 389.12 389.12 389.12 968.6 1149.70	33.8456360781	389.12	968.60	Mostly_Cloudy(cloudy)	True	False	968.60
2011-02-27 12:00:00 21783 12 387.06 387.06 387.06 962.1 1143.60	33.8456360781	387.06	962.10	Mostly_Cloudy(cloudy)	True	False	962.10
2011-02-27 13:00:00 21784 13 351.25 351.25 351.25 1005.1 1037.80	33.8456360781	351.25	1005.10	Mostly_Cloudy(cloudy)	True	False	1005.10
2011-02-27 14:00:00 21785 14 301.70 301.70 301.70 845.0 891.40	33.8456360781	301.70	845.00	Mostly_Cloudy(partly_cloudy)	True	False	845.00
2011-02-27 15:00:00 21786 15 156.43 156.43 156.43 564.5 642.20	24.3592214299	156.43	564.50	Cloudy(fair)	True	False	564.50
2011-02-27 16:00:00 21787 16 66.96 66.96 66.96 184.2 302.00	22.171758877	66.96	184.20	Cloudy(fair)	True	False	184.20
2011-02-27 17:00:00 21788 17 7.67 7.67 7.67 27.9 34.60	22.171758877	7.67	27.90	Cloudy(fair)	True	False	27.90
2011-02-27 18:00:00 21789 18 0.00 0.00 0.00 0.0 0.00	22.171758877	0.00	0.00	Cloudy(fair)	True	False	0.00
2011-02-27 19:00:00 21790 19 0.00 0.00 0.00 0.0 0.00	22.171758877	0.00	0.00	Cloudy(fair)	True	False	0.00
2011-02-27 20:00:00 21791 20 0.00 0.00 0.00 0.0 0.00	22.171758877	0.00	0.00	Cloudy(fair)	True	False	0.00
2011-02-27 21:00:00 21792 21 0.00 0.00 0.00 0.0 0.00	22.171758877	0.00	0.00	Cloudy(fair)	True	False	0.00
2011-02-27 22:00:00 21793 22 0.00 0.00 0.00 0.0 0.00	22.171758877	0.00	0.00	Cloudy(fair)	True	False	0.00
2011-02-27 23:00:00 21794 23 0.00 0.00 0.00 0.0 0.00	22.171758877	0.00	0.00	Cloudy(fair)	True	False	0.00
2011-02-28 00:00:00 21795 0 0.00 0.00 0.00 0.0 0.00	22.171758877	0.00	0.00	Cloudy(fair)	True	False	0.00
2011-02-28 01:00:00 21796 1 0.00 0.00 0.00 0.0 0.00	22.171758877	0.00	0.00	Cloudy(mostly_cloudy)	True	False	0.00
2011-02-28 02:00:00 21797 2 0.00 0.00 0.00 0.0 0.00	22.171758877	0.00	0.00	Cloudy(cloudy)	True	False	0.00
2011-02-28 03:00:00 21798 3 0.00 0.00 0.00 0.0 0.00	8.56942987058	0.00	0.00	Showers(cloudy)	True	False	0.00
2011-02-28 04:00:00 21799 4 0.00 0.00 0.00 0.0 0.00	8.56942987058	0.00	0.00	Showers(light_rain)	True	False	0.00
2011-02-28 05:00:00 21800 5 0.00 0.00 0.00 0.0 0.00	8.56942987058	0.00	0.00	Showers(light_rain)	True	False	0.00
2011-02-28 06:00:00 21801 6 1.72 1.72 1.72 0.0 27.30	6.31142802081	1.72	0.00	Light_Rain(light_rain)	True	False	0.00
2011-02-28 07:00:00 21802 7 15.29 15.29 15.29 0.0 242.20	6.31142802081	15.29	0.00	Light_Rain(cloudy)	True	False	0.00
2011-02-28 08:00:00 21803 8 38.37 38.37 38.37 23.1 607.90	6.31142802081	38.37	23.10	Light_Rain(rain)	True	False	23.10
2011-02-28 09:00:00 21804 9 75.98 75.98 75.98 24.4 886.60	8.56942987058	75.98	24.40	Rain(light_rain)	True	False	24.40
2011-02-28 10:00:00 21805 10 104.18 104.18 104.18 127.7 1063.70	9.79385926764	104.18	127.70	Rain(rain)	True	False	127.70
2011-02-28 11:00:00 21806 11 112.60 112.60 112.60 194.4 1149.70	9.79385926764	112.60	194.40	Rain(light_rain)	True	False	194.40
2011-02-28 12:00:00 21807 12 112.00 112.00 112.00 181.6 1143.60	9.79385926764	112.00	181.60	Rain(partly_cloudy)	True	False	181.60
2011-02-28 13:00:00 21808 13 101.64 101.64 101.64 167.4 1037.80	9.79385926764	101.64	167.40	Rain(fair)	True	False	167.40
2011-02-28 14:00:00 21809 14 87.30 87.30 87.30 91.1 891.40	9.79385926764	87.30	91.10	Rain(fair)	True	False	91.10
2011-02-28 15:00:00 21810 15 62.90 62.90 62.90 83.2 642.20	9.79385926764	62.90	83.20	Rain(fair)	True	False	83.20
2011-02-28 16:00:00 21811 16 25.88 25.88 25.88 26.5 302.00	8.56942987058	25.88	26.50	Rain(cloudy)	True	False	26.50
2011-02-28 17:00:00 21812 17 2.97 2.97 2.97 1.7 34.60	8.56942987058	2.97	1.70	Rain(cloudy)	True	False	1.70
2011-02-28 18:00:00 21813 18 0.00 0.00 0.00 0.0 0.00	22.171758877	0.00	0.00	Cloudy(cloudy)	True	False	0.00
