2011-03-19 21:00:00 45831 21 0.00 0.00 0.00 0.0 0.00	86.2855678031	0.00	0.00	Clear(clear)	True	False	0.00
2011-03-19 22:00:00 45832 22 0.00 0.00 0.00 0.0 0.00	86.2855678031	0.00	0.00	Clear(clear)	True	False	0.00
2011-03-19 23:00:00 45833 23 0.00 0.00 0.00 0.0 0.00	86.2855678031	0.00	0.00	Clear(clear)	True	False	0.00
2011-03-20 00:00:00 45834 0 0.00 0.00 0.00 0.0 0.00	86.2855678031	0.00	0.00	Clear(clear)	True	False	0.00
2011-03-20 01:00:00 45835 1 0.00 0.00 0.00 0.0 0.00	86.2855678031	0.00	0.00	Clear(clear)	True	False	0.00
2011-03-20 02:00:00 45836 2 0.00 0.00 0.00 0.0 0.00	86.2855678031	0.00	0.00	Clear(clear)	True	False	0.00
2011-03-20 03:00:00 45837 3 0.00 0.00 0.00 0.0 0.00	86.2855678031	0.00	0.00	Clear(clear)	True	False	0.00
2011-03-20 04:00:00 45838 4 0.00 0.00 0.00 0.0 0.00	86.2855678031	0.00	0.00	Clear(clear)	True	False	0.00
2011-03-20 05:00:00 45839 5 0.00 0.00 0.00 0.0 0.00	86.2855678031	0.00	0.00	Clear(clear)	True	False	0.00
2011-03-20 06:00:00 45840 6 23.56 23.56 23.56 0.0 27.30	86.2855678031	23.56	0.00	Clear(clear)	True	False	0.00
2011-03-20 07:00:00 45841 7 208.98 208.98 208.98 50.6 242.20	86.2855678031	208.98	50.60	Clear(sunny)	True	False	50.60
2011-03-20 08:00:00 45842 8 524.53 524.53 524.53 323.6 607.90	86.2855678031	524.53	323.60	Sunny(sunny)	True	False	323.60
2011-03-20 09:00:00 45843 9 765.01 765.01 765.01 671.9 886.60	86.2855678031	765.01	671.90	Sunny(sunny)	True	False	671.90
2011-03-20 10:00:00 45844 10 945.45 945.45 945.45 932.9 1063.70	88.8831923438	945.45	932.90	Sunny(sunny)	True	False	932.90
2011-03-20 11:00:00 45845 11 1021.89 1021.89 1021.89 1072.4 1149.70	88.8831923438	1021.89	1072.40	Sunny(sunny)	True	False	1072.40
2011-03-20 12:00:00 45846 12 1054.24 1054.24 1054.24 1138.6 1186.10	88.8831923438	1054.24	1138.60	Sunny(sunny)	True	False	1138.60
2011-03-20 13:00:00 45847 13 1040.20 1040.20 1040.20 1131.6 1170.30	88.8831923438	1040.20	1131.60	Sunny(sunny)	True	False	1131.60
2011-03-20 14:00:00 45848 14 1029.18 1029.18 1029.18 1051.8 1157.90	88.8831923438	1029.18	1051.80	Sunny(sunny)	True	False	1051.80
2011-03-20 15:00:00 45849 15 881.45 881.45 881.45 901.5 991.70	88.8831923438	881.45	901.50	Sunny(sunny)	True	False	901.50
2011-03-20 16:00:00 45850 16 608.05 608.05 608.05 617.9 684.10	88.8831923438	608.05	617.90	Mostly_Sunny(sunny)	False	False	617.90
2011-03-20 17:00:00 45851 17 310.20 310.20 310.20 330.6 349.00	88.8831923438	310.20	330.60	Mostly_Sunny(sunny)	False	False	330.60
2011-03-20 18:00:00 45852 18 77.51 77.51 77.51 51.5 87.20	88.8831923438	77.51	51.50	Mostly_Sunny(sunny)	False	False	51.50
2011-03-20 19:00:00 45853 19 0.95 0.95 0.95 0.3 1.40	67.7087831419	0.95	0.30	Partly_Cloudy(sunny)	True	False	0.30
2011-03-20 20:00:00 45854 20 0.00 0.00 0.00 0.0 0.00	67.7087831419	0.00	0.00	Partly_Cloudy(clear)	True	False	0.00
2011-03-20 21:00:00 45855 21 0.00 0.00 0.00 0.0 0.00	67.7087831419	0.00	0.00	Partly_Cloudy(fair)	True	False	0.00
2011-03-20 22:00:00 45856 22 0.00 0.00 0.00 0.0 0.00	29.1659812469	0.00	0.00	Mostly_Cloudy(fair)	True	False	0.00
2011-03-20 23:00:00 45857 23 0.00 0.00 0.00 0.0 0.00	29.1659812469	0.00	0.00	Mostly_Cloudy(fair)	True	False	0.00
2011-03-21 00:00:00 45858 0 0.00 0.00 0.00 0.0 0.00	29.1659812469	0.00	0.00	Mostly_Cloudy(cloudy)	True	False	0.00
2011-03-21 01:00:00 45859 1 0.00 0.00 0.00 0.0 0.00	11.230388109	0.00	0.00	Cloudy(partly_cloudy)	True	False	0.00
2011-03-21 02:00:00 45860 2 0.00 0.00 0.00 0.0 0.00	11.230388109	0.00	0.00	Cloudy(partly_cloudy)	True	False	0.00
2011-03-21 03:00:00 45861 3 0.00 0.00 0.00 0.0 0.00	11.230388109	0.00	0.00	Cloudy(cloudy)	True	False	0.00
2011-03-21 04:00:00 45862 4 0.00 0.00 0.00 0.0 0.00	11.230388109	0.00	0.00	Snow_Shower(cloudy)	False	False	0.00
2011-03-21 05:00:00 45863 5 0.00 0.00 0.00 0.0 0.00	11.230388109	0.00	0.00	Snow_Shower(light_rain)	False	False	0.00
2011-03-21 06:00:00 45864 6 3.07 3.07 3.07 0.0 27.30	11.230388109	3.07	0.00	Snow_Shower(light_snow)	False	False	0.00
2011-03-21 07:00:00 45865 7 27.20 27.20 27.20 0.0 242.20	11.230388109	27.20	0.00	Snow(light_rain)	False	False	0.00
2011-03-21 08:00:00 45866 8 68.27 68.27 68.27 4.8 607.90	11.230388109	68.27	4.80	Snow(light_snow)	False	False	4.80
2011-03-21 09:00:00 45867 9 99.57 99.57 99.57 18.8 886.60	11.230388109	99.57	18.80	Snow(light_rain)	False	False	18.80
2011-03-21 10:00:00 45868 10 93.44 93.44 93.44 37.4 1063.70	8.78407246005	93.44	37.40	Light_Rain(light_rain)	True	False	37.40
2011-03-21 11:00:00 45869 11 100.99 100.99 100.99 56.0 1149.70	8.78407246005	100.99	56.00	Light_Rain(cloudy)	True	False	56.00
2011-03-21 12:00:00 45870 12 104.19 104.19 104.19 101.1 1186.10	8.78407246005	104.19	101.10	Light_Rain(light_rain)	True	False	101.10
2011-03-21 13:00:00 45871 13 48.05 48.05 48.05 143.1 1170.30	4.10541880491	48.05	143.10	Rain(fog)	True	False	143.10
2011-03-21 14:00:00 45872 14 47.54 47.54 47.54 156.2 1157.90	4.10541880491	47.54	156.20	Rain(fog)	True	False	156.20
2011-03-21 15:00:00 45873 15 40.71 40.71 40.71 94.5 991.70	4.10541880491	40.71	94.50	Rain(cloudy)	True	False	94.50
2011-03-21 16:00:00 45874 16 30.95 30.95 30.95 107.7 684.10	4.52377035697	30.95	107.70	Showers(fog)	True	False	107.70
2011-03-21 17:00:00 45875 17 15.79 15.79 15.79 37.7 349.00	4.52377035697	15.79	37.70	Showers(fog)	True	False	37.70
2011-03-21 18:00:00 45876 18 3.94 3.94 3.94 1.1 87.20	4.52377035697	3.94	1.10	Showers(fog)	True	False	1.10
2011-03-21 19:00:00 45877 19 0.16 0.16 0.16 0.0 1.40	11.230388109	0.16	0.00	Cloudy(cloudy)	True	False	0.00
2011-03-21 20:00:00 45878 20 0.00 0.00 0.00 0.0 0.00	11.230388109	0.00	0.00	Cloudy(cloudy)	True	False	0.00
2011-03-21 21:00:00 45879 21 0.00 0.00 0.00 0.0 0.00	11.230388109	0.00	0.00	Cloudy(cloudy)	True	False	0.00
