2011-03-25 06:00:00 52067 6 23.31 23.31 23.31 0.0 27.30	85.36855904	23.31	0.00	Clear(clear)	True	False	0.00
2011-03-25 07:00:00 52068 7 203.52 203.52 203.52 72.9 238.40	85.36855904	203.52	72.90	Sunny(sunny)	True	False	72.90
2011-03-25 08:00:00 52069 8 441.61 441.61 441.61 368.1 517.30	85.36855904	441.61	368.10	Sunny(sunny)	True	False	368.10
2011-03-25 09:00:00 52070 9 672.02 672.02 672.02 718.8 787.20	85.36855904	672.02	718.80	Sunny(sunny)	True	False	718.80
2011-03-25 10:00:00 52071 10 875.20 875.20 875.20 973.9 984.70	88.8798618869	875.20	973.90	Sunny(sunny)	True	False	973.90
2011-03-25 11:00:00 52072 11 1002.30 1002.30 1002.30 1125.4 1127.70	88.8798618869	1002.30	1125.40	Sunny(sunny)	True	False	1125.40
2011-03-25 12:00:00 52073 12 1054.20 1054.20 1054.20 1204.4 1186.10	88.8798618869	1054.20	1204.40	Sunny(sunny)	True	False	1204.40
2011-03-25 13:00:00 52074 13 1040.16 1040.16 1040.16 1123.8 1170.30	88.8798618869	1040.16	1123.80	Mostly_Sunny(sunny)	False	False	1123.80
2011-03-25 14:00:00 52075 14 1029.14 1029.14 1029.14 974.1 1157.90	88.8798618869	1029.14	974.10	Mostly_Sunny(sunny)	False	False	974.10
2011-03-25 15:00:00 52076 15 881.42 881.42 881.42 817.0 991.70	88.8798618869	881.42	817.00	Mostly_Sunny(fair)	False	False	817.00
2011-03-25 16:00:00 52077 16 507.98 507.98 507.98 337.7 684.10	74.2551170222	507.98	337.70	Partly_Cloudy(partly_cloudy)	True	False	337.70
2011-03-25 17:00:00 52078 17 259.15 259.15 259.15 172.7 349.00	74.2551170222	259.15	172.70	Partly_Cloudy(partly_cloudy)	True	False	172.70
2011-03-25 18:00:00 52079 18 75.52 75.52 75.52 43.6 101.70	74.2551170222	75.52	43.60	Partly_Cloudy(partly_cloudy)	True	False	43.60
2011-03-25 19:00:00 52080 19 4.38 4.38 4.38 0.0 5.90	74.2551170222	4.38	0.00	Partly_Cloudy(mostly_cloudy)	True	False	0.00
2011-03-25 20:00:00 52081 20 0.00 0.00 0.00 0.0 0.00	74.2551170222	0.00	0.00	Partly_Cloudy(mostly_cloudy)	True	False	0.00
2011-03-25 21:00:00 52082 21 0.00 0.00 0.00 0.0 0.00	74.2551170222	0.00	0.00	Partly_Cloudy(partly_cloudy)	True	False	0.00
2011-03-25 22:00:00 52083 22 0.00 0.00 0.00 0.0 0.00	85.36855904	0.00	0.00	Clear(clear)	True	False	0.00
2011-03-25 23:00:00 52084 23 0.00 0.00 0.00 0.0 0.00	85.36855904	0.00	0.00	Clear(clear)	True	False	0.00
2011-03-26 00:00:00 52085 0 0.00 0.00 0.00 0.0 0.00	85.36855904	0.00	0.00	Clear(clear)	True	False	0.00
2011-03-26 01:00:00 52086 1 0.00 0.00 0.00 0.0 0.00	85.36855904	0.00	0.00	Mostly_Clear(clear)	False	False	0.00
2011-03-26 02:00:00 52087 2 0.00 0.00 0.00 0.0 0.00	85.36855904	0.00	0.00	Mostly_Clear(clear)	False	False	0.00
2011-03-26 03:00:00 52088 3 0.00 0.00 0.00 0.0 0.00	85.36855904	0.00	0.00	Mostly_Clear(clear)	False	False	0.00
2011-03-26 04:00:00 52089 4 0.00 0.00 0.00 0.0 0.00	85.36855904	0.00	0.00	Clear(clear)	True	False	0.00
2011-03-26 05:00:00 52090 5 0.00 0.00 0.00 0.0 0.00	85.36855904	0.00	0.00	Clear(clear)	True	False	0.00
2011-03-26 06:00:00 52091 6 23.31 23.31 23.31 0.0 27.30	85.36855904	23.31	0.00	Clear(clear)	True	False	0.00
2011-03-26 07:00:00 52092 7 203.52 203.52 203.52 75.2 238.40	85.36855904	203.52	75.20	Sunny(sunny)	True	False	75.20
2011-03-26 08:00:00 52093 8 441.61 441.61 441.61 376.9 517.30	85.36855904	441.61	376.90	Sunny(sunny)	True	False	376.90
2011-03-26 09:00:00 52094 9 672.02 672.02 672.02 733.6 787.20	85.36855904	672.02	733.60	Sunny(sunny)	True	False	733.60
2011-03-26 10:00:00 52095 10 875.20 875.20 875.20 1001.8 984.70	88.8798618869	875.20	1001.80	Sunny(sunny)	True	False	1001.80
2011-03-26 11:00:00 52096 11 1002.30 1002.30 1002.30 1159.1 1127.70	88.8798618869	1002.30	1159.10	Sunny(sunny)	True	False	1159.10
2011-03-26 12:00:00 52097 12 1054.20 1054.20 1054.20 1241.1 1186.10	88.8798618869	1054.20	1241.10	Sunny(sunny)	True	False	1241.10
2011-03-26 13:00:00 52098 13 1040.16 1040.16 1040.16 1229.9 1170.30	88.8798618869	1040.16	1229.90	Sunny(sunny)	True	False	1229.90
2011-03-26 14:00:00 52099 14 1029.14 1029.14 1029.14 1141.8 1157.90	88.8798618869	1029.14	1141.80	Sunny(sunny)	True	False	1141.80
2011-03-26 15:00:00 52100 15 881.42 881.42 881.42 989.6 991.70	88.8798618869	881.42	989.60	Sunny(sunny)	True	False	989.60
2011-03-26 16:00:00 52101 16 584.01 584.01 584.01 735.7 684.10	85.36855904	584.01	735.70	Sunny(sunny)	True	False	735.70
2011-03-26 17:00:00 52102 17 297.94 297.94 297.94 379.9 349.00	85.36855904	297.94	379.90	Sunny(sunny)	True	False	379.90
2011-03-26 18:00:00 52103 18 86.82 86.82 86.82 75.8 101.70	85.36855904	86.82	75.80	Sunny(sunny)	True	False	75.80
2011-03-26 19:00:00 52104 19 5.04 5.04 5.04 0.9 5.90	85.36855904	5.04	0.90	Sunny(sunny)	True	False	0.90
2011-03-26 20:00:00 52105 20 0.00 0.00 0.00 0.0 0.00	85.36855904	0.00	0.00	Clear(clear)	True	False	0.00
2011-03-26 21:00:00 52106 21 0.00 0.00 0.00 0.0 0.00	85.36855904	0.00	0.00	Clear(fair)	True	False	0.00
2011-03-26 22:00:00 52107 22 0.00 0.00 0.00 0.0 0.00	85.36855904	0.00	0.00	Clear(partly_cloudy)	True	False	0.00
2011-03-26 23:00:00 52108 23 0.00 0.00 0.00 0.0 0.00	85.36855904	0.00	0.00	Clear(partly_cloudy)	True	False	0.00
2011-03-27 00:00:00 52109 0 0.00 0.00 0.00 0.0 0.00	85.36855904	0.00	0.00	Clear(fair)	True	False	0.00
2011-03-27 01:00:00 52110 1 0.00 0.00 0.00 0.0 0.00	85.36855904	0.00	0.00	Clear(partly_cloudy)	True	False	0.00
2011-03-27 02:00:00 52111 2 0.00 0.00 0.00 0.0 0.00	85.36855904	0.00	0.00	Clear(mostly_cloudy)	True	False	0.00
2011-03-27 03:00:00 52112 3 0.00 0.00 0.00 0.0 0.00	85.36855904	0.00	0.00	Clear(mostly_cloudy)	True	False	0.00
2011-03-27 04:00:00 52113 4 0.00 0.00 0.00 0.0 0.00	74.2551170222	0.00	0.00	Partly_Cloudy(partly_cloudy)	True	False	0.00
2011-03-27 05:00:00 52114 5 0.00 0.00 0.00 0.0 0.00	74.2551170222	0.00	0.00	Partly_Cloudy(partly_cloudy)	True	False	0.00
2011-03-27 06:00:00 52115 6 20.27 20.27 20.27 0.0 27.30	74.2551170222	20.27	0.00	Partly_Cloudy(mostly_cloudy)	True	False	0.00
