2011-03-01 10:00:00 24666 10 1020.96 1020.96 1020.96 1051.7 1063.70	95.9818847562	1020.96	1051.70	Sunny(fair)	True	False	1051.70
2011-03-01 11:00:00 24667 11 1103.50 1103.50 1103.50 1133.5 1149.70	95.9818847562	1103.50	1133.50	Sunny(fair)	True	False	1133.50
2011-03-01 12:00:00 24668 12 1097.65 1097.65 1097.65 1119.5 1143.60	95.9818847562	1097.65	1119.50	Sunny(fair)	True	False	1119.50
2011-03-01 13:00:00 24669 13 996.10 996.10 996.10 1001.7 1037.80	95.9818847562	996.10	1001.70	Sunny(fair)	True	False	1001.70
2011-03-01 14:00:00 24670 14 855.58 855.58 855.58 862.8 891.40	95.9818847562	855.58	862.80	Sunny(fair)	True	False	862.80
2011-03-01 15:00:00 24671 15 604.91 604.91 616.40 609.4 642.20	94.1931238691	616.40	609.40	Sunny(fair)	True	False	609.40
2011-03-01 16:00:00 24672 16 284.46 284.46 289.87 269.8 302.00	94.1931238691	289.87	269.80	Sunny(fair)	True	False	269.80
2011-03-01 17:00:00 24673 17 32.59 32.59 33.21 22.2 34.60	94.1931238691	33.21	22.20	Clear(fair)	True	False	22.20
2011-03-01 18:00:00 24674 18 4.62 4.62 4.70 0.0 4.90	94.1931238691	4.70	0.00	Clear(fair)	True	False	0.00
2011-03-01 19:00:00 24675 19 0.00 0.00 0.00 0.0 0.00	94.1931238691	0.00	0.00	Clear(fair)	True	False	0.00
2011-03-01 20:00:00 24676 20 0.00 0.00 0.00 0.0 0.00	94.1931238691	0.00	0.00	Clear(fair)	True	False	0.00
2011-03-01 21:00:00 24677 21 0.00 0.00 0.00 0.0 0.00	94.1931238691	0.00	0.00	Clear(fair)	True	False	0.00
2011-03-01 22:00:00 24678 22 0.00 0.00 0.00 0.0 0.00	94.1931238691	0.00	0.00	Clear(fair)	True	False	0.00
2011-03-01 23:00:00 24679 23 0.00 0.00 0.00 0.0 0.00	94.1931238691	0.00	0.00	Mostly_Clear(fair)	False	False	0.00
2011-03-02 00:00:00 24680 0 0.00 0.00 0.00 0.0 0.00	94.1931238691	0.00	0.00	Mostly_Clear(fair)	False	False	0.00
2011-03-02 01:00:00 24681 1 0.00 0.00 0.00 0.0 0.00	94.1931238691	0.00	0.00	Mostly_Clear(fair)	False	False	0.00
2011-03-02 02:00:00 24682 2 0.00 0.00 0.00 0.0 0.00	94.1931238691	0.00	0.00	Mostly_Clear(fair)	False	False	0.00
2011-03-02 03:00:00 24683 3 0.00 0.00 0.00 0.0 0.00	94.1931238691	0.00	0.00	Mostly_Clear(fair)	False	False	0.00
2011-03-02 04:00:00 24684 4 0.00 0.00 0.00 0.0 0.00	94.1931238691	0.00	0.00	Mostly_Clear(fair)	False	False	0.00
2011-03-02 05:00:00 24685 5 0.00 0.00 0.00 0.0 0.00	94.1931238691	0.00	0.00	Mostly_Clear(fair)	False	False	0.00
2011-03-02 06:00:00 24686 6 25.71 25.71 25.71 8.3 27.30	94.1931238691	25.71	8.30	Mostly_Sunny(fair)	False	False	8.30
2011-03-02 07:00:00 24687 7 228.14 228.14 228.14 187.1 242.20	94.1931238691	228.14	187.10	Mostly_Sunny(fair)	False	False	187.10
2011-03-02 08:00:00 24688 8 434.66 434.66 434.66 517.9 607.90	71.5022735222	434.66	517.90	Partly_Cloudy(fair)	True	False	517.90
2011-03-02 09:00:00 24689 9 646.73 646.73 646.73 813.0 886.60	72.9450856943	646.73	813.00	Partly_Cloudy(partly_cloudy)	True	False	813.00
2011-03-02 10:00:00 24690 10 775.92 775.92 775.92 978.2 1063.70	72.9450856943	775.92	978.20	Partly_Cloudy(fair)	True	False	978.20
2011-03-02 11:00:00 24691 11 838.65 838.65 838.65 1079.3 1149.70	72.9450856943	838.65	1079.30	Partly_Cloudy(fair)	True	False	1079.30
2011-03-02 12:00:00 24692 12 834.20 834.20 834.20 1098.6 1143.60	72.9450856943	834.20	1098.60	Partly_Cloudy(fair)	True	False	1098.60
2011-03-02 13:00:00 24693 13 757.02 757.02 757.02 987.9 1037.80	72.9450856943	757.02	987.90	Partly_Cloudy(fair)	True	False	987.90
2011-03-02 14:00:00 24694 14 650.23 650.23 650.23 279.6 891.40	72.9450856943	650.23	279.60	Partly_Cloudy(mostly_cloudy)	True	False	279.60
2011-03-02 15:00:00 24695 15 459.19 459.19 459.19 438.9 642.20	71.5022735222	459.19	438.90	Partly_Cloudy(fair)	True	False	438.90
2011-03-02 16:00:00 24696 16 215.94 215.94 215.94 252.5 302.00	71.5022735222	215.94	252.50	Partly_Cloudy(fair)	True	False	252.50
2011-03-02 17:00:00 24697 17 32.59 32.59 32.59 29.6 34.60	94.1931238691	32.59	29.60	Clear(mostly_cloudy)	True	False	29.60
2011-03-02 18:00:00 24698 18 4.62 4.62 4.62 0.0 4.90	94.1931238691	4.62	0.00	Clear(fair)	True	False	0.00
2011-03-02 19:00:00 24699 19 0.00 0.00 0.00 0.0 0.00	94.1931238691	0.00	0.00	Clear(fair)	True	False	0.00
2011-03-02 20:00:00 24700 20 0.00 0.00 0.00 0.0 0.00	94.1931238691	0.00	0.00	Clear(fair)	True	False	0.00
2011-03-02 21:00:00 24701 21 0.00 0.00 0.00 0.0 0.00	94.1931238691	0.00	0.00	Clear(fair)	True	False	0.00
2011-03-02 22:00:00 24702 22 0.00 0.00 0.00 0.0 0.00	94.1931238691	0.00	0.00	Clear(fair)	True	False	0.00
2011-03-02 23:00:00 24703 23 0.00 0.00 0.00 0.0 0.00	94.1931238691	0.00	0.00	Clear(fair)	True	False	0.00
2011-03-03 00:00:00 24704 0 0.00 0.00 0.00 0.0 0.00	94.1931238691	0.00	0.00	Clear(fair)	True	False	0.00
2011-03-03 01:00:00 24705 1 0.00 0.00 0.00 0.0 0.00	94.1931238691	0.00	0.00	Clear(fair)	True	False	0.00
2011-03-03 02:00:00 24706 2 0.00 0.00 0.00 0.0 0.00	94.1931238691	0.00	0.00	Clear(fair)	True	False	0.00
2011-03-03 03:00:00 24707 3 0.00 0.00 0.00 0.0 0.00	94.1931238691	0.00	0.00	Clear(fair)	True	False	0.00
2011-03-03 04:00:00 24708 4 0.00 0.00 0.00 0.0 0.00	94.1931238691	0.00	0.00	Clear(fair)	True	False	0.00
2011-03-03 05:00:00 24709 5 0.00 0.00 0.00 0.0 0.00	94.1931238691	0.00	0.00	Clear(fair)	True	False	0.00
2011-03-03 06:00:00 24710 6 25.71 25.71 25.71 9.3 27.30	94.1931238691	25.71	9.30	Sunny(fair)	True	False	9.30
2011-03-03 07:00:00 24711 7 228.14 228.14 228.14 226.7 242.20	94.1931238691	228.14	226.70	Sunny(fair)	True	False	226.70
2011-03-03 08:00:00 24712 8 572.60 572.60 572.60 605.9 607.90	94.1931238691	572.60	605.90	Sunny(fair)	True	False	605.90
2011-03-03 09:00:00 24713 9 850.98 850.98 850.98 914.7 886.60	95.9818847562	850.98	914.70	Sunny(fair)	True	False	914.70
