2011-03-23 19:00:00 50358 19 0.63 5.24 0.63 0.0 5.90	10.6988000403	0.63	0.00	Cloudy(light_rain)	True	False	0.00
2011-03-23 20:00:00 50359 20 0.00 0.00 0.00 0.0 0.00	8.25214899713	0.00	0.00	Light_Wintry_Mix(t-storm)	True	False	0.00
2011-03-23 21:00:00 50360 21 0.00 0.00 0.00 0.0 0.00	8.25214899713	0.00	0.00	Light_Rain(light_snow)	True	False	0.00
2011-03-23 22:00:00 50361 22 0.00 0.00 0.00 0.0 0.00	8.25214899713	0.00	0.00	Light_Rain(light_snow)	True	False	0.00
2011-03-23 23:00:00 50362 23 0.00 0.00 0.00 0.0 0.00	4.7619047619	0.00	0.00	Wintry_Mix(cloudy)	True	False	0.00
2011-03-24 00:00:00 50363 0 0.00 0.00 0.00 0.0 0.00	4.7619047619	0.00	0.00	Snow(light_snow)	False	False	0.00
2011-03-24 01:00:00 50364 1 0.00 0.00 0.00 0.0 0.00	4.7619047619	0.00	0.00	Rain_/_Snow(cloudy)	False	False	0.00
2011-03-24 02:00:00 50365 2 0.00 0.00 0.00 0.0 0.00	4.7619047619	0.00	0.00	Rain_/_Snow(light_snow)	False	False	0.00
2011-03-24 03:00:00 50366 3 0.00 0.00 0.00 0.0 0.00	4.7619047619	0.00	0.00	Rain_/_Snow(light_snow)	False	False	0.00
2011-03-24 04:00:00 50367 4 0.00 0.00 0.00 0.0 0.00	4.7619047619	0.00	0.00	Rain_/_Snow_Showers(cloudy)	False	False	0.00
2011-03-24 05:00:00 50368 5 0.00 0.00 0.00 0.0 0.00	4.7619047619	0.00	0.00	Rain_/_Snow_Showers(cloudy)	False	False	0.00
2011-03-24 06:00:00 50369 6 1.30 1.30 1.30 0.0 27.30	4.7619047619	1.30	0.00	Rain_/_Snow_Showers(cloudy)	False	False	0.00
2011-03-24 07:00:00 50370 7 11.35 11.35 11.35 0.1 238.40	4.7619047619	11.35	0.10	Snow_Shower(cloudy)	False	False	0.10
2011-03-24 08:00:00 50371 8 27.50 27.50 27.50 5.1 577.50	4.7619047619	27.50	5.10	Snow_Shower(cloudy)	False	False	5.10
2011-03-24 09:00:00 50372 9 40.19 40.19 40.19 13.6 844.00	4.7619047619	40.19	13.60	Snow_Shower(cloudy)	False	False	13.60
2011-03-24 10:00:00 50373 10 130.07 130.07 130.07 35.1 1012.30	12.8491620112	130.07	35.10	Cloudy(cloudy)	True	False	35.10
2011-03-24 11:00:00 50374 11 144.90 144.90 144.90 173.0 1127.70	12.8491620112	144.90	173.00	Cloudy(cloudy)	True	False	173.00
2011-03-24 12:00:00 50375 12 152.40 152.40 152.40 432.5 1186.10	12.8491620112	152.40	432.50	Cloudy(cloudy)	True	False	432.50
2011-03-24 13:00:00 50376 13 377.92 377.92 377.92 349.6 1170.30	32.2927985775	377.92	349.60	Mostly_Cloudy(cloudy)	True	False	349.60
2011-03-24 14:00:00 50377 14 373.92 373.92 373.92 350.9 1157.90	32.2927985775	373.92	350.90	Mostly_Cloudy(cloudy)	True	False	350.90
2011-03-24 15:00:00 50378 15 320.25 320.25 320.25 549.1 991.70	32.2927985775	320.25	549.10	Mostly_Cloudy(cloudy)	True	False	549.10
2011-03-24 16:00:00 50379 16 498.67 498.67 498.67 698.1 684.10	72.893982808	498.67	698.10	Partly_Cloudy(fair)	True	False	698.10
2011-03-24 17:00:00 50380 17 254.40 254.40 254.40 338.8 349.00	72.893982808	254.40	338.80	Partly_Cloudy(fair)	True	False	338.80
2011-03-24 18:00:00 50381 18 71.65 71.65 71.65 68.1 98.30	72.893982808	71.65	68.10	Partly_Cloudy(sunny)	True	False	68.10
2011-03-24 19:00:00 50382 19 5.04 5.04 5.04 0.6 5.90	85.36855904	5.04	0.60	Sunny(sunny)	True	False	0.60
2011-03-24 20:00:00 50383 20 0.00 0.00 0.00 0.0 0.00	85.36855904	0.00	0.00	Clear(clear)	True	False	0.00
2011-03-24 21:00:00 50384 21 0.00 0.00 0.00 0.0 0.00	85.36855904	0.00	0.00	Clear(clear)	True	False	0.00
2011-03-24 22:00:00 50385 22 0.00 0.00 0.00 0.0 0.00	85.36855904	0.00	0.00	Clear(clear)	True	False	0.00
2011-03-24 23:00:00 50386 23 0.00 0.00 0.00 0.0 0.00	85.36855904	0.00	0.00	Clear(clear)	True	False	0.00
2011-03-25 00:00:00 50387 0 0.00 0.00 0.00 0.0 0.00	85.36855904	0.00	0.00	Clear(clear)	True	False	0.00
2011-03-25 01:00:00 50388 1 0.00 0.00 0.00 0.0 0.00	85.36855904	0.00	0.00	Clear(clear)	True	False	0.00
2011-03-25 02:00:00 50389 2 0.00 0.00 0.00 0.0 0.00	85.36855904	0.00	0.00	Clear(fair)	True	False	0.00
2011-03-25 03:00:00 50390 3 0.00 0.00 0.00 0.0 0.00	85.36855904	0.00	0.00	Clear(clear)	True	False	0.00
2011-03-25 04:00:00 50391 4 0.00 0.00 0.00 0.0 0.00	85.36855904	0.00	0.00	Clear(clear)	True	False	0.00
2011-03-25 05:00:00 50392 5 0.00 0.00 0.00 0.0 0.00	85.36855904	0.00	0.00	Clear(clear)	True	False	0.00
2011-03-25 06:00:00 50393 6 23.31 23.31 23.31 0.0 27.30	85.36855904	23.31	0.00	Clear(clear)	True	False	0.00
2011-03-25 07:00:00 50394 7 203.52 203.52 203.52 72.9 238.40	85.36855904	203.52	72.90	Sunny(sunny)	True	False	72.90
2011-03-25 08:00:00 50395 8 493.00 493.00 493.00 368.1 577.50	85.36855904	493.00	368.10	Sunny(sunny)	True	False	368.10
2011-03-25 09:00:00 50396 9 720.51 720.51 720.51 718.8 844.00	85.36855904	720.51	718.80	Sunny(sunny)	True	False	718.80
2011-03-25 10:00:00 50397 10 898.75 898.75 898.75 973.9 1012.30	88.7824776093	898.75	973.90	Sunny(sunny)	True	False	973.90
2011-03-25 11:00:00 50398 11 1001.20 1001.20 1001.20 1125.4 1127.70	88.7824776093	1001.20	1125.40	Sunny(sunny)	True	False	1125.40
2011-03-25 12:00:00 50399 12 1053.05 1053.05 1053.05 1204.4 1186.10	88.7824776093	1053.05	1204.40	Sunny(sunny)	True	False	1204.40
2011-03-25 13:00:00 50400 13 1039.02 1039.02 1039.02 1123.8 1170.30	88.7824776093	1039.02	1123.80	Sunny(sunny)	True	False	1123.80
2011-03-25 14:00:00 50401 14 1028.01 1028.01 1028.01 974.1 1157.90	88.7824776093	1028.01	974.10	Sunny(sunny)	True	False	974.10
2011-03-25 15:00:00 50402 15 880.46 880.46 880.46 817.0 991.70	88.7824776093	880.46	817.00	Sunny(fair)	True	False	817.00
2011-03-25 16:00:00 50403 16 584.01 584.01 584.01 337.7 684.10	85.36855904	584.01	337.70	Sunny(partly_cloudy)	True	False	337.70
2011-03-25 17:00:00 50404 17 297.94 297.94 297.94 172.7 349.00	85.36855904	297.94	172.70	Sunny(partly_cloudy)	True	False	172.70
2011-03-25 18:00:00 50405 18 83.92 83.92 83.92 43.6 98.30	85.36855904	83.92	43.60	Sunny(partly_cloudy)	True	False	43.60
2011-03-25 19:00:00 50406 19 5.04 5.04 5.04 0.0 5.90	85.36855904	5.04	0.00	Sunny(mostly_cloudy)	True	False	0.00
