2011-02-15 03:00:00 8268 3 0.00 0.00 0.00 0.0 0.00	58.3279948751	0.00	0.00	Partly_Cloudy/Wind(fair)	True	False	0.00
2011-02-15 04:00:00 8269 4 0.00 0.00 0.00 0.0 0.00	58.3279948751	0.00	0.00	Mostly_Clear/Wind(fair)	False	False	0.00
2011-02-15 05:00:00 8270 5 0.00 0.00 0.00 0.0 0.00	66.0387513455	0.00	0.00	Clear/Wind(fair)	True	False	0.00
2011-02-15 06:00:00 8271 6 1.85 1.85 1.85 0.0 2.80	66.0387513455	1.85	0.00	Clear(fair)	True	False	0.00
2011-02-15 07:00:00 8272 7 129.30 129.30 129.30 119.3 195.80	66.0387513455	129.30	119.30	Sunny(fair)	True	False	119.30
2011-02-15 08:00:00 8273 8 368.10 368.10 368.10 492.5 557.40	66.0387513455	368.10	492.50	Sunny(fair)	True	False	492.50
2011-02-15 09:00:00 8274 9 533.33 533.33 533.33 815.0 807.60	66.0387513455	533.33	815.00	Sunny(fair)	True	False	815.00
2011-02-15 10:00:00 8275 10 867.70 867.70 867.70 1023.0 1054.10	82.3166682478	867.70	1023.00	Sunny(fair)	True	False	1023.00
2011-02-15 11:00:00 8276 11 938.90 938.90 938.90 1118.6 1140.60	82.3166682478	938.90	1118.60	Sunny(fair)	True	False	1118.60
2011-02-15 12:00:00 8277 12 929.52 929.52 929.52 1130.7 1129.20	82.3166682478	929.52	1130.70	Sunny(fair)	True	False	1130.70
2011-02-15 13:00:00 8278 13 850.99 850.99 850.99 1023.7 1033.80	82.3166682478	850.99	1023.70	Sunny(fair)	True	False	1023.70
2011-02-15 14:00:00 8279 14 703.56 703.56 703.56 856.0 854.70	82.3166682478	703.56	856.00	Sunny(fair)	True	False	856.00
2011-02-15 15:00:00 8280 15 513.99 513.99 513.99 574.8 624.40	82.3166682478	513.99	574.80	Sunny(fair)	True	False	574.80
2011-02-15 16:00:00 8281 16 182.20 182.20 182.20 204.7 275.90	66.0387513455	182.20	204.70	Sunny(fair)	True	False	204.70
2011-02-15 17:00:00 8282 17 19.55 19.55 19.55 5.6 29.60	66.0387513455	19.55	5.60	Sunny(fair)	True	False	5.60
2011-02-15 18:00:00 8283 18 0.00 0.00 0.00 0.0 0.00	66.0387513455	0.00	0.00	Clear(fair)	True	False	0.00
2011-02-15 19:00:00 8284 19 0.00 0.00 0.00 0.0 0.00	66.0387513455	0.00	0.00	Clear(fair)	True	False	0.00
2011-02-15 20:00:00 8285 20 0.00 0.00 0.00 0.0 0.00	66.0387513455	0.00	0.00	Clear(fair)	True	False	0.00
2011-02-15 21:00:00 8286 21 0.00 0.00 0.00 0.0 0.00	66.0387513455	0.00	0.00	Clear(fair)	True	False	0.00
2011-02-15 22:00:00 8287 22 0.00 0.00 0.00 0.0 0.00	66.0387513455	0.00	0.00	Clear(fair)	True	False	0.00
2011-02-15 23:00:00 8288 23 0.00 0.00 0.00 0.0 0.00	66.0387513455	0.00	0.00	Clear(fair)	True	False	0.00
2011-02-16 00:00:00 8289 0 0.00 0.00 0.00 0.0 0.00	66.0387513455	0.00	0.00	Clear(fair)	True	False	0.00
2011-02-16 01:00:00 8290 1 0.00 0.00 0.00 0.0 0.00	66.0387513455	0.00	0.00	Clear(fair)	True	False	0.00
2011-02-16 02:00:00 8291 2 0.00 0.00 0.00 0.0 0.00	66.0387513455	0.00	0.00	Clear(fair)	True	False	0.00
2011-02-16 03:00:00 8292 3 0.00 0.00 0.00 0.0 0.00	58.3279948751	0.00	0.00	Partly_Cloudy(fair)	True	False	0.00
2011-02-16 04:00:00 8293 4 0.00 0.00 0.00 0.0 0.00	58.3279948751	0.00	0.00	Partly_Cloudy(fair)	True	False	0.00
2011-02-16 05:00:00 8294 5 0.00 0.00 0.00 0.0 0.00	58.3279948751	0.00	0.00	Partly_Cloudy(fair)	True	False	0.00
2011-02-16 06:00:00 8295 6 1.63 1.63 1.63 0.0 2.80	58.3279948751	1.63	0.00	Partly_Cloudy(fair)	True	False	0.00
2011-02-16 07:00:00 8296 7 114.21 114.21 114.21 48.4 195.80	58.3279948751	114.21	48.40	Partly_Cloudy(fair)	True	False	48.40
2011-02-16 08:00:00 8297 8 325.12 325.12 325.12 297.8 557.40	58.3279948751	325.12	297.80	Partly_Cloudy(fair)	True	False	297.80
2011-02-16 09:00:00 8298 9 471.06 471.06 471.06 643.9 807.60	58.3279948751	471.06	643.90	Partly_Cloudy(fair)	True	False	643.90
2011-02-16 10:00:00 8299 10 763.32 763.32 763.32 927.1 1054.10	72.4140984768	763.32	927.10	Partly_Cloudy(fair)	True	False	927.10
2011-02-16 11:00:00 8300 11 825.96 825.96 825.96 1071.4 1140.60	72.4140984768	825.96	1071.40	Partly_Cloudy(fair)	True	False	1071.40
2011-02-16 12:00:00 8301 12 817.70 817.70 817.70 1038.6 1129.20	72.4140984768	817.70	1038.60	Mostly_Sunny(sunny)	False	False	1038.60
2011-02-16 13:00:00 8302 13 748.62 748.62 748.62 952.0 1033.80	72.4140984768	748.62	952.00	Mostly_Sunny(sunny)	False	False	952.00
2011-02-16 14:00:00 8303 14 618.92 618.92 618.92 783.7 854.70	72.4140984768	618.92	783.70	Mostly_Sunny(sunny)	False	False	783.70
2011-02-16 15:00:00 8304 15 513.99 513.99 513.99 521.4 624.40	82.3166682478	513.99	521.40	Sunny(sunny)	True	False	521.40
2011-02-16 16:00:00 8305 16 182.20 182.20 182.20 194.8 275.90	66.0387513455	182.20	194.80	Sunny(fair)	True	False	194.80
2011-02-16 17:00:00 8306 17 19.55 19.55 19.55 10.1 29.60	66.0387513455	19.55	10.10	Sunny(fair)	True	False	10.10
2011-02-16 18:00:00 8307 18 0.00 0.00 0.00 0.0 0.00	66.0387513455	0.00	0.00	Mostly_Clear(mostly_cloudy)	False	False	0.00
2011-02-16 19:00:00 8308 19 0.00 0.00 0.00 0.0 0.00	66.0387513455	0.00	0.00	Mostly_Clear(mostly_cloudy)	False	False	0.00
2011-02-16 20:00:00 8309 20 0.00 0.00 0.00 0.0 0.00	66.0387513455	0.00	0.00	Mostly_Clear(cloudy)	False	False	0.00
2011-02-16 21:00:00 8310 21 0.00 0.00 0.00 0.0 0.00	66.0387513455	0.00	0.00	Clear(cloudy)	True	False	0.00
2011-02-16 22:00:00 8311 22 0.00 0.00 0.00 0.0 0.00	66.0387513455	0.00	0.00	Clear(cloudy)	True	False	0.00
2011-02-16 23:00:00 8312 23 0.00 0.00 0.00 0.0 0.00	66.0387513455	0.00	0.00	Clear(cloudy)	True	False	0.00
2011-02-17 00:00:00 8313 0 0.00 0.00 0.00 0.0 0.00	58.3279948751	0.00	0.00	Partly_Cloudy(mostly_cloudy)	True	False	0.00
2011-02-17 01:00:00 8314 1 0.00 0.00 0.00 0.0 0.00	58.3279948751	0.00	0.00	Partly_Cloudy(cloudy)	True	False	0.00
2011-02-17 02:00:00 8315 2 0.00 0.00 0.00 0.0 0.00	58.3279948751	0.00	0.00	Partly_Cloudy(cloudy)	True	False	0.00
2011-02-17 03:00:00 8316 3 0.00 0.00 0.00 0.0 0.00	18.4464317026	0.00	0.00	Mostly_Cloudy(partly_cloudy)	True	False	0.00
