2011-03-13 20:00:00 38923 20 0.00 0.00 0.00 0.0 0.00	70.3313379985	0.00	0.00	Partly_Cloudy(cloudy)	True	False	0.00
2011-03-13 21:00:00 38924 21 0.00 0.00 0.00 0.0 0.00	70.3313379985	0.00	0.00	Partly_Cloudy(mostly_cloudy)	True	False	0.00
2011-03-13 22:00:00 38925 22 0.00 0.00 0.00 0.0 0.00	70.3313379985	0.00	0.00	Mostly_Clear(cloudy)	False	False	0.00
2011-03-13 23:00:00 38926 23 0.00 0.00 0.00 0.0 0.00	85.36855904	0.00	0.00	Clear(cloudy)	True	False	0.00
2011-03-14 00:00:00 38927 0 0.00 0.00 0.00 0.0 0.00	85.36855904	0.00	0.00	Clear(clear)	True	False	0.00
2011-03-14 01:00:00 38928 1 0.00 0.00 0.00 0.0 0.00	85.36855904	0.00	0.00	Clear(clear)	True	False	0.00
2011-03-14 02:00:00 38929 2 0.00 0.00 0.00 0.0 0.00	85.36855904	0.00	0.00	Clear(clear)	True	False	0.00
2011-03-14 03:00:00 38930 3 0.00 0.00 0.00 0.0 0.00	85.36855904	0.00	0.00	Clear(cloudy)	True	False	0.00
2011-03-14 04:00:00 38931 4 0.00 0.00 0.00 0.0 0.00	85.36855904	0.00	0.00	Clear(cloudy)	True	False	0.00
2011-03-14 05:00:00 38932 5 0.00 0.00 0.00 0.0 0.00	85.36855904	0.00	0.00	Clear(cloudy)	True	False	0.00
2011-03-14 06:00:00 38933 6 23.31 23.31 23.31 26.4 27.30	85.36855904	23.31	26.40	Clear(cloudy)	True	False	26.40
2011-03-14 07:00:00 38934 7 206.76 206.76 206.76 124.3 242.20	85.36855904	206.76	124.30	Mostly_Clear(cloudy)	False	False	124.30
2011-03-14 08:00:00 38935 8 518.96 518.96 518.96 79.0 607.90	85.36855904	518.96	79.00	Mostly_Sunny(mostly_cloudy)	False	False	79.00
2011-03-14 09:00:00 38936 9 756.88 756.88 756.88 285.0 886.60	85.36855904	756.88	285.00	Mostly_Sunny(cloudy)	False	False	285.00
2011-03-14 10:00:00 38937 10 785.17 785.17 785.17 428.0 1063.70	73.8146644788	785.17	428.00	Partly_Cloudy(cloudy)	True	False	428.00
2011-03-14 11:00:00 38938 11 848.65 848.65 848.65 698.8 1149.70	73.8146644788	848.65	698.80	Partly_Cloudy(Unkown)	True	False	698.80
2011-03-14 12:00:00 38939 12 875.52 875.52 875.52 207.6 1186.10	73.8146644788	875.52	207.60	Partly_Cloudy(cloudy)	True	False	207.60
2011-03-14 13:00:00 38940 13 863.85 863.85 863.85 334.4 1170.30	73.8146644788	863.85	334.40	Partly_Cloudy(cloudy)	True	False	334.40
2011-03-14 14:00:00 38941 14 854.70 854.70 854.70 313.0 1157.90	73.8146644788	854.70	313.00	Partly_Cloudy(cloudy)	True	False	313.00
2011-03-14 15:00:00 38942 15 732.02 732.02 732.02 287.8 991.70	73.8146644788	732.02	287.80	Partly_Cloudy(cloudy)	True	False	287.80
2011-03-14 16:00:00 38943 16 584.01 584.01 584.01 118.1 684.10	85.36855904	584.01	118.10	Sunny(cloudy)	True	False	118.10
2011-03-14 17:00:00 38944 17 297.94 297.94 297.94 31.6 349.00	85.36855904	297.94	31.60	Sunny(cloudy)	True	False	31.60
2011-03-14 18:00:00 38945 18 74.44 74.44 74.44 0.0 87.20	85.36855904	74.44	0.00	Sunny(cloudy)	True	False	0.00
2011-03-14 19:00:00 38946 19 0.85 0.85 0.85 0.0 1.00	85.36855904	0.85	0.00	Mostly_Sunny(partly_cloudy)	False	False	0.00
2011-03-14 20:00:00 38947 20 0.00 0.00 0.00 0.0 0.00	85.36855904	0.00	0.00	Mostly_Clear(mostly_cloudy)	False	False	0.00
2011-03-14 21:00:00 38948 21 0.00 0.00 0.00 0.0 0.00	85.36855904	0.00	0.00	Mostly_Clear(mostly_cloudy)	False	False	0.00
2011-03-14 22:00:00 38949 22 0.00 0.00 0.00 0.0 0.00	70.3313379985	0.00	0.00	Partly_Cloudy(mostly_cloudy)	True	False	0.00
2011-03-14 23:00:00 38950 23 0.00 0.00 0.00 0.0 0.00	70.3313379985	0.00	0.00	Partly_Cloudy(partly_cloudy)	True	False	0.00
2011-03-15 00:00:00 38951 0 0.00 0.00 0.00 0.0 0.00	70.3313379985	0.00	0.00	Partly_Cloudy(clear)	True	False	0.00
2011-03-15 01:00:00 38952 1 0.00 0.00 0.00 0.0 0.00	85.36855904	0.00	0.00	Clear(clear)	True	False	0.00
2011-03-15 02:00:00 38953 2 0.00 0.00 0.00 0.0 0.00	85.36855904	0.00	0.00	Clear(clear)	True	False	0.00
2011-03-15 03:00:00 38954 3 0.00 0.00 0.00 0.0 0.00	85.36855904	0.00	0.00	Clear(clear)	True	False	0.00
2011-03-15 04:00:00 38955 4 0.00 0.00 0.00 0.0 0.00	85.36855904	0.00	0.00	Clear(clear)	True	False	0.00
2011-03-15 05:00:00 38956 5 0.00 0.00 0.00 0.0 0.00	85.36855904	0.00	0.00	Clear(clear)	True	False	0.00
2011-03-15 06:00:00 38957 6 23.31 23.31 23.31 0.0 27.30	85.36855904	23.31	0.00	Clear(clear)	True	False	0.00
2011-03-15 07:00:00 38958 7 206.76 206.76 206.76 50.2 242.20	85.36855904	206.76	50.20	Clear(sunny)	True	False	50.20
2011-03-15 08:00:00 38959 8 518.96 518.96 518.96 272.5 607.90	85.36855904	518.96	272.50	Sunny(sunny)	True	False	272.50
2011-03-15 09:00:00 38960 9 756.88 756.88 756.88 628.0 886.60	85.36855904	756.88	628.00	Sunny(sunny)	True	False	628.00
2011-03-15 10:00:00 38961 10 945.18 945.18 945.18 869.3 1063.70	88.8579629469	945.18	869.30	Sunny(sunny)	True	False	869.30
2011-03-15 11:00:00 38962 11 1021.60 1021.60 1021.60 1055.6 1149.70	88.8579629469	1021.60	1055.60	Sunny(sunny)	True	False	1055.60
2011-03-15 12:00:00 38963 12 1053.94 1053.94 1053.94 878.0 1186.10	88.8579629469	1053.94	878.00	Sunny(fair)	True	False	878.00
2011-03-15 13:00:00 38964 13 1039.90 1039.90 1039.90 1092.1 1170.30	88.8579629469	1039.90	1092.10	Sunny(sunny)	True	False	1092.10
2011-03-15 14:00:00 38965 14 1028.89 1028.89 1028.89 706.0 1157.90	88.8579629469	1028.89	706.00	Sunny(sunny)	True	False	706.00
2011-03-15 15:00:00 38966 15 881.20 881.20 881.20 423.7 991.70	88.8579629469	881.20	423.70	Sunny(sunny)	True	False	423.70
2011-03-15 16:00:00 38967 16 607.88 607.88 607.88 312.8 684.10	88.8579629469	607.88	312.80	Mostly_Sunny(partly_cloudy)	False	False	312.80
2011-03-15 17:00:00 38968 17 310.11 310.11 310.11 170.0 349.00	88.8579629469	310.11	170.00	Mostly_Sunny(mostly_cloudy)	False	False	170.00
2011-03-15 18:00:00 38969 18 77.48 77.48 77.48 33.1 87.20	88.8579629469	77.48	33.10	Mostly_Sunny(partly_cloudy)	False	False	33.10
2011-03-15 19:00:00 38970 19 0.70 0.70 0.70 0.0 1.00	70.3313379985	0.70	0.00	Partly_Cloudy(partly_cloudy)	True	False	0.00
