2011-03-24 20:00:00 51579 20 0.00 0.00 0.00 0.0 0.00	84.2591672463	0.00	0.00	Clear(clear)	True	False	0.00
2011-03-24 21:00:00 51580 21 0.00 0.00 0.00 0.0 0.00	84.2591672463	0.00	0.00	Clear(clear)	True	False	0.00
2011-03-24 22:00:00 51581 22 0.00 0.00 0.00 0.0 0.00	84.2591672463	0.00	0.00	Clear(clear)	True	False	0.00
2011-03-24 23:00:00 51582 23 0.00 0.00 0.00 0.0 0.00	84.2591672463	0.00	0.00	Clear(clear)	True	False	0.00
2011-03-25 00:00:00 51583 0 0.00 0.00 0.00 0.0 0.00	84.2591672463	0.00	0.00	Clear(clear)	True	False	0.00
2011-03-25 01:00:00 51584 1 0.00 0.00 0.00 0.0 0.00	84.2591672463	0.00	0.00	Clear(clear)	True	False	0.00
2011-03-25 02:00:00 51585 2 0.00 0.00 0.00 0.0 0.00	84.2591672463	0.00	0.00	Clear(fair)	True	False	0.00
2011-03-25 03:00:00 51586 3 0.00 0.00 0.00 0.0 0.00	84.2591672463	0.00	0.00	Clear(clear)	True	False	0.00
2011-03-25 04:00:00 51587 4 0.00 0.00 0.00 0.0 0.00	84.2591672463	0.00	0.00	Clear(clear)	True	False	0.00
2011-03-25 05:00:00 51588 5 0.00 0.00 0.00 0.0 0.00	84.2591672463	0.00	0.00	Clear(clear)	True	False	0.00
2011-03-25 06:00:00 51589 6 23.00 23.00 23.00 0.0 27.30	84.2591672463	23.00	0.00	Clear(clear)	True	False	0.00
2011-03-25 07:00:00 51590 7 200.87 200.87 200.87 72.9 238.40	84.2591672463	200.87	72.90	Sunny(sunny)	True	False	72.90
2011-03-25 08:00:00 51591 8 486.60 486.60 486.60 368.1 577.50	84.2591672463	486.60	368.10	Sunny(sunny)	True	False	368.10
2011-03-25 09:00:00 51592 9 709.63 709.63 709.63 718.8 842.20	84.2591672463	709.63	718.80	Sunny(sunny)	True	False	718.80
2011-03-25 10:00:00 51593 10 894.20 894.20 894.20 973.9 1006.30	88.8601808606	894.20	973.90	Sunny(sunny)	True	False	973.90
2011-03-25 11:00:00 51594 11 1002.08 1002.08 1002.08 1125.4 1127.70	88.8601808606	1002.08	1125.40	Sunny(sunny)	True	False	1125.40
2011-03-25 12:00:00 51595 12 1053.97 1053.97 1053.97 1204.4 1186.10	88.8601808606	1053.97	1204.40	Sunny(sunny)	True	False	1204.40
2011-03-25 13:00:00 51596 13 1039.93 1039.93 1039.93 1123.8 1170.30	88.8601808606	1039.93	1123.80	Sunny(sunny)	True	False	1123.80
2011-03-25 14:00:00 51597 14 1028.91 1028.91 1028.91 974.1 1157.90	88.8601808606	1028.91	974.10	Sunny(sunny)	True	False	974.10
2011-03-25 15:00:00 51598 15 881.23 881.23 881.23 817.0 991.70	88.8601808606	881.23	817.00	Sunny(fair)	True	False	817.00
2011-03-25 16:00:00 51599 16 498.67 498.67 498.67 337.7 684.10	72.893982808	498.67	337.70	Partly_Cloudy(partly_cloudy)	True	False	337.70
2011-03-25 17:00:00 51600 17 254.40 254.40 254.40 172.7 349.00	72.893982808	254.40	172.70	Partly_Cloudy(partly_cloudy)	True	False	172.70
2011-03-25 18:00:00 51601 18 71.65 71.65 71.65 43.6 98.30	72.893982808	71.65	43.60	Partly_Cloudy(partly_cloudy)	True	False	43.60
2011-03-25 19:00:00 51602 19 4.30 4.30 4.30 0.0 5.90	72.893982808	4.30	0.00	Partly_Cloudy(mostly_cloudy)	True	False	0.00
2011-03-25 20:00:00 51603 20 0.00 0.00 0.00 0.0 0.00	72.893982808	0.00	0.00	Partly_Cloudy(mostly_cloudy)	True	False	0.00
2011-03-25 21:00:00 51604 21 0.00 0.00 0.00 0.0 0.00	72.893982808	0.00	0.00	Partly_Cloudy(partly_cloudy)	True	False	0.00
2011-03-25 22:00:00 51605 22 0.00 0.00 0.00 0.0 0.00	29.4199134199	0.00	0.00	Mostly_Cloudy(clear)	True	False	0.00
2011-03-25 23:00:00 51606 23 0.00 0.00 0.00 0.0 0.00	29.4199134199	0.00	0.00	Mostly_Cloudy(clear)	True	False	0.00
2011-03-26 00:00:00 51607 0 0.00 0.00 0.00 0.0 0.00	29.4199134199	0.00	0.00	Mostly_Cloudy(clear)	True	False	0.00
2011-03-26 01:00:00 51608 1 0.00 0.00 0.00 0.0 0.00	72.893982808	0.00	0.00	Partly_Cloudy(clear)	True	False	0.00
2011-03-26 02:00:00 51609 2 0.00 0.00 0.00 0.0 0.00	72.893982808	0.00	0.00	Partly_Cloudy(clear)	True	False	0.00
2011-03-26 03:00:00 51610 3 0.00 0.00 0.00 0.0 0.00	72.893982808	0.00	0.00	Partly_Cloudy(clear)	True	False	0.00
2011-03-26 04:00:00 51611 4 0.00 0.00 0.00 0.0 0.00	84.2591672463	0.00	0.00	Clear(clear)	True	False	0.00
2011-03-26 05:00:00 51612 5 0.00 0.00 0.00 0.0 0.00	84.2591672463	0.00	0.00	Clear(clear)	True	False	0.00
2011-03-26 06:00:00 51613 6 23.00 23.00 23.00 0.0 27.30	84.2591672463	23.00	0.00	Clear(clear)	True	False	0.00
2011-03-26 07:00:00 51614 7 200.87 200.87 200.87 75.2 238.40	84.2591672463	200.87	75.20	Sunny(sunny)	True	False	75.20
2011-03-26 08:00:00 51615 8 486.60 486.60 486.60 376.9 577.50	84.2591672463	486.60	376.90	Sunny(sunny)	True	False	376.90
2011-03-26 09:00:00 51616 9 709.63 709.63 709.63 733.6 842.20	84.2591672463	709.63	733.60	Sunny(sunny)	True	False	733.60
2011-03-26 10:00:00 51617 10 894.20 894.20 894.20 1001.8 1006.30	88.8601808606	894.20	1001.80	Sunny(sunny)	True	False	1001.80
2011-03-26 11:00:00 51618 11 1002.08 1002.08 1002.08 1159.1 1127.70	88.8601808606	1002.08	1159.10	Sunny(sunny)	True	False	1159.10
2011-03-26 12:00:00 51619 12 1053.97 1053.97 1053.97 1241.1 1186.10	88.8601808606	1053.97	1241.10	Sunny(sunny)	True	False	1241.10
2011-03-26 13:00:00 51620 13 1039.93 1039.93 1039.93 1229.9 1170.30	88.8601808606	1039.93	1229.90	Sunny(sunny)	True	False	1229.90
2011-03-26 14:00:00 51621 14 1028.91 1028.91 1028.91 1141.8 1157.90	88.8601808606	1028.91	1141.80	Sunny(sunny)	True	False	1141.80
2011-03-26 15:00:00 51622 15 881.23 881.23 881.23 989.6 991.70	88.8601808606	881.23	989.60	Sunny(sunny)	True	False	989.60
2011-03-26 16:00:00 51623 16 576.42 576.42 576.42 735.7 684.10	84.2591672463	576.42	735.70	Sunny(sunny)	True	False	735.70
2011-03-26 17:00:00 51624 17 294.06 294.06 294.06 379.9 349.00	84.2591672463	294.06	379.90	Sunny(sunny)	True	False	379.90
2011-03-26 18:00:00 51625 18 82.83 82.83 82.83 75.8 98.30	84.2591672463	82.83	75.80	Sunny(sunny)	True	False	75.80
2011-03-26 19:00:00 51626 19 4.97 4.97 4.97 0.9 5.90	84.2591672463	4.97	0.90	Sunny(sunny)	True	False	0.90
