2011-03-02 14:00:00 26015 14 759.26 759.26 957.91 279.6 1063.50	71.3923098618	957.91	279.60	Partly_Cloudy(mostly_cloudy)	True	False	279.60
2011-03-02 15:00:00 26016 15 239.53 239.53 239.53 438.9 911.10	71.3923098618	239.53	438.90	Partly_Cloudy(fair)	True	False	438.90
2011-03-02 16:00:00 26017 16 471.54 174.41 174.41 252.5 663.40	71.0796244784	174.41	252.50	Partly_Cloudy(fair)	True	False	252.50
2011-03-02 17:00:00 26018 17 233.85 86.50 86.50 29.6 329.00	71.0796244784	86.50	29.60	Partly_Cloudy(mostly_cloudy)	True	False	29.60
2011-03-02 18:00:00 26019 18 34.19 12.65 12.65 0.0 48.10	71.0796244784	12.65	0.00	Partly_Cloudy(fair)	True	False	0.00
2011-03-02 19:00:00 26020 19 0.00 0.00 0.00 0.0 0.00	71.0796244784	0.00	0.00	Partly_Cloudy(fair)	True	False	0.00
2011-03-02 20:00:00 26021 20 0.00 0.00 0.00 0.0 0.00	80.9590973202	0.00	0.00	Clear(fair)	True	False	0.00
2011-03-02 21:00:00 26022 21 0.00 0.00 0.00 0.0 0.00	80.9590973202	0.00	0.00	Clear(fair)	True	False	0.00
2011-03-02 22:00:00 26023 22 0.00 0.00 0.00 0.0 0.00	80.9590973202	0.00	0.00	Clear(fair)	True	False	0.00
2011-03-02 23:00:00 26024 23 0.00 0.00 0.00 0.0 0.00	80.9590973202	0.00	0.00	Clear(fair)	True	False	0.00
2011-03-03 00:00:00 26025 0 0.00 0.00 0.00 0.0 0.00	80.9590973202	0.00	0.00	Clear(fair)	True	False	0.00
2011-03-03 01:00:00 26026 1 0.00 0.00 0.00 0.0 0.00	80.9590973202	0.00	0.00	Clear(fair)	True	False	0.00
2011-03-03 02:00:00 26027 2 0.00 0.00 0.00 0.0 0.00	80.9590973202	0.00	0.00	Clear(fair)	True	False	0.00
2011-03-03 03:00:00 26028 3 0.00 0.00 0.00 0.0 0.00	80.9590973202	0.00	0.00	Clear(fair)	True	False	0.00
2011-03-03 04:00:00 26029 4 0.00 0.00 0.00 0.0 0.00	80.9590973202	0.00	0.00	Clear(fair)	True	False	0.00
2011-03-03 05:00:00 26030 5 0.00 0.00 0.00 0.0 0.00	80.9590973202	0.00	0.00	Clear(fair)	True	False	0.00
2011-03-03 06:00:00 26031 6 22.10 22.10 22.10 9.3 27.30	80.9590973202	22.10	9.30	Clear(fair)	True	False	9.30
2011-03-03 07:00:00 26032 7 196.08 196.08 196.08 226.7 242.20	80.9590973202	196.08	226.70	Sunny(fair)	True	False	226.70
2011-03-03 08:00:00 26033 8 492.15 492.15 492.15 605.9 607.90	80.9590973202	492.15	605.90	Sunny(fair)	True	False	605.90
2011-03-03 09:00:00 26034 9 717.78 717.78 717.78 914.7 886.60	80.9590973202	717.78	914.70	Sunny(fair)	True	False	914.70
2011-03-03 10:00:00 26035 10 958.09 958.09 958.09 1099.4 1063.70	90.0711682	958.09	1099.40	Sunny(fair)	True	False	1099.40
2011-03-03 11:00:00 26036 11 1035.55 1035.55 1035.55 1183.5 1149.70	90.0711682	1035.55	1183.50	Sunny(fair)	True	False	1183.50
2011-03-03 12:00:00 26037 12 1036.18 1036.18 1036.18 1174.4 1150.40	90.0711682	1036.18	1174.40	Sunny(fair)	True	False	1174.40
2011-03-03 13:00:00 26038 13 1037.80 1037.80 1037.80 1068.6 1152.20	90.0711682	1037.80	1068.60	Sunny(fair)	True	False	1068.60
2011-03-03 14:00:00 26039 14 957.91 957.91 957.91 904.4 1063.50	90.0711682	957.91	904.40	Sunny(fair)	True	False	904.40
2011-03-03 15:00:00 26040 15 820.64 820.64 820.64 640.6 911.10	90.0711682	820.64	640.60	Sunny(fair)	True	False	640.60
2011-03-03 16:00:00 26041 16 537.08 537.08 537.08 274.8 663.40	80.9590973202	537.08	274.80	Sunny(fair)	True	False	274.80
2011-03-03 17:00:00 26042 17 266.36 266.36 266.36 31.2 329.00	80.9590973202	266.36	31.20	Sunny(fair)	True	False	31.20
2011-03-03 18:00:00 26043 18 38.94 38.94 38.94 0.0 48.10	80.9590973202	38.94	0.00	Clear(fair)	True	False	0.00
2011-03-03 19:00:00 26044 19 0.00 0.00 0.00 0.0 0.00	80.9590973202	0.00	0.00	Clear(fair)	True	False	0.00
2011-03-03 20:00:00 26045 20 0.00 0.00 0.00 0.0 0.00	80.9590973202	0.00	0.00	Clear(fair)	True	False	0.00
2011-03-03 21:00:00 26046 21 0.00 0.00 0.00 0.0 0.00	80.9590973202	0.00	0.00	Mostly_Clear(fair)	False	False	0.00
2011-03-03 22:00:00 26047 22 0.00 0.00 0.00 0.0 0.00	80.9590973202	0.00	0.00	Mostly_Clear(fair)	False	False	0.00
2011-03-03 23:00:00 26048 23 0.00 0.00 0.00 0.0 0.00	80.9590973202	0.00	0.00	Mostly_Clear(fair)	False	False	0.00
2011-03-04 00:00:00 26049 0 0.00 0.00 0.00 0.0 0.00	71.0796244784	0.00	0.00	Partly_Cloudy(fair)	True	False	0.00
2011-03-04 01:00:00 26050 1 0.00 0.00 0.00 0.0 0.00	71.0796244784	0.00	0.00	Partly_Cloudy(fair)	True	False	0.00
2011-03-04 02:00:00 26051 2 0.00 0.00 0.00 0.0 0.00	71.0796244784	0.00	0.00	Partly_Cloudy(fair)	True	False	0.00
2011-03-04 03:00:00 26052 3 0.00 0.00 0.00 0.0 0.00	71.0796244784	0.00	0.00	Partly_Cloudy(fair)	True	False	0.00
2011-03-04 04:00:00 26053 4 0.00 0.00 0.00 0.0 0.00	71.0796244784	0.00	0.00	Partly_Cloudy(fair)	True	False	0.00
2011-03-04 05:00:00 26054 5 0.00 0.00 0.00 0.0 0.00	71.0796244784	0.00	0.00	Partly_Cloudy(fair)	True	False	0.00
2011-03-04 06:00:00 26055 6 5.20 5.20 5.20 8.8 27.30	19.0409026798	5.20	8.80	Mostly_Cloudy(fair)	True	False	8.80
2011-03-04 07:00:00 26056 7 46.12 46.12 46.12 160.0 242.20	19.0409026798	46.12	160.00	Mostly_Cloudy(fair)	True	False	160.00
2011-03-04 08:00:00 26057 8 115.75 115.75 115.75 410.0 607.90	19.0409026798	115.75	410.00	Mostly_Cloudy(fair)	True	False	410.00
2011-03-04 09:00:00 26058 9 168.82 168.82 168.82 748.1 886.60	19.0409026798	168.82	748.10	Mostly_Cloudy(fair)	True	False	748.10
2011-03-04 10:00:00 26059 10 545.88 545.88 545.88 1019.2 1063.70	51.319215414	545.88	1019.20	Mostly_Cloudy(fair)	True	False	1019.20
2011-03-04 11:00:00 26060 11 590.02 590.02 590.02 964.7 1149.70	51.319215414	590.02	964.70	Mostly_Cloudy(fair)	True	False	964.70
2011-03-04 12:00:00 26061 12 590.38 590.38 590.38 1068.1 1150.40	51.319215414	590.38	1068.10	Mostly_Cloudy(fair)	True	False	1068.10
2011-03-04 13:00:00 26062 13 591.30 591.30 591.30 999.6 1152.20	51.319215414	591.30	999.60	Mostly_Cloudy(fair)	True	False	999.60
