2011-03-21 03:00:00 47297 3 0.00 0.00 0.00 0.0 0.00	4.52377035697	0.00	0.00	Showers(cloudy)	True	False	0.00
2011-03-21 04:00:00 47298 4 0.00 0.00 0.00 0.0 0.00	8.25214899713	0.00	0.00	Light_Rain(cloudy)	True	False	0.00
2011-03-21 05:00:00 47299 5 0.00 0.00 0.00 0.0 0.00	8.25214899713	0.00	0.00	Light_Rain(light_rain)	True	False	0.00
2011-03-21 06:00:00 47300 6 2.25 2.25 2.25 0.0 27.30	8.25214899713	2.25	0.00	Light_Rain(light_snow)	True	False	0.00
2011-03-21 07:00:00 47301 7 19.99 19.99 19.99 0.0 242.20	8.25214899713	19.99	0.00	Light_Rain(light_rain)	True	False	0.00
2011-03-21 08:00:00 47302 8 50.16 50.16 50.16 4.8 607.90	8.25214899713	50.16	4.80	Light_Rain(light_snow)	True	False	4.80
2011-03-21 09:00:00 47303 9 73.16 73.16 73.16 18.8 886.60	8.25214899713	73.16	18.80	Light_Rain(light_rain)	True	False	18.80
2011-03-21 10:00:00 47304 10 93.44 93.44 93.44 37.4 1063.70	8.78407246005	93.44	37.40	Light_Rain(light_rain)	True	False	37.40
2011-03-21 11:00:00 47305 11 100.99 100.99 100.99 56.0 1149.70	8.78407246005	100.99	56.00	Light_Rain(cloudy)	True	False	56.00
2011-03-21 12:00:00 47306 12 104.19 104.19 104.19 101.1 1186.10	8.78407246005	104.19	101.10	Light_Rain(light_rain)	True	False	101.10
2011-03-21 13:00:00 47307 13 48.05 48.05 48.05 143.1 1170.30	4.10541880491	48.05	143.10	Showers(fog)	True	False	143.10
2011-03-21 14:00:00 47308 14 47.54 47.54 47.54 156.2 1157.90	4.10541880491	47.54	156.20	Showers(fog)	True	False	156.20
2011-03-21 15:00:00 47309 15 40.71 40.71 40.71 94.5 991.70	4.10541880491	40.71	94.50	Showers(cloudy)	True	False	94.50
2011-03-21 16:00:00 47310 16 73.19 73.19 73.19 107.7 684.10	10.6988000403	73.19	107.70	Cloudy(fog)	True	False	107.70
2011-03-21 17:00:00 47311 17 37.34 37.34 37.34 37.7 349.00	10.6988000403	37.34	37.70	Cloudy(fog)	True	False	37.70
2011-03-21 18:00:00 47312 18 10.52 10.52 10.52 1.1 98.30	10.6988000403	10.52	1.10	Cloudy(fog)	True	False	1.10
2011-03-21 19:00:00 47313 19 0.22 0.22 0.22 0.0 2.10	10.6988000403	0.22	0.00	Cloudy(cloudy)	True	False	0.00
2011-03-21 20:00:00 47314 20 0.00 0.00 0.00 0.0 0.00	10.6988000403	0.00	0.00	Cloudy(cloudy)	True	False	0.00
2011-03-21 21:00:00 47315 21 0.00 0.00 0.00 0.0 0.00	10.6988000403	0.00	0.00	Cloudy(cloudy)	True	False	0.00
2011-03-21 22:00:00 47316 22 0.00 0.00 0.00 0.0 0.00	30.7323493466	0.00	0.00	Mostly_Cloudy(cloudy)	True	False	0.00
2011-03-21 23:00:00 47317 23 0.00 0.00 0.00 0.0 0.00	30.7323493466	0.00	0.00	Mostly_Cloudy(fog)	True	False	0.00
2011-03-22 00:00:00 47318 0 0.00 0.00 0.00 0.0 0.00	30.7323493466	0.00	0.00	Mostly_Cloudy(fog)	True	False	0.00
2011-03-22 01:00:00 47319 1 0.00 0.00 0.00 0.0 0.00	30.7323493466	0.00	0.00	Mostly_Cloudy(fog)	True	False	0.00
2011-03-22 02:00:00 47320 2 0.00 0.00 0.00 0.0 0.00	30.7323493466	0.00	0.00	Mostly_Cloudy(fog)	True	False	0.00
2011-03-22 03:00:00 47321 3 0.00 0.00 0.00 0.0 0.00	30.7323493466	0.00	0.00	Mostly_Cloudy(fog)	True	False	0.00
2011-03-22 04:00:00 47322 4 0.00 0.00 0.00 0.0 0.00	69.0666891493	0.00	0.00	Partly_Cloudy(cloudy)	True	False	0.00
2011-03-22 05:00:00 47323 5 0.00 0.00 0.00 0.0 0.00	69.0666891493	0.00	0.00	Partly_Cloudy(cloudy)	True	False	0.00
2011-03-22 06:00:00 47324 6 18.86 18.86 18.86 0.0 27.30	69.0666891493	18.86	0.00	Partly_Cloudy(cloudy)	True	False	0.00
2011-03-22 07:00:00 47325 7 167.28 167.28 167.28 15.9 242.20	69.0666891493	167.28	15.90	Mostly_Sunny(cloudy)	False	False	15.90
2011-03-22 08:00:00 47326 8 419.86 419.86 419.86 69.3 607.90	69.0666891493	419.86	69.30	Mostly_Sunny(cloudy)	False	False	69.30
2011-03-22 09:00:00 47327 9 612.35 612.35 612.35 341.7 886.60	69.0666891493	612.35	341.70	Mostly_Sunny(cloudy)	False	False	341.70
2011-03-22 10:00:00 47328 10 943.27 943.27 943.27 813.5 1063.70	88.6781167222	943.27	813.50	Sunny(cloudy)	True	False	813.50
2011-03-22 11:00:00 47329 11 1019.53 1019.53 1019.53 627.9 1149.70	88.6781167222	1019.53	627.90	Sunny(cloudy)	True	False	627.90
2011-03-22 12:00:00 47330 12 1051.81 1051.81 1051.81 966.9 1186.10	88.6781167222	1051.81	966.90	Sunny(cloudy)	True	False	966.90
2011-03-22 13:00:00 47331 13 1037.80 1037.80 1037.80 1173.6 1170.30	88.6781167222	1037.80	1173.60	Sunny(mostly_cloudy)	True	False	1173.60
2011-03-22 14:00:00 47332 14 1026.80 1026.80 1026.80 1005.2 1157.90	88.6781167222	1026.80	1005.20	Sunny(mostly_cloudy)	True	False	1005.20
2011-03-22 15:00:00 47333 15 879.42 879.42 879.42 845.9 991.70	88.6781167222	879.42	845.90	Sunny(mostly_cloudy)	True	False	845.90
2011-03-22 16:00:00 47334 16 472.49 472.49 472.49 652.0 684.10	69.0666891493	472.49	652.00	Partly_Cloudy(mostly_cloudy)	True	False	652.00
2011-03-22 17:00:00 47335 17 241.04 241.04 241.04 310.0 349.00	69.0666891493	241.04	310.00	Partly_Cloudy(sunny)	True	False	310.00
2011-03-22 18:00:00 47336 18 67.89 67.89 67.89 53.0 98.30	69.0666891493	67.89	53.00	Partly_Cloudy(fair)	True	False	53.00
2011-03-22 19:00:00 47337 19 0.65 0.65 0.65 0.0 2.10	30.7323493466	0.65	0.00	Mostly_Cloudy(partly_cloudy)	True	False	0.00
2011-03-22 20:00:00 47338 20 0.00 0.00 0.00 0.0 0.00	30.7323493466	0.00	0.00	Mostly_Cloudy(partly_cloudy)	True	False	0.00
2011-03-22 21:00:00 47339 21 0.00 0.00 0.00 0.0 0.00	30.7323493466	0.00	0.00	Mostly_Cloudy(partly_cloudy)	True	False	0.00
2011-03-22 22:00:00 47340 22 0.00 0.00 0.00 0.0 0.00	10.6988000403	0.00	0.00	Cloudy(mostly_cloudy)	True	False	0.00
2011-03-22 23:00:00 47341 23 0.00 0.00 0.00 0.0 0.00	10.6988000403	0.00	0.00	Cloudy(cloudy)	True	False	0.00
2011-03-23 00:00:00 47342 0 0.00 0.00 0.00 0.0 0.00	10.6988000403	0.00	0.00	Cloudy(cloudy)	True	False	0.00
2011-03-23 01:00:00 47343 1 0.00 0.00 0.00 0.0 0.00	10.6988000403	0.00	0.00	Cloudy(cloudy)	True	False	0.00
2011-03-23 02:00:00 47344 2 0.00 0.00 0.00 0.0 0.00	10.6988000403	0.00	0.00	Cloudy(light_rain)	True	False	0.00
2011-03-23 03:00:00 47345 3 0.00 0.00 0.00 0.0 0.00	10.6988000403	0.00	0.00	Cloudy(light_snow)	True	False	0.00
