2011-03-12 11:00:00 37348 11 848.65 848.65 1017.80 948.1 1149.70	73.8146644788	1017.80	948.10	Partly_Cloudy(sunny)	True	False	948.10
2011-03-12 12:00:00 37349 12 869.46 869.46 971.36 496.9 1177.90	73.8146644788	971.36	496.90	Partly_Cloudy(sunny)	True	False	496.90
2011-03-12 13:00:00 37350 13 863.85 863.85 965.09 517.8 1170.30	73.8146644788	965.09	517.80	Partly_Cloudy(partly_cloudy)	True	False	517.80
2011-03-12 14:00:00 37351 14 854.70 854.70 954.86 696.9 1157.90	73.8146644788	954.86	696.90	Partly_Cloudy(mostly_cloudy)	True	False	696.90
2011-03-12 15:00:00 37352 15 732.02 732.02 817.81 487.9 991.70	73.8146644788	817.81	487.90	Partly_Cloudy(partly_cloudy)	True	False	487.90
2011-03-12 16:00:00 37353 16 498.67 498.67 564.14 292.2 684.10	72.893982808	564.14	292.20	Partly_Cloudy(partly_cloudy)	True	False	292.20
2011-03-12 17:00:00 37354 17 254.40 254.40 287.80 40.1 349.00	72.893982808	287.80	40.10	Partly_Cloudy(sunny)	True	False	40.10
2011-03-12 18:00:00 37355 18 49.06 49.06 55.50 0.0 67.30	72.893982808	55.50	0.00	Partly_Cloudy(clear)	True	False	0.00
2011-03-12 19:00:00 37356 19 0.73 0.73 0.82 0.0 1.00	72.893982808	0.82	0.00	Partly_Cloudy(clear)	True	False	0.00
2011-03-12 20:00:00 37357 20 0.00 0.00 0.00 0.0 0.00	72.893982808	0.00	0.00	Partly_Cloudy(clear)	True	False	0.00
2011-03-12 21:00:00 37358 21 0.00 0.00 0.00 0.0 0.00	72.893982808	0.00	0.00	Partly_Cloudy(clear)	True	False	0.00
2011-03-12 22:00:00 37359 22 0.00 0.00 0.00 0.0 0.00	72.893982808	0.00	0.00	Partly_Cloudy(mostly_cloudy)	True	False	0.00
2011-03-12 23:00:00 37360 23 0.00 0.00 0.00 0.0 0.00	72.893982808	0.00	0.00	Partly_Cloudy(partly_cloudy)	True	False	0.00
2011-03-13 00:00:00 37361 0 0.00 0.00 0.00 0.0 0.00	72.893982808	0.00	0.00	Partly_Cloudy(rain_shower)	True	False	0.00
2011-03-13 01:00:00 37362 1 0.00 0.00 0.00 0.0 0.00	72.893982808	0.00	0.00	Partly_Cloudy(clear)	True	False	0.00
2011-03-13 02:00:00 37363 2 0.00 0.00 0.00 0.0 0.00	72.893982808	0.00	0.00	Partly_Cloudy(Unkown)	True	False	0.00
2011-03-13 03:00:00 37364 3 0.00 0.00 0.00 0.0 0.00	72.893982808	0.00	0.00	Mostly_Clear(clear)	False	False	0.00
2011-03-13 04:00:00 37365 4 0.00 0.00 0.00 0.0 0.00	72.893982808	0.00	0.00	Mostly_Clear(partly_cloudy)	False	False	0.00
2011-03-13 05:00:00 37366 5 0.00 0.00 0.00 0.0 0.00	72.893982808	0.00	0.00	Mostly_Clear(clear)	False	False	0.00
2011-03-13 06:00:00 37367 6 19.90 19.90 19.90 0.0 27.30	72.893982808	19.90	0.00	Mostly_Clear(partly_cloudy)	False	False	0.00
2011-03-13 07:00:00 37368 7 176.55 176.55 176.55 11.6 242.20	72.893982808	176.55	11.60	Mostly_Sunny(cloudy)	False	False	11.60
2011-03-13 08:00:00 37369 8 443.12 443.12 443.12 94.6 607.90	72.893982808	443.12	94.60	Mostly_Sunny(cloudy)	False	False	94.60
2011-03-13 09:00:00 37370 9 646.28 646.28 646.28 119.7 886.60	72.893982808	646.28	119.70	Mostly_Sunny(cloudy)	False	False	119.70
2011-03-13 10:00:00 37371 10 775.37 775.37 775.37 237.9 1063.70	72.893982808	775.37	237.90	Mostly_Sunny(cloudy)	False	False	237.90
2011-03-13 11:00:00 37372 11 838.06 838.06 838.06 583.6 1149.70	72.893982808	838.06	583.60	Mostly_Sunny(mostly_cloudy)	False	False	583.60
2011-03-13 12:00:00 37373 12 858.62 858.62 858.62 513.1 1177.90	72.893982808	858.62	513.10	Mostly_Sunny(cloudy)	False	False	513.10
2011-03-13 13:00:00 37374 13 853.08 853.08 853.08 568.4 1170.30	72.893982808	853.08	568.40	Mostly_Sunny(cloudy)	False	False	568.40
2011-03-13 14:00:00 37375 14 844.04 844.04 844.04 436.3 1157.90	72.893982808	844.04	436.30	Mostly_Sunny(cloudy)	False	False	436.30
2011-03-13 15:00:00 37376 15 853.41 853.41 853.41 346.6 991.70	86.0548577288	853.41	346.60	Sunny(cloudy)	True	False	346.60
2011-03-13 16:00:00 37377 16 588.70 588.70 588.70 148.4 684.10	86.0548577288	588.70	148.40	Sunny(cloudy)	True	False	148.40
2011-03-13 17:00:00 37378 17 300.33 300.33 300.33 112.3 349.00	86.0548577288	300.33	112.30	Sunny(cloudy)	True	False	112.30
2011-03-13 18:00:00 37379 18 57.91 57.91 57.91 30.7 67.30	86.0548577288	57.91	30.70	Sunny(cloudy)	True	False	30.70
2011-03-13 19:00:00 37380 19 0.86 0.86 0.86 0.0 1.00	86.0548577288	0.86	0.00	Clear(cloudy)	True	False	0.00
2011-03-13 20:00:00 37381 20 0.00 0.00 0.00 0.0 0.00	86.0548577288	0.00	0.00	Clear(cloudy)	True	False	0.00
2011-03-13 21:00:00 37382 21 0.00 0.00 0.00 0.0 0.00	72.893982808	0.00	0.00	Partly_Cloudy(mostly_cloudy)	True	False	0.00
2011-03-13 22:00:00 37383 22 0.00 0.00 0.00 0.0 0.00	72.893982808	0.00	0.00	Partly_Cloudy(cloudy)	True	False	0.00
2011-03-13 23:00:00 37384 23 0.00 0.00 0.00 0.0 0.00	72.893982808	0.00	0.00	Partly_Cloudy(cloudy)	True	False	0.00
2011-03-14 00:00:00 37385 0 0.00 0.00 0.00 0.0 0.00	86.0548577288	0.00	0.00	Clear(clear)	True	False	0.00
2011-03-14 01:00:00 37386 1 0.00 0.00 0.00 0.0 0.00	86.0548577288	0.00	0.00	Clear(clear)	True	False	0.00
2011-03-14 02:00:00 37387 2 0.00 0.00 0.00 0.0 0.00	86.0548577288	0.00	0.00	Clear(clear)	True	False	0.00
2011-03-14 03:00:00 37388 3 0.00 0.00 0.00 0.0 0.00	86.0548577288	0.00	0.00	Clear(cloudy)	True	False	0.00
2011-03-14 04:00:00 37389 4 0.00 0.00 0.00 0.0 0.00	86.0548577288	0.00	0.00	Clear(cloudy)	True	False	0.00
2011-03-14 05:00:00 37390 5 0.00 0.00 0.00 0.0 0.00	86.0548577288	0.00	0.00	Clear(cloudy)	True	False	0.00
2011-03-14 06:00:00 37391 6 23.49 23.49 23.49 26.4 27.30	86.0548577288	23.49	26.40	Clear(cloudy)	True	False	26.40
2011-03-14 07:00:00 37392 7 208.42 208.42 208.42 124.3 242.20	86.0548577288	208.42	124.30	Sunny(cloudy)	True	False	124.30
2011-03-14 08:00:00 37393 8 523.13 523.13 523.13 79.0 607.90	86.0548577288	523.13	79.00	Sunny(mostly_cloudy)	True	False	79.00
2011-03-14 09:00:00 37394 9 784.88 784.88 784.88 285.0 886.60	88.5274419414	784.88	285.00	Sunny(cloudy)	True	False	285.00
2011-03-14 10:00:00 37395 10 941.67 941.67 941.67 428.0 1063.70	88.5274419414	941.67	428.00	Sunny(cloudy)	True	False	428.00
2011-03-14 11:00:00 37396 11 1017.80 1017.80 1017.80 698.8 1149.70	88.5274419414	1017.80	698.80	Sunny(Unkown)	True	False	698.80
