2011-03-26 18:00:00 53813 18 88.68 88.68 90.39 75.8 101.70	87.2009672683	90.39	75.80	Sunny(sunny)	True	False	75.80
2011-03-26 19:00:00 53814 19 5.14 5.14 4.40 0.9 5.90	87.2009672683	4.40	0.90	Sunny(sunny)	True	False	0.90
2011-03-26 20:00:00 53815 20 0.00 0.00 0.00 0.0 0.00	87.2009672683	0.00	0.00	Clear(clear)	True	False	0.00
2011-03-26 21:00:00 53816 21 0.00 0.00 0.00 0.0 0.00	87.2009672683	0.00	0.00	Clear(fair)	True	False	0.00
2011-03-26 22:00:00 53817 22 0.00 0.00 0.00 0.0 0.00	87.2009672683	0.00	0.00	Clear(partly_cloudy)	True	False	0.00
2011-03-26 23:00:00 53818 23 0.00 0.00 0.00 0.0 0.00	87.2009672683	0.00	0.00	Clear(partly_cloudy)	True	False	0.00
2011-03-27 00:00:00 53819 0 0.00 0.00 0.00 0.0 0.00	87.2009672683	0.00	0.00	Clear(fair)	True	False	0.00
2011-03-27 01:00:00 53820 1 0.00 0.00 0.00 0.0 0.00	77.9661016949	0.00	0.00	Partly_Cloudy(partly_cloudy)	True	False	0.00
2011-03-27 02:00:00 53821 2 0.00 0.00 0.00 0.0 0.00	77.9661016949	0.00	0.00	Partly_Cloudy(mostly_cloudy)	True	False	0.00
2011-03-27 03:00:00 53822 3 0.00 0.00 0.00 0.0 0.00	77.9661016949	0.00	0.00	Partly_Cloudy(mostly_cloudy)	True	False	0.00
2011-03-27 04:00:00 53823 4 0.00 0.00 0.00 0.0 0.00	36.862342989	0.00	0.00	Mostly_Cloudy(partly_cloudy)	True	False	0.00
2011-03-27 05:00:00 53824 5 0.00 0.00 0.00 0.0 0.00	36.862342989	0.00	0.00	Mostly_Cloudy(partly_cloudy)	True	False	0.00
2011-03-27 06:00:00 53825 6 1.29 1.29 1.29 0.0 3.50	36.862342989	1.29	0.00	Mostly_Cloudy(mostly_cloudy)	True	False	0.00
2011-03-27 07:00:00 53826 7 40.11 40.11 40.11 39.8 108.80	36.862342989	40.11	39.80	Mostly_Cloudy(mostly_cloudy)	True	False	39.80
2011-03-27 08:00:00 53827 8 146.53 146.53 146.53 282.3 397.50	36.862342989	146.53	282.30	Mostly_Cloudy(mostly_cloudy)	True	False	282.30
2011-03-27 09:00:00 53828 9 268.54 268.54 268.54 700.8 728.50	36.862342989	268.54	700.80	Mostly_Cloudy(partly_cloudy)	True	False	700.80
2011-03-27 10:00:00 53829 10 836.73 836.73 836.73 978.4 984.70	84.9727955782	836.73	978.40	Partly_Cloudy(sunny)	True	False	978.40
2011-03-27 11:00:00 53830 11 958.24 958.24 958.24 1144.5 1127.70	84.9727955782	958.24	1144.50	Partly_Cloudy(sunny)	True	False	1144.50
2011-03-27 12:00:00 53831 12 1007.86 1007.86 1007.86 1220.7 1186.10	84.9727955782	1007.86	1220.70	Partly_Cloudy(sunny)	True	False	1220.70
2011-03-27 13:00:00 53832 13 994.44 994.44 994.44 1209.3 1170.30	84.9727955782	994.44	1209.30	Partly_Cloudy(sunny)	True	False	1209.30
2011-03-27 14:00:00 53833 14 983.90 983.90 983.90 1130.0 1157.90	84.9727955782	983.90	1130.00	Partly_Cloudy(sunny)	True	False	1130.00
2011-03-27 15:00:00 53834 15 842.68 842.68 842.68 975.3 991.70	84.9727955782	842.68	975.30	Partly_Cloudy(sunny)	True	False	975.30
2011-03-27 16:00:00 53835 16 596.54 596.54 596.54 721.3 684.10	87.2009672683	596.54	721.30	Sunny(sunny)	True	False	721.30
2011-03-27 17:00:00 53836 17 304.33 304.33 304.33 377.9 349.00	87.2009672683	304.33	377.90	Sunny(sunny)	True	False	377.90
2011-03-27 18:00:00 53837 18 88.68 88.68 88.68 76.0 101.70	87.2009672683	88.68	76.00	Sunny(sunny)	True	False	76.00
2011-03-27 19:00:00 53838 19 5.14 5.14 5.14 1.0 5.90	87.2009672683	5.14	1.00	Sunny(sunny)	True	False	1.00
2011-03-27 20:00:00 53839 20 0.00 0.00 0.00 0.0 0.00	87.2009672683	0.00	0.00	Clear(clear)	True	False	0.00
2011-03-27 21:00:00 53840 21 0.00 0.00 0.00 0.0 0.00	87.2009672683	0.00	0.00	Clear(clear)	True	False	0.00
2011-03-27 22:00:00 53841 22 0.00 0.00 0.00 0.0 0.00	87.2009672683	0.00	0.00	Clear(clear)	True	False	0.00
2011-03-27 23:00:00 53842 23 0.00 0.00 0.00 0.0 0.00	87.2009672683	0.00	0.00	Clear(clear)	True	False	0.00
2011-03-28 00:00:00 53843 0 0.00 0.00 0.00 0.0 0.00	87.2009672683	0.00	0.00	Clear(clear)	True	False	0.00
2011-03-28 01:00:00 53844 1 0.00 0.00 0.00 0.0 0.00	87.2009672683	0.00	0.00	Clear(clear)	True	False	0.00
2011-03-28 02:00:00 53845 2 0.00 0.00 0.00 0.0 0.00	87.2009672683	0.00	0.00	Clear(clear)	True	False	0.00
2011-03-28 03:00:00 53846 3 0.00 0.00 0.00 0.0 0.00	87.2009672683	0.00	0.00	Clear(clear)	True	False	0.00
2011-03-28 04:00:00 53847 4 0.00 0.00 0.00 0.0 0.00	87.2009672683	0.00	0.00	Clear(clear)	True	False	0.00
2011-03-28 05:00:00 53848 5 0.00 0.00 0.00 0.0 0.00	87.2009672683	0.00	0.00	Clear(clear)	True	False	0.00
2011-03-28 06:00:00 53849 6 3.05 3.05 3.05 0.3 3.50	87.2009672683	3.05	0.30	Clear(clear)	True	False	0.30
2011-03-28 07:00:00 53850 7 94.87 94.87 94.87 85.2 108.80	87.2009672683	94.87	85.20	Sunny(sunny)	True	False	85.20
2011-03-28 08:00:00 53851 8 346.62 346.62 346.62 398.3 397.50	87.2009672683	346.62	398.30	Sunny(sunny)	True	False	398.30
2011-03-28 09:00:00 53852 9 635.26 635.26 635.26 740.9 728.50	87.2009672683	635.26	740.90	Sunny(sunny)	True	False	740.90
2011-03-28 10:00:00 53853 10 875.20 875.20 875.20 1001.5 984.70	88.8798618869	875.20	1001.50	Sunny(sunny)	True	False	1001.50
2011-03-28 11:00:00 53854 11 1002.30 1002.30 1002.30 1092.2 1127.70	88.8798618869	1002.30	1092.20	Sunny(sunny)	True	False	1092.20
2011-03-28 12:00:00 53855 12 1054.20 1054.20 1054.20 1156.2 1186.10	88.8798618869	1054.20	1156.20	Sunny(fair)	True	False	1156.20
2011-03-28 13:00:00 53856 13 1040.16 1040.16 1040.16 1171.3 1170.30	88.8798618869	1040.16	1171.30	Sunny(sunny)	True	False	1171.30
2011-03-28 14:00:00 53857 14 1029.14 1029.14 1029.14 1047.7 1157.90	88.8798618869	1029.14	1047.70	Sunny(sunny)	True	False	1047.70
2011-03-28 15:00:00 53858 15 881.42 881.42 881.42 929.5 991.70	88.8798618869	881.42	929.50	Sunny(sunny)	True	False	929.50
2011-03-28 16:00:00 53859 16 596.54 596.54 596.54 714.7 684.10	87.2009672683	596.54	714.70	Sunny(sunny)	True	False	714.70
2011-03-28 17:00:00 53860 17 304.33 304.33 304.33 375.1 349.00	87.2009672683	304.33	375.10	Sunny(sunny)	True	False	375.10
2011-03-28 18:00:00 53861 18 88.68 88.68 88.68 76.3 101.70	87.2009672683	88.68	76.30	Sunny(sunny)	True	False	76.30
