2011-03-20 23:00:00 47102 23 0.00 0.00 0.00 0.0 0.00	66.6666666667	0.00	0.00	Partly_Cloudy(fair)	True	False	0.00
2011-03-21 00:00:00 47103 0 0.00 0.00 0.00 0.0 0.00	66.6666666667	0.00	0.00	Partly_Cloudy(cloudy)	True	False	0.00
2011-03-21 01:00:00 47104 1 0.00 0.00 0.00 0.0 0.00	50.4398826979	0.00	0.00	Mostly_Cloudy(partly_cloudy)	True	False	0.00
2011-03-21 02:00:00 47105 2 0.00 0.00 0.00 0.0 0.00	4.52377035697	0.00	0.00	Showers(partly_cloudy)	True	False	0.00
2011-03-21 03:00:00 47106 3 0.00 0.00 0.00 0.0 0.00	8.25214899713	0.00	0.00	Light_Rain(cloudy)	True	False	0.00
2011-03-21 04:00:00 47107 4 0.00 0.00 0.00 0.0 0.00	10.6988000403	0.00	0.00	Cloudy(cloudy)	True	False	0.00
2011-03-21 05:00:00 47108 5 0.00 0.00 0.00 0.0 0.00	10.6988000403	0.00	0.00	Rain_/_Snow_Showers(light_rain)	False	False	0.00
2011-03-21 06:00:00 47109 6 2.92 2.92 2.92 0.0 27.30	10.6988000403	2.92	0.00	Rain_/_Snow_Showers(light_snow)	False	False	0.00
2011-03-21 07:00:00 47110 7 19.99 19.99 19.99 0.0 242.20	8.25214899713	19.99	0.00	Light_Rain(light_rain)	True	False	0.00
2011-03-21 08:00:00 47111 8 50.16 50.16 50.16 4.8 607.90	8.25214899713	50.16	4.80	Light_Rain(light_snow)	True	False	4.80
2011-03-21 09:00:00 47112 9 73.16 73.16 73.16 18.8 886.60	8.25214899713	73.16	18.80	Light_Rain(light_rain)	True	False	18.80
2011-03-21 10:00:00 47113 10 93.44 93.44 93.44 37.4 1063.70	8.78407246005	93.44	37.40	Light_Rain(light_rain)	True	False	37.40
2011-03-21 11:00:00 47114 11 100.99 100.99 100.99 56.0 1149.70	8.78407246005	100.99	56.00	Light_Rain(cloudy)	True	False	56.00
2011-03-21 12:00:00 47115 12 104.19 104.19 104.19 101.1 1186.10	8.78407246005	104.19	101.10	Light_Rain(light_rain)	True	False	101.10
2011-03-21 13:00:00 47116 13 48.05 48.05 48.05 143.1 1170.30	4.10541880491	48.05	143.10	Showers(fog)	True	False	143.10
2011-03-21 14:00:00 47117 14 47.54 47.54 47.54 156.2 1157.90	4.10541880491	47.54	156.20	Showers(fog)	True	False	156.20
2011-03-21 15:00:00 47118 15 40.71 40.71 40.71 94.5 991.70	4.10541880491	40.71	94.50	Showers(cloudy)	True	False	94.50
2011-03-21 16:00:00 47119 16 73.19 73.19 73.19 107.7 684.10	10.6988000403	73.19	107.70	Cloudy(fog)	True	False	107.70
2011-03-21 17:00:00 47120 17 37.34 37.34 37.34 37.7 349.00	10.6988000403	37.34	37.70	Cloudy(fog)	True	False	37.70
2011-03-21 18:00:00 47121 18 9.33 9.33 9.33 1.1 87.20	10.6988000403	9.33	1.10	Cloudy(fog)	True	False	1.10
2011-03-21 19:00:00 47122 19 0.76 0.76 0.76 0.0 1.50	50.4398826979	0.76	0.00	Mostly_Cloudy(cloudy)	True	False	0.00
2011-03-21 20:00:00 47123 20 0.00 0.00 0.00 0.0 0.00	50.4398826979	0.00	0.00	Mostly_Cloudy(cloudy)	True	False	0.00
2011-03-21 21:00:00 47124 21 0.00 0.00 0.00 0.0 0.00	50.4398826979	0.00	0.00	Mostly_Cloudy(cloudy)	True	False	0.00
2011-03-21 22:00:00 47125 22 0.00 0.00 0.00 0.0 0.00	50.4398826979	0.00	0.00	Mostly_Cloudy(cloudy)	True	False	0.00
2011-03-21 23:00:00 47126 23 0.00 0.00 0.00 0.0 0.00	50.4398826979	0.00	0.00	Mostly_Cloudy(fog)	True	False	0.00
2011-03-22 00:00:00 47127 0 0.00 0.00 0.00 0.0 0.00	50.4398826979	0.00	0.00	Mostly_Cloudy(fog)	True	False	0.00
2011-03-22 01:00:00 47128 1 0.00 0.00 0.00 0.0 0.00	50.4398826979	0.00	0.00	Mostly_Cloudy(fog)	True	False	0.00
2011-03-22 02:00:00 47129 2 0.00 0.00 0.00 0.0 0.00	50.4398826979	0.00	0.00	Mostly_Cloudy(fog)	True	False	0.00
2011-03-22 03:00:00 47130 3 0.00 0.00 0.00 0.0 0.00	50.4398826979	0.00	0.00	Mostly_Cloudy(fog)	True	False	0.00
2011-03-22 04:00:00 47131 4 0.00 0.00 0.00 0.0 0.00	66.6666666667	0.00	0.00	Partly_Cloudy(cloudy)	True	False	0.00
2011-03-22 05:00:00 47132 5 0.00 0.00 0.00 0.0 0.00	66.6666666667	0.00	0.00	Partly_Cloudy(cloudy)	True	False	0.00
2011-03-22 06:00:00 47133 6 18.20 18.20 18.20 0.0 27.30	66.6666666667	18.20	0.00	Partly_Cloudy(cloudy)	True	False	0.00
2011-03-22 07:00:00 47134 7 161.47 161.47 161.47 15.9 242.20	66.6666666667	161.47	15.90	Mostly_Sunny(cloudy)	False	False	15.90
2011-03-22 08:00:00 47135 8 405.27 405.27 405.27 69.3 607.90	66.6666666667	405.27	69.30	Mostly_Sunny(cloudy)	False	False	69.30
2011-03-22 09:00:00 47136 9 591.07 591.07 591.07 341.7 886.60	66.6666666667	591.07	341.70	Mostly_Sunny(cloudy)	False	False	341.70
2011-03-22 10:00:00 47137 10 709.13 709.13 709.13 813.5 1063.70	66.6666666667	709.13	813.50	Mostly_Sunny(cloudy)	False	False	813.50
2011-03-22 11:00:00 47138 11 766.47 766.47 766.47 627.9 1149.70	66.6666666667	766.47	627.90	Mostly_Sunny(cloudy)	False	False	627.90
2011-03-22 12:00:00 47139 12 790.73 790.73 790.73 966.9 1186.10	66.6666666667	790.73	966.90	Mostly_Sunny(cloudy)	False	False	966.90
2011-03-22 13:00:00 47140 13 835.50 835.50 835.50 1173.6 1170.30	71.3923098618	835.50	1173.60	Partly_Cloudy(mostly_cloudy)	True	False	1173.60
2011-03-22 14:00:00 47141 14 826.65 826.65 826.65 1005.2 1157.90	71.3923098618	826.65	1005.20	Partly_Cloudy(mostly_cloudy)	True	False	1005.20
2011-03-22 15:00:00 47142 15 708.00 708.00 708.00 845.9 991.70	71.3923098618	708.00	845.90	Partly_Cloudy(mostly_cloudy)	True	False	845.90
2011-03-22 16:00:00 47143 16 456.07 456.07 456.07 652.0 684.10	66.6666666667	456.07	652.00	Partly_Cloudy(mostly_cloudy)	True	False	652.00
2011-03-22 17:00:00 47144 17 232.67 232.67 232.67 310.0 349.00	66.6666666667	232.67	310.00	Partly_Cloudy(sunny)	True	False	310.00
2011-03-22 18:00:00 47145 18 58.13 58.13 58.13 53.0 87.20	66.6666666667	58.13	53.00	Partly_Cloudy(fair)	True	False	53.00
2011-03-22 19:00:00 47146 19 0.76 0.76 0.76 0.0 1.50	50.4398826979	0.76	0.00	Mostly_Cloudy(partly_cloudy)	True	False	0.00
2011-03-22 20:00:00 47147 20 0.00 0.00 0.00 0.0 0.00	50.4398826979	0.00	0.00	Mostly_Cloudy(partly_cloudy)	True	False	0.00
2011-03-22 21:00:00 47148 21 0.00 0.00 0.00 0.0 0.00	50.4398826979	0.00	0.00	Mostly_Cloudy(partly_cloudy)	True	False	0.00
2011-03-22 22:00:00 47149 22 0.00 0.00 0.00 0.0 0.00	10.6988000403	0.00	0.00	Cloudy(mostly_cloudy)	True	False	0.00
2011-03-22 23:00:00 47150 23 0.00 0.00 0.00 0.0 0.00	10.6988000403	0.00	0.00	Cloudy(cloudy)	True	False	0.00
