2011-03-18 01:00:00 43696 1 0.00 0.00 0.00 0.0 0.00	67.7087831419	0.00	0.00	Partly_Cloudy(partly_cloudy)	True	False	0.00
2011-03-18 02:00:00 43697 2 0.00 0.00 0.00 0.0 0.00	69.0666891493	0.00	0.00	Partly_Cloudy(clear)	True	False	0.00
2011-03-18 03:00:00 43698 3 0.00 0.00 0.00 0.0 0.00	69.0666891493	0.00	0.00	Partly_Cloudy(clear)	True	False	0.00
2011-03-18 04:00:00 43699 4 0.00 0.00 0.00 0.0 0.00	86.2855678031	0.00	0.00	Sunny(partly_cloudy)	True	False	0.00
2011-03-18 05:00:00 43700 5 0.00 0.00 0.00 0.0 0.00	86.2855678031	0.00	0.00	Sunny(fair)	True	False	0.00
2011-03-18 06:00:00 43701 6 23.56 23.56 23.56 0.0 27.30	86.2855678031	23.56	0.00	Sunny(fair)	True	False	0.00
2011-03-18 07:00:00 43702 7 208.98 208.98 208.98 35.7 242.20	86.2855678031	208.98	35.70	Sunny(partly_cloudy)	True	False	35.70
2011-03-18 08:00:00 43703 8 524.53 524.53 524.53 251.6 607.90	86.2855678031	524.53	251.60	Clear(sunny)	True	False	251.60
2011-03-18 09:00:00 43704 9 765.01 765.01 765.01 464.4 886.60	86.2855678031	765.01	464.40	Clear(sunny)	True	False	464.40
2011-03-18 10:00:00 43705 10 917.82 917.82 917.82 780.7 1063.70	86.2855678031	917.82	780.70	Clear(sunny)	True	False	780.70
2011-03-18 11:00:00 43706 11 992.03 992.03 992.03 809.1 1149.70	86.2855678031	992.03	809.10	Clear(sunny)	True	False	809.10
2011-03-18 12:00:00 43707 12 1023.43 1023.43 1023.43 1010.7 1186.10	86.2855678031	1023.43	1010.70	Clear(sunny)	True	False	1010.70
2011-03-18 13:00:00 43708 13 792.40 792.40 792.40 987.7 1170.30	67.7087831419	792.40	987.70	Partly_Cloudy(fair)	True	False	987.70
2011-03-18 14:00:00 43709 14 784.00 784.00 784.00 982.1 1157.90	67.7087831419	784.00	982.10	Partly_Cloudy(partly_cloudy)	True	False	982.10
2011-03-18 15:00:00 43710 15 671.47 671.47 671.47 807.4 991.70	67.7087831419	671.47	807.40	Partly_Cloudy(sunny)	True	False	807.40
2011-03-18 16:00:00 43711 16 59.55 59.55 59.55 503.2 684.10	8.70541497539	59.55	503.20	Few_Showers(fair)	True	False	503.20
2011-03-18 17:00:00 43712 17 30.38 30.38 30.38 221.1 349.00	8.70541497539	30.38	221.10	Few_Showers(fair)	True	False	221.10
2011-03-18 18:00:00 43713 18 7.59 7.59 7.59 43.3 87.20	8.70541497539	7.59	43.30	Few_Showers(fair)	True	False	43.30
2011-03-18 19:00:00 43714 19 0.12 0.12 0.12 0.1 1.40	8.70541497539	0.12	0.10	Few_Showers(fair)	True	False	0.10
2011-03-18 20:00:00 43715 20 0.00 0.00 0.00 0.0 0.00	8.70541497539	0.00	0.00	Few_Showers(fair)	True	False	0.00
2011-03-18 21:00:00 43716 21 0.00 0.00 0.00 0.0 0.00	8.70541497539	0.00	0.00	Few_Showers(fair)	True	False	0.00
2011-03-18 22:00:00 43717 22 0.00 0.00 0.00 0.0 0.00	8.78407246005	0.00	0.00	Few_Showers(fair)	True	False	0.00
2011-03-18 23:00:00 43718 23 0.00 0.00 0.00 0.0 0.00	8.78407246005	0.00	0.00	Few_Showers(mostly_cloudy)	True	False	0.00
2011-03-19 00:00:00 43719 0 0.00 0.00 0.00 0.0 0.00	8.78407246005	0.00	0.00	Few_Showers(cloudy)	True	False	0.00
2011-03-19 01:00:00 43720 1 0.00 0.00 0.00 0.0 0.00	13.5323182414	0.00	0.00	Cloudy(cloudy)	True	False	0.00
2011-03-19 02:00:00 43721 2 0.00 0.00 0.00 0.0 0.00	13.5323182414	0.00	0.00	Cloudy(cloudy)	True	False	0.00
2011-03-19 03:00:00 43722 3 0.00 0.00 0.00 0.0 0.00	13.5323182414	0.00	0.00	Cloudy(mostly_cloudy)	True	False	0.00
2011-03-19 04:00:00 43723 4 0.00 0.00 0.00 0.0 0.00	67.7087831419	0.00	0.00	Partly_Cloudy(mostly_cloudy)	True	False	0.00
2011-03-19 05:00:00 43724 5 0.00 0.00 0.00 0.0 0.00	67.7087831419	0.00	0.00	Partly_Cloudy(partly_cloudy)	True	False	0.00
2011-03-19 06:00:00 43725 6 18.48 18.48 18.48 0.0 27.30	67.7087831419	18.48	0.00	Partly_Cloudy(partly_cloudy)	True	False	0.00
2011-03-19 07:00:00 43726 7 163.99 163.99 163.99 36.1 242.20	67.7087831419	163.99	36.10	Mostly_Sunny(partly_cloudy)	False	False	36.10
2011-03-19 08:00:00 43727 8 411.60 411.60 411.60 313.9 607.90	67.7087831419	411.60	313.90	Mostly_Clear(sunny)	False	False	313.90
2011-03-19 09:00:00 43728 9 600.31 600.31 600.31 664.8 886.60	67.7087831419	600.31	664.80	Mostly_Clear(sunny)	False	False	664.80
2011-03-19 10:00:00 43729 10 917.82 917.82 917.82 924.7 1063.70	86.2855678031	917.82	924.70	Clear(fair)	True	False	924.70
2011-03-19 11:00:00 43730 11 992.03 992.03 992.03 1080.9 1149.70	86.2855678031	992.03	1080.90	Clear(sunny)	True	False	1080.90
2011-03-19 12:00:00 43731 12 1023.43 1023.43 1023.43 1141.6 1186.10	86.2855678031	1023.43	1141.60	Clear(partly_cloudy)	True	False	1141.60
2011-03-19 13:00:00 43732 13 1009.80 1009.80 1009.80 1126.5 1170.30	86.2855678031	1009.80	1126.50	Clear(partly_cloudy)	True	False	1126.50
