2011-03-06 14:00:00 30596 14 199.25 975.30 199.25 97.1 1063.50	18.7355943365	199.25	97.10	Cloudy(cloudy)	True	False	97.10
2011-03-06 15:00:00 30597 15 83.19 83.19 46.65 57.2 911.10	5.12063877799	46.65	57.20	Light_Rain(light_rain)	True	False	57.20
2011-03-06 16:00:00 30598 16 37.04 60.57 37.04 3.6 663.40	5.58312655087	37.04	3.60	Rain/Thunder(rain)	True	False	3.60
2011-03-06 17:00:00 30599 17 18.37 30.04 18.37 0.0 329.00	5.58312655087	18.37	0.00	Rain/Thunder(heavy_rain)	True	False	0.00
2011-03-06 18:00:00 30600 18 3.00 4.91 3.00 0.0 53.80	5.58312655087	3.00	0.00	Rain/Thunder(rain)	True	False	0.00
2011-03-06 19:00:00 30601 19 0.01 0.01 0.01 0.0 0.10	5.58312655087	0.01	0.00	Rain/Thunder(rain)	True	False	0.00
2011-03-06 20:00:00 30602 20 0.00 0.00 0.00 0.0 0.00	4.52377035697	0.00	0.00	Rain(rain)	True	False	0.00
2011-03-06 21:00:00 30603 21 0.00 0.00 0.00 0.0 0.00	4.52377035697	0.00	0.00	Rain(light_rain)	True	False	0.00
2011-03-06 22:00:00 30604 22 0.00 0.00 0.00 0.0 0.00	4.52377035697	0.00	0.00	Rain(light_rain)	True	False	0.00
2011-03-06 23:00:00 30605 23 0.00 0.00 0.00 0.0 0.00	4.52377035697	0.00	0.00	Rain(light_rain)	True	False	0.00
2011-03-07 00:00:00 30606 0 0.00 0.00 0.00 0.0 0.00	4.52377035697	0.00	0.00	Showers(light_rain)	True	False	0.00
2011-03-07 01:00:00 30607 1 0.00 0.00 0.00 0.0 0.00	4.52377035697	0.00	0.00	Showers(light_rain)	True	False	0.00
2011-03-07 02:00:00 30608 2 0.00 0.00 0.00 0.0 0.00	4.52377035697	0.00	0.00	Showers(light_rain)	True	False	0.00
2011-03-07 03:00:00 30609 3 0.00 0.00 0.00 0.0 0.00	14.7294479201	0.00	0.00	Cloudy(light_rain)	True	False	0.00
2011-03-07 04:00:00 30610 4 0.00 0.00 0.00 0.0 0.00	14.7294479201	0.00	0.00	Cloudy(cloudy)	True	False	0.00
2011-03-07 05:00:00 30611 5 0.00 0.00 0.00 0.0 0.00	14.7294479201	0.00	0.00	Cloudy(cloudy)	True	False	0.00
2011-03-07 06:00:00 30612 6 7.21 7.21 7.21 1.8 27.30	26.4076391176	7.21	1.80	Mostly_Cloudy(cloudy)	True	False	1.80
2011-03-07 07:00:00 30613 7 63.96 63.96 63.96 222.2 242.20	26.4076391176	63.96	222.20	Mostly_Cloudy(cloudy)	True	False	222.20
2011-03-07 08:00:00 30614 8 160.53 160.53 160.53 611.2 607.90	26.4076391176	160.53	611.20	Mostly_Cloudy(fair_and_windy)	True	False	611.20
2011-03-07 09:00:00 30615 9 653.59 653.59 653.59 883.7 886.60	73.7188528444	653.59	883.70	Partly_Cloudy(fair_and_windy)	True	False	883.70
2011-03-07 10:00:00 30616 10 784.15 784.15 784.15 1077.1 1063.70	73.7188528444	784.15	1077.10	Partly_Cloudy(fair)	True	False	1077.10
2011-03-07 11:00:00 30617 11 847.55 847.55 847.55 1170.2 1149.70	73.7188528444	847.55	1170.20	Partly_Cloudy(fair)	True	False	1170.20
2011-03-07 12:00:00 30618 12 848.06 848.06 848.06 1173.4 1150.40	73.7188528444	848.06	1173.40	Mostly_Sunny(fair_and_windy)	False	False	1173.40
2011-03-07 13:00:00 30619 13 849.39 849.39 849.39 1067.9 1152.20	73.7188528444	849.39	1067.90	Mostly_Sunny(fair)	False	False	1067.90
2011-03-07 14:00:00 30620 14 784.00 784.00 784.00 913.8 1063.50	73.7188528444	784.00	913.80	Mostly_Sunny(fair)	False	False	913.80
2011-03-07 15:00:00 30621 15 835.54 835.54 835.54 653.0 911.10	91.706629055	835.54	653.00	Sunny(fair)	True	False	653.00
2011-03-07 16:00:00 30622 16 589.48 589.48 589.48 307.0 663.40	88.8579629469	589.48	307.00	Sunny(fair)	True	False	307.00
2011-03-07 17:00:00 30623 17 292.34 292.34 292.34 32.2 329.00	88.8579629469	292.34	32.20	Sunny(fair)	True	False	32.20
2011-03-07 18:00:00 30624 18 47.81 47.81 47.81 0.0 53.80	88.8579629469	47.81	0.00	Clear(fair)	True	False	0.00
2011-03-07 19:00:00 30625 19 0.09 0.09 0.09 0.0 0.10	88.8579629469	0.09	0.00	Clear(fair)	True	False	0.00
2011-03-07 20:00:00 30626 20 0.00 0.00 0.00 0.0 0.00	88.8579629469	0.00	0.00	Clear(fair)	True	False	0.00
2011-03-07 21:00:00 30627 21 0.00 0.00 0.00 0.0 0.00	88.8579629469	0.00	0.00	Clear(fair)	True	False	0.00
2011-03-07 22:00:00 30628 22 0.00 0.00 0.00 0.0 0.00	88.8579629469	0.00	0.00	Clear(fair)	True	False	0.00
2011-03-07 23:00:00 30629 23 0.00 0.00 0.00 0.0 0.00	88.8579629469	0.00	0.00	Clear(fair)	True	False	0.00
2011-03-08 00:00:00 30630 0 0.00 0.00 0.00 0.0 0.00	88.8579629469	0.00	0.00	Clear(fair)	True	False	0.00
2011-03-08 01:00:00 30631 1 0.00 0.00 0.00 0.0 0.00	88.8579629469	0.00	0.00	Clear(fair)	True	False	0.00
2011-03-08 02:00:00 30632 2 0.00 0.00 0.00 0.0 0.00	88.8579629469	0.00	0.00	Clear(fair)	True	False	0.00
2011-03-08 03:00:00 30633 3 0.00 0.00 0.00 0.0 0.00	73.7188528444	0.00	0.00	Partly_Cloudy(fair)	True	False	0.00
2011-03-08 04:00:00 30634 4 0.00 0.00 0.00 0.0 0.00	73.7188528444	0.00	0.00	Partly_Cloudy(fair)	True	False	0.00
2011-03-08 05:00:00 30635 5 0.00 0.00 0.00 0.0 0.00	73.7188528444	0.00	0.00	Partly_Cloudy(fair)	True	False	0.00
2011-03-08 06:00:00 30636 6 20.13 20.13 20.13 19.4 27.30	73.7188528444	20.13	19.40	Mostly_Clear(fair)	False	False	19.40
2011-03-08 07:00:00 30637 7 178.55 178.55 178.55 254.2 242.20	73.7188528444	178.55	254.20	Mostly_Sunny(fair)	False	False	254.20
2011-03-08 08:00:00 30638 8 448.14 448.14 448.14 609.5 607.90	73.7188528444	448.14	609.50	Mostly_Sunny(fair)	False	False	609.50
2011-03-08 09:00:00 30639 9 234.13 234.13 234.13 881.8 886.60	26.4076391176	234.13	881.80	Mostly_Cloudy(fair)	True	False	881.80
2011-03-08 10:00:00 30640 10 545.88 545.88 545.88 1027.3 1063.70	51.319215414	545.88	1027.30	Mostly_Cloudy(fair)	True	False	1027.30
2011-03-08 11:00:00 30641 11 590.02 590.02 590.02 1129.5 1149.70	51.319215414	590.02	1129.50	Mostly_Cloudy(fair)	True	False	1129.50
2011-03-08 12:00:00 30642 12 848.06 848.06 848.06 1101.8 1150.40	73.7188528444	848.06	1101.80	Partly_Cloudy(fair)	True	False	1101.80
2011-03-08 13:00:00 30643 13 849.39 849.39 849.39 938.7 1152.20	73.7188528444	849.39	938.70	Partly_Cloudy(fair)	True	False	938.70
