2011-03-22 17:00:00 49106 17 256.99 307.67 307.67 310.0 349.00	73.6374407583	307.67	310.00	Partly_Cloudy(sunny)	True	False	310.00
2011-03-22 18:00:00 49107 18 72.39 86.66 86.66 53.0 98.30	73.6374407583	86.66	53.00	Partly_Cloudy(fair)	True	False	53.00
2011-03-22 19:00:00 49108 19 1.55 1.85 1.85 0.0 2.10	73.6374407583	1.85	0.00	Partly_Cloudy(partly_cloudy)	True	False	0.00
2011-03-22 20:00:00 49109 20 0.00 0.00 0.00 0.0 0.00	73.6374407583	0.00	0.00	Partly_Cloudy(partly_cloudy)	True	False	0.00
2011-03-22 21:00:00 49110 21 0.00 0.00 0.00 0.0 0.00	10.6988000403	0.00	0.00	Cloudy(partly_cloudy)	True	False	0.00
2011-03-22 22:00:00 49111 22 0.00 0.00 0.00 0.0 0.00	8.25214899713	0.00	0.00	Few_Showers(mostly_cloudy)	True	False	0.00
2011-03-22 23:00:00 49112 23 0.00 0.00 0.00 0.0 0.00	31.7163093044	0.00	0.00	Mostly_Cloudy(cloudy)	True	False	0.00
2011-03-23 00:00:00 49113 0 0.00 0.00 0.00 0.0 0.00	31.7163093044	0.00	0.00	Mostly_Cloudy(cloudy)	True	False	0.00
2011-03-23 01:00:00 49114 1 0.00 0.00 0.00 0.0 0.00	8.25214899713	0.00	0.00	Few_Showers(cloudy)	True	False	0.00
2011-03-23 02:00:00 49115 2 0.00 0.00 0.00 0.0 0.00	8.25214899713	0.00	0.00	Few_Showers(light_rain)	True	False	0.00
2011-03-23 03:00:00 49116 3 0.00 0.00 0.00 0.0 0.00	8.25214899713	0.00	0.00	Few_Showers(light_snow)	True	False	0.00
2011-03-23 04:00:00 49117 4 0.00 0.00 0.00 0.0 0.00	8.25214899713	0.00	0.00	Rain_/_Snow_Showers(light_snow)	False	False	0.00
2011-03-23 05:00:00 49118 5 0.00 0.00 0.00 0.0 0.00	8.25214899713	0.00	0.00	Rain_/_Snow_Showers(light_snow)	False	False	0.00
2011-03-23 06:00:00 49119 6 2.25 2.25 2.25 0.0 27.30	8.25214899713	2.25	0.00	Rain_/_Snow_Showers(light_snow)	False	False	0.00
2011-03-23 07:00:00 49120 7 19.67 19.67 19.67 0.0 238.40	8.25214899713	19.67	0.00	Rain_/_Snow_Showers(light_snow)	False	False	0.00
2011-03-23 08:00:00 49121 8 47.66 47.66 47.66 0.0 577.50	8.25214899713	47.66	0.00	Rain_/_Snow_Showers(light_snow)	False	False	0.00
2011-03-23 09:00:00 49122 9 69.65 69.65 69.65 0.2 844.00	8.25214899713	69.65	0.20	Rain_/_Snow_Showers(light_snow)	False	False	0.20
2011-03-23 10:00:00 49123 10 85.05 85.05 85.05 0.6 1030.70	8.25214899713	85.05	0.60	Rain_/_Snow_Showers(cloudy)	False	False	0.60
2011-03-23 11:00:00 49124 11 93.06 93.06 93.06 10.4 1127.70	8.25214899713	93.06	10.40	Rain_/_Snow_Showers(light_rain)	False	False	10.40
2011-03-23 12:00:00 49125 12 97.88 97.88 97.88 17.9 1186.10	8.25214899713	97.88	17.90	Rain_/_Snow_Showers(light_rain)	False	False	17.90
2011-03-23 13:00:00 49126 13 96.57 96.57 96.57 27.4 1170.30	8.25214899713	96.57	27.40	Rain_/_Snow(light_rain)	False	False	27.40
2011-03-23 14:00:00 49127 14 95.55 95.55 95.55 41.5 1157.90	8.25214899713	95.55	41.50	Rain_/_Snow(light_rain)	False	False	41.50
2011-03-23 15:00:00 49128 15 81.84 81.84 81.84 33.2 991.70	8.25214899713	81.84	33.20	Rain_/_Snow(cloudy)	False	False	33.20
2011-03-23 16:00:00 49129 16 32.58 32.58 32.58 15.0 684.10	4.7619047619	32.58	15.00	Rain(wintry_mix)	True	False	15.00
2011-03-23 17:00:00 49130 17 16.62 16.62 16.62 4.6 349.00	4.7619047619	16.62	4.60	Rain(light_rain)	True	False	4.60
2011-03-23 18:00:00 49131 18 4.68 4.68 4.68 0.0 98.30	4.7619047619	4.68	0.00	Rain(light_rain)	True	False	0.00
2011-03-23 19:00:00 49132 19 0.10 0.10 0.10 0.0 2.10	4.7619047619	0.10	0.00	Rain(light_rain)	True	False	0.00
2011-03-23 20:00:00 49133 20 0.00 0.00 0.00 0.0 0.00	4.7619047619	0.00	0.00	Rain(t-storm)	True	False	0.00
2011-03-23 21:00:00 49134 21 0.00 0.00 0.00 0.0 0.00	4.7619047619	0.00	0.00	Rain(light_snow)	True	False	0.00
2011-03-23 22:00:00 49135 22 0.00 0.00 0.00 0.0 0.00	4.7619047619	0.00	0.00	Rain(light_snow)	True	False	0.00
2011-03-23 23:00:00 49136 23 0.00 0.00 0.00 0.0 0.00	4.7619047619	0.00	0.00	Rain(cloudy)	True	False	0.00
2011-03-24 00:00:00 49137 0 0.00 0.00 0.00 0.0 0.00	4.7619047619	0.00	0.00	Rain(light_snow)	True	False	0.00
2011-03-24 01:00:00 49138 1 0.00 0.00 0.00 0.0 0.00	4.7619047619	0.00	0.00	Rain_/_Snow(cloudy)	False	False	0.00
2011-03-24 02:00:00 49139 2 0.00 0.00 0.00 0.0 0.00	4.7619047619	0.00	0.00	Rain_/_Snow(light_snow)	False	False	0.00
2011-03-24 03:00:00 49140 3 0.00 0.00 0.00 0.0 0.00	4.7619047619	0.00	0.00	Rain_/_Snow(light_snow)	False	False	0.00
2011-03-24 04:00:00 49141 4 0.00 0.00 0.00 0.0 0.00	4.7619047619	0.00	0.00	Rain_/_Snow_Showers(cloudy)	False	False	0.00
2011-03-24 05:00:00 49142 5 0.00 0.00 0.00 0.0 0.00	4.7619047619	0.00	0.00	Rain_/_Snow_Showers(cloudy)	False	False	0.00
2011-03-24 06:00:00 49143 6 1.30 1.30 1.30 0.0 27.30	4.7619047619	1.30	0.00	Rain_/_Snow_Showers(cloudy)	False	False	0.00
2011-03-24 07:00:00 49144 7 11.35 11.35 11.35 0.1 238.40	4.7619047619	11.35	0.10	Snow_Shower(cloudy)	False	False	0.10
2011-03-24 08:00:00 49145 8 27.50 27.50 27.50 5.1 577.50	4.7619047619	27.50	5.10	Snow_Shower(cloudy)	False	False	5.10
2011-03-24 09:00:00 49146 9 40.19 40.19 40.19 13.6 844.00	4.7619047619	40.19	13.60	Snow_Shower(cloudy)	False	False	13.60
2011-03-24 10:00:00 49147 10 49.08 49.08 49.08 35.1 1030.70	4.7619047619	49.08	35.10	Few_Snow_Showers(cloudy)	False	False	35.10
2011-03-24 11:00:00 49148 11 53.70 53.70 53.70 173.0 1127.70	4.7619047619	53.70	173.00	Few_Snow_Showers(cloudy)	False	False	173.00
2011-03-24 12:00:00 49149 12 56.48 56.48 56.48 432.5 1186.10	4.7619047619	56.48	432.50	Few_Snow_Showers(cloudy)	False	False	432.50
2011-03-24 13:00:00 49150 13 371.18 371.18 371.18 349.6 1170.30	31.7163093044	371.18	349.60	Mostly_Cloudy(cloudy)	True	False	349.60
2011-03-24 14:00:00 49151 14 367.24 367.24 367.24 350.9 1157.90	31.7163093044	367.24	350.90	Mostly_Cloudy(cloudy)	True	False	350.90
2011-03-24 15:00:00 49152 15 314.53 314.53 314.53 549.1 991.70	31.7163093044	314.53	549.10	Mostly_Cloudy(cloudy)	True	False	549.10
2011-03-24 16:00:00 49153 16 216.97 216.97 216.97 698.1 684.10	31.7163093044	216.97	698.10	Mostly_Cloudy(fair)	True	False	698.10
2011-03-24 17:00:00 49154 17 110.69 110.69 110.69 338.8 349.00	31.7163093044	110.69	338.80	Mostly_Cloudy(fair)	True	False	338.80
