2011-03-08 09:00:00 32664 9 803.40 803.40 803.40 881.8 886.60	90.6157392163	803.40	881.80	Mostly_Sunny(fair)	False	False	881.80
2011-03-08 10:00:00 32665 10 963.88 963.88 963.88 1027.3 1063.70	90.6157392163	963.88	1027.30	Mostly_Sunny(fair)	False	False	1027.30
2011-03-08 11:00:00 32666 11 1041.81 1041.81 1041.81 1129.5 1149.70	90.6157392163	1041.81	1129.50	Sunny(fair)	True	False	1129.50
2011-03-08 12:00:00 32667 12 1042.44 1042.44 1042.44 1101.8 1150.40	90.6157392163	1042.44	1101.80	Sunny(fair)	True	False	1101.80
2011-03-08 13:00:00 32668 13 1044.07 1044.07 1044.07 938.7 1152.20	90.6157392163	1044.07	938.70	Sunny(fair)	True	False	938.70
2011-03-08 14:00:00 32669 14 963.70 963.70 963.70 618.8 1063.50	90.6157392163	963.70	618.80	Mostly_Sunny(fair)	False	False	618.80
2011-03-08 15:00:00 32670 15 671.65 671.65 671.65 261.9 911.10	73.7188528444	671.65	261.90	Partly_Cloudy(fair)	True	False	261.90
2011-03-08 16:00:00 32671 16 493.24 493.24 493.24 152.4 663.40	74.3498303905	493.24	152.40	Partly_Cloudy(fair)	True	False	152.40
2011-03-08 17:00:00 32672 17 244.61 244.61 244.61 53.6 329.00	74.3498303905	244.61	53.60	Partly_Cloudy(fair)	True	False	53.60
2011-03-08 18:00:00 32673 18 40.00 40.00 40.00 0.0 53.80	74.3498303905	40.00	0.00	Partly_Cloudy(fair)	True	False	0.00
2011-03-08 19:00:00 32674 19 0.07 0.07 0.07 0.0 0.10	74.3498303905	0.07	0.00	Partly_Cloudy(fair)	True	False	0.00
2011-03-08 20:00:00 32675 20 0.00 0.00 0.00 0.0 0.00	74.3498303905	0.00	0.00	Partly_Cloudy(fair)	True	False	0.00
2011-03-08 21:00:00 32676 21 0.00 0.00 0.00 0.0 0.00	74.3498303905	0.00	0.00	Mostly_Clear(fair)	False	False	0.00
2011-03-08 22:00:00 32677 22 0.00 0.00 0.00 0.0 0.00	74.3498303905	0.00	0.00	Mostly_Clear(fair)	False	False	0.00
2011-03-08 23:00:00 32678 23 0.00 0.00 0.00 0.0 0.00	74.3498303905	0.00	0.00	Mostly_Clear(fair)	False	False	0.00
2011-03-09 00:00:00 32679 0 0.00 0.00 0.00 0.0 0.00	88.5274419414	0.00	0.00	Clear(fair)	True	False	0.00
2011-03-09 01:00:00 32680 1 0.00 0.00 0.00 0.0 0.00	88.5274419414	0.00	0.00	Clear(fair)	True	False	0.00
2011-03-09 02:00:00 32681 2 0.00 0.00 0.00 0.0 0.00	88.5274419414	0.00	0.00	Clear(fair)	True	False	0.00
2011-03-09 03:00:00 32682 3 0.00 0.00 0.00 0.0 0.00	88.5274419414	0.00	0.00	Clear(fair)	True	False	0.00
2011-03-09 04:00:00 32683 4 0.00 0.00 0.00 0.0 0.00	88.5274419414	0.00	0.00	Clear(fair)	True	False	0.00
2011-03-09 05:00:00 32684 5 0.00 0.00 0.00 0.0 0.00	88.5274419414	0.00	0.00	Clear(fair)	True	False	0.00
2011-03-09 06:00:00 32685 6 20.30 20.30 20.30 35.1 27.30	74.3498303905	20.30	35.10	Partly_Cloudy(fair)	True	False	35.10
2011-03-09 07:00:00 32686 7 180.08 180.08 180.08 111.5 242.20	74.3498303905	180.08	111.50	Partly_Cloudy(fair)	True	False	111.50
2011-03-09 08:00:00 32687 8 451.97 451.97 451.97 386.9 607.90	74.3498303905	451.97	386.90	Partly_Cloudy(fair)	True	False	386.90
2011-03-09 09:00:00 32688 9 659.19 659.19 659.19 306.0 886.60	74.3498303905	659.19	306.00	Partly_Cloudy(fair)	True	False	306.00
2011-03-09 10:00:00 32689 10 784.15 784.15 784.15 478.5 1063.70	73.7188528444	784.15	478.50	Partly_Cloudy(fair)	True	False	478.50
2011-03-09 11:00:00 32690 11 847.55 847.55 847.55 383.9 1149.70	73.7188528444	847.55	383.90	Partly_Cloudy(fair)	True	False	383.90
2011-03-09 12:00:00 32691 12 590.38 590.38 590.38 340.4 1150.40	51.319215414	590.38	340.40	Mostly_Cloudy(fair)	True	False	340.40
2011-03-09 13:00:00 32692 13 591.30 591.30 591.30 316.7 1152.20	51.319215414	591.30	316.70	Mostly_Cloudy(mostly_cloudy)	True	False	316.70
2011-03-09 14:00:00 32693 14 545.78 545.78 545.78 195.8 1063.50	51.319215414	545.78	195.80	Mostly_Cloudy(cloudy)	True	False	195.80
2011-03-09 15:00:00 32694 15 165.66 165.66 165.66 108.9 911.10	18.1826071863	165.66	108.90	Cloudy(cloudy)	True	False	108.90
2011-03-09 16:00:00 32695 16 93.09 93.09 93.09 23.0 663.40	14.0319131436	93.09	23.00	Cloudy(cloudy)	True	False	23.00
2011-03-09 17:00:00 32696 17 46.16 46.16 46.16 3.6 329.00	14.0319131436	46.16	3.60	Cloudy(cloudy)	True	False	3.60
2011-03-09 18:00:00 32697 18 7.55 7.55 7.55 0.0 53.80	14.0319131436	7.55	0.00	Cloudy(cloudy)	True	False	0.00
2011-03-09 19:00:00 32698 19 0.01 0.01 0.01 0.0 0.10	14.0319131436	0.01	0.00	Cloudy(cloudy)	True	False	0.00
2011-03-09 20:00:00 32699 20 0.00 0.00 0.00 0.0 0.00	14.0319131436	0.00	0.00	Cloudy(cloudy)	True	False	0.00
2011-03-09 21:00:00 32700 21 0.00 0.00 0.00 0.0 0.00	0.64880112835	0.00	0.00	Rain_/_Snow_Showers(cloudy)	True	False	0.00
2011-03-09 22:00:00 32701 22 0.00 0.00 0.00 0.0 0.00	0.64880112835	0.00	0.00	Rain_/_Snow_Showers(cloudy)	True	False	0.00
2011-03-09 23:00:00 32702 23 0.00 0.00 0.00 0.0 0.00	0.64880112835	0.00	0.00	Rain_/_Snow_Showers(cloudy)	True	False	0.00
2011-03-10 00:00:00 32703 0 0.00 0.00 0.00 0.0 0.00	6.59574468085	0.00	0.00	Light_Rain(cloudy)	True	False	0.00
2011-03-10 01:00:00 32704 1 0.00 0.00 0.00 0.0 0.00	6.59574468085	0.00	0.00	Light_Rain(cloudy)	True	False	0.00
2011-03-10 02:00:00 32705 2 0.00 0.00 0.00 0.0 0.00	6.59574468085	0.00	0.00	Light_Rain(light_rain)	True	False	0.00
2011-03-10 03:00:00 32706 3 0.00 0.00 0.00 0.0 0.00	4.48905932777	0.00	0.00	Rain(light_rain)	True	False	0.00
2011-03-10 04:00:00 32707 4 0.00 0.00 0.00 0.0 0.00	4.48905932777	0.00	0.00	Rain(cloudy)	True	False	0.00
2011-03-10 05:00:00 32708 5 0.00 0.00 0.00 0.0 0.00	4.48905932777	0.00	0.00	Rain(light_rain)	True	False	0.00
2011-03-10 06:00:00 32709 6 1.23 1.23 1.23 0.0 27.30	4.48905932777	1.23	0.00	Rain(light_rain)	True	False	0.00
2011-03-10 07:00:00 32710 7 10.87 10.87 10.87 9.9 242.20	4.48905932777	10.87	9.90	Rain(light_rain)	True	False	9.90
2011-03-10 08:00:00 32711 8 27.29 27.29 27.29 106.2 607.90	4.48905932777	27.29	106.20	Rain(light_rain)	True	False	106.20
2011-03-10 09:00:00 32712 9 124.41 124.41 124.41 176.4 886.60	14.0319131436	124.41	176.40	Cloudy(cloudy)	True	False	176.40
