2011-03-10 12:00:00 35089 12 98.00 1060.80 98.00 64.4 1177.90	8.31989133203	98.00	64.40	Rain(rain)	True	False	64.40
2011-03-10 13:00:00 35090 13 63.98 63.98 97.37 97.3 1170.30	8.31989133203	97.37	97.30	Rain(rain)	True	False	97.30
2011-03-10 14:00:00 35091 14 67.73 59.23 67.73 50.0 1083.30	6.25176271505	67.73	50.00	Light_Rain(light_rain)	True	False	50.00
2011-03-10 15:00:00 35092 15 57.98 50.70 57.98 38.3 927.40	6.25176271505	57.98	38.30	Light_Rain(light_rain)	True	False	38.30
2011-03-10 16:00:00 35093 16 44.70 37.40 44.70 7.9 684.10	6.53379712325	44.70	7.90	Light_Rain(light_rain)	True	False	7.90
2011-03-10 17:00:00 35094 17 15.67 19.08 15.67 0.0 349.00	4.48905932777	15.67	0.00	Showers(light_rain)	True	False	0.00
2011-03-10 18:00:00 35095 18 3.02 3.68 3.02 0.0 67.30	4.48905932777	3.02	0.00	Rain(rain)	True	False	0.00
2011-03-10 19:00:00 35096 19 0.02 0.03 0.02 0.0 0.50	4.48905932777	0.02	0.00	Rain(light_rain)	True	False	0.00
2011-03-10 20:00:00 35097 20 0.00 0.00 0.00 0.0 0.00	4.48905932777	0.00	0.00	Rain(rain)	True	False	0.00
2011-03-10 21:00:00 35098 21 0.00 0.00 0.00 0.0 0.00	4.48905932777	0.00	0.00	Rain(light_rain)	True	False	0.00
2011-03-10 22:00:00 35099 22 0.00 0.00 0.00 0.0 0.00	4.48905932777	0.00	0.00	Rain(cloudy)	True	False	0.00
2011-03-10 23:00:00 35100 23 0.00 0.00 0.00 0.0 0.00	4.48905932777	0.00	0.00	Rain(rain)	True	False	0.00
2011-03-11 00:00:00 35101 0 0.00 0.00 0.00 0.0 0.00	4.48905932777	0.00	0.00	Rain_/_Thunder(rain)	True	False	0.00
2011-03-11 01:00:00 35102 1 0.00 0.00 0.00 0.0 0.00	4.48905932777	0.00	0.00	Rain_/_Thunder(rain)	True	False	0.00
2011-03-11 02:00:00 35103 2 0.00 0.00 0.00 0.0 0.00	4.48905932777	0.00	0.00	Rain_/_Thunder(light_rain)	True	False	0.00
2011-03-11 03:00:00 35104 3 0.00 0.00 0.00 0.0 0.00	4.48905932777	0.00	0.00	Rain_/_Thunder(light_rain)	True	False	0.00
2011-03-11 04:00:00 35105 4 0.00 0.00 0.00 0.0 0.00	4.48905932777	0.00	0.00	Rain_/_Thunder(light_rain)	True	False	0.00
2011-03-11 05:00:00 35106 5 0.00 0.00 0.00 0.0 0.00	4.48905932777	0.00	0.00	Rain_/_Thunder(mostly_cloudy)	True	False	0.00
2011-03-11 06:00:00 35107 6 1.78 1.78 1.78 0.0 27.30	6.53379712325	1.78	0.00	Few_Showers(cloudy)	True	False	0.00
2011-03-11 07:00:00 35108 7 15.82 15.82 15.82 36.9 242.20	6.53379712325	15.82	36.90	Few_Showers(light_rain)	True	False	36.90
2011-03-11 08:00:00 35109 8 39.72 39.72 39.72 142.0 607.90	6.53379712325	39.72	142.00	Few_Showers(cloudy)	True	False	142.00
2011-03-11 09:00:00 35110 9 57.93 57.93 57.93 589.4 886.60	6.53379712325	57.93	589.40	Few_Showers(cloudy)	True	False	589.40
2011-03-11 10:00:00 35111 10 66.50 66.50 66.50 360.2 1063.70	6.25176271505	66.50	360.20	Few_Showers(cloudy)	True	False	360.20
2011-03-11 11:00:00 35112 11 71.88 71.88 71.88 675.4 1149.70	6.25176271505	71.88	675.40	Few_Showers(cloudy)	True	False	675.40
2011-03-11 12:00:00 35113 12 614.20 614.20 614.20 558.7 1177.90	52.1436454708	614.20	558.70	Mostly_Cloudy(cloudy)	True	False	558.70
2011-03-11 13:00:00 35114 13 610.24 610.24 610.24 735.1 1170.30	52.1436454708	610.24	735.10	Mostly_Cloudy(mostly_cloudy)	True	False	735.10
2011-03-11 14:00:00 35115 14 564.87 564.87 564.87 791.6 1083.30	52.1436454708	564.87	791.60	Mostly_Cloudy(fair)	True	False	791.60
2011-03-11 15:00:00 35116 15 483.58 483.58 483.58 408.3 927.40	52.1436454708	483.58	408.30	Mostly_Cloudy(sunny)	True	False	408.30
2011-03-11 16:00:00 35117 16 177.48 177.48 177.48 94.2 684.10	25.9434979513	177.48	94.20	Mostly_Cloudy(cloudy)	True	False	94.20
2011-03-11 17:00:00 35118 17 90.54 90.54 90.54 16.0 349.00	25.9434979513	90.54	16.00	Mostly_Cloudy(cloudy)	True	False	16.00
2011-03-11 18:00:00 35119 18 48.05 48.05 48.05 0.0 67.30	71.3923098618	48.05	0.00	Partly_Cloudy(cloudy)	True	False	0.00
2011-03-11 19:00:00 35120 19 0.36 0.36 0.36 0.0 0.50	71.3923098618	0.36	0.00	Partly_Cloudy(cloudy)	True	False	0.00
2011-03-11 20:00:00 35121 20 0.00 0.00 0.00 0.0 0.00	71.3923098618	0.00	0.00	Partly_Cloudy(cloudy)	True	False	0.00
2011-03-11 21:00:00 35122 21 0.00 0.00 0.00 0.0 0.00	71.3923098618	0.00	0.00	Partly_Cloudy(cloudy)	True	False	0.00
2011-03-11 22:00:00 35123 22 0.00 0.00 0.00 0.0 0.00	71.3923098618	0.00	0.00	Partly_Cloudy(cloudy)	True	False	0.00
2011-03-11 23:00:00 35124 23 0.00 0.00 0.00 0.0 0.00	71.3923098618	0.00	0.00	Partly_Cloudy(partly_cloudy)	True	False	0.00
2011-03-12 00:00:00 35125 0 0.00 0.00 0.00 0.0 0.00	25.9434979513	0.00	0.00	Mostly_Cloudy(partly_cloudy)	True	False	0.00
2011-03-12 01:00:00 35126 1 0.00 0.00 0.00 0.0 0.00	25.9434979513	0.00	0.00	Mostly_Cloudy(mostly_cloudy)	True	False	0.00
2011-03-12 02:00:00 35127 2 0.00 0.00 0.00 0.0 0.00	25.9434979513	0.00	0.00	Mostly_Cloudy(partly_cloudy)	True	False	0.00
2011-03-12 03:00:00 35128 3 0.00 0.00 0.00 0.0 0.00	0.636942675159	0.00	0.00	Rain_/_Snow_Showers(mostly_cloudy)	True	False	0.00
2011-03-12 04:00:00 35129 4 0.00 0.00 0.00 0.0 0.00	0.636942675159	0.00	0.00	Rain_/_Snow_Showers(cloudy)	True	False	0.00
2011-03-12 05:00:00 35130 5 0.00 0.00 0.00 0.0 0.00	0.636942675159	0.00	0.00	Rain_/_Snow_Showers(cloudy)	True	False	0.00
2011-03-12 06:00:00 35131 6 19.49 19.49 19.49 0.6 27.30	71.3923098618	19.49	0.60	Partly_Cloudy(cloudy)	True	False	0.60
2011-03-12 07:00:00 35132 7 172.91 172.91 172.91 88.7 242.20	71.3923098618	172.91	88.70	Partly_Cloudy(cloudy)	True	False	88.70
2011-03-12 08:00:00 35133 8 433.99 433.99 433.99 581.6 607.90	71.3923098618	433.99	581.60	Partly_Cloudy(mostly_cloudy)	True	False	581.60
2011-03-12 09:00:00 35134 9 632.96 632.96 632.96 877.2 886.60	71.3923098618	632.96	877.20	Partly_Cloudy(sunny)	True	False	877.20
2011-03-12 10:00:00 35135 10 790.86 790.86 790.86 1048.4 1063.70	74.3498303905	790.86	1048.40	Partly_Cloudy(fair)	True	False	1048.40
2011-03-12 11:00:00 35136 11 854.80 854.80 854.80 948.1 1149.70	74.3498303905	854.80	948.10	Partly_Cloudy(sunny)	True	False	948.10
2011-03-12 12:00:00 35137 12 875.77 875.77 875.77 496.9 1177.90	74.3498303905	875.77	496.90	Partly_Cloudy(sunny)	True	False	496.90
