2011-02-24 02:00:00 18589 2 0.00 0.00 0.00 0.0 0.00	88.8975397073	0.00	0.00	Clear(fair)	True	False	0.00
2011-02-24 03:00:00 18590 3 0.00 0.00 0.00 0.0 0.00	88.8975397073	0.00	0.00	Clear(fair)	True	False	0.00
2011-02-24 04:00:00 18591 4 0.00 0.00 0.00 0.0 0.00	88.8975397073	0.00	0.00	Clear(fair)	True	False	0.00
2011-02-24 05:00:00 18592 5 0.00 0.00 0.00 0.0 0.00	88.8975397073	0.00	0.00	Clear(fair)	True	False	0.00
2011-02-24 06:00:00 18593 6 24.27 24.27 24.27 3.7 27.30	88.8975397073	24.27	3.70	Clear(fair)	True	False	3.70
2011-02-24 07:00:00 18594 7 215.31 215.31 215.31 158.1 242.20	88.8975397073	215.31	158.10	Sunny(fair)	True	False	158.10
2011-02-24 08:00:00 18595 8 540.41 540.41 540.41 379.0 607.90	88.8975397073	540.41	379.00	Sunny(fair)	True	False	379.00
2011-02-24 09:00:00 18596 9 788.17 788.17 788.17 312.4 886.60	88.8975397073	788.17	312.40	Sunny(cloudy)	True	False	312.40
2011-02-24 10:00:00 18597 10 1011.53 1011.53 1011.53 509.4 1063.70	95.0949859857	1011.53	509.40	Sunny(cloudy)	True	False	509.40
2011-02-24 11:00:00 18598 11 1093.31 1093.31 1093.31 445.0 1149.70	95.0949859857	1093.31	445.00	Sunny(fair)	True	False	445.00
2011-02-24 12:00:00 18599 12 834.20 834.20 834.20 479.5 1143.60	72.9450856943	834.20	479.50	Partly_Cloudy(mostly_cloudy)	True	False	479.50
2011-02-24 13:00:00 18600 13 757.02 757.02 757.02 284.2 1037.80	72.9450856943	757.02	284.20	Partly_Cloudy(cloudy)	True	False	284.20
2011-02-24 14:00:00 18601 14 650.23 650.23 650.23 344.9 891.40	72.9450856943	650.23	344.90	Partly_Cloudy(mostly_cloudy)	True	False	344.90
2011-02-24 15:00:00 18602 15 62.90 62.90 62.90 250.5 642.20	9.79385926764	62.90	250.50	Showers(fair)	True	False	250.50
2011-02-24 16:00:00 18603 16 28.80 28.80 28.80 71.0 302.00	9.53757225434	28.80	71.00	Showers(mostly_cloudy)	True	False	71.00
2011-02-24 17:00:00 18604 17 3.30 3.30 3.30 9.5 34.60	9.53757225434	3.30	9.50	Showers(mostly_cloudy)	True	False	9.50
2011-02-24 18:00:00 18605 18 0.00 0.00 0.00 0.0 0.00	9.53757225434	0.00	0.00	Showers(fair)	True	False	0.00
2011-02-24 19:00:00 18606 19 0.00 0.00 0.00 0.0 0.00	9.53757225434	0.00	0.00	Showers(cloudy)	True	False	0.00
2011-02-24 20:00:00 18607 20 0.00 0.00 0.00 0.0 0.00	9.53757225434	0.00	0.00	Showers(cloudy)	True	False	0.00
2011-02-24 21:00:00 18608 21 0.00 0.00 0.00 0.0 0.00	9.53757225434	0.00	0.00	Showers(light_rain)	True	False	0.00
2011-02-24 22:00:00 18609 22 0.00 0.00 0.00 0.0 0.00	9.53757225434	0.00	0.00	Showers(light_rain)	True	False	0.00
2011-02-24 23:00:00 18610 23 0.00 0.00 0.00 0.0 0.00	9.53757225434	0.00	0.00	Showers(cloudy)	True	False	0.00
2011-02-25 00:00:00 18611 0 0.00 0.00 0.00 0.0 0.00	6.53379712325	0.00	0.00	Light_Rain(light_rain)	True	False	0.00
2011-02-25 01:00:00 18612 1 0.00 0.00 0.00 0.0 0.00	6.53379712325	0.00	0.00	Light_Rain(light_rain)	True	False	0.00
2011-02-25 02:00:00 18613 2 0.00 0.00 0.00 0.0 0.00	6.53379712325	0.00	0.00	Light_Rain(light_rain)	True	False	0.00
2011-02-25 03:00:00 18614 3 0.00 0.00 0.00 0.0 0.00	9.53757225434	0.00	0.00	Rain(light_rain)	True	False	0.00
2011-02-25 04:00:00 18615 4 0.00 0.00 0.00 0.0 0.00	9.53757225434	0.00	0.00	Rain(rain)	True	False	0.00
2011-02-25 05:00:00 18616 5 0.00 0.00 0.00 0.0 0.00	9.53757225434	0.00	0.00	Rain(rain)	True	False	0.00
2011-02-25 06:00:00 18617 6 2.60 2.60 2.60 0.0 27.30	9.53757225434	2.60	0.00	Rain(light_rain)	True	False	0.00
2011-02-25 07:00:00 18618 7 23.10 23.10 23.10 0.0 242.20	9.53757225434	23.10	0.00	Rain(light_rain)	True	False	0.00
2011-02-25 08:00:00 18619 8 57.98 57.98 57.98 0.0 607.90	9.53757225434	57.98	0.00	Rain(rain)	True	False	0.00
2011-02-25 09:00:00 18620 9 84.56 84.56 84.56 12.4 886.60	9.53757225434	84.56	12.40	Rain(rain)	True	False	12.40
2011-02-25 10:00:00 18621 10 104.18 104.18 104.18 69.9 1063.70	9.79385926764	104.18	69.90	Rain(light_rain)	True	False	69.90
2011-02-25 11:00:00 18622 11 112.60 112.60 112.60 67.4 1149.70	9.79385926764	112.60	67.40	Rain(rain)	True	False	67.40
2011-02-25 12:00:00 18623 12 112.00 112.00 112.00 71.0 1143.60	9.79385926764	112.00	71.00	Rain(rain)	True	False	71.00
2011-02-25 13:00:00 18624 13 101.64 101.64 101.64 58.3 1037.80	9.79385926764	101.64	58.30	Rain(light_rain)	True	False	58.30
2011-02-25 14:00:00 18625 14 87.30 87.30 87.30 184.5 891.40	9.79385926764	87.30	184.50	Rain(fair)	True	False	184.50
2011-02-25 15:00:00 18626 15 162.96 162.96 162.96 52.0 642.20	25.3760055964	162.96	52.00	Cloudy(mostly_cloudy)	True	False	52.00
2011-02-25 16:00:00 18627 16 69.81 69.81 69.81 84.5 302.00	23.1174203253	69.81	84.50	Cloudy(cloudy)	True	False	84.50
2011-02-25 17:00:00 18628 17 8.00 8.00 8.00 3.7 34.60	23.1174203253	8.00	3.70	Cloudy(cloudy_and_windy)	True	False	3.70
2011-02-25 18:00:00 18629 18 0.00 0.00 0.00 0.0 0.00	69.0440984605	0.00	0.00	Partly_Cloudy_/_Wind(cloudy)	True	False	0.00
2011-02-25 19:00:00 18630 19 0.00 0.00 0.00 0.0 0.00	69.0440984605	0.00	0.00	Partly_Cloudy_/_Wind(cloudy)	True	False	0.00
2011-02-25 20:00:00 18631 20 0.00 0.00 0.00 0.0 0.00	69.0440984605	0.00	0.00	Partly_Cloudy_/_Wind(mostly_cloudy)	True	False	0.00
2011-02-25 21:00:00 18632 21 0.00 0.00 0.00 0.0 0.00	88.8975397073	0.00	0.00	Clear(cloudy_and_windy)	True	False	0.00
2011-02-25 22:00:00 18633 22 0.00 0.00 0.00 0.0 0.00	88.8975397073	0.00	0.00	Clear(mostly_cloudy)	True	False	0.00
2011-02-25 23:00:00 18634 23 0.00 0.00 0.00 0.0 0.00	88.8975397073	0.00	0.00	Clear(fair)	True	False	0.00
2011-02-26 00:00:00 18635 0 0.00 0.00 0.00 0.0 0.00	88.8975397073	0.00	0.00	Clear(fair)	True	False	0.00
2011-02-26 01:00:00 18636 1 0.00 0.00 0.00 0.0 0.00	88.8975397073	0.00	0.00	Clear(fair)	True	False	0.00
