2011-02-23 18:00:00 18213 18 0.00 0.00 0.00 0.0 0.00	88.8975397073	0.00	0.00	Clear(fair)	True	False	0.00
2011-02-23 19:00:00 18214 19 0.00 0.00 0.00 0.0 0.00	88.8975397073	0.00	0.00	Clear(fair)	True	False	0.00
2011-02-23 20:00:00 18215 20 0.00 0.00 0.00 0.0 0.00	88.8975397073	0.00	0.00	Clear(fair)	True	False	0.00
2011-02-23 21:00:00 18216 21 0.00 0.00 0.00 0.0 0.00	88.8975397073	0.00	0.00	Clear(fair)	True	False	0.00
2011-02-23 22:00:00 18217 22 0.00 0.00 0.00 0.0 0.00	88.8975397073	0.00	0.00	Clear(fair)	True	False	0.00
2011-02-23 23:00:00 18218 23 0.00 0.00 0.00 0.0 0.00	88.8975397073	0.00	0.00	Clear(fair)	True	False	0.00
2011-02-24 00:00:00 18219 0 0.00 0.00 0.00 0.0 0.00	88.8975397073	0.00	0.00	Clear(fair)	True	False	0.00
2011-02-24 01:00:00 18220 1 0.00 0.00 0.00 0.0 0.00	88.8975397073	0.00	0.00	Clear(fair)	True	False	0.00
2011-02-24 02:00:00 18221 2 0.00 0.00 0.00 0.0 0.00	88.8975397073	0.00	0.00	Clear(fair)	True	False	0.00
2011-02-24 03:00:00 18222 3 0.00 0.00 0.00 0.0 0.00	88.8975397073	0.00	0.00	Clear(fair)	True	False	0.00
2011-02-24 04:00:00 18223 4 0.00 0.00 0.00 0.0 0.00	88.8975397073	0.00	0.00	Clear(fair)	True	False	0.00
2011-02-24 05:00:00 18224 5 0.00 0.00 0.00 0.0 0.00	88.8975397073	0.00	0.00	Clear(fair)	True	False	0.00
2011-02-24 06:00:00 18225 6 16.36 16.36 16.36 3.7 18.40	88.8975397073	16.36	3.70	Clear(fair)	True	False	3.70
2011-02-24 07:00:00 18226 7 215.31 215.31 215.31 158.1 242.20	88.8975397073	215.31	158.10	Sunny(fair)	True	False	158.10
2011-02-24 08:00:00 18227 8 540.41 540.41 540.41 379.0 607.90	88.8975397073	540.41	379.00	Sunny(fair)	True	False	379.00
2011-02-24 09:00:00 18228 9 788.17 788.17 788.17 312.4 886.60	88.8975397073	788.17	312.40	Sunny(cloudy)	True	False	312.40
2011-02-24 10:00:00 18229 10 1003.08 1003.08 1003.08 509.4 1063.70	94.3008408595	1003.08	509.40	Sunny(cloudy)	True	False	509.40
2011-02-24 11:00:00 18230 11 1084.18 1084.18 1084.18 445.0 1149.70	94.3008408595	1084.18	445.00	Sunny(fair)	True	False	445.00
2011-02-24 12:00:00 18231 12 850.26 850.26 850.26 479.5 1143.60	74.3498303905	850.26	479.50	Partly_Cloudy(mostly_cloudy)	True	False	479.50
2011-02-24 13:00:00 18232 13 771.60 771.60 771.60 284.2 1037.80	74.3498303905	771.60	284.20	Partly_Cloudy(cloudy)	True	False	284.20
2011-02-24 14:00:00 18233 14 662.75 662.75 662.75 344.9 891.40	74.3498303905	662.75	344.90	Partly_Cloudy(mostly_cloudy)	True	False	344.90
2011-02-24 15:00:00 18234 15 62.90 62.90 62.90 250.5 642.20	9.79385926764	62.90	250.50	Showers(fair)	True	False	250.50
2011-02-24 16:00:00 18235 16 28.80 28.80 28.80 71.0 302.00	9.53757225434	28.80	71.00	Showers(mostly_cloudy)	True	False	71.00
2011-02-24 17:00:00 18236 17 3.30 3.30 3.30 9.5 34.60	9.53757225434	3.30	9.50	Showers(mostly_cloudy)	True	False	9.50
2011-02-24 18:00:00 18237 18 0.00 0.00 0.00 0.0 0.00	9.53757225434	0.00	0.00	Showers(fair)	True	False	0.00
2011-02-24 19:00:00 18238 19 0.00 0.00 0.00 0.0 0.00	9.53757225434	0.00	0.00	Showers(cloudy)	True	False	0.00
2011-02-24 20:00:00 18239 20 0.00 0.00 0.00 0.0 0.00	9.53757225434	0.00	0.00	Showers(cloudy)	True	False	0.00
2011-02-24 21:00:00 18240 21 0.00 0.00 0.00 0.0 0.00	9.53757225434	0.00	0.00	Showers(light_rain)	True	False	0.00
2011-02-24 22:00:00 18241 22 0.00 0.00 0.00 0.0 0.00	9.53757225434	0.00	0.00	Showers(light_rain)	True	False	0.00
2011-02-24 23:00:00 18242 23 0.00 0.00 0.00 0.0 0.00	9.53757225434	0.00	0.00	Showers(cloudy)	True	False	0.00
2011-02-25 00:00:00 18243 0 0.00 0.00 0.00 0.0 0.00	6.53379712325	0.00	0.00	Light_Rain(light_rain)	True	False	0.00
2011-02-25 01:00:00 18244 1 0.00 0.00 0.00 0.0 0.00	6.53379712325	0.00	0.00	Light_Rain(light_rain)	True	False	0.00
2011-02-25 02:00:00 18245 2 0.00 0.00 0.00 0.0 0.00	6.53379712325	0.00	0.00	Light_Rain(light_rain)	True	False	0.00
2011-02-25 03:00:00 18246 3 0.00 0.00 0.00 0.0 0.00	9.53757225434	0.00	0.00	Rain(light_rain)	True	False	0.00
2011-02-25 04:00:00 18247 4 0.00 0.00 0.00 0.0 0.00	9.53757225434	0.00	0.00	Rain(rain)	True	False	0.00
2011-02-25 05:00:00 18248 5 0.00 0.00 0.00 0.0 0.00	9.53757225434	0.00	0.00	Rain(rain)	True	False	0.00
2011-02-25 06:00:00 18249 6 1.75 1.75 1.75 0.0 18.40	9.53757225434	1.75	0.00	Rain(light_rain)	True	False	0.00
