2011-02-19 12:00:00 13326 12 846.26 846.26 753.46 717.1 1129.20	74.9430124496	753.46	717.10	Partly_Cloudy/Wind(cloudy_and_windy)	True	False	717.10
2011-02-19 13:00:00 13327 13 268.13 268.13 656.52 577.3 1033.80	25.9368181387	656.52	577.30	Mostly_Cloudy/Wind(cloudy_and_windy)	True	False	577.30
2011-02-19 14:00:00 13328 14 221.68 221.68 542.78 467.3 854.70	25.9368181387	542.78	467.30	Mostly_Cloudy/Wind(mostly_cloudy_and_windy)	True	False	467.30
2011-02-19 15:00:00 13329 15 161.95 161.95 396.53 203.6 624.40	25.9368181387	396.53	203.60	Mostly_Cloudy/Wind(mostly_cloudy)	True	False	203.60
2011-02-19 16:00:00 13330 16 62.21 62.21 175.21 64.1 275.90	22.5482912333	175.21	64.10	Mostly_Cloudy/Wind(mostly_cloudy_and_windy)	True	False	64.10
2011-02-19 17:00:00 13331 17 6.67 6.67 18.80 6.0 29.60	22.5482912333	18.80	6.00	Mostly_Cloudy/Wind(cloudy_and_windy)	True	False	6.00
2011-02-19 18:00:00 13332 18 0.00 0.00 0.00 0.0 0.00	22.5482912333	0.00	0.00	Mostly_Cloudy_/_Wind(cloudy)	True	False	0.00
2011-02-19 19:00:00 13333 19 0.00 0.00 0.00 0.0 0.00	22.5482912333	0.00	0.00	Mostly_Cloudy_/_Wind(cloudy_and_windy)	True	False	0.00
2011-02-19 20:00:00 13334 20 0.00 0.00 0.00 0.0 0.00	22.5482912333	0.00	0.00	Mostly_Cloudy_/_Wind(cloudy)	True	False	0.00
2011-02-19 21:00:00 13335 21 0.00 0.00 0.00 0.0 0.00	69.5949500263	0.00	0.00	Partly_Cloudy_/_Wind(cloudy)	True	False	0.00
2011-02-19 22:00:00 13336 22 0.00 0.00 0.00 0.0 0.00	69.5949500263	0.00	0.00	Partly_Cloudy_/_Wind(cloudy_and_windy)	True	False	0.00
2011-02-19 23:00:00 13337 23 0.00 0.00 0.00 0.0 0.00	69.5949500263	0.00	0.00	Partly_Cloudy_/_Wind(fair)	True	False	0.00
2011-02-20 00:00:00 13338 0 0.00 0.00 0.00 0.0 0.00	69.5949500263	0.00	0.00	Partly_Cloudy(cloudy_and_windy)	True	False	0.00
2011-02-20 01:00:00 13339 1 0.00 0.00 0.00 0.0 0.00	69.5949500263	0.00	0.00	Partly_Cloudy(mostly_cloudy_and_windy)	True	False	0.00
2011-02-20 02:00:00 13340 2 0.00 0.00 0.00 0.0 0.00	69.5949500263	0.00	0.00	Partly_Cloudy(mostly_cloudy_and_windy)	True	False	0.00
2011-02-20 03:00:00 13341 3 0.00 0.00 0.00 0.0 0.00	69.5949500263	0.00	0.00	Mostly_Clear(fair)	False	False	0.00
2011-02-20 04:00:00 13342 4 0.00 0.00 0.00 0.0 0.00	69.5949500263	0.00	0.00	Mostly_Clear(fair)	False	False	0.00
2011-02-20 05:00:00 13343 5 0.00 0.00 0.00 0.0 0.00	69.5949500263	0.00	0.00	Mostly_Clear(fair)	False	False	0.00
2011-02-20 06:00:00 13344 6 6.13 6.13 6.13 1.4 9.60	63.8808280132	6.13	1.40	Clear(fair)	True	False	1.40
2011-02-20 07:00:00 13345 7 128.27 128.27 128.27 147.1 200.80	63.8808280132	128.27	147.10	Sunny(fair)	True	False	147.10
2011-02-20 08:00:00 13346 8 356.07 356.07 356.07 522.3 557.40	63.8808280132	356.07	522.30	Sunny(fair)	True	False	522.30
2011-02-20 09:00:00 13347 9 515.90 515.90 515.90 808.3 807.60	63.8808280132	515.90	808.30	Sunny(fair)	True	False	808.30
2011-02-20 10:00:00 13348 10 703.35 703.35 703.35 969.8 1054.10	66.7251667252	703.35	969.80	Sunny(fair)	True	False	969.80
2011-02-20 11:00:00 13349 11 761.07 761.07 761.07 1044.4 1140.60	66.7251667252	761.07	1044.40	Sunny(fair)	True	False	1044.40
2011-02-20 12:00:00 13350 12 753.46 753.46 753.46 1023.0 1129.20	66.7251667252	753.46	1023.00	Mostly_Sunny(fair)	False	False	1023.00
2011-02-20 13:00:00 13351 13 689.80 689.80 689.80 998.1 1033.80	66.7251667252	689.80	998.10	Mostly_Sunny(fair)	False	False	998.10
2011-02-20 14:00:00 13352 14 570.30 570.30 570.30 846.9 854.70	66.7251667252	570.30	846.90	Mostly_Sunny(fair)	False	False	846.90
2011-02-20 15:00:00 13353 15 161.95 161.95 161.95 565.0 624.40	25.9368181387	161.95	565.00	Mostly_Cloudy(fair)	True	False	565.00
2011-02-20 16:00:00 13354 16 62.21 62.21 62.21 164.0 275.90	22.5482912333	62.21	164.00	Mostly_Cloudy(fair)	True	False	164.00
2011-02-20 17:00:00 13355 17 6.67 6.67 6.67 11.6 29.60	22.5482912333	6.67	11.60	Mostly_Cloudy(fair)	True	False	11.60
2011-02-20 18:00:00 13356 18 0.00 0.00 0.00 0.0 0.00	24.4534726253	0.00	0.00	Cloudy(fair)	True	False	0.00
2011-02-20 19:00:00 13357 19 0.00 0.00 0.00 0.0 0.00	24.4534726253	0.00	0.00	Cloudy(fair)	True	False	0.00
2011-02-20 20:00:00 13358 20 0.00 0.00 0.00 0.0 0.00	24.4534726253	0.00	0.00	Cloudy(mostly_cloudy)	True	False	0.00
2011-02-20 21:00:00 13359 21 0.00 0.00 0.00 0.0 0.00	0.368227248816	0.00	0.00	Snow_Shower(mostly_cloudy)	True	False	0.00
2011-02-20 22:00:00 13360 22 0.00 0.00 0.00 0.0 0.00	0.368227248816	0.00	0.00	Snow_Shower(cloudy)	True	False	0.00
2011-02-20 23:00:00 13361 23 0.00 0.00 0.00 0.0 0.00	0.368227248816	0.00	0.00	Snow_Shower(cloudy)	True	False	0.00
2011-02-21 00:00:00 13362 0 0.00 0.00 0.00 0.0 0.00	0.656265477959	0.00	0.00	Light_Snow(cloudy)	True	False	0.00
2011-02-21 01:00:00 13363 1 0.00 0.00 0.00 0.0 0.00	0.656265477959	0.00	0.00	Light_Snow(light_snow)	True	False	0.00
2011-02-21 02:00:00 13364 2 0.00 0.00 0.00 0.0 0.00	0.656265477959	0.00	0.00	Light_Snow(light_snow)	True	False	0.00
2011-02-21 03:00:00 13365 3 0.00 0.00 0.00 0.0 0.00	6.59330234323	0.00	0.00	Light_Freezing_Rain(snow)	True	False	0.00
2011-02-21 04:00:00 13366 4 0.00 0.00 0.00 0.0 0.00	6.59330234323	0.00	0.00	Light_Freezing_Rain(snow)	True	False	0.00
2011-02-21 05:00:00 13367 5 0.00 0.00 0.00 0.0 0.00	6.59330234323	0.00	0.00	Light_Freezing_Rain(light_snow)	True	False	0.00
2011-02-21 06:00:00 13368 6 0.63 0.63 0.63 0.0 9.60	6.59330234323	0.63	0.00	Light_Rain(light_snow)	True	False	0.00
2011-02-21 07:00:00 13369 7 13.24 13.24 13.24 0.0 200.80	6.59330234323	13.24	0.00	Light_Rain(light_snow)	True	False	0.00
2011-02-21 08:00:00 13370 8 36.75 36.75 36.75 1.3 557.40	6.59330234323	36.75	1.30	Light_Rain(cloudy)	True	False	1.30
2011-02-21 09:00:00 13371 9 53.25 53.25 53.25 13.3 807.60	6.59330234323	53.25	13.30	Light_Rain(light_snow)	True	False	13.30
2011-02-21 10:00:00 13372 10 69.50 69.50 69.50 29.3 1054.10	6.59330234323	69.50	29.30	Light_Rain(cloudy)	True	False	29.30
2011-02-21 11:00:00 13373 11 75.20 75.20 75.20 43.0 1140.60	6.59330234323	75.20	43.00	Light_Rain(cloudy)	True	False	43.00
2011-02-21 12:00:00 13374 12 111.47 111.47 111.47 47.2 1129.20	9.87199719446	111.47	47.20	Showers(cloudy)	True	False	47.20
