2011-03-01 22:00:00 25247 22 0.00 0.00 0.00 0.0 0.00	94.1931238691	0.00	0.00	Clear(fair)	True	False	0.00
2011-03-01 23:00:00 25248 23 0.00 0.00 0.00 0.0 0.00	94.1931238691	0.00	0.00	Clear(fair)	True	False	0.00
2011-03-02 00:00:00 25249 0 0.00 0.00 0.00 0.0 0.00	94.1931238691	0.00	0.00	Mostly_Clear(fair)	False	False	0.00
2011-03-02 01:00:00 25250 1 0.00 0.00 0.00 0.0 0.00	71.5022735222	0.00	0.00	Partly_Cloudy(fair)	True	False	0.00
2011-03-02 02:00:00 25251 2 0.00 0.00 0.00 0.0 0.00	71.5022735222	0.00	0.00	Partly_Cloudy(fair)	True	False	0.00
2011-03-02 03:00:00 25252 3 0.00 0.00 0.00 0.0 0.00	71.5022735222	0.00	0.00	Partly_Cloudy(fair)	True	False	0.00
2011-03-02 04:00:00 25253 4 0.00 0.00 0.00 0.0 0.00	71.5022735222	0.00	0.00	Partly_Cloudy(fair)	True	False	0.00
2011-03-02 05:00:00 25254 5 0.00 0.00 0.00 0.0 0.00	71.5022735222	0.00	0.00	Partly_Cloudy(fair)	True	False	0.00
2011-03-02 06:00:00 25255 6 25.71 25.71 25.71 8.3 27.30	94.1931238691	25.71	8.30	Clear(fair)	True	False	8.30
2011-03-02 07:00:00 25256 7 228.14 228.14 228.14 187.1 242.20	94.1931238691	228.14	187.10	Sunny(fair)	True	False	187.10
2011-03-02 08:00:00 25257 8 572.60 572.60 572.60 517.9 607.90	94.1931238691	572.60	517.90	Sunny(fair)	True	False	517.90
2011-03-02 09:00:00 25258 9 835.12 835.12 835.12 813.0 886.60	94.1931238691	835.12	813.00	Sunny(partly_cloudy)	True	False	813.00
2011-03-02 10:00:00 25259 10 1020.96 1020.96 1020.96 978.2 1063.70	95.9818847562	1020.96	978.20	Sunny(fair)	True	False	978.20
2011-03-02 11:00:00 25260 11 1103.50 1103.50 1103.50 1079.3 1149.70	95.9818847562	1103.50	1079.30	Sunny(fair)	True	False	1079.30
2011-03-02 12:00:00 25261 12 1097.65 1097.65 1097.65 1098.6 1143.60	95.9818847562	1097.65	1098.60	Sunny(fair)	True	False	1098.60
2011-03-02 13:00:00 25262 13 996.10 996.10 996.10 987.9 1037.80	95.9818847562	996.10	987.90	Sunny(fair)	True	False	987.90
2011-03-02 14:00:00 25263 14 855.58 855.58 855.58 279.6 891.40	95.9818847562	855.58	279.60	Sunny(mostly_cloudy)	True	False	279.60
2011-03-02 15:00:00 25264 15 616.40 616.40 616.40 438.9 642.20	95.9818847562	616.40	438.90	Sunny(fair)	True	False	438.90
2011-03-02 16:00:00 25265 16 284.46 284.46 284.46 252.5 302.00	94.1931238691	284.46	252.50	Sunny(fair)	True	False	252.50
2011-03-02 17:00:00 25266 17 32.59 32.59 32.59 29.6 34.60	94.1931238691	32.59	29.60	Sunny(mostly_cloudy)	True	False	29.60
2011-03-02 18:00:00 25267 18 4.62 4.62 4.62 0.0 4.90	94.1931238691	4.62	0.00	Clear(fair)	True	False	0.00
2011-03-02 19:00:00 25268 19 0.00 0.00 0.00 0.0 0.00	94.1931238691	0.00	0.00	Clear(fair)	True	False	0.00
2011-03-02 20:00:00 25269 20 0.00 0.00 0.00 0.0 0.00	94.1931238691	0.00	0.00	Clear(fair)	True	False	0.00
2011-03-02 21:00:00 25270 21 0.00 0.00 0.00 0.0 0.00	94.1931238691	0.00	0.00	Clear(fair)	True	False	0.00
2011-03-02 22:00:00 25271 22 0.00 0.00 0.00 0.0 0.00	94.1931238691	0.00	0.00	Clear(fair)	True	False	0.00
2011-03-02 23:00:00 25272 23 0.00 0.00 0.00 0.0 0.00	94.1931238691	0.00	0.00	Clear(fair)	True	False	0.00
2011-03-03 00:00:00 25273 0 0.00 0.00 0.00 0.0 0.00	94.1931238691	0.00	0.00	Clear(fair)	True	False	0.00
2011-03-03 01:00:00 25274 1 0.00 0.00 0.00 0.0 0.00	94.1931238691	0.00	0.00	Clear(fair)	True	False	0.00
2011-03-03 02:00:00 25275 2 0.00 0.00 0.00 0.0 0.00	94.1931238691	0.00	0.00	Clear(fair)	True	False	0.00
2011-03-03 03:00:00 25276 3 0.00 0.00 0.00 0.0 0.00	94.1931238691	0.00	0.00	Clear(fair)	True	False	0.00
2011-03-03 04:00:00 25277 4 0.00 0.00 0.00 0.0 0.00	94.1931238691	0.00	0.00	Clear(fair)	True	False	0.00
2011-03-03 05:00:00 25278 5 0.00 0.00 0.00 0.0 0.00	94.1931238691	0.00	0.00	Clear(fair)	True	False	0.00
2011-03-03 06:00:00 25279 6 25.71 25.71 25.71 9.3 27.30	94.1931238691	25.71	9.30	Clear(fair)	True	False	9.30
2011-03-03 07:00:00 25280 7 228.14 228.14 228.14 226.7 242.20	94.1931238691	228.14	226.70	Sunny(fair)	True	False	226.70
2011-03-03 08:00:00 25281 8 572.60 572.60 572.60 605.9 607.90	94.1931238691	572.60	605.90	Sunny(fair)	True	False	605.90
2011-03-03 09:00:00 25282 9 835.12 835.12 835.12 914.7 886.60	94.1931238691	835.12	914.70	Sunny(fair)	True	False	914.70
2011-03-03 10:00:00 25283 10 1020.96 1020.96 1020.96 1099.4 1063.70	95.9818847562	1020.96	1099.40	Sunny(fair)	True	False	1099.40
2011-03-03 11:00:00 25284 11 1103.50 1103.50 1103.50 1183.5 1149.70	95.9818847562	1103.50	1183.50	Sunny(fair)	True	False	1183.50
2011-03-03 12:00:00 25285 12 1097.65 1097.65 1097.65 1174.4 1143.60	95.9818847562	1097.65	1174.40	Sunny(fair)	True	False	1174.40
2011-03-03 13:00:00 25286 13 996.10 996.10 996.10 1068.6 1037.80	95.9818847562	996.10	1068.60	Sunny(fair)	True	False	1068.60
2011-03-03 14:00:00 25287 14 855.58 855.58 855.58 904.4 891.40	95.9818847562	855.58	904.40	Sunny(fair)	True	False	904.40
2011-03-03 15:00:00 25288 15 616.40 616.40 616.40 640.6 642.20	95.9818847562	616.40	640.60	Mostly_Sunny(fair)	False	False	640.60
2011-03-03 16:00:00 25289 16 289.87 289.87 289.87 274.8 302.00	95.9818847562	289.87	274.80	Mostly_Sunny(fair)	False	False	274.80
2011-03-03 17:00:00 25290 17 33.21 33.21 33.21 31.2 34.60	95.9818847562	33.21	31.20	Mostly_Sunny(fair)	False	False	31.20
2011-03-03 18:00:00 25291 18 3.50 3.50 3.50 0.0 4.90	71.5022735222	3.50	0.00	Partly_Cloudy(fair)	True	False	0.00
2011-03-03 19:00:00 25292 19 0.00 0.00 0.00 0.0 0.00	71.5022735222	0.00	0.00	Partly_Cloudy(fair)	True	False	0.00
2011-03-03 20:00:00 25293 20 0.00 0.00 0.00 0.0 0.00	71.5022735222	0.00	0.00	Partly_Cloudy(fair)	True	False	0.00
2011-03-03 21:00:00 25294 21 0.00 0.00 0.00 0.0 0.00	71.5022735222	0.00	0.00	Partly_Cloudy(fair)	True	False	0.00
2011-03-03 22:00:00 25295 22 0.00 0.00 0.00 0.0 0.00	71.5022735222	0.00	0.00	Partly_Cloudy(fair)	True	False	0.00
