2011-02-22 13:00:00 16823 13 922.58 922.58 922.58 1025.6 1037.80	88.8975397073	922.58	1025.60	Sunny(fair)	True	False	1025.60
2011-02-22 14:00:00 16824 14 792.43 792.43 792.43 859.0 891.40	88.8975397073	792.43	859.00	Sunny(fair)	True	False	859.00
2011-02-22 15:00:00 16825 15 570.90 570.90 570.90 593.7 642.20	88.8975397073	570.90	593.70	Sunny(fair)	True	False	593.70
2011-02-22 16:00:00 16826 16 240.10 240.10 268.47 239.6 302.00	79.5032077644	268.47	239.60	Sunny(fair)	True	False	239.60
2011-02-22 17:00:00 16827 17 26.79 26.79 29.96 11.7 33.70	79.5032077644	29.96	11.70	Sunny(fair)	True	False	11.70
2011-02-22 18:00:00 16828 18 0.00 0.00 0.00 0.0 0.00	79.5032077644	0.00	0.00	Clear(fair)	True	False	0.00
2011-02-22 19:00:00 16829 19 0.00 0.00 0.00 0.0 0.00	79.5032077644	0.00	0.00	Clear(fair)	True	False	0.00
2011-02-22 20:00:00 16830 20 0.00 0.00 0.00 0.0 0.00	79.5032077644	0.00	0.00	Clear(fair)	True	False	0.00
2011-02-22 21:00:00 16831 21 0.00 0.00 0.00 0.0 0.00	79.5032077644	0.00	0.00	Clear(fair)	True	False	0.00
2011-02-22 22:00:00 16832 22 0.00 0.00 0.00 0.0 0.00	79.5032077644	0.00	0.00	Clear(fair)	True	False	0.00
2011-02-22 23:00:00 16833 23 0.00 0.00 0.00 0.0 0.00	79.5032077644	0.00	0.00	Clear(fair)	True	False	0.00
2011-02-23 00:00:00 16834 0 0.00 0.00 0.00 0.0 0.00	79.5032077644	0.00	0.00	Clear(fair)	True	False	0.00
2011-02-23 01:00:00 16835 1 0.00 0.00 0.00 0.0 0.00	79.5032077644	0.00	0.00	Clear(fair)	True	False	0.00
2011-02-23 02:00:00 16836 2 0.00 0.00 0.00 0.0 0.00	79.5032077644	0.00	0.00	Clear(fair)	True	False	0.00
2011-02-23 03:00:00 16837 3 0.00 0.00 0.00 0.0 0.00	79.5032077644	0.00	0.00	Clear(fair)	True	False	0.00
2011-02-23 04:00:00 16838 4 0.00 0.00 0.00 0.0 0.00	79.5032077644	0.00	0.00	Clear(fair)	True	False	0.00
2011-02-23 05:00:00 16839 5 0.00 0.00 0.00 0.0 0.00	79.5032077644	0.00	0.00	Clear(fair)	True	False	0.00
2011-02-23 06:00:00 16840 6 14.15 14.15 14.15 3.2 17.80	79.5032077644	14.15	3.20	Clear(fair)	True	False	3.20
2011-02-23 07:00:00 16841 7 192.56 192.56 192.56 171.6 242.20	79.5032077644	192.56	171.60	Sunny(fair)	True	False	171.60
2011-02-23 08:00:00 16842 8 483.30 483.30 483.30 533.0 607.90	79.5032077644	483.30	533.00	Sunny(fair)	True	False	533.00
2011-02-23 09:00:00 16843 9 704.88 704.88 704.88 824.3 886.60	79.5032077644	704.88	824.30	Sunny(fair)	True	False	824.30
2011-02-23 10:00:00 16844 10 945.60 945.60 945.60 999.3 1063.70	88.8975397073	945.60	999.30	Sunny(fair)	True	False	999.30
2011-02-23 11:00:00 16845 11 1022.06 1022.06 1022.06 1082.7 1149.70	88.8975397073	1022.06	1082.70	Sunny(fair)	True	False	1082.70
2011-02-23 12:00:00 16846 12 1016.63 1016.63 1016.63 1086.2 1143.60	88.8975397073	1016.63	1086.20	Sunny(fair)	True	False	1086.20
2011-02-23 13:00:00 16847 13 922.58 922.58 922.58 983.5 1037.80	88.8975397073	922.58	983.50	Sunny(fair)	True	False	983.50
2011-02-23 14:00:00 16848 14 792.43 792.43 792.43 828.7 891.40	88.8975397073	792.43	828.70	Sunny(fair)	True	False	828.70
2011-02-23 15:00:00 16849 15 570.90 570.90 570.90 573.7 642.20	88.8975397073	570.90	573.70	Sunny(fair)	True	False	573.70
2011-02-23 16:00:00 16850 16 240.10 240.10 240.10 236.0 302.00	79.5032077644	240.10	236.00	Sunny(fair)	True	False	236.00
2011-02-23 17:00:00 16851 17 26.79 26.79 26.79 13.2 33.70	79.5032077644	26.79	13.20	Sunny(fair)	True	False	13.20
2011-02-23 18:00:00 16852 18 0.00 0.00 0.00 0.0 0.00	79.5032077644	0.00	0.00	Clear(fair)	True	False	0.00
2011-02-23 19:00:00 16853 19 0.00 0.00 0.00 0.0 0.00	79.5032077644	0.00	0.00	Clear(fair)	True	False	0.00
2011-02-23 20:00:00 16854 20 0.00 0.00 0.00 0.0 0.00	79.5032077644	0.00	0.00	Clear(fair)	True	False	0.00
2011-02-23 21:00:00 16855 21 0.00 0.00 0.00 0.0 0.00	79.5032077644	0.00	0.00	Clear(fair)	True	False	0.00
2011-02-23 22:00:00 16856 22 0.00 0.00 0.00 0.0 0.00	79.5032077644	0.00	0.00	Clear(fair)	True	False	0.00
2011-02-23 23:00:00 16857 23 0.00 0.00 0.00 0.0 0.00	79.5032077644	0.00	0.00	Clear(fair)	True	False	0.00
2011-02-24 00:00:00 16858 0 0.00 0.00 0.00 0.0 0.00	79.5032077644	0.00	0.00	Clear(fair)	True	False	0.00
2011-02-24 01:00:00 16859 1 0.00 0.00 0.00 0.0 0.00	79.5032077644	0.00	0.00	Clear(fair)	True	False	0.00
2011-02-24 02:00:00 16860 2 0.00 0.00 0.00 0.0 0.00	79.5032077644	0.00	0.00	Clear(fair)	True	False	0.00
2011-02-24 03:00:00 16861 3 0.00 0.00 0.00 0.0 0.00	79.5032077644	0.00	0.00	Clear(fair)	True	False	0.00
2011-02-24 04:00:00 16862 4 0.00 0.00 0.00 0.0 0.00	79.5032077644	0.00	0.00	Clear(fair)	True	False	0.00
2011-02-24 05:00:00 16863 5 0.00 0.00 0.00 0.0 0.00	79.5032077644	0.00	0.00	Clear(fair)	True	False	0.00
2011-02-24 06:00:00 16864 6 14.15 14.15 14.15 3.7 17.80	79.5032077644	14.15	3.70	Clear(fair)	True	False	3.70
2011-02-24 07:00:00 16865 7 192.56 192.56 192.56 158.1 242.20	79.5032077644	192.56	158.10	Sunny(fair)	True	False	158.10
2011-02-24 08:00:00 16866 8 483.30 483.30 483.30 379.0 607.90	79.5032077644	483.30	379.00	Sunny(fair)	True	False	379.00
2011-02-24 09:00:00 16867 9 704.88 704.88 704.88 312.4 886.60	79.5032077644	704.88	312.40	Sunny(cloudy)	True	False	312.40
2011-02-24 10:00:00 16868 10 945.60 945.60 945.60 509.4 1063.70	88.8975397073	945.60	509.40	Sunny(cloudy)	True	False	509.40
2011-02-24 11:00:00 16869 11 1022.06 1022.06 1022.06 445.0 1149.70	88.8975397073	1022.06	445.00	Sunny(fair)	True	False	445.00
2011-02-24 12:00:00 16870 12 1016.63 1016.63 1016.63 479.5 1143.60	88.8975397073	1016.63	479.50	Sunny(mostly_cloudy)	True	False	479.50
2011-02-24 13:00:00 16871 13 922.58 922.58 922.58 284.2 1037.80	88.8975397073	922.58	284.20	Sunny(cloudy)	True	False	284.20
