2011-03-06 18:00:00 30791 18 7.92 49.34 7.92 0.0 53.80	14.7294479201	7.92	0.00	Cloudy(rain)	True	False	0.00
2011-03-06 19:00:00 30792 19 0.00 0.00 0.00 0.0 0.10	4.52377035697	0.00	0.00	Rain(rain)	True	False	0.00
2011-03-06 20:00:00 30793 20 0.00 0.00 0.00 0.0 0.00	4.52377035697	0.00	0.00	Rain(rain)	True	False	0.00
2011-03-06 21:00:00 30794 21 0.00 0.00 0.00 0.0 0.00	4.52377035697	0.00	0.00	Rain(light_rain)	True	False	0.00
2011-03-06 22:00:00 30795 22 0.00 0.00 0.00 0.0 0.00	5.58312655087	0.00	0.00	Light_Rain(light_rain)	True	False	0.00
2011-03-06 23:00:00 30796 23 0.00 0.00 0.00 0.0 0.00	5.58312655087	0.00	0.00	Light_Rain(light_rain)	True	False	0.00
2011-03-07 00:00:00 30797 0 0.00 0.00 0.00 0.0 0.00	4.52377035697	0.00	0.00	Showers(light_rain)	True	False	0.00
2011-03-07 01:00:00 30798 1 0.00 0.00 0.00 0.0 0.00	4.52377035697	0.00	0.00	Showers(light_rain)	True	False	0.00
2011-03-07 02:00:00 30799 2 0.00 0.00 0.00 0.0 0.00	4.52377035697	0.00	0.00	Showers(light_rain)	True	False	0.00
2011-03-07 03:00:00 30800 3 0.00 0.00 0.00 0.0 0.00	14.7294479201	0.00	0.00	Cloudy(light_rain)	True	False	0.00
2011-03-07 04:00:00 30801 4 0.00 0.00 0.00 0.0 0.00	14.7294479201	0.00	0.00	Cloudy(cloudy)	True	False	0.00
2011-03-07 05:00:00 30802 5 0.00 0.00 0.00 0.0 0.00	14.7294479201	0.00	0.00	Cloudy(cloudy)	True	False	0.00
2011-03-07 06:00:00 30803 6 7.21 7.21 7.21 1.8 27.30	26.4076391176	7.21	1.80	Mostly_Cloudy_/_Wind(cloudy)	True	False	1.80
2011-03-07 07:00:00 30804 7 63.96 63.96 63.96 222.2 242.20	26.4076391176	63.96	222.20	Mostly_Cloudy_/_Wind(cloudy)	True	False	222.20
2011-03-07 08:00:00 30805 8 160.53 160.53 160.53 611.2 607.90	26.4076391176	160.53	611.20	Mostly_Cloudy_/_Wind(fair_and_windy)	True	False	611.20
2011-03-07 09:00:00 30806 9 653.59 653.59 653.59 883.7 886.60	73.7188528444	653.59	883.70	Partly_Cloudy_/_Wind(fair_and_windy)	True	False	883.70
2011-03-07 10:00:00 30807 10 784.15 784.15 784.15 1077.1 1063.70	73.7188528444	784.15	1077.10	Partly_Cloudy_/_Wind(fair)	True	False	1077.10
2011-03-07 11:00:00 30808 11 847.55 847.55 847.55 1170.2 1149.70	73.7188528444	847.55	1170.20	Partly_Cloudy_/_Wind(fair)	True	False	1170.20
2011-03-07 12:00:00 30809 12 1054.99 1054.99 1054.99 1173.4 1150.40	91.706629055	1054.99	1173.40	Sunny_/_Wind(fair_and_windy)	True	False	1173.40
2011-03-07 13:00:00 30810 13 1056.64 1056.64 1056.64 1067.9 1152.20	91.706629055	1056.64	1067.90	Sunny_/_Wind(fair)	True	False	1067.90
2011-03-07 14:00:00 30811 14 975.30 975.30 975.30 913.8 1063.50	91.706629055	975.30	913.80	Sunny_/_Wind(fair)	True	False	913.80
2011-03-07 15:00:00 30812 15 835.54 835.54 835.54 653.0 911.10	91.706629055	835.54	653.00	Sunny(fair)	True	False	653.00
2011-03-07 16:00:00 30813 16 589.48 589.48 589.48 307.0 663.40	88.8579629469	589.48	307.00	Sunny(fair)	True	False	307.00
2011-03-07 17:00:00 30814 17 292.34 292.34 292.34 32.2 329.00	88.8579629469	292.34	32.20	Sunny(fair)	True	False	32.20
2011-03-07 18:00:00 30815 18 47.81 47.81 47.81 0.0 53.80	88.8579629469	47.81	0.00	Clear(fair)	True	False	0.00
2011-03-07 19:00:00 30816 19 0.09 0.09 0.09 0.0 0.10	88.8579629469	0.09	0.00	Clear(fair)	True	False	0.00
2011-03-07 20:00:00 30817 20 0.00 0.00 0.00 0.0 0.00	88.8579629469	0.00	0.00	Clear(fair)	True	False	0.00
2011-03-07 21:00:00 30818 21 0.00 0.00 0.00 0.0 0.00	88.8579629469	0.00	0.00	Clear(fair)	True	False	0.00
2011-03-07 22:00:00 30819 22 0.00 0.00 0.00 0.0 0.00	88.8579629469	0.00	0.00	Clear(fair)	True	False	0.00
2011-03-07 23:00:00 30820 23 0.00 0.00 0.00 0.0 0.00	88.8579629469	0.00	0.00	Clear(fair)	True	False	0.00
2011-03-08 00:00:00 30821 0 0.00 0.00 0.00 0.0 0.00	88.8579629469	0.00	0.00	Clear(fair)	True	False	0.00
2011-03-08 01:00:00 30822 1 0.00 0.00 0.00 0.0 0.00	88.8579629469	0.00	0.00	Clear(fair)	True	False	0.00
2011-03-08 02:00:00 30823 2 0.00 0.00 0.00 0.0 0.00	88.8579629469	0.00	0.00	Clear(fair)	True	False	0.00
2011-03-08 03:00:00 30824 3 0.00 0.00 0.00 0.0 0.00	88.8579629469	0.00	0.00	Clear(fair)	True	False	0.00
2011-03-08 04:00:00 30825 4 0.00 0.00 0.00 0.0 0.00	88.8579629469	0.00	0.00	Clear(fair)	True	False	0.00
2011-03-08 05:00:00 30826 5 0.00 0.00 0.00 0.0 0.00	88.8579629469	0.00	0.00	Clear(fair)	True	False	0.00
2011-03-08 06:00:00 30827 6 24.26 24.26 24.26 19.4 27.30	88.8579629469	24.26	19.40	Mostly_Clear(fair)	False	False	19.40
