2011-03-15 19:00:00 41170 19 0.13 0.89 0.13 0.0 1.00	12.6032878142	0.13	0.00	Cloudy(partly_cloudy)	True	False	0.00
2011-03-15 20:00:00 41171 20 0.00 0.00 0.00 0.0 0.00	70.3313379985	0.00	0.00	Partly_Cloudy(cloudy)	True	False	0.00
2011-03-15 21:00:00 41172 21 0.00 0.00 0.00 0.0 0.00	70.3313379985	0.00	0.00	Partly_Cloudy(cloudy)	True	False	0.00
2011-03-15 22:00:00 41173 22 0.00 0.00 0.00 0.0 0.00	12.6032878142	0.00	0.00	Cloudy(cloudy)	True	False	0.00
2011-03-15 23:00:00 41174 23 0.00 0.00 0.00 0.0 0.00	12.6032878142	0.00	0.00	Cloudy(cloudy)	True	False	0.00
2011-03-16 00:00:00 41175 0 0.00 0.00 0.00 0.0 0.00	12.6032878142	0.00	0.00	Cloudy(cloudy)	True	False	0.00
2011-03-16 01:00:00 41176 1 0.00 0.00 0.00 0.0 0.00	4.48905932777	0.00	0.00	Showers(cloudy)	True	False	0.00
2011-03-16 02:00:00 41177 2 0.00 0.00 0.00 0.0 0.00	4.48905932777	0.00	0.00	Showers(cloudy)	True	False	0.00
2011-03-16 03:00:00 41178 3 0.00 0.00 0.00 0.0 0.00	4.48905932777	0.00	0.00	Showers(light_rain)	True	False	0.00
2011-03-16 04:00:00 41179 4 0.00 0.00 0.00 0.0 0.00	4.48905932777	0.00	0.00	Rain(cloudy)	True	False	0.00
2011-03-16 05:00:00 41180 5 0.00 0.00 0.00 0.0 0.00	4.48905932777	0.00	0.00	Rain(light_rain)	True	False	0.00
2011-03-16 06:00:00 41181 6 1.23 1.23 1.23 0.0 27.30	4.48905932777	1.23	0.00	Rain(rain)	True	False	0.00
2011-03-16 07:00:00 41182 7 10.87 10.87 10.87 0.0 242.20	4.48905932777	10.87	0.00	Rain(rain)	True	False	0.00
2011-03-16 08:00:00 41183 8 27.29 27.29 27.29 11.2 607.90	4.48905932777	27.29	11.20	Rain(light_rain)	True	False	11.20
2011-03-16 09:00:00 41184 9 39.80 39.80 39.80 73.8 886.60	4.48905932777	39.80	73.80	Rain(light_rain)	True	False	73.80
2011-03-16 10:00:00 41185 10 43.67 43.67 43.67 166.5 1063.70	4.10541880491	43.67	166.50	Showers(fog)	True	False	166.50
2011-03-16 11:00:00 41186 11 47.20 47.20 47.20 329.7 1149.70	4.10541880491	47.20	329.70	Showers(cloudy)	True	False	329.70
2011-03-16 12:00:00 41187 12 48.69 48.69 48.69 441.0 1186.10	4.10541880491	48.69	441.00	Showers(cloudy)	True	False	441.00
2011-03-16 13:00:00 41188 13 718.66 718.66 718.66 537.1 1170.30	61.4082918116	718.66	537.10	Mostly_Cloudy(cloudy)	True	False	537.10
2011-03-16 14:00:00 41189 14 711.05 711.05 711.05 776.9 1157.90	61.4082918116	711.05	776.90	Mostly_Cloudy(mostly_cloudy)	True	False	776.90
2011-03-16 15:00:00 41190 15 608.99 608.99 608.99 803.0 991.70	61.4082918116	608.99	803.00	Mostly_Cloudy(cloudy)	True	False	803.00
2011-03-16 16:00:00 41191 16 481.14 481.14 481.14 444.7 684.10	70.3313379985	481.14	444.70	Partly_Cloudy(mostly_cloudy)	True	False	444.70
2011-03-16 17:00:00 41192 17 245.46 245.46 245.46 256.1 349.00	70.3313379985	245.46	256.10	Partly_Cloudy(cloudy)	True	False	256.10
2011-03-16 18:00:00 41193 18 61.33 61.33 61.33 31.4 87.20	70.3313379985	61.33	31.40	Partly_Cloudy(cloudy)	True	False	31.40
2011-03-16 19:00:00 41194 19 0.70 0.70 0.70 0.0 1.00	70.3313379985	0.70	0.00	Partly_Cloudy(partly_cloudy)	True	False	0.00
2011-03-16 20:00:00 41195 20 0.00 0.00 0.00 0.0 0.00	70.3313379985	0.00	0.00	Partly_Cloudy(mostly_cloudy)	True	False	0.00
2011-03-16 21:00:00 41196 21 0.00 0.00 0.00 0.0 0.00	70.3313379985	0.00	0.00	Partly_Cloudy(cloudy)	True	False	0.00
2011-03-16 22:00:00 41197 22 0.00 0.00 0.00 0.0 0.00	85.36855904	0.00	0.00	Clear(mostly_cloudy)	True	False	0.00
2011-03-16 23:00:00 41198 23 0.00 0.00 0.00 0.0 0.00	85.36855904	0.00	0.00	Clear(fair)	True	False	0.00
2011-03-17 00:00:00 41199 0 0.00 0.00 0.00 0.0 0.00	85.36855904	0.00	0.00	Clear(cloudy)	True	False	0.00
2011-03-17 01:00:00 41200 1 0.00 0.00 0.00 0.0 0.00	85.36855904	0.00	0.00	Clear(mostly_cloudy)	True	False	0.00
2011-03-17 02:00:00 41201 2 0.00 0.00 0.00 0.0 0.00	85.36855904	0.00	0.00	Clear(clear)	True	False	0.00
2011-03-17 03:00:00 41202 3 0.00 0.00 0.00 0.0 0.00	85.36855904	0.00	0.00	Clear(partly_cloudy)	True	False	0.00
2011-03-17 04:00:00 41203 4 0.00 0.00 0.00 0.0 0.00	85.36855904	0.00	0.00	Clear(cloudy)	True	False	0.00
2011-03-17 05:00:00 41204 5 0.00 0.00 0.00 0.0 0.00	85.36855904	0.00	0.00	Clear(cloudy)	True	False	0.00
2011-03-17 06:00:00 41205 6 23.31 23.31 23.31 0.0 27.30	85.36855904	23.31	0.00	Clear(clear)	True	False	0.00
2011-03-17 07:00:00 41206 7 206.76 206.76 206.76 46.9 242.20	85.36855904	206.76	46.90	Clear(sunny)	True	False	46.90
2011-03-17 08:00:00 41207 8 518.96 518.96 518.96 304.7 607.90	85.36855904	518.96	304.70	Sunny(sunny)	True	False	304.70
2011-03-17 09:00:00 41208 9 756.88 756.88 756.88 624.0 886.60	85.36855904	756.88	624.00	Sunny(fair)	True	False	624.00
2011-03-17 10:00:00 41209 10 945.18 945.18 945.18 884.5 1063.70	88.8579629469	945.18	884.50	Sunny(sunny)	True	False	884.50
2011-03-17 11:00:00 41210 11 1021.60 1021.60 1021.60 1043.3 1149.70	88.8579629469	1021.60	1043.30	Sunny(sunny)	True	False	1043.30
2011-03-17 12:00:00 41211 12 1053.94 1053.94 1053.94 1108.3 1186.10	88.8579629469	1053.94	1108.30	Sunny(fair)	True	False	1108.30
2011-03-17 13:00:00 41212 13 1039.90 1039.90 1039.90 1102.3 1170.30	88.8579629469	1039.90	1102.30	Sunny(sunny)	True	False	1102.30
2011-03-17 14:00:00 41213 14 1028.89 1028.89 1028.89 1009.9 1157.90	88.8579629469	1028.89	1009.90	Sunny(sunny)	True	False	1009.90
2011-03-17 15:00:00 41214 15 881.20 881.20 881.20 870.9 991.70	88.8579629469	881.20	870.90	Sunny(sunny)	True	False	870.90
2011-03-17 16:00:00 41215 16 584.01 584.01 584.01 632.5 684.10	85.36855904	584.01	632.50	Sunny(sunny)	True	False	632.50
2011-03-17 17:00:00 41216 17 297.94 297.94 297.94 302.6 349.00	85.36855904	297.94	302.60	Sunny(sunny)	True	False	302.60
2011-03-17 18:00:00 41217 18 74.44 74.44 74.44 59.7 87.20	85.36855904	74.44	59.70	Sunny(sunny)	True	False	59.70
2011-03-17 19:00:00 41218 19 0.70 0.70 0.70 0.0 1.00	70.3313379985	0.70	0.00	Partly_Cloudy(sunny)	True	False	0.00
