2011-03-03 08:00:00 26862 8 531.35 531.35 531.35 605.9 607.90	87.4067002257	531.35	605.90	Sunny(fair)	True	False	605.90
2011-03-03 09:00:00 26863 9 774.95 774.95 774.95 914.7 886.60	87.4067002257	774.95	914.70	Sunny(fair)	True	False	914.70
2011-03-03 10:00:00 26864 10 1011.00 1011.00 1011.00 1099.4 1063.70	95.045201669	1011.00	1099.40	Sunny(fair)	True	False	1099.40
2011-03-03 11:00:00 26865 11 1092.73 1092.73 1092.73 1183.5 1149.70	95.045201669	1092.73	1183.50	Sunny(fair)	True	False	1183.50
2011-03-03 12:00:00 26866 12 1093.40 1093.40 1093.40 1174.4 1150.40	95.045201669	1093.40	1174.40	Sunny(fair)	True	False	1174.40
2011-03-03 13:00:00 26867 13 1095.11 1095.11 1095.11 1068.6 1152.20	95.045201669	1095.11	1068.60	Sunny(fair)	True	False	1068.60
2011-03-03 14:00:00 26868 14 1010.81 1010.81 1010.81 904.4 1063.50	95.045201669	1010.81	904.40	Sunny(fair)	True	False	904.40
2011-03-03 15:00:00 26869 15 865.96 865.96 865.96 640.6 911.10	95.045201669	865.96	640.60	Sunny(fair)	True	False	640.60
2011-03-03 16:00:00 26870 16 579.86 579.86 579.86 274.8 663.40	87.4067002257	579.86	274.80	Sunny(fair)	True	False	274.80
2011-03-03 17:00:00 26871 17 287.57 287.57 287.57 31.2 329.00	87.4067002257	287.57	31.20	Sunny(fair)	True	False	31.20
2011-03-03 18:00:00 26872 18 45.63 45.63 45.63 0.0 52.20	87.4067002257	45.63	0.00	Clear(fair)	True	False	0.00
2011-03-03 19:00:00 26873 19 0.09 0.09 0.09 0.0 0.10	87.4067002257	0.09	0.00	Clear(fair)	True	False	0.00
2011-03-03 20:00:00 26874 20 0.00 0.00 0.00 0.0 0.00	87.4067002257	0.00	0.00	Clear(fair)	True	False	0.00
2011-03-03 21:00:00 26875 21 0.00 0.00 0.00 0.0 0.00	71.3923098618	0.00	0.00	Partly_Cloudy(fair)	True	False	0.00
2011-03-03 22:00:00 26876 22 0.00 0.00 0.00 0.0 0.00	71.3923098618	0.00	0.00	Partly_Cloudy(fair)	True	False	0.00
2011-03-03 23:00:00 26877 23 0.00 0.00 0.00 0.0 0.00	71.3923098618	0.00	0.00	Partly_Cloudy(fair)	True	False	0.00
2011-03-04 00:00:00 26878 0 0.00 0.00 0.00 0.0 0.00	71.3923098618	0.00	0.00	Partly_Cloudy(fair)	True	False	0.00
2011-03-04 01:00:00 26879 1 0.00 0.00 0.00 0.0 0.00	71.3923098618	0.00	0.00	Partly_Cloudy(fair)	True	False	0.00
2011-03-04 02:00:00 26880 2 0.00 0.00 0.00 0.0 0.00	71.3923098618	0.00	0.00	Partly_Cloudy(fair)	True	False	0.00
2011-03-04 03:00:00 26881 3 0.00 0.00 0.00 0.0 0.00	19.0409026798	0.00	0.00	Mostly_Cloudy(fair)	True	False	0.00
2011-03-04 04:00:00 26882 4 0.00 0.00 0.00 0.0 0.00	19.0409026798	0.00	0.00	Mostly_Cloudy(fair)	True	False	0.00
2011-03-04 05:00:00 26883 5 0.00 0.00 0.00 0.0 0.00	19.0409026798	0.00	0.00	Mostly_Cloudy(fair)	True	False	0.00
2011-03-04 06:00:00 26884 6 19.49 19.49 19.49 8.8 27.30	71.3923098618	19.49	8.80	Partly_Cloudy(fair)	True	False	8.80
2011-03-04 07:00:00 26885 7 172.91 172.91 172.91 160.0 242.20	71.3923098618	172.91	160.00	Partly_Cloudy(fair)	True	False	160.00
2011-03-04 08:00:00 26886 8 433.99 433.99 433.99 410.0 607.90	71.3923098618	433.99	410.00	Partly_Cloudy(fair)	True	False	410.00
2011-03-04 09:00:00 26887 9 168.82 168.82 168.82 748.1 886.60	19.0409026798	168.82	748.10	Mostly_Cloudy(fair)	True	False	748.10
2011-03-04 10:00:00 26888 10 202.54 202.54 202.54 1019.2 1063.70	19.0409026798	202.54	1019.20	Mostly_Cloudy(fair)	True	False	1019.20
2011-03-04 11:00:00 26889 11 218.91 218.91 218.91 964.7 1149.70	19.0409026798	218.91	964.70	Mostly_Cloudy(fair)	True	False	964.70
2011-03-04 12:00:00 26890 12 193.32 193.32 193.32 1068.1 1150.40	16.8043837523	193.32	1068.10	Cloudy(fair)	True	False	1068.10
2011-03-04 13:00:00 26891 13 193.62 193.62 193.62 999.6 1152.20	16.8043837523	193.62	999.60	Cloudy(fair)	True	False	999.60
2011-03-04 14:00:00 26892 14 178.71 178.71 178.71 849.5 1063.50	16.8043837523	178.71	849.50	Cloudy(fair)	True	False	849.50
2011-03-04 15:00:00 26893 15 153.10 153.10 153.10 568.2 911.10	16.8043837523	153.10	568.20	Cloudy(fair)	True	False	568.20
2011-03-04 16:00:00 26894 16 111.48 111.48 111.48 216.4 663.40	16.8043837523	111.48	216.40	Cloudy(fair)	True	False	216.40
2011-03-04 17:00:00 26895 17 55.29 55.29 55.29 17.4 329.00	16.8043837523	55.29	17.40	Cloudy(fair)	True	False	17.40
2011-03-04 18:00:00 26896 18 8.77 8.77 8.77 0.0 52.20	16.8043837523	8.77	0.00	Cloudy(fair)	True	False	0.00
2011-03-04 19:00:00 26897 19 0.02 0.02 0.02 0.0 0.10	16.8043837523	0.02	0.00	Cloudy(fair)	True	False	0.00
2011-03-04 20:00:00 26898 20 0.00 0.00 0.00 0.0 0.00	16.8043837523	0.00	0.00	Cloudy(cloudy)	True	False	0.00
