2011-03-23 05:00:00 49691 5 0.00 0.00 0.00 0.0 0.00	88.7824776093	0.00	0.00	Light_Snow(light_snow)	False	False	0.00
2011-03-23 06:00:00 49692 6 2.25 2.25 2.25 0.0 27.30	8.25214899713	2.25	0.00	Light_Wintry_Mix(light_snow)	True	False	0.00
2011-03-23 07:00:00 49693 7 19.67 19.67 19.67 0.0 238.40	8.25214899713	19.67	0.00	Light_Wintry_Mix(light_snow)	True	False	0.00
2011-03-23 08:00:00 49694 8 47.66 47.66 47.66 0.0 577.50	8.25214899713	47.66	0.00	Light_Wintry_Mix(light_snow)	True	False	0.00
2011-03-23 09:00:00 49695 9 69.65 69.65 69.65 0.2 844.00	8.25214899713	69.65	0.20	Light_Wintry_Mix(light_snow)	True	False	0.20
2011-03-23 10:00:00 49696 10 88.92 88.92 88.92 0.6 1012.30	8.78407246005	88.92	0.60	Light_Wintry_Mix(cloudy)	True	False	0.60
2011-03-23 11:00:00 49697 11 99.06 99.06 99.06 10.4 1127.70	8.78407246005	99.06	10.40	Light_Wintry_Mix(light_rain)	True	False	10.40
2011-03-23 12:00:00 49698 12 104.19 104.19 104.19 17.9 1186.10	8.78407246005	104.19	17.90	Light_Wintry_Mix(light_rain)	True	False	17.90
2011-03-23 13:00:00 49699 13 48.98 48.98 48.98 27.4 1170.30	4.18551033076	48.98	27.40	Wintry_Mix(light_rain)	True	False	27.40
2011-03-23 14:00:00 49700 14 48.46 48.46 48.46 41.5 1157.90	4.18551033076	48.46	41.50	Wintry_Mix(light_rain)	True	False	41.50
2011-03-23 15:00:00 49701 15 41.51 41.51 41.51 33.2 991.70	4.18551033076	41.51	33.20	Wintry_Mix(cloudy)	True	False	33.20
2011-03-23 16:00:00 49702 16 32.58 32.58 32.58 15.0 684.10	4.7619047619	32.58	15.00	Rain(wintry_mix)	True	False	15.00
2011-03-23 17:00:00 49703 17 16.62 16.62 16.62 4.6 349.00	4.7619047619	16.62	4.60	Rain(light_rain)	True	False	4.60
2011-03-23 18:00:00 49704 18 4.68 4.68 4.68 0.0 98.30	4.7619047619	4.68	0.00	Rain(light_rain)	True	False	0.00
2011-03-23 19:00:00 49705 19 0.28 0.28 0.28 0.0 5.90	4.7619047619	0.28	0.00	Rain(light_rain)	True	False	0.00
2011-03-23 20:00:00 49706 20 0.00 0.00 0.00 0.0 0.00	4.7619047619	0.00	0.00	Rain(t-storm)	True	False	0.00
2011-03-23 21:00:00 49707 21 0.00 0.00 0.00 0.0 0.00	4.7619047619	0.00	0.00	Rain(light_snow)	True	False	0.00
2011-03-23 22:00:00 49708 22 0.00 0.00 0.00 0.0 0.00	4.7619047619	0.00	0.00	Wintry_Mix(light_snow)	True	False	0.00
2011-03-23 23:00:00 49709 23 0.00 0.00 0.00 0.0 0.00	4.7619047619	0.00	0.00	Wintry_Mix(cloudy)	True	False	0.00
2011-03-24 00:00:00 49710 0 0.00 0.00 0.00 0.0 0.00	4.7619047619	0.00	0.00	Wintry_Mix(light_snow)	True	False	0.00
2011-03-24 01:00:00 49711 1 0.00 0.00 0.00 0.0 0.00	8.25214899713	0.00	0.00	Light_Wintry_Mix(cloudy)	True	False	0.00
2011-03-24 02:00:00 49712 2 0.00 0.00 0.00 0.0 0.00	8.25214899713	0.00	0.00	Light_Wintry_Mix(light_snow)	True	False	0.00
2011-03-24 03:00:00 49713 3 0.00 0.00 0.00 0.0 0.00	8.25214899713	0.00	0.00	Light_Wintry_Mix(light_snow)	True	False	0.00
2011-03-24 04:00:00 49714 4 0.00 0.00 0.00 0.0 0.00	8.25214899713	0.00	0.00	Rain_/_Snow_Showers(cloudy)	False	False	0.00
2011-03-24 05:00:00 49715 5 0.00 0.00 0.00 0.0 0.00	8.25214899713	0.00	0.00	Rain_/_Snow_Showers(cloudy)	False	False	0.00
2011-03-24 06:00:00 49716 6 2.25 2.25 2.25 0.0 27.30	8.25214899713	2.25	0.00	Rain_/_Snow(cloudy)	False	False	0.00
2011-03-24 07:00:00 49717 7 19.67 19.67 19.67 0.1 238.40	8.25214899713	19.67	0.10	Snow_Shower(cloudy)	False	False	0.10
2011-03-24 08:00:00 49718 8 47.66 47.66 47.66 5.1 577.50	8.25214899713	47.66	5.10	Snow_Shower(cloudy)	False	False	5.10
2011-03-24 09:00:00 49719 9 69.65 69.65 69.65 13.6 844.00	8.25214899713	69.65	13.60	Snow_Shower(cloudy)	False	False	13.60
2011-03-24 10:00:00 49720 10 83.54 83.54 83.54 35.1 1012.30	8.25214899713	83.54	35.10	Snow_Shower(cloudy)	False	False	35.10
2011-03-24 11:00:00 49721 11 93.06 93.06 93.06 173.0 1127.70	8.25214899713	93.06	173.00	Snow_Shower(cloudy)	False	False	173.00
2011-03-24 12:00:00 49722 12 97.88 97.88 97.88 432.5 1186.10	8.25214899713	97.88	432.50	Snow_Shower(cloudy)	False	False	432.50
2011-03-24 13:00:00 49723 13 150.37 150.37 150.37 349.6 1170.30	12.8491620112	150.37	349.60	Cloudy(cloudy)	True	False	349.60
2011-03-24 14:00:00 49724 14 148.78 148.78 148.78 350.9 1157.90	12.8491620112	148.78	350.90	Cloudy(cloudy)	True	False	350.90
2011-03-24 15:00:00 49725 15 127.43 127.43 127.43 549.1 991.70	12.8491620112	127.43	549.10	Cloudy(cloudy)	True	False	549.10
2011-03-24 16:00:00 49726 16 201.26 201.26 201.26 698.1 684.10	29.4199134199	201.26	698.10	Mostly_Cloudy(fair)	True	False	698.10
2011-03-24 17:00:00 49727 17 102.68 102.68 102.68 338.8 349.00	29.4199134199	102.68	338.80	Mostly_Cloudy(fair)	True	False	338.80
2011-03-24 18:00:00 49728 18 28.92 28.92 28.92 68.1 98.30	29.4199134199	28.92	68.10	Mostly_Cloudy(sunny)	True	False	68.10
2011-03-24 19:00:00 49729 19 4.30 4.30 4.30 0.6 5.90	72.893982808	4.30	0.60	Partly_Cloudy(sunny)	True	False	0.60
2011-03-24 20:00:00 49730 20 0.00 0.00 0.00 0.0 0.00	72.893982808	0.00	0.00	Partly_Cloudy(clear)	True	False	0.00
2011-03-24 21:00:00 49731 21 0.00 0.00 0.00 0.0 0.00	72.893982808	0.00	0.00	Partly_Cloudy(clear)	True	False	0.00
2011-03-24 22:00:00 49732 22 0.00 0.00 0.00 0.0 0.00	85.36855904	0.00	0.00	Clear(clear)	True	False	0.00
2011-03-24 23:00:00 49733 23 0.00 0.00 0.00 0.0 0.00	85.36855904	0.00	0.00	Clear(clear)	True	False	0.00
2011-03-25 00:00:00 49734 0 0.00 0.00 0.00 0.0 0.00	85.36855904	0.00	0.00	Clear(clear)	True	False	0.00
2011-03-25 01:00:00 49735 1 0.00 0.00 0.00 0.0 0.00	85.36855904	0.00	0.00	Clear(clear)	True	False	0.00
2011-03-25 02:00:00 49736 2 0.00 0.00 0.00 0.0 0.00	85.36855904	0.00	0.00	Clear(fair)	True	False	0.00
2011-03-25 03:00:00 49737 3 0.00 0.00 0.00 0.0 0.00	85.36855904	0.00	0.00	Clear(clear)	True	False	0.00
2011-03-25 04:00:00 49738 4 0.00 0.00 0.00 0.0 0.00	85.36855904	0.00	0.00	Clear(clear)	True	False	0.00
2011-03-25 05:00:00 49739 5 0.00 0.00 0.00 0.0 0.00	85.36855904	0.00	0.00	Clear(clear)	True	False	0.00
