2011-02-12 23:00:00 5758 23 0.00 0.00 0.00 0.0 0.00	83.464704852	0.00	0.00	Mostly_Clear(fair)	False	False	0.00
2011-02-13 00:00:00 5759 0 0.00 0.00 0.00 0.0 0.00	71.4836223507	0.00	0.00	Clear(fair)	True	False	0.00
2011-02-13 01:00:00 5760 1 0.00 0.00 0.00 0.0 0.00	71.4836223507	0.00	0.00	Clear(fair)	True	False	0.00
2011-02-13 02:00:00 5761 2 0.00 0.00 0.00 0.0 0.00	71.4836223507	0.00	0.00	Mostly_Clear(fair)	False	False	0.00
2011-02-13 03:00:00 5762 3 0.00 0.00 0.00 0.0 0.00	19.0626693155	0.00	0.00	Mostly_Cloudy(partly_cloudy)	True	False	0.00
2011-02-13 04:00:00 5763 4 0.00 0.00 0.00 0.0 0.00	19.0626693155	0.00	0.00	Mostly_Cloudy(fair)	True	False	0.00
2011-02-13 05:00:00 5764 5 0.00 0.00 0.00 0.0 0.00	19.0626693155	0.00	0.00	Mostly_Cloudy(fair)	True	False	0.00
2011-02-13 06:00:00 5765 6 0.50 0.50 0.50 0.0 2.60	19.0626693155	0.50	0.00	Flurries(fair)	False	False	0.00
2011-02-13 07:00:00 5766 7 31.28 31.28 31.28 57.1 164.10	19.0626693155	31.28	57.10	Flurries(cloudy)	False	False	57.10
2011-02-13 08:00:00 5767 8 97.22 97.22 97.22 110.9 510.00	19.0626693155	97.22	110.90	Flurries(fair)	False	False	110.90
2011-02-13 09:00:00 5768 9 5.39 5.39 5.39 383.3 807.60	0.667131335258	5.39	383.30	Few_Snow_Showers(fair)	True	False	383.30
2011-02-13 10:00:00 5769 10 16.89 16.89 16.89 268.3 1001.50	1.68687881827	16.89	268.30	Few_Snow_Showers(mostly_cloudy)	True	False	268.30
2011-02-13 11:00:00 5770 11 18.50 18.50 18.50 719.6 1096.70	1.68687881827	18.50	719.60	Few_Snow_Showers(mostly_cloudy)	True	False	719.60
2011-02-13 12:00:00 5771 12 254.95 254.95 254.95 749.3 1107.40	23.0225311601	254.95	749.30	Mostly_Cloudy(partly_cloudy)	True	False	749.30
2011-02-13 13:00:00 5772 13 231.22 231.22 231.22 582.4 1004.30	23.0225311601	231.22	582.40	Mostly_Cloudy(partly_cloudy)	True	False	582.40
2011-02-13 14:00:00 5773 14 192.10 192.10 192.10 423.1 834.40	23.0225311601	192.10	423.10	Mostly_Cloudy(Unkown)	True	False	423.10
2011-02-13 15:00:00 5774 15 415.62 415.62 415.62 245.8 570.90	72.8011558606	415.62	245.80	Partly_Cloudy(Unkown)	True	False	245.80
2011-02-13 16:00:00 5775 16 111.14 111.14 111.14 92.5 223.30	49.7722914669	111.14	92.50	Partly_Cloudy(fair)	True	False	92.50
2011-02-13 17:00:00 5776 17 5.72 5.72 5.72 2.0 11.50	49.7722914669	5.72	2.00	Partly_Cloudy(fair)	True	False	2.00
2011-02-13 18:00:00 5777 18 0.00 0.00 0.00 0.0 0.00	19.0626693155	0.00	0.00	Mostly_Cloudy(fair)	True	False	0.00
2011-02-13 19:00:00 5778 19 0.00 0.00 0.00 0.0 0.00	19.0626693155	0.00	0.00	Mostly_Cloudy(fair)	True	False	0.00
2011-02-13 20:00:00 5779 20 0.00 0.00 0.00 0.0 0.00	19.0626693155	0.00	0.00	Mostly_Cloudy(mostly_cloudy)	True	False	0.00
2011-02-13 21:00:00 5780 21 0.00 0.00 0.00 0.0 0.00	19.0626693155	0.00	0.00	Mostly_Cloudy(fair)	True	False	0.00
2011-02-13 22:00:00 5781 22 0.00 0.00 0.00 0.0 0.00	19.0626693155	0.00	0.00	Mostly_Cloudy(fair)	True	False	0.00
2011-02-13 23:00:00 5782 23 0.00 0.00 0.00 0.0 0.00	19.0626693155	0.00	0.00	Mostly_Cloudy(fair)	True	False	0.00
2011-02-14 00:00:00 5783 0 0.00 0.00 0.00 0.0 0.00	21.9435736677	0.00	0.00	Cloudy(fair)	True	False	0.00
2011-02-14 01:00:00 5784 1 0.00 0.00 0.00 0.0 0.00	21.9435736677	0.00	0.00	Cloudy(fair)	True	False	0.00
2011-02-14 02:00:00 5785 2 0.00 0.00 0.00 0.0 0.00	21.9435736677	0.00	0.00	Cloudy(fair)	True	False	0.00
2011-02-14 03:00:00 5786 3 0.00 0.00 0.00 0.0 0.00	21.9435736677	0.00	0.00	Cloudy(fair)	True	False	0.00
2011-02-14 04:00:00 5787 4 0.00 0.00 0.00 0.0 0.00	21.9435736677	0.00	0.00	Cloudy(fair)	True	False	0.00
2011-02-14 05:00:00 5788 5 0.00 0.00 0.00 0.0 0.00	21.9435736677	0.00	0.00	Cloudy(clear)	True	False	0.00
2011-02-14 06:00:00 5789 6 0.57 0.57 0.57 0.0 2.60	21.9435736677	0.57	0.00	Cloudy(fair)	True	False	0.00
2011-02-14 07:00:00 5790 7 36.01 36.01 36.01 24.1 164.10	21.9435736677	36.01	24.10	Cloudy(fair)	True	False	24.10
2011-02-14 08:00:00 5791 8 111.91 111.91 111.91 147.2 510.00	21.9435736677	111.91	147.20	Cloudy(fair)	True	False	147.20
2011-02-14 09:00:00 5792 9 153.95 153.95 153.95 226.8 807.60	19.0626693155	153.95	226.80	Mostly_Cloudy(fair)	True	False	226.80
2011-02-14 10:00:00 5793 10 230.57 230.57 230.57 531.0 1001.50	23.0225311601	230.57	531.00	Mostly_Cloudy(fair)	True	False	531.00
2011-02-14 11:00:00 5794 11 252.49 252.49 252.49 1030.0 1096.70	23.0225311601	252.49	1030.00	Mostly_Cloudy(fair)	True	False	1030.00
2011-02-14 12:00:00 5795 12 254.95 254.95 254.95 1023.3 1107.40	23.0225311601	254.95	1023.30	Mostly_Cloudy(fair)	True	False	1023.30
2011-02-14 13:00:00 5796 13 231.22 231.22 231.22 894.0 1004.30	23.0225311601	231.22	894.00	Mostly_Cloudy(fair)	True	False	894.00
2011-02-14 14:00:00 5797 14 192.10 192.10 192.10 654.7 834.40	23.0225311601	192.10	654.70	Mostly_Cloudy(fair)	True	False	654.70
2011-02-14 15:00:00 5798 15 415.62 415.62 415.62 352.9 570.90	72.8011558606	415.62	352.90	Partly_Cloudy(partly_cloudy)	True	False	352.90
2011-02-14 16:00:00 5799 16 111.14 111.14 111.14 174.3 223.30	49.7722914669	111.14	174.30	Partly_Cloudy(fair)	True	False	174.30
2011-02-14 17:00:00 5800 17 5.72 5.72 5.72 5.9 11.50	49.7722914669	5.72	5.90	Partly_Cloudy(fair)	True	False	5.90
2011-02-14 18:00:00 5801 18 0.00 0.00 0.00 0.0 0.00	49.7722914669	0.00	0.00	Partly_Cloudy(cloudy)	True	False	0.00
2011-02-14 19:00:00 5802 19 0.00 0.00 0.00 0.0 0.00	49.7722914669	0.00	0.00	Partly_Cloudy(cloudy)	True	False	0.00
2011-02-14 20:00:00 5803 20 0.00 0.00 0.00 0.0 0.00	49.7722914669	0.00	0.00	Partly_Cloudy(cloudy)	True	False	0.00
2011-02-14 21:00:00 5804 21 0.00 0.00 0.00 0.0 0.00	49.7722914669	0.00	0.00	Partly_Cloudy(cloudy_and_windy)	True	False	0.00
2011-02-14 22:00:00 5805 22 0.00 0.00 0.00 0.0 0.00	49.7722914669	0.00	0.00	Partly_Cloudy(cloudy_and_windy)	True	False	0.00
2011-02-14 23:00:00 5806 23 0.00 0.00 0.00 0.0 0.00	49.7722914669	0.00	0.00	Partly_Cloudy(cloudy)	True	False	0.00
