2011-03-10 21:00:00 35512 21 0.00 0.00 0.00 0.0 0.00	6.53379712325	0.00	0.00	Light_Rain/Wind(light_rain)	True	False	0.00
2011-03-10 22:00:00 35513 22 0.00 0.00 0.00 0.0 0.00	12.6032878142	0.00	0.00	Cloudy/Wind(cloudy)	True	False	0.00
2011-03-10 23:00:00 35514 23 0.00 0.00 0.00 0.0 0.00	6.53379712325	0.00	0.00	Light_Rain/Wind(rain)	True	False	0.00
2011-03-11 00:00:00 35515 0 0.00 0.00 0.00 0.0 0.00	4.48905932777	0.00	0.00	Rain/Wind(rain)	True	False	0.00
2011-03-11 01:00:00 35516 1 0.00 0.00 0.00 0.0 0.00	6.53379712325	0.00	0.00	Light_Rain/Wind(rain)	True	False	0.00
2011-03-11 02:00:00 35517 2 0.00 0.00 0.00 0.0 0.00	6.53379712325	0.00	0.00	Light_Rain/Wind(light_rain)	True	False	0.00
2011-03-11 03:00:00 35518 3 0.00 0.00 0.00 0.0 0.00	4.48905932777	0.00	0.00	Rain_/_Thunder(light_rain)	True	False	0.00
2011-03-11 04:00:00 35519 4 0.00 0.00 0.00 0.0 0.00	4.48905932777	0.00	0.00	Rain_/_Thunder(light_rain)	True	False	0.00
2011-03-11 05:00:00 35520 5 0.00 0.00 0.00 0.0 0.00	4.48905932777	0.00	0.00	Rain_/_Thunder(mostly_cloudy)	True	False	0.00
2011-03-11 06:00:00 35521 6 1.78 1.78 1.78 0.0 27.30	6.53379712325	1.78	0.00	Few_Showers(cloudy)	True	False	0.00
2011-03-11 07:00:00 35522 7 15.82 15.82 15.82 36.9 242.20	6.53379712325	15.82	36.90	Few_Showers(light_rain)	True	False	36.90
2011-03-11 08:00:00 35523 8 39.72 39.72 39.72 142.0 607.90	6.53379712325	39.72	142.00	Few_Showers(cloudy)	True	False	142.00
2011-03-11 09:00:00 35524 9 57.93 57.93 57.93 589.4 886.60	6.53379712325	57.93	589.40	Few_Showers(cloudy)	True	False	589.40
2011-03-11 10:00:00 35525 10 66.50 66.50 66.50 360.2 1063.70	6.25176271505	66.50	360.20	Few_Showers(cloudy)	True	False	360.20
2011-03-11 11:00:00 35526 11 71.88 71.88 71.88 675.4 1149.70	6.25176271505	71.88	675.40	Few_Showers(cloudy)	True	False	675.40
2011-03-11 12:00:00 35527 12 875.77 875.77 875.77 558.7 1177.90	74.3498303905	875.77	558.70	Partly_Cloudy(cloudy)	True	False	558.70
2011-03-11 13:00:00 35528 13 870.12 870.12 870.12 735.1 1170.30	74.3498303905	870.12	735.10	Partly_Cloudy(mostly_cloudy)	True	False	735.10
2011-03-11 14:00:00 35529 14 805.43 805.43 805.43 791.6 1083.30	74.3498303905	805.43	791.60	Partly_Cloudy(fair)	True	False	791.60
2011-03-11 15:00:00 35530 15 689.52 689.52 689.52 408.3 927.40	74.3498303905	689.52	408.30	Partly_Cloudy(sunny)	True	False	408.30
2011-03-11 16:00:00 35531 16 488.39 488.39 488.39 94.2 684.10	71.3923098618	488.39	94.20	Partly_Cloudy(cloudy)	True	False	94.20
2011-03-11 17:00:00 35532 17 249.16 249.16 249.16 16.0 349.00	71.3923098618	249.16	16.00	Partly_Cloudy(cloudy)	True	False	16.00
2011-03-11 18:00:00 35533 18 48.05 48.05 48.05 0.0 67.30	71.3923098618	48.05	0.00	Partly_Cloudy(cloudy)	True	False	0.00
2011-03-11 19:00:00 35534 19 0.36 0.36 0.36 0.0 0.50	71.3923098618	0.36	0.00	Partly_Cloudy(cloudy)	True	False	0.00
2011-03-11 20:00:00 35535 20 0.00 0.00 0.00 0.0 0.00	71.3923098618	0.00	0.00	Partly_Cloudy(cloudy)	True	False	0.00
2011-03-11 21:00:00 35536 21 0.00 0.00 0.00 0.0 0.00	25.9434979513	0.00	0.00	Mostly_Cloudy(cloudy)	True	False	0.00
2011-03-11 22:00:00 35537 22 0.00 0.00 0.00 0.0 0.00	25.9434979513	0.00	0.00	Mostly_Cloudy(cloudy)	True	False	0.00
2011-03-11 23:00:00 35538 23 0.00 0.00 0.00 0.0 0.00	25.9434979513	0.00	0.00	Mostly_Cloudy(partly_cloudy)	True	False	0.00
2011-03-12 00:00:00 35539 0 0.00 0.00 0.00 0.0 0.00	25.9434979513	0.00	0.00	Mostly_Cloudy(partly_cloudy)	True	False	0.00
2011-03-12 01:00:00 35540 1 0.00 0.00 0.00 0.0 0.00	25.9434979513	0.00	0.00	Mostly_Cloudy(mostly_cloudy)	True	False	0.00
2011-03-12 02:00:00 35541 2 0.00 0.00 0.00 0.0 0.00	25.9434979513	0.00	0.00	Mostly_Cloudy(partly_cloudy)	True	False	0.00
2011-03-12 03:00:00 35542 3 0.00 0.00 0.00 0.0 0.00	0.636942675159	0.00	0.00	Rain_/_Snow_Showers(mostly_cloudy)	True	False	0.00
2011-03-12 04:00:00 35543 4 0.00 0.00 0.00 0.0 0.00	0.636942675159	0.00	0.00	Rain_/_Snow_Showers(cloudy)	True	False	0.00
2011-03-12 05:00:00 35544 5 0.00 0.00 0.00 0.0 0.00	0.636942675159	0.00	0.00	Rain_/_Snow_Showers(cloudy)	True	False	0.00
2011-03-12 06:00:00 35545 6 19.49 19.49 19.49 0.6 27.30	71.3923098618	19.49	0.60	Partly_Cloudy(cloudy)	True	False	0.60
2011-03-12 07:00:00 35546 7 172.91 172.91 172.91 88.7 242.20	71.3923098618	172.91	88.70	Partly_Cloudy(cloudy)	True	False	88.70
2011-03-12 08:00:00 35547 8 433.99 433.99 433.99 581.6 607.90	71.3923098618	433.99	581.60	Partly_Cloudy(mostly_cloudy)	True	False	581.60
2011-03-12 09:00:00 35548 9 632.96 632.96 632.96 877.2 886.60	71.3923098618	632.96	877.20	Partly_Cloudy(sunny)	True	False	877.20
2011-03-12 10:00:00 35549 10 790.86 790.86 790.86 1048.4 1063.70	74.3498303905	790.86	1048.40	Partly_Cloudy(fair)	True	False	1048.40
2011-03-12 11:00:00 35550 11 854.80 854.80 854.80 948.1 1149.70	74.3498303905	854.80	948.10	Partly_Cloudy(sunny)	True	False	948.10
2011-03-12 12:00:00 35551 12 875.77 875.77 875.77 496.9 1177.90	74.3498303905	875.77	496.90	Partly_Cloudy(sunny)	True	False	496.90
2011-03-12 13:00:00 35552 13 870.12 870.12 870.12 517.8 1170.30	74.3498303905	870.12	517.80	Partly_Cloudy(partly_cloudy)	True	False	517.80
2011-03-12 14:00:00 35553 14 805.43 805.43 805.43 696.9 1083.30	74.3498303905	805.43	696.90	Partly_Cloudy(mostly_cloudy)	True	False	696.90
2011-03-12 15:00:00 35554 15 689.52 689.52 689.52 487.9 927.40	74.3498303905	689.52	487.90	Partly_Cloudy(partly_cloudy)	True	False	487.90
2011-03-12 16:00:00 35555 16 488.39 488.39 488.39 292.2 684.10	71.3923098618	488.39	292.20	Partly_Cloudy(partly_cloudy)	True	False	292.20
2011-03-12 17:00:00 35556 17 249.16 249.16 249.16 40.1 349.00	71.3923098618	249.16	40.10	Partly_Cloudy(sunny)	True	False	40.10
2011-03-12 18:00:00 35557 18 17.46 17.46 17.46 0.0 67.30	25.9434979513	17.46	0.00	Mostly_Cloudy(clear)	True	False	0.00
2011-03-12 19:00:00 35558 19 0.13 0.13 0.13 0.0 0.50	25.9434979513	0.13	0.00	Mostly_Cloudy(clear)	True	False	0.00
2011-03-12 20:00:00 35559 20 0.00 0.00 0.00 0.0 0.00	25.9434979513	0.00	0.00	Mostly_Cloudy(clear)	True	False	0.00
2011-03-12 21:00:00 35560 21 0.00 0.00 0.00 0.0 0.00	25.9434979513	0.00	0.00	Mostly_Cloudy(clear)	True	False	0.00
