2011-03-13 08:00:00 38337 8 518.96 518.96 518.96 94.6 607.90	85.36855904	518.96	94.60	Sunny(cloudy)	True	False	94.60
2011-03-13 09:00:00 38338 9 623.56 623.56 623.56 119.7 886.60	70.3313379985	623.56	119.70	Partly_Cloudy(cloudy)	True	False	119.70
2011-03-13 10:00:00 38339 10 785.17 785.17 785.17 237.9 1063.70	73.8146644788	785.17	237.90	Partly_Cloudy(cloudy)	True	False	237.90
2011-03-13 11:00:00 38340 11 848.65 848.65 848.65 583.6 1149.70	73.8146644788	848.65	583.60	Mostly_Sunny(mostly_cloudy)	False	False	583.60
2011-03-13 12:00:00 38341 12 875.52 875.52 875.52 513.1 1186.10	73.8146644788	875.52	513.10	Mostly_Sunny(cloudy)	False	False	513.10
2011-03-13 13:00:00 38342 13 863.85 863.85 863.85 568.4 1170.30	73.8146644788	863.85	568.40	Mostly_Sunny(cloudy)	False	False	568.40
2011-03-13 14:00:00 38343 14 854.70 854.70 854.70 436.3 1157.90	73.8146644788	854.70	436.30	Mostly_Sunny(cloudy)	False	False	436.30
2011-03-13 15:00:00 38344 15 732.02 732.02 732.02 346.6 991.70	73.8146644788	732.02	346.60	Mostly_Sunny(cloudy)	False	False	346.60
2011-03-13 16:00:00 38345 16 504.97 504.97 504.97 148.4 684.10	73.8146644788	504.97	148.40	Mostly_Sunny(cloudy)	False	False	148.40
2011-03-13 17:00:00 38346 17 257.61 257.61 257.61 112.3 349.00	73.8146644788	257.61	112.30	Mostly_Sunny(cloudy)	False	False	112.30
2011-03-13 18:00:00 38347 18 64.37 64.37 64.37 30.7 87.20	73.8146644788	64.37	30.70	Mostly_Sunny(cloudy)	False	False	30.70
2011-03-13 19:00:00 38348 19 0.85 0.85 0.85 0.0 1.00	85.36855904	0.85	0.00	Sunny(cloudy)	True	False	0.00
2011-03-13 20:00:00 38349 20 0.00 0.00 0.00 0.0 0.00	85.36855904	0.00	0.00	Clear(cloudy)	True	False	0.00
2011-03-13 21:00:00 38350 21 0.00 0.00 0.00 0.0 0.00	85.36855904	0.00	0.00	Clear(mostly_cloudy)	True	False	0.00
2011-03-13 22:00:00 38351 22 0.00 0.00 0.00 0.0 0.00	85.36855904	0.00	0.00	Clear(cloudy)	True	False	0.00
2011-03-13 23:00:00 38352 23 0.00 0.00 0.00 0.0 0.00	85.36855904	0.00	0.00	Clear(cloudy)	True	False	0.00
2011-03-14 00:00:00 38353 0 0.00 0.00 0.00 0.0 0.00	85.36855904	0.00	0.00	Clear(clear)	True	False	0.00
2011-03-14 01:00:00 38354 1 0.00 0.00 0.00 0.0 0.00	85.36855904	0.00	0.00	Clear(clear)	True	False	0.00
2011-03-14 02:00:00 38355 2 0.00 0.00 0.00 0.0 0.00	85.36855904	0.00	0.00	Clear(clear)	True	False	0.00
2011-03-14 03:00:00 38356 3 0.00 0.00 0.00 0.0 0.00	85.36855904	0.00	0.00	Clear(cloudy)	True	False	0.00
2011-03-14 04:00:00 38357 4 0.00 0.00 0.00 0.0 0.00	85.36855904	0.00	0.00	Clear(cloudy)	True	False	0.00
2011-03-14 05:00:00 38358 5 0.00 0.00 0.00 0.0 0.00	85.36855904	0.00	0.00	Clear(cloudy)	True	False	0.00
2011-03-14 06:00:00 38359 6 23.31 23.31 23.31 26.4 27.30	85.36855904	23.31	26.40	Clear(cloudy)	True	False	26.40
2011-03-14 07:00:00 38360 7 206.76 206.76 206.76 124.3 242.20	85.36855904	206.76	124.30	Clear(cloudy)	True	False	124.30
2011-03-14 08:00:00 38361 8 518.96 518.96 518.96 79.0 607.90	85.36855904	518.96	79.00	Sunny(mostly_cloudy)	True	False	79.00
2011-03-14 09:00:00 38362 9 756.88 756.88 756.88 285.0 886.60	85.36855904	756.88	285.00	Sunny(cloudy)	True	False	285.00
2011-03-14 10:00:00 38363 10 785.17 785.17 785.17 428.0 1063.70	73.8146644788	785.17	428.00	Partly_Cloudy(cloudy)	True	False	428.00
2011-03-14 11:00:00 38364 11 848.65 848.65 848.65 698.8 1149.70	73.8146644788	848.65	698.80	Partly_Cloudy(Unkown)	True	False	698.80
2011-03-14 12:00:00 38365 12 875.52 875.52 875.52 207.6 1186.10	73.8146644788	875.52	207.60	Partly_Cloudy(cloudy)	True	False	207.60
2011-03-14 13:00:00 38366 13 863.85 863.85 863.85 334.4 1170.30	73.8146644788	863.85	334.40	Partly_Cloudy(cloudy)	True	False	334.40
2011-03-14 14:00:00 38367 14 854.70 854.70 854.70 313.0 1157.90	73.8146644788	854.70	313.00	Partly_Cloudy(cloudy)	True	False	313.00
2011-03-14 15:00:00 38368 15 732.02 732.02 732.02 287.8 991.70	73.8146644788	732.02	287.80	Partly_Cloudy(cloudy)	True	False	287.80
2011-03-14 16:00:00 38369 16 481.14 481.14 481.14 118.1 684.10	70.3313379985	481.14	118.10	Partly_Cloudy(cloudy)	True	False	118.10
2011-03-14 17:00:00 38370 17 245.46 245.46 245.46 31.6 349.00	70.3313379985	245.46	31.60	Partly_Cloudy(cloudy)	True	False	31.60
2011-03-14 18:00:00 38371 18 61.33 61.33 61.33 0.0 87.20	70.3313379985	61.33	0.00	Partly_Cloudy(cloudy)	True	False	0.00
2011-03-14 19:00:00 38372 19 0.85 0.85 0.85 0.0 1.00	85.36855904	0.85	0.00	Sunny(partly_cloudy)	True	False	0.00
2011-03-14 20:00:00 38373 20 0.00 0.00 0.00 0.0 0.00	85.36855904	0.00	0.00	Clear(mostly_cloudy)	True	False	0.00
2011-03-14 21:00:00 38374 21 0.00 0.00 0.00 0.0 0.00	85.36855904	0.00	0.00	Clear(mostly_cloudy)	True	False	0.00
2011-03-14 22:00:00 38375 22 0.00 0.00 0.00 0.0 0.00	85.36855904	0.00	0.00	Mostly_Clear(mostly_cloudy)	False	False	0.00
2011-03-14 23:00:00 38376 23 0.00 0.00 0.00 0.0 0.00	85.36855904	0.00	0.00	Mostly_Clear(partly_cloudy)	False	False	0.00
2011-03-15 00:00:00 38377 0 0.00 0.00 0.00 0.0 0.00	85.36855904	0.00	0.00	Mostly_Clear(clear)	False	False	0.00
2011-03-15 01:00:00 38378 1 0.00 0.00 0.00 0.0 0.00	85.36855904	0.00	0.00	Mostly_Clear(clear)	False	False	0.00
2011-03-15 02:00:00 38379 2 0.00 0.00 0.00 0.0 0.00	85.36855904	0.00	0.00	Mostly_Clear(clear)	False	False	0.00
2011-03-15 03:00:00 38380 3 0.00 0.00 0.00 0.0 0.00	85.36855904	0.00	0.00	Mostly_Clear(clear)	False	False	0.00
2011-03-15 04:00:00 38381 4 0.00 0.00 0.00 0.0 0.00	85.36855904	0.00	0.00	Clear(clear)	True	False	0.00
2011-03-15 05:00:00 38382 5 0.00 0.00 0.00 0.0 0.00	85.36855904	0.00	0.00	Clear(clear)	True	False	0.00
2011-03-15 06:00:00 38383 6 23.31 23.31 23.31 0.0 27.30	85.36855904	23.31	0.00	Clear(clear)	True	False	0.00
2011-03-15 07:00:00 38384 7 206.76 206.76 206.76 50.2 242.20	85.36855904	206.76	50.20	Clear(sunny)	True	False	50.20
2011-03-15 08:00:00 38385 8 518.96 518.96 518.96 272.5 607.90	85.36855904	518.96	272.50	Sunny(sunny)	True	False	272.50
