2011-03-21 16:00:00 47921 16 606.65 606.65 606.65 107.7 684.10	88.6781167222	606.65	107.70	Foggy(fog)	False	False	107.70
2011-03-21 17:00:00 47922 17 54.94 54.94 37.34 37.7 349.00	10.6988000403	37.34	37.70	Cloudy(fog)	True	False	37.70
2011-03-21 18:00:00 47923 18 10.52 15.48 10.52 1.1 98.30	10.6988000403	10.52	1.10	Cloudy(fog)	True	False	1.10
2011-03-21 19:00:00 47924 19 0.22 0.33 0.22 0.0 2.10	10.6988000403	0.22	0.00	Cloudy(cloudy)	True	False	0.00
2011-03-21 20:00:00 47925 20 0.00 0.00 0.00 0.0 0.00	10.6988000403	0.00	0.00	Cloudy(cloudy)	True	False	0.00
2011-03-21 21:00:00 47926 21 0.00 0.00 0.00 0.0 0.00	10.6988000403	0.00	0.00	Cloudy(cloudy)	True	False	0.00
2011-03-21 22:00:00 47927 22 0.00 0.00 0.00 0.0 0.00	10.6988000403	0.00	0.00	Cloudy(cloudy)	True	False	0.00
2011-03-21 23:00:00 47928 23 0.00 0.00 0.00 0.0 0.00	10.6988000403	0.00	0.00	Cloudy(fog)	True	False	0.00
2011-03-22 00:00:00 47929 0 0.00 0.00 0.00 0.0 0.00	10.6988000403	0.00	0.00	Cloudy(fog)	True	False	0.00
2011-03-22 01:00:00 47930 1 0.00 0.00 0.00 0.0 0.00	69.0666891493	0.00	0.00	Partly_Cloudy(fog)	True	False	0.00
2011-03-22 02:00:00 47931 2 0.00 0.00 0.00 0.0 0.00	69.0666891493	0.00	0.00	Partly_Cloudy(fog)	True	False	0.00
2011-03-22 03:00:00 47932 3 0.00 0.00 0.00 0.0 0.00	69.0666891493	0.00	0.00	Partly_Cloudy(fog)	True	False	0.00
2011-03-22 04:00:00 47933 4 0.00 0.00 0.00 0.0 0.00	69.0666891493	0.00	0.00	Partly_Cloudy(cloudy)	True	False	0.00
2011-03-22 05:00:00 47934 5 0.00 0.00 0.00 0.0 0.00	69.0666891493	0.00	0.00	Partly_Cloudy(cloudy)	True	False	0.00
2011-03-22 06:00:00 47935 6 18.86 18.86 18.86 0.0 27.30	69.0666891493	18.86	0.00	Partly_Cloudy(cloudy)	True	False	0.00
2011-03-22 07:00:00 47936 7 167.28 167.28 167.28 15.9 242.20	69.0666891493	167.28	15.90	Mostly_Sunny(cloudy)	False	False	15.90
2011-03-22 08:00:00 47937 8 419.86 419.86 419.86 69.3 607.90	69.0666891493	419.86	69.30	Mostly_Sunny(cloudy)	False	False	69.30
2011-03-22 09:00:00 47938 9 612.35 612.35 612.35 341.7 886.60	69.0666891493	612.35	341.70	Mostly_Sunny(cloudy)	False	False	341.70
2011-03-22 10:00:00 47939 10 943.27 943.27 943.27 813.5 1063.70	88.6781167222	943.27	813.50	Sunny(cloudy)	True	False	813.50
2011-03-22 11:00:00 47940 11 1019.53 1019.53 1019.53 627.9 1149.70	88.6781167222	1019.53	627.90	Sunny(cloudy)	True	False	627.90
2011-03-22 12:00:00 47941 12 1051.81 1051.81 1051.81 966.9 1186.10	88.6781167222	1051.81	966.90	Sunny(cloudy)	True	False	966.90
2011-03-22 13:00:00 47942 13 1037.80 1037.80 1037.80 1173.6 1170.30	88.6781167222	1037.80	1173.60	Mostly_Sunny(mostly_cloudy)	False	False	1173.60
2011-03-22 14:00:00 47943 14 1026.80 1026.80 1026.80 1005.2 1157.90	88.6781167222	1026.80	1005.20	Mostly_Sunny(mostly_cloudy)	False	False	1005.20
2011-03-22 15:00:00 47944 15 879.42 879.42 879.42 845.9 991.70	88.6781167222	879.42	845.90	Mostly_Sunny(mostly_cloudy)	False	False	845.90
2011-03-22 16:00:00 47945 16 472.49 472.49 472.49 652.0 684.10	69.0666891493	472.49	652.00	Partly_Cloudy(mostly_cloudy)	True	False	652.00
2011-03-22 17:00:00 47946 17 241.04 241.04 241.04 310.0 349.00	69.0666891493	241.04	310.00	Partly_Cloudy(sunny)	True	False	310.00
2011-03-22 18:00:00 47947 18 67.89 67.89 67.89 53.0 98.30	69.0666891493	67.89	53.00	Partly_Cloudy(fair)	True	False	53.00
2011-03-22 19:00:00 47948 19 0.65 0.65 0.65 0.0 2.10	30.7323493466	0.65	0.00	Mostly_Cloudy(partly_cloudy)	True	False	0.00
2011-03-22 20:00:00 47949 20 0.00 0.00 0.00 0.0 0.00	30.7323493466	0.00	0.00	Mostly_Cloudy(partly_cloudy)	True	False	0.00
2011-03-22 21:00:00 47950 21 0.00 0.00 0.00 0.0 0.00	30.7323493466	0.00	0.00	Mostly_Cloudy(partly_cloudy)	True	False	0.00
2011-03-22 22:00:00 47951 22 0.00 0.00 0.00 0.0 0.00	10.6988000403	0.00	0.00	Cloudy(mostly_cloudy)	True	False	0.00
2011-03-22 23:00:00 47952 23 0.00 0.00 0.00 0.0 0.00	10.6988000403	0.00	0.00	Cloudy(cloudy)	True	False	0.00
2011-03-23 00:00:00 47953 0 0.00 0.00 0.00 0.0 0.00	10.6988000403	0.00	0.00	Cloudy(cloudy)	True	False	0.00
2011-03-23 01:00:00 47954 1 0.00 0.00 0.00 0.0 0.00	10.6988000403	0.00	0.00	Cloudy(cloudy)	True	False	0.00
2011-03-23 02:00:00 47955 2 0.00 0.00 0.00 0.0 0.00	10.6988000403	0.00	0.00	Cloudy(light_rain)	True	False	0.00
2011-03-23 03:00:00 47956 3 0.00 0.00 0.00 0.0 0.00	10.6988000403	0.00	0.00	Cloudy(light_snow)	True	False	0.00
2011-03-23 04:00:00 47957 4 0.00 0.00 0.00 0.0 0.00	10.6988000403	0.00	0.00	Rain_/_Snow_Showers(light_snow)	False	False	0.00
