2011-03-17 18:00:00 43356 18 77.48 77.48 77.48 59.7 87.20	88.8579629469	77.48	59.70	Mostly_Sunny(sunny)	False	False	59.70
2011-03-17 19:00:00 43357 19 0.75 0.75 0.75 0.0 1.10	88.8579629469	0.75	0.00	Mostly_Sunny(sunny)	False	False	0.00
2011-03-17 20:00:00 43358 20 0.00 0.00 0.00 0.0 0.00	88.8579629469	0.00	0.00	Mostly_Clear(clear)	False	False	0.00
2011-03-17 21:00:00 43359 21 0.00 0.00 0.00 0.0 0.00	67.7087831419	0.00	0.00	Partly_Cloudy(clear)	True	False	0.00
2011-03-17 22:00:00 43360 22 0.00 0.00 0.00 0.0 0.00	67.7087831419	0.00	0.00	Partly_Cloudy(partly_cloudy)	True	False	0.00
2011-03-17 23:00:00 43361 23 0.00 0.00 0.00 0.0 0.00	67.7087831419	0.00	0.00	Partly_Cloudy(mostly_cloudy)	True	False	0.00
2011-03-18 00:00:00 43362 0 0.00 0.00 0.00 0.0 0.00	67.7087831419	0.00	0.00	Partly_Cloudy(mostly_cloudy)	True	False	0.00
2011-03-18 01:00:00 43363 1 0.00 0.00 0.00 0.0 0.00	67.7087831419	0.00	0.00	Partly_Cloudy(partly_cloudy)	True	False	0.00
2011-03-18 02:00:00 43364 2 0.00 0.00 0.00 0.0 0.00	67.7087831419	0.00	0.00	Partly_Cloudy(clear)	True	False	0.00
2011-03-18 03:00:00 43365 3 0.00 0.00 0.00 0.0 0.00	67.7087831419	0.00	0.00	Partly_Cloudy(clear)	True	False	0.00
2011-03-18 04:00:00 43366 4 0.00 0.00 0.00 0.0 0.00	67.7087831419	0.00	0.00	Partly_Cloudy(partly_cloudy)	True	False	0.00
2011-03-18 05:00:00 43367 5 0.00 0.00 0.00 0.0 0.00	67.7087831419	0.00	0.00	Partly_Cloudy(fair)	True	False	0.00
2011-03-18 06:00:00 43368 6 18.48 18.48 18.48 0.0 27.30	67.7087831419	18.48	0.00	Partly_Cloudy(fair)	True	False	0.00
2011-03-18 07:00:00 43369 7 163.99 163.99 163.99 35.7 242.20	67.7087831419	163.99	35.70	Partly_Cloudy(partly_cloudy)	True	False	35.70
2011-03-18 08:00:00 43370 8 411.60 411.60 411.60 251.6 607.90	67.7087831419	411.60	251.60	Partly_Cloudy(sunny)	True	False	251.60
2011-03-18 09:00:00 43371 9 600.31 600.31 600.31 464.4 886.60	67.7087831419	600.31	464.40	Partly_Cloudy(sunny)	True	False	464.40
2011-03-18 10:00:00 43372 10 734.66 734.66 734.66 780.7 1063.70	69.0666891493	734.66	780.70	Partly_Cloudy(sunny)	True	False	780.70
2011-03-18 11:00:00 43373 11 794.06 794.06 794.06 809.1 1149.70	69.0666891493	794.06	809.10	Partly_Cloudy(sunny)	True	False	809.10
2011-03-18 12:00:00 43374 12 819.20 819.20 819.20 1010.7 1186.10	69.0666891493	819.20	1010.70	Partly_Cloudy(sunny)	True	False	1010.70
2011-03-18 13:00:00 43375 13 808.29 808.29 808.29 987.7 1170.30	69.0666891493	808.29	987.70	Partly_Cloudy(fair)	True	False	987.70
2011-03-18 14:00:00 43376 14 799.72 799.72 799.72 982.1 1157.90	69.0666891493	799.72	982.10	Partly_Cloudy(partly_cloudy)	True	False	982.10
2011-03-18 15:00:00 43377 15 684.93 684.93 684.93 807.4 991.70	69.0666891493	684.93	807.40	Partly_Cloudy(sunny)	True	False	807.40
2011-03-18 16:00:00 43378 16 585.30 585.30 585.30 503.2 684.10	85.5576670077	585.30	503.20	Sunny(fair)	True	False	503.20
2011-03-18 17:00:00 43379 17 298.60 298.60 298.60 221.1 349.00	85.5576670077	298.60	221.10	Sunny(fair)	True	False	221.10
2011-03-18 18:00:00 43380 18 74.61 74.61 74.61 43.3 87.20	85.5576670077	74.61	43.30	Sunny(fair)	True	False	43.30
2011-03-18 19:00:00 43381 19 0.94 0.94 0.94 0.1 1.10	85.5576670077	0.94	0.10	Sunny(fair)	True	False	0.10
2011-03-18 20:00:00 43382 20 0.00 0.00 0.00 0.0 0.00	85.5576670077	0.00	0.00	Clear(fair)	True	False	0.00
2011-03-18 21:00:00 43383 21 0.00 0.00 0.00 0.0 0.00	85.5576670077	0.00	0.00	Clear(fair)	True	False	0.00
2011-03-18 22:00:00 43384 22 0.00 0.00 0.00 0.0 0.00	85.5576670077	0.00	0.00	Clear(fair)	True	False	0.00
2011-03-18 23:00:00 43385 23 0.00 0.00 0.00 0.0 0.00	85.5576670077	0.00	0.00	Clear(mostly_cloudy)	True	False	0.00
2011-03-19 00:00:00 43386 0 0.00 0.00 0.00 0.0 0.00	85.5576670077	0.00	0.00	Clear(cloudy)	True	False	0.00
2011-03-19 01:00:00 43387 1 0.00 0.00 0.00 0.0 0.00	67.7087831419	0.00	0.00	Partly_Cloudy(cloudy)	True	False	0.00
2011-03-19 02:00:00 43388 2 0.00 0.00 0.00 0.0 0.00	67.7087831419	0.00	0.00	Partly_Cloudy(cloudy)	True	False	0.00
2011-03-19 03:00:00 43389 3 0.00 0.00 0.00 0.0 0.00	67.7087831419	0.00	0.00	Partly_Cloudy(mostly_cloudy)	True	False	0.00
2011-03-19 04:00:00 43390 4 0.00 0.00 0.00 0.0 0.00	8.70541497539	0.00	0.00	Few_Showers(mostly_cloudy)	True	False	0.00
2011-03-19 05:00:00 43391 5 0.00 0.00 0.00 0.0 0.00	8.70541497539	0.00	0.00	Few_Showers(partly_cloudy)	True	False	0.00
2011-03-19 06:00:00 43392 6 2.38 2.38 2.38 0.0 27.30	8.70541497539	2.38	0.00	Few_Showers(partly_cloudy)	True	False	0.00
2011-03-19 07:00:00 43393 7 21.08 21.08 21.08 36.1 242.20	8.70541497539	21.08	36.10	Few_Showers(partly_cloudy)	True	False	36.10
2011-03-19 08:00:00 43394 8 52.92 52.92 52.92 313.9 607.90	8.70541497539	52.92	313.90	Few_Showers(sunny)	True	False	313.90
2011-03-19 09:00:00 43395 9 77.18 77.18 77.18 664.8 886.60	8.70541497539	77.18	664.80	Few_Showers(sunny)	True	False	664.80
2011-03-19 10:00:00 43396 10 93.44 93.44 93.44 924.7 1063.70	8.78407246005	93.44	924.70	Few_Showers(fair)	True	False	924.70
2011-03-19 11:00:00 43397 11 100.99 100.99 100.99 1080.9 1149.70	8.78407246005	100.99	1080.90	Few_Showers(sunny)	True	False	1080.90
2011-03-19 12:00:00 43398 12 104.19 104.19 104.19 1141.6 1186.10	8.78407246005	104.19	1141.60	Few_Showers(partly_cloudy)	True	False	1141.60
2011-03-19 13:00:00 43399 13 159.64 159.64 159.64 1126.5 1170.30	13.6410642098	159.64	1126.50	Cloudy(partly_cloudy)	True	False	1126.50
2011-03-19 14:00:00 43400 14 157.95 157.95 157.95 1076.6 1157.90	13.6410642098	157.95	1076.60	Cloudy(fair)	True	False	1076.60
2011-03-19 15:00:00 43401 15 135.28 135.28 135.28 928.9 991.70	13.6410642098	135.28	928.90	Cloudy(fair)	True	False	928.90
2011-03-19 16:00:00 43402 16 463.20 463.20 463.20 680.8 684.10	67.7087831419	463.20	680.80	Partly_Cloudy(fair)	True	False	680.80
2011-03-19 17:00:00 43403 17 236.30 236.30 236.30 338.7 349.00	67.7087831419	236.30	338.70	Partly_Cloudy(sunny)	True	False	338.70
2011-03-19 18:00:00 43404 18 59.04 59.04 59.04 56.7 87.20	67.7087831419	59.04	56.70	Partly_Cloudy(sunny)	True	False	56.70
