2011-02-19 22:00:00 13812 22 0.00 0.00 0.00 0.0 0.00	69.5949500263	0.00	0.00	Partly_Cloudy/Wind(cloudy_and_windy)	True	False	0.00
2011-02-19 23:00:00 13813 23 0.00 0.00 0.00 0.0 0.00	69.5949500263	0.00	0.00	Partly_Cloudy/Wind(fair)	True	False	0.00
2011-02-20 00:00:00 13814 0 0.00 0.00 0.00 0.0 0.00	69.5949500263	0.00	0.00	Partly_Cloudy/Wind(cloudy_and_windy)	True	False	0.00
2011-02-20 01:00:00 13815 1 0.00 0.00 0.00 0.0 0.00	69.5949500263	0.00	0.00	Partly_Cloudy/Wind(mostly_cloudy_and_windy)	True	False	0.00
2011-02-20 02:00:00 13816 2 0.00 0.00 0.00 0.0 0.00	69.5949500263	0.00	0.00	Partly_Cloudy/Wind(mostly_cloudy_and_windy)	True	False	0.00
2011-02-20 03:00:00 13817 3 0.00 0.00 0.00 0.0 0.00	69.5949500263	0.00	0.00	Partly_Cloudy(fair)	True	False	0.00
2011-02-20 04:00:00 13818 4 0.00 0.00 0.00 0.0 0.00	69.5949500263	0.00	0.00	Mostly_Clear(fair)	False	False	0.00
2011-02-20 05:00:00 13819 5 0.00 0.00 0.00 0.0 0.00	69.5949500263	0.00	0.00	Mostly_Clear(fair)	False	False	0.00
2011-02-20 06:00:00 13820 6 6.13 6.13 6.13 1.4 9.60	63.8808280132	6.13	1.40	Clear(fair)	True	False	1.40
2011-02-20 07:00:00 13821 7 128.27 128.27 128.27 147.1 200.80	63.8808280132	128.27	147.10	Sunny(fair)	True	False	147.10
2011-02-20 08:00:00 13822 8 356.07 356.07 356.07 522.3 557.40	63.8808280132	356.07	522.30	Sunny(fair)	True	False	522.30
2011-02-20 09:00:00 13823 9 515.90 515.90 515.90 808.3 807.60	63.8808280132	515.90	808.30	Sunny(fair)	True	False	808.30
2011-02-20 10:00:00 13824 10 703.35 703.35 703.35 969.8 1054.10	66.7251667252	703.35	969.80	Sunny(fair)	True	False	969.80
2011-02-20 11:00:00 13825 11 4.20 4.20 4.20 1044.4 1140.60	0.368227248816	4.20	1044.40	Snow_Shower(fair)	True	False	1044.40
2011-02-20 12:00:00 13826 12 7.41 7.41 7.41 1023.0 1129.20	0.656265477959	7.41	1023.00	Light_Snow(fair)	True	False	1023.00
2011-02-20 13:00:00 13827 13 6.78 6.78 6.78 998.1 1033.80	0.656265477959	6.78	998.10	Light_Snow(fair)	True	False	998.10
2011-02-20 14:00:00 13828 14 5.61 5.61 5.61 846.9 854.70	0.656265477959	5.61	846.90	Light_Snow(fair)	True	False	846.90
2011-02-20 15:00:00 13829 15 61.64 61.64 61.64 565.0 624.40	9.87199719446	61.64	565.00	Wintry_Mix(fair)	True	False	565.00
2011-02-20 16:00:00 13830 16 27.24 27.24 27.24 164.0 275.90	9.87199719446	27.24	164.00	Wintry_Mix(fair)	True	False	164.00
2011-02-20 17:00:00 13831 17 2.92 2.92 2.92 11.6 29.60	9.87199719446	2.92	11.60	Wintry_Mix(fair)	True	False	11.60
2011-02-20 18:00:00 13832 18 0.00 0.00 0.00 0.0 0.00	9.87199719446	0.00	0.00	Rain(fair)	True	False	0.00
2011-02-20 19:00:00 13833 19 0.00 0.00 0.00 0.0 0.00	9.87199719446	0.00	0.00	Rain(fair)	True	False	0.00
2011-02-20 20:00:00 13834 20 0.00 0.00 0.00 0.0 0.00	9.87199719446	0.00	0.00	Rain(mostly_cloudy)	True	False	0.00
2011-02-20 21:00:00 13835 21 0.00 0.00 0.00 0.0 0.00	9.87199719446	0.00	0.00	Showers(mostly_cloudy)	True	False	0.00
2011-02-20 22:00:00 13836 22 0.00 0.00 0.00 0.0 0.00	9.87199719446	0.00	0.00	Showers(cloudy)	True	False	0.00
2011-02-20 23:00:00 13837 23 0.00 0.00 0.00 0.0 0.00	9.87199719446	0.00	0.00	Showers(cloudy)	True	False	0.00
2011-02-21 00:00:00 13838 0 0.00 0.00 0.00 0.0 0.00	6.59330234323	0.00	0.00	Few_Showers(cloudy)	True	False	0.00
2011-02-21 01:00:00 13839 1 0.00 0.00 0.00 0.0 0.00	6.59330234323	0.00	0.00	Few_Showers(light_snow)	True	False	0.00
2011-02-21 02:00:00 13840 2 0.00 0.00 0.00 0.0 0.00	6.59330234323	0.00	0.00	Few_Showers(light_snow)	True	False	0.00
2011-02-21 03:00:00 13841 3 0.00 0.00 0.00 0.0 0.00	24.4534726253	0.00	0.00	Cloudy(snow)	True	False	0.00
2011-02-21 04:00:00 13842 4 0.00 0.00 0.00 0.0 0.00	24.4534726253	0.00	0.00	Cloudy(snow)	True	False	0.00
2011-02-21 05:00:00 13843 5 0.00 0.00 0.00 0.0 0.00	24.4534726253	0.00	0.00	Cloudy(light_snow)	True	False	0.00
2011-02-21 06:00:00 13844 6 2.16 2.16 2.16 0.0 9.60	22.5482912333	2.16	0.00	Mostly_Cloudy(light_snow)	True	False	0.00
2011-02-21 07:00:00 13845 7 45.28 45.28 45.28 0.0 200.80	22.5482912333	45.28	0.00	Mostly_Cloudy(light_snow)	True	False	0.00
2011-02-21 08:00:00 13846 8 125.68 125.68 125.68 1.3 557.40	22.5482912333	125.68	1.30	Mostly_Cloudy(cloudy)	True	False	1.30
2011-02-21 09:00:00 13847 9 182.10 182.10 182.10 13.3 807.60	22.5482912333	182.10	13.30	Mostly_Cloudy(light_snow)	True	False	13.30
2011-02-21 10:00:00 13848 10 237.68 237.68 237.68 29.3 1054.10	22.5482912333	237.68	29.30	Mostly_Cloudy(cloudy)	True	False	29.30
