2011-03-14 18:00:00 39974 18 77.48 77.48 77.48 0.0 87.20	69.0666891493	77.48	0.00	Partly_Cloudy(cloudy)	True	False	0.00
2011-03-14 19:00:00 39975 19 0.00 0.00 0.00 0.0 1.00	69.0666891493	0.00	0.00	Partly_Cloudy(partly_cloudy)	True	False	0.00
2011-03-14 20:00:00 39976 20 0.00 0.00 0.00 0.0 0.00	69.0666891493	0.00	0.00	Partly_Cloudy(mostly_cloudy)	True	False	0.00
2011-03-14 21:00:00 39977 21 0.00 0.00 0.00 0.0 0.00	69.0666891493	0.00	0.00	Partly_Cloudy(mostly_cloudy)	True	False	0.00
2011-03-14 22:00:00 39978 22 0.00 0.00 0.00 0.0 0.00	69.0666891493	0.00	0.00	Mostly_Clear(mostly_cloudy)	False	False	0.00
2011-03-14 23:00:00 39979 23 0.00 0.00 0.00 0.0 0.00	69.0666891493	0.00	0.00	Mostly_Clear(partly_cloudy)	False	False	0.00
2011-03-15 00:00:00 39980 0 0.00 0.00 0.00 0.0 0.00	85.36855904	0.00	0.00	Clear(clear)	True	False	0.00
2011-03-15 01:00:00 39981 1 0.00 0.00 0.00 0.0 0.00	85.36855904	0.00	0.00	Clear(clear)	True	False	0.00
2011-03-15 02:00:00 39982 2 0.00 0.00 0.00 0.0 0.00	85.36855904	0.00	0.00	Clear(clear)	True	False	0.00
2011-03-15 03:00:00 39983 3 0.00 0.00 0.00 0.0 0.00	85.36855904	0.00	0.00	Clear(clear)	True	False	0.00
2011-03-15 04:00:00 39984 4 0.00 0.00 0.00 0.0 0.00	85.36855904	0.00	0.00	Clear(clear)	True	False	0.00
2011-03-15 05:00:00 39985 5 0.00 0.00 0.00 0.0 0.00	85.36855904	0.00	0.00	Clear(clear)	True	False	0.00
2011-03-15 06:00:00 39986 6 23.31 23.31 23.31 0.0 27.30	85.36855904	23.31	0.00	Clear(clear)	True	False	0.00
2011-03-15 07:00:00 39987 7 206.76 206.76 206.76 50.2 242.20	85.36855904	206.76	50.20	Clear(sunny)	True	False	50.20
2011-03-15 08:00:00 39988 8 518.96 518.96 518.96 272.5 607.90	85.36855904	518.96	272.50	Sunny(sunny)	True	False	272.50
2011-03-15 09:00:00 39989 9 756.88 756.88 756.88 628.0 886.60	85.36855904	756.88	628.00	Sunny(sunny)	True	False	628.00
2011-03-15 10:00:00 39990 10 945.18 945.18 945.18 869.3 1063.70	88.8579629469	945.18	869.30	Sunny(sunny)	True	False	869.30
2011-03-15 11:00:00 39991 11 1021.60 1021.60 1021.60 1055.6 1149.70	88.8579629469	1021.60	1055.60	Sunny(sunny)	True	False	1055.60
2011-03-15 12:00:00 39992 12 1053.94 1053.94 1053.94 878.0 1186.10	88.8579629469	1053.94	878.00	Sunny(fair)	True	False	878.00
2011-03-15 13:00:00 39993 13 1039.90 1039.90 1039.90 1092.1 1170.30	88.8579629469	1039.90	1092.10	Sunny(sunny)	True	False	1092.10
2011-03-15 14:00:00 39994 14 1028.89 1028.89 1028.89 706.0 1157.90	88.8579629469	1028.89	706.00	Sunny(sunny)	True	False	706.00
2011-03-15 15:00:00 39995 15 881.20 881.20 881.20 423.7 991.70	88.8579629469	881.20	423.70	Sunny(sunny)	True	False	423.70
2011-03-15 16:00:00 39996 16 472.49 472.49 472.49 312.8 684.10	69.0666891493	472.49	312.80	Partly_Cloudy(partly_cloudy)	True	False	312.80
2011-03-15 17:00:00 39997 17 241.04 241.04 241.04 170.0 349.00	69.0666891493	241.04	170.00	Partly_Cloudy(mostly_cloudy)	True	False	170.00
2011-03-15 18:00:00 39998 18 60.23 60.23 60.23 33.1 87.20	69.0666891493	60.23	33.10	Partly_Cloudy(partly_cloudy)	True	False	33.10
2011-03-15 19:00:00 39999 19 0.28 0.28 0.28 0.0 1.00	27.9989636411	0.28	0.00	Mostly_Cloudy(partly_cloudy)	True	False	0.00
2011-03-15 20:00:00 40000 20 0.00 0.00 0.00 0.0 0.00	27.9989636411	0.00	0.00	Mostly_Cloudy(cloudy)	True	False	0.00
2011-03-15 21:00:00 40001 21 0.00 0.00 0.00 0.0 0.00	27.9989636411	0.00	0.00	Mostly_Cloudy(cloudy)	True	False	0.00
2011-03-15 22:00:00 40002 22 0.00 0.00 0.00 0.0 0.00	13.6410642098	0.00	0.00	Cloudy(cloudy)	True	False	0.00
2011-03-15 23:00:00 40003 23 0.00 0.00 0.00 0.0 0.00	13.6410642098	0.00	0.00	Cloudy(cloudy)	True	False	0.00
2011-03-16 00:00:00 40004 0 0.00 0.00 0.00 0.0 0.00	13.6410642098	0.00	0.00	Cloudy(cloudy)	True	False	0.00
2011-03-16 01:00:00 40005 1 0.00 0.00 0.00 0.0 0.00	4.48905932777	0.00	0.00	Showers(cloudy)	True	False	0.00
2011-03-16 02:00:00 40006 2 0.00 0.00 0.00 0.0 0.00	4.48905932777	0.00	0.00	Showers(cloudy)	True	False	0.00
2011-03-16 03:00:00 40007 3 0.00 0.00 0.00 0.0 0.00	4.48905932777	0.00	0.00	Showers(light_rain)	True	False	0.00
2011-03-16 04:00:00 40008 4 0.00 0.00 0.00 0.0 0.00	4.48905932777	0.00	0.00	Rain(cloudy)	True	False	0.00
2011-03-16 05:00:00 40009 5 0.00 0.00 0.00 0.0 0.00	4.48905932777	0.00	0.00	Rain(light_rain)	True	False	0.00
2011-03-16 06:00:00 40010 6 1.23 1.23 1.23 0.0 27.30	4.48905932777	1.23	0.00	Rain(rain)	True	False	0.00
2011-03-16 07:00:00 40011 7 10.87 10.87 10.87 0.0 242.20	4.48905932777	10.87	0.00	Rain(rain)	True	False	0.00
2011-03-16 08:00:00 40012 8 27.29 27.29 27.29 11.2 607.90	4.48905932777	27.29	11.20	Rain(light_rain)	True	False	11.20
2011-03-16 09:00:00 40013 9 39.80 39.80 39.80 73.8 886.60	4.48905932777	39.80	73.80	Rain(light_rain)	True	False	73.80
2011-03-16 10:00:00 40014 10 43.67 43.67 43.67 166.5 1063.70	4.10541880491	43.67	166.50	Rain(fog)	True	False	166.50
2011-03-16 11:00:00 40015 11 47.20 47.20 47.20 329.7 1149.70	4.10541880491	47.20	329.70	Rain(cloudy)	True	False	329.70
2011-03-16 12:00:00 40016 12 48.69 48.69 48.69 441.0 1186.10	4.10541880491	48.69	441.00	Rain(cloudy)	True	False	441.00
2011-03-16 13:00:00 40017 13 48.05 48.05 48.05 537.1 1170.30	4.10541880491	48.05	537.10	Showers(cloudy)	True	False	537.10
2011-03-16 14:00:00 40018 14 47.54 47.54 47.54 776.9 1157.90	4.10541880491	47.54	776.90	Showers(mostly_cloudy)	True	False	776.90
2011-03-16 15:00:00 40019 15 40.71 40.71 40.71 803.0 991.70	4.10541880491	40.71	803.00	Showers(cloudy)	True	False	803.00
2011-03-16 16:00:00 40020 16 191.54 191.54 191.54 444.7 684.10	27.9989636411	191.54	444.70	Mostly_Cloudy(mostly_cloudy)	True	False	444.70
2011-03-16 17:00:00 40021 17 97.72 97.72 97.72 256.1 349.00	27.9989636411	97.72	256.10	Mostly_Cloudy(cloudy)	True	False	256.10
2011-03-16 18:00:00 40022 18 24.42 24.42 24.42 31.4 87.20	27.9989636411	24.42	31.40	Mostly_Cloudy(cloudy)	True	False	31.40
