2011-02-27 07:00:00 22297 7 53.70 53.70 53.70 133.8 242.20	22.171758877	53.70	133.80	Cloudy(fair)	True	False	133.80
2011-02-27 08:00:00 22298 8 134.78 134.78 134.78 486.6 607.90	22.171758877	134.78	486.60	Cloudy(fair)	True	False	486.60
2011-02-27 09:00:00 22299 9 201.41 201.41 201.41 780.1 886.60	22.7170742652	201.41	780.10	Mostly_Cloudy(fair)	True	False	780.10
2011-02-27 10:00:00 22300 10 360.02 360.02 360.02 973.8 1063.70	33.8456360781	360.02	973.80	Mostly_Cloudy(fair)	True	False	973.80
2011-02-27 11:00:00 22301 11 389.12 389.12 389.12 968.6 1149.70	33.8456360781	389.12	968.60	Mostly_Cloudy(cloudy)	True	False	968.60
2011-02-27 12:00:00 22302 12 387.06 387.06 387.06 962.1 1143.60	33.8456360781	387.06	962.10	Mostly_Cloudy(cloudy)	True	False	962.10
2011-02-27 13:00:00 22303 13 351.25 351.25 351.25 1005.1 1037.80	33.8456360781	351.25	1005.10	Mostly_Cloudy(cloudy)	True	False	1005.10
2011-02-27 14:00:00 22304 14 301.70 301.70 301.70 845.0 891.40	33.8456360781	301.70	845.00	Mostly_Cloudy(partly_cloudy)	True	False	845.00
2011-02-27 15:00:00 22305 15 217.36 217.36 217.36 564.5 642.20	33.8456360781	217.36	564.50	Mostly_Cloudy(fair)	True	False	564.50
2011-02-27 16:00:00 22306 16 68.61 68.61 68.61 184.2 302.00	22.7170742652	68.61	184.20	Mostly_Cloudy(fair)	True	False	184.20
2011-02-27 17:00:00 22307 17 7.86 7.86 7.86 27.9 34.60	22.7170742652	7.86	27.90	Mostly_Cloudy(fair)	True	False	27.90
2011-02-27 18:00:00 22308 18 0.00 0.00 0.00 0.0 0.00	22.7170742652	0.00	0.00	Mostly_Cloudy(fair)	True	False	0.00
2011-02-27 19:00:00 22309 19 0.00 0.00 0.00 0.0 0.00	22.7170742652	0.00	0.00	Mostly_Cloudy(fair)	True	False	0.00
2011-02-27 20:00:00 22310 20 0.00 0.00 0.00 0.0 0.00	22.7170742652	0.00	0.00	Mostly_Cloudy(fair)	True	False	0.00
2011-02-27 21:00:00 22311 21 0.00 0.00 0.00 0.0 0.00	22.171758877	0.00	0.00	Cloudy(fair)	True	False	0.00
2011-02-27 22:00:00 22312 22 0.00 0.00 0.00 0.0 0.00	22.171758877	0.00	0.00	Cloudy(fair)	True	False	0.00
2011-02-27 23:00:00 22313 23 0.00 0.00 0.00 0.0 0.00	22.171758877	0.00	0.00	Cloudy(fair)	True	False	0.00
2011-02-28 00:00:00 22314 0 0.00 0.00 0.00 0.0 0.00	22.171758877	0.00	0.00	Cloudy(fair)	True	False	0.00
2011-02-28 01:00:00 22315 1 0.00 0.00 0.00 0.0 0.00	22.171758877	0.00	0.00	Cloudy(mostly_cloudy)	True	False	0.00
2011-02-28 02:00:00 22316 2 0.00 0.00 0.00 0.0 0.00	22.171758877	0.00	0.00	Cloudy(cloudy)	True	False	0.00
2011-02-28 03:00:00 22317 3 0.00 0.00 0.00 0.0 0.00	4.48905932777	0.00	0.00	Showers(cloudy)	True	False	0.00
2011-02-28 04:00:00 22318 4 0.00 0.00 0.00 0.0 0.00	4.48905932777	0.00	0.00	Showers(light_rain)	True	False	0.00
2011-02-28 05:00:00 22319 5 0.00 0.00 0.00 0.0 0.00	4.48905932777	0.00	0.00	Showers(light_rain)	True	False	0.00
2011-02-28 06:00:00 22320 6 1.23 1.23 1.23 0.0 27.30	4.48905932777	1.23	0.00	Rain(light_rain)	True	False	0.00
2011-02-28 07:00:00 22321 7 10.87 10.87 10.87 0.0 242.20	4.48905932777	10.87	0.00	Rain(cloudy)	True	False	0.00
2011-02-28 08:00:00 22322 8 27.29 27.29 27.29 23.1 607.90	4.48905932777	27.29	23.10	Rain(rain)	True	False	23.10
2011-02-28 09:00:00 22323 9 39.80 39.80 39.80 24.4 886.60	4.48905932777	39.80	24.40	Rain(light_rain)	True	False	24.40
2011-02-28 10:00:00 22324 10 91.15 91.15 91.15 127.7 1063.70	8.56942987058	91.15	127.70	Rain(rain)	True	False	127.70
2011-02-28 11:00:00 22325 11 98.52 98.52 98.52 194.4 1149.70	8.56942987058	98.52	194.40	Rain(light_rain)	True	False	194.40
2011-02-28 12:00:00 22326 12 98.00 98.00 98.00 181.6 1143.60	8.56942987058	98.00	181.60	Rain(partly_cloudy)	True	False	181.60
2011-02-28 13:00:00 22327 13 88.93 88.93 88.93 167.4 1037.80	8.56942987058	88.93	167.40	Rain(fair)	True	False	167.40
2011-02-28 14:00:00 22328 14 76.39 76.39 76.39 91.1 891.40	8.56942987058	76.39	91.10	Rain(fair)	True	False	91.10
2011-02-28 15:00:00 22329 15 55.03 55.03 55.03 83.2 642.20	8.56942987058	55.03	83.20	Rain(fair)	True	False	83.20
2011-02-28 16:00:00 22330 16 13.56 13.56 13.56 26.5 302.00	4.48905932777	13.56	26.50	Rain(cloudy)	True	False	26.50
2011-02-28 17:00:00 22331 17 1.55 1.55 1.55 1.7 34.60	4.48905932777	1.55	1.70	Rain(cloudy)	True	False	1.70
2011-02-28 18:00:00 22332 18 0.00 0.00 0.00 0.0 0.00	4.48905932777	0.00	0.00	Rain_/_Thunder(cloudy)	True	False	0.00
2011-02-28 19:00:00 22333 19 0.00 0.00 0.00 0.0 0.00	4.48905932777	0.00	0.00	Rain_/_Thunder(cloudy)	True	False	0.00
2011-02-28 20:00:00 22334 20 0.00 0.00 0.00 0.0 0.00	4.48905932777	0.00	0.00	Rain_/_Thunder(Unkown)	True	False	0.00
2011-02-28 21:00:00 22335 21 0.00 0.00 0.00 0.0 0.00	4.48905932777	0.00	0.00	Rain(cloudy)	True	False	0.00
2011-02-28 22:00:00 22336 22 0.00 0.00 0.00 0.0 0.00	4.48905932777	0.00	0.00	Rain(cloudy)	True	False	0.00
2011-02-28 23:00:00 22337 23 0.00 0.00 0.00 0.0 0.00	4.48905932777	0.00	0.00	Rain(mostly_cloudy)	True	False	0.00
2011-03-01 00:00:00 22338 0 0.00 0.00 0.00 0.0 0.00	4.48905932777	0.00	0.00	Showers(fair)	True	False	0.00
2011-03-01 01:00:00 22339 1 0.00 0.00 0.00 0.0 0.00	4.48905932777	0.00	0.00	Showers(fair)	True	False	0.00
2011-03-01 02:00:00 22340 2 0.00 0.00 0.00 0.0 0.00	4.48905932777	0.00	0.00	Showers(fair)	True	False	0.00
2011-03-01 03:00:00 22341 3 0.00 0.00 0.00 0.0 0.00	22.7170742652	0.00	0.00	Mostly_Cloudy(fair)	True	False	0.00
2011-03-01 04:00:00 22342 4 0.00 0.00 0.00 0.0 0.00	22.7170742652	0.00	0.00	Mostly_Cloudy(fair)	True	False	0.00
2011-03-01 05:00:00 22343 5 0.00 0.00 0.00 0.0 0.00	22.7170742652	0.00	0.00	Mostly_Cloudy(fair)	True	False	0.00
2011-03-01 06:00:00 22344 6 19.49 19.49 19.49 10.5 27.30	71.3923098618	19.49	10.50	Partly_Cloudy(fair)	True	False	10.50
2011-03-01 07:00:00 22345 7 172.91 172.91 172.91 86.9 242.20	71.3923098618	172.91	86.90	Partly_Cloudy(fair)	True	False	86.90
