2011-03-27 04:00:00 54252 4 0.00 0.00 0.00 0.0 0.00	36.1943116033	0.00	0.00	Mostly_Cloudy(partly_cloudy)	True	False	0.00
2011-03-27 05:00:00 54253 5 0.00 0.00 0.00 0.0 0.00	36.1943116033	0.00	0.00	Mostly_Cloudy(partly_cloudy)	True	False	0.00
2011-03-27 06:00:00 54254 6 1.27 1.27 1.27 0.0 3.50	36.1943116033	1.27	0.00	Mostly_Cloudy(mostly_cloudy)	True	False	0.00
2011-03-27 07:00:00 54255 7 39.38 39.38 39.38 39.8 108.80	36.1943116033	39.38	39.80	Mostly_Cloudy(mostly_cloudy)	True	False	39.80
2011-03-27 08:00:00 54256 8 143.87 143.87 143.87 282.3 397.50	36.1943116033	143.87	282.30	Mostly_Cloudy(mostly_cloudy)	True	False	282.30
2011-03-27 09:00:00 54257 9 99.59 99.59 99.59 700.8 787.70	12.6428758398	99.59	700.80	Cloudy(partly_cloudy)	True	False	700.80
2011-03-27 10:00:00 54258 10 364.26 364.26 364.26 978.4 1006.40	36.1943116033	364.26	978.40	Mostly_Cloudy(sunny)	True	False	978.40
2011-03-27 11:00:00 54259 11 414.82 414.82 414.82 1144.5 1146.10	36.1943116033	414.82	1144.50	Mostly_Cloudy(sunny)	True	False	1144.50
2011-03-27 12:00:00 54260 12 438.13 438.13 438.13 1220.7 1210.50	36.1943116033	438.13	1220.70	Mostly_Cloudy(sunny)	True	False	1220.70
2011-03-27 13:00:00 54261 13 431.40 431.40 431.40 1209.3 1191.90	36.1943116033	431.40	1209.30	Mostly_Sunny(sunny)	False	False	1209.30
2011-03-27 14:00:00 54262 14 419.09 419.09 419.09 1130.0 1157.90	36.1943116033	419.09	1130.00	Mostly_Sunny(sunny)	False	False	1130.00
2011-03-27 15:00:00 54263 15 358.94 358.94 358.94 975.3 991.70	36.1943116033	358.94	975.30	Mostly_Sunny(sunny)	False	False	975.30
2011-03-27 16:00:00 54264 16 608.20 608.20 608.20 721.3 715.40	85.0158982512	608.20	721.30	Sunny(sunny)	True	False	721.30
2011-03-27 17:00:00 54265 17 333.69 333.69 333.69 377.9 392.50	85.0158982512	333.69	377.90	Sunny(sunny)	True	False	377.90
2011-03-27 18:00:00 54266 18 86.46 86.46 86.46 76.0 101.70	85.0158982512	86.46	76.00	Sunny(sunny)	True	False	76.00
2011-03-27 19:00:00 54267 19 5.02 5.02 5.02 1.0 5.90	85.0158982512	5.02	1.00	Sunny(sunny)	True	False	1.00
2011-03-27 20:00:00 54268 20 0.00 0.00 0.00 0.0 0.00	85.0158982512	0.00	0.00	Clear(clear)	True	False	0.00
2011-03-27 21:00:00 54269 21 0.00 0.00 0.00 0.0 0.00	85.0158982512	0.00	0.00	Clear(clear)	True	False	0.00
2011-03-27 22:00:00 54270 22 0.00 0.00 0.00 0.0 0.00	85.0158982512	0.00	0.00	Clear(clear)	True	False	0.00
2011-03-27 23:00:00 54271 23 0.00 0.00 0.00 0.0 0.00	85.0158982512	0.00	0.00	Clear(clear)	True	False	0.00
2011-03-28 00:00:00 54272 0 0.00 0.00 0.00 0.0 0.00	85.0158982512	0.00	0.00	Clear(clear)	True	False	0.00
2011-03-28 01:00:00 54273 1 0.00 0.00 0.00 0.0 0.00	85.0158982512	0.00	0.00	Clear(clear)	True	False	0.00
2011-03-28 02:00:00 54274 2 0.00 0.00 0.00 0.0 0.00	85.0158982512	0.00	0.00	Clear(clear)	True	False	0.00
2011-03-28 03:00:00 54275 3 0.00 0.00 0.00 0.0 0.00	85.0158982512	0.00	0.00	Clear(clear)	True	False	0.00
2011-03-28 04:00:00 54276 4 0.00 0.00 0.00 0.0 0.00	85.0158982512	0.00	0.00	Clear(clear)	True	False	0.00
2011-03-28 05:00:00 54277 5 0.00 0.00 0.00 0.0 0.00	85.0158982512	0.00	0.00	Clear(clear)	True	False	0.00
2011-03-28 06:00:00 54278 6 2.98 2.98 2.98 0.3 3.50	85.0158982512	2.98	0.30	Clear(clear)	True	False	0.30
2011-03-28 07:00:00 54279 7 92.50 92.50 92.50 85.2 108.80	85.0158982512	92.50	85.20	Sunny(sunny)	True	False	85.20
2011-03-28 08:00:00 54280 8 337.94 337.94 337.94 398.3 397.50	85.0158982512	337.94	398.30	Sunny(sunny)	True	False	398.30
2011-03-28 09:00:00 54281 9 669.67 669.67 669.67 740.9 787.70	85.0158982512	669.67	740.90	Sunny(sunny)	True	False	740.90
2011-03-28 10:00:00 54282 10 887.60 887.60 887.60 1001.5 1006.40	88.1953183992	887.60	1001.50	Sunny(sunny)	True	False	1001.50
2011-03-28 11:00:00 54283 11 1010.81 1010.81 1010.81 1092.2 1146.10	88.1953183992	1010.81	1092.20	Sunny(sunny)	True	False	1092.20
2011-03-28 12:00:00 54284 12 1067.60 1067.60 1067.60 1156.2 1210.50	88.1953183992	1067.60	1156.20	Sunny(fair)	True	False	1156.20
2011-03-28 13:00:00 54285 13 1051.20 1051.20 1051.20 1171.3 1191.90	88.1953183992	1051.20	1171.30	Sunny(sunny)	True	False	1171.30
2011-03-28 14:00:00 54286 14 1021.21 1021.21 1021.21 1047.7 1157.90	88.1953183992	1021.21	1047.70	Sunny(sunny)	True	False	1047.70
2011-03-28 15:00:00 54287 15 874.63 874.63 874.63 929.5 991.70	88.1953183992	874.63	929.50	Sunny(sunny)	True	False	929.50
2011-03-28 16:00:00 54288 16 608.20 608.20 608.20 714.7 715.40	85.0158982512	608.20	714.70	Sunny(sunny)	True	False	714.70
2011-03-28 17:00:00 54289 17 333.69 333.69 333.69 375.1 392.50	85.0158982512	333.69	375.10	Sunny(sunny)	True	False	375.10
2011-03-28 18:00:00 54290 18 86.46 86.46 86.46 76.3 101.70	85.0158982512	86.46	76.30	Sunny(sunny)	True	False	76.30
2011-03-28 19:00:00 54291 19 5.02 5.02 5.02 1.1 5.90	85.0158982512	5.02	1.10	Sunny(sunny)	True	False	1.10
2011-03-28 20:00:00 54292 20 0.00 0.00 0.00 0.0 0.00	85.0158982512	0.00	0.00	Clear(clear)	True	False	0.00
2011-03-28 21:00:00 54293 21 0.00 0.00 0.00 0.0 0.00	85.0158982512	0.00	0.00	Clear(clear)	True	False	0.00
2011-03-28 22:00:00 54294 22 0.00 0.00 0.00 0.0 0.00	85.0158982512	0.00	0.00	Clear(clear)	True	False	0.00
2011-03-28 23:00:00 54295 23 0.00 0.00 0.00 0.0 0.00	85.0158982512	0.00	0.00	Clear(clear)	True	False	0.00
2011-03-29 00:00:00 54296 0 0.00 0.00 0.00 0.0 0.00	85.0158982512	0.00	0.00	Clear(clear)	True	False	0.00
2011-03-29 01:00:00 54297 1 0.00 0.00 0.00 0.0 0.00	85.0158982512	0.00	0.00	Clear(clear)	True	False	0.00
2011-03-29 02:00:00 54298 2 0.00 0.00 0.00 0.0 0.00	85.0158982512	0.00	0.00	Clear(clear)	True	False	0.00
2011-03-29 03:00:00 54299 3 0.00 0.00 0.00 0.0 0.00	85.0158982512	0.00	0.00	Clear(clear)	True	False	0.00
2011-03-29 04:00:00 54300 4 0.00 0.00 0.00 0.0 0.00	85.0158982512	0.00	0.00	Clear(clear)	True	False	0.00
