2011-03-11 12:00:00 36244 12 614.20 1060.80 1060.80 558.7 1177.90	52.1436454708	1060.80	558.70	Mostly_Cloudy(cloudy)	True	False	558.70
2011-03-11 13:00:00 36245 13 610.24 555.10 555.10 735.1 1170.30	52.1436454708	555.10	735.10	Mostly_Cloudy(mostly_cloudy)	True	False	735.10
2011-03-11 14:00:00 36246 14 784.00 513.83 513.83 791.6 1083.30	72.3714575833	513.83	791.60	Partly_Cloudy(fair)	True	False	791.60
2011-03-11 15:00:00 36247 15 671.17 439.88 439.88 408.3 927.40	72.3714575833	439.88	408.30	Partly_Cloudy(sunny)	True	False	408.30
2011-03-11 16:00:00 36248 16 484.49 324.48 324.48 94.2 684.10	70.8209525427	324.48	94.20	Partly_Cloudy(cloudy)	True	False	94.20
2011-03-11 17:00:00 36249 17 247.17 165.54 165.54 16.0 349.00	70.8209525427	165.54	16.00	Partly_Cloudy(cloudy)	True	False	16.00
2011-03-11 18:00:00 36250 18 47.66 31.92 31.92 0.0 67.30	70.8209525427	31.92	0.00	Partly_Cloudy(cloudy)	True	False	0.00
2011-03-11 19:00:00 36251 19 0.35 0.24 0.24 0.0 0.50	70.8209525427	0.24	0.00	Partly_Cloudy(cloudy)	True	False	0.00
2011-03-11 20:00:00 36252 20 0.00 0.00 0.00 0.0 0.00	70.8209525427	0.00	0.00	Partly_Cloudy(cloudy)	True	False	0.00
2011-03-11 21:00:00 36253 21 0.00 0.00 0.00 0.0 0.00	27.850087695	0.00	0.00	Mostly_Cloudy(cloudy)	True	False	0.00
2011-03-11 22:00:00 36254 22 0.00 0.00 0.00 0.0 0.00	27.850087695	0.00	0.00	Mostly_Cloudy(cloudy)	True	False	0.00
2011-03-11 23:00:00 36255 23 0.00 0.00 0.00 0.0 0.00	27.850087695	0.00	0.00	Mostly_Cloudy(partly_cloudy)	True	False	0.00
2011-03-12 00:00:00 36256 0 0.00 0.00 0.00 0.0 0.00	27.850087695	0.00	0.00	Mostly_Cloudy(partly_cloudy)	True	False	0.00
2011-03-12 01:00:00 36257 1 0.00 0.00 0.00 0.0 0.00	27.850087695	0.00	0.00	Mostly_Cloudy(mostly_cloudy)	True	False	0.00
2011-03-12 02:00:00 36258 2 0.00 0.00 0.00 0.0 0.00	27.850087695	0.00	0.00	Mostly_Cloudy(partly_cloudy)	True	False	0.00
2011-03-12 03:00:00 36259 3 0.00 0.00 0.00 0.0 0.00	27.850087695	0.00	0.00	Mostly_Cloudy(mostly_cloudy)	True	False	0.00
2011-03-12 04:00:00 36260 4 0.00 0.00 0.00 0.0 0.00	27.850087695	0.00	0.00	Mostly_Cloudy(cloudy)	True	False	0.00
2011-03-12 05:00:00 36261 5 0.00 0.00 0.00 0.0 0.00	27.850087695	0.00	0.00	Mostly_Cloudy(cloudy)	True	False	0.00
2011-03-12 06:00:00 36262 6 19.33 19.33 19.33 0.6 27.30	70.8209525427	19.33	0.60	Partly_Cloudy(cloudy)	True	False	0.60
2011-03-12 07:00:00 36263 7 171.53 171.53 171.53 88.7 242.20	70.8209525427	171.53	88.70	Partly_Cloudy(cloudy)	True	False	88.70
2011-03-12 08:00:00 36264 8 430.52 430.52 430.52 581.6 607.90	70.8209525427	430.52	581.60	Partly_Cloudy(mostly_cloudy)	True	False	581.60
2011-03-12 09:00:00 36265 9 627.90 627.90 627.90 877.2 886.60	70.8209525427	627.90	877.20	Partly_Cloudy(sunny)	True	False	877.20
2011-03-12 10:00:00 36266 10 769.82 769.82 769.82 1048.4 1063.70	72.3714575833	769.82	1048.40	Partly_Cloudy(fair)	True	False	1048.40
2011-03-12 11:00:00 36267 11 832.05 832.05 832.05 948.1 1149.70	72.3714575833	832.05	948.10	Partly_Cloudy(sunny)	True	False	948.10
2011-03-12 12:00:00 36268 12 852.46 852.46 852.46 496.9 1177.90	72.3714575833	852.46	496.90	Partly_Cloudy(sunny)	True	False	496.90
2011-03-12 13:00:00 36269 13 846.96 846.96 846.96 517.8 1170.30	72.3714575833	846.96	517.80	Partly_Cloudy(partly_cloudy)	True	False	517.80
2011-03-12 14:00:00 36270 14 784.00 784.00 784.00 696.9 1083.30	72.3714575833	784.00	696.90	Partly_Cloudy(mostly_cloudy)	True	False	696.90
2011-03-12 15:00:00 36271 15 483.58 483.58 483.58 487.9 927.40	52.1436454708	483.58	487.90	Mostly_Cloudy(partly_cloudy)	True	False	487.90
2011-03-12 16:00:00 36272 16 190.52 190.52 190.52 292.2 684.10	27.850087695	190.52	292.20	Mostly_Cloudy(partly_cloudy)	True	False	292.20
2011-03-12 17:00:00 36273 17 97.20 97.20 97.20 40.1 349.00	27.850087695	97.20	40.10	Mostly_Cloudy(sunny)	True	False	40.10
2011-03-12 18:00:00 36274 18 47.66 47.66 47.66 0.0 67.30	70.8209525427	47.66	0.00	Partly_Cloudy(clear)	True	False	0.00
2011-03-12 19:00:00 36275 19 0.35 0.35 0.35 0.0 0.50	70.8209525427	0.35	0.00	Partly_Cloudy(clear)	True	False	0.00
2011-03-12 20:00:00 36276 20 0.00 0.00 0.00 0.0 0.00	70.8209525427	0.00	0.00	Partly_Cloudy(clear)	True	False	0.00
2011-03-12 21:00:00 36277 21 0.00 0.00 0.00 0.0 0.00	70.8209525427	0.00	0.00	Partly_Cloudy(clear)	True	False	0.00
2011-03-12 22:00:00 36278 22 0.00 0.00 0.00 0.0 0.00	70.8209525427	0.00	0.00	Partly_Cloudy(mostly_cloudy)	True	False	0.00
2011-03-12 23:00:00 36279 23 0.00 0.00 0.00 0.0 0.00	70.8209525427	0.00	0.00	Partly_Cloudy(partly_cloudy)	True	False	0.00
2011-03-13 00:00:00 36280 0 0.00 0.00 0.00 0.0 0.00	70.8209525427	0.00	0.00	Partly_Cloudy(rain_shower)	True	False	0.00
2011-03-13 01:00:00 36281 1 0.00 0.00 0.00 0.0 0.00	70.8209525427	0.00	0.00	Partly_Cloudy(clear)	True	False	0.00
2011-03-13 02:00:00 36282 2 0.00 0.00 0.00 0.0 0.00	70.8209525427	0.00	0.00	Partly_Cloudy(Unkown)	True	False	0.00
2011-03-13 03:00:00 36283 3 0.00 0.00 0.00 0.0 0.00	70.8209525427	0.00	0.00	Partly_Cloudy(clear)	True	False	0.00
2011-03-13 04:00:00 36284 4 0.00 0.00 0.00 0.0 0.00	70.8209525427	0.00	0.00	Partly_Cloudy(partly_cloudy)	True	False	0.00
2011-03-13 05:00:00 36285 5 0.00 0.00 0.00 0.0 0.00	70.8209525427	0.00	0.00	Partly_Cloudy(clear)	True	False	0.00
2011-03-13 06:00:00 36286 6 23.77 23.77 23.77 0.0 27.30	87.0835870227	23.77	0.00	Clear(partly_cloudy)	True	False	0.00
2011-03-13 07:00:00 36287 7 210.92 210.92 210.92 11.6 242.20	87.0835870227	210.92	11.60	Sunny(cloudy)	True	False	11.60
2011-03-13 08:00:00 36288 8 529.38 529.38 529.38 94.6 607.90	87.0835870227	529.38	94.60	Sunny(cloudy)	True	False	94.60
2011-03-13 09:00:00 36289 9 798.46 798.46 798.46 119.7 886.60	90.0582273021	798.46	119.70	Sunny(cloudy)	True	False	119.70
2011-03-13 10:00:00 36290 10 957.95 957.95 957.95 237.9 1063.70	90.0582273021	957.95	237.90	Sunny(cloudy)	True	False	237.90
2011-03-13 11:00:00 36291 11 1035.40 1035.40 1035.40 583.6 1149.70	90.0582273021	1035.40	583.60	Sunny(mostly_cloudy)	True	False	583.60
2011-03-13 12:00:00 36292 12 1060.80 1060.80 1060.80 513.1 1177.90	90.0582273021	1060.80	513.10	Sunny(cloudy)	True	False	513.10
