2011-03-11 19:00:00 36572 19 0.35 0.45 0.45 0.0 0.50	70.8209525427	0.45	0.00	Partly_Cloudy(cloudy)	True	False	0.00
2011-03-11 20:00:00 36573 20 0.00 0.00 0.00 0.0 0.00	70.8209525427	0.00	0.00	Partly_Cloudy(cloudy)	True	False	0.00
2011-03-11 21:00:00 36574 21 0.00 0.00 0.00 0.0 0.00	70.8209525427	0.00	0.00	Partly_Cloudy(cloudy)	True	False	0.00
2011-03-11 22:00:00 36575 22 0.00 0.00 0.00 0.0 0.00	70.8209525427	0.00	0.00	Partly_Cloudy(cloudy)	True	False	0.00
2011-03-11 23:00:00 36576 23 0.00 0.00 0.00 0.0 0.00	70.8209525427	0.00	0.00	Partly_Cloudy(partly_cloudy)	True	False	0.00
2011-03-12 00:00:00 36577 0 0.00 0.00 0.00 0.0 0.00	70.8209525427	0.00	0.00	Partly_Cloudy(partly_cloudy)	True	False	0.00
2011-03-12 01:00:00 36578 1 0.00 0.00 0.00 0.0 0.00	70.8209525427	0.00	0.00	Partly_Cloudy(mostly_cloudy)	True	False	0.00
2011-03-12 02:00:00 36579 2 0.00 0.00 0.00 0.0 0.00	70.8209525427	0.00	0.00	Partly_Cloudy(partly_cloudy)	True	False	0.00
2011-03-12 03:00:00 36580 3 0.00 0.00 0.00 0.0 0.00	70.8209525427	0.00	0.00	Partly_Cloudy(mostly_cloudy)	True	False	0.00
2011-03-12 04:00:00 36581 4 0.00 0.00 0.00 0.0 0.00	70.8209525427	0.00	0.00	Partly_Cloudy(cloudy)	True	False	0.00
2011-03-12 05:00:00 36582 5 0.00 0.00 0.00 0.0 0.00	70.8209525427	0.00	0.00	Partly_Cloudy(cloudy)	True	False	0.00
2011-03-12 06:00:00 36583 6 23.77 23.77 23.77 0.6 27.30	87.0835870227	23.77	0.60	Clear(cloudy)	True	False	0.60
2011-03-12 07:00:00 36584 7 210.92 210.92 210.92 88.7 242.20	87.0835870227	210.92	88.70	Sunny(cloudy)	True	False	88.70
2011-03-12 08:00:00 36585 8 529.38 529.38 529.38 581.6 607.90	87.0835870227	529.38	581.60	Sunny(mostly_cloudy)	True	False	581.60
2011-03-12 09:00:00 36586 9 772.08 772.08 772.08 877.2 886.60	87.0835870227	772.08	877.20	Sunny(sunny)	True	False	877.20
2011-03-12 10:00:00 36587 10 957.95 957.95 957.95 1048.4 1063.70	90.0582273021	957.95	1048.40	Sunny(fair)	True	False	1048.40
2011-03-12 11:00:00 36588 11 1035.40 1035.40 1035.40 948.1 1149.70	90.0582273021	1035.40	948.10	Sunny(sunny)	True	False	948.10
2011-03-12 12:00:00 36589 12 1060.80 1060.80 1060.80 496.9 1177.90	90.0582273021	1060.80	496.90	Mostly_Sunny(sunny)	False	False	496.90
2011-03-12 13:00:00 36590 13 1053.95 1053.95 1053.95 517.8 1170.30	90.0582273021	1053.95	517.80	Mostly_Sunny(partly_cloudy)	False	False	517.80
2011-03-12 14:00:00 36591 14 975.60 975.60 975.60 696.9 1083.30	90.0582273021	975.60	696.90	Mostly_Sunny(mostly_cloudy)	False	False	696.90
2011-03-12 15:00:00 36592 15 671.17 671.17 671.17 487.9 927.40	72.3714575833	671.17	487.90	Partly_Cloudy(partly_cloudy)	True	False	487.90
2011-03-12 16:00:00 36593 16 484.49 484.49 484.49 292.2 684.10	70.8209525427	484.49	292.20	Partly_Cloudy(partly_cloudy)	True	False	292.20
2011-03-12 17:00:00 36594 17 247.17 247.17 247.17 40.1 349.00	70.8209525427	247.17	40.10	Partly_Cloudy(sunny)	True	False	40.10
2011-03-12 18:00:00 36595 18 47.66 47.66 47.66 0.0 67.30	70.8209525427	47.66	0.00	Mostly_Sunny(clear)	False	False	0.00
2011-03-12 19:00:00 36596 19 0.35 0.35 0.35 0.0 0.50	70.8209525427	0.35	0.00	Mostly_Clear(clear)	False	False	0.00
2011-03-12 20:00:00 36597 20 0.00 0.00 0.00 0.0 0.00	70.8209525427	0.00	0.00	Mostly_Clear(clear)	False	False	0.00
2011-03-12 21:00:00 36598 21 0.00 0.00 0.00 0.0 0.00	87.0835870227	0.00	0.00	Clear(clear)	True	False	0.00
2011-03-12 22:00:00 36599 22 0.00 0.00 0.00 0.0 0.00	87.0835870227	0.00	0.00	Clear(mostly_cloudy)	True	False	0.00
2011-03-12 23:00:00 36600 23 0.00 0.00 0.00 0.0 0.00	87.0835870227	0.00	0.00	Clear(partly_cloudy)	True	False	0.00
2011-03-13 00:00:00 36601 0 0.00 0.00 0.00 0.0 0.00	87.0835870227	0.00	0.00	Mostly_Clear(rain_shower)	False	False	0.00
2011-03-13 01:00:00 36602 1 0.00 0.00 0.00 0.0 0.00	87.0835870227	0.00	0.00	Mostly_Clear(clear)	False	False	0.00
2011-03-13 02:00:00 36603 2 0.00 0.00 0.00 0.0 0.00	87.0835870227	0.00	0.00	Mostly_Clear(Unkown)	False	False	0.00
2011-03-13 03:00:00 36604 3 0.00 0.00 0.00 0.0 0.00	87.0835870227	0.00	0.00	Clear(clear)	True	False	0.00
2011-03-13 04:00:00 36605 4 0.00 0.00 0.00 0.0 0.00	87.0835870227	0.00	0.00	Clear(partly_cloudy)	True	False	0.00
2011-03-13 05:00:00 36606 5 0.00 0.00 0.00 0.0 0.00	87.0835870227	0.00	0.00	Clear(clear)	True	False	0.00
2011-03-13 06:00:00 36607 6 23.77 23.77 23.77 0.0 27.30	87.0835870227	23.77	0.00	Clear(partly_cloudy)	True	False	0.00
2011-03-13 07:00:00 36608 7 210.92 210.92 210.92 11.6 242.20	87.0835870227	210.92	11.60	Sunny(cloudy)	True	False	11.60
2011-03-13 08:00:00 36609 8 529.38 529.38 529.38 94.6 607.90	87.0835870227	529.38	94.60	Sunny(cloudy)	True	False	94.60
2011-03-13 09:00:00 36610 9 641.65 641.65 641.65 119.7 886.60	72.3714575833	641.65	119.70	Partly_Cloudy(cloudy)	True	False	119.70
2011-03-13 10:00:00 36611 10 769.82 769.82 769.82 237.9 1063.70	72.3714575833	769.82	237.90	Partly_Cloudy(cloudy)	True	False	237.90
2011-03-13 11:00:00 36612 11 832.05 832.05 832.05 583.6 1149.70	72.3714575833	832.05	583.60	Partly_Cloudy(mostly_cloudy)	True	False	583.60
2011-03-13 12:00:00 36613 12 852.46 852.46 852.46 513.1 1177.90	72.3714575833	852.46	513.10	Partly_Cloudy(cloudy)	True	False	513.10
2011-03-13 13:00:00 36614 13 846.96 846.96 846.96 568.4 1170.30	72.3714575833	846.96	568.40	Partly_Cloudy(cloudy)	True	False	568.40
2011-03-13 14:00:00 36615 14 784.00 784.00 784.00 436.3 1083.30	72.3714575833	784.00	436.30	Partly_Cloudy(cloudy)	True	False	436.30
2011-03-13 15:00:00 36616 15 656.79 656.79 656.79 346.6 927.40	70.8209525427	656.79	346.60	Partly_Cloudy(cloudy)	True	False	346.60
2011-03-13 16:00:00 36617 16 484.49 484.49 484.49 148.4 684.10	70.8209525427	484.49	148.40	Partly_Cloudy(cloudy)	True	False	148.40
2011-03-13 17:00:00 36618 17 247.17 247.17 247.17 112.3 349.00	70.8209525427	247.17	112.30	Partly_Cloudy(cloudy)	True	False	112.30
2011-03-13 18:00:00 36619 18 47.66 47.66 47.66 30.7 67.30	70.8209525427	47.66	30.70	Mostly_Sunny(cloudy)	False	False	30.70
