2011-02-19 01:00:00 12788 1 0.00 0.00 0.00 0.0 0.00	63.8808280132	0.00	0.00	Clear/Wind(fair)	True	False	0.00
2011-02-19 02:00:00 12789 2 0.00 0.00 0.00 0.0 0.00	63.8808280132	0.00	0.00	Clear/Wind(clear)	True	False	0.00
2011-02-19 03:00:00 12790 3 0.00 0.00 0.00 0.0 0.00	63.8808280132	0.00	0.00	Clear/Wind(fair)	True	False	0.00
2011-02-19 04:00:00 12791 4 0.00 0.00 0.00 0.0 0.00	63.8808280132	0.00	0.00	Clear(fair)	True	False	0.00
2011-02-19 05:00:00 12792 5 0.00 0.00 0.00 0.0 0.00	63.8808280132	0.00	0.00	Clear(clear)	True	False	0.00
2011-02-19 06:00:00 12793 6 6.13 6.13 6.13 0.1 9.60	63.8808280132	6.13	0.10	Clear(fair)	True	False	0.10
2011-02-19 07:00:00 12794 7 128.27 128.27 128.27 132.9 200.80	63.8808280132	128.27	132.90	Sunny(fair)	True	False	132.90
2011-02-19 08:00:00 12795 8 356.07 356.07 356.07 486.6 557.40	63.8808280132	356.07	486.60	Sunny(partly_cloudy)	True	False	486.60
2011-02-19 09:00:00 12796 9 562.05 562.05 562.05 726.9 807.60	69.5949500263	562.05	726.90	Partly_Cloudy_/_Wind(partly_cloudy)	True	False	726.90
2011-02-19 10:00:00 12797 10 789.97 789.97 789.97 628.7 1054.10	74.9430124496	789.97	628.70	Partly_Cloudy_/_Wind(partly_cloudy)	True	False	628.70
2011-02-19 11:00:00 12798 11 854.80 854.80 854.80 614.6 1140.60	74.9430124496	854.80	614.60	Partly_Cloudy_/_Wind(cloudy_and_windy)	True	False	614.60
2011-02-19 12:00:00 12799 12 292.88 292.88 292.88 717.1 1129.20	25.9368181387	292.88	717.10	Mostly_Cloudy_/_Wind(cloudy_and_windy)	True	False	717.10
2011-02-19 13:00:00 12800 13 268.13 268.13 268.13 577.3 1033.80	25.9368181387	268.13	577.30	Mostly_Cloudy_/_Wind(cloudy_and_windy)	True	False	577.30
2011-02-19 14:00:00 12801 14 221.68 221.68 221.68 467.3 854.70	25.9368181387	221.68	467.30	Mostly_Cloudy_/_Wind(mostly_cloudy_and_windy)	True	False	467.30
2011-02-19 15:00:00 12802 15 161.95 161.95 161.95 203.6 624.40	25.9368181387	161.95	203.60	Mostly_Cloudy_/_Wind(mostly_cloudy)	True	False	203.60
2011-02-19 16:00:00 12803 16 62.21 62.21 62.21 64.1 275.90	22.5482912333	62.21	64.10	Mostly_Cloudy_/_Wind(mostly_cloudy_and_windy)	True	False	64.10
2011-02-19 17:00:00 12804 17 6.67 6.67 6.67 6.0 29.60	22.5482912333	6.67	6.00	Mostly_Cloudy_/_Wind(cloudy_and_windy)	True	False	6.00
2011-02-19 18:00:00 12805 18 0.00 0.00 0.00 0.0 0.00	22.5482912333	0.00	0.00	Mostly_Cloudy_/_Wind(cloudy)	True	False	0.00
2011-02-19 19:00:00 12806 19 0.00 0.00 0.00 0.0 0.00	22.5482912333	0.00	0.00	Mostly_Cloudy_/_Wind(cloudy_and_windy)	True	False	0.00
2011-02-19 20:00:00 12807 20 0.00 0.00 0.00 0.0 0.00	22.5482912333	0.00	0.00	Mostly_Cloudy_/_Wind(cloudy)	True	False	0.00
2011-02-19 21:00:00 12808 21 0.00 0.00 0.00 0.0 0.00	69.5949500263	0.00	0.00	Partly_Cloudy_/_Wind(cloudy)	True	False	0.00
2011-02-19 22:00:00 12809 22 0.00 0.00 0.00 0.0 0.00	69.5949500263	0.00	0.00	Partly_Cloudy_/_Wind(cloudy_and_windy)	True	False	0.00
2011-02-19 23:00:00 12810 23 0.00 0.00 0.00 0.0 0.00	69.5949500263	0.00	0.00	Partly_Cloudy_/_Wind(fair)	True	False	0.00
2011-02-20 00:00:00 12811 0 0.00 0.00 0.00 0.0 0.00	69.5949500263	0.00	0.00	Partly_Cloudy(cloudy_and_windy)	True	False	0.00
2011-02-20 01:00:00 12812 1 0.00 0.00 0.00 0.0 0.00	69.5949500263	0.00	0.00	Partly_Cloudy(mostly_cloudy_and_windy)	True	False	0.00
2011-02-20 02:00:00 12813 2 0.00 0.00 0.00 0.0 0.00	69.5949500263	0.00	0.00	Partly_Cloudy(mostly_cloudy_and_windy)	True	False	0.00
2011-02-20 03:00:00 12814 3 0.00 0.00 0.00 0.0 0.00	63.8808280132	0.00	0.00	Clear(fair)	True	False	0.00
2011-02-20 04:00:00 12815 4 0.00 0.00 0.00 0.0 0.00	63.8808280132	0.00	0.00	Clear(fair)	True	False	0.00
2011-02-20 05:00:00 12816 5 0.00 0.00 0.00 0.0 0.00	63.8808280132	0.00	0.00	Clear(fair)	True	False	0.00
2011-02-20 06:00:00 12817 6 6.13 6.13 6.13 1.4 9.60	63.8808280132	6.13	1.40	Clear(fair)	True	False	1.40
2011-02-20 07:00:00 12818 7 128.27 128.27 128.27 147.1 200.80	63.8808280132	128.27	147.10	Sunny(fair)	True	False	147.10
2011-02-20 08:00:00 12819 8 356.07 356.07 356.07 522.3 557.40	63.8808280132	356.07	522.30	Sunny(fair)	True	False	522.30
2011-02-20 09:00:00 12820 9 515.90 515.90 515.90 808.3 807.60	63.8808280132	515.90	808.30	Sunny(fair)	True	False	808.30
2011-02-20 10:00:00 12821 10 703.35 703.35 703.35 969.8 1054.10	66.7251667252	703.35	969.80	Sunny(fair)	True	False	969.80
2011-02-20 11:00:00 12822 11 761.07 761.07 761.07 1044.4 1140.60	66.7251667252	761.07	1044.40	Sunny(fair)	True	False	1044.40
2011-02-20 12:00:00 12823 12 753.46 753.46 753.46 1023.0 1129.20	66.7251667252	753.46	1023.00	Sunny(fair)	True	False	1023.00
2011-02-20 13:00:00 12824 13 689.80 689.80 689.80 998.1 1033.80	66.7251667252	689.80	998.10	Sunny(fair)	True	False	998.10
2011-02-20 14:00:00 12825 14 570.30 570.30 570.30 846.9 854.70	66.7251667252	570.30	846.90	Sunny(fair)	True	False	846.90
2011-02-20 15:00:00 12826 15 416.63 416.63 416.63 565.0 624.40	66.7251667252	416.63	565.00	Sunny(fair)	True	False	565.00
2011-02-20 16:00:00 12827 16 176.25 176.25 176.25 164.0 275.90	63.8808280132	176.25	164.00	Sunny(fair)	True	False	164.00
2011-02-20 17:00:00 12828 17 18.91 18.91 18.91 11.6 29.60	63.8808280132	18.91	11.60	Sunny(fair)	True	False	11.60
2011-02-20 18:00:00 12829 18 0.00 0.00 0.00 0.0 0.00	24.4534726253	0.00	0.00	Cloudy(fair)	True	False	0.00
2011-02-20 19:00:00 12830 19 0.00 0.00 0.00 0.0 0.00	24.4534726253	0.00	0.00	Cloudy(fair)	True	False	0.00
2011-02-20 20:00:00 12831 20 0.00 0.00 0.00 0.0 0.00	24.4534726253	0.00	0.00	Cloudy(mostly_cloudy)	True	False	0.00
2011-02-20 21:00:00 12832 21 0.00 0.00 0.00 0.0 0.00	0.368227248816	0.00	0.00	Snow_Shower(mostly_cloudy)	True	False	0.00
2011-02-20 22:00:00 12833 22 0.00 0.00 0.00 0.0 0.00	0.368227248816	0.00	0.00	Snow_Shower(cloudy)	True	False	0.00
2011-02-20 23:00:00 12834 23 0.00 0.00 0.00 0.0 0.00	0.368227248816	0.00	0.00	Snow_Shower(cloudy)	True	False	0.00
2011-02-21 00:00:00 12835 0 0.00 0.00 0.00 0.0 0.00	0.656265477959	0.00	0.00	Light_Snow(cloudy)	True	False	0.00
2011-02-21 01:00:00 12836 1 0.00 0.00 0.00 0.0 0.00	0.656265477959	0.00	0.00	Light_Snow(light_snow)	True	False	0.00
