2011-02-17 15:00:00 11147 15 464.53 464.53 416.63 447.7 624.40	74.39543432	416.63	447.70	Partly_Cloudy(fair)	True	False	447.70
2011-02-17 16:00:00 11148 16 172.77 172.77 184.09 111.5 275.90	62.6201153107	184.09	111.50	Partly_Cloudy(fair)	True	False	111.50
2011-02-17 17:00:00 11149 17 18.54 18.54 19.75 5.1 29.60	62.6201153107	19.75	5.10	Partly_Cloudy(fair)	True	False	5.10
2011-02-17 18:00:00 11150 18 0.00 0.00 0.00 0.0 0.00	62.6201153107	0.00	0.00	Partly_Cloudy(fair)	True	False	0.00
2011-02-17 19:00:00 11151 19 0.00 0.00 0.00 0.0 0.00	62.6201153107	0.00	0.00	Partly_Cloudy(fair)	True	False	0.00
2011-02-17 20:00:00 11152 20 0.00 0.00 0.00 0.0 0.00	62.6201153107	0.00	0.00	Partly_Cloudy(fair)	True	False	0.00
2011-02-17 21:00:00 11153 21 0.00 0.00 0.00 0.0 0.00	18.4464317026	0.00	0.00	Mostly_Cloudy(fair)	True	False	0.00
2011-02-17 22:00:00 11154 22 0.00 0.00 0.00 0.0 0.00	18.4464317026	0.00	0.00	Mostly_Cloudy(fair)	True	False	0.00
2011-02-17 23:00:00 11155 23 0.00 0.00 0.00 0.0 0.00	18.4464317026	0.00	0.00	Mostly_Cloudy(fair)	True	False	0.00
2011-02-18 00:00:00 11156 0 0.00 0.00 0.00 0.0 0.00	18.4464317026	0.00	0.00	Mostly_Cloudy(fair)	True	False	0.00
2011-02-18 01:00:00 11157 1 0.00 0.00 0.00 0.0 0.00	18.4464317026	0.00	0.00	Mostly_Cloudy(fair)	True	False	0.00
2011-02-18 02:00:00 11158 2 0.00 0.00 0.00 0.0 0.00	18.4464317026	0.00	0.00	Mostly_Cloudy(fair)	True	False	0.00
2011-02-18 03:00:00 11159 3 0.00 0.00 0.00 0.0 0.00	21.2982642579	0.00	0.00	Cloudy(fair)	True	False	0.00
2011-02-18 04:00:00 11160 4 0.00 0.00 0.00 0.0 0.00	21.2982642579	0.00	0.00	Cloudy(clear)	True	False	0.00
2011-02-18 05:00:00 11161 5 0.00 0.00 0.00 0.0 0.00	21.2982642579	0.00	0.00	Cloudy(fair)	True	False	0.00
2011-02-18 06:00:00 11162 6 2.04 2.04 2.04 0.0 9.60	21.2982642579	2.04	0.00	Cloudy(fair)	True	False	0.00
2011-02-18 07:00:00 11163 7 42.77 42.77 42.77 72.0 200.80	21.2982642579	42.77	72.00	Cloudy(fair)	True	False	72.00
2011-02-18 08:00:00 11164 8 118.72 118.72 118.72 144.1 557.40	21.2982642579	118.72	144.10	Cloudy(partly_cloudy)	True	False	144.10
2011-02-18 09:00:00 11165 9 172.00 172.00 172.00 100.6 807.60	21.2982642579	172.00	100.60	Cloudy(fair)	True	False	100.60
2011-02-18 10:00:00 11166 10 240.40 240.40 240.40 132.3 1054.10	22.8061853714	240.40	132.30	Cloudy(fair)	True	False	132.30
2011-02-18 11:00:00 11167 11 260.13 260.13 260.13 195.4 1140.60	22.8061853714	260.13	195.40	Cloudy(fair)	True	False	195.40
2011-02-18 12:00:00 11168 12 257.53 257.53 257.53 708.5 1129.20	22.8061853714	257.53	708.50	Cloudy(fair)	True	False	708.50
2011-02-18 13:00:00 11169 13 235.77 235.77 235.77 894.7 1033.80	22.8061853714	235.77	894.70	Cloudy(fair)	True	False	894.70
2011-02-18 14:00:00 11170 14 194.92 194.92 194.92 738.0 854.70	22.8061853714	194.92	738.00	Cloudy(fair)	True	False	738.00
2011-02-18 15:00:00 11171 15 161.95 161.95 161.95 498.3 624.40	25.9368181387	161.95	498.30	Mostly_Cloudy(fair)	True	False	498.30
2011-02-18 16:00:00 11172 16 50.89 50.89 50.89 191.4 275.90	18.4464317026	50.89	191.40	Mostly_Cloudy(fair)	True	False	191.40
2011-02-18 17:00:00 11173 17 5.46 5.46 5.46 17.7 29.60	18.4464317026	5.46	17.70	Mostly_Cloudy(fair)	True	False	17.70
2011-02-18 18:00:00 11174 18 0.00 0.00 0.00 0.0 0.00	62.6201153107	0.00	0.00	Partly_Cloudy(fair)	True	False	0.00
2011-02-18 19:00:00 11175 19 0.00 0.00 0.00 0.0 0.00	62.6201153107	0.00	0.00	Partly_Cloudy(light_rain)	True	False	0.00
2011-02-18 20:00:00 11176 20 0.00 0.00 0.00 0.0 0.00	62.6201153107	0.00	0.00	Partly_Cloudy(fair)	True	False	0.00
2011-02-18 21:00:00 11177 21 0.00 0.00 0.00 0.0 0.00	62.6201153107	0.00	0.00	Partly_Cloudy(fair)	True	False	0.00
2011-02-18 22:00:00 11178 22 0.00 0.00 0.00 0.0 0.00	62.6201153107	0.00	0.00	Partly_Cloudy(fair)	True	False	0.00
2011-02-18 23:00:00 11179 23 0.00 0.00 0.00 0.0 0.00	62.6201153107	0.00	0.00	Partly_Cloudy(fair)	True	False	0.00
2011-02-19 00:00:00 11180 0 0.00 0.00 0.00 0.0 0.00	62.6201153107	0.00	0.00	Mostly_Clear(fair)	False	False	0.00
2011-02-19 01:00:00 11181 1 0.00 0.00 0.00 0.0 0.00	62.6201153107	0.00	0.00	Mostly_Clear(fair)	False	False	0.00
2011-02-19 02:00:00 11182 2 0.00 0.00 0.00 0.0 0.00	62.6201153107	0.00	0.00	Mostly_Clear(clear)	False	False	0.00
2011-02-19 03:00:00 11183 3 0.00 0.00 0.00 0.0 0.00	63.8808280132	0.00	0.00	Clear(fair)	True	False	0.00
2011-02-19 04:00:00 11184 4 0.00 0.00 0.00 0.0 0.00	63.8808280132	0.00	0.00	Clear(fair)	True	False	0.00
2011-02-19 05:00:00 11185 5 0.00 0.00 0.00 0.0 0.00	63.8808280132	0.00	0.00	Clear(clear)	True	False	0.00
2011-02-19 06:00:00 11186 6 6.13 6.13 6.13 0.1 9.60	63.8808280132	6.13	0.10	Clear(fair)	True	False	0.10
2011-02-19 07:00:00 11187 7 128.27 128.27 128.27 132.9 200.80	63.8808280132	128.27	132.90	Sunny(fair)	True	False	132.90
2011-02-19 08:00:00 11188 8 356.07 356.07 356.07 486.6 557.40	63.8808280132	356.07	486.60	Sunny(partly_cloudy)	True	False	486.60
2011-02-19 09:00:00 11189 9 515.90 515.90 515.90 726.9 807.60	63.8808280132	515.90	726.90	Sunny_/_Wind(partly_cloudy)	True	False	726.90
2011-02-19 10:00:00 11190 10 703.35 703.35 703.35 628.7 1054.10	66.7251667252	703.35	628.70	Sunny_/_Wind(partly_cloudy)	True	False	628.70
2011-02-19 11:00:00 11191 11 761.07 761.07 761.07 614.6 1140.60	66.7251667252	761.07	614.60	Sunny_/_Wind(cloudy_and_windy)	True	False	614.60
2011-02-19 12:00:00 11192 12 840.07 840.07 840.07 717.1 1129.20	74.39543432	840.07	717.10	Partly_Cloudy_/_Wind(cloudy_and_windy)	True	False	717.10
2011-02-19 13:00:00 11193 13 769.10 769.10 769.10 577.3 1033.80	74.39543432	769.10	577.30	Partly_Cloudy_/_Wind(cloudy_and_windy)	True	False	577.30
2011-02-19 14:00:00 11194 14 635.86 635.86 635.86 467.3 854.70	74.39543432	635.86	467.30	Partly_Cloudy_/_Wind(mostly_cloudy_and_windy)	True	False	467.30
2011-02-19 15:00:00 11195 15 464.53 464.53 464.53 203.6 624.40	74.39543432	464.53	203.60	Partly_Cloudy_/_Wind(mostly_cloudy)	True	False	203.60
