2011-03-16 03:00:00 41560 3 0.00 0.00 0.00 0.0 0.00	11.2848998684	0.00	0.00	Cloudy(light_rain)	True	False	0.00
2011-03-16 04:00:00 41561 4 0.00 0.00 0.00 0.0 0.00	7.0602807597	0.00	0.00	Showers(cloudy)	True	False	0.00
2011-03-16 05:00:00 41562 5 0.00 0.00 0.00 0.0 0.00	8.70541497539	0.00	0.00	Light_Rain(light_rain)	True	False	0.00
2011-03-16 06:00:00 41563 6 2.38 2.38 2.38 0.0 27.30	8.70541497539	2.38	0.00	Light_Rain(rain)	True	False	0.00
2011-03-16 07:00:00 41564 7 21.08 21.08 21.08 0.0 242.20	8.70541497539	21.08	0.00	Light_Rain(rain)	True	False	0.00
2011-03-16 08:00:00 41565 8 52.92 52.92 52.92 11.2 607.90	8.70541497539	52.92	11.20	Light_Rain(light_rain)	True	False	11.20
2011-03-16 09:00:00 41566 9 62.60 62.60 62.60 73.8 886.60	7.0602807597	62.60	73.80	Rain(light_rain)	True	False	73.80
2011-03-16 10:00:00 41567 10 143.94 143.94 143.94 166.5 1063.70	13.5323182414	143.94	166.50	Cloudy(fog)	True	False	166.50
2011-03-16 11:00:00 41568 11 155.58 155.58 155.58 329.7 1149.70	13.5323182414	155.58	329.70	Cloudy(cloudy)	True	False	329.70
2011-03-16 12:00:00 41569 12 160.51 160.51 160.51 441.0 1186.10	13.5323182414	160.51	441.00	Cloudy(cloudy)	True	False	441.00
2011-03-16 13:00:00 41570 13 718.66 718.66 718.66 537.1 1170.30	61.4082918116	718.66	537.10	Mostly_Cloudy(cloudy)	True	False	537.10
2011-03-16 14:00:00 41571 14 711.05 711.05 711.05 776.9 1157.90	61.4082918116	711.05	776.90	Mostly_Cloudy(mostly_cloudy)	True	False	776.90
2011-03-16 15:00:00 41572 15 608.99 608.99 608.99 803.0 991.70	61.4082918116	608.99	803.00	Mostly_Cloudy(cloudy)	True	False	803.00
2011-03-16 16:00:00 41573 16 481.14 481.14 481.14 444.7 684.10	70.3313379985	481.14	444.70	Partly_Cloudy(mostly_cloudy)	True	False	444.70
2011-03-16 17:00:00 41574 17 245.46 245.46 245.46 256.1 349.00	70.3313379985	245.46	256.10	Partly_Cloudy(cloudy)	True	False	256.10
2011-03-16 18:00:00 41575 18 61.33 61.33 61.33 31.4 87.20	70.3313379985	61.33	31.40	Partly_Cloudy(cloudy)	True	False	31.40
2011-03-16 19:00:00 41576 19 0.70 0.70 0.70 0.0 1.00	70.3313379985	0.70	0.00	Partly_Cloudy(partly_cloudy)	True	False	0.00
2011-03-16 20:00:00 41577 20 0.00 0.00 0.00 0.0 0.00	70.3313379985	0.00	0.00	Partly_Cloudy(mostly_cloudy)	True	False	0.00
2011-03-16 21:00:00 41578 21 0.00 0.00 0.00 0.0 0.00	70.3313379985	0.00	0.00	Partly_Cloudy(cloudy)	True	False	0.00
2011-03-16 22:00:00 41579 22 0.00 0.00 0.00 0.0 0.00	70.3313379985	0.00	0.00	Mostly_Clear(mostly_cloudy)	False	False	0.00
2011-03-16 23:00:00 41580 23 0.00 0.00 0.00 0.0 0.00	70.3313379985	0.00	0.00	Mostly_Clear(fair)	False	False	0.00
2011-03-17 00:00:00 41581 0 0.00 0.00 0.00 0.0 0.00	70.3313379985	0.00	0.00	Mostly_Clear(cloudy)	False	False	0.00
2011-03-17 01:00:00 41582 1 0.00 0.00 0.00 0.0 0.00	70.3313379985	0.00	0.00	Mostly_Clear(mostly_cloudy)	False	False	0.00
2011-03-17 02:00:00 41583 2 0.00 0.00 0.00 0.0 0.00	70.3313379985	0.00	0.00	Mostly_Clear(clear)	False	False	0.00
2011-03-17 03:00:00 41584 3 0.00 0.00 0.00 0.0 0.00	70.3313379985	0.00	0.00	Mostly_Clear(partly_cloudy)	False	False	0.00
2011-03-17 04:00:00 41585 4 0.00 0.00 0.00 0.0 0.00	70.3313379985	0.00	0.00	Mostly_Clear(cloudy)	False	False	0.00
2011-03-17 05:00:00 41586 5 0.00 0.00 0.00 0.0 0.00	70.3313379985	0.00	0.00	Mostly_Clear(cloudy)	False	False	0.00
2011-03-17 06:00:00 41587 6 19.20 19.20 19.20 0.0 27.30	70.3313379985	19.20	0.00	Mostly_Clear(clear)	False	False	0.00
2011-03-17 07:00:00 41588 7 206.76 206.76 206.76 46.9 242.20	85.36855904	206.76	46.90	Clear(sunny)	True	False	46.90
2011-03-17 08:00:00 41589 8 518.96 518.96 518.96 304.7 607.90	85.36855904	518.96	304.70	Sunny(sunny)	True	False	304.70
2011-03-17 09:00:00 41590 9 756.88 756.88 756.88 624.0 886.60	85.36855904	756.88	624.00	Sunny(fair)	True	False	624.00
2011-03-17 10:00:00 41591 10 945.18 945.18 945.18 884.5 1063.70	88.8579629469	945.18	884.50	Sunny(sunny)	True	False	884.50
2011-03-17 11:00:00 41592 11 1021.60 1021.60 1021.60 1043.3 1149.70	88.8579629469	1021.60	1043.30	Sunny(sunny)	True	False	1043.30
2011-03-17 12:00:00 41593 12 1053.94 1053.94 1053.94 1108.3 1186.10	88.8579629469	1053.94	1108.30	Sunny(fair)	True	False	1108.30
2011-03-17 13:00:00 41594 13 1039.90 1039.90 1039.90 1102.3 1170.30	88.8579629469	1039.90	1102.30	Sunny(sunny)	True	False	1102.30
2011-03-17 14:00:00 41595 14 1028.89 1028.89 1028.89 1009.9 1157.90	88.8579629469	1028.89	1009.90	Sunny(sunny)	True	False	1009.90
2011-03-17 15:00:00 41596 15 881.20 881.20 881.20 870.9 991.70	88.8579629469	881.20	870.90	Sunny(sunny)	True	False	870.90
2011-03-17 16:00:00 41597 16 584.01 584.01 584.01 632.5 684.10	85.36855904	584.01	632.50	Sunny(sunny)	True	False	632.50
2011-03-17 17:00:00 41598 17 297.94 297.94 297.94 302.6 349.00	85.36855904	297.94	302.60	Sunny(sunny)	True	False	302.60
2011-03-17 18:00:00 41599 18 74.44 74.44 74.44 59.7 87.20	85.36855904	74.44	59.70	Sunny(sunny)	True	False	59.70
2011-03-17 19:00:00 41600 19 0.70 0.70 0.70 0.0 1.00	70.3313379985	0.70	0.00	Partly_Cloudy(sunny)	True	False	0.00
2011-03-17 20:00:00 41601 20 0.00 0.00 0.00 0.0 0.00	70.3313379985	0.00	0.00	Partly_Cloudy(clear)	True	False	0.00
2011-03-17 21:00:00 41602 21 0.00 0.00 0.00 0.0 0.00	70.3313379985	0.00	0.00	Partly_Cloudy(clear)	True	False	0.00
2011-03-17 22:00:00 41603 22 0.00 0.00 0.00 0.0 0.00	29.1659812469	0.00	0.00	Mostly_Cloudy(partly_cloudy)	True	False	0.00
2011-03-17 23:00:00 41604 23 0.00 0.00 0.00 0.0 0.00	29.1659812469	0.00	0.00	Mostly_Cloudy(mostly_cloudy)	True	False	0.00
2011-03-18 00:00:00 41605 0 0.00 0.00 0.00 0.0 0.00	29.1659812469	0.00	0.00	Mostly_Cloudy(mostly_cloudy)	True	False	0.00
2011-03-18 01:00:00 41606 1 0.00 0.00 0.00 0.0 0.00	29.1659812469	0.00	0.00	Mostly_Cloudy(partly_cloudy)	True	False	0.00
2011-03-18 02:00:00 41607 2 0.00 0.00 0.00 0.0 0.00	29.1659812469	0.00	0.00	Mostly_Cloudy(clear)	True	False	0.00
2011-03-18 03:00:00 41608 3 0.00 0.00 0.00 0.0 0.00	29.1659812469	0.00	0.00	Mostly_Cloudy(clear)	True	False	0.00
