2011-03-23 13:00:00 50070 13 1039.02 1039.02 150.37 27.4 1170.30	12.8491620112	150.37	27.40	Cloudy(light_rain)	True	False	27.40
2011-03-23 14:00:00 50071 14 27.11 27.11 148.78 41.5 1157.90	12.8491620112	148.78	41.50	Cloudy(light_rain)	True	False	41.50
2011-03-23 15:00:00 50072 15 127.43 23.22 127.43 33.2 991.70	12.8491620112	127.43	33.20	Cloudy(cloudy)	True	False	33.20
2011-03-23 16:00:00 50073 16 32.58 16.02 32.58 15.0 684.10	4.7619047619	32.58	15.00	Showers(wintry_mix)	True	False	15.00
2011-03-23 17:00:00 50074 17 16.62 8.17 16.62 4.6 349.00	4.7619047619	16.62	4.60	Showers(light_rain)	True	False	4.60
2011-03-23 18:00:00 50075 18 4.68 2.30 4.68 0.0 98.30	4.7619047619	4.68	0.00	Rain/Snow_Showers(light_rain)	False	False	0.00
2011-03-23 19:00:00 50076 19 0.28 0.14 0.28 0.0 5.90	4.7619047619	0.28	0.00	Rain_/_Snow(light_rain)	False	False	0.00
2011-03-23 20:00:00 50077 20 0.00 0.00 0.00 0.0 0.00	4.7619047619	0.00	0.00	Rain_/_Snow(t-storm)	False	False	0.00
2011-03-23 21:00:00 50078 21 0.00 0.00 0.00 0.0 0.00	4.7619047619	0.00	0.00	Rain_/_Snow(light_snow)	False	False	0.00
2011-03-23 22:00:00 50079 22 0.00 0.00 0.00 0.0 0.00	4.7619047619	0.00	0.00	Rain(light_snow)	True	False	0.00
2011-03-23 23:00:00 50080 23 0.00 0.00 0.00 0.0 0.00	4.7619047619	0.00	0.00	Rain(cloudy)	True	False	0.00
2011-03-24 00:00:00 50081 0 0.00 0.00 0.00 0.0 0.00	4.7619047619	0.00	0.00	Rain(light_snow)	True	False	0.00
2011-03-24 01:00:00 50082 1 0.00 0.00 0.00 0.0 0.00	4.7619047619	0.00	0.00	Rain_/_Snow(cloudy)	False	False	0.00
2011-03-24 02:00:00 50083 2 0.00 0.00 0.00 0.0 0.00	4.7619047619	0.00	0.00	Rain_/_Snow(light_snow)	False	False	0.00
2011-03-24 03:00:00 50084 3 0.00 0.00 0.00 0.0 0.00	4.7619047619	0.00	0.00	Rain_/_Snow(light_snow)	False	False	0.00
2011-03-24 04:00:00 50085 4 0.00 0.00 0.00 0.0 0.00	4.7619047619	0.00	0.00	Rain_/_Snow(cloudy)	False	False	0.00
2011-03-24 05:00:00 50086 5 0.00 0.00 0.00 0.0 0.00	4.7619047619	0.00	0.00	Rain_/_Snow(cloudy)	False	False	0.00
2011-03-24 06:00:00 50087 6 1.30 1.30 1.30 0.0 27.30	4.7619047619	1.30	0.00	Rain_/_Snow(cloudy)	False	False	0.00
2011-03-24 07:00:00 50088 7 11.35 11.35 11.35 0.1 238.40	4.7619047619	11.35	0.10	Snow_Shower(cloudy)	False	False	0.10
2011-03-24 08:00:00 50089 8 27.50 27.50 27.50 5.1 577.50	4.7619047619	27.50	5.10	Snow_Shower(cloudy)	False	False	5.10
2011-03-24 09:00:00 50090 9 40.19 40.19 40.19 13.6 844.00	4.7619047619	40.19	13.60	Snow_Shower(cloudy)	False	False	13.60
2011-03-24 10:00:00 50091 10 48.20 48.20 48.20 35.1 1012.30	4.7619047619	48.20	35.10	Snow_Shower(cloudy)	False	False	35.10
2011-03-24 11:00:00 50092 11 53.70 53.70 53.70 173.0 1127.70	4.7619047619	53.70	173.00	Snow_Shower(cloudy)	False	False	173.00
2011-03-24 12:00:00 50093 12 56.48 56.48 56.48 432.5 1186.10	4.7619047619	56.48	432.50	Snow_Shower(cloudy)	False	False	432.50
2011-03-24 13:00:00 50094 13 377.92 377.92 377.92 349.6 1170.30	32.2927985775	377.92	349.60	Mostly_Cloudy(cloudy)	True	False	349.60
2011-03-24 14:00:00 50095 14 373.92 373.92 373.92 350.9 1157.90	32.2927985775	373.92	350.90	Mostly_Cloudy(cloudy)	True	False	350.90
2011-03-24 15:00:00 50096 15 320.25 320.25 320.25 549.1 991.70	32.2927985775	320.25	549.10	Mostly_Cloudy(cloudy)	True	False	549.10
2011-03-24 16:00:00 50097 16 498.67 498.67 498.67 698.1 684.10	72.893982808	498.67	698.10	Partly_Cloudy(fair)	True	False	698.10
2011-03-24 17:00:00 50098 17 254.40 254.40 254.40 338.8 349.00	72.893982808	254.40	338.80	Partly_Cloudy(fair)	True	False	338.80
2011-03-24 18:00:00 50099 18 71.65 71.65 71.65 68.1 98.30	72.893982808	71.65	68.10	Partly_Cloudy(sunny)	True	False	68.10
2011-03-24 19:00:00 50100 19 5.04 5.04 5.04 0.6 5.90	85.36855904	5.04	0.60	Sunny(sunny)	True	False	0.60
2011-03-24 20:00:00 50101 20 0.00 0.00 0.00 0.0 0.00	85.36855904	0.00	0.00	Clear(clear)	True	False	0.00
2011-03-24 21:00:00 50102 21 0.00 0.00 0.00 0.0 0.00	85.36855904	0.00	0.00	Clear(clear)	True	False	0.00
2011-03-24 22:00:00 50103 22 0.00 0.00 0.00 0.0 0.00	85.36855904	0.00	0.00	Clear(clear)	True	False	0.00
2011-03-24 23:00:00 50104 23 0.00 0.00 0.00 0.0 0.00	85.36855904	0.00	0.00	Clear(clear)	True	False	0.00
2011-03-25 00:00:00 50105 0 0.00 0.00 0.00 0.0 0.00	85.36855904	0.00	0.00	Clear(clear)	True	False	0.00
2011-03-25 01:00:00 50106 1 0.00 0.00 0.00 0.0 0.00	85.36855904	0.00	0.00	Clear(clear)	True	False	0.00
2011-03-25 02:00:00 50107 2 0.00 0.00 0.00 0.0 0.00	85.36855904	0.00	0.00	Clear(fair)	True	False	0.00
2011-03-25 03:00:00 50108 3 0.00 0.00 0.00 0.0 0.00	85.36855904	0.00	0.00	Clear(clear)	True	False	0.00
2011-03-25 04:00:00 50109 4 0.00 0.00 0.00 0.0 0.00	85.36855904	0.00	0.00	Clear(clear)	True	False	0.00
2011-03-25 05:00:00 50110 5 0.00 0.00 0.00 0.0 0.00	85.36855904	0.00	0.00	Clear(clear)	True	False	0.00
2011-03-25 06:00:00 50111 6 23.31 23.31 23.31 0.0 27.30	85.36855904	23.31	0.00	Clear(clear)	True	False	0.00
2011-03-25 07:00:00 50112 7 203.52 203.52 203.52 72.9 238.40	85.36855904	203.52	72.90	Sunny(sunny)	True	False	72.90
2011-03-25 08:00:00 50113 8 493.00 493.00 493.00 368.1 577.50	85.36855904	493.00	368.10	Sunny(sunny)	True	False	368.10
2011-03-25 09:00:00 50114 9 720.51 720.51 720.51 718.8 844.00	85.36855904	720.51	718.80	Sunny(sunny)	True	False	718.80
2011-03-25 10:00:00 50115 10 898.75 898.75 898.75 973.9 1012.30	88.7824776093	898.75	973.90	Sunny(sunny)	True	False	973.90
2011-03-25 11:00:00 50116 11 1001.20 1001.20 1001.20 1125.4 1127.70	88.7824776093	1001.20	1125.40	Sunny(sunny)	True	False	1125.40
2011-03-25 12:00:00 50117 12 1053.05 1053.05 1053.05 1204.4 1186.10	88.7824776093	1053.05	1204.40	Sunny(sunny)	True	False	1204.40
2011-03-25 13:00:00 50118 13 1039.02 1039.02 1039.02 1123.8 1170.30	88.7824776093	1039.02	1123.80	Sunny(sunny)	True	False	1123.80
