2011-03-28 00:00:00 55230 0 0.00 0.00 0.00 0.0 0.00	84.9153242462	0.00	0.00	Clear(clear)	True	False	0.00
2011-03-28 01:00:00 55231 1 0.00 0.00 0.00 0.0 0.00	84.9153242462	0.00	0.00	Clear(clear)	True	False	0.00
2011-03-28 02:00:00 55232 2 0.00 0.00 0.00 0.0 0.00	84.9153242462	0.00	0.00	Clear(clear)	True	False	0.00
2011-03-28 03:00:00 55233 3 0.00 0.00 0.00 0.0 0.00	84.9153242462	0.00	0.00	Clear(clear)	True	False	0.00
2011-03-28 04:00:00 55234 4 0.00 0.00 0.00 0.0 0.00	84.9153242462	0.00	0.00	Clear(clear)	True	False	0.00
2011-03-28 05:00:00 55235 5 0.00 0.00 0.00 0.0 0.00	84.9153242462	0.00	0.00	Clear(clear)	True	False	0.00
2011-03-28 06:00:00 55236 6 5.69 5.69 5.69 0.3 6.70	84.9153242462	5.69	0.30	Clear(clear)	True	False	0.30
2011-03-28 07:00:00 55237 7 95.78 95.78 95.78 85.2 112.80	84.9153242462	95.78	85.20	Sunny(sunny)	True	False	85.20
2011-03-28 08:00:00 55238 8 337.54 337.54 337.54 398.3 397.50	84.9153242462	337.54	398.30	Sunny(sunny)	True	False	398.30
2011-03-28 09:00:00 55239 9 668.88 668.88 668.88 740.9 787.70	84.9153242462	668.88	740.90	Sunny(sunny)	True	False	740.90
2011-03-28 10:00:00 55240 10 887.60 887.60 887.60 1001.5 1006.40	88.1953183992	887.60	1001.50	Sunny(sunny)	True	False	1001.50
2011-03-28 11:00:00 55241 11 1010.81 1010.81 1010.81 1092.2 1146.10	88.1953183992	1010.81	1092.20	Sunny(sunny)	True	False	1092.20
2011-03-28 12:00:00 55242 12 1067.60 1067.60 1067.60 1156.2 1210.50	88.1953183992	1067.60	1156.20	Sunny(fair)	True	False	1156.20
2011-03-28 13:00:00 55243 13 1051.20 1051.20 1051.20 1171.3 1191.90	88.1953183992	1051.20	1171.30	Sunny(sunny)	True	False	1171.30
2011-03-28 14:00:00 55244 14 1021.21 1021.21 1021.21 1047.7 1157.90	88.1953183992	1021.21	1047.70	Sunny(sunny)	True	False	1047.70
2011-03-28 15:00:00 55245 15 874.63 874.63 874.63 929.5 991.70	88.1953183992	874.63	929.50	Sunny(sunny)	True	False	929.50
2011-03-28 16:00:00 55246 16 607.48 607.48 607.48 714.7 715.40	84.9153242462	607.48	714.70	Sunny(sunny)	True	False	714.70
2011-03-28 17:00:00 55247 17 333.29 333.29 333.29 375.1 392.50	84.9153242462	333.29	375.10	Sunny(sunny)	True	False	375.10
2011-03-28 18:00:00 55248 18 86.36 86.36 86.36 76.3 101.70	84.9153242462	86.36	76.30	Sunny(sunny)	True	False	76.30
2011-03-28 19:00:00 55249 19 5.01 5.01 5.01 1.1 5.90	84.9153242462	5.01	1.10	Sunny(sunny)	True	False	1.10
2011-03-28 20:00:00 55250 20 0.00 0.00 0.00 0.0 0.00	84.9153242462	0.00	0.00	Clear(clear)	True	False	0.00
2011-03-28 21:00:00 55251 21 0.00 0.00 0.00 0.0 0.00	84.9153242462	0.00	0.00	Clear(clear)	True	False	0.00
2011-03-28 22:00:00 55252 22 0.00 0.00 0.00 0.0 0.00	84.9153242462	0.00	0.00	Clear(clear)	True	False	0.00
2011-03-28 23:00:00 55253 23 0.00 0.00 0.00 0.0 0.00	84.9153242462	0.00	0.00	Clear(clear)	True	False	0.00
2011-03-29 00:00:00 55254 0 0.00 0.00 0.00 0.0 0.00	84.9153242462	0.00	0.00	Clear(clear)	True	False	0.00
2011-03-29 01:00:00 55255 1 0.00 0.00 0.00 0.0 0.00	84.9153242462	0.00	0.00	Clear(clear)	True	False	0.00
2011-03-29 02:00:00 55256 2 0.00 0.00 0.00 0.0 0.00	84.9153242462	0.00	0.00	Clear(clear)	True	False	0.00
2011-03-29 03:00:00 55257 3 0.00 0.00 0.00 0.0 0.00	84.9153242462	0.00	0.00	Clear(clear)	True	False	0.00
2011-03-29 04:00:00 55258 4 0.00 0.00 0.00 0.0 0.00	84.9153242462	0.00	0.00	Clear(clear)	True	False	0.00
2011-03-29 05:00:00 55259 5 0.00 0.00 0.00 0.0 0.00	84.9153242462	0.00	0.00	Clear(Unkown)	True	False	0.00
2011-03-29 06:00:00 55260 6 5.69 5.69 5.69 0.4 6.70	84.9153242462	5.69	0.40	Clear(Unkown)	True	False	0.40
2011-03-29 07:00:00 55261 7 95.78 95.78 95.78 84.6 112.80	84.9153242462	95.78	84.60	Sunny(Unkown)	True	False	84.60
2011-03-29 08:00:00 55262 8 337.54 337.54 337.54 395.1 397.50	84.9153242462	337.54	395.10	Sunny(Unkown)	True	False	395.10
2011-03-29 09:00:00 55263 9 668.88 668.88 668.88 734.9 787.70	84.9153242462	668.88	734.90	Sunny(Unkown)	True	False	734.90
2011-03-29 10:00:00 55264 10 887.60 887.60 887.60 989.3 1006.40	88.1953183992	887.60	989.30	Sunny(Unkown)	True	False	989.30
2011-03-29 11:00:00 55265 11 1010.81 1010.81 1010.81 1141.7 1146.10	88.1953183992	1010.81	1141.70	Sunny(Unkown)	True	False	1141.70
2011-03-29 12:00:00 55266 12 1067.60 1067.60 1067.60 1215.4 1210.50	88.1953183992	1067.60	1215.40	Sunny(Unkown)	True	False	1215.40
2011-03-29 13:00:00 55267 13 1051.20 1051.20 1051.20 1203.4 1191.90	88.1953183992	1051.20	1203.40	Sunny(Unkown)	True	False	1203.40
2011-03-29 14:00:00 55268 14 1021.21 1021.21 1021.21 1116.1 1157.90	88.1953183992	1021.21	1116.10	Sunny(Unkown)	True	False	1116.10
2011-03-29 15:00:00 55269 15 874.63 874.63 874.63 963.9 991.70	88.1953183992	874.63	963.90	Sunny(Unkown)	True	False	963.90
2011-03-29 16:00:00 55270 16 607.48 607.48 607.48 714.2 715.40	84.9153242462	607.48	714.20	Sunny(Unkown)	True	False	714.20
2011-03-29 17:00:00 55271 17 333.29 333.29 333.29 376.8 392.50	84.9153242462	333.29	376.80	Sunny(sunny)	True	False	376.80
2011-03-29 18:00:00 55272 18 86.36 86.36 86.36 77.3 101.70	84.9153242462	86.36	77.30	Sunny(sunny)	True	False	77.30
2011-03-29 19:00:00 55273 19 5.01 5.01 5.01 1.0 5.90	84.9153242462	5.01	1.00	Sunny(sunny)	True	False	1.00
2011-03-29 20:00:00 55274 20 0.00 0.00 0.00 0.0 0.00	84.9153242462	0.00	0.00	Clear(clear)	True	False	0.00
2011-03-29 21:00:00 55275 21 0.00 0.00 0.00 0.0 0.00	84.9153242462	0.00	0.00	Clear(clear)	True	False	0.00
2011-03-29 22:00:00 55276 22 0.00 0.00 0.00 0.0 0.00	84.9153242462	0.00	0.00	Clear(clear)	True	False	0.00
2011-03-29 23:00:00 55277 23 0.00 0.00 0.00 0.0 0.00	84.9153242462	0.00	0.00	Clear(clear)	True	False	0.00
2011-03-30 00:00:00 55278 0 0.00 0.00 0.00 0.0 0.00	84.9153242462	0.00	0.00	Clear(clear)	True	False	0.00
