2011-03-25 17:00:00 52604 17 310.19 310.19 310.19 172.7 349.00	74.2551170222	310.19	172.70	Partly_Cloudy(partly_cloudy)	True	False	172.70
2011-03-25 18:00:00 52605 18 50.33 50.33 50.33 43.6 101.70	74.2551170222	50.33	43.60	Partly_Cloudy(partly_cloudy)	True	False	43.60
2011-03-25 19:00:00 52606 19 1.94 2.92 2.92 0.0 5.90	32.8436110574	2.92	0.00	Mostly_Cloudy(mostly_cloudy)	True	False	0.00
2011-03-25 20:00:00 52607 20 0.00 0.00 0.00 0.0 0.00	32.8436110574	0.00	0.00	Mostly_Cloudy(mostly_cloudy)	True	False	0.00
2011-03-25 21:00:00 52608 21 0.00 0.00 0.00 0.0 0.00	32.8436110574	0.00	0.00	Mostly_Cloudy(partly_cloudy)	True	False	0.00
2011-03-25 22:00:00 52609 22 0.00 0.00 0.00 0.0 0.00	74.2551170222	0.00	0.00	Partly_Cloudy(clear)	True	False	0.00
2011-03-25 23:00:00 52610 23 0.00 0.00 0.00 0.0 0.00	74.2551170222	0.00	0.00	Partly_Cloudy(clear)	True	False	0.00
2011-03-26 00:00:00 52611 0 0.00 0.00 0.00 0.0 0.00	74.2551170222	0.00	0.00	Partly_Cloudy(clear)	True	False	0.00
2011-03-26 01:00:00 52612 1 0.00 0.00 0.00 0.0 0.00	74.2551170222	0.00	0.00	Mostly_Clear(clear)	False	False	0.00
2011-03-26 02:00:00 52613 2 0.00 0.00 0.00 0.0 0.00	74.2551170222	0.00	0.00	Mostly_Clear(clear)	False	False	0.00
2011-03-26 03:00:00 52614 3 0.00 0.00 0.00 0.0 0.00	74.2551170222	0.00	0.00	Mostly_Clear(clear)	False	False	0.00
2011-03-26 04:00:00 52615 4 0.00 0.00 0.00 0.0 0.00	85.36855904	0.00	0.00	Clear(clear)	True	False	0.00
2011-03-26 05:00:00 52616 5 0.00 0.00 0.00 0.0 0.00	85.36855904	0.00	0.00	Clear(clear)	True	False	0.00
2011-03-26 06:00:00 52617 6 23.31 23.31 23.31 0.0 27.30	85.36855904	23.31	0.00	Clear(clear)	True	False	0.00
2011-03-26 07:00:00 52618 7 203.52 203.52 203.52 75.2 238.40	85.36855904	203.52	75.20	Sunny(sunny)	True	False	75.20
2011-03-26 08:00:00 52619 8 441.61 441.61 441.61 376.9 517.30	85.36855904	441.61	376.90	Sunny(sunny)	True	False	376.90
2011-03-26 09:00:00 52620 9 672.02 672.02 672.02 733.6 787.20	85.36855904	672.02	733.60	Sunny(sunny)	True	False	733.60
2011-03-26 10:00:00 52621 10 875.20 875.20 875.20 1001.8 984.70	88.8798618869	875.20	1001.80	Sunny(sunny)	True	False	1001.80
2011-03-26 11:00:00 52622 11 1002.30 1002.30 1002.30 1159.1 1127.70	88.8798618869	1002.30	1159.10	Sunny(sunny)	True	False	1159.10
2011-03-26 12:00:00 52623 12 1054.20 1054.20 1054.20 1241.1 1186.10	88.8798618869	1054.20	1241.10	Sunny(sunny)	True	False	1241.10
2011-03-26 13:00:00 52624 13 1040.16 1040.16 1040.16 1229.9 1170.30	88.8798618869	1040.16	1229.90	Sunny(sunny)	True	False	1229.90
2011-03-26 14:00:00 52625 14 1029.14 1029.14 1029.14 1141.8 1157.90	88.8798618869	1029.14	1141.80	Sunny(sunny)	True	False	1141.80
2011-03-26 15:00:00 52626 15 881.42 881.42 881.42 989.6 991.70	88.8798618869	881.42	989.60	Sunny(sunny)	True	False	989.60
2011-03-26 16:00:00 52627 16 584.01 584.01 584.01 735.7 684.10	85.36855904	584.01	735.70	Sunny(sunny)	True	False	735.70
2011-03-26 17:00:00 52628 17 297.94 297.94 297.94 379.9 349.00	85.36855904	297.94	379.90	Sunny(sunny)	True	False	379.90
2011-03-26 18:00:00 52629 18 86.82 86.82 86.82 75.8 101.70	85.36855904	86.82	75.80	Sunny(sunny)	True	False	75.80
2011-03-26 19:00:00 52630 19 5.04 5.04 5.04 0.9 5.90	85.36855904	5.04	0.90	Sunny(sunny)	True	False	0.90
2011-03-26 20:00:00 52631 20 0.00 0.00 0.00 0.0 0.00	85.36855904	0.00	0.00	Clear(clear)	True	False	0.00
2011-03-26 21:00:00 52632 21 0.00 0.00 0.00 0.0 0.00	85.36855904	0.00	0.00	Clear(fair)	True	False	0.00
2011-03-26 22:00:00 52633 22 0.00 0.00 0.00 0.0 0.00	85.36855904	0.00	0.00	Clear(partly_cloudy)	True	False	0.00
2011-03-26 23:00:00 52634 23 0.00 0.00 0.00 0.0 0.00	85.36855904	0.00	0.00	Clear(partly_cloudy)	True	False	0.00
2011-03-27 00:00:00 52635 0 0.00 0.00 0.00 0.0 0.00	85.36855904	0.00	0.00	Clear(fair)	True	False	0.00
2011-03-27 01:00:00 52636 1 0.00 0.00 0.00 0.0 0.00	74.2551170222	0.00	0.00	Partly_Cloudy(partly_cloudy)	True	False	0.00
2011-03-27 02:00:00 52637 2 0.00 0.00 0.00 0.0 0.00	74.2551170222	0.00	0.00	Partly_Cloudy(mostly_cloudy)	True	False	0.00
2011-03-27 03:00:00 52638 3 0.00 0.00 0.00 0.0 0.00	74.2551170222	0.00	0.00	Partly_Cloudy(mostly_cloudy)	True	False	0.00
2011-03-27 04:00:00 52639 4 0.00 0.00 0.00 0.0 0.00	32.8436110574	0.00	0.00	Mostly_Cloudy(partly_cloudy)	True	False	0.00
2011-03-27 05:00:00 52640 5 0.00 0.00 0.00 0.0 0.00	32.8436110574	0.00	0.00	Mostly_Cloudy(partly_cloudy)	True	False	0.00
2011-03-27 06:00:00 52641 6 8.97 8.97 8.97 0.0 27.30	32.8436110574	8.97	0.00	Mostly_Cloudy(mostly_cloudy)	True	False	0.00
2011-03-27 07:00:00 52642 7 177.02 177.02 177.02 39.8 238.40	74.2551170222	177.02	39.80	Partly_Cloudy(mostly_cloudy)	True	False	39.80
2011-03-27 08:00:00 52643 8 384.12 384.12 384.12 282.3 517.30	74.2551170222	384.12	282.30	Partly_Cloudy(mostly_cloudy)	True	False	282.30
2011-03-27 09:00:00 52644 9 584.54 584.54 584.54 700.8 787.20	74.2551170222	584.54	700.80	Partly_Cloudy(partly_cloudy)	True	False	700.80
2011-03-27 10:00:00 52645 10 326.90 326.90 326.90 978.4 984.70	33.197928303	326.90	978.40	Mostly_Cloudy(sunny)	True	False	978.40
2011-03-27 11:00:00 52646 11 374.37 374.37 374.37 1144.5 1127.70	33.197928303	374.37	1144.50	Mostly_Cloudy(sunny)	True	False	1144.50
2011-03-27 12:00:00 52647 12 393.76 393.76 393.76 1220.7 1186.10	33.197928303	393.76	1220.70	Mostly_Cloudy(sunny)	True	False	1220.70
2011-03-27 13:00:00 52648 13 388.52 388.52 388.52 1209.3 1170.30	33.197928303	388.52	1209.30	Mostly_Cloudy(sunny)	True	False	1209.30
2011-03-27 14:00:00 52649 14 384.40 384.40 384.40 1130.0 1157.90	33.197928303	384.40	1130.00	Mostly_Cloudy(sunny)	True	False	1130.00
2011-03-27 15:00:00 52650 15 329.22 329.22 329.22 975.3 991.70	33.197928303	329.22	975.30	Mostly_Cloudy(sunny)	True	False	975.30
2011-03-27 16:00:00 52651 16 224.68 224.68 224.68 721.3 684.10	32.8436110574	224.68	721.30	Mostly_Cloudy(sunny)	True	False	721.30
2011-03-27 17:00:00 52652 17 114.62 114.62 114.62 377.9 349.00	32.8436110574	114.62	377.90	Mostly_Cloudy(sunny)	True	False	377.90
