2011-03-24 03:00:00 50747 3 0.00 0.00 0.00 0.0 0.00	10.6988000403	0.00	0.00	Cloudy(light_snow)	True	False	0.00
2011-03-24 04:00:00 50748 4 0.00 0.00 0.00 0.0 0.00	10.6988000403	0.00	0.00	Cloudy(cloudy)	True	False	0.00
2011-03-24 05:00:00 50749 5 0.00 0.00 0.00 0.0 0.00	10.6988000403	0.00	0.00	Light_Snow(cloudy)	False	False	0.00
2011-03-24 06:00:00 50750 6 2.92 2.92 2.92 0.0 27.30	10.6988000403	2.92	0.00	Flurries(cloudy)	False	False	0.00
2011-03-24 07:00:00 50751 7 25.51 25.51 25.51 0.1 238.40	10.6988000403	25.51	0.10	Cloudy(cloudy)	True	False	0.10
2011-03-24 08:00:00 50752 8 61.79 61.79 61.79 5.1 577.50	10.6988000403	61.79	5.10	Cloudy(cloudy)	True	False	5.10
2011-03-24 09:00:00 50753 9 90.11 90.11 90.11 13.6 842.20	10.6988000403	90.11	13.60	Few_Snow_Showers(cloudy)	False	False	13.60
2011-03-24 10:00:00 50754 10 129.30 129.30 129.30 35.1 1006.30	12.8491620112	129.30	35.10	Cloudy(cloudy)	True	False	35.10
2011-03-24 11:00:00 50755 11 144.90 144.90 144.90 173.0 1127.70	12.8491620112	144.90	173.00	Cloudy(cloudy)	True	False	173.00
2011-03-24 12:00:00 50756 12 152.40 152.40 152.40 432.5 1186.10	12.8491620112	152.40	432.50	Cloudy(cloudy)	True	False	432.50
2011-03-24 13:00:00 50757 13 380.18 380.18 380.18 349.6 1170.30	32.4853423432	380.18	349.60	Mostly_Cloudy(cloudy)	True	False	349.60
2011-03-24 14:00:00 50758 14 376.15 376.15 376.15 350.9 1157.90	32.4853423432	376.15	350.90	Mostly_Cloudy(cloudy)	True	False	350.90
2011-03-24 15:00:00 50759 15 322.16 322.16 322.16 549.1 991.70	32.4853423432	322.16	549.10	Mostly_Cloudy(cloudy)	True	False	549.10
2011-03-24 16:00:00 50760 16 498.67 498.67 498.67 698.1 684.10	72.893982808	498.67	698.10	Partly_Cloudy(fair)	True	False	698.10
2011-03-24 17:00:00 50761 17 254.40 254.40 254.40 338.8 349.00	72.893982808	254.40	338.80	Partly_Cloudy(fair)	True	False	338.80
2011-03-24 18:00:00 50762 18 71.65 71.65 71.65 68.1 98.30	72.893982808	71.65	68.10	Partly_Cloudy(sunny)	True	False	68.10
2011-03-24 19:00:00 50763 19 4.97 4.97 4.97 0.6 5.90	84.2591672463	4.97	0.60	Sunny(sunny)	True	False	0.60
2011-03-24 20:00:00 50764 20 0.00 0.00 0.00 0.0 0.00	84.2591672463	0.00	0.00	Clear(clear)	True	False	0.00
2011-03-24 21:00:00 50765 21 0.00 0.00 0.00 0.0 0.00	84.2591672463	0.00	0.00	Clear(clear)	True	False	0.00
2011-03-24 22:00:00 50766 22 0.00 0.00 0.00 0.0 0.00	84.2591672463	0.00	0.00	Clear(clear)	True	False	0.00
2011-03-24 23:00:00 50767 23 0.00 0.00 0.00 0.0 0.00	84.2591672463	0.00	0.00	Clear(clear)	True	False	0.00
2011-03-25 00:00:00 50768 0 0.00 0.00 0.00 0.0 0.00	84.2591672463	0.00	0.00	Clear(clear)	True	False	0.00
2011-03-25 01:00:00 50769 1 0.00 0.00 0.00 0.0 0.00	84.2591672463	0.00	0.00	Clear(clear)	True	False	0.00
2011-03-25 02:00:00 50770 2 0.00 0.00 0.00 0.0 0.00	84.2591672463	0.00	0.00	Clear(fair)	True	False	0.00
2011-03-25 03:00:00 50771 3 0.00 0.00 0.00 0.0 0.00	84.2591672463	0.00	0.00	Clear(clear)	True	False	0.00
2011-03-25 04:00:00 50772 4 0.00 0.00 0.00 0.0 0.00	84.2591672463	0.00	0.00	Clear(clear)	True	False	0.00
2011-03-25 05:00:00 50773 5 0.00 0.00 0.00 0.0 0.00	84.2591672463	0.00	0.00	Clear(clear)	True	False	0.00
2011-03-25 06:00:00 50774 6 23.00 23.00 23.00 0.0 27.30	84.2591672463	23.00	0.00	Clear(clear)	True	False	0.00
2011-03-25 07:00:00 50775 7 200.87 200.87 200.87 72.9 238.40	84.2591672463	200.87	72.90	Sunny(sunny)	True	False	72.90
2011-03-25 08:00:00 50776 8 486.60 486.60 486.60 368.1 577.50	84.2591672463	486.60	368.10	Sunny(sunny)	True	False	368.10
2011-03-25 09:00:00 50777 9 709.63 709.63 709.63 718.8 842.20	84.2591672463	709.63	718.80	Sunny(sunny)	True	False	718.80
2011-03-25 10:00:00 50778 10 894.20 894.20 894.20 973.9 1006.30	88.8601808606	894.20	973.90	Sunny(sunny)	True	False	973.90
2011-03-25 11:00:00 50779 11 1002.08 1002.08 1002.08 1125.4 1127.70	88.8601808606	1002.08	1125.40	Sunny(sunny)	True	False	1125.40
2011-03-25 12:00:00 50780 12 1053.97 1053.97 1053.97 1204.4 1186.10	88.8601808606	1053.97	1204.40	Sunny(sunny)	True	False	1204.40
2011-03-25 13:00:00 50781 13 1039.93 1039.93 1039.93 1123.8 1170.30	88.8601808606	1039.93	1123.80	Sunny(sunny)	True	False	1123.80
2011-03-25 14:00:00 50782 14 1028.91 1028.91 1028.91 974.1 1157.90	88.8601808606	1028.91	974.10	Sunny(sunny)	True	False	974.10
2011-03-25 15:00:00 50783 15 881.23 881.23 881.23 817.0 991.70	88.8601808606	881.23	817.00	Sunny(fair)	True	False	817.00
2011-03-25 16:00:00 50784 16 576.42 576.42 576.42 337.7 684.10	84.2591672463	576.42	337.70	Sunny(partly_cloudy)	True	False	337.70
2011-03-25 17:00:00 50785 17 294.06 294.06 294.06 172.7 349.00	84.2591672463	294.06	172.70	Sunny(partly_cloudy)	True	False	172.70
2011-03-25 18:00:00 50786 18 82.83 82.83 82.83 43.6 98.30	84.2591672463	82.83	43.60	Sunny(partly_cloudy)	True	False	43.60
2011-03-25 19:00:00 50787 19 4.30 4.30 4.30 0.0 5.90	72.893982808	4.30	0.00	Partly_Cloudy(mostly_cloudy)	True	False	0.00
2011-03-25 20:00:00 50788 20 0.00 0.00 0.00 0.0 0.00	72.893982808	0.00	0.00	Partly_Cloudy(mostly_cloudy)	True	False	0.00
2011-03-25 21:00:00 50789 21 0.00 0.00 0.00 0.0 0.00	72.893982808	0.00	0.00	Partly_Cloudy(partly_cloudy)	True	False	0.00
2011-03-25 22:00:00 50790 22 0.00 0.00 0.00 0.0 0.00	72.893982808	0.00	0.00	Partly_Cloudy(clear)	True	False	0.00
2011-03-25 23:00:00 50791 23 0.00 0.00 0.00 0.0 0.00	72.893982808	0.00	0.00	Partly_Cloudy(clear)	True	False	0.00
2011-03-26 00:00:00 50792 0 0.00 0.00 0.00 0.0 0.00	72.893982808	0.00	0.00	Partly_Cloudy(clear)	True	False	0.00
2011-03-26 01:00:00 50793 1 0.00 0.00 0.00 0.0 0.00	84.2591672463	0.00	0.00	Clear(clear)	True	False	0.00
2011-03-26 02:00:00 50794 2 0.00 0.00 0.00 0.0 0.00	84.2591672463	0.00	0.00	Clear(clear)	True	False	0.00
2011-03-26 03:00:00 50795 3 0.00 0.00 0.00 0.0 0.00	84.2591672463	0.00	0.00	Clear(clear)	True	False	0.00
