2011-02-11 17:00:00 4297 17 8.22 8.22 8.22 3.9 11.50	71.4836223507	8.22	3.90	Sunny(fair)	True	False	3.90
2011-02-11 18:00:00 4298 18 0.00 0.00 0.00 0.0 0.00	71.4836223507	0.00	0.00	Clear(fair)	True	False	0.00
2011-02-11 19:00:00 4299 19 0.00 0.00 0.00 0.0 0.00	71.4836223507	0.00	0.00	Clear(fair)	True	False	0.00
2011-02-11 20:00:00 4300 20 0.00 0.00 0.00 0.0 0.00	71.4836223507	0.00	0.00	Clear(fair)	True	False	0.00
2011-02-11 21:00:00 4301 21 0.00 0.00 0.00 0.0 0.00	71.4836223507	0.00	0.00	Clear(fair)	True	False	0.00
2011-02-11 22:00:00 4302 22 0.00 0.00 0.00 0.0 0.00	71.4836223507	0.00	0.00	Mostly_Clear(fair)	False	False	0.00
2011-02-11 23:00:00 4303 23 0.00 0.00 0.00 0.0 0.00	71.4836223507	0.00	0.00	Clear(fair)	True	False	0.00
2011-02-12 00:00:00 4304 0 0.00 0.00 0.00 0.0 0.00	49.7722914669	0.00	0.00	Partly_Cloudy(fair)	True	False	0.00
2011-02-12 01:00:00 4305 1 0.00 0.00 0.00 0.0 0.00	49.7722914669	0.00	0.00	Partly_Cloudy(fair)	True	False	0.00
2011-02-12 02:00:00 4306 2 0.00 0.00 0.00 0.0 0.00	49.7722914669	0.00	0.00	Partly_Cloudy(fair)	True	False	0.00
2011-02-12 03:00:00 4307 3 0.00 0.00 0.00 0.0 0.00	49.7722914669	0.00	0.00	Partly_Cloudy(fair)	True	False	0.00
2011-02-12 04:00:00 4308 4 0.00 0.00 0.00 0.0 0.00	49.7722914669	0.00	0.00	Partly_Cloudy(fair)	True	False	0.00
2011-02-12 05:00:00 4309 5 0.00 0.00 0.00 0.0 0.00	49.7722914669	0.00	0.00	Partly_Cloudy(mostly_cloudy)	True	False	0.00
2011-02-12 06:00:00 4310 6 1.29 1.29 1.29 0.0 2.60	49.7722914669	1.29	0.00	Partly_Cloudy(cloudy)	True	False	0.00
2011-02-12 07:00:00 4311 7 81.68 81.68 81.68 34.6 164.10	49.7722914669	81.68	34.60	Partly_Cloudy(cloudy)	True	False	34.60
2011-02-12 08:00:00 4312 8 253.84 253.84 253.84 147.9 510.00	49.7722914669	253.84	147.90	Partly_Cloudy(cloudy)	True	False	147.90
2011-02-12 09:00:00 4313 9 160.22 160.22 160.22 475.0 807.60	19.8387819077	160.22	475.00	Mostly_Cloudy(cloudy)	True	False	475.00
2011-02-12 10:00:00 4314 10 230.57 230.57 230.57 591.8 1001.50	23.0225311601	230.57	591.80	Mostly_Cloudy(mostly_cloudy)	True	False	591.80
2011-02-12 11:00:00 4315 11 252.49 252.49 252.49 626.2 1096.70	23.0225311601	252.49	626.20	Mostly_Cloudy(fair)	True	False	626.20
2011-02-12 12:00:00 4316 12 254.95 254.95 254.95 321.0 1107.40	23.0225311601	254.95	321.00	Mostly_Cloudy(cloudy)	True	False	321.00
2011-02-12 13:00:00 4317 13 231.22 231.22 231.22 583.7 1004.30	23.0225311601	231.22	583.70	Mostly_Cloudy(cloudy)	True	False	583.70
2011-02-12 14:00:00 4318 14 192.10 192.10 192.10 553.8 834.40	23.0225311601	192.10	553.80	Mostly_Cloudy(cloudy)	True	False	553.80
2011-02-12 15:00:00 4319 15 403.48 403.48 403.48 344.9 570.90	70.6735378715	403.48	344.90	Partly_Cloudy(mostly_cloudy)	True	False	344.90
2011-02-12 16:00:00 4320 16 111.14 111.14 111.14 84.1 223.30	49.7722914669	111.14	84.10	Partly_Cloudy(partly_cloudy)	True	False	84.10
2011-02-12 17:00:00 4321 17 5.72 5.72 5.72 7.0 11.50	49.7722914669	5.72	7.00	Partly_Cloudy(mostly_cloudy)	True	False	7.00
2011-02-12 18:00:00 4322 18 0.00 0.00 0.00 0.0 0.00	71.4836223507	0.00	0.00	Clear(fair)	True	False	0.00
2011-02-12 19:00:00 4323 19 0.00 0.00 0.00 0.0 0.00	71.4836223507	0.00	0.00	Clear(fair)	True	False	0.00
2011-02-12 20:00:00 4324 20 0.00 0.00 0.00 0.0 0.00	71.4836223507	0.00	0.00	Clear(fair)	True	False	0.00
2011-02-12 21:00:00 4325 21 0.00 0.00 0.00 0.0 0.00	71.4836223507	0.00	0.00	Clear(fair)	True	False	0.00
2011-02-12 22:00:00 4326 22 0.00 0.00 0.00 0.0 0.00	71.4836223507	0.00	0.00	Clear(fair)	True	False	0.00
2011-02-12 23:00:00 4327 23 0.00 0.00 0.00 0.0 0.00	71.4836223507	0.00	0.00	Clear(fair)	True	False	0.00
2011-02-13 00:00:00 4328 0 0.00 0.00 0.00 0.0 0.00	71.4836223507	0.00	0.00	Clear(fair)	True	False	0.00
2011-02-13 01:00:00 4329 1 0.00 0.00 0.00 0.0 0.00	71.4836223507	0.00	0.00	Clear(fair)	True	False	0.00
2011-02-13 02:00:00 4330 2 0.00 0.00 0.00 0.0 0.00	71.4836223507	0.00	0.00	Clear(fair)	True	False	0.00
2011-02-13 03:00:00 4331 3 0.00 0.00 0.00 0.0 0.00	19.8387819077	0.00	0.00	Mostly_Cloudy(partly_cloudy)	True	False	0.00
2011-02-13 04:00:00 4332 4 0.00 0.00 0.00 0.0 0.00	19.8387819077	0.00	0.00	Mostly_Cloudy(fair)	True	False	0.00
2011-02-13 05:00:00 4333 5 0.00 0.00 0.00 0.0 0.00	19.8387819077	0.00	0.00	Mostly_Cloudy(fair)	True	False	0.00
2011-02-13 06:00:00 4334 6 0.52 0.52 0.52 0.0 2.60	19.8387819077	0.52	0.00	Mostly_Cloudy(fair)	True	False	0.00
2011-02-13 07:00:00 4335 7 32.56 32.56 32.56 57.1 164.10	19.8387819077	32.56	57.10	Mostly_Cloudy(cloudy)	True	False	57.10
2011-02-13 08:00:00 4336 8 101.18 101.18 101.18 110.9 510.00	19.8387819077	101.18	110.90	Mostly_Cloudy(fair)	True	False	110.90
2011-02-13 09:00:00 4337 9 5.39 5.39 5.39 383.3 807.60	0.667131335258	5.39	383.30	Few_Snow_Showers(fair)	True	False	383.30
2011-02-13 10:00:00 4338 10 8.28 8.28 8.28 268.3 1001.50	0.826941514861	8.28	268.30	Few_Snow_Showers(mostly_cloudy)	True	False	268.30
2011-02-13 11:00:00 4339 11 9.07 9.07 9.07 719.6 1096.70	0.826941514861	9.07	719.60	Few_Snow_Showers(mostly_cloudy)	True	False	719.60
2011-02-13 12:00:00 4340 12 9.16 9.16 9.16 749.3 1107.40	0.826941514861	9.16	749.30	Few_Snow_Showers(partly_cloudy)	True	False	749.30
2011-02-13 13:00:00 4341 13 8.30 8.30 8.30 582.4 1004.30	0.826941514861	8.30	582.40	Few_Snow_Showers(partly_cloudy)	True	False	582.40
2011-02-13 14:00:00 4342 14 6.90 6.90 6.90 423.1 834.40	0.826941514861	6.90	423.10	Few_Snow_Showers(Unkown)	True	False	423.10
2011-02-13 15:00:00 4343 15 403.48 403.48 403.48 245.8 570.90	70.6735378715	403.48	245.80	Partly_Cloudy(Unkown)	True	False	245.80
2011-02-13 16:00:00 4344 16 111.14 111.14 111.14 92.5 223.30	49.7722914669	111.14	92.50	Partly_Cloudy(fair)	True	False	92.50
2011-02-13 17:00:00 4345 17 5.72 5.72 5.72 2.0 11.50	49.7722914669	5.72	2.00	Partly_Cloudy(fair)	True	False	2.00
