2011-03-17 09:00:00 42941 9 758.55 758.55 758.55 624.0 886.60	85.5576670077	758.55	624.00	Sunny(fair)	True	False	624.00
2011-03-17 10:00:00 42942 10 945.18 945.18 945.18 884.5 1063.70	88.8579629469	945.18	884.50	Sunny(sunny)	True	False	884.50
2011-03-17 11:00:00 42943 11 1021.60 1021.60 1021.60 1043.3 1149.70	88.8579629469	1021.60	1043.30	Sunny(sunny)	True	False	1043.30
2011-03-17 12:00:00 42944 12 1053.94 1053.94 1053.94 1108.3 1186.10	88.8579629469	1053.94	1108.30	Sunny(fair)	True	False	1108.30
2011-03-17 13:00:00 42945 13 1039.90 1039.90 1039.90 1102.3 1170.30	88.8579629469	1039.90	1102.30	Sunny(sunny)	True	False	1102.30
2011-03-17 14:00:00 42946 14 1028.89 1028.89 1028.89 1009.9 1157.90	88.8579629469	1028.89	1009.90	Sunny(sunny)	True	False	1009.90
2011-03-17 15:00:00 42947 15 881.20 881.20 881.20 870.9 991.70	88.8579629469	881.20	870.90	Sunny(sunny)	True	False	870.90
2011-03-17 16:00:00 42948 16 607.88 607.88 607.88 632.5 684.10	88.8579629469	607.88	632.50	Mostly_Sunny(sunny)	False	False	632.50
2011-03-17 17:00:00 42949 17 310.11 310.11 310.11 302.6 349.00	88.8579629469	310.11	302.60	Mostly_Sunny(sunny)	False	False	302.60
2011-03-17 18:00:00 42950 18 77.48 77.48 77.48 59.7 87.20	88.8579629469	77.48	59.70	Mostly_Sunny(sunny)	False	False	59.70
2011-03-17 19:00:00 42951 19 0.74 0.74 0.74 0.0 1.10	67.7087831419	0.74	0.00	Partly_Cloudy(sunny)	True	False	0.00
2011-03-17 20:00:00 42952 20 0.00 0.00 0.00 0.0 0.00	67.7087831419	0.00	0.00	Partly_Cloudy(clear)	True	False	0.00
2011-03-17 21:00:00 42953 21 0.00 0.00 0.00 0.0 0.00	67.7087831419	0.00	0.00	Partly_Cloudy(clear)	True	False	0.00
2011-03-17 22:00:00 42954 22 0.00 0.00 0.00 0.0 0.00	67.7087831419	0.00	0.00	Partly_Cloudy(partly_cloudy)	True	False	0.00
2011-03-17 23:00:00 42955 23 0.00 0.00 0.00 0.0 0.00	67.7087831419	0.00	0.00	Partly_Cloudy(mostly_cloudy)	True	False	0.00
2011-03-18 00:00:00 42956 0 0.00 0.00 0.00 0.0 0.00	67.7087831419	0.00	0.00	Partly_Cloudy(mostly_cloudy)	True	False	0.00
2011-03-18 01:00:00 42957 1 0.00 0.00 0.00 0.0 0.00	67.7087831419	0.00	0.00	Partly_Cloudy(partly_cloudy)	True	False	0.00
2011-03-18 02:00:00 42958 2 0.00 0.00 0.00 0.0 0.00	67.7087831419	0.00	0.00	Partly_Cloudy(clear)	True	False	0.00
2011-03-18 03:00:00 42959 3 0.00 0.00 0.00 0.0 0.00	67.7087831419	0.00	0.00	Partly_Cloudy(clear)	True	False	0.00
2011-03-18 04:00:00 42960 4 0.00 0.00 0.00 0.0 0.00	67.7087831419	0.00	0.00	Partly_Cloudy(partly_cloudy)	True	False	0.00
2011-03-18 05:00:00 42961 5 0.00 0.00 0.00 0.0 0.00	67.7087831419	0.00	0.00	Partly_Cloudy(fair)	True	False	0.00
2011-03-18 06:00:00 42962 6 18.48 18.48 18.48 0.0 27.30	67.7087831419	18.48	0.00	Partly_Cloudy(fair)	True	False	0.00
2011-03-18 07:00:00 42963 7 70.64 70.64 70.64 35.7 242.20	29.1659812469	70.64	35.70	Mostly_Cloudy(partly_cloudy)	True	False	35.70
2011-03-18 08:00:00 42964 8 177.30 177.30 177.30 251.6 607.90	29.1659812469	177.30	251.60	Mostly_Cloudy(sunny)	True	False	251.60
2011-03-18 09:00:00 42965 9 258.59 258.59 258.59 464.4 886.60	29.1659812469	258.59	464.40	Mostly_Cloudy(sunny)	True	False	464.40
2011-03-18 10:00:00 42966 10 550.82 550.82 550.82 780.7 1063.70	51.7831548773	550.82	780.70	Mostly_Cloudy(sunny)	True	False	780.70
2011-03-18 11:00:00 42967 11 595.35 595.35 595.35 809.1 1149.70	51.7831548773	595.35	809.10	Mostly_Cloudy(sunny)	True	False	809.10
2011-03-18 12:00:00 42968 12 614.20 614.20 614.20 1010.7 1186.10	51.7831548773	614.20	1010.70	Mostly_Cloudy(sunny)	True	False	1010.70
2011-03-18 13:00:00 42969 13 808.29 808.29 808.29 987.7 1170.30	69.0666891493	808.29	987.70	Partly_Cloudy(fair)	True	False	987.70
2011-03-18 14:00:00 42970 14 799.72 799.72 799.72 982.1 1157.90	69.0666891493	799.72	982.10	Partly_Cloudy(partly_cloudy)	True	False	982.10
2011-03-18 15:00:00 42971 15 684.93 684.93 684.93 807.4 991.70	69.0666891493	684.93	807.40	Partly_Cloudy(sunny)	True	False	807.40
2011-03-18 16:00:00 42972 16 472.49 472.49 472.49 503.2 684.10	69.0666891493	472.49	503.20	Mostly_Sunny(fair)	False	False	503.20
2011-03-18 17:00:00 42973 17 241.04 241.04 241.04 221.1 349.00	69.0666891493	241.04	221.10	Mostly_Sunny(fair)	False	False	221.10
2011-03-18 18:00:00 42974 18 60.23 60.23 60.23 43.3 87.20	69.0666891493	60.23	43.30	Mostly_Sunny(fair)	False	False	43.30
2011-03-18 19:00:00 42975 19 0.94 0.94 0.94 0.1 1.10	85.5576670077	0.94	0.10	Sunny(fair)	True	False	0.10
2011-03-18 20:00:00 42976 20 0.00 0.00 0.00 0.0 0.00	85.5576670077	0.00	0.00	Clear(fair)	True	False	0.00
2011-03-18 21:00:00 42977 21 0.00 0.00 0.00 0.0 0.00	85.5576670077	0.00	0.00	Clear(fair)	True	False	0.00
