2011-02-28 00:00:00 23085 0 0.00 0.00 0.00 0.0 0.00	22.7170742652	0.00	0.00	Mostly_Cloudy(fair)	True	False	0.00
2011-02-28 01:00:00 23086 1 0.00 0.00 0.00 0.0 0.00	22.7170742652	0.00	0.00	Mostly_Cloudy(mostly_cloudy)	True	False	0.00
2011-02-28 02:00:00 23087 2 0.00 0.00 0.00 0.0 0.00	21.0300804477	0.00	0.00	Cloudy(cloudy)	True	False	0.00
2011-02-28 03:00:00 23088 3 0.00 0.00 0.00 0.0 0.00	5.58312655087	0.00	0.00	Few_Showers(cloudy)	True	False	0.00
2011-02-28 04:00:00 23089 4 0.00 0.00 0.00 0.0 0.00	5.58312655087	0.00	0.00	Light_Rain(light_rain)	True	False	0.00
2011-02-28 05:00:00 23090 5 0.00 0.00 0.00 0.0 0.00	5.58312655087	0.00	0.00	Light_Rain(light_rain)	True	False	0.00
2011-02-28 06:00:00 23091 6 1.23 1.23 1.23 0.0 27.30	4.48905932777	1.23	0.00	Rain(light_rain)	True	False	0.00
2011-02-28 07:00:00 23092 7 10.87 10.87 10.87 0.0 242.20	4.48905932777	10.87	0.00	Rain(cloudy)	True	False	0.00
2011-02-28 08:00:00 23093 8 27.29 27.29 27.29 23.1 607.90	4.48905932777	27.29	23.10	Rain(rain)	True	False	23.10
2011-02-28 09:00:00 23094 9 39.80 39.80 39.80 24.4 886.60	4.48905932777	39.80	24.40	Rain(light_rain)	True	False	24.40
2011-02-28 10:00:00 23095 10 91.15 91.15 91.15 127.7 1063.70	8.56942987058	91.15	127.70	Rain(rain)	True	False	127.70
2011-02-28 11:00:00 23096 11 98.52 98.52 98.52 194.4 1149.70	8.56942987058	98.52	194.40	Rain(light_rain)	True	False	194.40
2011-02-28 12:00:00 23097 12 98.00 98.00 98.00 181.6 1143.60	8.56942987058	98.00	181.60	Rain(partly_cloudy)	True	False	181.60
2011-02-28 13:00:00 23098 13 88.93 88.93 88.93 167.4 1037.80	8.56942987058	88.93	167.40	Rain(fair)	True	False	167.40
2011-02-28 14:00:00 23099 14 76.39 76.39 76.39 91.1 891.40	8.56942987058	76.39	91.10	Rain(fair)	True	False	91.10
2011-02-28 15:00:00 23100 15 55.03 55.03 55.03 83.2 642.20	8.56942987058	55.03	83.20	Rain(fair)	True	False	83.20
2011-02-28 16:00:00 23101 16 13.56 13.56 13.56 26.5 302.00	4.48905932777	13.56	26.50	Rain(cloudy)	True	False	26.50
2011-02-28 17:00:00 23102 17 1.55 1.55 1.55 1.7 34.60	4.48905932777	1.55	1.70	Rain(cloudy)	True	False	1.70
2011-02-28 18:00:00 23103 18 0.01 0.01 0.01 0.0 0.30	4.48905932777	0.01	0.00	Rain(cloudy)	True	False	0.00
2011-02-28 19:00:00 23104 19 0.00 0.00 0.00 0.0 0.00	4.48905932777	0.00	0.00	Rain(cloudy)	True	False	0.00
2011-02-28 20:00:00 23105 20 0.00 0.00 0.00 0.0 0.00	4.48905932777	0.00	0.00	Rain(Unkown)	True	False	0.00
2011-02-28 21:00:00 23106 21 0.00 0.00 0.00 0.0 0.00	1.60911542141	0.00	0.00	Showers_/_Wind(cloudy)	True	False	0.00
2011-02-28 22:00:00 23107 22 0.00 0.00 0.00 0.0 0.00	1.60911542141	0.00	0.00	Showers_/_Wind(cloudy)	True	False	0.00
2011-02-28 23:00:00 23108 23 0.00 0.00 0.00 0.0 0.00	1.60911542141	0.00	0.00	Showers_/_Wind(mostly_cloudy)	True	False	0.00
2011-03-01 00:00:00 23109 0 0.00 0.00 0.00 0.0 0.00	1.60911542141	0.00	0.00	Mostly_Clear(fair)	False	False	0.00
2011-03-01 01:00:00 23110 1 0.00 0.00 0.00 0.0 0.00	1.60911542141	0.00	0.00	Mostly_Clear(fair)	False	False	0.00
2011-03-01 02:00:00 23111 2 0.00 0.00 0.00 0.0 0.00	1.60911542141	0.00	0.00	Mostly_Clear(fair)	False	False	0.00
2011-03-01 03:00:00 23112 3 0.00 0.00 0.00 0.0 0.00	94.1931238691	0.00	0.00	Clear(fair)	True	False	0.00
2011-03-01 04:00:00 23113 4 0.00 0.00 0.00 0.0 0.00	94.1931238691	0.00	0.00	Clear(fair)	True	False	0.00
2011-03-01 05:00:00 23114 5 0.00 0.00 0.00 0.0 0.00	94.1931238691	0.00	0.00	Clear(fair)	True	False	0.00
2011-03-01 06:00:00 23115 6 25.71 25.71 25.71 10.5 27.30	94.1931238691	25.71	10.50	Clear(fair)	True	False	10.50
2011-03-01 07:00:00 23116 7 228.14 228.14 228.14 86.9 242.20	94.1931238691	228.14	86.90	Sunny(fair)	True	False	86.90
2011-03-01 08:00:00 23117 8 572.60 572.60 572.60 414.6 607.90	94.1931238691	572.60	414.60	Sunny(fair)	True	False	414.60
2011-03-01 09:00:00 23118 9 835.12 835.12 835.12 872.1 886.60	94.1931238691	835.12	872.10	Sunny(fair)	True	False	872.10
2011-03-01 10:00:00 23119 10 1020.96 1020.96 1020.96 1051.7 1063.70	95.9818847562	1020.96	1051.70	Sunny(fair)	True	False	1051.70
2011-03-01 11:00:00 23120 11 1103.50 1103.50 1103.50 1133.5 1149.70	95.9818847562	1103.50	1133.50	Sunny(fair)	True	False	1133.50
2011-03-01 12:00:00 23121 12 1097.65 1097.65 1097.65 1119.5 1143.60	95.9818847562	1097.65	1119.50	Sunny(fair)	True	False	1119.50
2011-03-01 13:00:00 23122 13 996.10 996.10 996.10 1001.7 1037.80	95.9818847562	996.10	1001.70	Sunny(fair)	True	False	1001.70
2011-03-01 14:00:00 23123 14 855.58 855.58 855.58 862.8 891.40	95.9818847562	855.58	862.80	Sunny(fair)	True	False	862.80
2011-03-01 15:00:00 23124 15 616.40 616.40 616.40 609.4 642.20	95.9818847562	616.40	609.40	Sunny(fair)	True	False	609.40
2011-03-01 16:00:00 23125 16 284.46 284.46 284.46 269.8 302.00	94.1931238691	284.46	269.80	Sunny(fair)	True	False	269.80
2011-03-01 17:00:00 23126 17 32.59 32.59 32.59 22.2 34.60	94.1931238691	32.59	22.20	Sunny(fair)	True	False	22.20
2011-03-01 18:00:00 23127 18 0.28 0.28 0.28 0.0 0.30	94.1931238691	0.28	0.00	Clear(fair)	True	False	0.00
2011-03-01 19:00:00 23128 19 0.00 0.00 0.00 0.0 0.00	94.1931238691	0.00	0.00	Clear(fair)	True	False	0.00
2011-03-01 20:00:00 23129 20 0.00 0.00 0.00 0.0 0.00	94.1931238691	0.00	0.00	Clear(fair)	True	False	0.00
2011-03-01 21:00:00 23130 21 0.00 0.00 0.00 0.0 0.00	94.1931238691	0.00	0.00	Clear(fair)	True	False	0.00
2011-03-01 22:00:00 23131 22 0.00 0.00 0.00 0.0 0.00	94.1931238691	0.00	0.00	Clear(fair)	True	False	0.00
2011-03-01 23:00:00 23132 23 0.00 0.00 0.00 0.0 0.00	94.1931238691	0.00	0.00	Clear(fair)	True	False	0.00
