2011-03-20 13:00:00 46614 13 1037.80 1037.80 1037.80 1131.6 1170.30	88.6781167222	1037.80	1131.60	Sunny(sunny)	True	False	1131.60
2011-03-20 14:00:00 46615 14 1026.80 1026.80 1026.80 1051.8 1157.90	88.6781167222	1026.80	1051.80	Sunny(sunny)	True	False	1051.80
2011-03-20 15:00:00 46616 15 879.42 879.42 879.42 901.5 991.70	88.6781167222	879.42	901.50	Sunny(sunny)	True	False	901.50
2011-03-20 16:00:00 46617 16 589.96 589.96 589.96 617.9 684.10	86.2385321101	589.96	617.90	Sunny(sunny)	True	False	617.90
2011-03-20 17:00:00 46618 17 300.97 300.97 300.97 330.6 349.00	86.2385321101	300.97	330.60	Sunny(sunny)	True	False	330.60
2011-03-20 18:00:00 46619 18 75.20 75.20 75.20 51.5 87.20	86.2385321101	75.20	51.50	Mostly_Sunny(sunny)	False	False	51.50
2011-03-20 19:00:00 46620 19 1.00 1.00 1.00 0.3 1.50	66.6666666667	1.00	0.30	Partly_Cloudy(sunny)	True	False	0.30
2011-03-20 20:00:00 46621 20 0.00 0.00 0.00 0.0 0.00	66.6666666667	0.00	0.00	Partly_Cloudy(clear)	True	False	0.00
2011-03-20 21:00:00 46622 21 0.00 0.00 0.00 0.0 0.00	66.6666666667	0.00	0.00	Partly_Cloudy(fair)	True	False	0.00
2011-03-20 22:00:00 46623 22 0.00 0.00 0.00 0.0 0.00	50.4398826979	0.00	0.00	Mostly_Cloudy(fair)	True	False	0.00
2011-03-20 23:00:00 46624 23 0.00 0.00 0.00 0.0 0.00	50.4398826979	0.00	0.00	Mostly_Cloudy(fair)	True	False	0.00
2011-03-21 00:00:00 46625 0 0.00 0.00 0.00 0.0 0.00	50.4398826979	0.00	0.00	Mostly_Cloudy(cloudy)	True	False	0.00
2011-03-21 01:00:00 46626 1 0.00 0.00 0.00 0.0 0.00	10.6988000403	0.00	0.00	Cloudy(partly_cloudy)	True	False	0.00
2011-03-21 02:00:00 46627 2 0.00 0.00 0.00 0.0 0.00	50.4398826979	0.00	0.00	Mostly_Cloudy(partly_cloudy)	True	False	0.00
2011-03-21 03:00:00 46628 3 0.00 0.00 0.00 0.0 0.00	50.4398826979	0.00	0.00	Mostly_Cloudy(cloudy)	True	False	0.00
2011-03-21 04:00:00 46629 4 0.00 0.00 0.00 0.0 0.00	50.4398826979	0.00	0.00	Rain_/_Snow_Showers(cloudy)	False	False	0.00
2011-03-21 05:00:00 46630 5 0.00 0.00 0.00 0.0 0.00	50.4398826979	0.00	0.00	Rain_/_Snow_Showers(light_rain)	False	False	0.00
2011-03-21 06:00:00 46631 6 13.77 13.77 13.77 0.0 27.30	50.4398826979	13.77	0.00	Rain_/_Snow_Showers(light_snow)	False	False	0.00
2011-03-21 07:00:00 46632 7 19.99 19.99 19.99 0.0 242.20	8.25214899713	19.99	0.00	Light_Rain(light_rain)	True	False	0.00
2011-03-21 08:00:00 46633 8 50.16 50.16 50.16 4.8 607.90	8.25214899713	50.16	4.80	Light_Rain(light_snow)	True	False	4.80
2011-03-21 09:00:00 46634 9 73.16 73.16 73.16 18.8 886.60	8.25214899713	73.16	18.80	Light_Rain(light_rain)	True	False	18.80
2011-03-21 10:00:00 46635 10 93.44 93.44 93.44 37.4 1063.70	8.78407246005	93.44	37.40	Light_Rain(light_rain)	True	False	37.40
2011-03-21 11:00:00 46636 11 100.99 100.99 100.99 56.0 1149.70	8.78407246005	100.99	56.00	Light_Rain(cloudy)	True	False	56.00
2011-03-21 12:00:00 46637 12 104.19 104.19 104.19 101.1 1186.10	8.78407246005	104.19	101.10	Light_Rain(light_rain)	True	False	101.10
2011-03-21 13:00:00 46638 13 48.05 48.05 48.05 143.1 1170.30	4.10541880491	48.05	143.10	Showers(fog)	True	False	143.10
2011-03-21 14:00:00 46639 14 47.54 47.54 47.54 156.2 1157.90	4.10541880491	47.54	156.20	Showers(fog)	True	False	156.20
2011-03-21 15:00:00 46640 15 40.71 40.71 40.71 94.5 991.70	4.10541880491	40.71	94.50	Showers(cloudy)	True	False	94.50
2011-03-21 16:00:00 46641 16 73.19 73.19 73.19 107.7 684.10	10.6988000403	73.19	107.70	Cloudy(fog)	True	False	107.70
2011-03-21 17:00:00 46642 17 37.34 37.34 37.34 37.7 349.00	10.6988000403	37.34	37.70	Cloudy(fog)	True	False	37.70
2011-03-21 18:00:00 46643 18 9.33 9.33 9.33 1.1 87.20	10.6988000403	9.33	1.10	Cloudy(fog)	True	False	1.10
2011-03-21 19:00:00 46644 19 0.16 0.16 0.16 0.0 1.50	10.6988000403	0.16	0.00	Cloudy(cloudy)	True	False	0.00
2011-03-21 20:00:00 46645 20 0.00 0.00 0.00 0.0 0.00	10.6988000403	0.00	0.00	Cloudy(cloudy)	True	False	0.00
2011-03-21 21:00:00 46646 21 0.00 0.00 0.00 0.0 0.00	10.6988000403	0.00	0.00	Cloudy(cloudy)	True	False	0.00
2011-03-21 22:00:00 46647 22 0.00 0.00 0.00 0.0 0.00	50.4398826979	0.00	0.00	Mostly_Cloudy(cloudy)	True	False	0.00
2011-03-21 23:00:00 46648 23 0.00 0.00 0.00 0.0 0.00	50.4398826979	0.00	0.00	Mostly_Cloudy(fog)	True	False	0.00
2011-03-22 00:00:00 46649 0 0.00 0.00 0.00 0.0 0.00	50.4398826979	0.00	0.00	Mostly_Cloudy(fog)	True	False	0.00
2011-03-22 01:00:00 46650 1 0.00 0.00 0.00 0.0 0.00	50.4398826979	0.00	0.00	Mostly_Cloudy(fog)	True	False	0.00
2011-03-22 02:00:00 46651 2 0.00 0.00 0.00 0.0 0.00	50.4398826979	0.00	0.00	Mostly_Cloudy(fog)	True	False	0.00
2011-03-22 03:00:00 46652 3 0.00 0.00 0.00 0.0 0.00	50.4398826979	0.00	0.00	Mostly_Cloudy(fog)	True	False	0.00
2011-03-22 04:00:00 46653 4 0.00 0.00 0.00 0.0 0.00	66.6666666667	0.00	0.00	Partly_Cloudy(cloudy)	True	False	0.00
2011-03-22 05:00:00 46654 5 0.00 0.00 0.00 0.0 0.00	66.6666666667	0.00	0.00	Partly_Cloudy(cloudy)	True	False	0.00
2011-03-22 06:00:00 46655 6 18.20 18.20 18.20 0.0 27.30	66.6666666667	18.20	0.00	Partly_Cloudy(cloudy)	True	False	0.00
2011-03-22 07:00:00 46656 7 161.47 161.47 161.47 15.9 242.20	66.6666666667	161.47	15.90	Mostly_Sunny(cloudy)	False	False	15.90
2011-03-22 08:00:00 46657 8 405.27 405.27 405.27 69.3 607.90	66.6666666667	405.27	69.30	Mostly_Sunny(cloudy)	False	False	69.30
2011-03-22 09:00:00 46658 9 591.07 591.07 591.07 341.7 886.60	66.6666666667	591.07	341.70	Mostly_Sunny(cloudy)	False	False	341.70
2011-03-22 10:00:00 46659 10 709.13 709.13 709.13 813.5 1063.70	66.6666666667	709.13	813.50	Mostly_Sunny(cloudy)	False	False	813.50
2011-03-22 11:00:00 46660 11 766.47 766.47 766.47 627.9 1149.70	66.6666666667	766.47	627.90	Mostly_Sunny(cloudy)	False	False	627.90
2011-03-22 12:00:00 46661 12 790.73 790.73 790.73 966.9 1186.10	66.6666666667	790.73	966.90	Mostly_Sunny(cloudy)	False	False	966.90
2011-03-22 13:00:00 46662 13 835.50 835.50 835.50 1173.6 1170.30	71.3923098618	835.50	1173.60	Partly_Cloudy(mostly_cloudy)	True	False	1173.60
