2011-03-14 08:00:00 39485 8 419.86 419.86 419.86 79.0 607.90	69.0666891493	419.86	79.00	Partly_Cloudy(mostly_cloudy)	True	False	79.00
2011-03-14 09:00:00 39486 9 612.35 612.35 612.35 285.0 886.60	69.0666891493	612.35	285.00	Partly_Cloudy(cloudy)	True	False	285.00
2011-03-14 10:00:00 39487 10 785.17 785.17 785.17 428.0 1063.70	73.8146644788	785.17	428.00	Partly_Cloudy(cloudy)	True	False	428.00
2011-03-14 11:00:00 39488 11 848.65 848.65 848.65 698.8 1149.70	73.8146644788	848.65	698.80	Partly_Cloudy(Unkown)	True	False	698.80
2011-03-14 12:00:00 39489 12 875.52 875.52 875.52 207.6 1186.10	73.8146644788	875.52	207.60	Partly_Cloudy(cloudy)	True	False	207.60
2011-03-14 13:00:00 39490 13 196.66 196.66 196.66 334.4 1170.30	16.8043837523	196.66	334.40	Cloudy(cloudy)	True	False	334.40
2011-03-14 14:00:00 39491 14 854.70 854.70 854.70 313.0 1157.90	73.8146644788	854.70	313.00	Partly_Cloudy(cloudy)	True	False	313.00
2011-03-14 15:00:00 39492 15 732.02 732.02 732.02 287.8 991.70	73.8146644788	732.02	287.80	Partly_Cloudy(cloudy)	True	False	287.80
2011-03-14 16:00:00 39493 16 504.97 504.97 504.97 118.1 684.10	73.8146644788	504.97	118.10	Mostly_Sunny(cloudy)	False	False	118.10
2011-03-14 17:00:00 39494 17 257.61 257.61 257.61 31.6 349.00	73.8146644788	257.61	31.60	Mostly_Sunny(cloudy)	False	False	31.60
2011-03-14 18:00:00 39495 18 64.37 64.37 64.37 0.0 87.20	73.8146644788	64.37	0.00	Mostly_Sunny(cloudy)	False	False	0.00
2011-03-14 19:00:00 39496 19 0.69 0.69 0.69 0.0 1.00	69.0666891493	0.69	0.00	Partly_Cloudy(partly_cloudy)	True	False	0.00
2011-03-14 20:00:00 39497 20 0.00 0.00 0.00 0.0 0.00	69.0666891493	0.00	0.00	Partly_Cloudy(mostly_cloudy)	True	False	0.00
2011-03-14 21:00:00 39498 21 0.00 0.00 0.00 0.0 0.00	69.0666891493	0.00	0.00	Partly_Cloudy(mostly_cloudy)	True	False	0.00
2011-03-14 22:00:00 39499 22 0.00 0.00 0.00 0.0 0.00	69.0666891493	0.00	0.00	Mostly_Clear(mostly_cloudy)	False	False	0.00
2011-03-14 23:00:00 39500 23 0.00 0.00 0.00 0.0 0.00	69.0666891493	0.00	0.00	Mostly_Clear(partly_cloudy)	False	False	0.00
2011-03-15 00:00:00 39501 0 0.00 0.00 0.00 0.0 0.00	69.0666891493	0.00	0.00	Mostly_Clear(clear)	False	False	0.00
2011-03-15 01:00:00 39502 1 0.00 0.00 0.00 0.0 0.00	85.36855904	0.00	0.00	Clear(clear)	True	False	0.00
2011-03-15 02:00:00 39503 2 0.00 0.00 0.00 0.0 0.00	85.36855904	0.00	0.00	Clear(clear)	True	False	0.00
2011-03-15 03:00:00 39504 3 0.00 0.00 0.00 0.0 0.00	85.36855904	0.00	0.00	Clear(clear)	True	False	0.00
2011-03-15 04:00:00 39505 4 0.00 0.00 0.00 0.0 0.00	85.36855904	0.00	0.00	Clear(clear)	True	False	0.00
2011-03-15 05:00:00 39506 5 0.00 0.00 0.00 0.0 0.00	85.36855904	0.00	0.00	Clear(clear)	True	False	0.00
2011-03-15 06:00:00 39507 6 23.31 23.31 23.31 0.0 27.30	85.36855904	23.31	0.00	Clear(clear)	True	False	0.00
2011-03-15 07:00:00 39508 7 206.76 206.76 206.76 50.2 242.20	85.36855904	206.76	50.20	Clear(sunny)	True	False	50.20
2011-03-15 08:00:00 39509 8 518.96 518.96 518.96 272.5 607.90	85.36855904	518.96	272.50	Sunny(sunny)	True	False	272.50
2011-03-15 09:00:00 39510 9 756.88 756.88 756.88 628.0 886.60	85.36855904	756.88	628.00	Sunny(sunny)	True	False	628.00
2011-03-15 10:00:00 39511 10 945.18 945.18 945.18 869.3 1063.70	88.8579629469	945.18	869.30	Sunny(sunny)	True	False	869.30
2011-03-15 11:00:00 39512 11 1021.60 1021.60 1021.60 1055.6 1149.70	88.8579629469	1021.60	1055.60	Sunny(sunny)	True	False	1055.60
2011-03-15 12:00:00 39513 12 1053.94 1053.94 1053.94 878.0 1186.10	88.8579629469	1053.94	878.00	Sunny(fair)	True	False	878.00
2011-03-15 13:00:00 39514 13 1039.90 1039.90 1039.90 1092.1 1170.30	88.8579629469	1039.90	1092.10	Sunny(sunny)	True	False	1092.10
2011-03-15 14:00:00 39515 14 1028.89 1028.89 1028.89 706.0 1157.90	88.8579629469	1028.89	706.00	Sunny(sunny)	True	False	706.00
2011-03-15 15:00:00 39516 15 881.20 881.20 881.20 423.7 991.70	88.8579629469	881.20	423.70	Sunny(sunny)	True	False	423.70
2011-03-15 16:00:00 39517 16 472.49 472.49 472.49 312.8 684.10	69.0666891493	472.49	312.80	Partly_Cloudy(partly_cloudy)	True	False	312.80
2011-03-15 17:00:00 39518 17 241.04 241.04 241.04 170.0 349.00	69.0666891493	241.04	170.00	Partly_Cloudy(mostly_cloudy)	True	False	170.00
2011-03-15 18:00:00 39519 18 60.23 60.23 60.23 33.1 87.20	69.0666891493	60.23	33.10	Partly_Cloudy(partly_cloudy)	True	False	33.10
2011-03-15 19:00:00 39520 19 0.28 0.28 0.28 0.0 1.00	27.9989636411	0.28	0.00	Mostly_Cloudy(partly_cloudy)	True	False	0.00
2011-03-15 20:00:00 39521 20 0.00 0.00 0.00 0.0 0.00	27.9989636411	0.00	0.00	Mostly_Cloudy(cloudy)	True	False	0.00
2011-03-15 21:00:00 39522 21 0.00 0.00 0.00 0.0 0.00	27.9989636411	0.00	0.00	Mostly_Cloudy(cloudy)	True	False	0.00
2011-03-15 22:00:00 39523 22 0.00 0.00 0.00 0.0 0.00	13.6410642098	0.00	0.00	Cloudy(cloudy)	True	False	0.00
2011-03-15 23:00:00 39524 23 0.00 0.00 0.00 0.0 0.00	13.6410642098	0.00	0.00	Cloudy(cloudy)	True	False	0.00
2011-03-16 00:00:00 39525 0 0.00 0.00 0.00 0.0 0.00	13.6410642098	0.00	0.00	Cloudy(cloudy)	True	False	0.00
2011-03-16 01:00:00 39526 1 0.00 0.00 0.00 0.0 0.00	6.25176271505	0.00	0.00	Few_Showers(cloudy)	True	False	0.00
2011-03-16 02:00:00 39527 2 0.00 0.00 0.00 0.0 0.00	6.25176271505	0.00	0.00	Few_Showers(cloudy)	True	False	0.00
2011-03-16 03:00:00 39528 3 0.00 0.00 0.00 0.0 0.00	6.25176271505	0.00	0.00	Few_Showers(light_rain)	True	False	0.00
2011-03-16 04:00:00 39529 4 0.00 0.00 0.00 0.0 0.00	4.48905932777	0.00	0.00	Rain(cloudy)	True	False	0.00
2011-03-16 05:00:00 39530 5 0.00 0.00 0.00 0.0 0.00	4.48905932777	0.00	0.00	Rain(light_rain)	True	False	0.00
2011-03-16 06:00:00 39531 6 1.23 1.23 1.23 0.0 27.30	4.48905932777	1.23	0.00	Rain(rain)	True	False	0.00
2011-03-16 07:00:00 39532 7 10.87 10.87 10.87 0.0 242.20	4.48905932777	10.87	0.00	Rain(rain)	True	False	0.00
2011-03-16 08:00:00 39533 8 27.29 27.29 27.29 11.2 607.90	4.48905932777	27.29	11.20	Rain(light_rain)	True	False	11.20
