2011-03-12 21:00:00 37822 21 0.00 0.00 0.00 0.0 0.00	86.0548577288	0.00	0.00	Clear(clear)	True	False	0.00
2011-03-12 22:00:00 37823 22 0.00 0.00 0.00 0.0 0.00	86.0548577288	0.00	0.00	Clear(mostly_cloudy)	True	False	0.00
2011-03-12 23:00:00 37824 23 0.00 0.00 0.00 0.0 0.00	86.0548577288	0.00	0.00	Mostly_Clear(partly_cloudy)	False	False	0.00
2011-03-13 00:00:00 37825 0 0.00 0.00 0.00 0.0 0.00	86.0548577288	0.00	0.00	Mostly_Clear(rain_shower)	False	False	0.00
2011-03-13 01:00:00 37826 1 0.00 0.00 0.00 0.0 0.00	86.0548577288	0.00	0.00	Mostly_Clear(clear)	False	False	0.00
2011-03-13 02:00:00 37827 2 0.00 0.00 0.00 0.0 0.00	72.893982808	0.00	0.00	Partly_Cloudy(Unkown)	True	False	0.00
2011-03-13 03:00:00 37828 3 0.00 0.00 0.00 0.0 0.00	72.893982808	0.00	0.00	Partly_Cloudy(clear)	True	False	0.00
2011-03-13 04:00:00 37829 4 0.00 0.00 0.00 0.0 0.00	72.893982808	0.00	0.00	Partly_Cloudy(partly_cloudy)	True	False	0.00
2011-03-13 05:00:00 37830 5 0.00 0.00 0.00 0.0 0.00	72.893982808	0.00	0.00	Partly_Cloudy(clear)	True	False	0.00
2011-03-13 06:00:00 37831 6 23.49 23.49 23.49 0.0 27.30	86.0548577288	23.49	0.00	Clear(partly_cloudy)	True	False	0.00
2011-03-13 07:00:00 37832 7 208.42 208.42 208.42 11.6 242.20	86.0548577288	208.42	11.60	Sunny(cloudy)	True	False	11.60
2011-03-13 08:00:00 37833 8 523.13 523.13 523.13 94.6 607.90	86.0548577288	523.13	94.60	Sunny(cloudy)	True	False	94.60
2011-03-13 09:00:00 37834 9 762.96 762.96 762.96 119.7 886.60	86.0548577288	762.96	119.70	Mostly_Sunny(cloudy)	False	False	119.70
2011-03-13 10:00:00 37835 10 915.37 915.37 915.37 237.9 1063.70	86.0548577288	915.37	237.90	Mostly_Sunny(cloudy)	False	False	237.90
2011-03-13 11:00:00 37836 11 989.37 989.37 989.37 583.6 1149.70	86.0548577288	989.37	583.60	Mostly_Sunny(mostly_cloudy)	False	False	583.60
2011-03-13 12:00:00 37837 12 869.46 869.46 869.46 513.1 1177.90	73.8146644788	869.46	513.10	Partly_Cloudy(cloudy)	True	False	513.10
2011-03-13 13:00:00 37838 13 863.85 863.85 863.85 568.4 1170.30	73.8146644788	863.85	568.40	Partly_Cloudy(cloudy)	True	False	568.40
2011-03-13 14:00:00 37839 14 854.70 854.70 854.70 436.3 1157.90	73.8146644788	854.70	436.30	Partly_Cloudy(cloudy)	True	False	436.30
2011-03-13 15:00:00 37840 15 732.02 732.02 732.02 346.6 991.70	73.8146644788	732.02	346.60	Mostly_Sunny(cloudy)	False	False	346.60
2011-03-13 16:00:00 37841 16 504.97 504.97 504.97 148.4 684.10	73.8146644788	504.97	148.40	Mostly_Sunny(cloudy)	False	False	148.40
2011-03-13 17:00:00 37842 17 257.61 257.61 257.61 112.3 349.00	73.8146644788	257.61	112.30	Mostly_Sunny(cloudy)	False	False	112.30
2011-03-13 18:00:00 37843 18 57.91 57.91 57.91 30.7 67.30	86.0548577288	57.91	30.70	Sunny(cloudy)	True	False	30.70
2011-03-13 19:00:00 37844 19 0.86 0.86 0.86 0.0 1.00	86.0548577288	0.86	0.00	Clear(cloudy)	True	False	0.00
2011-03-13 20:00:00 37845 20 0.00 0.00 0.00 0.0 0.00	86.0548577288	0.00	0.00	Clear(cloudy)	True	False	0.00
2011-03-13 21:00:00 37846 21 0.00 0.00 0.00 0.0 0.00	86.0548577288	0.00	0.00	Clear(mostly_cloudy)	True	False	0.00
2011-03-13 22:00:00 37847 22 0.00 0.00 0.00 0.0 0.00	86.0548577288	0.00	0.00	Clear(cloudy)	True	False	0.00
2011-03-13 23:00:00 37848 23 0.00 0.00 0.00 0.0 0.00	86.0548577288	0.00	0.00	Clear(cloudy)	True	False	0.00
2011-03-14 00:00:00 37849 0 0.00 0.00 0.00 0.0 0.00	86.0548577288	0.00	0.00	Clear(clear)	True	False	0.00
2011-03-14 01:00:00 37850 1 0.00 0.00 0.00 0.0 0.00	86.0548577288	0.00	0.00	Clear(clear)	True	False	0.00
2011-03-14 02:00:00 37851 2 0.00 0.00 0.00 0.0 0.00	86.0548577288	0.00	0.00	Clear(clear)	True	False	0.00
2011-03-14 03:00:00 37852 3 0.00 0.00 0.00 0.0 0.00	86.0548577288	0.00	0.00	Clear(cloudy)	True	False	0.00
2011-03-14 04:00:00 37853 4 0.00 0.00 0.00 0.0 0.00	86.0548577288	0.00	0.00	Clear(cloudy)	True	False	0.00
2011-03-14 05:00:00 37854 5 0.00 0.00 0.00 0.0 0.00	86.0548577288	0.00	0.00	Clear(cloudy)	True	False	0.00
2011-03-14 06:00:00 37855 6 23.49 23.49 23.49 26.4 27.30	86.0548577288	23.49	26.40	Clear(cloudy)	True	False	26.40
2011-03-14 07:00:00 37856 7 208.42 208.42 208.42 124.3 242.20	86.0548577288	208.42	124.30	Sunny(cloudy)	True	False	124.30
2011-03-14 08:00:00 37857 8 523.13 523.13 523.13 79.0 607.90	86.0548577288	523.13	79.00	Sunny(mostly_cloudy)	True	False	79.00
2011-03-14 09:00:00 37858 9 654.44 654.44 654.44 285.0 886.60	73.8146644788	654.44	285.00	Partly_Cloudy(cloudy)	True	False	285.00
2011-03-14 10:00:00 37859 10 785.17 785.17 785.17 428.0 1063.70	73.8146644788	785.17	428.00	Partly_Cloudy(cloudy)	True	False	428.00
2011-03-14 11:00:00 37860 11 848.65 848.65 848.65 698.8 1149.70	73.8146644788	848.65	698.80	Partly_Cloudy(Unkown)	True	False	698.80
2011-03-14 12:00:00 37861 12 869.46 869.46 869.46 207.6 1177.90	73.8146644788	869.46	207.60	Partly_Cloudy(cloudy)	True	False	207.60
2011-03-14 13:00:00 37862 13 863.85 863.85 863.85 334.4 1170.30	73.8146644788	863.85	334.40	Partly_Cloudy(cloudy)	True	False	334.40
2011-03-14 14:00:00 37863 14 854.70 854.70 854.70 313.0 1157.90	73.8146644788	854.70	313.00	Partly_Cloudy(cloudy)	True	False	313.00
2011-03-14 15:00:00 37864 15 732.02 732.02 732.02 287.8 991.70	73.8146644788	732.02	287.80	Mostly_Sunny(cloudy)	False	False	287.80
2011-03-14 16:00:00 37865 16 504.97 504.97 504.97 118.1 684.10	73.8146644788	504.97	118.10	Mostly_Sunny(cloudy)	False	False	118.10
2011-03-14 17:00:00 37866 17 257.61 257.61 257.61 31.6 349.00	73.8146644788	257.61	31.60	Mostly_Sunny(cloudy)	False	False	31.60
2011-03-14 18:00:00 37867 18 57.91 57.91 57.91 0.0 67.30	86.0548577288	57.91	0.00	Sunny(cloudy)	True	False	0.00
2011-03-14 19:00:00 37868 19 0.86 0.86 0.86 0.0 1.00	86.0548577288	0.86	0.00	Clear(partly_cloudy)	True	False	0.00
2011-03-14 20:00:00 37869 20 0.00 0.00 0.00 0.0 0.00	86.0548577288	0.00	0.00	Clear(mostly_cloudy)	True	False	0.00
2011-03-14 21:00:00 37870 21 0.00 0.00 0.00 0.0 0.00	86.0548577288	0.00	0.00	Clear(mostly_cloudy)	True	False	0.00
