2011-03-18 14:00:00 44319 14 799.72 799.72 1029.18 982.1 1157.90	69.0666891493	1029.18	982.10	Partly_Cloudy(partly_cloudy)	True	False	982.10
2011-03-18 15:00:00 44320 15 684.93 684.93 841.13 807.4 991.70	69.0666891493	841.13	807.40	Partly_Cloudy(sunny)	True	False	807.40
2011-03-18 16:00:00 44321 16 463.20 463.20 580.24 503.2 684.10	67.7087831419	580.24	503.20	Partly_Cloudy(fair)	True	False	503.20
2011-03-18 17:00:00 44322 17 236.30 236.30 296.01 221.1 349.00	67.7087831419	296.01	221.10	Partly_Cloudy(fair)	True	False	221.10
2011-03-18 18:00:00 44323 18 59.04 59.04 73.96 43.3 87.20	67.7087831419	73.96	43.30	Partly_Cloudy(fair)	True	False	43.30
2011-03-18 19:00:00 44324 19 0.95 0.95 1.19 0.1 1.40	67.7087831419	1.19	0.10	Partly_Cloudy(fair)	True	False	0.10
2011-03-18 20:00:00 44325 20 0.00 0.00 0.00 0.0 0.00	67.7087831419	0.00	0.00	Partly_Cloudy(fair)	True	False	0.00
2011-03-18 21:00:00 44326 21 0.00 0.00 0.00 0.0 0.00	67.7087831419	0.00	0.00	Partly_Cloudy(fair)	True	False	0.00
2011-03-18 22:00:00 44327 22 0.00 0.00 0.00 0.0 0.00	67.7087831419	0.00	0.00	Partly_Cloudy(fair)	True	False	0.00
2011-03-18 23:00:00 44328 23 0.00 0.00 0.00 0.0 0.00	67.7087831419	0.00	0.00	Partly_Cloudy(mostly_cloudy)	True	False	0.00
2011-03-19 00:00:00 44329 0 0.00 0.00 0.00 0.0 0.00	67.7087831419	0.00	0.00	Partly_Cloudy(cloudy)	True	False	0.00
2011-03-19 01:00:00 44330 1 0.00 0.00 0.00 0.0 0.00	29.1659812469	0.00	0.00	Mostly_Cloudy(cloudy)	True	False	0.00
2011-03-19 02:00:00 44331 2 0.00 0.00 0.00 0.0 0.00	29.1659812469	0.00	0.00	Mostly_Cloudy(cloudy)	True	False	0.00
2011-03-19 03:00:00 44332 3 0.00 0.00 0.00 0.0 0.00	29.1659812469	0.00	0.00	Mostly_Cloudy(mostly_cloudy)	True	False	0.00
2011-03-19 04:00:00 44333 4 0.00 0.00 0.00 0.0 0.00	29.1659812469	0.00	0.00	Mostly_Cloudy(mostly_cloudy)	True	False	0.00
2011-03-19 05:00:00 44334 5 0.00 0.00 0.00 0.0 0.00	29.1659812469	0.00	0.00	Mostly_Cloudy(partly_cloudy)	True	False	0.00
2011-03-19 06:00:00 44335 6 7.96 7.96 7.96 0.0 27.30	29.1659812469	7.96	0.00	Mostly_Cloudy(partly_cloudy)	True	False	0.00
2011-03-19 07:00:00 44336 7 70.64 70.64 70.64 36.1 242.20	29.1659812469	70.64	36.10	Mostly_Clear(partly_cloudy)	False	False	36.10
2011-03-19 08:00:00 44337 8 177.30 177.30 177.30 313.9 607.90	29.1659812469	177.30	313.90	Mostly_Sunny(sunny)	False	False	313.90
2011-03-19 09:00:00 44338 9 258.59 258.59 258.59 664.8 886.60	29.1659812469	258.59	664.80	Mostly_Sunny(sunny)	False	False	664.80
2011-03-19 10:00:00 44339 10 945.45 945.45 945.45 924.7 1063.70	88.8831923438	945.45	924.70	Sunny(fair)	True	False	924.70
2011-03-19 11:00:00 44340 11 1021.89 1021.89 1021.89 1080.9 1149.70	88.8831923438	1021.89	1080.90	Sunny(sunny)	True	False	1080.90
2011-03-19 12:00:00 44341 12 1054.24 1054.24 1054.24 1141.6 1186.10	88.8831923438	1054.24	1141.60	Sunny(partly_cloudy)	True	False	1141.60
2011-03-19 13:00:00 44342 13 1040.20 1040.20 1040.20 1126.5 1170.30	88.8831923438	1040.20	1126.50	Sunny(partly_cloudy)	True	False	1126.50
2011-03-19 14:00:00 44343 14 1029.18 1029.18 1029.18 1076.6 1157.90	88.8831923438	1029.18	1076.60	Sunny(fair)	True	False	1076.60
2011-03-19 15:00:00 44344 15 881.45 881.45 881.45 928.9 991.70	88.8831923438	881.45	928.90	Sunny(fair)	True	False	928.90
2011-03-19 16:00:00 44345 16 590.28 590.28 590.28 680.8 684.10	86.2855678031	590.28	680.80	Sunny(fair)	True	False	680.80
2011-03-19 17:00:00 44346 17 301.14 301.14 301.14 338.7 349.00	86.2855678031	301.14	338.70	Sunny(sunny)	True	False	338.70
2011-03-19 18:00:00 44347 18 75.24 75.24 75.24 56.7 87.20	86.2855678031	75.24	56.70	Sunny(sunny)	True	False	56.70
2011-03-19 19:00:00 44348 19 1.21 1.21 1.21 0.1 1.40	86.2855678031	1.21	0.10	Sunny(sunny)	True	False	0.10
2011-03-19 20:00:00 44349 20 0.00 0.00 0.00 0.0 0.00	86.2855678031	0.00	0.00	Clear(clear)	True	False	0.00
2011-03-19 21:00:00 44350 21 0.00 0.00 0.00 0.0 0.00	86.2855678031	0.00	0.00	Clear(clear)	True	False	0.00
2011-03-19 22:00:00 44351 22 0.00 0.00 0.00 0.0 0.00	86.2855678031	0.00	0.00	Clear(clear)	True	False	0.00
2011-03-19 23:00:00 44352 23 0.00 0.00 0.00 0.0 0.00	86.2855678031	0.00	0.00	Clear(clear)	True	False	0.00
2011-03-20 00:00:00 44353 0 0.00 0.00 0.00 0.0 0.00	86.2855678031	0.00	0.00	Clear(clear)	True	False	0.00
2011-03-20 01:00:00 44354 1 0.00 0.00 0.00 0.0 0.00	86.2855678031	0.00	0.00	Clear(clear)	True	False	0.00
2011-03-20 02:00:00 44355 2 0.00 0.00 0.00 0.0 0.00	86.2855678031	0.00	0.00	Clear(clear)	True	False	0.00
2011-03-20 03:00:00 44356 3 0.00 0.00 0.00 0.0 0.00	86.2855678031	0.00	0.00	Clear(clear)	True	False	0.00
2011-03-20 04:00:00 44357 4 0.00 0.00 0.00 0.0 0.00	86.2855678031	0.00	0.00	Clear(clear)	True	False	0.00
2011-03-20 05:00:00 44358 5 0.00 0.00 0.00 0.0 0.00	86.2855678031	0.00	0.00	Clear(clear)	True	False	0.00
2011-03-20 06:00:00 44359 6 23.56 23.56 23.56 0.0 27.30	86.2855678031	23.56	0.00	Clear(clear)	True	False	0.00
2011-03-20 07:00:00 44360 7 208.98 208.98 208.98 50.6 242.20	86.2855678031	208.98	50.60	Clear(sunny)	True	False	50.60
2011-03-20 08:00:00 44361 8 524.53 524.53 524.53 323.6 607.90	86.2855678031	524.53	323.60	Sunny(sunny)	True	False	323.60
2011-03-20 09:00:00 44362 9 765.01 765.01 765.01 671.9 886.60	86.2855678031	765.01	671.90	Sunny(sunny)	True	False	671.90
2011-03-20 10:00:00 44363 10 945.45 945.45 945.45 932.9 1063.70	88.8831923438	945.45	932.90	Sunny(sunny)	True	False	932.90
2011-03-20 11:00:00 44364 11 1021.89 1021.89 1021.89 1072.4 1149.70	88.8831923438	1021.89	1072.40	Sunny(sunny)	True	False	1072.40
2011-03-20 12:00:00 44365 12 1054.24 1054.24 1054.24 1138.6 1186.10	88.8831923438	1054.24	1138.60	Sunny(sunny)	True	False	1138.60
2011-03-20 13:00:00 44366 13 1040.20 1040.20 1040.20 1131.6 1170.30	88.8831923438	1040.20	1131.60	Sunny(sunny)	True	False	1131.60
