2011-03-08 00:00:00 32237 0 0.00 0.00 0.00 0.0 0.00	88.5274419414	0.00	0.00	Clear(fair)	True	False	0.00
2011-03-08 01:00:00 32238 1 0.00 0.00 0.00 0.0 0.00	88.5274419414	0.00	0.00	Clear(fair)	True	False	0.00
2011-03-08 02:00:00 32239 2 0.00 0.00 0.00 0.0 0.00	88.5274419414	0.00	0.00	Mostly_Clear(fair)	False	False	0.00
2011-03-08 03:00:00 32240 3 0.00 0.00 0.00 0.0 0.00	74.3498303905	0.00	0.00	Partly_Cloudy(fair)	True	False	0.00
2011-03-08 04:00:00 32241 4 0.00 0.00 0.00 0.0 0.00	74.3498303905	0.00	0.00	Partly_Cloudy(fair)	True	False	0.00
2011-03-08 05:00:00 32242 5 0.00 0.00 0.00 0.0 0.00	74.3498303905	0.00	0.00	Partly_Cloudy(fair)	True	False	0.00
2011-03-08 06:00:00 32243 6 20.30 20.30 20.30 19.4 27.30	74.3498303905	20.30	19.40	Partly_Cloudy(fair)	True	False	19.40
2011-03-08 07:00:00 32244 7 180.08 180.08 180.08 254.2 242.20	74.3498303905	180.08	254.20	Partly_Cloudy(fair)	True	False	254.20
2011-03-08 08:00:00 32245 8 451.97 451.97 451.97 609.5 607.90	74.3498303905	451.97	609.50	Partly_Cloudy(fair)	True	False	609.50
2011-03-08 09:00:00 32246 9 172.05 172.05 172.05 881.8 886.60	19.4054500413	172.05	881.80	Mostly_Cloudy(fair)	True	False	881.80
2011-03-08 10:00:00 32247 10 545.88 545.88 545.88 1027.3 1063.70	51.319215414	545.88	1027.30	Mostly_Cloudy(fair)	True	False	1027.30
2011-03-08 11:00:00 32248 11 590.02 590.02 590.02 1129.5 1149.70	51.319215414	590.02	1129.50	Mostly_Cloudy(fair)	True	False	1129.50
2011-03-08 12:00:00 32249 12 848.06 848.06 848.06 1101.8 1150.40	73.7188528444	848.06	1101.80	Partly_Cloudy(fair)	True	False	1101.80
2011-03-08 13:00:00 32250 13 849.39 849.39 849.39 938.7 1152.20	73.7188528444	849.39	938.70	Partly_Cloudy(fair)	True	False	938.70
2011-03-08 14:00:00 32251 14 784.00 784.00 784.00 618.8 1063.50	73.7188528444	784.00	618.80	Partly_Cloudy(fair)	True	False	618.80
2011-03-08 15:00:00 32252 15 671.65 671.65 671.65 261.9 911.10	73.7188528444	671.65	261.90	Mostly_Sunny(fair)	False	False	261.90
2011-03-08 16:00:00 32253 16 489.05 489.05 489.05 152.4 663.40	73.7188528444	489.05	152.40	Mostly_Sunny(fair)	False	False	152.40
2011-03-08 17:00:00 32254 17 242.54 242.54 242.54 53.6 329.00	73.7188528444	242.54	53.60	Mostly_Sunny(fair)	False	False	53.60
2011-03-08 18:00:00 32255 18 40.00 40.00 40.00 0.0 53.80	74.3498303905	40.00	0.00	Partly_Cloudy(fair)	True	False	0.00
2011-03-08 19:00:00 32256 19 0.07 0.07 0.07 0.0 0.10	74.3498303905	0.07	0.00	Partly_Cloudy(fair)	True	False	0.00
2011-03-08 20:00:00 32257 20 0.00 0.00 0.00 0.0 0.00	74.3498303905	0.00	0.00	Partly_Cloudy(fair)	True	False	0.00
2011-03-08 21:00:00 32258 21 0.00 0.00 0.00 0.0 0.00	88.5274419414	0.00	0.00	Clear(fair)	True	False	0.00
2011-03-08 22:00:00 32259 22 0.00 0.00 0.00 0.0 0.00	88.5274419414	0.00	0.00	Clear(fair)	True	False	0.00
2011-03-08 23:00:00 32260 23 0.00 0.00 0.00 0.0 0.00	88.5274419414	0.00	0.00	Clear(fair)	True	False	0.00
2011-03-09 00:00:00 32261 0 0.00 0.00 0.00 0.0 0.00	88.5274419414	0.00	0.00	Clear(fair)	True	False	0.00
2011-03-09 01:00:00 32262 1 0.00 0.00 0.00 0.0 0.00	88.5274419414	0.00	0.00	Clear(fair)	True	False	0.00
2011-03-09 02:00:00 32263 2 0.00 0.00 0.00 0.0 0.00	88.5274419414	0.00	0.00	Clear(fair)	True	False	0.00
2011-03-09 03:00:00 32264 3 0.00 0.00 0.00 0.0 0.00	88.5274419414	0.00	0.00	Clear(fair)	True	False	0.00
2011-03-09 04:00:00 32265 4 0.00 0.00 0.00 0.0 0.00	88.5274419414	0.00	0.00	Clear(fair)	True	False	0.00
2011-03-09 05:00:00 32266 5 0.00 0.00 0.00 0.0 0.00	88.5274419414	0.00	0.00	Clear(fair)	True	False	0.00
2011-03-09 06:00:00 32267 6 24.17 24.17 24.17 35.1 27.30	88.5274419414	24.17	35.10	Mostly_Clear(fair)	False	False	35.10
2011-03-09 07:00:00 32268 7 214.41 214.41 214.41 111.5 242.20	88.5274419414	214.41	111.50	Mostly_Sunny(fair)	False	False	111.50
2011-03-09 08:00:00 32269 8 538.16 538.16 538.16 386.9 607.90	88.5274419414	538.16	386.90	Mostly_Sunny(fair)	False	False	386.90
2011-03-09 09:00:00 32270 9 659.19 659.19 659.19 306.0 886.60	74.3498303905	659.19	306.00	Partly_Cloudy(fair)	True	False	306.00
2011-03-09 10:00:00 32271 10 784.15 784.15 784.15 478.5 1063.70	73.7188528444	784.15	478.50	Partly_Cloudy(fair)	True	False	478.50
2011-03-09 11:00:00 32272 11 847.55 847.55 847.55 383.9 1149.70	73.7188528444	847.55	383.90	Partly_Cloudy(fair)	True	False	383.90
2011-03-09 12:00:00 32273 12 590.38 590.38 590.38 340.4 1150.40	51.319215414	590.38	340.40	Mostly_Cloudy(fair)	True	False	340.40
2011-03-09 13:00:00 32274 13 591.30 591.30 591.30 316.7 1152.20	51.319215414	591.30	316.70	Mostly_Cloudy(mostly_cloudy)	True	False	316.70
2011-03-09 14:00:00 32275 14 545.78 545.78 545.78 195.8 1063.50	51.319215414	545.78	195.80	Mostly_Cloudy(cloudy)	True	False	195.80
2011-03-09 15:00:00 32276 15 165.66 165.66 165.66 108.9 911.10	18.1826071863	165.66	108.90	Cloudy(cloudy)	True	False	108.90
2011-03-09 16:00:00 32277 16 93.09 93.09 93.09 23.0 663.40	14.0319131436	93.09	23.00	Cloudy(cloudy)	True	False	23.00
2011-03-09 17:00:00 32278 17 46.16 46.16 46.16 3.6 329.00	14.0319131436	46.16	3.60	Cloudy(cloudy)	True	False	3.60
2011-03-09 18:00:00 32279 18 7.55 7.55 7.55 0.0 53.80	14.0319131436	7.55	0.00	Cloudy(cloudy)	True	False	0.00
2011-03-09 19:00:00 32280 19 0.01 0.01 0.01 0.0 0.10	14.0319131436	0.01	0.00	Cloudy(cloudy)	True	False	0.00
2011-03-09 20:00:00 32281 20 0.00 0.00 0.00 0.0 0.00	14.0319131436	0.00	0.00	Cloudy(cloudy)	True	False	0.00
2011-03-09 21:00:00 32282 21 0.00 0.00 0.00 0.0 0.00	0.64880112835	0.00	0.00	Rain_/_Snow_Showers(cloudy)	True	False	0.00
2011-03-09 22:00:00 32283 22 0.00 0.00 0.00 0.0 0.00	0.64880112835	0.00	0.00	Rain_/_Snow_Showers(cloudy)	True	False	0.00
2011-03-09 23:00:00 32284 23 0.00 0.00 0.00 0.0 0.00	0.64880112835	0.00	0.00	Rain_/_Snow_Showers(cloudy)	True	False	0.00
