2011-03-22 14:00:00 48960 14 895.58 1020.77 1020.77 1005.2 1157.90	77.345493354	1020.77	1005.20	Partly_Cloudy(mostly_cloudy)	True	False	1005.20
2011-03-22 15:00:00 48961 15 860.92 860.92 860.92 845.9 991.70	88.1568828506	860.92	845.90	Mostly_Sunny(mostly_cloudy)	False	False	845.90
2011-03-22 16:00:00 48962 16 503.75 593.88 593.88 652.0 684.10	73.6374407583	593.88	652.00	Partly_Cloudy(mostly_cloudy)	True	False	652.00
2011-03-22 17:00:00 48963 17 256.99 302.98 302.98 310.0 349.00	73.6374407583	302.98	310.00	Partly_Cloudy(sunny)	True	False	310.00
2011-03-22 18:00:00 48964 18 72.39 85.34 85.34 53.0 98.30	73.6374407583	85.34	53.00	Partly_Cloudy(fair)	True	False	53.00
2011-03-22 19:00:00 48965 19 1.55 1.82 1.82 0.0 2.10	73.6374407583	1.82	0.00	Partly_Cloudy(partly_cloudy)	True	False	0.00
2011-03-22 20:00:00 48966 20 0.00 0.00 0.00 0.0 0.00	73.6374407583	0.00	0.00	Partly_Cloudy(partly_cloudy)	True	False	0.00
2011-03-22 21:00:00 48967 21 0.00 0.00 0.00 0.0 0.00	73.6374407583	0.00	0.00	Partly_Cloudy(partly_cloudy)	True	False	0.00
2011-03-22 22:00:00 48968 22 0.00 0.00 0.00 0.0 0.00	31.7163093044	0.00	0.00	Mostly_Cloudy(mostly_cloudy)	True	False	0.00
2011-03-22 23:00:00 48969 23 0.00 0.00 0.00 0.0 0.00	31.7163093044	0.00	0.00	Mostly_Cloudy(cloudy)	True	False	0.00
2011-03-23 00:00:00 48970 0 0.00 0.00 0.00 0.0 0.00	31.7163093044	0.00	0.00	Mostly_Cloudy(cloudy)	True	False	0.00
2011-03-23 01:00:00 48971 1 0.00 0.00 0.00 0.0 0.00	8.25214899713	0.00	0.00	Few_Showers(cloudy)	True	False	0.00
2011-03-23 02:00:00 48972 2 0.00 0.00 0.00 0.0 0.00	8.25214899713	0.00	0.00	Few_Showers(light_rain)	True	False	0.00
2011-03-23 03:00:00 48973 3 0.00 0.00 0.00 0.0 0.00	8.25214899713	0.00	0.00	Few_Showers(light_snow)	True	False	0.00
2011-03-23 04:00:00 48974 4 0.00 0.00 0.00 0.0 0.00	8.25214899713	0.00	0.00	Rain_/_Snow_Showers(light_snow)	False	False	0.00
2011-03-23 05:00:00 48975 5 0.00 0.00 0.00 0.0 0.00	8.25214899713	0.00	0.00	Rain_/_Snow_Showers(light_snow)	False	False	0.00
2011-03-23 06:00:00 48976 6 2.25 2.25 2.25 0.0 27.30	8.25214899713	2.25	0.00	Rain_/_Snow_Showers(light_snow)	False	False	0.00
2011-03-23 07:00:00 48977 7 19.67 19.67 19.67 0.0 238.40	8.25214899713	19.67	0.00	Rain_/_Snow_Showers(light_snow)	False	False	0.00
2011-03-23 08:00:00 48978 8 47.66 47.66 47.66 0.0 577.50	8.25214899713	47.66	0.00	Rain_/_Snow_Showers(light_snow)	False	False	0.00
2011-03-23 09:00:00 48979 9 69.65 69.65 69.65 0.2 844.00	8.25214899713	69.65	0.20	Rain_/_Snow_Showers(light_snow)	False	False	0.20
2011-03-23 10:00:00 48980 10 85.05 85.05 85.05 0.6 1030.70	8.25214899713	85.05	0.60	Rain_/_Snow_Showers(cloudy)	False	False	0.60
2011-03-23 11:00:00 48981 11 93.06 93.06 93.06 10.4 1127.70	8.25214899713	93.06	10.40	Rain_/_Snow_Showers(light_rain)	False	False	10.40
2011-03-23 12:00:00 48982 12 97.88 97.88 97.88 17.9 1186.10	8.25214899713	97.88	17.90	Rain_/_Snow_Showers(light_rain)	False	False	17.90
2011-03-23 13:00:00 48983 13 96.57 96.57 96.57 27.4 1170.30	8.25214899713	96.57	27.40	Rain_/_Snow(light_rain)	False	False	27.40
2011-03-23 14:00:00 48984 14 95.55 95.55 95.55 41.5 1157.90	8.25214899713	95.55	41.50	Rain_/_Snow(light_rain)	False	False	41.50
2011-03-23 15:00:00 48985 15 81.84 81.84 81.84 33.2 991.70	8.25214899713	81.84	33.20	Rain_/_Snow(cloudy)	False	False	33.20
2011-03-23 16:00:00 48986 16 32.58 32.58 32.58 15.0 684.10	4.7619047619	32.58	15.00	Rain(wintry_mix)	True	False	15.00
2011-03-23 17:00:00 48987 17 16.62 16.62 16.62 4.6 349.00	4.7619047619	16.62	4.60	Rain(light_rain)	True	False	4.60
2011-03-23 18:00:00 48988 18 4.68 4.68 4.68 0.0 98.30	4.7619047619	4.68	0.00	Rain(light_rain)	True	False	0.00
2011-03-23 19:00:00 48989 19 0.10 0.10 0.10 0.0 2.10	4.7619047619	0.10	0.00	Rain(light_rain)	True	False	0.00
2011-03-23 20:00:00 48990 20 0.00 0.00 0.00 0.0 0.00	4.7619047619	0.00	0.00	Rain(t-storm)	True	False	0.00
2011-03-23 21:00:00 48991 21 0.00 0.00 0.00 0.0 0.00	4.7619047619	0.00	0.00	Rain(light_snow)	True	False	0.00
2011-03-23 22:00:00 48992 22 0.00 0.00 0.00 0.0 0.00	4.7619047619	0.00	0.00	Rain_/_Snow(light_snow)	False	False	0.00
2011-03-23 23:00:00 48993 23 0.00 0.00 0.00 0.0 0.00	4.7619047619	0.00	0.00	Rain_/_Snow(cloudy)	False	False	0.00
2011-03-24 00:00:00 48994 0 0.00 0.00 0.00 0.0 0.00	4.7619047619	0.00	0.00	Rain_/_Snow(light_snow)	False	False	0.00
2011-03-24 01:00:00 48995 1 0.00 0.00 0.00 0.0 0.00	4.7619047619	0.00	0.00	Rain_/_Snow_Showers(cloudy)	False	False	0.00
2011-03-24 02:00:00 48996 2 0.00 0.00 0.00 0.0 0.00	4.7619047619	0.00	0.00	Rain_/_Snow_Showers(light_snow)	False	False	0.00
2011-03-24 03:00:00 48997 3 0.00 0.00 0.00 0.0 0.00	4.7619047619	0.00	0.00	Rain_/_Snow_Showers(light_snow)	False	False	0.00
2011-03-24 04:00:00 48998 4 0.00 0.00 0.00 0.0 0.00	4.7619047619	0.00	0.00	Rain_/_Snow_Showers(cloudy)	False	False	0.00
2011-03-24 05:00:00 48999 5 0.00 0.00 0.00 0.0 0.00	4.7619047619	0.00	0.00	Rain_/_Snow_Showers(cloudy)	False	False	0.00
2011-03-24 06:00:00 49000 6 1.30 1.30 1.30 0.0 27.30	4.7619047619	1.30	0.00	Rain_/_Snow_Showers(cloudy)	False	False	0.00
2011-03-24 07:00:00 49001 7 11.35 11.35 11.35 0.1 238.40	4.7619047619	11.35	0.10	Snow_Shower(cloudy)	False	False	0.10
2011-03-24 08:00:00 49002 8 27.50 27.50 27.50 5.1 577.50	4.7619047619	27.50	5.10	Snow_Shower(cloudy)	False	False	5.10
2011-03-24 09:00:00 49003 9 40.19 40.19 40.19 13.6 844.00	4.7619047619	40.19	13.60	Snow_Shower(cloudy)	False	False	13.60
2011-03-24 10:00:00 49004 10 132.44 132.44 132.44 35.1 1030.70	12.8491620112	132.44	35.10	Cloudy(cloudy)	True	False	35.10
2011-03-24 11:00:00 49005 11 144.90 144.90 144.90 173.0 1127.70	12.8491620112	144.90	173.00	Cloudy(cloudy)	True	False	173.00
2011-03-24 12:00:00 49006 12 152.40 152.40 152.40 432.5 1186.10	12.8491620112	152.40	432.50	Cloudy(cloudy)	True	False	432.50
2011-03-24 13:00:00 49007 13 150.37 150.37 150.37 349.6 1170.30	12.8491620112	150.37	349.60	Rain_/_Snow_Showers(cloudy)	False	False	349.60
