2011-03-12 08:00:00 37201 8 443.12 443.12 443.12 581.6 607.90	72.893982808	443.12	581.60	Partly_Cloudy(mostly_cloudy)	True	False	581.60
2011-03-12 09:00:00 37202 9 646.28 646.28 646.28 877.2 886.60	72.893982808	646.28	877.20	Partly_Cloudy(sunny)	True	False	877.20
2011-03-12 10:00:00 37203 10 785.17 785.17 785.17 1048.4 1063.70	73.8146644788	785.17	1048.40	Partly_Cloudy(fair)	True	False	1048.40
2011-03-12 11:00:00 37204 11 848.65 848.65 848.65 948.1 1149.70	73.8146644788	848.65	948.10	Partly_Cloudy(sunny)	True	False	948.10
2011-03-12 12:00:00 37205 12 869.46 869.46 869.46 496.9 1177.90	73.8146644788	869.46	496.90	Partly_Cloudy(sunny)	True	False	496.90
2011-03-12 13:00:00 37206 13 863.85 863.85 863.85 517.8 1170.30	73.8146644788	863.85	517.80	Partly_Cloudy(partly_cloudy)	True	False	517.80
2011-03-12 14:00:00 37207 14 854.70 854.70 854.70 696.9 1157.90	73.8146644788	854.70	696.90	Partly_Cloudy(mostly_cloudy)	True	False	696.90
2011-03-12 15:00:00 37208 15 732.02 732.02 732.02 487.9 991.70	73.8146644788	732.02	487.90	Partly_Cloudy(partly_cloudy)	True	False	487.90
2011-03-12 16:00:00 37209 16 498.67 498.67 498.67 292.2 684.10	72.893982808	498.67	292.20	Partly_Cloudy(partly_cloudy)	True	False	292.20
2011-03-12 17:00:00 37210 17 254.40 254.40 254.40 40.1 349.00	72.893982808	254.40	40.10	Partly_Cloudy(sunny)	True	False	40.10
2011-03-12 18:00:00 37211 18 49.06 49.06 49.06 0.0 67.30	72.893982808	49.06	0.00	Partly_Cloudy(clear)	True	False	0.00
2011-03-12 19:00:00 37212 19 0.73 0.73 0.73 0.0 1.00	72.893982808	0.73	0.00	Partly_Cloudy(clear)	True	False	0.00
2011-03-12 20:00:00 37213 20 0.00 0.00 0.00 0.0 0.00	72.893982808	0.00	0.00	Partly_Cloudy(clear)	True	False	0.00
2011-03-12 21:00:00 37214 21 0.00 0.00 0.00 0.0 0.00	72.893982808	0.00	0.00	Partly_Cloudy(clear)	True	False	0.00
2011-03-12 22:00:00 37215 22 0.00 0.00 0.00 0.0 0.00	72.893982808	0.00	0.00	Partly_Cloudy(mostly_cloudy)	True	False	0.00
2011-03-12 23:00:00 37216 23 0.00 0.00 0.00 0.0 0.00	72.893982808	0.00	0.00	Partly_Cloudy(partly_cloudy)	True	False	0.00
2011-03-13 00:00:00 37217 0 0.00 0.00 0.00 0.0 0.00	72.893982808	0.00	0.00	Partly_Cloudy(rain_shower)	True	False	0.00
2011-03-13 01:00:00 37218 1 0.00 0.00 0.00 0.0 0.00	72.893982808	0.00	0.00	Partly_Cloudy(clear)	True	False	0.00
2011-03-13 02:00:00 37219 2 0.00 0.00 0.00 0.0 0.00	72.893982808	0.00	0.00	Partly_Cloudy(Unkown)	True	False	0.00
2011-03-13 03:00:00 37220 3 0.00 0.00 0.00 0.0 0.00	72.893982808	0.00	0.00	Mostly_Clear(clear)	False	False	0.00
2011-03-13 04:00:00 37221 4 0.00 0.00 0.00 0.0 0.00	72.893982808	0.00	0.00	Mostly_Clear(partly_cloudy)	False	False	0.00
2011-03-13 05:00:00 37222 5 0.00 0.00 0.00 0.0 0.00	72.893982808	0.00	0.00	Mostly_Clear(clear)	False	False	0.00
2011-03-13 06:00:00 37223 6 19.90 19.90 19.90 0.0 27.30	72.893982808	19.90	0.00	Mostly_Clear(partly_cloudy)	False	False	0.00
2011-03-13 07:00:00 37224 7 176.55 176.55 176.55 11.6 242.20	72.893982808	176.55	11.60	Mostly_Sunny(cloudy)	False	False	11.60
2011-03-13 08:00:00 37225 8 443.12 443.12 443.12 94.6 607.90	72.893982808	443.12	94.60	Mostly_Sunny(cloudy)	False	False	94.60
2011-03-13 09:00:00 37226 9 646.28 646.28 646.28 119.7 886.60	72.893982808	646.28	119.70	Mostly_Sunny(cloudy)	False	False	119.70
2011-03-13 10:00:00 37227 10 775.37 775.37 775.37 237.9 1063.70	72.893982808	775.37	237.90	Mostly_Sunny(cloudy)	False	False	237.90
2011-03-13 11:00:00 37228 11 838.06 838.06 838.06 583.6 1149.70	72.893982808	838.06	583.60	Mostly_Sunny(mostly_cloudy)	False	False	583.60
2011-03-13 12:00:00 37229 12 858.62 858.62 858.62 513.1 1177.90	72.893982808	858.62	513.10	Mostly_Sunny(cloudy)	False	False	513.10
2011-03-13 13:00:00 37230 13 853.08 853.08 853.08 568.4 1170.30	72.893982808	853.08	568.40	Mostly_Sunny(cloudy)	False	False	568.40
2011-03-13 14:00:00 37231 14 844.04 844.04 844.04 436.3 1157.90	72.893982808	844.04	436.30	Mostly_Sunny(cloudy)	False	False	436.30
2011-03-13 15:00:00 37232 15 853.41 853.41 853.41 346.6 991.70	86.0548577288	853.41	346.60	Sunny(cloudy)	True	False	346.60
2011-03-13 16:00:00 37233 16 588.70 588.70 588.70 148.4 684.10	86.0548577288	588.70	148.40	Sunny(cloudy)	True	False	148.40
2011-03-13 17:00:00 37234 17 300.33 300.33 300.33 112.3 349.00	86.0548577288	300.33	112.30	Sunny(cloudy)	True	False	112.30
2011-03-13 18:00:00 37235 18 57.91 57.91 57.91 30.7 67.30	86.0548577288	57.91	30.70	Sunny(cloudy)	True	False	30.70
2011-03-13 19:00:00 37236 19 0.86 0.86 0.86 0.0 1.00	86.0548577288	0.86	0.00	Clear(cloudy)	True	False	0.00
2011-03-13 20:00:00 37237 20 0.00 0.00 0.00 0.0 0.00	86.0548577288	0.00	0.00	Clear(cloudy)	True	False	0.00
2011-03-13 21:00:00 37238 21 0.00 0.00 0.00 0.0 0.00	72.893982808	0.00	0.00	Partly_Cloudy(mostly_cloudy)	True	False	0.00
2011-03-13 22:00:00 37239 22 0.00 0.00 0.00 0.0 0.00	72.893982808	0.00	0.00	Partly_Cloudy(cloudy)	True	False	0.00
2011-03-13 23:00:00 37240 23 0.00 0.00 0.00 0.0 0.00	72.893982808	0.00	0.00	Partly_Cloudy(cloudy)	True	False	0.00
2011-03-14 00:00:00 37241 0 0.00 0.00 0.00 0.0 0.00	86.0548577288	0.00	0.00	Clear(clear)	True	False	0.00
2011-03-14 01:00:00 37242 1 0.00 0.00 0.00 0.0 0.00	86.0548577288	0.00	0.00	Clear(clear)	True	False	0.00
2011-03-14 02:00:00 37243 2 0.00 0.00 0.00 0.0 0.00	86.0548577288	0.00	0.00	Clear(clear)	True	False	0.00
2011-03-14 03:00:00 37244 3 0.00 0.00 0.00 0.0 0.00	86.0548577288	0.00	0.00	Clear(cloudy)	True	False	0.00
2011-03-14 04:00:00 37245 4 0.00 0.00 0.00 0.0 0.00	86.0548577288	0.00	0.00	Clear(cloudy)	True	False	0.00
2011-03-14 05:00:00 37246 5 0.00 0.00 0.00 0.0 0.00	86.0548577288	0.00	0.00	Clear(cloudy)	True	False	0.00
2011-03-14 06:00:00 37247 6 23.49 23.49 23.49 26.4 27.30	86.0548577288	23.49	26.40	Clear(cloudy)	True	False	26.40
2011-03-14 07:00:00 37248 7 208.42 208.42 208.42 124.3 242.20	86.0548577288	208.42	124.30	Sunny(cloudy)	True	False	124.30
2011-03-14 08:00:00 37249 8 523.13 523.13 523.13 79.0 607.90	86.0548577288	523.13	79.00	Sunny(mostly_cloudy)	True	False	79.00
