2011-03-16 21:00:00 42390 21 0.00 0.00 0.00 0.0 0.00	29.1659812469	0.00	0.00	Mostly_Cloudy(cloudy)	True	False	0.00
2011-03-16 22:00:00 42391 22 0.00 0.00 0.00 0.0 0.00	29.1659812469	0.00	0.00	Mostly_Cloudy(mostly_cloudy)	True	False	0.00
2011-03-16 23:00:00 42392 23 0.00 0.00 0.00 0.0 0.00	70.3313379985	0.00	0.00	Partly_Cloudy(fair)	True	False	0.00
2011-03-17 00:00:00 42393 0 0.00 0.00 0.00 0.0 0.00	70.3313379985	0.00	0.00	Partly_Cloudy(cloudy)	True	False	0.00
2011-03-17 01:00:00 42394 1 0.00 0.00 0.00 0.0 0.00	70.3313379985	0.00	0.00	Partly_Cloudy(mostly_cloudy)	True	False	0.00
2011-03-17 02:00:00 42395 2 0.00 0.00 0.00 0.0 0.00	70.3313379985	0.00	0.00	Partly_Cloudy(clear)	True	False	0.00
2011-03-17 03:00:00 42396 3 0.00 0.00 0.00 0.0 0.00	70.3313379985	0.00	0.00	Mostly_Clear(partly_cloudy)	False	False	0.00
2011-03-17 04:00:00 42397 4 0.00 0.00 0.00 0.0 0.00	85.36855904	0.00	0.00	Clear(cloudy)	True	False	0.00
2011-03-17 05:00:00 42398 5 0.00 0.00 0.00 0.0 0.00	85.36855904	0.00	0.00	Clear(cloudy)	True	False	0.00
2011-03-17 06:00:00 42399 6 23.31 23.31 23.31 0.0 27.30	85.36855904	23.31	0.00	Clear(clear)	True	False	0.00
2011-03-17 07:00:00 42400 7 206.76 206.76 206.76 46.9 242.20	85.36855904	206.76	46.90	Clear(sunny)	True	False	46.90
2011-03-17 08:00:00 42401 8 518.96 518.96 518.96 304.7 607.90	85.36855904	518.96	304.70	Sunny(sunny)	True	False	304.70
2011-03-17 09:00:00 42402 9 756.88 756.88 756.88 624.0 886.60	85.36855904	756.88	624.00	Sunny(fair)	True	False	624.00
2011-03-17 10:00:00 42403 10 945.18 945.18 945.18 884.5 1063.70	88.8579629469	945.18	884.50	Sunny(sunny)	True	False	884.50
2011-03-17 11:00:00 42404 11 1021.60 1021.60 1021.60 1043.3 1149.70	88.8579629469	1021.60	1043.30	Sunny(sunny)	True	False	1043.30
2011-03-17 12:00:00 42405 12 1053.94 1053.94 1053.94 1108.3 1186.10	88.8579629469	1053.94	1108.30	Sunny(fair)	True	False	1108.30
2011-03-17 13:00:00 42406 13 1039.90 1039.90 1039.90 1102.3 1170.30	88.8579629469	1039.90	1102.30	Sunny(sunny)	True	False	1102.30
2011-03-17 14:00:00 42407 14 1028.89 1028.89 1028.89 1009.9 1157.90	88.8579629469	1028.89	1009.90	Sunny(sunny)	True	False	1009.90
2011-03-17 15:00:00 42408 15 881.20 881.20 881.20 870.9 991.70	88.8579629469	881.20	870.90	Sunny(sunny)	True	False	870.90
2011-03-17 16:00:00 42409 16 584.01 584.01 584.01 632.5 684.10	85.36855904	584.01	632.50	Sunny(sunny)	True	False	632.50
2011-03-17 17:00:00 42410 17 297.94 297.94 297.94 302.6 349.00	85.36855904	297.94	302.60	Sunny(sunny)	True	False	302.60
2011-03-17 18:00:00 42411 18 74.44 74.44 74.44 59.7 87.20	85.36855904	74.44	59.70	Sunny(sunny)	True	False	59.70
2011-03-17 19:00:00 42412 19 0.85 0.85 0.85 0.0 1.00	85.36855904	0.85	0.00	Mostly_Sunny(sunny)	False	False	0.00
2011-03-17 20:00:00 42413 20 0.00 0.00 0.00 0.0 0.00	85.36855904	0.00	0.00	Mostly_Clear(clear)	False	False	0.00
2011-03-17 21:00:00 42414 21 0.00 0.00 0.00 0.0 0.00	85.36855904	0.00	0.00	Mostly_Clear(clear)	False	False	0.00
2011-03-17 22:00:00 42415 22 0.00 0.00 0.00 0.0 0.00	70.3313379985	0.00	0.00	Partly_Cloudy(partly_cloudy)	True	False	0.00
2011-03-17 23:00:00 42416 23 0.00 0.00 0.00 0.0 0.00	70.3313379985	0.00	0.00	Partly_Cloudy(mostly_cloudy)	True	False	0.00
2011-03-18 00:00:00 42417 0 0.00 0.00 0.00 0.0 0.00	70.3313379985	0.00	0.00	Partly_Cloudy(mostly_cloudy)	True	False	0.00
2011-03-18 01:00:00 42418 1 0.00 0.00 0.00 0.0 0.00	70.3313379985	0.00	0.00	Partly_Cloudy(partly_cloudy)	True	False	0.00
2011-03-18 02:00:00 42419 2 0.00 0.00 0.00 0.0 0.00	70.3313379985	0.00	0.00	Partly_Cloudy(clear)	True	False	0.00
2011-03-18 03:00:00 42420 3 0.00 0.00 0.00 0.0 0.00	70.3313379985	0.00	0.00	Partly_Cloudy(clear)	True	False	0.00
2011-03-18 04:00:00 42421 4 0.00 0.00 0.00 0.0 0.00	70.3313379985	0.00	0.00	Partly_Cloudy(partly_cloudy)	True	False	0.00
2011-03-18 05:00:00 42422 5 0.00 0.00 0.00 0.0 0.00	70.3313379985	0.00	0.00	Partly_Cloudy(fair)	True	False	0.00
2011-03-18 06:00:00 42423 6 19.20 19.20 19.20 0.0 27.30	70.3313379985	19.20	0.00	Partly_Cloudy(fair)	True	False	0.00
2011-03-18 07:00:00 42424 7 70.64 70.64 70.64 35.7 242.20	29.1659812469	70.64	35.70	Mostly_Cloudy(partly_cloudy)	True	False	35.70
2011-03-18 08:00:00 42425 8 177.30 177.30 177.30 251.6 607.90	29.1659812469	177.30	251.60	Mostly_Cloudy(sunny)	True	False	251.60
2011-03-18 09:00:00 42426 9 258.59 258.59 258.59 464.4 886.60	29.1659812469	258.59	464.40	Mostly_Cloudy(sunny)	True	False	464.40
2011-03-18 10:00:00 42427 10 653.20 653.20 653.20 780.7 1063.70	61.4082918116	653.20	780.70	Mostly_Cloudy(sunny)	True	False	780.70
2011-03-18 11:00:00 42428 11 706.01 706.01 706.01 809.1 1149.70	61.4082918116	706.01	809.10	Mostly_Cloudy(sunny)	True	False	809.10
2011-03-18 12:00:00 42429 12 728.36 728.36 728.36 1010.7 1186.10	61.4082918116	728.36	1010.70	Mostly_Cloudy(sunny)	True	False	1010.70
2011-03-18 13:00:00 42430 13 102.80 102.80 102.80 987.7 1170.30	8.78407246005	102.80	987.70	Few_Showers(fair)	True	False	987.70
2011-03-18 14:00:00 42431 14 101.71 101.71 101.71 982.1 1157.90	8.78407246005	101.71	982.10	Few_Showers(partly_cloudy)	True	False	982.10
2011-03-18 15:00:00 42432 15 87.11 87.11 87.11 807.4 991.70	8.78407246005	87.11	807.40	Few_Showers(sunny)	True	False	807.40
2011-03-18 16:00:00 42433 16 59.55 59.55 59.55 503.2 684.10	8.70541497539	59.55	503.20	Scattered_Showers(fair)	True	False	503.20
2011-03-18 17:00:00 42434 17 30.38 30.38 30.38 221.1 349.00	8.70541497539	30.38	221.10	Scattered_Showers(fair)	True	False	221.10
2011-03-18 18:00:00 42435 18 7.59 7.59 7.59 43.3 87.20	8.70541497539	7.59	43.30	Scattered_Showers(fair)	True	False	43.30
2011-03-18 19:00:00 42436 19 0.09 0.09 0.09 0.1 1.00	8.70541497539	0.09	0.10	Mostly_Sunny(fair)	False	False	0.10
2011-03-18 20:00:00 42437 20 0.00 0.00 0.00 0.0 0.00	8.70541497539	0.00	0.00	Mostly_Clear(fair)	False	False	0.00
2011-03-18 21:00:00 42438 21 0.00 0.00 0.00 0.0 0.00	8.70541497539	0.00	0.00	Mostly_Clear(fair)	False	False	0.00
