2011-02-18 06:00:00 11876 6 1.77 1.77 1.77 0.0 9.60	18.4464317026	1.77	0.00	Mostly_Cloudy(fair)	True	False	0.00
2011-02-18 07:00:00 11877 7 46.84 46.84 46.84 72.0 200.80	23.3279574993	46.84	72.00	Cloudy(fair)	True	False	72.00
2011-02-18 08:00:00 11878 8 130.03 130.03 130.03 144.1 557.40	23.3279574993	130.03	144.10	Cloudy(partly_cloudy)	True	False	144.10
2011-02-18 09:00:00 11879 9 188.40 188.40 188.40 100.6 807.60	23.3279574993	188.40	100.60	Cloudy(fair)	True	False	100.60
2011-02-18 10:00:00 11880 10 251.88 251.88 251.88 132.3 1054.10	23.8949391416	251.88	132.30	Cloudy(fair)	True	False	132.30
2011-02-18 11:00:00 11881 11 272.55 272.55 272.55 195.4 1140.60	23.8949391416	272.55	195.40	Cloudy(fair)	True	False	195.40
2011-02-18 12:00:00 11882 12 267.54 267.54 267.54 708.5 1129.20	23.6925236925	267.54	708.50	Mostly_Cloudy(fair)	True	False	708.50
2011-02-18 13:00:00 11883 13 244.93 244.93 244.93 894.7 1033.80	23.6925236925	244.93	894.70	Mostly_Cloudy(fair)	True	False	894.70
2011-02-18 14:00:00 11884 14 202.50 202.50 202.50 738.0 854.70	23.6925236925	202.50	738.00	Mostly_Cloudy(fair)	True	False	738.00
2011-02-18 15:00:00 11885 15 461.28 461.28 461.28 498.3 624.40	73.8753099539	461.28	498.30	Partly_Cloudy(fair)	True	False	498.30
2011-02-18 16:00:00 11886 16 184.82 184.82 184.82 191.4 275.90	66.9886082219	184.82	191.40	Partly_Cloudy(fair)	True	False	191.40
2011-02-18 17:00:00 11887 17 19.83 19.83 19.83 17.7 29.60	66.9886082219	19.83	17.70	Partly_Cloudy(fair)	True	False	17.70
2011-02-18 18:00:00 11888 18 0.00 0.00 0.00 0.0 0.00	66.9886082219	0.00	0.00	Partly_Cloudy(fair)	True	False	0.00
2011-02-18 19:00:00 11889 19 0.00 0.00 0.00 0.0 0.00	66.9886082219	0.00	0.00	Partly_Cloudy(light_rain)	True	False	0.00
2011-02-18 20:00:00 11890 20 0.00 0.00 0.00 0.0 0.00	66.9886082219	0.00	0.00	Partly_Cloudy(fair)	True	False	0.00
2011-02-18 21:00:00 11891 21 0.00 0.00 0.00 0.0 0.00	66.9886082219	0.00	0.00	Mostly_Clear(fair)	False	False	0.00
2011-02-18 22:00:00 11892 22 0.00 0.00 0.00 0.0 0.00	66.9886082219	0.00	0.00	Mostly_Clear(fair)	False	False	0.00
2011-02-18 23:00:00 11893 23 0.00 0.00 0.00 0.0 0.00	66.9886082219	0.00	0.00	Mostly_Clear(fair)	False	False	0.00
2011-02-19 00:00:00 11894 0 0.00 0.00 0.00 0.0 0.00	63.8808280132	0.00	0.00	Clear(fair)	True	False	0.00
2011-02-19 01:00:00 11895 1 0.00 0.00 0.00 0.0 0.00	63.8808280132	0.00	0.00	Clear(fair)	True	False	0.00
2011-02-19 02:00:00 11896 2 0.00 0.00 0.00 0.0 0.00	63.8808280132	0.00	0.00	Clear(clear)	True	False	0.00
2011-02-19 03:00:00 11897 3 0.00 0.00 0.00 0.0 0.00	63.8808280132	0.00	0.00	Clear(fair)	True	False	0.00
2011-02-19 04:00:00 11898 4 0.00 0.00 0.00 0.0 0.00	63.8808280132	0.00	0.00	Clear(fair)	True	False	0.00
2011-02-19 05:00:00 11899 5 0.00 0.00 0.00 0.0 0.00	63.8808280132	0.00	0.00	Clear(clear)	True	False	0.00
2011-02-19 06:00:00 11900 6 6.13 6.13 6.13 0.1 9.60	63.8808280132	6.13	0.10	Mostly_Clear_/_Wind(fair)	False	False	0.10
2011-02-19 07:00:00 11901 7 128.27 128.27 128.27 132.9 200.80	63.8808280132	128.27	132.90	Mostly_Sunny_/_Wind(fair)	False	False	132.90
2011-02-19 08:00:00 11902 8 356.07 356.07 356.07 486.6 557.40	63.8808280132	356.07	486.60	Mostly_Sunny_/_Wind(partly_cloudy)	False	False	486.60
2011-02-19 09:00:00 11903 9 541.00 541.00 541.00 726.9 807.60	66.9886082219	541.00	726.90	Partly_Cloudy_/_Wind(partly_cloudy)	True	False	726.90
2011-02-19 10:00:00 11904 10 778.72 778.72 778.72 628.7 1054.10	73.8753099539	778.72	628.70	Partly_Cloudy_/_Wind(partly_cloudy)	True	False	628.70
2011-02-19 11:00:00 11905 11 842.62 842.62 842.62 614.6 1140.60	73.8753099539	842.62	614.60	Partly_Cloudy_/_Wind(cloudy_and_windy)	True	False	614.60
2011-02-19 12:00:00 11906 12 834.20 834.20 834.20 717.1 1129.20	73.8753099539	834.20	717.10	Partly_Cloudy_/_Wind(cloudy_and_windy)	True	False	717.10
2011-02-19 13:00:00 11907 13 763.72 763.72 763.72 577.3 1033.80	73.8753099539	763.72	577.30	Partly_Cloudy_/_Wind(cloudy_and_windy)	True	False	577.30
2011-02-19 14:00:00 11908 14 631.41 631.41 631.41 467.3 854.70	73.8753099539	631.41	467.30	Partly_Cloudy_/_Wind(mostly_cloudy_and_windy)	True	False	467.30
2011-02-19 15:00:00 11909 15 147.94 147.94 147.94 203.6 624.40	23.6925236925	147.94	203.60	Mostly_Cloudy_/_Wind(mostly_cloudy)	True	False	203.60
2011-02-19 16:00:00 11910 16 50.89 50.89 50.89 64.1 275.90	18.4464317026	50.89	64.10	Mostly_Cloudy_/_Wind(mostly_cloudy_and_windy)	True	False	64.10
2011-02-19 17:00:00 11911 17 5.46 5.46 5.46 6.0 29.60	18.4464317026	5.46	6.00	Mostly_Cloudy_/_Wind(cloudy_and_windy)	True	False	6.00
2011-02-19 18:00:00 11912 18 0.00 0.00 0.00 0.0 0.00	66.9886082219	0.00	0.00	Partly_Cloudy_/_Wind(cloudy)	True	False	0.00
2011-02-19 19:00:00 11913 19 0.00 0.00 0.00 0.0 0.00	66.9886082219	0.00	0.00	Partly_Cloudy_/_Wind(cloudy_and_windy)	True	False	0.00
2011-02-19 20:00:00 11914 20 0.00 0.00 0.00 0.0 0.00	66.9886082219	0.00	0.00	Partly_Cloudy_/_Wind(cloudy)	True	False	0.00
2011-02-19 21:00:00 11915 21 0.00 0.00 0.00 0.0 0.00	66.9886082219	0.00	0.00	Partly_Cloudy_/_Wind(cloudy)	True	False	0.00
2011-02-19 22:00:00 11916 22 0.00 0.00 0.00 0.0 0.00	66.9886082219	0.00	0.00	Partly_Cloudy_/_Wind(cloudy_and_windy)	True	False	0.00
2011-02-19 23:00:00 11917 23 0.00 0.00 0.00 0.0 0.00	66.9886082219	0.00	0.00	Partly_Cloudy_/_Wind(fair)	True	False	0.00
2011-02-20 00:00:00 11918 0 0.00 0.00 0.00 0.0 0.00	66.9886082219	0.00	0.00	Partly_Cloudy(cloudy_and_windy)	True	False	0.00
2011-02-20 01:00:00 11919 1 0.00 0.00 0.00 0.0 0.00	66.9886082219	0.00	0.00	Partly_Cloudy(mostly_cloudy_and_windy)	True	False	0.00
2011-02-20 02:00:00 11920 2 0.00 0.00 0.00 0.0 0.00	66.9886082219	0.00	0.00	Partly_Cloudy(mostly_cloudy_and_windy)	True	False	0.00
2011-02-20 03:00:00 11921 3 0.00 0.00 0.00 0.0 0.00	66.9886082219	0.00	0.00	Mostly_Clear(fair)	False	False	0.00
2011-02-20 04:00:00 11922 4 0.00 0.00 0.00 0.0 0.00	66.9886082219	0.00	0.00	Mostly_Clear(fair)	False	False	0.00
2011-02-20 05:00:00 11923 5 0.00 0.00 0.00 0.0 0.00	66.9886082219	0.00	0.00	Mostly_Clear(fair)	False	False	0.00
2011-02-20 06:00:00 11924 6 6.13 6.13 6.13 1.4 9.60	63.8808280132	6.13	1.40	Clear(fair)	True	False	1.40
