2010-09-06 00:00:00 48551 0 0.00 0.00 0.00 0.0 0.00	91.8396226415	0.00	0.00	Clear(clear)	True	False	0.00
2010-09-06 01:00:00 48600 1 0.00 0.00 0.00 0.0 0.00	91.8411552347	0.00	0.00	Clear(clear)	True	False	0.00
2010-09-06 02:00:00 48649 2 0.00 0.00 0.00 0.0 0.00	91.8411552347	0.00	0.00	Clear(clear)	True	False	0.00
2010-09-06 03:00:00 48698 3 0.00 0.00 0.00 0.0 0.00	91.8411552347	0.00	0.00	Clear(clear)	True	False	0.00
2010-09-06 04:00:00 48747 4 0.00 0.00 0.00 0.0 0.00	91.8411552347	0.00	0.00	Clear(clear)	True	False	0.00
2010-09-06 05:00:00 48796 5 0.00 0.00 0.00 0.0 0.00	91.8411552347	0.00	0.00	Clear(clear)	True	False	0.00
2010-09-06 06:00:00 48845 6 4.22 4.22 4.22 3.2 4.60	91.8411552347	4.22	3.20	Clear(sunny)	True	False	3.20
2010-09-06 07:00:00 48894 7 126.92 126.92 126.92 124.0 138.20	91.8411552347	126.92	124.00	Sunny(sunny)	True	False	124.00
2010-09-06 08:00:00 48943 8 381.60 381.60 381.60 406.9 415.50	91.8411552347	381.60	406.90	Sunny(sunny)	True	False	406.90
2010-09-06 09:00:00 48992 9 655.38 655.38 655.38 680.5 713.60	91.8411552347	655.38	680.50	Sunny(sunny)	True	False	680.50
2010-09-06 10:00:00 49041 10 878.70 878.70 878.70 880.4 929.10	94.5754716981	878.70	880.40	Sunny(sunny)	True	False	880.40
2010-09-06 11:00:00 49090 11 1002.50 1002.50 1002.50 1007.2 1060.00	94.5754716981	1002.50	1007.20	Sunny(sunny)	True	False	1007.20
2010-09-06 12:00:00 49139 12 1053.00 1053.00 1053.00 1050.3 1113.40	94.5754716981	1053.00	1050.30	Sunny(sunny)	True	False	1050.30
2010-09-06 13:00:00 49188 13 1043.45 1043.45 1040.77 1038.8 1103.30	94.5754716981	1040.77	1038.80	Sunny(sunny)	True	False	1038.80
2010-09-06 14:00:00 49237 14 962.78 962.78 958.49 958.7 1018.00	94.5754716981	958.49	958.70	Sunny(sunny)	True	False	958.70
2010-09-06 15:00:00 49286 15 827.54 827.54 824.03 805.3 875.00	94.5754716981	824.03	805.30	Sunny(sunny)	True	False	805.30
2010-09-06 16:00:00 49335 16 590.81 590.81 592.06 591.6 643.30	91.8411552347	592.06	591.60	Sunny(sunny)	True	False	591.60
2010-09-06 17:00:00 49384 17 325.30 325.30 325.73 299.6 354.20	91.8411552347	325.73	299.60	Sunny(sunny)	True	False	299.60
2010-09-06 18:00:00 49433 18 146.30 146.30 134.74 63.1 159.30	91.8411552347	134.74	63.10	Sunny(sunny)	True	False	63.10
2010-09-06 19:00:00 49482 19 21.77 21.77 9.39 1.1 23.70	91.8411552347	9.39	1.10	Sunny(sunny)	True	False	1.10
2010-09-06 20:00:00 49531 20 0.00 0.00 0.00 0.0 0.00	91.8411552347	0.00	0.00	Clear(clear)	True	False	0.00
2010-09-06 21:00:00 49580 21 0.00 0.00 0.00 0.0 0.00	91.8411552347	0.00	0.00	Clear(fair)	True	False	0.00
2010-09-06 22:00:00 49629 22 0.00 0.00 0.00 0.0 0.00	91.8411552347	0.00	0.00	Mostly_Clear(fair)	False	False	0.00
2010-09-06 23:00:00 49678 23 0.00 0.00 0.00 0.0 0.00	94.5754716981	0.00	0.00	Mostly_Clear(clear)	False	False	0.00
2010-09-07 00:00:00 49727 0 0.00 0.00 0.00 0.0 0.00	91.8411552347	0.00	0.00	Clear(clear)	True	False	0.00
2010-09-07 01:00:00 49776 1 0.00 0.00 0.00 0.0 0.00	91.0989129265	0.00	0.00	Clear(fair)	True	False	0.00
2010-09-07 02:00:00 49825 2 0.00 0.00 0.00 0.0 0.00	91.0989129265	0.00	0.00	Clear(clear)	True	False	0.00
2010-09-07 03:00:00 49874 3 0.00 0.00 0.00 0.0 0.00	91.0989129265	0.00	0.00	Clear(clear)	True	False	0.00
2010-09-07 04:00:00 49923 4 0.00 0.00 0.00 0.0 0.00	91.0989129265	0.00	0.00	Clear(clear)	True	False	0.00
2010-09-07 05:00:00 49972 5 0.00 0.00 0.00 0.0 0.00	91.0989129265	0.00	0.00	Clear(clear)	True	False	0.00
2010-09-07 06:00:00 50021 6 4.19 4.19 4.19 1.6 4.60	91.0989129265	4.19	1.60	Clear(sunny)	True	False	1.60
2010-09-07 07:00:00 50070 7 125.90 125.90 125.90 108.9 138.20	91.0989129265	125.90	108.90	Sunny(partly_cloudy)	True	False	108.90
2010-09-07 08:00:00 50119 8 404.39 404.39 404.39 366.6 443.90	91.0989129265	404.39	366.60	Sunny(fair)	True	False	366.60
2010-09-07 09:00:00 50168 9 650.08 650.08 650.08 642.0 713.60	91.0989129265	650.08	642.00	Sunny(fair)	True	False	642.00
2010-09-07 10:00:00 50217 10 876.22 876.22 876.22 845.7 929.10	94.3085714286	876.22	845.70	Sunny(sunny)	True	False	845.70
2010-09-07 11:00:00 50266 11 999.67 999.67 999.67 956.2 1060.00	94.3085714286	999.67	956.20	Sunny(sunny)	True	False	956.20
2010-09-07 12:00:00 50315 12 1050.03 1050.03 1050.03 972.5 1113.40	94.3085714286	1050.03	972.50	Sunny(sunny)	True	False	972.50
2010-09-07 13:00:00 50364 13 1040.51 1040.51 1040.51 922.1 1103.30	94.3085714286	1040.51	922.10	Sunny(fair)	True	False	922.10
2010-09-07 14:00:00 50413 14 960.06 960.06 960.06 859.6 1018.00	94.3085714286	960.06	859.60	Sunny(sunny)	True	False	859.60
2010-09-07 15:00:00 50462 15 825.20 825.20 825.20 753.8 875.00	94.3085714286	825.20	753.80	Sunny(fair)	True	False	753.80
2010-09-07 16:00:00 50511 16 586.04 586.04 586.04 558.5 643.30	91.0989129265	586.04	558.50	Sunny(sunny)	True	False	558.50
2010-09-07 17:00:00 50560 17 322.67 322.67 322.67 281.7 354.20	91.0989129265	322.67	281.70	Sunny(sunny)	True	False	281.70
2010-09-07 18:00:00 50609 18 145.12 145.12 145.12 55.2 159.30	91.0989129265	145.12	55.20	Sunny(sunny)	True	False	55.20
2010-09-07 19:00:00 50658 19 21.59 21.59 21.59 0.0 23.70	91.0989129265	21.59	0.00	Sunny(sunny)	True	False	0.00
2010-09-07 20:00:00 50707 20 0.00 0.00 0.00 0.0 0.00	91.0989129265	0.00	0.00	Clear(clear)	True	False	0.00
2010-09-07 21:00:00 50756 21 0.00 0.00 0.00 0.0 0.00	91.0989129265	0.00	0.00	Clear(clear)	True	False	0.00
2010-09-07 22:00:00 50805 22 0.00 0.00 0.00 0.0 0.00	91.0989129265	0.00	0.00	Mostly_Clear(partly_cloudy)	False	False	0.00
2010-09-07 23:00:00 50854 23 0.00 0.00 0.00 0.0 0.00	94.3085714286	0.00	0.00	Mostly_Clear(partly_cloudy)	False	False	0.00
2010-09-08 00:00:00 50903 0 0.00 0.00 0.00 0.0 0.00	76.7004341534	0.00	0.00	Partly_Cloudy(mostly_cloudy)	True	False	0.00
2010-09-08 01:00:00 50952 1 0.00 0.00 0.00 0.0 0.00	77.4193548387	0.00	0.00	Partly_Cloudy(partly_cloudy)	True	False	0.00
2010-09-08 02:00:00 51001 2 0.00 0.00 0.00 0.0 0.00	77.4193548387	0.00	0.00	Partly_Cloudy(partly_cloudy)	True	False	0.00
2010-09-08 03:00:00 51050 3 0.00 0.00 0.00 0.0 0.00	77.4193548387	0.00	0.00	Partly_Cloudy(partly_cloudy)	True	False	0.00
2010-09-08 04:00:00 51099 4 0.00 0.00 0.00 0.0 0.00	12.0747916197	0.00	0.00	Few_Showers(mostly_cloudy)	True	False	0.00
2010-09-08 05:00:00 51148 5 0.00 0.00 0.00 0.0 0.00	12.0747916197	0.00	0.00	Few_Showers(mostly_cloudy)	True	False	0.00
2010-09-08 06:00:00 51197 6 0.56 0.56 0.56 0.0 4.60	12.0747916197	0.56	0.00	Few_Showers(mostly_cloudy)	True	False	0.00
2010-09-08 07:00:00 51246 7 62.31 62.31 62.31 45.0 138.20	45.0857142857	62.31	45.00	Mostly_Cloudy(partly_cloudy)	True	False	45.00
2010-09-08 08:00:00 51295 8 200.14 200.14 200.14 261.0 443.90	45.0857142857	200.14	261.00	Mostly_Cloudy(partly_cloudy)	True	False	261.00
2010-09-08 09:00:00 51344 9 86.17 86.17 86.17 607.2 713.60	12.0747916197	86.17	607.20	Isolated_T-Storms(partly_cloudy)	True	False	607.20
2010-09-08 10:00:00 51393 10 790.57 790.57 790.57 817.9 929.10	83.1505483549	790.57	817.90	Partly_Cloudy(fair)	True	False	817.90
2010-09-08 11:00:00 51442 11 881.40 933.13 933.13 970.2 1060.00	83.1505483549	933.13	970.20	Partly_Cloudy(sunny)	True	False	970.20
2010-09-08 12:00:00 51491 12 925.80 1019.08 1019.08 1038.5 1113.40	83.1505483549	1019.08	1038.50	Partly_Cloudy(sunny)	True	False	1038.50
2010-09-08 13:00:00 51540 13 1040.51 1029.08 1029.08 1040.2 1103.30	94.3085714286	1029.08	1040.20	Sunny(sunny)	True	False	1040.20
2010-09-08 14:00:00 51589 14 959.78 959.78 959.78 963.0 1018.00	94.3085714286	959.78	963.00	Mostly_Sunny_/_Wind(sunny)	False	False	963.00
2010-09-08 15:00:00 51638 15 825.20 825.20 825.20 824.4 875.00	94.3085714286	825.20	824.40	Mostly_Sunny(sunny)	False	False	824.40
2010-09-08 16:00:00 51687 16 606.10 606.10 606.10 593.8 643.30	94.3085714286	606.10	593.80	Mostly_Sunny(sunny)	False	False	593.80
2010-09-08 17:00:00 51736 17 326.95 326.95 326.95 296.3 354.20	94.3085714286	326.95	296.30	Mostly_Sunny_/_Wind(sunny)	False	False	296.30
2010-09-08 18:00:00 51785 18 97.37 97.37 97.37 56.3 116.40	94.3085714286	97.37	56.30	Mostly_Sunny(sunny)	False	False	56.30
2010-09-08 19:00:00 51834 19 8.49 4.50 4.50 0.9 9.30	91.3142857143	4.50	0.90	Sunny(sunny)	True	False	0.90
2010-09-08 20:00:00 51883 20 0.00 0.00 0.00 0.0 0.00	91.3142857143	0.00	0.00	Clear(clear)	True	False	0.00
2010-09-08 21:00:00 51932 21 0.00 0.00 0.00 0.0 0.00	91.3142857143	0.00	0.00	Clear(clear)	True	False	0.00
2010-09-08 22:00:00 51981 22 0.00 0.00 0.00 0.0 0.00	91.3142857143	0.00	0.00	Clear(clear)	True	False	0.00
2010-09-08 23:00:00 52030 23 0.00 0.00 0.00 0.0 0.00	91.3142857143	0.00	0.00	Clear(clear)	True	False	0.00
2010-09-09 00:00:00 52079 0 0.00 0.00 0.00 0.0 0.00	91.3142857143	0.00	0.00	Clear(clear)	True	False	0.00
2010-09-09 01:00:00 52128 1 0.00 0.00 0.00 0.0 0.00	91.3142857143	0.00	0.00	Clear(clear)	True	False	0.00
2010-09-09 02:00:00 52177 2 0.00 0.00 0.00 0.0 0.00	91.3142857143	0.00	0.00	Clear(clear)	True	False	0.00
2010-09-09 03:00:00 52226 3 0.00 0.00 0.00 0.0 0.00	91.3142857143	0.00	0.00	Clear(clear)	True	False	0.00
2010-09-09 04:00:00 52275 4 0.00 0.00 0.00 0.0 0.00	91.3142857143	0.00	0.00	Clear(fair)	True	False	0.00
2010-09-09 05:00:00 52324 5 0.00 0.00 0.00 0.0 0.00	91.3142857143	0.00	0.00	Clear(mostly_cloudy)	True	False	0.00
2010-09-09 06:00:00 52373 6 4.20 4.20 4.20 0.2 4.60	91.3142857143	4.20	0.20	Clear(sunny)	True	False	0.20
2010-09-09 07:00:00 52422 7 126.20 126.20 126.20 102.9 138.20	91.3142857143	126.20	102.90	Sunny(sunny)	True	False	102.90
2010-09-09 08:00:00 52471 8 405.34 405.34 405.34 395.3 443.90	91.3142857143	405.34	395.30	Sunny(sunny)	True	False	395.30
2010-09-09 09:00:00 52520 9 651.62 651.62 651.62 615.1 713.60	91.3142857143	651.62	615.10	Sunny(sunny)	True	False	615.10
2010-09-09 10:00:00 52569 10 800.85 800.85 800.85 694.0 929.10	91.3142857143	800.85	694.00	Mostly_Sunny(mostly_cloudy)	False	False	694.00
2010-09-09 11:00:00 52618 11 791.78 791.78 791.78 419.4 1060.00	94.3085714286	791.78	419.40	Mostly_Sunny(cloudy)	False	False	419.40
2010-09-09 12:00:00 52667 12 440.53 440.53 440.53 303.5 1113.40	94.3085714286	440.53	303.50	Mostly_Sunny(cloudy)	False	False	303.50
2010-09-09 13:00:00 52716 13 300.75 300.75 907.89 399.4 1103.30	82.2884857194	907.89	399.40	Partly_Cloudy(cloudy)	True	False	399.40
2010-09-09 14:00:00 52765 14 368.52 368.52 837.70 237.0 1018.00	82.2884857194	837.70	237.00	Partly_Cloudy(cloudy)	True	False	237.00
2010-09-09 15:00:00 52814 15 203.71 203.71 720.02 112.5 875.00	82.2884857194	720.02	112.50	Partly_Cloudy(mostly_cloudy)	True	False	112.50
2010-09-09 16:00:00 52863 16 82.71 82.71 484.36 230.0 643.30	75.2924528302	484.36	230.00	Partly_Cloudy(cloudy)	True	False	230.00
2010-09-09 17:00:00 52912 17 126.64 126.64 266.69 140.3 354.20	75.2924528302	266.69	140.30	Partly_Cloudy(cloudy)	True	False	140.30
2010-09-09 18:00:00 52961 18 46.11 46.11 87.64 25.8 116.40	75.2924528302	87.64	25.80	Partly_Cloudy(cloudy)	True	False	25.80
2010-09-09 19:00:00 53010 19 1.84 1.84 6.25 0.0 8.30	75.2924528302	6.25	0.00	Partly_Cloudy(cloudy)	True	False	0.00
2010-09-09 20:00:00 53059 20 0.00 0.00 0.00 0.0 0.00	75.2924528302	0.00	0.00	Partly_Cloudy(cloudy)	True	False	0.00
2010-09-09 21:00:00 53108 21 0.00 0.00 0.00 0.0 0.00	75.2924528302	0.00	0.00	Partly_Cloudy(mostly_cloudy)	True	False	0.00
2010-09-09 22:00:00 53157 22 0.00 0.00 0.00 0.0 0.00	91.3142857143	0.00	0.00	Clear(fair)	True	False	0.00
2010-09-09 23:00:00 53206 23 0.00 0.00 0.00 0.0 0.00	91.3142857143	0.00	0.00	Mostly_Clear(cloudy)	False	False	0.00
2010-09-10 00:00:00 53255 0 0.00 0.00 0.00 0.0 0.00	91.3142857143	0.00	0.00	Clear(fair)	True	False	0.00
2010-09-10 01:00:00 53304 1 0.00 0.00 0.00 0.0 0.00	91.7976424361	0.00	0.00	Clear(fair)	True	False	0.00
2010-09-10 02:00:00 53353 2 0.00 0.00 0.00 0.0 0.00	73.4442836469	0.00	0.00	Partly_Cloudy(fair)	True	False	0.00
2010-09-10 03:00:00 53402 3 0.00 0.00 0.00 0.0 0.00	73.4442836469	0.00	0.00	Partly_Cloudy(cloudy)	True	False	0.00
2010-09-10 04:00:00 53451 4 0.00 0.00 0.00 0.0 0.00	91.7976424361	0.00	0.00	Clear(cloudy)	True	False	0.00
2010-09-10 05:00:00 53500 5 0.00 0.00 0.00 0.0 0.00	91.7976424361	0.00	0.00	Clear(fair)	True	False	0.00
2010-09-10 06:00:00 53549 6 4.22 4.22 4.22 0.4 4.60	91.7976424361	4.22	0.40	Clear(cloudy)	True	False	0.40
2010-09-10 07:00:00 53598 7 126.86 126.86 126.86 72.1 138.20	91.7976424361	126.86	72.10	Sunny(mostly_cloudy)	True	False	72.10
2010-09-10 08:00:00 53647 8 407.49 407.49 407.49 388.9 443.90	91.7976424361	407.49	388.90	Sunny(fair)	True	False	388.90
2010-09-10 09:00:00 53696 9 655.07 655.07 655.07 606.0 713.60	91.7976424361	655.07	606.00	Sunny(cloudy)	True	False	606.00
2010-09-10 10:00:00 53745 10 877.95 877.95 877.95 669.4 929.10	94.4943416562	877.95	669.40	Sunny(cloudy)	True	False	669.40
2010-09-10 11:00:00 53794 11 1001.64 1001.64 1001.64 490.8 1060.00	94.4943416562	1001.64	490.80	Sunny(cloudy)	True	False	490.80
2010-09-10 12:00:00 53843 12 515.53 515.53 1052.10 680.5 1113.40	94.4943416562	1052.10	680.50	Sunny(cloudy)	True	False	680.50
2010-09-10 13:00:00 53892 13 674.33 674.33 246.37 471.3 1103.30	22.3301886792	246.37	471.30	Cloudy(mostly_cloudy)	True	False	471.30
2010-09-10 14:00:00 53941 14 434.86 434.86 434.86 423.5 1018.00	22.3301886792	434.86	423.50	Mostly_Sunny(cloudy)	False	False	423.50
2010-09-10 15:00:00 53990 15 364.01 364.01 364.01 504.4 875.00	94.4943416562	364.01	504.40	Mostly_Sunny(mostly_cloudy)	False	False	504.40
2010-09-10 16:00:00 54039 16 370.83 370.83 590.53 443.7 643.30	91.7976424361	590.53	443.70	Sunny(cloudy)	True	False	443.70
2010-09-10 17:00:00 54088 17 253.90 238.44 253.90 159.6 345.70	73.4442836469	253.90	159.60	Partly_Cloudy(cloudy)	True	False	159.60
2010-09-10 18:00:00 54137 18 85.49 53.74 85.49 19.4 116.40	73.4442836469	85.49	19.40	Partly_Cloudy(cloudy)	True	False	19.40
2010-09-10 19:00:00 54186 19 1.35 1.35 1.35 0.0 8.10	73.4442836469	1.35	0.00	Mostly_Sunny(cloudy)	False	False	0.00
2010-09-10 20:00:00 54235 20 0.00 0.00 0.00 0.0 0.00	94.4943416562	0.00	0.00	Mostly_Clear(cloudy)	False	False	0.00
2010-09-10 21:00:00 54284 21 0.00 0.00 0.00 0.0 0.00	94.4943416562	0.00	0.00	Mostly_Clear(cloudy)	False	False	0.00
2010-09-10 22:00:00 54333 22 0.00 0.00 0.00 0.0 0.00	91.7976424361	0.00	0.00	Clear(cloudy)	True	False	0.00
2010-09-10 23:00:00 54382 23 0.00 0.00 0.00 0.0 0.00	91.7976424361	0.00	0.00	Clear(cloudy)	True	False	0.00
2010-09-11 00:00:00 54431 0 0.00 0.00 0.00 0.0 0.00	73.4442836469	0.00	0.00	Partly_Cloudy(fair)	True	False	0.00
2010-09-11 01:00:00 54480 1 0.00 0.00 0.00 0.0 0.00	91.8762278978	0.00	0.00	Clear(fair)	True	False	0.00
2010-09-11 02:00:00 54529 2 0.00 0.00 0.00 0.0 0.00	91.8762278978	0.00	0.00	Clear(clear)	True	False	0.00
2010-09-11 03:00:00 54578 3 0.00 0.00 0.00 0.0 0.00	91.8762278978	0.00	0.00	Mostly_Clear(clear)	False	False	0.00
2010-09-11 04:00:00 54627 4 0.00 0.00 0.00 0.0 0.00	91.8762278978	0.00	0.00	Clear(clear)	True	False	0.00
2010-09-11 05:00:00 54676 5 0.00 0.00 0.00 0.0 0.00	91.8762278978	0.00	0.00	Clear(clear)	True	False	0.00
2010-09-11 06:00:00 54725 6 3.86 3.86 3.86 1.0 4.20	91.8762278978	3.86	1.00	Clear(clear)	True	False	1.00
2010-09-11 07:00:00 54774 7 126.97 126.97 126.97 113.0 138.20	91.8762278978	126.97	113.00	Sunny(sunny)	True	False	113.00
2010-09-11 08:00:00 54823 8 407.84 407.84 407.84 396.0 443.90	91.8762278978	407.84	396.00	Sunny(sunny)	True	False	396.00
2010-09-11 09:00:00 54872 9 655.63 655.63 655.63 681.5 713.60	91.8762278978	655.63	681.50	Sunny(sunny)	True	False	681.50
2010-09-11 10:00:00 54921 10 878.70 878.70 878.70 892.2 929.10	94.5754716981	878.70	892.20	Sunny(sunny)	True	False	892.20
2010-09-11 11:00:00 54970 11 1002.50 1002.50 1002.50 1014.9 1060.00	94.5754716981	1002.50	1014.90	Sunny(sunny)	True	False	1014.90
2010-09-11 12:00:00 55019 12 1053.00 1053.00 1053.00 1057.7 1113.40	94.5754716981	1053.00	1057.70	Sunny(sunny)	True	False	1057.70
2010-09-11 13:00:00 55068 13 1043.45 1043.45 1043.45 1043.2 1103.30	94.5754716981	1043.45	1043.20	Sunny(sunny)	True	False	1043.20
2010-09-11 14:00:00 55117 14 962.78 962.78 962.55 957.3 1018.00	94.5754716981	962.55	957.30	Sunny(sunny)	True	False	957.30
2010-09-11 15:00:00 55166 15 827.54 827.54 822.83 807.8 875.00	94.5754716981	822.83	807.80	Sunny(sunny)	True	False	807.80
2010-09-11 16:00:00 55215 16 477.77 477.77 593.89 524.6 643.30	74.2681047766	593.89	524.60	Partly_Cloudy(sunny)	True	False	524.60
2010-09-11 17:00:00 55264 17 256.74 256.74 281.91 228.8 345.70	74.2681047766	281.91	228.80	Partly_Cloudy(sunny)	True	False	228.80
2010-09-11 18:00:00 55313 18 86.45 86.45 77.04 51.8 116.40	74.2681047766	77.04	51.80	Partly_Cloudy(sunny)	True	False	51.80
2010-09-11 19:00:00 55362 19 6.02 6.02 3.60 0.4 8.10	74.2681047766	3.60	0.40	Partly_Cloudy(sunny)	True	False	0.40
2010-09-11 20:00:00 55411 20 0.00 0.00 0.00 0.0 0.00	74.2681047766	0.00	0.00	Partly_Cloudy(partly_cloudy)	True	False	0.00
2010-09-11 21:00:00 55460 21 0.00 0.00 0.00 0.0 0.00	74.2681047766	0.00	0.00	Partly_Cloudy(partly_cloudy)	True	False	0.00
2010-09-11 22:00:00 55509 22 0.00 0.00 0.00 0.0 0.00	74.2681047766	0.00	0.00	Partly_Cloudy(clear)	True	False	0.00
2010-09-11 23:00:00 55558 23 0.00 0.00 0.00 0.0 0.00	74.2681047766	0.00	0.00	Partly_Cloudy(partly_cloudy)	True	False	0.00
2010-09-12 00:00:00 55607 0 0.00 0.00 0.00 0.0 0.00	74.2681047766	0.00	0.00	Partly_Cloudy(partly_cloudy)	True	False	0.00
2010-09-12 01:00:00 55656 1 0.00 0.00 0.00 0.0 0.00	44.2040684533	0.00	0.00	Mostly_Cloudy(fair)	True	False	0.00
2010-09-12 02:00:00 55705 2 0.00 0.00 0.00 0.0 0.00	44.2040684533	0.00	0.00	Mostly_Cloudy(partly_cloudy)	True	False	0.00
2010-09-12 03:00:00 55754 3 0.00 0.00 0.00 0.0 0.00	44.2040684533	0.00	0.00	Mostly_Cloudy(partly_cloudy)	True	False	0.00
2010-09-12 04:00:00 55803 4 0.00 0.00 0.00 0.0 0.00	44.2040684533	0.00	0.00	Mostly_Cloudy(mostly_cloudy)	True	False	0.00
2010-09-12 05:00:00 55852 5 0.00 0.00 0.00 0.0 0.00	44.2040684533	0.00	0.00	Mostly_Cloudy(partly_cloudy)	True	False	0.00
2010-09-12 06:00:00 55901 6 1.86 1.86 1.86 0.0 4.20	44.2040684533	1.86	0.00	Mostly_Cloudy(mostly_cloudy)	True	False	0.00
2010-09-12 07:00:00 55950 7 61.09 61.09 61.09 3.7 138.20	44.2040684533	61.09	3.70	Mostly_Cloudy(fair)	True	False	3.70
2010-09-12 08:00:00 55999 8 90.90 90.90 90.90 47.8 443.90	20.477568741	90.90	47.80	Cloudy(mostly_cloudy)	True	False	47.80
2010-09-12 09:00:00 56048 9 91.97 91.97 91.97 43.0 713.60	12.8886069066	91.97	43.00	Showers(light_rain)	True	False	43.00
2010-09-12 10:00:00 56097 10 55.99 55.99 119.75 162.9 929.10	12.8886069066	119.75	162.90	Showers(light_rain)	True	False	162.90
2010-09-12 11:00:00 56146 11 136.62 185.85 136.62 114.9 1060.00	12.8886069066	136.62	114.90	Rain(light_rain)	True	False	114.90
2010-09-12 12:00:00 56195 12 143.50 120.69 143.50 127.2 1113.40	12.8886069066	143.50	127.20	Rain(light_rain)	True	False	127.20
2010-09-12 13:00:00 56244 13 142.20 126.05 142.20 272.5 1103.30	12.8886069066	142.20	272.50	Showers(heavy_rain)	True	False	272.50
2010-09-12 14:00:00 56293 14 251.43 251.43 131.21 244.2 1018.00	12.8886069066	131.21	244.20	Showers(cloudy)	True	False	244.20
2010-09-12 15:00:00 56342 15 209.90 209.90 112.78 197.5 875.00	12.8886069066	112.78	197.50	Showers(cloudy)	True	False	197.50
2010-09-12 16:00:00 56391 16 145.20 145.20 77.68 104.8 643.30	12.0747916197	77.68	104.80	Few_Showers(cloudy)	True	False	104.80
2010-09-12 17:00:00 56440 17 41.74 56.32 41.74 33.3 345.70	12.0747916197	41.74	33.30	Few_Showers(cloudy)	True	False	33.30
2010-09-12 18:00:00 56489 18 14.06 11.21 14.06 11.8 116.40	12.0747916197	14.06	11.80	Few_Showers(cloudy)	True	False	11.80
2010-09-12 19:00:00 56538 19 0.98 0.82 0.98 0.0 8.10	12.0747916197	0.98	0.00	Few_Showers(cloudy)	True	False	0.00
2010-09-12 20:00:00 56587 20 0.00 0.00 0.00 0.0 0.00	12.0747916197	0.00	0.00	Few_Showers(cloudy)	True	False	0.00
2010-09-12 21:00:00 56636 21 0.00 0.00 0.00 0.0 0.00	12.0747916197	0.00	0.00	Few_Showers(cloudy)	True	False	0.00
2010-09-12 22:00:00 56685 22 0.00 0.00 0.00 0.0 0.00	20.477568741	0.00	0.00	Cloudy(cloudy)	True	False	0.00
2010-09-12 23:00:00 56734 23 0.00 0.00 0.00 0.0 0.00	20.477568741	0.00	0.00	Cloudy(cloudy)	True	False	0.00
