2011-01-09 03:00:00 9989 3 0.00 0.00 0.00 0.0 0.00	38.799775659	0.00	0.00	Cloudy(cloudy)	True	False	0.00
2011-01-09 04:00:00 9990 4 0.00 0.00 0.00 0.0 0.00	38.799775659	0.00	0.00	Cloudy(cloudy)	True	False	0.00
2011-01-09 05:00:00 9991 5 0.00 0.00 0.00 0.0 0.00	38.799775659	0.00	0.00	Cloudy(mostly_cloudy)	True	False	0.00
2011-01-09 06:00:00 9992 6 0.00 0.00 0.00 0.0 0.00	47.9166666667	0.00	0.00	Mostly_Cloudy(fair)	True	False	0.00
2011-01-09 07:00:00 9993 7 18.59 18.59 18.59 0.0 38.80	47.9166666667	18.59	0.00	Mostly_Cloudy(fair)	True	False	0.00
2011-01-09 08:00:00 9994 8 167.66 167.66 167.66 14.6 349.90	47.9166666667	167.66	14.60	Mostly_Cloudy(fair)	True	False	14.60
2011-01-09 09:00:00 9995 9 350.60 350.60 350.60 45.2 668.20	52.469197636	350.60	45.20	Partly_Cloudy(fair)	True	False	45.20
2011-01-09 10:00:00 9996 10 566.50 566.50 566.50 74.7 891.50	63.5443037975	566.50	74.70	Partly_Cloudy(fair)	True	False	74.70
2011-01-09 11:00:00 9997 11 613.58 613.58 613.58 102.6 965.60	63.5443037975	613.58	102.60	Partly_Cloudy(mostly_cloudy)	True	False	102.60
2011-01-09 12:00:00 9998 12 634.36 634.36 634.36 233.6 998.30	63.5443037975	634.36	233.60	Partly_Cloudy(mostly_cloudy)	True	False	233.60
2011-01-09 13:00:00 9999 13 549.02 549.02 549.02 388.4 864.00	63.5443037975	549.02	388.40	Partly_Cloudy(fair)	True	False	388.40
2011-01-09 14:00:00 10000 14 426.70 426.70 426.70 391.8 671.50	63.5443037975	426.70	391.80	Partly_Cloudy(mostly_cloudy)	True	False	391.80
2011-01-09 15:00:00 10001 15 225.01 225.01 225.01 188.8 354.10	63.5443037975	225.01	188.80	Mostly_Sunny(fair)	False	False	188.80
2011-01-09 16:00:00 10002 16 35.27 35.27 35.27 15.7 55.50	63.5443037975	35.27	15.70	Mostly_Sunny(fair)	False	False	15.70
2011-01-09 17:00:00 10003 17 0.00 0.00 0.00 0.0 0.00	63.5443037975	0.00	0.00	Mostly_Clear(fair)	False	False	0.00
2011-01-09 18:00:00 10004 18 0.00 0.00 0.00 0.0 0.00	89.0245718541	0.00	0.00	Clear(fair)	True	False	0.00
2011-01-09 19:00:00 10005 19 0.00 0.00 0.00 0.0 0.00	89.0245718541	0.00	0.00	Clear(fair)	True	False	0.00
2011-01-09 20:00:00 10006 20 0.00 0.00 0.00 0.0 0.00	89.0245718541	0.00	0.00	Clear(fair)	True	False	0.00
2011-01-09 21:00:00 10007 21 0.00 0.00 0.00 0.0 0.00	89.0245718541	0.00	0.00	Clear(fair)	True	False	0.00
2011-01-09 22:00:00 10008 22 0.00 0.00 0.00 0.0 0.00	89.0245718541	0.00	0.00	Clear(fair)	True	False	0.00
2011-01-09 23:00:00 10009 23 0.00 0.00 0.00 0.0 0.00	89.0245718541	0.00	0.00	Clear(fair)	True	False	0.00
2011-01-10 00:00:00 10010 0 0.00 0.00 0.00 0.0 0.00	89.0245718541	0.00	0.00	Clear(fair)	True	False	0.00
2011-01-10 01:00:00 10011 1 0.00 0.00 0.00 0.0 0.00	89.0245718541	0.00	0.00	Clear(fair)	True	False	0.00
2011-01-10 02:00:00 10012 2 0.00 0.00 0.00 0.0 0.00	89.0245718541	0.00	0.00	Clear(fair)	True	False	0.00
2011-01-10 03:00:00 10013 3 0.00 0.00 0.00 0.0 0.00	89.0245718541	0.00	0.00	Clear(fair)	True	False	0.00
2011-01-10 04:00:00 10014 4 0.00 0.00 0.00 0.0 0.00	89.0245718541	0.00	0.00	Clear(fair)	True	False	0.00
2011-01-10 05:00:00 10015 5 0.00 0.00 0.00 0.0 0.00	89.0245718541	0.00	0.00	Clear(fair)	True	False	0.00
2011-01-10 06:00:00 10016 6 0.00 0.00 0.00 0.0 0.00	89.0245718541	0.00	0.00	Clear(fair)	True	False	0.00
2011-01-10 07:00:00 10017 7 34.54 34.54 34.54 17.5 38.80	89.0245718541	34.54	17.50	Clear(fair)	True	False	17.50
2011-01-10 08:00:00 10018 8 311.50 311.50 311.50 237.8 349.90	89.0245718541	311.50	237.80	Sunny(fair)	True	False	237.80
2011-01-10 09:00:00 10019 9 594.86 594.86 594.86 483.0 668.20	89.0245718541	594.86	483.00	Sunny(fair)	True	False	483.00
2011-01-10 10:00:00 10020 10 815.68 815.68 815.68 743.8 891.50	91.4955424221	815.68	743.80	Sunny(fair)	True	False	743.80
2011-01-10 11:00:00 10021 11 883.48 883.48 883.48 870.3 965.60	91.4955424221	883.48	870.30	Sunny(fair)	True	False	870.30
2011-01-10 12:00:00 10022 12 913.40 913.40 913.40 690.9 998.30	91.4955424221	913.40	690.90	Sunny(fair)	True	False	690.90
2011-01-10 13:00:00 10023 13 790.52 790.52 790.52 590.6 864.00	91.4955424221	790.52	590.60	Sunny(fair)	True	False	590.60
2011-01-10 14:00:00 10024 14 614.39 614.39 614.39 324.0 671.50	91.4955424221	614.39	324.00	Sunny(fair)	True	False	324.00
2011-01-10 15:00:00 10025 15 323.99 323.99 323.99 148.2 354.10	91.4955424221	323.99	148.20	Sunny(fair)	True	False	148.20
2011-01-10 16:00:00 10026 16 49.41 49.41 49.41 21.5 55.50	89.0245718541	49.41	21.50	Sunny(fair)	True	False	21.50
2011-01-10 17:00:00 10027 17 0.00 0.00 0.00 0.0 0.00	89.0245718541	0.00	0.00	Clear(fair)	True	False	0.00
2011-01-10 18:00:00 10028 18 0.00 0.00 0.00 0.0 0.00	89.0245718541	0.00	0.00	Clear(fair)	True	False	0.00
2011-01-10 19:00:00 10029 19 0.00 0.00 0.00 0.0 0.00	89.0245718541	0.00	0.00	Clear(Unkown)	True	False	0.00
2011-01-10 20:00:00 10030 20 0.00 0.00 0.00 0.0 0.00	89.0245718541	0.00	0.00	Clear(fair)	True	False	0.00
2011-01-10 21:00:00 10031 21 0.00 0.00 0.00 0.0 0.00	89.0245718541	0.00	0.00	Clear(fair)	True	False	0.00
2011-01-10 22:00:00 10032 22 0.00 0.00 0.00 0.0 0.00	89.0245718541	0.00	0.00	Clear(fair)	True	False	0.00
2011-01-10 23:00:00 10033 23 0.00 0.00 0.00 0.0 0.00	89.0245718541	0.00	0.00	Clear(fair)	True	False	0.00
2011-01-11 00:00:00 10034 0 0.00 0.00 0.00 0.0 0.00	89.0245718541	0.00	0.00	Mostly_Clear(fair)	False	False	0.00
2011-01-11 01:00:00 10035 1 0.00 0.00 0.00 0.0 0.00	89.0245718541	0.00	0.00	Mostly_Clear(fair)	False	False	0.00
2011-01-11 02:00:00 10036 2 0.00 0.00 0.00 0.0 0.00	89.0245718541	0.00	0.00	Mostly_Clear(fair)	False	False	0.00
2011-01-11 03:00:00 10037 3 0.00 0.00 0.00 0.0 0.00	52.469197636	0.00	0.00	Partly_Cloudy(fair)	True	False	0.00
