2011-01-24 16:00:00 28061 16 60.09 109.62 60.09 30.1 128.00	46.9491073808	60.09	30.10	Partly_Cloudy(mostly_cloudy)	True	False	30.10
2011-01-24 17:00:00 28062 17 0.42 0.42 0.85 0.0 1.80	46.9491073808	0.85	0.00	Partly_Cloudy(fair)	True	False	0.00
2011-01-24 18:00:00 28063 18 0.00 0.00 0.00 0.0 0.00	46.9491073808	0.00	0.00	Partly_Cloudy(cloudy)	True	False	0.00
2011-01-24 19:00:00 28064 19 0.00 0.00 0.00 0.0 0.00	28.547561867	0.00	0.00	Mostly_Cloudy(cloudy)	True	False	0.00
2011-01-24 20:00:00 28065 20 0.00 0.00 0.00 0.0 0.00	28.547561867	0.00	0.00	Mostly_Cloudy(cloudy)	True	False	0.00
2011-01-24 21:00:00 28066 21 0.00 0.00 0.00 0.0 0.00	28.547561867	0.00	0.00	Mostly_Cloudy(cloudy)	True	False	0.00
2011-01-24 22:00:00 28067 22 0.00 0.00 0.00 0.0 0.00	28.547561867	0.00	0.00	Mostly_Cloudy(mostly_cloudy)	True	False	0.00
2011-01-24 23:00:00 28068 23 0.00 0.00 0.00 0.0 0.00	28.547561867	0.00	0.00	Mostly_Cloudy(cloudy)	True	False	0.00
2011-01-25 00:00:00 28069 0 0.00 0.00 0.00 0.0 0.00	28.547561867	0.00	0.00	Flurries(cloudy)	False	False	0.00
2011-01-25 01:00:00 28070 1 0.00 0.00 0.00 0.0 0.00	28.547561867	0.00	0.00	Flurries(cloudy)	False	False	0.00
2011-01-25 02:00:00 28071 2 0.00 0.00 0.00 0.0 0.00	28.547561867	0.00	0.00	Flurries(cloudy)	False	False	0.00
2011-01-25 03:00:00 28072 3 0.00 0.00 0.00 0.0 0.00	1.41220357048	0.00	0.00	Few_Snow_Showers(cloudy)	True	False	0.00
2011-01-25 04:00:00 28073 4 0.00 0.00 0.00 0.0 0.00	1.41220357048	0.00	0.00	Few_Snow_Showers(cloudy)	True	False	0.00
2011-01-25 05:00:00 28074 5 0.00 0.00 0.00 0.0 0.00	1.41220357048	0.00	0.00	Few_Snow_Showers(cloudy)	True	False	0.00
2011-01-25 06:00:00 28075 6 0.00 0.00 0.00 0.0 0.00	1.41220357048	0.00	0.00	Few_Snow_Showers(cloudy)	True	False	0.00
2011-01-25 07:00:00 28076 7 0.97 0.97 0.97 0.0 69.00	1.41220357048	0.97	0.00	Few_Snow_Showers(light_snow)	True	False	0.00
2011-01-25 08:00:00 28077 8 6.01 6.01 6.01 8.5 425.30	1.41220357048	6.01	8.50	Few_Snow_Showers(light_snow)	True	False	8.50
2011-01-25 09:00:00 28078 9 10.60 10.60 10.60 18.5 750.60	1.41220357048	10.60	18.50	Few_Snow_Showers(light_snow)	True	False	18.50
2011-01-25 10:00:00 28079 10 42.00 42.00 42.00 27.6 957.70	4.38550694372	42.00	27.60	Few_Snow_Showers(cloudy)	True	False	27.60
2011-01-25 11:00:00 28080 11 46.05 46.05 46.05 89.6 1050.00	4.38550694372	46.05	89.60	Few_Snow_Showers(cloudy)	True	False	89.60
2011-01-25 12:00:00 28081 12 46.29 46.29 46.29 242.2 1055.60	4.38550694372	46.29	242.20	Few_Snow_Showers(fair)	True	False	242.20
2011-01-25 13:00:00 28082 13 41.37 41.37 41.37 310.9 943.40	4.38550694372	41.37	310.90	Few_Snow_Showers(partly_cloudy)	True	False	310.90
2011-01-25 14:00:00 28083 14 33.58 33.58 33.58 246.0 765.70	4.38550694372	33.58	246.00	Few_Snow_Showers(fair)	True	False	246.00
2011-01-25 15:00:00 28084 15 157.58 157.58 157.58 89.3 476.50	33.0712391057	157.58	89.30	Mostly_Cloudy(mostly_cloudy)	True	False	89.30
2011-01-25 16:00:00 28085 16 36.54 36.54 36.54 12.8 128.00	28.547561867	36.54	12.80	Mostly_Cloudy(cloudy)	True	False	12.80
2011-01-25 17:00:00 28086 17 0.51 0.51 0.51 0.0 1.80	28.547561867	0.51	0.00	Mostly_Cloudy(cloudy)	True	False	0.00
2011-01-25 18:00:00 28087 18 0.00 0.00 0.00 0.0 0.00	46.9491073808	0.00	0.00	Partly_Cloudy(cloudy)	True	False	0.00
2011-01-25 19:00:00 28088 19 0.00 0.00 0.00 0.0 0.00	46.9491073808	0.00	0.00	Partly_Cloudy(cloudy)	True	False	0.00
2011-01-25 20:00:00 28089 20 0.00 0.00 0.00 0.0 0.00	46.9491073808	0.00	0.00	Partly_Cloudy(cloudy)	True	False	0.00
2011-01-25 21:00:00 28090 21 0.00 0.00 0.00 0.0 0.00	46.9491073808	0.00	0.00	Partly_Cloudy(cloudy)	True	False	0.00
2011-01-25 22:00:00 28091 22 0.00 0.00 0.00 0.0 0.00	46.9491073808	0.00	0.00	Partly_Cloudy(cloudy)	True	False	0.00
2011-01-25 23:00:00 28092 23 0.00 0.00 0.00 0.0 0.00	46.9491073808	0.00	0.00	Partly_Cloudy(cloudy)	True	False	0.00
2011-01-26 00:00:00 28093 0 0.00 0.00 0.00 0.0 0.00	28.547561867	0.00	0.00	Mostly_Cloudy(fair)	True	False	0.00
2011-01-26 01:00:00 28094 1 0.00 0.00 0.00 0.0 0.00	28.547561867	0.00	0.00	Mostly_Cloudy(fair)	True	False	0.00
2011-01-26 02:00:00 28095 2 0.00 0.00 0.00 0.0 0.00	28.547561867	0.00	0.00	Mostly_Cloudy(fair)	True	False	0.00
2011-01-26 03:00:00 28096 3 0.00 0.00 0.00 0.0 0.00	20.4952380952	0.00	0.00	Cloudy(fair)	True	False	0.00
2011-01-26 04:00:00 28097 4 0.00 0.00 0.00 0.0 0.00	20.4952380952	0.00	0.00	Cloudy(mostly_cloudy)	True	False	0.00
2011-01-26 05:00:00 28098 5 0.00 0.00 0.00 0.0 0.00	20.4952380952	0.00	0.00	Cloudy(mostly_cloudy)	True	False	0.00
2011-01-26 06:00:00 28099 6 0.00 0.00 0.00 0.0 0.00	20.4952380952	0.00	0.00	Cloudy(cloudy)	True	False	0.00
2011-01-26 07:00:00 28100 7 14.14 14.14 14.14 0.0 69.00	20.4952380952	14.14	0.00	Cloudy(Unkown)	True	False	0.00
2011-01-26 08:00:00 28101 8 87.17 87.17 87.17 0.0 425.30	20.4952380952	87.17	0.00	Cloudy(snow)	True	False	0.00
2011-01-26 09:00:00 28102 9 153.84 153.84 153.84 0.0 750.60	20.4952380952	153.84	0.00	Cloudy(snow_and_fog)	True	False	0.00
2011-01-26 10:00:00 28103 10 245.06 245.06 245.06 0.1 957.70	25.5882976468	245.06	0.10	Cloudy(heavy_snow)	True	False	0.10
2011-01-26 11:00:00 28104 11 268.68 268.68 268.68 0.4 1050.00	25.5882976468	268.68	0.40	Cloudy(light_snow)	True	False	0.40
2011-01-26 12:00:00 28105 12 46.29 46.29 46.29 5.4 1055.60	4.38550694372	46.29	5.40	Rain_/_Snow_Showers(Unkown)	True	False	5.40
2011-01-26 13:00:00 28106 13 41.37 41.37 41.37 8.0 943.40	4.38550694372	41.37	8.00	Rain_/_Snow_Showers(Unkown)	True	False	8.00
2011-01-26 14:00:00 28107 14 33.58 33.58 33.58 5.3 765.70	4.38550694372	33.58	5.30	Rain_/_Snow_Showers(light_snow)	True	False	5.30
2011-01-26 15:00:00 28108 15 121.93 121.93 121.93 0.2 476.50	25.5882976468	121.93	0.20	Cloudy(light_snow)	True	False	0.20
2011-01-26 16:00:00 28109 16 26.23 26.23 26.23 0.0 128.00	20.4952380952	26.23	0.00	Cloudy(light_snow)	True	False	0.00
