2011-01-05 02:00:00 5383 2 0.00 0.00 0.00 0.0 0.00	92.7265170407	0.00	0.00	Clear(fair)	True	False	0.00
2011-01-05 03:00:00 5384 3 0.00 0.00 0.00 0.0 0.00	68.9795918367	0.00	0.00	Partly_Cloudy(cloudy)	True	False	0.00
2011-01-05 04:00:00 5385 4 0.00 0.00 0.00 0.0 0.00	68.9795918367	0.00	0.00	Mostly_Clear(fair)	False	False	0.00
2011-01-05 05:00:00 5386 5 0.00 0.00 0.00 0.0 0.00	68.9795918367	0.00	0.00	Mostly_Clear(fair)	False	False	0.00
2011-01-05 06:00:00 5387 6 0.00 0.00 0.00 0.0 0.00	92.7265170407	0.00	0.00	Clear(partly_cloudy)	True	False	0.00
2011-01-05 07:00:00 5388 7 22.72 22.72 22.72 20.0 24.50	92.7265170407	22.72	20.00	Clear(fair)	True	False	20.00
2011-01-05 08:00:00 5389 8 283.09 283.09 283.09 277.6 305.30	92.7265170407	283.09	277.60	Sunny(fair)	True	False	277.60
2011-01-05 09:00:00 5390 9 605.78 605.78 605.78 618.2 653.30	92.7265170407	605.78	618.20	Sunny(fair)	True	False	618.20
2011-01-05 10:00:00 5391 10 826.66 826.66 826.66 804.8 891.50	92.7265170407	826.66	804.80	Sunny(fair)	True	False	804.80
2011-01-05 11:00:00 5392 11 892.40 892.40 892.40 753.4 962.40	92.7265170407	892.40	753.40	Sunny(fair)	True	False	753.40
2011-01-05 12:00:00 5393 12 925.69 925.69 925.69 857.7 998.30	92.7265170407	925.69	857.70	Sunny(fair)	True	False	857.70
2011-01-05 13:00:00 5394 13 768.42 768.42 768.42 649.9 828.70	92.7265170407	768.42	649.90	Sunny(fair)	True	False	649.90
2011-01-05 14:00:00 5395 14 578.34 578.34 578.34 308.4 623.70	92.7265170407	578.34	308.40	Sunny(partly_cloudy)	True	False	308.40
2011-01-05 15:00:00 5396 15 299.60 299.60 299.60 236.3 323.10	92.7265170407	299.60	236.30	Sunny(mostly_cloudy)	True	False	236.30
2011-01-05 16:00:00 5397 16 40.06 40.06 40.06 20.1 43.20	92.7265170407	40.06	20.10	Sunny(fair)	True	False	20.10
2011-01-05 17:00:00 5398 17 0.00 0.00 0.00 0.0 0.00	92.7265170407	0.00	0.00	Clear(fair)	True	False	0.00
2011-01-05 18:00:00 5399 18 0.00 0.00 0.00 0.0 0.00	92.7265170407	0.00	0.00	Clear(mostly_cloudy)	True	False	0.00
2011-01-05 19:00:00 5400 19 0.00 0.00 0.00 0.0 0.00	92.7265170407	0.00	0.00	Clear(mostly_cloudy)	True	False	0.00
2011-01-05 20:00:00 5401 20 0.00 0.00 0.00 0.0 0.00	92.7265170407	0.00	0.00	Clear(fair)	True	False	0.00
2011-01-05 21:00:00 5402 21 0.00 0.00 0.00 0.0 0.00	68.9795918367	0.00	0.00	Partly_Cloudy(fair)	True	False	0.00
2011-01-05 22:00:00 5403 22 0.00 0.00 0.00 0.0 0.00	68.9795918367	0.00	0.00	Partly_Cloudy(fair)	True	False	0.00
2011-01-05 23:00:00 5404 23 0.00 0.00 0.00 0.0 0.00	68.9795918367	0.00	0.00	Partly_Cloudy(fair)	True	False	0.00
2011-01-06 00:00:00 5405 0 0.00 0.00 0.00 0.0 0.00	68.9795918367	0.00	0.00	Partly_Cloudy(fair)	True	False	0.00
2011-01-06 01:00:00 5406 1 0.00 0.00 0.00 0.0 0.00	68.9795918367	0.00	0.00	Partly_Cloudy(fair)	True	False	0.00
2011-01-06 02:00:00 5407 2 0.00 0.00 0.00 0.0 0.00	68.9795918367	0.00	0.00	Partly_Cloudy(fair)	True	False	0.00
2011-01-06 03:00:00 5408 3 0.00 0.00 0.00 0.0 0.00	68.9795918367	0.00	0.00	Partly_Cloudy(fair)	True	False	0.00
2011-01-06 04:00:00 5409 4 0.00 0.00 0.00 0.0 0.00	68.9795918367	0.00	0.00	Partly_Cloudy(fair)	True	False	0.00
2011-01-06 05:00:00 5410 5 0.00 0.00 0.00 0.0 0.00	68.9795918367	0.00	0.00	Partly_Cloudy(fair)	True	False	0.00
2011-01-06 06:00:00 5411 6 0.00 0.00 0.00 0.0 0.00	49.5642592407	0.00	0.00	Mostly_Cloudy(fair)	True	False	0.00
2011-01-06 07:00:00 5412 7 12.14 12.14 12.14 18.7 24.50	49.5642592407	12.14	18.70	Mostly_Cloudy(fair)	True	False	18.70
2011-01-06 08:00:00 5413 8 151.32 151.32 151.32 131.6 305.30	49.5642592407	151.32	131.60	Mostly_Cloudy(partly_cloudy)	True	False	131.60
2011-01-06 09:00:00 5414 9 271.55 271.55 271.55 299.3 653.30	41.5656731084	271.55	299.30	Cloudy(cloudy)	True	False	299.30
2011-01-06 10:00:00 5415 10 345.90 345.90 345.90 638.4 891.50	38.799775659	345.90	638.40	Cloudy(mostly_cloudy)	True	False	638.40
2011-01-06 11:00:00 5416 11 373.41 373.41 373.41 381.2 962.40	38.799775659	373.41	381.20	Cloudy(cloudy)	True	False	381.20
2011-01-06 12:00:00 5417 12 387.34 387.34 387.34 587.4 998.30	38.799775659	387.34	587.40	Cloudy(fair)	True	False	587.40
2011-01-06 13:00:00 5418 13 321.53 321.53 321.53 654.8 828.70	38.799775659	321.53	654.80	Cloudy(mostly_cloudy)	True	False	654.80
2011-01-06 14:00:00 5419 14 241.99 241.99 241.99 524.9 623.70	38.799775659	241.99	524.90	Cloudy(fair)	True	False	524.90
2011-01-06 15:00:00 5420 15 125.36 125.36 125.36 219.1 323.10	38.799775659	125.36	219.10	Cloudy(fair)	True	False	219.10
2011-01-06 16:00:00 5421 16 17.96 17.96 17.96 21.2 43.20	41.5656731084	17.96	21.20	Cloudy(fair)	True	False	21.20
2011-01-06 17:00:00 5422 17 0.00 0.00 0.00 0.0 0.00	41.5656731084	0.00	0.00	Cloudy(fair)	True	False	0.00
2011-01-06 18:00:00 5423 18 0.00 0.00 0.00 0.0 0.00	49.5642592407	0.00	0.00	Mostly_Cloudy(fair)	True	False	0.00
2011-01-06 19:00:00 5424 19 0.00 0.00 0.00 0.0 0.00	49.5642592407	0.00	0.00	Mostly_Cloudy(cloudy)	True	False	0.00
2011-01-06 20:00:00 5425 20 0.00 0.00 0.00 0.0 0.00	49.5642592407	0.00	0.00	Mostly_Cloudy(cloudy)	True	False	0.00
2011-01-06 21:00:00 5426 21 0.00 0.00 0.00 0.0 0.00	49.5642592407	0.00	0.00	Mostly_Cloudy(cloudy)	True	False	0.00
2011-01-06 22:00:00 5427 22 0.00 0.00 0.00 0.0 0.00	49.5642592407	0.00	0.00	Mostly_Cloudy(cloudy)	True	False	0.00
2011-01-06 23:00:00 5428 23 0.00 0.00 0.00 0.0 0.00	49.5642592407	0.00	0.00	Mostly_Cloudy(cloudy)	True	False	0.00
2011-01-07 00:00:00 5429 0 0.00 0.00 0.00 0.0 0.00	49.5642592407	0.00	0.00	Flurries(cloudy)	False	False	0.00
2011-01-07 01:00:00 5430 1 0.00 0.00 0.00 0.0 0.00	49.5642592407	0.00	0.00	Flurries(cloudy)	False	False	0.00
