2011-01-06 22:00:00 7418 22 0.00 0.00 0.00 0.0 0.00	49.5642592407	0.00	0.00	Mostly_Cloudy(cloudy)	True	False	0.00
2011-01-06 23:00:00 7419 23 0.00 0.00 0.00 0.0 0.00	41.7419256084	0.00	0.00	Cloudy(cloudy)	True	False	0.00
2011-01-07 00:00:00 7420 0 0.00 0.00 0.00 0.0 0.00	49.5642592407	0.00	0.00	Mostly_Cloudy(cloudy)	True	False	0.00
2011-01-07 01:00:00 7421 1 0.00 0.00 0.00 0.0 0.00	49.5642592407	0.00	0.00	Mostly_Cloudy(cloudy)	True	False	0.00
2011-01-07 02:00:00 7422 2 0.00 0.00 0.00 0.0 0.00	41.7419256084	0.00	0.00	Cloudy(cloudy)	True	False	0.00
2011-01-07 03:00:00 7423 3 0.00 0.00 0.00 0.0 0.00	41.7419256084	0.00	0.00	Cloudy(cloudy)	True	False	0.00
2011-01-07 04:00:00 7424 4 0.00 0.00 0.00 0.0 0.00	29.9263907325	0.00	0.00	Light_Snow(cloudy)	True	False	0.00
2011-01-07 05:00:00 7425 5 0.00 0.00 0.00 0.0 0.00	29.9263907325	0.00	0.00	Light_Snow(cloudy)	True	False	0.00
2011-01-07 06:00:00 7426 6 0.00 0.00 0.00 0.0 0.00	29.9263907325	0.00	0.00	Light_Snow(light_snow)	True	False	0.00
2011-01-07 07:00:00 7427 7 9.01 9.01 9.01 0.0 30.10	29.9263907325	9.01	0.00	Light_Snow(light_snow)	True	False	0.00
2011-01-07 08:00:00 7428 8 93.64 93.64 93.64 0.1 312.90	29.9263907325	93.64	0.10	Light_Snow(light_snow)	True	False	0.10
2011-01-07 09:00:00 7429 9 159.74 159.74 159.74 6.0 653.30	24.4508577842	159.74	6.00	Snow(light_snow)	True	False	6.00
2011-01-07 10:00:00 7430 10 217.98 217.98 217.98 19.9 891.50	24.4508577842	217.98	19.90	Snow(snow)	True	False	19.90
2011-01-07 11:00:00 7431 11 235.32 235.32 235.32 5.8 962.40	24.4508577842	235.32	5.80	Snow(light_snow)	True	False	5.80
2011-01-07 12:00:00 7432 12 244.09 244.09 244.09 10.8 998.30	24.4508577842	244.09	10.80	Snow(light_snow)	True	False	10.80
2011-01-07 13:00:00 7433 13 202.62 202.62 202.62 13.7 828.70	24.4508577842	202.62	13.70	Snow(light_snow)	True	False	13.70
2011-01-07 14:00:00 7434 14 152.50 152.50 152.50 10.0 623.70	24.4508577842	152.50	10.00	Snow(cloudy)	True	False	10.00
2011-01-07 15:00:00 7435 15 96.69 96.69 96.69 6.7 323.10	29.9263907325	96.69	6.70	Light_Snow(cloudy)	True	False	6.70
2011-01-07 16:00:00 7436 16 12.93 12.93 12.93 0.7 43.20	29.9263907325	12.93	0.70	Light_Snow(fair)	True	False	0.70
2011-01-07 17:00:00 7437 17 0.00 0.00 0.00 0.0 0.00	29.9263907325	0.00	0.00	Light_Snow(fair)	True	False	0.00
2011-01-07 18:00:00 7438 18 0.00 0.00 0.00 0.0 0.00	29.9263907325	0.00	0.00	Few_Snow_Showers(fair)	True	False	0.00
2011-01-07 19:00:00 7439 19 0.00 0.00 0.00 0.0 0.00	29.9263907325	0.00	0.00	Few_Snow_Showers(fair)	True	False	0.00
2011-01-07 20:00:00 7440 20 0.00 0.00 0.00 0.0 0.00	29.9263907325	0.00	0.00	Few_Snow_Showers(fair)	True	False	0.00
2011-01-07 21:00:00 7441 21 0.00 0.00 0.00 0.0 0.00	49.5642592407	0.00	0.00	Mostly_Cloudy(fair)	True	False	0.00
2011-01-07 22:00:00 7442 22 0.00 0.00 0.00 0.0 0.00	49.5642592407	0.00	0.00	Mostly_Cloudy(fair)	True	False	0.00
2011-01-07 23:00:00 7443 23 0.00 0.00 0.00 0.0 0.00	49.5642592407	0.00	0.00	Mostly_Cloudy(fair)	True	False	0.00
2011-01-08 00:00:00 7444 0 0.00 0.00 0.00 0.0 0.00	67.3732335827	0.00	0.00	Partly_Cloudy(fair)	True	False	0.00
2011-01-08 01:00:00 7445 1 0.00 0.00 0.00 0.0 0.00	67.3732335827	0.00	0.00	Partly_Cloudy(fair)	True	False	0.00
2011-01-08 02:00:00 7446 2 0.00 0.00 0.00 0.0 0.00	67.3732335827	0.00	0.00	Partly_Cloudy(fair)	True	False	0.00
2011-01-08 03:00:00 7447 3 0.00 0.00 0.00 0.0 0.00	67.3732335827	0.00	0.00	Partly_Cloudy(fair)	True	False	0.00
2011-01-08 04:00:00 7448 4 0.00 0.00 0.00 0.0 0.00	67.3732335827	0.00	0.00	Partly_Cloudy(mostly_cloudy)	True	False	0.00
2011-01-08 05:00:00 7449 5 0.00 0.00 0.00 0.0 0.00	67.3732335827	0.00	0.00	Partly_Cloudy(mostly_cloudy)	True	False	0.00
2011-01-08 06:00:00 7450 6 0.00 0.00 0.00 0.0 0.00	49.5642592407	0.00	0.00	Mostly_Cloudy(cloudy)	True	False	0.00
2011-01-08 07:00:00 7451 7 14.92 14.92 14.92 0.0 30.10	49.5642592407	14.92	0.00	Mostly_Cloudy(mostly_cloudy)	True	False	0.00
2011-01-08 08:00:00 7452 8 155.09 155.09 155.09 1.2 312.90	49.5642592407	155.09	1.20	Mostly_Cloudy(cloudy)	True	False	1.20
2011-01-08 09:00:00 7453 9 272.70 272.70 272.70 10.6 653.30	41.7419256084	272.70	10.60	Cloudy(mostly_cloudy)	True	False	10.60
2011-01-08 10:00:00 7454 10 376.09 376.09 376.09 17.8 891.50	42.1862011638	376.09	17.80	Cloudy(fair)	True	False	17.80
