2011-01-02 01:00:00 1971 1 0.00 0.00 0.00 0.0 0.00	41.7419256084	0.00	0.00	Cloudy(light_rain)	True	False	0.00
2011-01-02 02:00:00 1972 2 0.00 0.00 0.00 0.0 0.00	41.7419256084	0.00	0.00	Cloudy(cloudy)	True	False	0.00
2011-01-02 03:00:00 1973 3 0.00 0.00 0.00 0.0 0.00	41.7419256084	0.00	0.00	Cloudy(fog)	True	False	0.00
2011-01-02 04:00:00 1974 4 0.00 0.00 0.00 0.0 0.00	41.7419256084	0.00	0.00	Cloudy(fog)	True	False	0.00
2011-01-02 05:00:00 1975 5 0.00 0.00 0.00 0.0 0.00	41.7419256084	0.00	0.00	Cloudy(fog)	True	False	0.00
2011-01-02 06:00:00 1976 6 0.00 0.00 0.00 0.0 0.00	41.7419256084	0.00	0.00	Cloudy(fog)	True	False	0.00
2011-01-02 07:00:00 1977 7 0.00 0.00 0.00 0.0 24.50	0.0	0.00	0.00	Few_Showers(fog)	True	False	0.00
2011-01-02 08:00:00 1978 8 0.00 0.00 0.00 10.5 305.30	0.0	0.00	10.50	Few_Showers(fog)	True	False	10.50
2011-01-02 09:00:00 1979 9 272.70 272.70 272.70 31.3 653.30	41.7419256084	272.70	31.30	Cloudy(fog)	True	False	31.30
2011-01-02 10:00:00 1980 10 376.09 376.09 376.09 137.1 891.50	42.1862011638	376.09	137.10	Cloudy(fog)	True	False	137.10
2011-01-02 11:00:00 1981 11 406.00 406.00 406.00 222.3 962.40	42.1862011638	406.00	222.30	Cloudy(cloudy)	True	False	222.30
2011-01-02 12:00:00 1982 12 526.50 526.50 526.50 364.9 998.30	52.7396574176	526.50	364.90	Mostly_Cloudy(light_rain)	True	False	364.90
2011-01-02 13:00:00 1983 13 437.05 437.05 437.05 136.2 828.70	52.7396574176	437.05	136.20	Mostly_Cloudy(cloudy)	True	False	136.20
2011-01-02 14:00:00 1984 14 328.94 328.94 328.94 63.7 623.70	52.7396574176	328.94	63.70	Mostly_Cloudy(light_rain)	True	False	63.70
2011-01-02 15:00:00 1985 15 254.35 254.35 254.35 13.0 313.50	81.1329220415	254.35	13.00	Partly_Cloudy(cloudy)	True	False	13.00
2011-01-02 16:00:00 1986 16 30.70 30.70 30.70 0.0 43.20	71.0648148148	30.70	0.00	Partly_Cloudy(cloudy)	True	False	0.00
2011-01-02 17:00:00 1987 17 0.00 0.00 0.00 0.0 0.00	71.0648148148	0.00	0.00	Partly_Cloudy(light_rain)	True	False	0.00
2011-01-02 18:00:00 1988 18 0.00 0.00 0.00 0.0 0.00	71.0648148148	0.00	0.00	Partly_Cloudy(cloudy)	True	False	0.00
2011-01-02 19:00:00 1989 19 0.00 0.00 0.00 0.0 0.00	71.0648148148	0.00	0.00	Partly_Cloudy(cloudy)	True	False	0.00
2011-01-02 20:00:00 1990 20 0.00 0.00 0.00 0.0 0.00	71.0648148148	0.00	0.00	Partly_Cloudy(mostly_cloudy)	True	False	0.00
2011-01-02 21:00:00 1991 21 0.00 0.00 0.00 0.0 0.00	71.0648148148	0.00	0.00	Mostly_Clear(fair)	False	False	0.00
2011-01-02 22:00:00 1992 22 0.00 0.00 0.00 0.0 0.00	71.0648148148	0.00	0.00	Mostly_Clear(fair)	False	False	0.00
2011-01-02 23:00:00 1993 23 0.00 0.00 0.00 0.0 0.00	71.0648148148	0.00	0.00	Mostly_Clear(fair)	False	False	0.00
2011-01-03 00:00:00 1994 0 0.00 0.00 0.00 0.0 0.00	92.7265170407	0.00	0.00	Clear(fair)	True	False	0.00
2011-01-03 01:00:00 1995 1 0.00 0.00 0.00 0.0 0.00	92.7265170407	0.00	0.00	Clear(fair)	True	False	0.00
2011-01-03 02:00:00 1996 2 0.00 0.00 0.00 0.0 0.00	92.7265170407	0.00	0.00	Clear(fair)	True	False	0.00
2011-01-03 03:00:00 1997 3 0.00 0.00 0.00 0.0 0.00	92.7265170407	0.00	0.00	Clear(fair)	True	False	0.00
2011-01-03 04:00:00 1998 4 0.00 0.00 0.00 0.0 0.00	92.7265170407	0.00	0.00	Clear(fair)	True	False	0.00
2011-01-03 05:00:00 1999 5 0.00 0.00 0.00 0.0 0.00	92.7265170407	0.00	0.00	Clear(fair)	True	False	0.00
2011-01-03 06:00:00 2000 6 0.00 0.00 0.00 0.0 0.00	92.7265170407	0.00	0.00	Clear(fair)	True	False	0.00
2011-01-03 07:00:00 2001 7 22.72 22.72 22.72 20.3 24.50	92.7265170407	22.72	20.30	Clear(fair)	True	False	20.30
2011-01-03 08:00:00 2002 8 283.09 283.09 283.09 287.1 305.30	92.7265170407	283.09	287.10	Sunny(fair)	True	False	287.10
2011-01-03 09:00:00 2003 9 605.78 605.78 605.78 627.3 653.30	92.7265170407	605.78	627.30	Sunny(fair)	True	False	627.30
2011-01-03 10:00:00 2004 10 819.60 819.60 819.60 818.1 891.50	91.9352252686	819.60	818.10	Sunny(fair)	True	False	818.10
2011-01-03 11:00:00 2005 11 884.78 884.78 884.78 919.3 962.40	91.9352252686	884.78	919.30	Sunny(fair)	True	False	919.30
2011-01-03 12:00:00 2006 12 917.79 917.79 917.79 915.9 998.30	91.9352252686	917.79	915.90	Sunny(fair)	True	False	915.90
2011-01-03 13:00:00 2007 13 761.87 761.87 761.87 783.1 828.70	91.9352252686	761.87	783.10	Sunny(fair)	True	False	783.10
2011-01-03 14:00:00 2008 14 573.40 573.40 573.40 571.7 623.70	91.9352252686	573.40	571.70	Sunny(fair)	True	False	571.70
2011-01-03 15:00:00 2009 15 288.22 288.22 288.22 236.0 313.50	91.9352252686	288.22	236.00	Sunny(fair)	True	False	236.00
2011-01-03 16:00:00 2010 16 40.06 40.06 40.06 14.9 43.20	92.7265170407	40.06	14.90	Sunny(fair)	True	False	14.90
2011-01-03 17:00:00 2011 17 0.00 0.00 0.00 0.0 0.00	92.7265170407	0.00	0.00	Clear(fair)	True	False	0.00
2011-01-03 18:00:00 2012 18 0.00 0.00 0.00 0.0 0.00	71.0648148148	0.00	0.00	Partly_Cloudy(fair)	True	False	0.00
2011-01-03 19:00:00 2013 19 0.00 0.00 0.00 0.0 0.00	71.0648148148	0.00	0.00	Partly_Cloudy(fair)	True	False	0.00
2011-01-03 20:00:00 2014 20 0.00 0.00 0.00 0.0 0.00	71.0648148148	0.00	0.00	Partly_Cloudy(fair)	True	False	0.00
2011-01-03 21:00:00 2015 21 0.00 0.00 0.00 0.0 0.00	71.0648148148	0.00	0.00	Partly_Cloudy(fair)	True	False	0.00
2011-01-03 22:00:00 2016 22 0.00 0.00 0.00 0.0 0.00	71.0648148148	0.00	0.00	Partly_Cloudy(fair)	True	False	0.00
2011-01-03 23:00:00 2017 23 0.00 0.00 0.00 0.0 0.00	71.0648148148	0.00	0.00	Partly_Cloudy(fair)	True	False	0.00
2011-01-04 00:00:00 2018 0 0.00 0.00 0.00 0.0 0.00	71.0648148148	0.00	0.00	Partly_Cloudy(fair)	True	False	0.00
2011-01-04 01:00:00 2019 1 0.00 0.00 0.00 0.0 0.00	71.0648148148	0.00	0.00	Partly_Cloudy(fair)	True	False	0.00
