2011-01-13 12:00:00 15081 12 922.18 922.18 922.18 173.0 998.30	92.3752792256	922.18	173.00	Mostly_Sunny(fair)	False	False	173.00
2011-01-13 13:00:00 15082 13 149.73 149.73 149.73 203.9 864.00	92.3752792256	149.73	203.90	Mostly_Sunny(fair)	False	False	203.90
2011-01-13 14:00:00 15083 14 116.37 116.37 620.30 181.3 671.50	92.3752792256	620.30	181.30	Mostly_Sunny(Unkown)	False	False	181.30
2011-01-13 15:00:00 15084 15 61.47 61.47 327.66 95.1 354.70	92.3752792256	327.66	95.10	Mostly_Sunny(fair)	False	False	95.10
2011-01-13 16:00:00 15085 16 40.63 13.31 40.63 6.8 76.80	52.8997514499	40.63	6.80	Partly_Cloudy(fair)	True	False	6.80
2011-01-13 17:00:00 15086 17 0.16 0.05 0.16 0.0 0.30	52.8997514499	0.16	0.00	Mostly_Clear(fair)	False	False	0.00
2011-01-13 18:00:00 15087 18 0.00 0.00 0.00 0.0 0.00	52.8997514499	0.00	0.00	Mostly_Clear(fair)	False	False	0.00
2011-01-13 19:00:00 15088 19 0.00 0.00 0.00 0.0 0.00	90.4430734717	0.00	0.00	Clear(fair)	True	False	0.00
2011-01-13 20:00:00 15089 20 0.00 0.00 0.00 0.0 0.00	90.4430734717	0.00	0.00	Clear(fair)	True	False	0.00
2011-01-13 21:00:00 15090 21 0.00 0.00 0.00 0.0 0.00	90.4430734717	0.00	0.00	Clear(fair)	True	False	0.00
2011-01-13 22:00:00 15091 22 0.00 0.00 0.00 0.0 0.00	90.4430734717	0.00	0.00	Clear(fair)	True	False	0.00
2011-01-13 23:00:00 15092 23 0.00 0.00 0.00 0.0 0.00	90.4430734717	0.00	0.00	Clear(fair)	True	False	0.00
2011-01-14 00:00:00 15093 0 0.00 0.00 0.00 0.0 0.00	90.4430734717	0.00	0.00	Clear(fair)	True	False	0.00
2011-01-14 01:00:00 15094 1 0.00 0.00 0.00 0.0 0.00	90.4430734717	0.00	0.00	Clear(fair)	True	False	0.00
2011-01-14 02:00:00 15095 2 0.00 0.00 0.00 0.0 0.00	90.4430734717	0.00	0.00	Clear(fair)	True	False	0.00
2011-01-14 03:00:00 15096 3 0.00 0.00 0.00 0.0 0.00	52.8997514499	0.00	0.00	Partly_Cloudy(fair)	True	False	0.00
2011-01-14 04:00:00 15097 4 0.00 0.00 0.00 0.0 0.00	52.8997514499	0.00	0.00	Partly_Cloudy(fair)	True	False	0.00
2011-01-14 05:00:00 15098 5 0.00 0.00 0.00 0.0 0.00	52.8997514499	0.00	0.00	Partly_Cloudy(fair)	True	False	0.00
2011-01-14 06:00:00 15099 6 0.00 0.00 0.00 0.0 0.00	48.2137753644	0.00	0.00	Mostly_Cloudy(fair)	True	False	0.00
2011-01-14 07:00:00 15100 7 19.43 19.43 19.43 0.9 40.30	48.2137753644	19.43	0.90	Mostly_Cloudy(fair)	True	False	0.90
2011-01-14 08:00:00 15101 8 168.70 168.70 168.70 56.4 349.90	48.2137753644	168.70	56.40	Mostly_Cloudy(fair)	True	False	56.40
2011-01-14 09:00:00 15102 9 217.84 217.84 217.84 144.1 668.20	32.6014913007	217.84	144.10	Cloudy(fair)	True	False	144.10
2011-01-14 10:00:00 15103 10 335.77 335.77 335.77 288.8 891.50	37.664028849	335.77	288.80	Cloudy(fair)	True	False	288.80
2011-01-14 11:00:00 15104 11 363.68 363.68 363.68 356.8 965.60	37.664028849	363.68	356.80	Cloudy(fair)	True	False	356.80
2011-01-14 12:00:00 15105 12 550.22 550.22 550.22 408.8 998.30	55.1154132539	550.22	408.80	Mostly_Cloudy(fair)	True	False	408.80
2011-01-14 13:00:00 15106 13 476.20 476.20 476.20 399.7 864.00	55.1154132539	476.20	399.70	Mostly_Cloudy(fair)	True	False	399.70
2011-01-14 14:00:00 15107 14 370.10 370.10 370.10 314.6 671.50	55.1154132539	370.10	314.60	Mostly_Cloudy(fair)	True	False	314.60
2011-01-14 15:00:00 15108 15 238.18 238.18 238.18 161.5 354.70	67.149958575	238.18	161.50	Partly_Cloudy(fair)	True	False	161.50
2011-01-14 16:00:00 15109 16 40.63 40.63 40.63 13.6 76.80	52.8997514499	40.63	13.60	Partly_Cloudy(fair)	True	False	13.60
2011-01-14 17:00:00 15110 17 0.16 0.16 0.16 0.0 0.30	52.8997514499	0.16	0.00	Partly_Cloudy(fair)	True	False	0.00
2011-01-14 18:00:00 15111 18 0.00 0.00 0.00 0.0 0.00	52.8997514499	0.00	0.00	Mostly_Clear(fair)	False	False	0.00
2011-01-14 19:00:00 15112 19 0.00 0.00 0.00 0.0 0.00	52.8997514499	0.00	0.00	Mostly_Clear(fair)	False	False	0.00
2011-01-14 20:00:00 15113 20 0.00 0.00 0.00 0.0 0.00	52.8997514499	0.00	0.00	Mostly_Clear(fair)	False	False	0.00
2011-01-14 21:00:00 15114 21 0.00 0.00 0.00 0.0 0.00	90.4430734717	0.00	0.00	Clear(fair)	True	False	0.00
2011-01-14 22:00:00 15115 22 0.00 0.00 0.00 0.0 0.00	90.4430734717	0.00	0.00	Clear(fair)	True	False	0.00
2011-01-14 23:00:00 15116 23 0.00 0.00 0.00 0.0 0.00	90.4430734717	0.00	0.00	Clear(fair)	True	False	0.00
2011-01-15 00:00:00 15117 0 0.00 0.00 0.00 0.0 0.00	90.4430734717	0.00	0.00	Mostly_Clear(fair)	False	False	0.00
2011-01-15 01:00:00 15118 1 0.00 0.00 0.00 0.0 0.00	90.4430734717	0.00	0.00	Mostly_Clear(fair)	False	False	0.00
2011-01-15 02:00:00 15119 2 0.00 0.00 0.00 0.0 0.00	90.4430734717	0.00	0.00	Mostly_Clear(fair)	False	False	0.00
2011-01-15 03:00:00 15120 3 0.00 0.00 0.00 0.0 0.00	52.8997514499	0.00	0.00	Partly_Cloudy(fair)	True	False	0.00
2011-01-15 04:00:00 15121 4 0.00 0.00 0.00 0.0 0.00	52.8997514499	0.00	0.00	Partly_Cloudy(fair)	True	False	0.00
2011-01-15 05:00:00 15122 5 0.00 0.00 0.00 0.0 0.00	52.8997514499	0.00	0.00	Partly_Cloudy(fair)	True	False	0.00
2011-01-15 06:00:00 15123 6 0.00 0.00 0.00 0.0 0.00	48.2137753644	0.00	0.00	Mostly_Cloudy(fair)	True	False	0.00
2011-01-15 07:00:00 15124 7 19.43 19.43 19.43 8.7 40.30	48.2137753644	19.43	8.70	Mostly_Cloudy(fair)	True	False	8.70
2011-01-15 08:00:00 15125 8 168.70 168.70 168.70 136.2 349.90	48.2137753644	168.70	136.20	Mostly_Cloudy(fair)	True	False	136.20
2011-01-15 09:00:00 15126 9 322.16 322.16 322.16 87.5 668.20	48.2137753644	322.16	87.50	Mostly_Cloudy(fair)	True	False	87.50
2011-01-15 10:00:00 15127 10 491.35 491.35 491.35 187.7 891.50	55.1154132539	491.35	187.70	Mostly_Cloudy(cloudy)	True	False	187.70
2011-01-15 11:00:00 15128 11 532.19 532.19 532.19 306.5 965.60	55.1154132539	532.19	306.50	Mostly_Cloudy(mostly_cloudy)	True	False	306.50
2011-01-15 12:00:00 15129 12 550.22 550.22 550.22 411.8 998.30	55.1154132539	550.22	411.80	Mostly_Cloudy(mostly_cloudy)	True	False	411.80
