2011-01-16 01:00:00 18028 1 0.00 0.00 0.00 0.0 0.00	30.9590577678	0.00	0.00	Mostly_Cloudy(partly_cloudy)	True	False	0.00
2011-01-16 02:00:00 18029 2 0.00 0.00 0.00 0.0 0.00	30.9590577678	0.00	0.00	Mostly_Cloudy(mostly_cloudy)	True	False	0.00
2011-01-16 03:00:00 18030 3 0.00 0.00 0.00 0.0 0.00	52.7897425624	0.00	0.00	Partly_Cloudy(fair)	True	False	0.00
2011-01-16 04:00:00 18031 4 0.00 0.00 0.00 0.0 0.00	52.7897425624	0.00	0.00	Partly_Cloudy(fair)	True	False	0.00
2011-01-16 05:00:00 18032 5 0.00 0.00 0.00 0.0 0.00	52.7897425624	0.00	0.00	Partly_Cloudy(fair)	True	False	0.00
2011-01-16 06:00:00 18033 6 0.00 0.00 0.00 0.0 0.00	52.7897425624	0.00	0.00	Mostly_Clear(fair)	False	False	0.00
2011-01-16 07:00:00 18034 7 42.91 42.91 42.91 3.4 49.60	86.5160131697	42.91	3.40	Clear(fair)	True	False	3.40
2011-01-16 08:00:00 18035 8 338.97 338.97 338.97 208.1 391.80	86.5160131697	338.97	208.10	Sunny(fair)	True	False	208.10
2011-01-16 09:00:00 18036 9 578.10 578.10 578.10 538.1 668.20	86.5160131697	578.10	538.10	Sunny(fair)	True	False	538.10
2011-01-16 10:00:00 18037 10 787.73 787.73 787.73 784.8 891.50	88.360212361	787.73	784.80	Sunny(fair)	True	False	784.80
2011-01-16 11:00:00 18038 11 853.21 853.21 853.21 937.0 965.60	88.360212361	853.21	937.00	Sunny(fair)	True	False	937.00
2011-01-16 12:00:00 18039 12 882.10 882.10 882.10 943.9 998.30	88.360212361	882.10	943.90	Sunny(fair)	True	False	943.90
2011-01-16 13:00:00 18040 13 790.56 790.56 790.56 850.0 894.70	88.360212361	790.56	850.00	Sunny(partly_cloudy)	True	False	850.00
2011-01-16 14:00:00 18041 14 671.80 671.80 671.80 657.5 760.30	88.360212361	671.80	657.50	Sunny(fair)	True	False	657.50
2011-01-16 15:00:00 18042 15 393.56 393.56 393.56 309.5 445.40	88.360212361	393.56	309.50	Sunny(fair)	True	False	309.50
2011-01-16 16:00:00 18043 16 69.82 69.82 69.82 32.8 80.70	86.5160131697	69.82	32.80	Sunny(fair)	True	False	32.80
2011-01-16 17:00:00 18044 17 0.52 0.52 0.52 0.0 0.60	86.5160131697	0.52	0.00	Clear(fair)	True	False	0.00
2011-01-16 18:00:00 18045 18 0.00 0.00 0.00 0.0 0.00	86.5160131697	0.00	0.00	Clear(fair)	True	False	0.00
2011-01-16 19:00:00 18046 19 0.00 0.00 0.00 0.0 0.00	86.5160131697	0.00	0.00	Clear(fair)	True	False	0.00
2011-01-16 20:00:00 18047 20 0.00 0.00 0.00 0.0 0.00	86.5160131697	0.00	0.00	Clear(fair)	True	False	0.00
2011-01-16 21:00:00 18048 21 0.00 0.00 0.00 0.0 0.00	86.5160131697	0.00	0.00	Clear(fair)	True	False	0.00
2011-01-16 22:00:00 18049 22 0.00 0.00 0.00 0.0 0.00	86.5160131697	0.00	0.00	Clear(fair)	True	False	0.00
2011-01-16 23:00:00 18050 23 0.00 0.00 0.00 0.0 0.00	86.5160131697	0.00	0.00	Clear(fair)	True	False	0.00
2011-01-17 00:00:00 18051 0 0.00 0.00 0.00 0.0 0.00	86.5160131697	0.00	0.00	Clear(fair)	True	False	0.00
2011-01-17 01:00:00 18052 1 0.00 0.00 0.00 0.0 0.00	86.5160131697	0.00	0.00	Clear(fair)	True	False	0.00
2011-01-17 02:00:00 18053 2 0.00 0.00 0.00 0.0 0.00	86.5160131697	0.00	0.00	Clear(fair)	True	False	0.00
2011-01-17 03:00:00 18054 3 0.00 0.00 0.00 0.0 0.00	86.5160131697	0.00	0.00	Clear(mostly_cloudy)	True	False	0.00
2011-01-17 04:00:00 18055 4 0.00 0.00 0.00 0.0 0.00	86.5160131697	0.00	0.00	Clear(cloudy)	True	False	0.00
2011-01-17 05:00:00 18056 5 0.00 0.00 0.00 0.0 0.00	86.5160131697	0.00	0.00	Clear(cloudy)	True	False	0.00
2011-01-17 06:00:00 18057 6 0.00 0.00 0.00 0.0 0.00	86.5160131697	0.00	0.00	Clear(cloudy)	True	False	0.00
2011-01-17 07:00:00 18058 7 42.91 42.91 42.91 14.0 49.60	86.5160131697	42.91	14.00	Clear(cloudy)	True	False	14.00
2011-01-17 08:00:00 18059 8 338.97 338.97 338.97 112.4 391.80	86.5160131697	338.97	112.40	Sunny(cloudy)	True	False	112.40
2011-01-17 09:00:00 18060 9 578.10 578.10 578.10 160.3 668.20	86.5160131697	578.10	160.30	Sunny(cloudy)	True	False	160.30
2011-01-17 10:00:00 18061 10 787.73 787.73 787.73 234.9 891.50	88.360212361	787.73	234.90	Sunny(cloudy)	True	False	234.90
2011-01-17 11:00:00 18062 11 853.21 853.21 853.21 283.9 965.60	88.360212361	853.21	283.90	Sunny(cloudy)	True	False	283.90
2011-01-17 12:00:00 18063 12 882.10 882.10 882.10 323.3 998.30	88.360212361	882.10	323.30	Sunny(cloudy)	True	False	323.30
2011-01-17 13:00:00 18064 13 790.56 790.56 790.56 195.9 894.70	88.360212361	790.56	195.90	Sunny(cloudy)	True	False	195.90
2011-01-17 14:00:00 18065 14 671.80 671.80 671.80 111.7 760.30	88.360212361	671.80	111.70	Sunny(cloudy)	True	False	111.70
2011-01-17 15:00:00 18066 15 393.56 393.56 393.56 40.8 445.40	88.360212361	393.56	40.80	Mostly_Sunny(cloudy)	False	False	40.80
2011-01-17 16:00:00 18067 16 71.31 71.31 71.31 4.6 80.70	88.360212361	71.31	4.60	Mostly_Sunny(cloudy)	False	False	4.60
2011-01-17 17:00:00 18068 17 0.53 0.53 0.53 0.0 0.60	88.360212361	0.53	0.00	Mostly_Clear(cloudy)	False	False	0.00
2011-01-17 18:00:00 18069 18 0.00 0.00 0.00 0.0 0.00	30.9590577678	0.00	0.00	Mostly_Cloudy(cloudy)	True	False	0.00
2011-01-17 19:00:00 18070 19 0.00 0.00 0.00 0.0 0.00	30.9590577678	0.00	0.00	Mostly_Cloudy(cloudy)	True	False	0.00
2011-01-17 20:00:00 18071 20 0.00 0.00 0.00 0.0 0.00	30.9590577678	0.00	0.00	Mostly_Cloudy(cloudy)	True	False	0.00
2011-01-17 21:00:00 18072 21 0.00 0.00 0.00 0.0 0.00	31.5977539561	0.00	0.00	Cloudy(cloudy)	True	False	0.00
2011-01-17 22:00:00 18073 22 0.00 0.00 0.00 0.0 0.00	31.5977539561	0.00	0.00	Cloudy(cloudy)	True	False	0.00
2011-01-17 23:00:00 18074 23 0.00 0.00 0.00 0.0 0.00	31.5977539561	0.00	0.00	Cloudy(light_snow)	True	False	0.00
2011-01-18 00:00:00 18075 0 0.00 0.00 0.00 0.0 0.00	20.0578718927	0.00	0.00	Snow_Shower(light_snow)	True	False	0.00
2011-01-18 01:00:00 18076 1 0.00 0.00 0.00 0.0 0.00	20.0578718927	0.00	0.00	Snow_Shower(light_snow)	True	False	0.00
