2011-01-14 17:00:00 16471 17 0.55 0.55 0.55 0.0 0.60	92.3752792256	0.55	0.00	Mostly_Clear(fair)	False	False	0.00
2011-01-14 18:00:00 16472 18 0.00 0.00 0.00 0.0 0.00	92.3752792256	0.00	0.00	Mostly_Clear(fair)	False	False	0.00
2011-01-14 19:00:00 16473 19 0.00 0.00 0.00 0.0 0.00	92.3752792256	0.00	0.00	Mostly_Clear(fair)	False	False	0.00
2011-01-14 20:00:00 16474 20 0.00 0.00 0.00 0.0 0.00	89.4255501572	0.00	0.00	Clear(fair)	True	False	0.00
2011-01-14 21:00:00 16475 21 0.00 0.00 0.00 0.0 0.00	89.4255501572	0.00	0.00	Clear(fair)	True	False	0.00
2011-01-14 22:00:00 16476 22 0.00 0.00 0.00 0.0 0.00	89.4255501572	0.00	0.00	Clear(fair)	True	False	0.00
2011-01-14 23:00:00 16477 23 0.00 0.00 0.00 0.0 0.00	89.4255501572	0.00	0.00	Clear(fair)	True	False	0.00
2011-01-15 00:00:00 16478 0 0.00 0.00 0.00 0.0 0.00	89.4255501572	0.00	0.00	Clear(fair)	True	False	0.00
2011-01-15 01:00:00 16479 1 0.00 0.00 0.00 0.0 0.00	89.4255501572	0.00	0.00	Clear(fair)	True	False	0.00
2011-01-15 02:00:00 16480 2 0.00 0.00 0.00 0.0 0.00	53.798256538	0.00	0.00	Partly_Cloudy(fair)	True	False	0.00
2011-01-15 03:00:00 16481 3 0.00 0.00 0.00 0.0 0.00	53.798256538	0.00	0.00	Partly_Cloudy(fair)	True	False	0.00
2011-01-15 04:00:00 16482 4 0.00 0.00 0.00 0.0 0.00	53.798256538	0.00	0.00	Partly_Cloudy(fair)	True	False	0.00
2011-01-15 05:00:00 16483 5 0.00 0.00 0.00 0.0 0.00	47.9166666667	0.00	0.00	Mostly_Cloudy(fair)	True	False	0.00
2011-01-15 06:00:00 16484 6 0.00 0.00 0.00 0.0 0.00	47.9166666667	0.00	0.00	Mostly_Cloudy(fair)	True	False	0.00
2011-01-15 07:00:00 16485 7 19.31 19.31 19.31 8.7 40.30	47.9166666667	19.31	8.70	Mostly_Cloudy(fair)	True	False	8.70
2011-01-15 08:00:00 16486 8 167.66 167.66 167.66 136.2 349.90	47.9166666667	167.66	136.20	Mostly_Cloudy(fair)	True	False	136.20
2011-01-15 09:00:00 16487 9 368.28 368.28 368.28 87.5 668.20	55.1154132539	368.28	87.50	Mostly_Cloudy(fair)	True	False	87.50
2011-01-15 10:00:00 16488 10 491.35 491.35 491.35 187.7 891.50	55.1154132539	491.35	187.70	Mostly_Cloudy(cloudy)	True	False	187.70
2011-01-15 11:00:00 16489 11 277.16 277.16 277.16 306.5 965.60	28.7037037037	277.16	306.50	Few_Snow_Showers(mostly_cloudy)	True	False	306.50
2011-01-15 12:00:00 16490 12 286.55 286.55 286.55 411.8 998.30	28.7037037037	286.55	411.80	Few_Snow_Showers(mostly_cloudy)	True	False	411.80
2011-01-15 13:00:00 16491 13 248.00 248.00 248.00 440.6 864.00	28.7037037037	248.00	440.60	Few_Snow_Showers(mostly_cloudy)	True	False	440.60
2011-01-15 14:00:00 16492 14 192.75 192.75 192.75 196.9 671.50	28.7037037037	192.75	196.90	Few_Snow_Showers(fair)	True	False	196.90
2011-01-15 15:00:00 16493 15 16.71 16.71 16.71 49.6 354.70	4.71116096467	16.71	49.60	Few_Snow_Showers(cloudy)	True	False	49.60
2011-01-15 16:00:00 16494 16 3.78 3.78 3.78 1.6 80.30	4.71116096467	3.78	1.60	Few_Snow_Showers(cloudy)	True	False	1.60
2011-01-15 17:00:00 16495 17 0.03 0.03 0.03 0.0 0.60	4.71116096467	0.03	0.00	Few_Snow_Showers(cloudy)	True	False	0.00
2011-01-15 18:00:00 16496 18 0.00 0.00 0.00 0.0 0.00	4.71116096467	0.00	0.00	Few_Snow_Showers(cloudy)	True	False	0.00
2011-01-15 19:00:00 16497 19 0.00 0.00 0.00 0.0 0.00	4.71116096467	0.00	0.00	Few_Snow_Showers(cloudy)	True	False	0.00
2011-01-15 20:00:00 16498 20 0.00 0.00 0.00 0.0 0.00	34.7133283693	0.00	0.00	Cloudy(cloudy)	True	False	0.00
2011-01-15 21:00:00 16499 21 0.00 0.00 0.00 0.0 0.00	34.7133283693	0.00	0.00	Cloudy(cloudy)	True	False	0.00
2011-01-15 22:00:00 16500 22 0.00 0.00 0.00 0.0 0.00	34.7133283693	0.00	0.00	Cloudy(fair)	True	False	0.00
2011-01-15 23:00:00 16501 23 0.00 0.00 0.00 0.0 0.00	34.7133283693	0.00	0.00	Cloudy(partly_cloudy)	True	False	0.00
2011-01-16 00:00:00 16502 0 0.00 0.00 0.00 0.0 0.00	34.7133283693	0.00	0.00	Cloudy(mostly_cloudy)	True	False	0.00
2011-01-16 01:00:00 16503 1 0.00 0.00 0.00 0.0 0.00	34.7133283693	0.00	0.00	Cloudy(partly_cloudy)	True	False	0.00
2011-01-16 02:00:00 16504 2 0.00 0.00 0.00 0.0 0.00	34.7133283693	0.00	0.00	Cloudy(mostly_cloudy)	True	False	0.00
2011-01-16 03:00:00 16505 3 0.00 0.00 0.00 0.0 0.00	34.7133283693	0.00	0.00	Cloudy(fair)	True	False	0.00
2011-01-16 04:00:00 16506 4 0.00 0.00 0.00 0.0 0.00	34.7133283693	0.00	0.00	Cloudy(fair)	True	False	0.00
2011-01-16 05:00:00 16507 5 0.00 0.00 0.00 0.0 0.00	53.798256538	0.00	0.00	Partly_Cloudy(fair)	True	False	0.00
2011-01-16 06:00:00 16508 6 0.00 0.00 0.00 0.0 0.00	53.798256538	0.00	0.00	Partly_Cloudy(fair)	True	False	0.00
2011-01-16 07:00:00 16509 7 21.68 21.68 21.68 3.4 40.30	53.798256538	21.68	3.40	Partly_Cloudy(fair)	True	False	3.40
2011-01-16 08:00:00 16510 8 188.24 188.24 188.24 208.1 349.90	53.798256538	188.24	208.10	Partly_Cloudy(fair)	True	False	208.10
2011-01-16 09:00:00 16511 9 448.70 448.70 448.70 538.1 668.20	67.149958575	448.70	538.10	Partly_Cloudy(fair)	True	False	538.10
2011-01-16 10:00:00 16512 10 598.64 598.64 598.64 784.8 891.50	67.149958575	598.64	784.80	Partly_Cloudy(fair)	True	False	784.80
2011-01-16 11:00:00 16513 11 648.40 648.40 648.40 937.0 965.60	67.149958575	648.40	937.00	Mostly_Sunny(fair)	False	False	937.00
2011-01-16 12:00:00 16514 12 670.36 670.36 670.36 943.9 998.30	67.149958575	670.36	943.90	Mostly_Sunny(fair)	False	False	943.90
2011-01-16 13:00:00 16515 13 580.18 580.18 580.18 850.0 864.00	67.149958575	580.18	850.00	Mostly_Sunny(partly_cloudy)	False	False	850.00
2011-01-16 14:00:00 16516 14 450.91 450.91 450.91 657.5 671.50	67.149958575	450.91	657.50	Mostly_Sunny(fair)	False	False	657.50
2011-01-16 15:00:00 16517 15 238.18 238.18 238.18 309.5 354.70	67.149958575	238.18	309.50	Mostly_Sunny(fair)	False	False	309.50
2011-01-16 16:00:00 16518 16 53.92 53.92 53.92 32.8 80.30	67.149958575	53.92	32.80	Mostly_Clear(fair)	False	False	32.80
