2011-01-15 09:00:00 17249 9 287.71 287.71 287.71 87.5 668.20	43.0576824911	287.71	87.50	Mostly_Cloudy(fair)	True	False	87.50
2011-01-15 10:00:00 17250 10 116.74 116.74 598.64 187.7 891.50	67.149958575	598.64	187.70	Partly_Cloudy(cloudy)	True	False	187.70
2011-01-15 11:00:00 17251 11 484.75 126.44 484.75 306.5 965.60	50.202065559	484.75	306.50	Mostly_Cloudy(mostly_cloudy)	True	False	306.50
2011-01-15 12:00:00 17252 12 501.17 130.73 501.17 411.8 998.30	50.202065559	501.17	411.80	Mostly_Cloudy(mostly_cloudy)	True	False	411.80
2011-01-15 13:00:00 17253 13 449.16 117.16 449.16 440.6 894.70	50.202065559	449.16	440.60	Mostly_Cloudy(mostly_cloudy)	True	False	440.60
2011-01-15 14:00:00 17254 14 381.69 99.56 381.69 196.9 760.30	50.202065559	381.69	196.90	Mostly_Cloudy(fair)	True	False	196.90
2011-01-15 15:00:00 17255 15 223.60 58.32 223.60 49.6 445.40	50.202065559	223.60	49.60	Mostly_Cloudy(cloudy)	True	False	49.60
2011-01-15 16:00:00 17256 16 3.80 10.57 3.80 1.6 80.70	4.71116096467	3.80	1.60	Few_Snow_Showers(cloudy)	True	False	1.60
2011-01-15 17:00:00 17257 17 0.03 0.08 0.03 0.0 0.60	4.71116096467	0.03	0.00	Few_Snow_Showers(cloudy)	True	False	0.00
2011-01-15 18:00:00 17258 18 0.00 0.00 0.00 0.0 0.00	4.71116096467	0.00	0.00	Few_Snow_Showers(cloudy)	True	False	0.00
2011-01-15 19:00:00 17259 19 0.00 0.00 0.00 0.0 0.00	4.71116096467	0.00	0.00	Few_Snow_Showers(cloudy)	True	False	0.00
2011-01-15 20:00:00 17260 20 0.00 0.00 0.00 0.0 0.00	4.71116096467	0.00	0.00	Few_Snow_Showers(cloudy)	True	False	0.00
2011-01-15 21:00:00 17261 21 0.00 0.00 0.00 0.0 0.00	4.71116096467	0.00	0.00	Few_Snow_Showers(cloudy)	True	False	0.00
2011-01-15 22:00:00 17262 22 0.00 0.00 0.00 0.0 0.00	4.71116096467	0.00	0.00	Few_Snow_Showers(fair)	True	False	0.00
2011-01-15 23:00:00 17263 23 0.00 0.00 0.00 0.0 0.00	4.71116096467	0.00	0.00	Few_Snow_Showers(partly_cloudy)	True	False	0.00
2011-01-16 00:00:00 17264 0 0.00 0.00 0.00 0.0 0.00	31.5977539561	0.00	0.00	Cloudy(mostly_cloudy)	True	False	0.00
2011-01-16 01:00:00 17265 1 0.00 0.00 0.00 0.0 0.00	31.5977539561	0.00	0.00	Cloudy(partly_cloudy)	True	False	0.00
2011-01-16 02:00:00 17266 2 0.00 0.00 0.00 0.0 0.00	31.5977539561	0.00	0.00	Cloudy(mostly_cloudy)	True	False	0.00
2011-01-16 03:00:00 17267 3 0.00 0.00 0.00 0.0 0.00	43.0576824911	0.00	0.00	Mostly_Cloudy(fair)	True	False	0.00
2011-01-16 04:00:00 17268 4 0.00 0.00 0.00 0.0 0.00	43.0576824911	0.00	0.00	Mostly_Cloudy(fair)	True	False	0.00
2011-01-16 05:00:00 17269 5 0.00 0.00 0.00 0.0 0.00	43.0576824911	0.00	0.00	Mostly_Cloudy(fair)	True	False	0.00
2011-01-16 06:00:00 17270 6 0.00 0.00 0.00 0.0 0.00	55.5142503098	0.00	0.00	Partly_Cloudy(fair)	True	False	0.00
2011-01-16 07:00:00 17271 7 27.54 27.54 27.54 3.4 49.60	55.5142503098	27.54	3.40	Partly_Cloudy(fair)	True	False	3.40
2011-01-16 08:00:00 17272 8 217.50 217.50 217.50 208.1 391.80	55.5142503098	217.50	208.10	Partly_Cloudy(fair)	True	False	208.10
2011-01-16 09:00:00 17273 9 370.95 370.95 370.95 538.1 668.20	55.5142503098	370.95	538.10	Partly_Cloudy(fair)	True	False	538.10
2011-01-16 10:00:00 17274 10 598.64 598.64 598.64 784.8 891.50	67.149958575	598.64	784.80	Partly_Cloudy(fair)	True	False	784.80
2011-01-16 11:00:00 17275 11 648.40 648.40 648.40 937.0 965.60	67.149958575	648.40	937.00	Partly_Cloudy(fair)	True	False	937.00
2011-01-16 12:00:00 17276 12 670.36 670.36 670.36 943.9 998.30	67.149958575	670.36	943.90	Mostly_Sunny(fair)	False	False	943.90
2011-01-16 13:00:00 17277 13 600.79 600.79 600.79 850.0 894.70	67.149958575	600.79	850.00	Mostly_Sunny(partly_cloudy)	False	False	850.00
2011-01-16 14:00:00 17278 14 510.54 510.54 510.54 657.5 760.30	67.149958575	510.54	657.50	Mostly_Sunny(fair)	False	False	657.50
2011-01-16 15:00:00 17279 15 299.09 299.09 299.09 309.5 445.40	67.149958575	299.09	309.50	Partly_Cloudy(fair)	True	False	309.50
2011-01-16 16:00:00 17280 16 44.80 44.80 44.80 32.8 80.70	55.5142503098	44.80	32.80	Partly_Cloudy(fair)	True	False	32.80
2011-01-16 17:00:00 17281 17 0.33 0.33 0.33 0.0 0.60	55.5142503098	0.33	0.00	Partly_Cloudy(fair)	True	False	0.00
2011-01-16 18:00:00 17282 18 0.00 0.00 0.00 0.0 0.00	55.5142503098	0.00	0.00	Partly_Cloudy(fair)	True	False	0.00
2011-01-16 19:00:00 17283 19 0.00 0.00 0.00 0.0 0.00	55.5142503098	0.00	0.00	Partly_Cloudy(fair)	True	False	0.00
2011-01-16 20:00:00 17284 20 0.00 0.00 0.00 0.0 0.00	55.5142503098	0.00	0.00	Partly_Cloudy(fair)	True	False	0.00
2011-01-16 21:00:00 17285 21 0.00 0.00 0.00 0.0 0.00	55.5142503098	0.00	0.00	Partly_Cloudy(fair)	True	False	0.00
2011-01-16 22:00:00 17286 22 0.00 0.00 0.00 0.0 0.00	55.5142503098	0.00	0.00	Partly_Cloudy(fair)	True	False	0.00
2011-01-16 23:00:00 17287 23 0.00 0.00 0.00 0.0 0.00	55.5142503098	0.00	0.00	Partly_Cloudy(fair)	True	False	0.00
2011-01-17 00:00:00 17288 0 0.00 0.00 0.00 0.0 0.00	86.5160131697	0.00	0.00	Clear(fair)	True	False	0.00
2011-01-17 01:00:00 17289 1 0.00 0.00 0.00 0.0 0.00	86.5160131697	0.00	0.00	Clear(fair)	True	False	0.00
2011-01-17 02:00:00 17290 2 0.00 0.00 0.00 0.0 0.00	86.5160131697	0.00	0.00	Clear(fair)	True	False	0.00
2011-01-17 03:00:00 17291 3 0.00 0.00 0.00 0.0 0.00	86.5160131697	0.00	0.00	Mostly_Clear(mostly_cloudy)	False	False	0.00
2011-01-17 04:00:00 17292 4 0.00 0.00 0.00 0.0 0.00	86.5160131697	0.00	0.00	Mostly_Clear(cloudy)	False	False	0.00
2011-01-17 05:00:00 17293 5 0.00 0.00 0.00 0.0 0.00	86.5160131697	0.00	0.00	Mostly_Clear(cloudy)	False	False	0.00
2011-01-17 06:00:00 17294 6 0.00 0.00 0.00 0.0 0.00	86.5160131697	0.00	0.00	Mostly_Clear(cloudy)	False	False	0.00
2011-01-17 07:00:00 17295 7 42.91 42.91 42.91 14.0 49.60	86.5160131697	42.91	14.00	Mostly_Clear(cloudy)	False	False	14.00
2011-01-17 08:00:00 17296 8 338.97 338.97 338.97 112.4 391.80	86.5160131697	338.97	112.40	Mostly_Sunny(cloudy)	False	False	112.40
2011-01-17 09:00:00 17297 9 578.10 578.10 578.10 160.3 668.20	86.5160131697	578.10	160.30	Sunny(cloudy)	True	False	160.30
