2011-01-21 00:00:00 23782 0 0.00 0.00 0.00 0.0 0.00	4.38550694372	0.00	0.00	Few_Snow_Showers(mostly_cloudy)	True	False	0.00
2011-01-21 01:00:00 23783 1 0.00 0.00 0.00 0.0 0.00	4.38550694372	0.00	0.00	Few_Snow_Showers(cloudy)	True	False	0.00
2011-01-21 02:00:00 23784 2 0.00 0.00 0.00 0.0 0.00	4.38550694372	0.00	0.00	Flurries(snow)	False	False	0.00
2011-01-21 03:00:00 23785 3 0.00 0.00 0.00 0.0 0.00	4.38550694372	0.00	0.00	Light_Snow(snow)	True	False	0.00
2011-01-21 04:00:00 23786 4 0.00 0.00 0.00 0.0 0.00	19.9164163511	0.00	0.00	Snow(light_snow)	True	False	0.00
2011-01-21 05:00:00 23787 5 0.00 0.00 0.00 0.0 0.00	19.9164163511	0.00	0.00	Snow(light_snow)	True	False	0.00
2011-01-21 06:00:00 23788 6 0.00 0.00 0.00 0.0 0.00	19.9164163511	0.00	0.00	Snow(light_snow)	True	False	0.00
2011-01-21 07:00:00 23789 7 13.74 13.74 13.74 0.0 69.00	19.9164163511	13.74	0.00	Snow(cloudy)	True	False	0.00
2011-01-21 08:00:00 23790 8 84.70 84.70 84.70 0.6 425.30	19.9164163511	84.70	0.60	Snow(fair)	True	False	0.60
2011-01-21 09:00:00 23791 9 365.15 365.15 365.15 8.3 750.60	48.6476190476	365.15	8.30	Partly_Cloudy(fair)	True	False	8.30
2011-01-21 10:00:00 23792 10 567.09 567.09 567.09 21.0 957.70	59.2137913021	567.09	21.00	Partly_Cloudy(light_snow)	True	False	21.00
2011-01-21 11:00:00 23793 11 621.74 621.74 621.74 26.5 1050.00	59.2137913021	621.74	26.50	Partly_Cloudy(light_snow)	True	False	26.50
2011-01-21 12:00:00 23794 12 625.06 625.06 625.06 32.6 1055.60	59.2137913021	625.06	32.60	Partly_Cloudy(fair)	True	False	32.60
2011-01-21 13:00:00 23795 13 558.62 558.62 558.62 107.0 943.40	59.2137913021	558.62	107.00	Partly_Cloudy(cloudy)	True	False	107.00
2011-01-21 14:00:00 23796 14 453.40 453.40 453.40 117.7 765.70	59.2137913021	453.40	117.70	Partly_Cloudy(light_snow)	True	False	117.70
2011-01-21 15:00:00 23797 15 282.15 282.15 282.15 46.0 476.50	59.2137913021	282.15	46.00	Partly_Cloudy(cloudy)	True	False	46.00
2011-01-21 16:00:00 23798 16 59.93 59.93 59.93 11.2 123.20	48.6476190476	59.93	11.20	Partly_Cloudy(mostly_cloudy)	True	False	11.20
2011-01-21 17:00:00 23799 17 0.68 0.68 0.68 0.0 1.40	48.6476190476	0.68	0.00	Partly_Cloudy(mostly_cloudy)	True	False	0.00
2011-01-21 18:00:00 23800 18 0.00 0.00 0.00 0.0 0.00	82.2857142857	0.00	0.00	Clear(mostly_cloudy)	True	False	0.00
2011-01-21 19:00:00 23801 19 0.00 0.00 0.00 0.0 0.00	82.2857142857	0.00	0.00	Clear(fair)	True	False	0.00
2011-01-21 20:00:00 23802 20 0.00 0.00 0.00 0.0 0.00	82.2857142857	0.00	0.00	Clear(fair)	True	False	0.00
2011-01-21 21:00:00 23803 21 0.00 0.00 0.00 0.0 0.00	82.2857142857	0.00	0.00	Clear(fair)	True	False	0.00
2011-01-21 22:00:00 23804 22 0.00 0.00 0.00 0.0 0.00	82.2857142857	0.00	0.00	Clear(fair)	True	False	0.00
2011-01-21 23:00:00 23805 23 0.00 0.00 0.00 0.0 0.00	82.2857142857	0.00	0.00	Clear(fair)	True	False	0.00
2011-01-22 00:00:00 23806 0 0.00 0.00 0.00 0.0 0.00	82.2857142857	0.00	0.00	Clear(fair)	True	False	0.00
2011-01-22 01:00:00 23807 1 0.00 0.00 0.00 0.0 0.00	82.2857142857	0.00	0.00	Clear(fair)	True	False	0.00
2011-01-22 02:00:00 23808 2 0.00 0.00 0.00 0.0 0.00	82.2857142857	0.00	0.00	Clear(fair)	True	False	0.00
2011-01-22 03:00:00 23809 3 0.00 0.00 0.00 0.0 0.00	82.2857142857	0.00	0.00	Clear(fair)	True	False	0.00
2011-01-22 04:00:00 23810 4 0.00 0.00 0.00 0.0 0.00	82.2857142857	0.00	0.00	Clear(fair)	True	False	0.00
2011-01-22 05:00:00 23811 5 0.00 0.00 0.00 0.0 0.00	82.2857142857	0.00	0.00	Clear(fair)	True	False	0.00
2011-01-22 06:00:00 23812 6 0.00 0.00 0.00 0.0 0.00	82.2857142857	0.00	0.00	Clear(fair)	True	False	0.00
2011-01-22 07:00:00 23813 7 56.78 56.78 56.78 7.1 69.00	82.2857142857	56.78	7.10	Clear(fair)	True	False	7.10
2011-01-22 08:00:00 23814 8 349.96 349.96 349.96 60.9 425.30	82.2857142857	349.96	60.90	Sunny(fair)	True	False	60.90
2011-01-22 09:00:00 23815 9 365.15 365.15 365.15 135.7 750.60	48.6476190476	365.15	135.70	Partly_Cloudy(fair)	True	False	135.70
2011-01-22 10:00:00 23816 10 567.09 567.09 567.09 151.3 957.70	59.2137913021	567.09	151.30	Partly_Cloudy(fair)	True	False	151.30
2011-01-22 11:00:00 23817 11 621.74 621.74 621.74 151.0 1050.00	59.2137913021	621.74	151.00	Partly_Cloudy(fair)	True	False	151.00
2011-01-22 12:00:00 23818 12 449.48 449.48 449.48 174.7 1055.60	42.580952381	449.48	174.70	Mostly_Cloudy(fair)	True	False	174.70
2011-01-22 13:00:00 23819 13 401.71 401.71 401.71 143.0 943.40	42.580952381	401.71	143.00	Mostly_Cloudy(fair)	True	False	143.00
2011-01-22 14:00:00 23820 14 326.04 326.04 326.04 127.0 765.70	42.580952381	326.04	127.00	Mostly_Cloudy(fair)	True	False	127.00
2011-01-22 15:00:00 23821 15 121.93 121.93 121.93 82.7 476.50	25.5882976468	121.93	82.70	Cloudy(fair)	True	False	82.70
2011-01-22 16:00:00 23822 16 25.25 25.25 25.25 14.7 123.20	20.4952380952	25.25	14.70	Cloudy(fair)	True	False	14.70
2011-01-22 17:00:00 23823 17 0.29 0.29 0.29 0.0 1.40	20.4952380952	0.29	0.00	Cloudy(fair)	True	False	0.00
2011-01-22 18:00:00 23824 18 0.00 0.00 0.00 0.0 0.00	20.4952380952	0.00	0.00	Cloudy(fair)	True	False	0.00
2011-01-22 19:00:00 23825 19 0.00 0.00 0.00 0.0 0.00	20.4952380952	0.00	0.00	Cloudy(fair)	True	False	0.00
2011-01-22 20:00:00 23826 20 0.00 0.00 0.00 0.0 0.00	20.4952380952	0.00	0.00	Cloudy(fair)	True	False	0.00
2011-01-22 21:00:00 23827 21 0.00 0.00 0.00 0.0 0.00	35.0790126681	0.00	0.00	Mostly_Cloudy(fair)	True	False	0.00
2011-01-22 22:00:00 23828 22 0.00 0.00 0.00 0.0 0.00	35.0790126681	0.00	0.00	Mostly_Cloudy(fair)	True	False	0.00
2011-01-22 23:00:00 23829 23 0.00 0.00 0.00 0.0 0.00	35.0790126681	0.00	0.00	Mostly_Cloudy(fair)	True	False	0.00
