2011-01-09 04:00:00 10038 4 0.00 0.00 0.00 0.0 0.00	38.799775659	0.00	0.00	Cloudy(cloudy)	True	False	0.00
2011-01-09 05:00:00 10039 5 0.00 0.00 0.00 0.0 0.00	38.799775659	0.00	0.00	Cloudy(mostly_cloudy)	True	False	0.00
2011-01-09 06:00:00 10040 6 0.00 0.00 0.00 0.0 0.00	38.799775659	0.00	0.00	Cloudy/Wind(fair)	True	False	0.00
2011-01-09 07:00:00 10041 7 18.59 18.59 18.59 0.0 38.80	47.9166666667	18.59	0.00	Mostly_Cloudy/Wind(fair)	True	False	0.00
2011-01-09 08:00:00 10042 8 167.66 167.66 167.66 14.6 349.90	47.9166666667	167.66	14.60	Mostly_Cloudy/Wind(fair)	True	False	14.60
2011-01-09 09:00:00 10043 9 350.60 350.60 350.60 45.2 668.20	52.469197636	350.60	45.20	Partly_Cloudy(fair)	True	False	45.20
2011-01-09 10:00:00 10044 10 566.50 566.50 566.50 74.7 891.50	63.5443037975	566.50	74.70	Partly_Cloudy(fair)	True	False	74.70
2011-01-09 11:00:00 10045 11 613.58 613.58 613.58 102.6 965.60	63.5443037975	613.58	102.60	Partly_Cloudy(mostly_cloudy)	True	False	102.60
2011-01-09 12:00:00 10046 12 634.36 634.36 634.36 233.6 998.30	63.5443037975	634.36	233.60	Partly_Cloudy(mostly_cloudy)	True	False	233.60
2011-01-09 13:00:00 10047 13 549.02 549.02 549.02 388.4 864.00	63.5443037975	549.02	388.40	Partly_Cloudy(fair)	True	False	388.40
2011-01-09 14:00:00 10048 14 426.70 426.70 426.70 391.8 671.50	63.5443037975	426.70	391.80	Partly_Cloudy(mostly_cloudy)	True	False	391.80
2011-01-09 15:00:00 10049 15 225.01 225.01 225.01 188.8 354.10	63.5443037975	225.01	188.80	Mostly_Sunny(fair)	False	False	188.80
2011-01-09 16:00:00 10050 16 35.27 35.27 35.27 15.7 55.50	63.5443037975	35.27	15.70	Mostly_Sunny(fair)	False	False	15.70
2011-01-09 17:00:00 10051 17 0.00 0.00 0.00 0.0 0.00	63.5443037975	0.00	0.00	Mostly_Clear(fair)	False	False	0.00
2011-01-09 18:00:00 10052 18 0.00 0.00 0.00 0.0 0.00	89.0245718541	0.00	0.00	Clear(fair)	True	False	0.00
2011-01-09 19:00:00 10053 19 0.00 0.00 0.00 0.0 0.00	89.0245718541	0.00	0.00	Clear(fair)	True	False	0.00
2011-01-09 20:00:00 10054 20 0.00 0.00 0.00 0.0 0.00	89.0245718541	0.00	0.00	Clear(fair)	True	False	0.00
2011-01-09 21:00:00 10055 21 0.00 0.00 0.00 0.0 0.00	89.0245718541	0.00	0.00	Clear(fair)	True	False	0.00
2011-01-09 22:00:00 10056 22 0.00 0.00 0.00 0.0 0.00	89.0245718541	0.00	0.00	Clear(fair)	True	False	0.00
2011-01-09 23:00:00 10057 23 0.00 0.00 0.00 0.0 0.00	89.0245718541	0.00	0.00	Clear(fair)	True	False	0.00
2011-01-10 00:00:00 10058 0 0.00 0.00 0.00 0.0 0.00	89.0245718541	0.00	0.00	Clear(fair)	True	False	0.00
2011-01-10 01:00:00 10059 1 0.00 0.00 0.00 0.0 0.00	89.0245718541	0.00	0.00	Clear(fair)	True	False	0.00
2011-01-10 02:00:00 10060 2 0.00 0.00 0.00 0.0 0.00	89.0245718541	0.00	0.00	Clear(fair)	True	False	0.00
2011-01-10 03:00:00 10061 3 0.00 0.00 0.00 0.0 0.00	89.0245718541	0.00	0.00	Clear(fair)	True	False	0.00
2011-01-10 04:00:00 10062 4 0.00 0.00 0.00 0.0 0.00	89.0245718541	0.00	0.00	Clear(fair)	True	False	0.00
2011-01-10 05:00:00 10063 5 0.00 0.00 0.00 0.0 0.00	89.0245718541	0.00	0.00	Clear(fair)	True	False	0.00
2011-01-10 06:00:00 10064 6 0.00 0.00 0.00 0.0 0.00	89.0245718541	0.00	0.00	Clear(fair)	True	False	0.00
2011-01-10 07:00:00 10065 7 34.54 34.54 34.54 17.5 38.80	89.0245718541	34.54	17.50	Clear(fair)	True	False	17.50
2011-01-10 08:00:00 10066 8 311.50 311.50 311.50 237.8 349.90	89.0245718541	311.50	237.80	Sunny(fair)	True	False	237.80
2011-01-10 09:00:00 10067 9 594.86 594.86 594.86 483.0 668.20	89.0245718541	594.86	483.00	Sunny(fair)	True	False	483.00
2011-01-10 10:00:00 10068 10 815.68 815.68 815.68 743.8 891.50	91.4955424221	815.68	743.80	Sunny(fair)	True	False	743.80
2011-01-10 11:00:00 10069 11 883.48 883.48 883.48 870.3 965.60	91.4955424221	883.48	870.30	Sunny(fair)	True	False	870.30
2011-01-10 12:00:00 10070 12 913.40 913.40 913.40 690.9 998.30	91.4955424221	913.40	690.90	Sunny(fair)	True	False	690.90
2011-01-10 13:00:00 10071 13 790.52 790.52 790.52 590.6 864.00	91.4955424221	790.52	590.60	Sunny(fair)	True	False	590.60
2011-01-10 14:00:00 10072 14 614.39 614.39 614.39 324.0 671.50	91.4955424221	614.39	324.00	Sunny(fair)	True	False	324.00
2011-01-10 15:00:00 10073 15 323.99 323.99 323.99 148.2 354.10	91.4955424221	323.99	148.20	Sunny(fair)	True	False	148.20
2011-01-10 16:00:00 10074 16 49.41 49.41 49.41 21.5 55.50	89.0245718541	49.41	21.50	Sunny(fair)	True	False	21.50
2011-01-10 17:00:00 10075 17 0.00 0.00 0.00 0.0 0.00	89.0245718541	0.00	0.00	Clear(fair)	True	False	0.00
2011-01-10 18:00:00 10076 18 0.00 0.00 0.00 0.0 0.00	89.0245718541	0.00	0.00	Clear(fair)	True	False	0.00
2011-01-10 19:00:00 10077 19 0.00 0.00 0.00 0.0 0.00	89.0245718541	0.00	0.00	Clear(Unkown)	True	False	0.00
2011-01-10 20:00:00 10078 20 0.00 0.00 0.00 0.0 0.00	89.0245718541	0.00	0.00	Clear(fair)	True	False	0.00
2011-01-10 21:00:00 10079 21 0.00 0.00 0.00 0.0 0.00	89.0245718541	0.00	0.00	Clear(fair)	True	False	0.00
2011-01-10 22:00:00 10080 22 0.00 0.00 0.00 0.0 0.00	89.0245718541	0.00	0.00	Clear(fair)	True	False	0.00
2011-01-10 23:00:00 10081 23 0.00 0.00 0.00 0.0 0.00	89.0245718541	0.00	0.00	Clear(fair)	True	False	0.00
2011-01-11 00:00:00 10082 0 0.00 0.00 0.00 0.0 0.00	89.0245718541	0.00	0.00	Mostly_Clear(fair)	False	False	0.00
2011-01-11 01:00:00 10083 1 0.00 0.00 0.00 0.0 0.00	89.0245718541	0.00	0.00	Mostly_Clear(fair)	False	False	0.00
2011-01-11 02:00:00 10084 2 0.00 0.00 0.00 0.0 0.00	89.0245718541	0.00	0.00	Mostly_Clear(fair)	False	False	0.00
2011-01-11 03:00:00 10085 3 0.00 0.00 0.00 0.0 0.00	52.469197636	0.00	0.00	Partly_Cloudy(fair)	True	False	0.00
2011-01-11 04:00:00 10086 4 0.00 0.00 0.00 0.0 0.00	52.469197636	0.00	0.00	Partly_Cloudy(fair)	True	False	0.00
