2011-01-17 10:00:00 19638 10 531.64 531.64 531.64 234.9 891.50	59.6343548599	531.64	234.90	Partly_Cloudy(cloudy)	True	False	234.90
2011-01-17 11:00:00 19639 11 267.92 267.92 315.08 283.9 1016.80	30.9874888293	315.08	283.90	Cloudy(cloudy)	True	False	283.90
2011-01-17 12:00:00 19640 12 612.86 270.79 612.86 323.3 1027.70	59.6343548599	612.86	323.30	Partly_Cloudy(cloudy)	True	False	323.30
2011-01-17 13:00:00 19641 13 549.41 242.75 549.41 195.9 921.30	59.6343548599	549.41	195.90	Partly_Cloudy(cloudy)	True	False	195.90
2011-01-17 14:00:00 19642 14 453.40 200.33 453.40 111.7 760.30	59.6343548599	453.40	111.70	Partly_Cloudy(cloudy)	True	False	111.70
2011-01-17 15:00:00 19643 15 266.92 117.94 266.92 40.8 447.60	59.6343548599	266.92	40.80	Partly_Cloudy(cloudy)	True	False	40.80
2011-01-17 16:00:00 19644 16 51.94 26.85 51.94 4.6 101.90	50.9681813759	51.94	4.60	Partly_Cloudy(cloudy)	True	False	4.60
2011-01-17 17:00:00 19645 17 0.51 0.26 0.51 0.0 1.00	50.9681813759	0.51	0.00	Partly_Cloudy(cloudy)	True	False	0.00
2011-01-17 18:00:00 19646 18 0.00 0.00 0.00 0.0 0.00	30.9590577678	0.00	0.00	Mostly_Cloudy(cloudy)	True	False	0.00
2011-01-17 19:00:00 19647 19 0.00 0.00 0.00 0.0 0.00	30.9590577678	0.00	0.00	Mostly_Cloudy(cloudy)	True	False	0.00
2011-01-17 20:00:00 19648 20 0.00 0.00 0.00 0.0 0.00	30.9590577678	0.00	0.00	Mostly_Cloudy(cloudy)	True	False	0.00
2011-01-17 21:00:00 19649 21 0.00 0.00 0.00 0.0 0.00	4.71116096467	0.00	0.00	Few_Snow_Showers(cloudy)	True	False	0.00
2011-01-17 22:00:00 19650 22 0.00 0.00 0.00 0.0 0.00	4.71116096467	0.00	0.00	Few_Snow_Showers(cloudy)	True	False	0.00
2011-01-17 23:00:00 19651 23 0.00 0.00 0.00 0.0 0.00	4.71116096467	0.00	0.00	Few_Snow_Showers(light_snow)	True	False	0.00
2011-01-18 00:00:00 19652 0 0.00 0.00 0.00 0.0 0.00	20.0578718927	0.00	0.00	Snow_Shower(light_snow)	True	False	0.00
2011-01-18 01:00:00 19653 1 0.00 0.00 0.00 0.0 0.00	20.0578718927	0.00	0.00	Snow_Shower(light_snow)	True	False	0.00
2011-01-18 02:00:00 19654 2 0.00 0.00 0.00 0.0 0.00	20.0578718927	0.00	0.00	Snow_Shower(light_snow)	True	False	0.00
2011-01-18 03:00:00 19655 3 0.00 0.00 0.00 0.0 0.00	20.0578718927	0.00	0.00	Snow(snow)	True	False	0.00
2011-01-18 04:00:00 19656 4 0.00 0.00 0.00 0.0 0.00	20.0578718927	0.00	0.00	Snow(light_freezing_rain)	True	False	0.00
2011-01-18 05:00:00 19657 5 0.00 0.00 0.00 0.0 0.00	20.0578718927	0.00	0.00	Snow(light_freezing_rain)	True	False	0.00
2011-01-18 06:00:00 19658 6 0.00 0.00 0.00 0.0 0.00	3.97676496872	0.00	0.00	Wintry_Mix(light_freezing_rain)	True	False	0.00
2011-01-18 07:00:00 19659 7 1.97 1.97 1.97 0.0 49.60	3.97676496872	1.97	0.00	Wintry_Mix(light_freezing_rain)	True	False	0.00
2011-01-18 08:00:00 19660 8 15.58 15.58 15.58 0.0 391.80	3.97676496872	15.58	0.00	Wintry_Mix(light_freezing_rain)	True	False	0.00
2011-01-18 09:00:00 19661 9 27.72 27.72 27.72 4.5 697.00	3.97676496872	27.72	4.50	Rain(light_freezing_rain)	True	False	4.50
2011-01-18 10:00:00 19662 10 35.45 35.45 35.45 16.6 891.50	3.97676496872	35.45	16.60	Rain(light_freezing_rain)	True	False	16.60
2011-01-18 11:00:00 19663 11 40.44 40.44 40.44 26.2 1016.80	3.97676496872	40.44	26.20	Rain(light_rain)	True	False	26.20
2011-01-18 12:00:00 19664 12 40.87 40.87 40.87 49.4 1027.70	3.97676496872	40.87	49.40	Rain(light_rain)	True	False	49.40
2011-01-18 13:00:00 19665 13 36.64 36.64 36.64 73.3 921.30	3.97676496872	36.64	73.30	Rain(cloudy)	True	False	73.30
2011-01-18 14:00:00 19666 14 30.24 30.24 30.24 76.2 760.30	3.97676496872	30.24	76.20	Rain(light_rain)	True	False	76.20
2011-01-18 15:00:00 19667 15 17.80 17.80 17.80 42.7 447.60	3.97676496872	17.80	42.70	Showers(light_rain)	True	False	42.70
2011-01-18 16:00:00 19668 16 4.05 4.05 4.05 9.2 101.90	3.97676496872	4.05	9.20	Showers(cloudy)	True	False	9.20
2011-01-18 17:00:00 19669 17 0.04 0.04 0.04 0.0 1.00	3.97676496872	0.04	0.00	Showers(cloudy)	True	False	0.00
2011-01-18 18:00:00 19670 18 0.00 0.00 0.00 0.0 0.00	3.97676496872	0.00	0.00	Showers(cloudy)	True	False	0.00
2011-01-18 19:00:00 19671 19 0.00 0.00 0.00 0.0 0.00	3.97676496872	0.00	0.00	Showers(cloudy)	True	False	0.00
2011-01-18 20:00:00 19672 20 0.00 0.00 0.00 0.0 0.00	3.97676496872	0.00	0.00	Showers(cloudy)	True	False	0.00
2011-01-18 21:00:00 19673 21 0.00 0.00 0.00 0.0 0.00	3.97676496872	0.00	0.00	Showers(cloudy)	True	False	0.00
2011-01-18 22:00:00 19674 22 0.00 0.00 0.00 0.0 0.00	3.97676496872	0.00	0.00	Showers(cloudy)	True	False	0.00
2011-01-18 23:00:00 19675 23 0.00 0.00 0.00 0.0 0.00	3.97676496872	0.00	0.00	Showers(cloudy)	True	False	0.00
2011-01-19 00:00:00 19676 0 0.00 0.00 0.00 0.0 0.00	3.97676496872	0.00	0.00	Showers(mostly_cloudy)	True	False	0.00
2011-01-19 01:00:00 19677 1 0.00 0.00 0.00 0.0 0.00	3.97676496872	0.00	0.00	Showers(fair)	True	False	0.00
2011-01-19 02:00:00 19678 2 0.00 0.00 0.00 0.0 0.00	3.97676496872	0.00	0.00	Showers(partly_cloudy)	True	False	0.00
2011-01-19 03:00:00 19679 3 0.00 0.00 0.00 0.0 0.00	4.71116096467	0.00	0.00	Rain_/_Snow_Showers(mostly_cloudy)	True	False	0.00
2011-01-19 04:00:00 19680 4 0.00 0.00 0.00 0.0 0.00	4.71116096467	0.00	0.00	Rain_/_Snow_Showers(light_rain)	True	False	0.00
2011-01-19 05:00:00 19681 5 0.00 0.00 0.00 0.0 0.00	4.71116096467	0.00	0.00	Rain_/_Snow_Showers(light_rain)	True	False	0.00
2011-01-19 06:00:00 19682 6 0.00 0.00 0.00 0.0 0.00	4.71116096467	0.00	0.00	Rain_/_Snow_Showers(fog)	True	False	0.00
2011-01-19 07:00:00 19683 7 2.34 2.34 2.34 0.5 49.60	4.71116096467	2.34	0.50	Rain_/_Snow_Showers(cloudy)	True	False	0.50
2011-01-19 08:00:00 19684 8 18.46 18.46 18.46 28.1 391.80	4.71116096467	18.46	28.10	Rain_/_Snow_Showers(fog)	True	False	28.10
2011-01-19 09:00:00 19685 9 27.72 27.72 27.72 122.9 697.00	3.97676496872	27.72	122.90	Showers(cloudy)	True	False	122.90
2011-01-19 10:00:00 19686 10 35.45 35.45 35.45 384.8 891.50	3.97676496872	35.45	384.80	Showers(cloudy)	True	False	384.80
