2011-01-09 18:00:00 10723 18 0.00 0.00 0.00 0.0 0.00	91.4955424221	0.00	0.00	Mostly_Clear(fair)	False	False	0.00
2011-01-09 19:00:00 10724 19 0.00 0.00 0.00 0.0 0.00	89.0245718541	0.00	0.00	Clear/Wind(fair)	True	False	0.00
2011-01-09 20:00:00 10725 20 0.00 0.00 0.00 0.0 0.00	89.0245718541	0.00	0.00	Clear/Wind(fair)	True	False	0.00
2011-01-09 21:00:00 10726 21 0.00 0.00 0.00 0.0 0.00	89.0245718541	0.00	0.00	Clear/Wind(fair)	True	False	0.00
2011-01-09 22:00:00 10727 22 0.00 0.00 0.00 0.0 0.00	89.0245718541	0.00	0.00	Clear/Wind(fair)	True	False	0.00
2011-01-09 23:00:00 10728 23 0.00 0.00 0.00 0.0 0.00	89.0245718541	0.00	0.00	Clear/Wind(fair)	True	False	0.00
2011-01-10 00:00:00 10729 0 0.00 0.00 0.00 0.0 0.00	89.0245718541	0.00	0.00	Clear(fair)	True	False	0.00
2011-01-10 01:00:00 10730 1 0.00 0.00 0.00 0.0 0.00	89.0245718541	0.00	0.00	Clear(fair)	True	False	0.00
2011-01-10 02:00:00 10731 2 0.00 0.00 0.00 0.0 0.00	89.0245718541	0.00	0.00	Clear(fair)	True	False	0.00
2011-01-10 03:00:00 10732 3 0.00 0.00 0.00 0.0 0.00	89.0245718541	0.00	0.00	Clear(fair)	True	False	0.00
2011-01-10 04:00:00 10733 4 0.00 0.00 0.00 0.0 0.00	89.0245718541	0.00	0.00	Clear(fair)	True	False	0.00
2011-01-10 05:00:00 10734 5 0.00 0.00 0.00 0.0 0.00	89.0245718541	0.00	0.00	Clear(fair)	True	False	0.00
2011-01-10 06:00:00 10735 6 0.00 0.00 0.00 0.0 0.00	89.0245718541	0.00	0.00	Clear(fair)	True	False	0.00
2011-01-10 07:00:00 10736 7 34.54 34.54 34.54 17.5 38.80	89.0245718541	34.54	17.50	Clear(fair)	True	False	17.50
2011-01-10 08:00:00 10737 8 311.50 311.50 311.50 237.8 349.90	89.0245718541	311.50	237.80	Sunny(fair)	True	False	237.80
2011-01-10 09:00:00 10738 9 594.86 594.86 594.86 483.0 668.20	89.0245718541	594.86	483.00	Sunny(fair)	True	False	483.00
2011-01-10 10:00:00 10739 10 815.68 815.68 815.68 743.8 891.50	91.4955424221	815.68	743.80	Sunny(fair)	True	False	743.80
2011-01-10 11:00:00 10740 11 883.48 883.48 883.48 870.3 965.60	91.4955424221	883.48	870.30	Sunny(fair)	True	False	870.30
2011-01-10 12:00:00 10741 12 913.40 913.40 913.40 690.9 998.30	91.4955424221	913.40	690.90	Sunny(fair)	True	False	690.90
2011-01-10 13:00:00 10742 13 790.52 790.52 790.52 590.6 864.00	91.4955424221	790.52	590.60	Sunny(fair)	True	False	590.60
2011-01-10 14:00:00 10743 14 614.39 614.39 614.39 324.0 671.50	91.4955424221	614.39	324.00	Sunny(fair)	True	False	324.00
2011-01-10 15:00:00 10744 15 323.99 323.99 323.99 148.2 354.10	91.4955424221	323.99	148.20	Sunny(fair)	True	False	148.20
2011-01-10 16:00:00 10745 16 49.41 49.41 49.41 21.5 55.50	89.0245718541	49.41	21.50	Sunny(fair)	True	False	21.50
2011-01-10 17:00:00 10746 17 0.00 0.00 0.00 0.0 0.00	89.0245718541	0.00	0.00	Clear(fair)	True	False	0.00
2011-01-10 18:00:00 10747 18 0.00 0.00 0.00 0.0 0.00	89.0245718541	0.00	0.00	Mostly_Clear(fair)	False	False	0.00
2011-01-10 19:00:00 10748 19 0.00 0.00 0.00 0.0 0.00	89.0245718541	0.00	0.00	Mostly_Clear(Unkown)	False	False	0.00
2011-01-10 20:00:00 10749 20 0.00 0.00 0.00 0.0 0.00	89.0245718541	0.00	0.00	Mostly_Clear(fair)	False	False	0.00
2011-01-10 21:00:00 10750 21 0.00 0.00 0.00 0.0 0.00	52.469197636	0.00	0.00	Partly_Cloudy(fair)	True	False	0.00
2011-01-10 22:00:00 10751 22 0.00 0.00 0.00 0.0 0.00	52.469197636	0.00	0.00	Partly_Cloudy(fair)	True	False	0.00
2011-01-10 23:00:00 10752 23 0.00 0.00 0.00 0.0 0.00	52.469197636	0.00	0.00	Partly_Cloudy(fair)	True	False	0.00
2011-01-11 00:00:00 10753 0 0.00 0.00 0.00 0.0 0.00	52.469197636	0.00	0.00	Partly_Cloudy(fair)	True	False	0.00
2011-01-11 01:00:00 10754 1 0.00 0.00 0.00 0.0 0.00	52.469197636	0.00	0.00	Partly_Cloudy(fair)	True	False	0.00
2011-01-11 02:00:00 10755 2 0.00 0.00 0.00 0.0 0.00	52.469197636	0.00	0.00	Partly_Cloudy(fair)	True	False	0.00
2011-01-11 03:00:00 10756 3 0.00 0.00 0.00 0.0 0.00	52.469197636	0.00	0.00	Partly_Cloudy(fair)	True	False	0.00
2011-01-11 04:00:00 10757 4 0.00 0.00 0.00 0.0 0.00	52.469197636	0.00	0.00	Partly_Cloudy(fair)	True	False	0.00
2011-01-11 05:00:00 10758 5 0.00 0.00 0.00 0.0 0.00	52.469197636	0.00	0.00	Partly_Cloudy(fair)	True	False	0.00
2011-01-11 06:00:00 10759 6 0.00 0.00 0.00 0.0 0.00	52.469197636	0.00	0.00	Partly_Cloudy(fair)	True	False	0.00
2011-01-11 07:00:00 10760 7 20.36 20.36 20.36 31.8 38.80	52.469197636	20.36	31.80	Partly_Cloudy(fair)	True	False	31.80
2011-01-11 08:00:00 10761 8 183.59 183.59 183.59 269.7 349.90	52.469197636	183.59	269.70	Partly_Cloudy(mostly_cloudy)	True	False	269.70
2011-01-11 09:00:00 10762 9 320.18 320.18 320.18 184.6 668.20	47.9166666667	320.18	184.60	Mostly_Cloudy(fair)	True	False	184.60
2011-01-11 10:00:00 10763 10 496.83 496.83 496.83 239.2 891.50	55.7291666667	496.83	239.20	Mostly_Cloudy(fair)	True	False	239.20
2011-01-11 11:00:00 10764 11 538.12 538.12 538.12 348.4 965.60	55.7291666667	538.12	348.40	Mostly_Cloudy(fair)	True	False	348.40
2011-01-11 12:00:00 10765 12 556.34 556.34 556.34 364.9 998.30	55.7291666667	556.34	364.90	Mostly_Cloudy(fair)	True	False	364.90
2011-01-11 13:00:00 10766 13 481.50 481.50 481.50 376.5 864.00	55.7291666667	481.50	376.50	Mostly_Cloudy(partly_cloudy)	True	False	376.50
2011-01-11 14:00:00 10767 14 374.22 374.22 374.22 223.3 671.50	55.7291666667	374.22	223.30	Mostly_Cloudy(partly_cloudy)	True	False	223.30
2011-01-11 15:00:00 10768 15 138.70 138.70 138.70 141.7 354.10	39.1697260661	138.70	141.70	Cloudy(partly_cloudy)	True	False	141.70
2011-01-11 16:00:00 10769 16 21.53 21.53 21.53 10.5 55.50	38.799775659	21.53	10.50	Cloudy(mostly_cloudy)	True	False	10.50
2011-01-11 17:00:00 10770 17 0.00 0.00 0.00 0.0 0.00	38.799775659	0.00	0.00	Cloudy(cloudy)	True	False	0.00
2011-01-11 18:00:00 10771 18 0.00 0.00 0.00 0.0 0.00	38.799775659	0.00	0.00	Cloudy(cloudy)	True	False	0.00
