2011-02-02 18:00:00 38533 18 0.00 0.00 0.00 0.0 0.00	17.6777696565	0.00	0.00	Cloudy(partly_cloudy)	True	False	0.00
2011-02-02 19:00:00 38534 19 0.00 0.00 0.00 0.0 0.00	24.0877742947	0.00	0.00	Mostly_Cloudy(fair)	True	False	0.00
2011-02-02 20:00:00 38535 20 0.00 0.00 0.00 0.0 0.00	24.0877742947	0.00	0.00	Mostly_Cloudy(fair)	True	False	0.00
2011-02-02 21:00:00 38536 21 0.00 0.00 0.00 0.0 0.00	24.0877742947	0.00	0.00	Mostly_Clear(partly_cloudy)	False	False	0.00
2011-02-02 22:00:00 38537 22 0.00 0.00 0.00 0.0 0.00	24.0877742947	0.00	0.00	Mostly_Clear(fair)	False	False	0.00
2011-02-02 23:00:00 38538 23 0.00 0.00 0.00 0.0 0.00	74.1764080765	0.00	0.00	Clear(cloudy)	True	False	0.00
2011-02-03 00:00:00 38539 0 0.00 0.00 0.00 0.0 0.00	74.1764080765	0.00	0.00	Clear(cloudy)	True	False	0.00
2011-02-03 01:00:00 38540 1 0.00 0.00 0.00 0.0 0.00	74.1764080765	0.00	0.00	Clear(cloudy)	True	False	0.00
2011-02-03 02:00:00 38541 2 0.00 0.00 0.00 0.0 0.00	74.1764080765	0.00	0.00	Clear(cloudy)	True	False	0.00
2011-02-03 03:00:00 38542 3 0.00 0.00 0.00 0.0 0.00	74.1764080765	0.00	0.00	Mostly_Clear(cloudy)	False	False	0.00
2011-02-03 04:00:00 38543 4 0.00 0.00 0.00 0.0 0.00	74.1764080765	0.00	0.00	Mostly_Clear(cloudy)	False	False	0.00
2011-02-03 05:00:00 38544 5 0.00 0.00 0.00 0.0 0.00	74.1764080765	0.00	0.00	Mostly_Clear(cloudy)	False	False	0.00
2011-02-03 06:00:00 38545 6 0.00 0.00 0.00 0.0 0.00	74.1764080765	0.00	0.00	Mostly_Clear(mostly_cloudy)	False	False	0.00
2011-02-03 07:00:00 38546 7 69.80 69.80 69.80 12.7 94.10	74.1764080765	69.80	12.70	Mostly_Clear(Unkown)	False	False	12.70
2011-02-03 08:00:00 38547 8 325.93 325.93 325.93 128.9 439.40	74.1764080765	325.93	128.90	Mostly_Sunny(Unkown)	False	False	128.90
2011-02-03 09:00:00 38548 9 556.77 556.77 556.77 451.1 750.60	74.1764080765	556.77	451.10	Mostly_Sunny(cloudy)	False	False	451.10
2011-02-03 10:00:00 38549 10 710.39 710.39 710.39 600.0 957.70	74.1764080765	710.39	600.00	Mostly_Sunny(fair)	False	False	600.00
2011-02-03 11:00:00 38550 11 778.85 778.85 778.85 674.2 1050.00	74.1764080765	778.85	674.20	Mostly_Sunny(fair)	False	False	674.20
2011-02-03 12:00:00 38551 12 786.27 786.27 786.27 698.0 1060.00	74.1764080765	786.27	698.00	Mostly_Sunny(fair)	False	False	698.00
2011-02-03 13:00:00 38552 13 716.99 716.99 716.99 636.9 966.60	74.1764080765	716.99	636.90	Mostly_Sunny(fair)	False	False	636.90
2011-02-03 14:00:00 38553 14 591.56 591.56 591.56 516.0 797.50	74.1764080765	591.56	516.00	Mostly_Sunny(fair)	False	False	516.00
2011-02-03 15:00:00 38554 15 381.86 381.86 381.86 323.0 514.80	74.1764080765	381.86	323.00	Mostly_Sunny(fair)	False	False	323.00
2011-02-03 16:00:00 38555 16 114.01 114.01 114.01 86.5 153.70	74.1764080765	114.01	86.50	Mostly_Sunny(fair)	False	False	86.50
2011-02-03 17:00:00 38556 17 3.12 3.12 3.12 0.5 4.20	74.1764080765	3.12	0.50	Mostly_Sunny(fair)	False	False	0.50
2011-02-03 18:00:00 38557 18 0.00 0.00 0.00 0.0 0.00	74.1764080765	0.00	0.00	Clear(fair)	True	False	0.00
2011-02-03 19:00:00 38558 19 0.00 0.00 0.00 0.0 0.00	74.1764080765	0.00	0.00	Clear(fair)	True	False	0.00
2011-02-03 20:00:00 38559 20 0.00 0.00 0.00 0.0 0.00	74.1764080765	0.00	0.00	Clear(fair)	True	False	0.00
2011-02-03 21:00:00 38560 21 0.00 0.00 0.00 0.0 0.00	74.1764080765	0.00	0.00	Clear(fair)	True	False	0.00
2011-02-03 22:00:00 38561 22 0.00 0.00 0.00 0.0 0.00	74.1764080765	0.00	0.00	Clear(fair)	True	False	0.00
2011-02-03 23:00:00 38562 23 0.00 0.00 0.00 0.0 0.00	74.1764080765	0.00	0.00	Clear(fair)	True	False	0.00
2011-02-04 00:00:00 38563 0 0.00 0.00 0.00 0.0 0.00	74.1764080765	0.00	0.00	Clear(fair)	True	False	0.00
2011-02-04 01:00:00 38564 1 0.00 0.00 0.00 0.0 0.00	74.1764080765	0.00	0.00	Clear(fair)	True	False	0.00
2011-02-04 02:00:00 38565 2 0.00 0.00 0.00 0.0 0.00	74.1764080765	0.00	0.00	Clear(fair)	True	False	0.00
2011-02-04 03:00:00 38566 3 0.00 0.00 0.00 0.0 0.00	43.8894792774	0.00	0.00	Partly_Cloudy(fair)	True	False	0.00
2011-02-04 04:00:00 38567 4 0.00 0.00 0.00 0.0 0.00	43.8894792774	0.00	0.00	Partly_Cloudy(fair)	True	False	0.00
2011-02-04 05:00:00 38568 5 0.00 0.00 0.00 0.0 0.00	43.8894792774	0.00	0.00	Partly_Cloudy(fair)	True	False	0.00
2011-02-04 06:00:00 38569 6 0.00 0.00 0.00 0.0 0.00	43.8894792774	0.00	0.00	Partly_Cloudy(fair)	True	False	0.00
2011-02-04 07:00:00 38570 7 41.30 41.30 41.30 17.3 94.10	43.8894792774	41.30	17.30	Partly_Cloudy(fair)	True	False	17.30
2011-02-04 08:00:00 38571 8 192.85 192.85 192.85 131.0 439.40	43.8894792774	192.85	131.00	Partly_Cloudy(fair)	True	False	131.00
2011-02-04 09:00:00 38572 9 556.77 556.77 556.77 263.7 750.60	74.1764080765	556.77	263.70	Sunny(fair)	True	False	263.70
2011-02-04 10:00:00 38573 10 806.30 806.30 806.30 334.7 957.70	84.1912916362	806.30	334.70	Sunny(fair)	True	False	334.70
2011-02-04 11:00:00 38574 11 884.01 884.01 884.01 413.7 1050.00	84.1912916362	884.01	413.70	Sunny(fair)	True	False	413.70
2011-02-04 12:00:00 38575 12 892.43 892.43 892.43 402.5 1060.00	84.1912916362	892.43	402.50	Sunny(fair)	True	False	402.50
2011-02-04 13:00:00 38576 13 813.79 813.79 813.79 316.4 966.60	84.1912916362	813.79	316.40	Sunny(fair)	True	False	316.40
2011-02-04 14:00:00 38577 14 671.43 671.43 671.43 336.5 797.50	84.1912916362	671.43	336.50	Sunny(fair)	True	False	336.50
2011-02-04 15:00:00 38578 15 433.42 433.42 433.42 175.7 514.80	84.1912916362	433.42	175.70	Sunny(fair)	True	False	175.70
2011-02-04 16:00:00 38579 16 114.01 114.01 114.01 47.4 153.70	74.1764080765	114.01	47.40	Sunny(fair)	True	False	47.40
2011-02-04 17:00:00 38580 17 3.12 3.12 3.12 0.3 4.20	74.1764080765	3.12	0.30	Sunny(fair)	True	False	0.30
2011-02-04 18:00:00 38581 18 0.00 0.00 0.00 0.0 0.00	43.8894792774	0.00	0.00	Partly_Cloudy(fair)	True	False	0.00
