2011-02-03 05:00:00 39067 5 0.00 0.00 0.00 0.0 0.00	24.0877742947	0.00	0.00	Mostly_Cloudy(cloudy)	True	False	0.00
2011-02-03 06:00:00 39068 6 0.00 0.00 0.00 0.0 0.00	24.0877742947	0.00	0.00	Mostly_Cloudy(mostly_cloudy)	True	False	0.00
2011-02-03 07:00:00 39069 7 40.59 40.59 40.59 12.7 94.10	43.1359791802	40.59	12.70	Partly_Cloudy(Unkown)	True	False	12.70
2011-02-03 08:00:00 39070 8 189.54 189.54 189.54 128.9 439.40	43.1359791802	189.54	128.90	Mostly_Sunny(Unkown)	False	False	128.90
2011-02-03 09:00:00 39071 9 323.78 323.78 323.78 451.1 750.60	43.1359791802	323.78	451.10	Mostly_Sunny(cloudy)	False	False	451.10
2011-02-03 10:00:00 39072 10 413.11 413.11 413.11 600.0 957.70	43.1359791802	413.11	600.00	Mostly_Sunny(fair)	False	False	600.00
2011-02-03 11:00:00 39073 11 452.93 452.93 452.93 674.2 1050.00	43.1359791802	452.93	674.20	Mostly_Sunny(fair)	False	False	674.20
2011-02-03 12:00:00 39074 12 552.00 552.00 552.00 698.0 1060.00	52.0752351097	552.00	698.00	Partly_Cloudy(fair)	True	False	698.00
2011-02-03 13:00:00 39075 13 503.36 503.36 503.36 636.9 966.60	52.0752351097	503.36	636.90	Partly_Cloudy(fair)	True	False	636.90
2011-02-03 14:00:00 39076 14 415.30 415.30 415.30 516.0 797.50	52.0752351097	415.30	516.00	Partly_Cloudy(fair)	True	False	516.00
2011-02-03 15:00:00 39077 15 268.08 268.08 268.08 323.0 514.80	52.0752351097	268.08	323.00	Mostly_Sunny(fair)	False	False	323.00
2011-02-03 16:00:00 39078 16 80.04 80.04 80.04 86.5 153.70	52.0752351097	80.04	86.50	Mostly_Sunny(fair)	False	False	86.50
2011-02-03 17:00:00 39079 17 2.45 2.45 2.45 0.5 4.70	52.0752351097	2.45	0.50	Mostly_Sunny(fair)	False	False	0.50
2011-02-03 18:00:00 39080 18 0.00 0.00 0.00 0.0 0.00	73.8432601881	0.00	0.00	Clear(fair)	True	False	0.00
2011-02-03 19:00:00 39081 19 0.00 0.00 0.00 0.0 0.00	73.8432601881	0.00	0.00	Clear(fair)	True	False	0.00
2011-02-03 20:00:00 39082 20 0.00 0.00 0.00 0.0 0.00	73.8432601881	0.00	0.00	Clear(fair)	True	False	0.00
2011-02-03 21:00:00 39083 21 0.00 0.00 0.00 0.0 0.00	73.8432601881	0.00	0.00	Clear(fair)	True	False	0.00
2011-02-03 22:00:00 39084 22 0.00 0.00 0.00 0.0 0.00	73.8432601881	0.00	0.00	Clear(fair)	True	False	0.00
2011-02-03 23:00:00 39085 23 0.00 0.00 0.00 0.0 0.00	73.8432601881	0.00	0.00	Clear(fair)	True	False	0.00
2011-02-04 00:00:00 39086 0 0.00 0.00 0.00 0.0 0.00	73.8432601881	0.00	0.00	Mostly_Clear(fair)	False	False	0.00
2011-02-04 01:00:00 39087 1 0.00 0.00 0.00 0.0 0.00	73.8432601881	0.00	0.00	Mostly_Clear(fair)	False	False	0.00
2011-02-04 02:00:00 39088 2 0.00 0.00 0.00 0.0 0.00	73.8432601881	0.00	0.00	Mostly_Clear(fair)	False	False	0.00
2011-02-04 03:00:00 39089 3 0.00 0.00 0.00 0.0 0.00	43.1359791802	0.00	0.00	Partly_Cloudy(fair)	True	False	0.00
2011-02-04 04:00:00 39090 4 0.00 0.00 0.00 0.0 0.00	43.1359791802	0.00	0.00	Partly_Cloudy(fair)	True	False	0.00
2011-02-04 05:00:00 39091 5 0.00 0.00 0.00 0.0 0.00	43.1359791802	0.00	0.00	Partly_Cloudy(fair)	True	False	0.00
2011-02-04 06:00:00 39092 6 0.00 0.00 0.00 0.0 0.00	43.1359791802	0.00	0.00	Partly_Cloudy(fair)	True	False	0.00
2011-02-04 07:00:00 39093 7 40.59 40.59 40.59 17.3 94.10	43.1359791802	40.59	17.30	Partly_Cloudy(fair)	True	False	17.30
2011-02-04 08:00:00 39094 8 189.54 189.54 189.54 131.0 439.40	43.1359791802	189.54	131.00	Partly_Cloudy(fair)	True	False	131.00
2011-02-04 09:00:00 39095 9 554.27 554.27 554.27 263.7 750.60	73.8432601881	554.27	263.70	Sunny(fair)	True	False	263.70
2011-02-04 10:00:00 39096 10 806.30 806.30 806.30 334.7 957.70	84.1912916362	806.30	334.70	Sunny(fair)	True	False	334.70
2011-02-04 11:00:00 39097 11 884.01 884.01 884.01 413.7 1050.00	84.1912916362	884.01	413.70	Sunny(fair)	True	False	413.70
2011-02-04 12:00:00 39098 12 892.43 892.43 892.43 402.5 1060.00	84.1912916362	892.43	402.50	Sunny(fair)	True	False	402.50
2011-02-04 13:00:00 39099 13 813.79 813.79 813.79 316.4 966.60	84.1912916362	813.79	316.40	Sunny(fair)	True	False	316.40
2011-02-04 14:00:00 39100 14 671.43 671.43 671.43 336.5 797.50	84.1912916362	671.43	336.50	Sunny(fair)	True	False	336.50
2011-02-04 15:00:00 39101 15 433.42 433.42 433.42 175.7 514.80	84.1912916362	433.42	175.70	Sunny(fair)	True	False	175.70
2011-02-04 16:00:00 39102 16 113.50 113.50 113.50 47.4 153.70	73.8432601881	113.50	47.40	Sunny(fair)	True	False	47.40
2011-02-04 17:00:00 39103 17 3.47 3.47 3.47 0.3 4.70	73.8432601881	3.47	0.30	Sunny(fair)	True	False	0.30
2011-02-04 18:00:00 39104 18 0.00 0.00 0.00 0.0 0.00	43.1359791802	0.00	0.00	Partly_Cloudy(fair)	True	False	0.00
2011-02-04 19:00:00 39105 19 0.00 0.00 0.00 0.0 0.00	43.1359791802	0.00	0.00	Partly_Cloudy(fair)	True	False	0.00
2011-02-04 20:00:00 39106 20 0.00 0.00 0.00 0.0 0.00	43.1359791802	0.00	0.00	Partly_Cloudy(fair)	True	False	0.00
2011-02-04 21:00:00 39107 21 0.00 0.00 0.00 0.0 0.00	24.0877742947	0.00	0.00	Mostly_Cloudy(fair)	True	False	0.00
2011-02-04 22:00:00 39108 22 0.00 0.00 0.00 0.0 0.00	24.0877742947	0.00	0.00	Mostly_Cloudy(fair)	True	False	0.00
2011-02-04 23:00:00 39109 23 0.00 0.00 0.00 0.0 0.00	24.0877742947	0.00	0.00	Mostly_Cloudy(fair)	True	False	0.00
2011-02-05 00:00:00 39110 0 0.00 0.00 0.00 0.0 0.00	24.0877742947	0.00	0.00	Mostly_Cloudy(fair)	True	False	0.00
2011-02-05 01:00:00 39111 1 0.00 0.00 0.00 0.0 0.00	24.0877742947	0.00	0.00	Mostly_Cloudy(fair)	True	False	0.00
2011-02-05 02:00:00 39112 2 0.00 0.00 0.00 0.0 0.00	24.0877742947	0.00	0.00	Mostly_Cloudy(cloudy)	True	False	0.00
2011-02-05 03:00:00 39113 3 0.00 0.00 0.00 0.0 0.00	1.41220357048	0.00	0.00	Few_Snow_Showers(mostly_cloudy)	True	False	0.00
2011-02-05 04:00:00 39114 4 0.00 0.00 0.00 0.0 0.00	1.41220357048	0.00	0.00	Few_Snow_Showers(cloudy)	True	False	0.00
2011-02-05 05:00:00 39115 5 0.00 0.00 0.00 0.0 0.00	1.41220357048	0.00	0.00	Few_Snow_Showers(cloudy)	True	False	0.00
