2011-01-26 08:00:00 29962 8 0.00 0.00 0.00 0.0 439.40	0.0	0.00	0.00	Snow(snow)	True	False	0.00
2011-01-26 09:00:00 29963 9 0.00 0.00 0.00 0.0 750.60	0.0	0.00	0.00	Snow(snow_and_fog)	True	False	0.00
2011-01-26 10:00:00 29964 10 32.30 32.30 32.30 0.1 957.70	3.37304075235	32.30	0.10	Light_Wintry_Mix(heavy_snow)	True	False	0.10
2011-01-26 11:00:00 29965 11 35.42 35.42 35.42 0.4 1050.00	3.37304075235	35.42	0.40	Light_Rain/Sleet(light_snow)	True	False	0.40
2011-01-26 12:00:00 29966 12 35.75 35.75 35.75 5.4 1060.00	3.37304075235	35.75	5.40	Light_Wintry_Mix(Unkown)	True	False	5.40
2011-01-26 13:00:00 29967 13 241.40 241.40 241.40 8.0 966.60	24.9741361473	241.40	8.00	Cloudy(Unkown)	True	False	8.00
2011-01-26 14:00:00 29968 14 0.00 0.00 0.00 5.3 797.50	0.0	0.00	5.30	Snow(light_snow)	True	False	5.30
2011-01-26 15:00:00 29969 15 0.00 0.00 0.00 0.2 514.80	0.0	0.00	0.20	Snow(light_snow)	True	False	0.20
2011-01-26 16:00:00 29970 16 0.00 0.00 0.00 0.0 153.70	0.0	0.00	0.00	Snow(light_snow)	True	False	0.00
2011-01-26 17:00:00 29971 17 0.00 0.00 0.00 0.0 3.10	0.0	0.00	0.00	Snow(cloudy)	True	False	0.00
2011-01-26 18:00:00 29972 18 0.00 0.00 0.00 0.0 0.00	0.0	0.00	0.00	Snow(wintry_mix)	True	False	0.00
2011-01-26 19:00:00 29973 19 0.00 0.00 0.00 0.0 0.00	0.0	0.00	0.00	Snow(light_snow)	True	False	0.00
2011-01-26 20:00:00 29974 20 0.00 0.00 0.00 0.0 0.00	0.0	0.00	0.00	Heavy_Snow(snow)	True	False	0.00
2011-01-26 21:00:00 29975 21 0.00 0.00 0.00 0.0 0.00	0.0	0.00	0.00	Heavy_Snow(heavy_snow)	True	False	0.00
2011-01-26 22:00:00 29976 22 0.00 0.00 0.00 0.0 0.00	0.0	0.00	0.00	Heavy_Snow(snow)	True	False	0.00
2011-01-26 23:00:00 29977 23 0.00 0.00 0.00 0.0 0.00	0.0	0.00	0.00	Snow(snow)	True	False	0.00
2011-01-27 00:00:00 29978 0 0.00 0.00 0.00 0.0 0.00	0.0	0.00	0.00	Snow(light_snow)	True	False	0.00
2011-01-27 01:00:00 29979 1 0.00 0.00 0.00 0.0 0.00	0.0	0.00	0.00	Snow(light_snow)	True	False	0.00
2011-01-27 02:00:00 29980 2 0.00 0.00 0.00 0.0 0.00	0.0	0.00	0.00	Snow_Shower(light_snow)	True	False	0.00
2011-01-27 03:00:00 29981 3 0.00 0.00 0.00 0.0 0.00	0.0	0.00	0.00	Snow_Shower(mostly_cloudy)	True	False	0.00
2011-01-27 04:00:00 29982 4 0.00 0.00 0.00 0.0 0.00	0.0	0.00	0.00	Snow_Shower(cloudy)	True	False	0.00
2011-01-27 05:00:00 29983 5 0.00 0.00 0.00 0.0 0.00	28.547561867	0.00	0.00	Mostly_Cloudy(cloudy)	True	False	0.00
2011-01-27 06:00:00 29984 6 0.00 0.00 0.00 0.0 0.00	28.547561867	0.00	0.00	Mostly_Cloudy(cloudy)	True	False	0.00
2011-01-27 07:00:00 29985 7 26.86 26.86 26.86 0.0 94.10	28.547561867	26.86	0.00	Mostly_Cloudy(cloudy)	True	False	0.00
2011-01-27 08:00:00 29986 8 361.31 361.31 361.31 0.0 439.40	82.2275512923	361.31	0.00	Sunny(cloudy)	True	False	0.00
2011-01-27 09:00:00 29987 9 646.79 646.79 646.79 0.0 750.60	86.1698113208	646.79	0.00	Sunny(cloudy)	True	False	0.00
2011-01-27 10:00:00 29988 10 825.25 825.25 825.25 1.1 957.70	86.1698113208	825.25	1.10	Sunny(cloudy)	True	False	1.10
2011-01-27 11:00:00 29989 11 904.78 904.78 904.78 89.4 1050.00	86.1698113208	904.78	89.40	Sunny(cloudy)	True	False	89.40
2011-01-27 12:00:00 29990 12 913.40 913.40 913.40 171.1 1060.00	86.1698113208	913.40	171.10	Sunny(cloudy)	True	False	171.10
2011-01-27 13:00:00 29991 13 832.92 832.92 832.92 277.7 966.60	86.1698113208	832.92	277.70	Sunny(partly_cloudy)	True	False	277.70
2011-01-27 14:00:00 29992 14 687.20 687.20 687.20 194.7 797.50	86.1698113208	687.20	194.70	Mostly_Sunny(fair)	False	False	194.70
2011-01-27 15:00:00 29993 15 443.60 443.60 443.60 101.9 514.80	86.1698113208	443.60	101.90	Mostly_Sunny(mostly_cloudy)	False	False	101.90
2011-01-27 16:00:00 29994 16 132.44 132.44 132.44 8.6 153.70	86.1698113208	132.44	8.60	Mostly_Sunny(cloudy)	False	False	8.60
2011-01-27 17:00:00 29995 17 2.67 2.67 2.67 0.0 3.10	86.1698113208	2.67	0.00	Mostly_Clear(cloudy)	False	False	0.00
2011-01-27 18:00:00 29996 18 0.00 0.00 0.00 0.0 0.00	86.1698113208	0.00	0.00	Mostly_Clear(cloudy)	False	False	0.00
2011-01-27 19:00:00 29997 19 0.00 0.00 0.00 0.0 0.00	86.1698113208	0.00	0.00	Mostly_Clear(cloudy)	False	False	0.00
2011-01-27 20:00:00 29998 20 0.00 0.00 0.00 0.0 0.00	43.1359791802	0.00	0.00	Partly_Cloudy(cloudy)	True	False	0.00
2011-01-27 21:00:00 29999 21 0.00 0.00 0.00 0.0 0.00	43.1359791802	0.00	0.00	Partly_Cloudy(cloudy)	True	False	0.00
2011-01-27 22:00:00 30000 22 0.00 0.00 0.00 0.0 0.00	43.1359791802	0.00	0.00	Partly_Cloudy(fair)	True	False	0.00
2011-01-27 23:00:00 30001 23 0.00 0.00 0.00 0.0 0.00	28.547561867	0.00	0.00	Mostly_Cloudy(fair)	True	False	0.00
2011-01-28 00:00:00 30002 0 0.00 0.00 0.00 0.0 0.00	28.547561867	0.00	0.00	Mostly_Cloudy(fair)	True	False	0.00
2011-01-28 01:00:00 30003 1 0.00 0.00 0.00 0.0 0.00	28.547561867	0.00	0.00	Mostly_Cloudy(fair)	True	False	0.00
2011-01-28 02:00:00 30004 2 0.00 0.00 0.00 0.0 0.00	20.4952380952	0.00	0.00	Cloudy(fair)	True	False	0.00
2011-01-28 03:00:00 30005 3 0.00 0.00 0.00 0.0 0.00	20.4952380952	0.00	0.00	Cloudy(partly_cloudy)	True	False	0.00
2011-01-28 04:00:00 30006 4 0.00 0.00 0.00 0.0 0.00	20.4952380952	0.00	0.00	Cloudy(fair)	True	False	0.00
2011-01-28 05:00:00 30007 5 0.00 0.00 0.00 0.0 0.00	1.41220357048	0.00	0.00	Few_Snow_Showers(cloudy)	True	False	0.00
2011-01-28 06:00:00 30008 6 0.00 0.00 0.00 0.0 0.00	1.41220357048	0.00	0.00	Few_Snow_Showers(cloudy)	True	False	0.00
2011-01-28 07:00:00 30009 7 1.33 1.33 1.33 3.8 94.10	1.41220357048	1.33	3.80	Few_Snow_Showers(cloudy)	True	False	3.80
