2011-01-15 12:00:00 17396 12 325.46 882.10 325.46 411.8 998.30	32.6014913007	325.46	411.80	Cloudy(mostly_cloudy)	True	False	411.80
2011-01-15 13:00:00 17397 13 449.16 369.06 449.16 440.6 894.70	50.202065559	449.16	440.60	Mostly_Cloudy(mostly_cloudy)	True	False	440.60
2011-01-15 14:00:00 17398 14 381.69 313.62 381.69 196.9 760.30	50.202065559	381.69	196.90	Mostly_Cloudy(fair)	True	False	196.90
2011-01-15 15:00:00 17399 15 223.60 183.73 223.60 49.6 445.40	50.202065559	223.60	49.60	Flurries(cloudy)	False	False	49.60
2011-01-15 16:00:00 17400 16 16.19 33.29 16.19 1.6 80.70	20.0578718927	16.19	1.60	Snow(cloudy)	True	False	1.60
2011-01-15 17:00:00 17401 17 0.03 0.25 0.03 0.0 0.60	4.71116096467	0.03	0.00	Light_Snow(cloudy)	True	False	0.00
2011-01-15 18:00:00 17402 18 0.00 0.00 0.00 0.0 0.00	4.71116096467	0.00	0.00	Few_Snow_Showers(cloudy)	True	False	0.00
2011-01-15 19:00:00 17403 19 0.00 0.00 0.00 0.0 0.00	4.71116096467	0.00	0.00	Few_Snow_Showers(cloudy)	True	False	0.00
2011-01-15 20:00:00 17404 20 0.00 0.00 0.00 0.0 0.00	4.71116096467	0.00	0.00	Few_Snow_Showers(cloudy)	True	False	0.00
2011-01-15 21:00:00 17405 21 0.00 0.00 0.00 0.0 0.00	4.71116096467	0.00	0.00	Few_Snow_Showers(cloudy)	True	False	0.00
2011-01-15 22:00:00 17406 22 0.00 0.00 0.00 0.0 0.00	4.71116096467	0.00	0.00	Few_Snow_Showers(fair)	True	False	0.00
2011-01-15 23:00:00 17407 23 0.00 0.00 0.00 0.0 0.00	4.71116096467	0.00	0.00	Few_Snow_Showers(partly_cloudy)	True	False	0.00
2011-01-16 00:00:00 17408 0 0.00 0.00 0.00 0.0 0.00	31.5977539561	0.00	0.00	Cloudy(mostly_cloudy)	True	False	0.00
2011-01-16 01:00:00 17409 1 0.00 0.00 0.00 0.0 0.00	31.5977539561	0.00	0.00	Cloudy(partly_cloudy)	True	False	0.00
2011-01-16 02:00:00 17410 2 0.00 0.00 0.00 0.0 0.00	31.5977539561	0.00	0.00	Cloudy(mostly_cloudy)	True	False	0.00
2011-01-16 03:00:00 17411 3 0.00 0.00 0.00 0.0 0.00	43.0576824911	0.00	0.00	Mostly_Cloudy(fair)	True	False	0.00
2011-01-16 04:00:00 17412 4 0.00 0.00 0.00 0.0 0.00	43.0576824911	0.00	0.00	Mostly_Cloudy(fair)	True	False	0.00
2011-01-16 05:00:00 17413 5 0.00 0.00 0.00 0.0 0.00	43.0576824911	0.00	0.00	Mostly_Cloudy(fair)	True	False	0.00
2011-01-16 06:00:00 17414 6 0.00 0.00 0.00 0.0 0.00	55.5142503098	0.00	0.00	Partly_Cloudy(fair)	True	False	0.00
2011-01-16 07:00:00 17415 7 27.54 27.54 27.54 3.4 49.60	55.5142503098	27.54	3.40	Partly_Cloudy(fair)	True	False	3.40
2011-01-16 08:00:00 17416 8 217.50 217.50 217.50 208.1 391.80	55.5142503098	217.50	208.10	Partly_Cloudy(fair)	True	False	208.10
2011-01-16 09:00:00 17417 9 370.95 370.95 370.95 538.1 668.20	55.5142503098	370.95	538.10	Partly_Cloudy(fair)	True	False	538.10
2011-01-16 10:00:00 17418 10 598.64 598.64 598.64 784.8 891.50	67.149958575	598.64	784.80	Partly_Cloudy(fair)	True	False	784.80
2011-01-16 11:00:00 17419 11 648.40 648.40 648.40 937.0 965.60	67.149958575	648.40	937.00	Partly_Cloudy(fair)	True	False	937.00
2011-01-16 12:00:00 17420 12 670.36 670.36 670.36 943.9 998.30	67.149958575	670.36	943.90	Mostly_Sunny(fair)	False	False	943.90
2011-01-16 13:00:00 17421 13 600.79 600.79 600.79 850.0 894.70	67.149958575	600.79	850.00	Mostly_Sunny(partly_cloudy)	False	False	850.00
2011-01-16 14:00:00 17422 14 510.54 510.54 510.54 657.5 760.30	67.149958575	510.54	657.50	Mostly_Sunny(fair)	False	False	657.50
2011-01-16 15:00:00 17423 15 299.09 299.09 299.09 309.5 445.40	67.149958575	299.09	309.50	Partly_Cloudy(fair)	True	False	309.50
2011-01-16 16:00:00 17424 16 44.80 44.80 44.80 32.8 80.70	55.5142503098	44.80	32.80	Partly_Cloudy(fair)	True	False	32.80
2011-01-16 17:00:00 17425 17 0.33 0.33 0.33 0.0 0.60	55.5142503098	0.33	0.00	Partly_Cloudy(fair)	True	False	0.00
2011-01-16 18:00:00 17426 18 0.00 0.00 0.00 0.0 0.00	55.5142503098	0.00	0.00	Partly_Cloudy(fair)	True	False	0.00
2011-01-16 19:00:00 17427 19 0.00 0.00 0.00 0.0 0.00	55.5142503098	0.00	0.00	Partly_Cloudy(fair)	True	False	0.00
2011-01-16 20:00:00 17428 20 0.00 0.00 0.00 0.0 0.00	55.5142503098	0.00	0.00	Partly_Cloudy(fair)	True	False	0.00
2011-01-16 21:00:00 17429 21 0.00 0.00 0.00 0.0 0.00	55.5142503098	0.00	0.00	Partly_Cloudy(fair)	True	False	0.00
2011-01-16 22:00:00 17430 22 0.00 0.00 0.00 0.0 0.00	55.5142503098	0.00	0.00	Partly_Cloudy(fair)	True	False	0.00
2011-01-16 23:00:00 17431 23 0.00 0.00 0.00 0.0 0.00	55.5142503098	0.00	0.00	Partly_Cloudy(fair)	True	False	0.00
2011-01-17 00:00:00 17432 0 0.00 0.00 0.00 0.0 0.00	86.5160131697	0.00	0.00	Clear(fair)	True	False	0.00
2011-01-17 01:00:00 17433 1 0.00 0.00 0.00 0.0 0.00	86.5160131697	0.00	0.00	Clear(fair)	True	False	0.00
2011-01-17 02:00:00 17434 2 0.00 0.00 0.00 0.0 0.00	86.5160131697	0.00	0.00	Clear(fair)	True	False	0.00
2011-01-17 03:00:00 17435 3 0.00 0.00 0.00 0.0 0.00	86.5160131697	0.00	0.00	Mostly_Clear(mostly_cloudy)	False	False	0.00
2011-01-17 04:00:00 17436 4 0.00 0.00 0.00 0.0 0.00	86.5160131697	0.00	0.00	Mostly_Clear(cloudy)	False	False	0.00
2011-01-17 05:00:00 17437 5 0.00 0.00 0.00 0.0 0.00	86.5160131697	0.00	0.00	Mostly_Clear(cloudy)	False	False	0.00
2011-01-17 06:00:00 17438 6 0.00 0.00 0.00 0.0 0.00	86.5160131697	0.00	0.00	Mostly_Clear(cloudy)	False	False	0.00
2011-01-17 07:00:00 17439 7 42.91 42.91 42.91 14.0 49.60	86.5160131697	42.91	14.00	Mostly_Clear(cloudy)	False	False	14.00
2011-01-17 08:00:00 17440 8 338.97 338.97 338.97 112.4 391.80	86.5160131697	338.97	112.40	Mostly_Sunny(cloudy)	False	False	112.40
2011-01-17 09:00:00 17441 9 578.10 578.10 578.10 160.3 668.20	86.5160131697	578.10	160.30	Sunny(cloudy)	True	False	160.30
2011-01-17 10:00:00 17442 10 787.73 787.73 787.73 234.9 891.50	88.360212361	787.73	234.90	Sunny(cloudy)	True	False	234.90
2011-01-17 11:00:00 17443 11 853.21 853.21 853.21 283.9 965.60	88.360212361	853.21	283.90	Sunny(cloudy)	True	False	283.90
2011-01-17 12:00:00 17444 12 882.10 882.10 882.10 323.3 998.30	88.360212361	882.10	323.30	Mostly_Sunny(cloudy)	False	False	323.30
