2011-01-31 16:00:00 36125 16 67.46 129.40 67.46 46.8 153.70	43.8894792774	67.46	46.80	Partly_Cloudy(fair)	True	False	46.80
2011-01-31 17:00:00 36126 17 0.94 0.94 1.36 0.3 3.10	43.8894792774	1.36	0.30	Partly_Cloudy(fair)	True	False	0.30
2011-01-31 18:00:00 36127 18 0.00 0.00 0.00 0.0 0.00	24.0877742947	0.00	0.00	Mostly_Cloudy(fair)	True	False	0.00
2011-01-31 19:00:00 36128 19 0.00 0.00 0.00 0.0 0.00	24.0877742947	0.00	0.00	Mostly_Cloudy(mostly_cloudy)	True	False	0.00
2011-01-31 20:00:00 36129 20 0.00 0.00 0.00 0.0 0.00	24.0877742947	0.00	0.00	Mostly_Cloudy(cloudy)	True	False	0.00
2011-01-31 21:00:00 36130 21 0.00 0.00 0.00 0.0 0.00	19.1397360036	0.00	0.00	Cloudy(cloudy)	True	False	0.00
2011-01-31 22:00:00 36131 22 0.00 0.00 0.00 0.0 0.00	19.1397360036	0.00	0.00	Cloudy(cloudy)	True	False	0.00
2011-01-31 23:00:00 36132 23 0.00 0.00 0.00 0.0 0.00	19.1397360036	0.00	0.00	Cloudy(cloudy)	True	False	0.00
2011-02-01 00:00:00 36133 0 0.00 0.00 0.00 0.0 0.00	0.047619047619	0.00	0.00	Snow_Shower(cloudy)	True	False	0.00
2011-02-01 01:00:00 36134 1 0.00 0.00 0.00 0.0 0.00	0.047619047619	0.00	0.00	Snow_Shower(light_snow)	True	False	0.00
2011-02-01 02:00:00 36135 2 0.00 0.00 0.00 0.0 0.00	0.047619047619	0.00	0.00	Snow_Shower(light_snow)	True	False	0.00
2011-02-01 03:00:00 36136 3 0.00 0.00 0.00 0.0 0.00	0.047619047619	0.00	0.00	Snow(light_snow)	True	False	0.00
2011-02-01 04:00:00 36137 4 0.00 0.00 0.00 0.0 0.00	0.047619047619	0.00	0.00	Snow(light_snow)	True	False	0.00
2011-02-01 05:00:00 36138 5 0.00 0.00 0.00 0.0 0.00	0.047619047619	0.00	0.00	Snow(cloudy)	True	False	0.00
2011-02-01 06:00:00 36139 6 0.00 0.00 0.00 0.0 0.00	0.047619047619	0.00	0.00	Snow(cloudy)	True	False	0.00
2011-02-01 07:00:00 36140 7 0.04 0.04 0.04 0.0 94.10	0.047619047619	0.04	0.00	Snow(light_freezing_rain)	True	False	0.00
2011-02-01 08:00:00 36141 8 0.21 0.21 0.21 0.0 439.40	0.047619047619	0.21	0.00	Snow(cloudy)	True	False	0.00
2011-02-01 09:00:00 36142 9 25.95 25.95 25.95 0.0 750.60	3.45765345765	25.95	0.00	Wintry_Mix(light_freezing_rain)	True	False	0.00
2011-02-01 10:00:00 36143 10 33.11 33.11 33.11 2.3 957.70	3.45765345765	33.11	2.30	Wintry_Mix(cloudy)	True	False	2.30
2011-02-01 11:00:00 36144 11 36.31 36.31 36.31 2.0 1050.00	3.45765345765	36.31	2.00	Wintry_Mix(cloudy)	True	False	2.00
2011-02-01 12:00:00 36145 12 36.65 36.65 36.65 3.8 1060.00	3.45765345765	36.65	3.80	Freezing_Rain(light_freezing_rain)	True	False	3.80
2011-02-01 13:00:00 36146 13 33.42 33.42 33.42 9.2 966.60	3.45765345765	33.42	9.20	Freezing_Rain(light_freezing_rain)	True	False	9.20
2011-02-01 14:00:00 36147 14 27.57 27.57 27.57 12.6 797.50	3.45765345765	27.57	12.60	Freezing_Rain(cloudy)	True	False	12.60
2011-02-01 15:00:00 36148 15 17.80 17.80 17.80 4.3 514.80	3.45765345765	17.80	4.30	Freezing_Rain(cloudy)	True	False	4.30
2011-02-01 16:00:00 36149 16 5.31 5.31 5.31 0.0 153.70	3.45765345765	5.31	0.00	Freezing_Rain(cloudy)	True	False	0.00
2011-02-01 17:00:00 36150 17 0.11 0.11 0.11 0.0 3.10	3.45765345765	0.11	0.00	Freezing_Rain(fog)	True	False	0.00
2011-02-01 18:00:00 36151 18 0.00 0.00 0.00 0.0 0.00	6.18087182824	0.00	0.00	Freezing_Drizzle(cloudy)	True	False	0.00
2011-02-01 19:00:00 36152 19 0.00 0.00 0.00 0.0 0.00	6.18087182824	0.00	0.00	Freezing_Drizzle(cloudy)	True	False	0.00
2011-02-01 20:00:00 36153 20 0.00 0.00 0.00 0.0 0.00	6.18087182824	0.00	0.00	Freezing_Drizzle(cloudy)	True	False	0.00
2011-02-01 21:00:00 36154 21 0.00 0.00 0.00 0.0 0.00	19.1397360036	0.00	0.00	Cloudy(cloudy)	True	False	0.00
2011-02-01 22:00:00 36155 22 0.00 0.00 0.00 0.0 0.00	19.1397360036	0.00	0.00	Cloudy(cloudy)	True	False	0.00
2011-02-01 23:00:00 36156 23 0.00 0.00 0.00 0.0 0.00	19.1397360036	0.00	0.00	Cloudy(cloudy)	True	False	0.00
2011-02-02 00:00:00 36157 0 0.00 0.00 0.00 0.0 0.00	6.18087182824	0.00	0.00	Freezing_Drizzle(light_freezing_rain)	True	False	0.00
2011-02-02 01:00:00 36158 1 0.00 0.00 0.00 0.0 0.00	6.18087182824	0.00	0.00	Freezing_Drizzle(light_freezing_rain)	True	False	0.00
2011-02-02 02:00:00 36159 2 0.00 0.00 0.00 0.0 0.00	6.18087182824	0.00	0.00	Freezing_Drizzle(wintry_mix)	True	False	0.00
2011-02-02 03:00:00 36160 3 0.00 0.00 0.00 0.0 0.00	3.45765345765	0.00	0.00	Wintry_Mix(freezing_rain)	True	False	0.00
2011-02-02 04:00:00 36161 4 0.00 0.00 0.00 0.0 0.00	3.45765345765	0.00	0.00	Wintry_Mix(freezing_rain)	True	False	0.00
2011-02-02 05:00:00 36162 5 0.00 0.00 0.00 0.0 0.00	3.45765345765	0.00	0.00	Wintry_Mix(light_freezing_rain)	True	False	0.00
2011-02-02 06:00:00 36163 6 0.00 0.00 0.00 0.0 0.00	3.45765345765	0.00	0.00	Wintry_Mix(light_freezing_rain)	True	False	0.00
2011-02-02 07:00:00 36164 7 3.25 3.25 3.25 0.0 94.10	3.45765345765	3.25	0.00	Wintry_Mix(freezing_rain)	True	False	0.00
2011-02-02 08:00:00 36165 8 15.19 15.19 15.19 1.0 439.40	3.45765345765	15.19	1.00	Wintry_Mix(wintry_mix)	True	False	1.00
2011-02-02 09:00:00 36166 9 25.95 25.95 25.95 20.5 750.60	3.45765345765	25.95	20.50	Rain(light_rain)	True	False	20.50
2011-02-02 10:00:00 36167 10 33.11 33.11 33.11 43.8 957.70	3.45765345765	33.11	43.80	Rain(cloudy)	True	False	43.80
2011-02-02 11:00:00 36168 11 36.31 36.31 36.31 91.7 1050.00	3.45765345765	36.31	91.70	Rain(cloudy)	True	False	91.70
2011-02-02 12:00:00 36169 12 36.65 36.65 36.65 131.5 1060.00	3.45765345765	36.65	131.50	Rain(cloudy)	True	False	131.50
2011-02-02 13:00:00 36170 13 33.42 33.42 33.42 139.2 966.60	3.45765345765	33.42	139.20	Rain(fog)	True	False	139.20
2011-02-02 14:00:00 36171 14 27.57 27.57 27.57 137.0 797.50	3.45765345765	27.57	137.00	Rain(fog)	True	False	137.00
2011-02-02 15:00:00 36172 15 2.15 2.15 2.15 92.4 514.80	0.417667327973	2.15	92.40	Rain_/_Snow_Showers(cloudy)	True	False	92.40
2011-02-02 16:00:00 36173 16 0.64 0.64 0.64 28.9 153.70	0.417667327973	0.64	28.90	Rain_/_Snow_Showers(fog)	True	False	28.90
