2011-01-27 20:00:00 31676 20 0.00 0.00 0.00 0.0 0.00	27.0018621974	0.00	0.00	Mostly_Cloudy(cloudy)	True	False	0.00
2011-01-27 21:00:00 31677 21 0.00 0.00 0.00 0.0 0.00	27.0018621974	0.00	0.00	Mostly_Cloudy(cloudy)	True	False	0.00
2011-01-27 22:00:00 31678 22 0.00 0.00 0.00 0.0 0.00	27.0018621974	0.00	0.00	Mostly_Cloudy(fair)	True	False	0.00
2011-01-27 23:00:00 31679 23 0.00 0.00 0.00 0.0 0.00	27.0018621974	0.00	0.00	Mostly_Cloudy(fair)	True	False	0.00
2011-01-28 00:00:00 31680 0 0.00 0.00 0.00 0.0 0.00	20.4952380952	0.00	0.00	Cloudy(fair)	True	False	0.00
2011-01-28 01:00:00 31681 1 0.00 0.00 0.00 0.0 0.00	20.4952380952	0.00	0.00	Cloudy(fair)	True	False	0.00
2011-01-28 02:00:00 31682 2 0.00 0.00 0.00 0.0 0.00	20.4952380952	0.00	0.00	Cloudy(fair)	True	False	0.00
2011-01-28 03:00:00 31683 3 0.00 0.00 0.00 0.0 0.00	27.0018621974	0.00	0.00	Mostly_Cloudy(partly_cloudy)	True	False	0.00
2011-01-28 04:00:00 31684 4 0.00 0.00 0.00 0.0 0.00	27.0018621974	0.00	0.00	Mostly_Cloudy(fair)	True	False	0.00
2011-01-28 05:00:00 31685 5 0.00 0.00 0.00 0.0 0.00	27.0018621974	0.00	0.00	Mostly_Cloudy(cloudy)	True	False	0.00
2011-01-28 06:00:00 31686 6 0.00 0.00 0.00 0.0 0.00	20.4952380952	0.00	0.00	Cloudy(cloudy)	True	False	0.00
2011-01-28 07:00:00 31687 7 19.29 19.29 19.29 3.8 94.10	20.4952380952	19.29	3.80	Cloudy(cloudy)	True	False	3.80
2011-01-28 08:00:00 31688 8 90.06 90.06 90.06 36.3 439.40	20.4952380952	90.06	36.30	Cloudy(cloudy)	True	False	36.30
2011-01-28 09:00:00 31689 9 3.14 3.14 3.14 74.4 750.60	0.417667327973	3.14	74.40	Few_Snow_Showers(cloudy)	True	False	74.40
2011-01-28 10:00:00 31690 10 4.00 4.00 4.00 186.7 957.70	0.417667327973	4.00	186.70	Few_Snow_Showers(light_snow)	True	False	186.70
2011-01-28 11:00:00 31691 11 4.39 4.39 4.39 231.7 1050.00	0.417667327973	4.39	231.70	Few_Snow_Showers(mostly_cloudy)	True	False	231.70
2011-01-28 12:00:00 31692 12 0.50 0.50 0.50 130.5 1060.00	0.047619047619	0.50	130.50	Snow_Shower(cloudy)	True	False	130.50
2011-01-28 13:00:00 31693 13 0.46 0.46 0.46 110.9 966.60	0.047619047619	0.46	110.90	Snow_Shower(cloudy)	True	False	110.90
2011-01-28 14:00:00 31694 14 0.38 0.38 0.38 63.6 797.50	0.047619047619	0.38	63.60	Snow_Shower(cloudy)	True	False	63.60
2011-01-28 15:00:00 31695 15 0.25 0.25 0.25 58.9 514.80	0.047619047619	0.25	58.90	Snow_Shower(cloudy)	True	False	58.90
2011-01-28 16:00:00 31696 16 0.07 0.07 0.07 6.5 153.70	0.047619047619	0.07	6.50	Snow_Shower(cloudy)	True	False	6.50
2011-01-28 17:00:00 31697 17 0.00 0.00 0.00 0.0 3.10	0.047619047619	0.00	0.00	Snow_Shower(light_snow)	True	False	0.00
2011-01-28 18:00:00 31698 18 0.00 0.00 0.00 0.0 0.00	0.417667327973	0.00	0.00	Few_Snow_Showers(cloudy)	True	False	0.00
2011-01-28 19:00:00 31699 19 0.00 0.00 0.00 0.0 0.00	0.417667327973	0.00	0.00	Few_Snow_Showers(light_snow)	True	False	0.00
2011-01-28 20:00:00 31700 20 0.00 0.00 0.00 0.0 0.00	0.417667327973	0.00	0.00	Few_Snow_Showers(light_snow)	True	False	0.00
2011-01-28 21:00:00 31701 21 0.00 0.00 0.00 0.0 0.00	20.4952380952	0.00	0.00	Cloudy(cloudy)	True	False	0.00
2011-01-28 22:00:00 31702 22 0.00 0.00 0.00 0.0 0.00	20.4952380952	0.00	0.00	Cloudy(cloudy)	True	False	0.00
2011-01-28 23:00:00 31703 23 0.00 0.00 0.00 0.0 0.00	20.4952380952	0.00	0.00	Cloudy(cloudy)	True	False	0.00
2011-01-29 00:00:00 31704 0 0.00 0.00 0.00 0.0 0.00	27.0018621974	0.00	0.00	Mostly_Cloudy(fog)	True	False	0.00
2011-01-29 01:00:00 31705 1 0.00 0.00 0.00 0.0 0.00	27.0018621974	0.00	0.00	Mostly_Cloudy(fog)	True	False	0.00
2011-01-29 02:00:00 31706 2 0.00 0.00 0.00 0.0 0.00	27.0018621974	0.00	0.00	Mostly_Cloudy(fog)	True	False	0.00
2011-01-29 03:00:00 31707 3 0.00 0.00 0.00 0.0 0.00	27.0018621974	0.00	0.00	Mostly_Cloudy(cloudy)	True	False	0.00
2011-01-29 04:00:00 31708 4 0.00 0.00 0.00 0.0 0.00	27.0018621974	0.00	0.00	Mostly_Cloudy(cloudy)	True	False	0.00
2011-01-29 05:00:00 31709 5 0.00 0.00 0.00 0.0 0.00	27.0018621974	0.00	0.00	Mostly_Cloudy(cloudy)	True	False	0.00
2011-01-29 06:00:00 31710 6 0.00 0.00 0.00 0.0 0.00	20.4952380952	0.00	0.00	Cloudy(cloudy)	True	False	0.00
2011-01-29 07:00:00 31711 7 19.29 19.29 19.29 7.6 94.10	20.4952380952	19.29	7.60	Cloudy(fair)	True	False	7.60
2011-01-29 08:00:00 31712 8 90.06 90.06 90.06 91.7 439.40	20.4952380952	90.06	91.70	Cloudy(fog)	True	False	91.70
2011-01-29 09:00:00 31713 9 153.84 153.84 153.84 187.1 750.60	20.4952380952	153.84	187.10	Cloudy(fair)	True	False	187.10
2011-01-29 10:00:00 31714 10 239.18 239.18 239.18 281.1 957.70	24.9741361473	239.18	281.10	Cloudy(fair)	True	False	281.10
2011-01-29 11:00:00 31715 11 262.23 262.23 262.23 270.2 1050.00	24.9741361473	262.23	270.20	Cloudy(fair)	True	False	270.20
2011-01-29 12:00:00 31716 12 0.50 0.50 0.50 362.4 1060.00	0.047619047619	0.50	362.40	Snow_Shower(fair)	True	False	362.40
2011-01-29 13:00:00 31717 13 0.46 0.46 0.46 239.5 966.60	0.047619047619	0.46	239.50	Snow_Shower(partly_cloudy)	True	False	239.50
2011-01-29 14:00:00 31718 14 0.38 0.38 0.38 162.0 797.50	0.047619047619	0.38	162.00	Snow_Shower(partly_cloudy)	True	False	162.00
2011-01-29 15:00:00 31719 15 0.25 0.25 0.25 54.1 514.80	0.047619047619	0.25	54.10	Snow_Shower(mostly_cloudy)	True	False	54.10
2011-01-29 16:00:00 31720 16 0.07 0.07 0.07 19.8 153.70	0.047619047619	0.07	19.80	Snow_Shower(light_snow)	True	False	19.80
2011-01-29 17:00:00 31721 17 0.00 0.00 0.00 0.0 3.10	0.047619047619	0.00	0.00	Snow_Shower(cloudy)	True	False	0.00
2011-01-29 18:00:00 31722 18 0.00 0.00 0.00 0.0 0.00	27.0018621974	0.00	0.00	Mostly_Cloudy(light_snow)	True	False	0.00
