2011-01-23 02:00:00 26207 2 0.00 0.00 0.00 0.0 0.00	87.2501998401	0.00	0.00	Mostly_Clear(fair)	False	False	0.00
2011-01-23 03:00:00 26208 3 0.00 0.00 0.00 0.0 0.00	87.2501998401	0.00	0.00	Mostly_Clear(fair)	False	False	0.00
2011-01-23 04:00:00 26209 4 0.00 0.00 0.00 0.0 0.00	87.2501998401	0.00	0.00	Mostly_Clear(fair)	False	False	0.00
2011-01-23 05:00:00 26210 5 0.00 0.00 0.00 0.0 0.00	87.2501998401	0.00	0.00	Mostly_Clear(fair)	False	False	0.00
2011-01-23 06:00:00 26211 6 0.00 0.00 0.00 0.0 0.00	87.2501998401	0.00	0.00	Mostly_Clear(fair)	False	False	0.00
2011-01-23 07:00:00 26212 7 56.78 56.78 56.78 10.3 69.00	82.2857142857	56.78	10.30	Clear(fair)	True	False	10.30
2011-01-23 08:00:00 26213 8 349.96 349.96 349.96 97.7 425.30	82.2857142857	349.96	97.70	Sunny(fair)	True	False	97.70
2011-01-23 09:00:00 26214 9 617.64 617.64 617.64 191.7 750.60	82.2857142857	617.64	191.70	Sunny(fair)	True	False	191.70
2011-01-23 10:00:00 26215 10 835.60 835.60 835.60 264.2 957.70	87.2501998401	835.60	264.20	Sunny(fair)	True	False	264.20
2011-01-23 11:00:00 26216 11 916.13 916.13 916.13 319.4 1050.00	87.2501998401	916.13	319.40	Sunny(fair)	True	False	319.40
2011-01-23 12:00:00 26217 12 610.60 610.60 610.60 356.8 1055.60	57.8438802577	610.60	356.80	Partly_Cloudy(fair)	True	False	356.80
2011-01-23 13:00:00 26218 13 545.70 545.70 545.70 340.4 943.40	57.8438802577	545.70	340.40	Partly_Cloudy(fair)	True	False	340.40
2011-01-23 14:00:00 26219 14 442.91 442.91 442.91 289.7 765.70	57.8438802577	442.91	289.70	Partly_Cloudy(fair)	True	False	289.70
2011-01-23 15:00:00 26220 15 275.63 275.63 275.63 140.1 476.50	57.8438802577	275.63	140.10	Partly_Cloudy(fair)	True	False	140.10
2011-01-23 16:00:00 26221 16 57.40 57.40 57.40 20.4 123.20	46.5897166842	57.40	20.40	Partly_Cloudy(fair)	True	False	20.40
2011-01-23 17:00:00 26222 17 0.65 0.65 0.65 0.0 1.40	46.5897166842	0.65	0.00	Partly_Cloudy(fair)	True	False	0.00
2011-01-23 18:00:00 26223 18 0.00 0.00 0.00 0.0 0.00	46.5897166842	0.00	0.00	Partly_Cloudy(fair)	True	False	0.00
2011-01-23 19:00:00 26224 19 0.00 0.00 0.00 0.0 0.00	46.5897166842	0.00	0.00	Partly_Cloudy(fair)	True	False	0.00
2011-01-23 20:00:00 26225 20 0.00 0.00 0.00 0.0 0.00	46.5897166842	0.00	0.00	Partly_Cloudy(fair)	True	False	0.00
2011-01-23 21:00:00 26226 21 0.00 0.00 0.00 0.0 0.00	46.5897166842	0.00	0.00	Mostly_Clear(fair)	False	False	0.00
2011-01-23 22:00:00 26227 22 0.00 0.00 0.00 0.0 0.00	46.5897166842	0.00	0.00	Mostly_Clear(fair)	False	False	0.00
2011-01-23 23:00:00 26228 23 0.00 0.00 0.00 0.0 0.00	46.5897166842	0.00	0.00	Mostly_Clear(fair)	False	False	0.00
2011-01-24 00:00:00 26229 0 0.00 0.00 0.00 0.0 0.00	82.2857142857	0.00	0.00	Clear(fair)	True	False	0.00
2011-01-24 01:00:00 26230 1 0.00 0.00 0.00 0.0 0.00	82.2857142857	0.00	0.00	Clear(fair)	True	False	0.00
2011-01-24 02:00:00 26231 2 0.00 0.00 0.00 0.0 0.00	82.2857142857	0.00	0.00	Clear(fair)	True	False	0.00
2011-01-24 03:00:00 26232 3 0.00 0.00 0.00 0.0 0.00	82.2857142857	0.00	0.00	Clear(fair)	True	False	0.00
2011-01-24 04:00:00 26233 4 0.00 0.00 0.00 0.0 0.00	82.2857142857	0.00	0.00	Clear(fair)	True	False	0.00
2011-01-24 05:00:00 26234 5 0.00 0.00 0.00 0.0 0.00	82.2857142857	0.00	0.00	Clear(fair)	True	False	0.00
2011-01-24 06:00:00 26235 6 0.00 0.00 0.00 0.0 0.00	82.2857142857	0.00	0.00	Clear(fair)	True	False	0.00
2011-01-24 07:00:00 26236 7 56.78 56.78 56.78 19.0 69.00	82.2857142857	56.78	19.00	Clear(fair)	True	False	19.00
2011-01-24 08:00:00 26237 8 349.96 349.96 349.96 155.2 425.30	82.2857142857	349.96	155.20	Sunny(fair)	True	False	155.20
2011-01-24 09:00:00 26238 9 617.64 617.64 617.64 291.0 750.60	82.2857142857	617.64	291.00	Sunny(fair)	True	False	291.00
2011-01-24 10:00:00 26239 10 835.60 835.60 835.60 385.0 957.70	87.2501998401	835.60	385.00	Sunny(fair)	True	False	385.00
2011-01-24 11:00:00 26240 11 916.13 916.13 916.13 446.3 1050.00	87.2501998401	916.13	446.30	Sunny(fair)	True	False	446.30
2011-01-24 12:00:00 26241 12 921.01 921.01 921.01 485.1 1055.60	87.2501998401	921.01	485.10	Sunny(fair)	True	False	485.10
2011-01-24 13:00:00 26242 13 823.12 823.12 823.12 460.8 943.40	87.2501998401	823.12	460.80	Sunny(fair)	True	False	460.80
2011-01-24 14:00:00 26243 14 668.07 668.07 668.07 379.3 765.70	87.2501998401	668.07	379.30	Sunny(fair)	True	False	379.30
2011-01-24 15:00:00 26244 15 415.75 415.75 415.75 215.2 476.50	87.2501998401	415.75	215.20	Sunny(fair)	True	False	215.20
2011-01-24 16:00:00 26245 16 101.38 101.38 101.38 30.1 123.20	82.2857142857	101.38	30.10	Sunny(mostly_cloudy)	True	False	30.10
2011-01-24 17:00:00 26246 17 1.15 1.15 1.15 0.0 1.40	82.2857142857	1.15	0.00	Sunny(fair)	True	False	0.00
2011-01-24 18:00:00 26247 18 0.00 0.00 0.00 0.0 0.00	46.5897166842	0.00	0.00	Partly_Cloudy(cloudy)	True	False	0.00
2011-01-24 19:00:00 26248 19 0.00 0.00 0.00 0.0 0.00	46.5897166842	0.00	0.00	Partly_Cloudy(cloudy)	True	False	0.00
2011-01-24 20:00:00 26249 20 0.00 0.00 0.00 0.0 0.00	46.5897166842	0.00	0.00	Partly_Cloudy(cloudy)	True	False	0.00
2011-01-24 21:00:00 26250 21 0.00 0.00 0.00 0.0 0.00	28.547561867	0.00	0.00	Mostly_Cloudy(cloudy)	True	False	0.00
2011-01-24 22:00:00 26251 22 0.00 0.00 0.00 0.0 0.00	28.547561867	0.00	0.00	Mostly_Cloudy(mostly_cloudy)	True	False	0.00
2011-01-24 23:00:00 26252 23 0.00 0.00 0.00 0.0 0.00	28.547561867	0.00	0.00	Mostly_Cloudy(cloudy)	True	False	0.00
2011-01-25 00:00:00 26253 0 0.00 0.00 0.00 0.0 0.00	28.547561867	0.00	0.00	Mostly_Cloudy(cloudy)	True	False	0.00
2011-01-25 01:00:00 26254 1 0.00 0.00 0.00 0.0 0.00	28.547561867	0.00	0.00	Mostly_Cloudy(cloudy)	True	False	0.00
