2011-01-07 20:00:00 8480 20 0.00 0.00 0.00 0.0 0.00	62.5786163522	0.00	0.00	Partly_Cloudy(fair)	True	False	0.00
2011-01-07 21:00:00 8481 21 0.00 0.00 0.00 0.0 0.00	62.5786163522	0.00	0.00	Partly_Cloudy(fair)	True	False	0.00
2011-01-07 22:00:00 8482 22 0.00 0.00 0.00 0.0 0.00	49.5642592407	0.00	0.00	Mostly_Cloudy(fair)	True	False	0.00
2011-01-07 23:00:00 8483 23 0.00 0.00 0.00 0.0 0.00	49.5642592407	0.00	0.00	Mostly_Cloudy(fair)	True	False	0.00
2011-01-08 00:00:00 8484 0 0.00 0.00 0.00 0.0 0.00	62.5786163522	0.00	0.00	Partly_Cloudy(fair)	True	False	0.00
2011-01-08 01:00:00 8485 1 0.00 0.00 0.00 0.0 0.00	62.5786163522	0.00	0.00	Partly_Cloudy(fair)	True	False	0.00
2011-01-08 02:00:00 8486 2 0.00 0.00 0.00 0.0 0.00	62.5786163522	0.00	0.00	Partly_Cloudy(fair)	True	False	0.00
2011-01-08 03:00:00 8487 3 0.00 0.00 0.00 0.0 0.00	49.5642592407	0.00	0.00	Mostly_Cloudy(fair)	True	False	0.00
2011-01-08 04:00:00 8488 4 0.00 0.00 0.00 0.0 0.00	49.5642592407	0.00	0.00	Mostly_Cloudy(mostly_cloudy)	True	False	0.00
2011-01-08 05:00:00 8489 5 0.00 0.00 0.00 0.0 0.00	49.5642592407	0.00	0.00	Mostly_Cloudy(mostly_cloudy)	True	False	0.00
2011-01-08 06:00:00 8490 6 0.00 0.00 0.00 0.0 0.00	49.5642592407	0.00	0.00	Flurries(cloudy)	False	False	0.00
2011-01-08 07:00:00 8491 7 15.76 15.76 15.76 0.0 31.80	49.5642592407	15.76	0.00	Flurries(mostly_cloudy)	False	False	0.00
2011-01-08 08:00:00 8492 8 165.79 165.79 165.79 1.2 334.50	49.5642592407	165.79	1.20	Flurries(cloudy)	False	False	1.20
2011-01-08 09:00:00 8493 9 195.99 195.99 195.99 10.6 654.90	29.9263907325	195.99	10.60	Few_Snow_Showers(mostly_cloudy)	True	False	10.60
2011-01-08 10:00:00 8494 10 266.79 266.79 266.79 17.8 891.50	29.9263907325	266.79	17.80	Few_Snow_Showers(fair)	True	False	17.80
2011-01-08 11:00:00 8495 11 288.01 288.01 288.01 20.0 962.40	29.9263907325	288.01	20.00	Few_Snow_Showers(fair)	True	False	20.00
2011-01-08 12:00:00 8496 12 298.76 298.76 298.76 16.7 998.30	29.9263907325	298.76	16.70	Light_Snow(cloudy)	True	False	16.70
2011-01-08 13:00:00 8497 13 248.00 248.00 248.00 11.5 828.70	29.9263907325	248.00	11.50	Light_Snow(snow)	True	False	11.50
2011-01-08 14:00:00 8498 14 186.65 186.65 186.65 4.3 623.70	29.9263907325	186.65	4.30	Light_Snow(light_snow)	True	False	4.30
2011-01-08 15:00:00 8499 15 96.69 96.69 96.69 1.1 323.10	29.9263907325	96.69	1.10	Light_Snow(light_snow)	True	False	1.10
2011-01-08 16:00:00 8500 16 16.61 16.61 16.61 0.0 55.50	29.9263907325	16.61	0.00	Light_Snow(light_snow)	True	False	0.00
2011-01-08 17:00:00 8501 17 0.00 0.00 0.00 0.0 0.00	29.9263907325	0.00	0.00	Light_Snow(light_snow)	True	False	0.00
2011-01-08 18:00:00 8502 18 0.00 0.00 0.00 0.0 0.00	24.4508577842	0.00	0.00	Snow_Shower(cloudy)	True	False	0.00
2011-01-08 19:00:00 8503 19 0.00 0.00 0.00 0.0 0.00	24.4508577842	0.00	0.00	Snow_Shower(cloudy)	True	False	0.00
2011-01-08 20:00:00 8504 20 0.00 0.00 0.00 0.0 0.00	24.4508577842	0.00	0.00	Snow_Shower(cloudy)	True	False	0.00
2011-01-08 21:00:00 8505 21 0.00 0.00 0.00 0.0 0.00	29.9263907325	0.00	0.00	Few_Snow_Showers(cloudy)	True	False	0.00
2011-01-08 22:00:00 8506 22 0.00 0.00 0.00 0.0 0.00	29.9263907325	0.00	0.00	Few_Snow_Showers(cloudy)	True	False	0.00
2011-01-08 23:00:00 8507 23 0.00 0.00 0.00 0.0 0.00	29.9263907325	0.00	0.00	Few_Snow_Showers(cloudy)	True	False	0.00
2011-01-09 00:00:00 8508 0 0.00 0.00 0.00 0.0 0.00	49.5642592407	0.00	0.00	Mostly_Cloudy(cloudy)	True	False	0.00
2011-01-09 01:00:00 8509 1 0.00 0.00 0.00 0.0 0.00	49.5642592407	0.00	0.00	Mostly_Cloudy(cloudy)	True	False	0.00
2011-01-09 02:00:00 8510 2 0.00 0.00 0.00 0.0 0.00	49.5642592407	0.00	0.00	Mostly_Cloudy(mostly_cloudy)	True	False	0.00
2011-01-09 03:00:00 8511 3 0.00 0.00 0.00 0.0 0.00	49.5642592407	0.00	0.00	Mostly_Cloudy(cloudy)	True	False	0.00
2011-01-09 04:00:00 8512 4 0.00 0.00 0.00 0.0 0.00	49.5642592407	0.00	0.00	Mostly_Cloudy(cloudy)	True	False	0.00
2011-01-09 05:00:00 8513 5 0.00 0.00 0.00 0.0 0.00	49.5642592407	0.00	0.00	Mostly_Cloudy(mostly_cloudy)	True	False	0.00
2011-01-09 06:00:00 8514 6 0.00 0.00 0.00 0.0 0.00	62.5786163522	0.00	0.00	Partly_Cloudy(fair)	True	False	0.00
2011-01-09 07:00:00 8515 7 19.90 19.90 19.90 0.0 31.80	62.5786163522	19.90	0.00	Partly_Cloudy(fair)	True	False	0.00
2011-01-09 08:00:00 8516 8 209.33 209.33 209.33 14.6 334.50	62.5786163522	209.33	14.60	Partly_Cloudy(fair)	True	False	14.60
2011-01-09 09:00:00 8517 9 409.83 409.83 409.83 45.2 654.90	62.5786163522	409.83	45.20	Partly_Cloudy(fair)	True	False	45.20
2011-01-09 10:00:00 8518 10 709.12 709.12 709.12 74.7 891.50	79.5419374807	709.12	74.70	Partly_Cloudy(fair)	True	False	74.70
2011-01-09 11:00:00 8519 11 765.51 765.51 765.51 102.6 962.40	79.5419374807	765.51	102.60	Partly_Cloudy(mostly_cloudy)	True	False	102.60
2011-01-09 12:00:00 8520 12 794.07 794.07 794.07 233.6 998.30	79.5419374807	794.07	233.60	Partly_Cloudy(mostly_cloudy)	True	False	233.60
2011-01-09 13:00:00 8521 13 659.16 659.16 659.16 388.4 828.70	79.5419374807	659.16	388.40	Partly_Cloudy(fair)	True	False	388.40
2011-01-09 14:00:00 8522 14 496.10 496.10 496.10 391.8 623.70	79.5419374807	496.10	391.80	Partly_Cloudy(mostly_cloudy)	True	False	391.80
2011-01-09 15:00:00 8523 15 257.00 257.00 257.00 188.8 323.10	79.5419374807	257.00	188.80	Partly_Cloudy(fair)	True	False	188.80
2011-01-09 16:00:00 8524 16 34.73 34.73 34.73 15.7 55.50	62.5786163522	34.73	15.70	Partly_Cloudy(fair)	True	False	15.70
2011-01-09 17:00:00 8525 17 0.00 0.00 0.00 0.0 0.00	62.5786163522	0.00	0.00	Partly_Cloudy(fair)	True	False	0.00
2011-01-09 18:00:00 8526 18 0.00 0.00 0.00 0.0 0.00	91.4955424221	0.00	0.00	Clear(fair)	True	False	0.00
