2011-02-01 09:00:00 36941 9 132.69 132.69 132.69 0.0 750.60	17.6777696565	132.69	0.00	Cloudy(light_freezing_rain)	True	False	0.00
2011-02-01 10:00:00 36942 10 0.00 0.00 198.50 2.3 957.70	20.7264150943	198.50	2.30	Cloudy(cloudy)	True	False	2.30
2011-02-01 11:00:00 36943 11 217.63 0.00 217.63 2.0 1050.00	20.7264150943	217.63	2.00	Cloudy(cloudy)	True	False	2.00
2011-02-01 12:00:00 36944 12 219.70 0.00 219.70 3.8 1060.00	20.7264150943	219.70	3.80	Cloudy(light_freezing_rain)	True	False	3.80
2011-02-01 13:00:00 36945 13 200.34 0.00 200.34 9.2 966.60	20.7264150943	200.34	9.20	Cloudy(light_freezing_rain)	True	False	9.20
2011-02-01 14:00:00 36946 14 165.29 0.00 165.29 12.6 797.50	20.7264150943	165.29	12.60	Cloudy(cloudy)	True	False	12.60
2011-02-01 15:00:00 36947 15 17.36 0.00 17.36 4.3 514.80	3.37304075235	17.36	4.30	Light_Freezing_Rain(cloudy)	True	False	4.30
2011-02-01 16:00:00 36948 16 9.50 0.00 9.50 0.0 153.70	6.18087182824	9.50	0.00	Light_Freezing_Rain(cloudy)	True	False	0.00
2011-02-01 17:00:00 36949 17 0.19 0.00 0.19 0.0 3.10	6.18087182824	0.19	0.00	Light_Freezing_Rain(fog)	True	False	0.00
2011-02-01 18:00:00 36950 18 0.00 0.00 0.00 0.0 0.00	6.18087182824	0.00	0.00	Freezing_Drizzle(cloudy)	True	False	0.00
2011-02-01 19:00:00 36951 19 0.00 0.00 0.00 0.0 0.00	6.18087182824	0.00	0.00	Freezing_Drizzle(cloudy)	True	False	0.00
2011-02-01 20:00:00 36952 20 0.00 0.00 0.00 0.0 0.00	6.18087182824	0.00	0.00	Freezing_Drizzle(cloudy)	True	False	0.00
2011-02-01 21:00:00 36953 21 0.00 0.00 0.00 0.0 0.00	6.18087182824	0.00	0.00	Freezing_Drizzle(cloudy)	True	False	0.00
2011-02-01 22:00:00 36954 22 0.00 0.00 0.00 0.0 0.00	6.18087182824	0.00	0.00	Freezing_Drizzle(cloudy)	True	False	0.00
2011-02-01 23:00:00 36955 23 0.00 0.00 0.00 0.0 0.00	6.18087182824	0.00	0.00	Freezing_Drizzle(cloudy)	True	False	0.00
2011-02-02 00:00:00 36956 0 0.00 0.00 0.00 0.0 0.00	6.18087182824	0.00	0.00	Light_Freezing_Rain(light_freezing_rain)	True	False	0.00
2011-02-02 01:00:00 36957 1 0.00 0.00 0.00 0.0 0.00	6.18087182824	0.00	0.00	Light_Freezing_Rain(light_freezing_rain)	True	False	0.00
2011-02-02 02:00:00 36958 2 0.00 0.00 0.00 0.0 0.00	6.18087182824	0.00	0.00	Light_Freezing_Rain(wintry_mix)	True	False	0.00
2011-02-02 03:00:00 36959 3 0.00 0.00 0.00 0.0 0.00	3.45765345765	0.00	0.00	Freezing_Rain(freezing_rain)	True	False	0.00
2011-02-02 04:00:00 36960 4 0.00 0.00 0.00 0.0 0.00	3.45765345765	0.00	0.00	Freezing_Rain(freezing_rain)	True	False	0.00
2011-02-02 05:00:00 36961 5 0.00 0.00 0.00 0.0 0.00	3.45765345765	0.00	0.00	Freezing_Rain(light_freezing_rain)	True	False	0.00
2011-02-02 06:00:00 36962 6 0.00 0.00 0.00 0.0 0.00	3.45765345765	0.00	0.00	Wintry_Mix(light_freezing_rain)	True	False	0.00
2011-02-02 07:00:00 36963 7 3.25 3.25 3.25 0.0 94.10	3.45765345765	3.25	0.00	Wintry_Mix(freezing_rain)	True	False	0.00
2011-02-02 08:00:00 36964 8 15.19 15.19 15.19 1.0 439.40	3.45765345765	15.19	1.00	Wintry_Mix(wintry_mix)	True	False	1.00
2011-02-02 09:00:00 36965 9 25.95 25.95 25.95 20.5 750.60	3.45765345765	25.95	20.50	Rain(light_rain)	True	False	20.50
2011-02-02 10:00:00 36966 10 33.11 33.11 33.11 43.8 957.70	3.45765345765	33.11	43.80	Rain(cloudy)	True	False	43.80
2011-02-02 11:00:00 36967 11 36.31 36.31 36.31 91.7 1050.00	3.45765345765	36.31	91.70	Rain(cloudy)	True	False	91.70
2011-02-02 12:00:00 36968 12 36.65 36.65 36.65 131.5 1060.00	3.45765345765	36.65	131.50	Showers(cloudy)	True	False	131.50
2011-02-02 13:00:00 36969 13 33.42 33.42 33.42 139.2 966.60	3.45765345765	33.42	139.20	Showers(fog)	True	False	139.20
2011-02-02 14:00:00 36970 14 27.57 27.57 27.57 137.0 797.50	3.45765345765	27.57	137.00	Showers(fog)	True	False	137.00
2011-02-02 15:00:00 36971 15 17.36 17.36 17.36 92.4 514.80	3.37304075235	17.36	92.40	Few_Showers(cloudy)	True	False	92.40
2011-02-02 16:00:00 36972 16 9.50 9.50 9.50 28.9 153.70	6.18087182824	9.50	28.90	Few_Showers(fog)	True	False	28.90
2011-02-02 17:00:00 36973 17 0.19 0.19 0.19 0.0 3.10	6.18087182824	0.19	0.00	Few_Showers(cloudy)	True	False	0.00
2011-02-02 18:00:00 36974 18 0.00 0.00 0.00 0.0 0.00	24.0728692258	0.00	0.00	Mostly_Cloudy(partly_cloudy)	True	False	0.00
2011-02-02 19:00:00 36975 19 0.00 0.00 0.00 0.0 0.00	24.0728692258	0.00	0.00	Mostly_Cloudy(fair)	True	False	0.00
2011-02-02 20:00:00 36976 20 0.00 0.00 0.00 0.0 0.00	24.0728692258	0.00	0.00	Mostly_Cloudy(fair)	True	False	0.00
2011-02-02 21:00:00 36977 21 0.00 0.00 0.00 0.0 0.00	43.1359791802	0.00	0.00	Partly_Cloudy(partly_cloudy)	True	False	0.00
2011-02-02 22:00:00 36978 22 0.00 0.00 0.00 0.0 0.00	43.1359791802	0.00	0.00	Partly_Cloudy(fair)	True	False	0.00
2011-02-02 23:00:00 36979 23 0.00 0.00 0.00 0.0 0.00	43.1359791802	0.00	0.00	Partly_Cloudy(cloudy)	True	False	0.00
2011-02-03 00:00:00 36980 0 0.00 0.00 0.00 0.0 0.00	24.0728692258	0.00	0.00	Mostly_Cloudy(cloudy)	True	False	0.00
2011-02-03 01:00:00 36981 1 0.00 0.00 0.00 0.0 0.00	24.0728692258	0.00	0.00	Mostly_Cloudy(cloudy)	True	False	0.00
2011-02-03 02:00:00 36982 2 0.00 0.00 0.00 0.0 0.00	24.0728692258	0.00	0.00	Mostly_Cloudy(cloudy)	True	False	0.00
2011-02-03 03:00:00 36983 3 0.00 0.00 0.00 0.0 0.00	43.1359791802	0.00	0.00	Partly_Cloudy(cloudy)	True	False	0.00
2011-02-03 04:00:00 36984 4 0.00 0.00 0.00 0.0 0.00	43.1359791802	0.00	0.00	Partly_Cloudy(cloudy)	True	False	0.00
2011-02-03 05:00:00 36985 5 0.00 0.00 0.00 0.0 0.00	43.1359791802	0.00	0.00	Partly_Cloudy(cloudy)	True	False	0.00
2011-02-03 06:00:00 36986 6 0.00 0.00 0.00 0.0 0.00	43.1359791802	0.00	0.00	Partly_Cloudy(mostly_cloudy)	True	False	0.00
2011-02-03 07:00:00 36987 7 40.59 40.59 40.59 12.7 94.10	43.1359791802	40.59	12.70	Partly_Cloudy(Unkown)	True	False	12.70
2011-02-03 08:00:00 36988 8 189.54 189.54 189.54 128.9 439.40	43.1359791802	189.54	128.90	Partly_Cloudy(Unkown)	True	False	128.90
2011-02-03 09:00:00 36989 9 323.78 323.78 323.78 451.1 750.60	43.1359791802	323.78	451.10	Partly_Cloudy(cloudy)	True	False	451.10
