2011-01-23 14:00:00 26794 14 668.07 668.07 442.91 289.7 765.70	57.8438802577	442.91	289.70	Partly_Cloudy(fair)	True	False	289.70
2011-01-23 15:00:00 26795 15 180.28 180.28 275.63 140.1 476.50	57.8438802577	275.63	140.10	Partly_Cloudy(fair)	True	False	140.10
2011-01-23 16:00:00 26796 16 57.40 46.61 57.40 20.4 123.20	46.5897166842	57.40	20.40	Partly_Cloudy(fair)	True	False	20.40
2011-01-23 17:00:00 26797 17 0.65 0.53 0.65 0.0 1.40	46.5897166842	0.65	0.00	Partly_Cloudy(fair)	True	False	0.00
2011-01-23 18:00:00 26798 18 0.00 0.00 0.00 0.0 0.00	46.5897166842	0.00	0.00	Partly_Cloudy(fair)	True	False	0.00
2011-01-23 19:00:00 26799 19 0.00 0.00 0.00 0.0 0.00	46.5897166842	0.00	0.00	Partly_Cloudy(fair)	True	False	0.00
2011-01-23 20:00:00 26800 20 0.00 0.00 0.00 0.0 0.00	82.2857142857	0.00	0.00	Clear(fair)	True	False	0.00
2011-01-23 21:00:00 26801 21 0.00 0.00 0.00 0.0 0.00	82.2857142857	0.00	0.00	Clear(fair)	True	False	0.00
2011-01-23 22:00:00 26802 22 0.00 0.00 0.00 0.0 0.00	82.2857142857	0.00	0.00	Clear(fair)	True	False	0.00
2011-01-23 23:00:00 26803 23 0.00 0.00 0.00 0.0 0.00	82.2857142857	0.00	0.00	Clear(fair)	True	False	0.00
2011-01-24 00:00:00 26804 0 0.00 0.00 0.00 0.0 0.00	82.2857142857	0.00	0.00	Clear(fair)	True	False	0.00
2011-01-24 01:00:00 26805 1 0.00 0.00 0.00 0.0 0.00	82.2857142857	0.00	0.00	Clear(fair)	True	False	0.00
2011-01-24 02:00:00 26806 2 0.00 0.00 0.00 0.0 0.00	82.2857142857	0.00	0.00	Clear(fair)	True	False	0.00
2011-01-24 03:00:00 26807 3 0.00 0.00 0.00 0.0 0.00	82.2857142857	0.00	0.00	Clear(fair)	True	False	0.00
2011-01-24 04:00:00 26808 4 0.00 0.00 0.00 0.0 0.00	82.2857142857	0.00	0.00	Clear(fair)	True	False	0.00
2011-01-24 05:00:00 26809 5 0.00 0.00 0.00 0.0 0.00	82.2857142857	0.00	0.00	Clear(fair)	True	False	0.00
2011-01-24 06:00:00 26810 6 0.00 0.00 0.00 0.0 0.00	82.2857142857	0.00	0.00	Clear(fair)	True	False	0.00
2011-01-24 07:00:00 26811 7 56.78 56.78 56.78 19.0 69.00	82.2857142857	56.78	19.00	Clear(fair)	True	False	19.00
2011-01-24 08:00:00 26812 8 349.96 349.96 349.96 155.2 425.30	82.2857142857	349.96	155.20	Sunny(fair)	True	False	155.20
2011-01-24 09:00:00 26813 9 617.64 617.64 617.64 291.0 750.60	82.2857142857	617.64	291.00	Sunny(fair)	True	False	291.00
2011-01-24 10:00:00 26814 10 835.60 835.60 835.60 385.0 957.70	87.2501998401	835.60	385.00	Sunny(fair)	True	False	385.00
2011-01-24 11:00:00 26815 11 916.13 916.13 916.13 446.3 1050.00	87.2501998401	916.13	446.30	Sunny(fair)	True	False	446.30
2011-01-24 12:00:00 26816 12 921.01 921.01 921.01 485.1 1055.60	87.2501998401	921.01	485.10	Mostly_Sunny(fair)	False	False	485.10
2011-01-24 13:00:00 26817 13 823.12 823.12 823.12 460.8 943.40	87.2501998401	823.12	460.80	Mostly_Sunny(fair)	False	False	460.80
2011-01-24 14:00:00 26818 14 668.07 668.07 668.07 379.3 765.70	87.2501998401	668.07	379.30	Mostly_Sunny(fair)	False	False	379.30
2011-01-24 15:00:00 26819 15 275.63 275.63 275.63 215.2 476.50	57.8438802577	275.63	215.20	Partly_Cloudy(fair)	True	False	215.20
2011-01-24 16:00:00 26820 16 57.40 57.40 57.40 30.1 123.20	46.5897166842	57.40	30.10	Partly_Cloudy(mostly_cloudy)	True	False	30.10
2011-01-24 17:00:00 26821 17 0.65 0.65 0.65 0.0 1.40	46.5897166842	0.65	0.00	Partly_Cloudy(fair)	True	False	0.00
2011-01-24 18:00:00 26822 18 0.00 0.00 0.00 0.0 0.00	28.547561867	0.00	0.00	Mostly_Cloudy(cloudy)	True	False	0.00
2011-01-24 19:00:00 26823 19 0.00 0.00 0.00 0.0 0.00	28.547561867	0.00	0.00	Mostly_Cloudy(cloudy)	True	False	0.00
2011-01-24 20:00:00 26824 20 0.00 0.00 0.00 0.0 0.00	28.547561867	0.00	0.00	Mostly_Cloudy(cloudy)	True	False	0.00
2011-01-24 21:00:00 26825 21 0.00 0.00 0.00 0.0 0.00	28.547561867	0.00	0.00	Mostly_Cloudy(cloudy)	True	False	0.00
2011-01-24 22:00:00 26826 22 0.00 0.00 0.00 0.0 0.00	28.547561867	0.00	0.00	Mostly_Cloudy(mostly_cloudy)	True	False	0.00
2011-01-24 23:00:00 26827 23 0.00 0.00 0.00 0.0 0.00	28.547561867	0.00	0.00	Mostly_Cloudy(cloudy)	True	False	0.00
2011-01-25 00:00:00 26828 0 0.00 0.00 0.00 0.0 0.00	18.3420776495	0.00	0.00	Cloudy(cloudy)	True	False	0.00
2011-01-25 01:00:00 26829 1 0.00 0.00 0.00 0.0 0.00	18.3420776495	0.00	0.00	Cloudy(cloudy)	True	False	0.00
2011-01-25 02:00:00 26830 2 0.00 0.00 0.00 0.0 0.00	18.3420776495	0.00	0.00	Cloudy(cloudy)	True	False	0.00
2011-01-25 03:00:00 26831 3 0.00 0.00 0.00 0.0 0.00	18.3420776495	0.00	0.00	Flurries(cloudy)	False	False	0.00
2011-01-25 04:00:00 26832 4 0.00 0.00 0.00 0.0 0.00	18.3420776495	0.00	0.00	Flurries(cloudy)	False	False	0.00
2011-01-25 05:00:00 26833 5 0.00 0.00 0.00 0.0 0.00	18.3420776495	0.00	0.00	Flurries(cloudy)	False	False	0.00
2011-01-25 06:00:00 26834 6 0.00 0.00 0.00 0.0 0.00	18.3420776495	0.00	0.00	Flurries(cloudy)	False	False	0.00
2011-01-25 07:00:00 26835 7 12.66 12.66 12.66 0.0 69.00	18.3420776495	12.66	0.00	Flurries(light_snow)	False	False	0.00
2011-01-25 08:00:00 26836 8 78.01 78.01 78.01 8.5 425.30	18.3420776495	78.01	8.50	Flurries(light_snow)	False	False	8.50
2011-01-25 09:00:00 26837 9 214.28 214.28 214.28 18.5 750.60	28.547561867	214.28	18.50	Mostly_Cloudy(light_snow)	True	False	18.50
2011-01-25 10:00:00 26838 10 314.70 314.70 314.70 27.6 957.70	32.8598685605	314.70	27.60	Mostly_Cloudy(cloudy)	True	False	27.60
2011-01-25 11:00:00 26839 11 345.03 345.03 345.03 89.6 1050.00	32.8598685605	345.03	89.60	Mostly_Cloudy(cloudy)	True	False	89.60
2011-01-25 12:00:00 26840 12 46.29 46.29 46.29 242.2 1055.60	4.38550694372	46.29	242.20	Few_Snow_Showers(fair)	True	False	242.20
2011-01-25 13:00:00 26841 13 41.37 41.37 41.37 310.9 943.40	4.38550694372	41.37	310.90	Few_Snow_Showers(partly_cloudy)	True	False	310.90
