2011-01-24 18:00:00 28159 18 0.00 0.00 0.00 0.0 0.00	28.547561867	0.00	0.00	Mostly_Cloudy(cloudy)	True	False	0.00
2011-01-24 19:00:00 28160 19 0.00 0.00 0.00 0.0 0.00	46.9491073808	0.00	0.00	Partly_Cloudy(cloudy)	True	False	0.00
2011-01-24 20:00:00 28161 20 0.00 0.00 0.00 0.0 0.00	28.547561867	0.00	0.00	Mostly_Cloudy(cloudy)	True	False	0.00
2011-01-24 21:00:00 28162 21 0.00 0.00 0.00 0.0 0.00	28.547561867	0.00	0.00	Mostly_Cloudy(cloudy)	True	False	0.00
2011-01-24 22:00:00 28163 22 0.00 0.00 0.00 0.0 0.00	28.547561867	0.00	0.00	Mostly_Cloudy(mostly_cloudy)	True	False	0.00
2011-01-24 23:00:00 28164 23 0.00 0.00 0.00 0.0 0.00	20.4952380952	0.00	0.00	Cloudy(cloudy)	True	False	0.00
2011-01-25 00:00:00 28165 0 0.00 0.00 0.00 0.0 0.00	20.4952380952	0.00	0.00	Flurries(cloudy)	False	False	0.00
2011-01-25 01:00:00 28166 1 0.00 0.00 0.00 0.0 0.00	20.4952380952	0.00	0.00	Flurries(cloudy)	False	False	0.00
2011-01-25 02:00:00 28167 2 0.00 0.00 0.00 0.0 0.00	20.4952380952	0.00	0.00	Flurries(cloudy)	False	False	0.00
2011-01-25 03:00:00 28168 3 0.00 0.00 0.00 0.0 0.00	1.41220357048	0.00	0.00	Few_Snow_Showers(cloudy)	True	False	0.00
2011-01-25 04:00:00 28169 4 0.00 0.00 0.00 0.0 0.00	1.41220357048	0.00	0.00	Few_Snow_Showers(cloudy)	True	False	0.00
2011-01-25 05:00:00 28170 5 0.00 0.00 0.00 0.0 0.00	1.41220357048	0.00	0.00	Few_Snow_Showers(cloudy)	True	False	0.00
2011-01-25 06:00:00 28171 6 0.00 0.00 0.00 0.0 0.00	1.41220357048	0.00	0.00	Few_Snow_Showers(cloudy)	True	False	0.00
2011-01-25 07:00:00 28172 7 0.97 0.97 0.97 0.0 69.00	1.41220357048	0.97	0.00	Few_Snow_Showers(light_snow)	True	False	0.00
2011-01-25 08:00:00 28173 8 6.01 6.01 6.01 8.5 425.30	1.41220357048	6.01	8.50	Few_Snow_Showers(light_snow)	True	False	8.50
2011-01-25 09:00:00 28174 9 10.60 10.60 10.60 18.5 750.60	1.41220357048	10.60	18.50	Few_Snow_Showers(light_snow)	True	False	18.50
2011-01-25 10:00:00 28175 10 42.00 42.00 42.00 27.6 957.70	4.38550694372	42.00	27.60	Few_Snow_Showers(cloudy)	True	False	27.60
2011-01-25 11:00:00 28176 11 46.05 46.05 46.05 89.6 1050.00	4.38550694372	46.05	89.60	Few_Snow_Showers(cloudy)	True	False	89.60
2011-01-25 12:00:00 28177 12 46.29 46.29 46.29 242.2 1055.60	4.38550694372	46.29	242.20	Few_Snow_Showers(fair)	True	False	242.20
2011-01-25 13:00:00 28178 13 41.37 41.37 41.37 310.9 943.40	4.38550694372	41.37	310.90	Few_Snow_Showers(partly_cloudy)	True	False	310.90
2011-01-25 14:00:00 28179 14 33.58 33.58 33.58 246.0 765.70	4.38550694372	33.58	246.00	Few_Snow_Showers(fair)	True	False	246.00
2011-01-25 15:00:00 28180 15 157.58 157.58 157.58 89.3 476.50	33.0712391057	157.58	89.30	Mostly_Cloudy(mostly_cloudy)	True	False	89.30
2011-01-25 16:00:00 28181 16 36.54 36.54 36.54 12.8 128.00	28.547561867	36.54	12.80	Mostly_Cloudy(cloudy)	True	False	12.80
2011-01-25 17:00:00 28182 17 0.51 0.51 0.51 0.0 1.80	28.547561867	0.51	0.00	Mostly_Cloudy(cloudy)	True	False	0.00
2011-01-25 18:00:00 28183 18 0.00 0.00 0.00 0.0 0.00	46.9491073808	0.00	0.00	Partly_Cloudy(cloudy)	True	False	0.00
2011-01-25 19:00:00 28184 19 0.00 0.00 0.00 0.0 0.00	46.9491073808	0.00	0.00	Partly_Cloudy(cloudy)	True	False	0.00
2011-01-25 20:00:00 28185 20 0.00 0.00 0.00 0.0 0.00	46.9491073808	0.00	0.00	Partly_Cloudy(cloudy)	True	False	0.00
2011-01-25 21:00:00 28186 21 0.00 0.00 0.00 0.0 0.00	46.9491073808	0.00	0.00	Partly_Cloudy(cloudy)	True	False	0.00
2011-01-25 22:00:00 28187 22 0.00 0.00 0.00 0.0 0.00	46.9491073808	0.00	0.00	Partly_Cloudy(cloudy)	True	False	0.00
2011-01-25 23:00:00 28188 23 0.00 0.00 0.00 0.0 0.00	46.9491073808	0.00	0.00	Partly_Cloudy(cloudy)	True	False	0.00
2011-01-26 00:00:00 28189 0 0.00 0.00 0.00 0.0 0.00	28.547561867	0.00	0.00	Mostly_Cloudy(fair)	True	False	0.00
2011-01-26 01:00:00 28190 1 0.00 0.00 0.00 0.0 0.00	28.547561867	0.00	0.00	Mostly_Cloudy(fair)	True	False	0.00
2011-01-26 02:00:00 28191 2 0.00 0.00 0.00 0.0 0.00	28.547561867	0.00	0.00	Mostly_Cloudy(fair)	True	False	0.00
2011-01-26 03:00:00 28192 3 0.00 0.00 0.00 0.0 0.00	20.4952380952	0.00	0.00	Cloudy(fair)	True	False	0.00
2011-01-26 04:00:00 28193 4 0.00 0.00 0.00 0.0 0.00	20.4952380952	0.00	0.00	Cloudy(mostly_cloudy)	True	False	0.00
2011-01-26 05:00:00 28194 5 0.00 0.00 0.00 0.0 0.00	20.4952380952	0.00	0.00	Cloudy(mostly_cloudy)	True	False	0.00
2011-01-26 06:00:00 28195 6 0.00 0.00 0.00 0.0 0.00	20.4952380952	0.00	0.00	Cloudy(cloudy)	True	False	0.00
2011-01-26 07:00:00 28196 7 14.14 14.14 14.14 0.0 69.00	20.4952380952	14.14	0.00	Cloudy(Unkown)	True	False	0.00
2011-01-26 08:00:00 28197 8 87.17 87.17 87.17 0.0 425.30	20.4952380952	87.17	0.00	Cloudy(snow)	True	False	0.00
2011-01-26 09:00:00 28198 9 0.00 0.00 0.00 0.0 750.60	0.0	0.00	0.00	Snow_Shower(snow_and_fog)	True	False	0.00
2011-01-26 10:00:00 28199 10 0.00 0.00 0.00 0.1 957.70	0.0	0.00	0.10	Snow_Shower(heavy_snow)	True	False	0.10
2011-01-26 11:00:00 28200 11 0.00 0.00 0.00 0.4 1050.00	0.0	0.00	0.40	Snow_Shower(light_snow)	True	False	0.40
2011-01-26 12:00:00 28201 12 46.29 46.29 46.29 5.4 1055.60	4.38550694372	46.29	5.40	Rain_/_Snow_Showers(Unkown)	True	False	5.40
2011-01-26 13:00:00 28202 13 41.37 41.37 41.37 8.0 943.40	4.38550694372	41.37	8.00	Rain_/_Snow_Showers(Unkown)	True	False	8.00
2011-01-26 14:00:00 28203 14 33.58 33.58 33.58 5.3 765.70	4.38550694372	33.58	5.30	Rain_/_Snow_Showers(light_snow)	True	False	5.30
2011-01-26 15:00:00 28204 15 0.00 0.00 0.00 0.2 476.50	0.0	0.00	0.20	Snow_Shower(light_snow)	True	False	0.20
2011-01-26 16:00:00 28205 16 0.00 0.00 0.00 0.0 128.00	0.0	0.00	0.00	Snow_Shower(light_snow)	True	False	0.00
2011-01-26 17:00:00 28206 17 0.00 0.00 0.00 0.0 1.80	0.0	0.00	0.00	Snow_Shower(cloudy)	True	False	0.00
2011-01-26 18:00:00 28207 18 0.00 0.00 0.00 0.0 0.00	20.4952380952	0.00	0.00	Cloudy(wintry_mix)	True	False	0.00
