2011-01-12 01:00:00 13385 1 0.00 0.00 0.00 0.0 0.00	22.7103499628	0.00	0.00	Snow(light_snow)	True	False	0.00
2011-01-12 02:00:00 13386 2 0.00 0.00 0.00 0.0 0.00	22.7103499628	0.00	0.00	Snow(light_snow)	True	False	0.00
2011-01-12 03:00:00 13387 3 0.00 0.00 0.00 0.0 0.00	22.7103499628	0.00	0.00	Snow(snow)	True	False	0.00
2011-01-12 04:00:00 13388 4 0.00 0.00 0.00 0.0 0.00	33.5051546392	0.00	0.00	Cloudy(light_snow)	True	False	0.00
2011-01-12 05:00:00 13389 5 0.00 0.00 0.00 0.0 0.00	33.5051546392	0.00	0.00	Cloudy(mostly_cloudy)	True	False	0.00
2011-01-12 06:00:00 13390 6 0.00 0.00 0.00 0.0 0.00	33.5051546392	0.00	0.00	Cloudy(cloudy)	True	False	0.00
2011-01-12 07:00:00 13391 7 11.14 11.14 11.14 0.0 38.80	28.7037037037	11.14	0.00	Light_Snow(fair)	True	False	0.00
2011-01-12 08:00:00 13392 8 100.43 100.43 100.43 0.0 349.90	28.7037037037	100.43	0.00	Light_Snow(fair)	True	False	0.00
2011-01-12 09:00:00 13393 9 151.75 151.75 151.75 0.5 668.20	22.7103499628	151.75	0.50	Snow_Shower(fair)	True	False	0.50
2011-01-12 10:00:00 13394 10 202.46 202.46 202.46 5.3 891.50	22.7103499628	202.46	5.30	Snow_Shower(haze)	True	False	5.30
2011-01-12 11:00:00 13395 11 219.29 219.29 219.29 8.0 965.60	22.7103499628	219.29	8.00	Snow_Shower(light_snow)	True	False	8.00
2011-01-12 12:00:00 13396 12 286.55 286.55 286.55 15.7 998.30	28.7037037037	286.55	15.70	Few_Snow_Showers(cloudy)	True	False	15.70
2011-01-12 13:00:00 13397 13 248.00 248.00 248.00 14.9 864.00	28.7037037037	248.00	14.90	Few_Snow_Showers(light_snow)	True	False	14.90
2011-01-12 14:00:00 13398 14 192.75 192.75 192.75 11.4 671.50	28.7037037037	192.75	11.40	Few_Snow_Showers(light_snow)	True	False	11.40
2011-01-12 15:00:00 13399 15 101.64 101.64 101.64 11.8 354.10	28.7037037037	101.64	11.80	Few_Snow_Showers(light_snow)	True	False	11.80
2011-01-12 16:00:00 13400 16 19.03 19.03 19.03 0.0 66.30	28.7037037037	19.03	0.00	Few_Snow_Showers(cloudy)	True	False	0.00
2011-01-12 17:00:00 13401 17 0.09 0.09 0.09 0.0 0.30	28.7037037037	0.09	0.00	Few_Snow_Showers(light_snow)	True	False	0.00
2011-01-12 18:00:00 13402 18 0.00 0.00 0.00 0.0 0.00	28.7037037037	0.00	0.00	Few_Snow_Showers(cloudy)	True	False	0.00
2011-01-12 19:00:00 13403 19 0.00 0.00 0.00 0.0 0.00	28.7037037037	0.00	0.00	Few_Snow_Showers(cloudy)	True	False	0.00
2011-01-12 20:00:00 13404 20 0.00 0.00 0.00 0.0 0.00	28.7037037037	0.00	0.00	Few_Snow_Showers(cloudy)	True	False	0.00
2011-01-12 21:00:00 13405 21 0.00 0.00 0.00 0.0 0.00	28.7037037037	0.00	0.00	Few_Snow_Showers(mostly_cloudy)	True	False	0.00
2011-01-12 22:00:00 13406 22 0.00 0.00 0.00 0.0 0.00	28.7037037037	0.00	0.00	Few_Snow_Showers(mostly_cloudy)	True	False	0.00
2011-01-12 23:00:00 13407 23 0.00 0.00 0.00 0.0 0.00	28.7037037037	0.00	0.00	Few_Snow_Showers(mostly_cloudy)	True	False	0.00
2011-01-13 00:00:00 13408 0 0.00 0.00 0.00 0.0 0.00	33.5051546392	0.00	0.00	Cloudy(fair)	True	False	0.00
2011-01-13 01:00:00 13409 1 0.00 0.00 0.00 0.0 0.00	33.5051546392	0.00	0.00	Cloudy(fair)	True	False	0.00
2011-01-13 02:00:00 13410 2 0.00 0.00 0.00 0.0 0.00	33.5051546392	0.00	0.00	Cloudy(fair)	True	False	0.00
2011-01-13 03:00:00 13411 3 0.00 0.00 0.00 0.0 0.00	48.2137753644	0.00	0.00	Mostly_Cloudy(fair)	True	False	0.00
2011-01-13 04:00:00 13412 4 0.00 0.00 0.00 0.0 0.00	48.2137753644	0.00	0.00	Mostly_Cloudy(fair)	True	False	0.00
2011-01-13 05:00:00 13413 5 0.00 0.00 0.00 0.0 0.00	48.2137753644	0.00	0.00	Mostly_Cloudy(fair)	True	False	0.00
2011-01-13 06:00:00 13414 6 0.00 0.00 0.00 0.0 0.00	52.7897425624	0.00	0.00	Partly_Cloudy(fair)	True	False	0.00
2011-01-13 07:00:00 13415 7 20.48 20.48 20.48 0.2 38.80	52.7897425624	20.48	0.20	Partly_Cloudy(fair)	True	False	0.20
2011-01-13 08:00:00 13416 8 184.71 184.71 184.71 15.9 349.90	52.7897425624	184.71	15.90	Partly_Cloudy(fair)	True	False	15.90
2011-01-13 09:00:00 13417 9 352.74 352.74 352.74 40.8 668.20	52.7897425624	352.74	40.80	Mostly_Sunny(fair)	False	False	40.80
2011-01-13 10:00:00 13418 10 470.62 470.62 470.62 68.0 891.50	52.7897425624	470.62	68.00	Mostly_Sunny(fair)	False	False	68.00
2011-01-13 11:00:00 13419 11 509.74 509.74 509.74 116.4 965.60	52.7897425624	509.74	116.40	Mostly_Sunny(fair)	False	False	116.40
2011-01-13 12:00:00 13420 12 527.00 527.00 527.00 173.0 998.30	52.7897425624	527.00	173.00	Mostly_Sunny(fair)	False	False	173.00
2011-01-13 13:00:00 13421 13 456.10 456.10 456.10 203.9 864.00	52.7897425624	456.10	203.90	Mostly_Sunny(fair)	False	False	203.90
2011-01-13 14:00:00 13422 14 354.48 354.48 354.48 181.3 671.50	52.7897425624	354.48	181.30	Mostly_Sunny(Unkown)	False	False	181.30
2011-01-13 15:00:00 13423 15 186.93 186.93 186.93 95.1 354.10	52.7897425624	186.93	95.10	Mostly_Sunny(fair)	False	False	95.10
2011-01-13 16:00:00 13424 16 35.00 35.00 35.00 6.8 66.30	52.7897425624	35.00	6.80	Mostly_Sunny(fair)	False	False	6.80
2011-01-13 17:00:00 13425 17 0.16 0.16 0.16 0.0 0.30	52.7897425624	0.16	0.00	Mostly_Clear(fair)	False	False	0.00
2011-01-13 18:00:00 13426 18 0.00 0.00 0.00 0.0 0.00	52.7897425624	0.00	0.00	Mostly_Clear(fair)	False	False	0.00
2011-01-13 19:00:00 13427 19 0.00 0.00 0.00 0.0 0.00	52.7897425624	0.00	0.00	Mostly_Clear(fair)	False	False	0.00
2011-01-13 20:00:00 13428 20 0.00 0.00 0.00 0.0 0.00	52.7897425624	0.00	0.00	Mostly_Clear(fair)	False	False	0.00
2011-01-13 21:00:00 13429 21 0.00 0.00 0.00 0.0 0.00	89.0245718541	0.00	0.00	Clear(fair)	True	False	0.00
2011-01-13 22:00:00 13430 22 0.00 0.00 0.00 0.0 0.00	89.0245718541	0.00	0.00	Clear(fair)	True	False	0.00
2011-01-13 23:00:00 13431 23 0.00 0.00 0.00 0.0 0.00	89.0245718541	0.00	0.00	Clear(fair)	True	False	0.00
2011-01-14 00:00:00 13432 0 0.00 0.00 0.00 0.0 0.00	89.0245718541	0.00	0.00	Clear(fair)	True	False	0.00
2011-01-14 01:00:00 13433 1 0.00 0.00 0.00 0.0 0.00	89.0245718541	0.00	0.00	Clear(fair)	True	False	0.00
