2011-01-13 03:00:00 14640 3 0.00 0.00 0.00 0.0 0.00	52.8997514499	0.00	0.00	Partly_Cloudy(fair)	True	False	0.00
2011-01-13 04:00:00 14641 4 0.00 0.00 0.00 0.0 0.00	52.8997514499	0.00	0.00	Partly_Cloudy(fair)	True	False	0.00
2011-01-13 05:00:00 14642 5 0.00 0.00 0.00 0.0 0.00	52.8997514499	0.00	0.00	Partly_Cloudy(fair)	True	False	0.00
2011-01-13 06:00:00 14643 6 0.00 0.00 0.00 0.0 0.00	52.8997514499	0.00	0.00	Mostly_Clear(fair)	False	False	0.00
2011-01-13 07:00:00 14644 7 36.45 36.45 36.45 0.2 40.30	90.4430734717	36.45	0.20	Clear(fair)	True	False	0.20
2011-01-13 08:00:00 14645 8 316.46 316.46 316.46 15.9 349.90	90.4430734717	316.46	15.90	Sunny(fair)	True	False	15.90
2011-01-13 09:00:00 14646 9 604.34 604.34 604.34 40.8 668.20	90.4430734717	604.34	40.80	Sunny(fair)	True	False	40.80
2011-01-13 10:00:00 14647 10 823.53 823.53 823.53 68.0 891.50	92.3752792256	823.53	68.00	Sunny(fair)	True	False	68.00
2011-01-13 11:00:00 14648 11 891.98 891.98 891.98 116.4 965.60	92.3752792256	891.98	116.40	Sunny(fair)	True	False	116.40
2011-01-13 12:00:00 14649 12 922.18 922.18 922.18 173.0 998.30	92.3752792256	922.18	173.00	Mostly_Sunny(fair)	False	False	173.00
2011-01-13 13:00:00 14650 13 798.12 798.12 798.12 203.9 864.00	92.3752792256	798.12	203.90	Mostly_Sunny(fair)	False	False	203.90
2011-01-13 14:00:00 14651 14 620.30 620.30 620.30 181.3 671.50	92.3752792256	620.30	181.30	Mostly_Sunny(Unkown)	False	False	181.30
2011-01-13 15:00:00 14652 15 238.18 238.18 238.18 95.1 354.70	67.149958575	238.18	95.10	Partly_Cloudy(fair)	True	False	95.10
2011-01-13 16:00:00 14653 16 51.57 51.57 51.57 6.8 76.80	67.149958575	51.57	6.80	Mostly_Sunny(fair)	False	False	6.80
2011-01-13 17:00:00 14654 17 0.20 0.20 0.20 0.0 0.30	67.149958575	0.20	0.00	Mostly_Clear(fair)	False	False	0.00
2011-01-13 18:00:00 14655 18 0.00 0.00 0.00 0.0 0.00	90.4430734717	0.00	0.00	Clear(fair)	True	False	0.00
2011-01-13 19:00:00 14656 19 0.00 0.00 0.00 0.0 0.00	90.4430734717	0.00	0.00	Clear(fair)	True	False	0.00
2011-01-13 20:00:00 14657 20 0.00 0.00 0.00 0.0 0.00	90.4430734717	0.00	0.00	Clear(fair)	True	False	0.00
2011-01-13 21:00:00 14658 21 0.00 0.00 0.00 0.0 0.00	90.4430734717	0.00	0.00	Clear(fair)	True	False	0.00
2011-01-13 22:00:00 14659 22 0.00 0.00 0.00 0.0 0.00	90.4430734717	0.00	0.00	Clear(fair)	True	False	0.00
2011-01-13 23:00:00 14660 23 0.00 0.00 0.00 0.0 0.00	90.4430734717	0.00	0.00	Clear(fair)	True	False	0.00
2011-01-14 00:00:00 14661 0 0.00 0.00 0.00 0.0 0.00	90.4430734717	0.00	0.00	Clear(fair)	True	False	0.00
2011-01-14 01:00:00 14662 1 0.00 0.00 0.00 0.0 0.00	90.4430734717	0.00	0.00	Clear(fair)	True	False	0.00
2011-01-14 02:00:00 14663 2 0.00 0.00 0.00 0.0 0.00	90.4430734717	0.00	0.00	Clear(fair)	True	False	0.00
2011-01-14 03:00:00 14664 3 0.00 0.00 0.00 0.0 0.00	52.8997514499	0.00	0.00	Partly_Cloudy(fair)	True	False	0.00
2011-01-14 04:00:00 14665 4 0.00 0.00 0.00 0.0 0.00	52.8997514499	0.00	0.00	Partly_Cloudy(fair)	True	False	0.00
2011-01-14 05:00:00 14666 5 0.00 0.00 0.00 0.0 0.00	52.8997514499	0.00	0.00	Partly_Cloudy(fair)	True	False	0.00
2011-01-14 06:00:00 14667 6 0.00 0.00 0.00 0.0 0.00	48.2137753644	0.00	0.00	Mostly_Cloudy(fair)	True	False	0.00
2011-01-14 07:00:00 14668 7 19.43 19.43 19.43 0.9 40.30	48.2137753644	19.43	0.90	Mostly_Cloudy(fair)	True	False	0.90
2011-01-14 08:00:00 14669 8 168.70 168.70 168.70 56.4 349.90	48.2137753644	168.70	56.40	Mostly_Cloudy(fair)	True	False	56.40
2011-01-14 09:00:00 14670 9 217.84 217.84 217.84 144.1 668.20	32.6014913007	217.84	144.10	Cloudy(fair)	True	False	144.10
2011-01-14 10:00:00 14671 10 335.77 335.77 335.77 288.8 891.50	37.664028849	335.77	288.80	Cloudy(fair)	True	False	288.80
2011-01-14 11:00:00 14672 11 363.68 363.68 363.68 356.8 965.60	37.664028849	363.68	356.80	Cloudy(fair)	True	False	356.80
2011-01-14 12:00:00 14673 12 550.22 550.22 550.22 408.8 998.30	55.1154132539	550.22	408.80	Mostly_Cloudy(fair)	True	False	408.80
2011-01-14 13:00:00 14674 13 476.20 476.20 476.20 399.7 864.00	55.1154132539	476.20	399.70	Mostly_Cloudy(fair)	True	False	399.70
2011-01-14 14:00:00 14675 14 370.10 370.10 370.10 314.6 671.50	55.1154132539	370.10	314.60	Mostly_Cloudy(fair)	True	False	314.60
2011-01-14 15:00:00 14676 15 238.18 238.18 238.18 161.5 354.70	67.149958575	238.18	161.50	Partly_Cloudy(fair)	True	False	161.50
2011-01-14 16:00:00 14677 16 40.63 40.63 40.63 13.6 76.80	52.8997514499	40.63	13.60	Partly_Cloudy(fair)	True	False	13.60
2011-01-14 17:00:00 14678 17 0.16 0.16 0.16 0.0 0.30	52.8997514499	0.16	0.00	Partly_Cloudy(fair)	True	False	0.00
2011-01-14 18:00:00 14679 18 0.00 0.00 0.00 0.0 0.00	52.8997514499	0.00	0.00	Mostly_Clear(fair)	False	False	0.00
2011-01-14 19:00:00 14680 19 0.00 0.00 0.00 0.0 0.00	52.8997514499	0.00	0.00	Mostly_Clear(fair)	False	False	0.00
2011-01-14 20:00:00 14681 20 0.00 0.00 0.00 0.0 0.00	52.8997514499	0.00	0.00	Mostly_Clear(fair)	False	False	0.00
2011-01-14 21:00:00 14682 21 0.00 0.00 0.00 0.0 0.00	90.4430734717	0.00	0.00	Clear(fair)	True	False	0.00
2011-01-14 22:00:00 14683 22 0.00 0.00 0.00 0.0 0.00	90.4430734717	0.00	0.00	Clear(fair)	True	False	0.00
2011-01-14 23:00:00 14684 23 0.00 0.00 0.00 0.0 0.00	90.4430734717	0.00	0.00	Clear(fair)	True	False	0.00
2011-01-15 00:00:00 14685 0 0.00 0.00 0.00 0.0 0.00	90.4430734717	0.00	0.00	Mostly_Clear(fair)	False	False	0.00
2011-01-15 01:00:00 14686 1 0.00 0.00 0.00 0.0 0.00	90.4430734717	0.00	0.00	Mostly_Clear(fair)	False	False	0.00
2011-01-15 02:00:00 14687 2 0.00 0.00 0.00 0.0 0.00	90.4430734717	0.00	0.00	Mostly_Clear(fair)	False	False	0.00
2011-01-15 03:00:00 14688 3 0.00 0.00 0.00 0.0 0.00	52.8997514499	0.00	0.00	Partly_Cloudy(fair)	True	False	0.00
