2011-01-03 22:00:00 4092 22 0.00 0.00 0.00 0.0 0.00	91.9352252686	0.00	0.00	Clear(fair)	True	False	0.00
2011-01-03 23:00:00 4093 23 0.00 0.00 0.00 0.0 0.00	80.0060102174	0.00	0.00	Partly_Cloudy(fair)	True	False	0.00
2011-01-04 00:00:00 4094 0 0.00 0.00 0.00 0.0 0.00	80.0060102174	0.00	0.00	Partly_Cloudy(fair)	True	False	0.00
2011-01-04 01:00:00 4095 1 0.00 0.00 0.00 0.0 0.00	80.0060102174	0.00	0.00	Partly_Cloudy(fair)	True	False	0.00
2011-01-04 02:00:00 4096 2 0.00 0.00 0.00 0.0 0.00	80.0060102174	0.00	0.00	Partly_Cloudy(fair)	True	False	0.00
2011-01-04 03:00:00 4097 3 0.00 0.00 0.00 0.0 0.00	80.0060102174	0.00	0.00	Partly_Cloudy(fair)	True	False	0.00
2011-01-04 04:00:00 4098 4 0.00 0.00 0.00 0.0 0.00	70.8133971292	0.00	0.00	Partly_Cloudy(fair)	True	False	0.00
2011-01-04 05:00:00 4099 5 0.00 0.00 0.00 0.0 0.00	70.8133971292	0.00	0.00	Partly_Cloudy(fair)	True	False	0.00
2011-01-04 06:00:00 4100 6 0.00 0.00 0.00 0.0 0.00	70.8133971292	0.00	0.00	Partly_Cloudy(fair)	True	False	0.00
2011-01-04 07:00:00 4101 7 17.35 17.35 17.35 0.6 24.50	70.8133971292	17.35	0.60	Partly_Cloudy(fair)	True	False	0.60
2011-01-04 08:00:00 4102 8 216.19 216.19 216.19 61.7 305.30	70.8133971292	216.19	61.70	Partly_Cloudy(fair)	True	False	61.70
2011-01-04 09:00:00 4103 9 462.62 462.62 462.62 140.1 653.30	70.8133971292	462.62	140.10	Mostly_Clear(fair)	False	False	140.10
2011-01-04 10:00:00 4104 10 631.30 631.30 631.30 215.4 891.50	70.8133971292	631.30	215.40	Mostly_Clear(fair)	False	False	215.40
2011-01-04 11:00:00 4105 11 681.51 681.51 681.51 577.2 962.40	70.8133971292	681.51	577.20	Mostly_Clear(fair)	False	False	577.20
2011-01-04 12:00:00 4106 12 706.93 706.93 706.93 878.6 998.30	70.8133971292	706.93	878.60	Mostly_Clear(cloudy)	False	False	878.60
2011-01-04 13:00:00 4107 13 586.83 586.83 586.83 689.8 828.70	70.8133971292	586.83	689.80	Mostly_Clear(fair)	False	False	689.80
2011-01-04 14:00:00 4108 14 441.66 441.66 441.66 325.4 623.70	70.8133971292	441.66	325.40	Mostly_Clear(partly_cloudy)	False	False	325.40
2011-01-04 15:00:00 4109 15 222.00 222.00 222.00 118.4 313.50	70.8133971292	222.00	118.40	Mostly_Clear(fair)	False	False	118.40
2011-01-04 16:00:00 4110 16 30.59 30.59 30.59 15.7 43.20	70.8133971292	30.59	15.70	Mostly_Clear(fair)	False	False	15.70
2011-01-04 17:00:00 4111 17 0.00 0.00 0.00 0.0 0.00	70.8133971292	0.00	0.00	Mostly_Clear(fair)	False	False	0.00
2011-01-04 18:00:00 4112 18 0.00 0.00 0.00 0.0 0.00	91.9352252686	0.00	0.00	Clear(fair)	True	False	0.00
2011-01-04 19:00:00 4113 19 0.00 0.00 0.00 0.0 0.00	91.9352252686	0.00	0.00	Clear(fair)	True	False	0.00
2011-01-04 20:00:00 4114 20 0.00 0.00 0.00 0.0 0.00	91.9352252686	0.00	0.00	Sunny(fair)	True	False	0.00
2011-01-04 21:00:00 4115 21 0.00 0.00 0.00 0.0 0.00	91.9352252686	0.00	0.00	Sunny(mostly_cloudy)	True	False	0.00
2011-01-04 22:00:00 4116 22 0.00 0.00 0.00 0.0 0.00	91.9352252686	0.00	0.00	Sunny(mostly_cloudy)	True	False	0.00
2011-01-04 23:00:00 4117 23 0.00 0.00 0.00 0.0 0.00	91.9352252686	0.00	0.00	Sunny(partly_cloudy)	True	False	0.00
2011-01-05 00:00:00 4118 0 0.00 0.00 0.00 0.0 0.00	91.9352252686	0.00	0.00	Sunny(fair)	True	False	0.00
2011-01-05 01:00:00 4119 1 0.00 0.00 0.00 0.0 0.00	91.9352252686	0.00	0.00	Sunny(fair)	True	False	0.00
2011-01-05 02:00:00 4120 2 0.00 0.00 0.00 0.0 0.00	91.9352252686	0.00	0.00	Sunny(fair)	True	False	0.00
2011-01-05 03:00:00 4121 3 0.00 0.00 0.00 0.0 0.00	91.9352252686	0.00	0.00	Mostly_Sunny(cloudy)	False	False	0.00
2011-01-05 04:00:00 4122 4 0.00 0.00 0.00 0.0 0.00	91.9352252686	0.00	0.00	Mostly_Sunny(fair)	False	False	0.00
2011-01-05 05:00:00 4123 5 0.00 0.00 0.00 0.0 0.00	91.9352252686	0.00	0.00	Mostly_Clear(fair)	False	False	0.00
2011-01-05 06:00:00 4124 6 0.00 0.00 0.00 0.0 0.00	91.9352252686	0.00	0.00	Mostly_Clear(partly_cloudy)	False	False	0.00
2011-01-05 07:00:00 4125 7 22.52 22.52 22.52 20.0 24.50	91.9352252686	22.52	20.00	Mostly_Clear(fair)	False	False	20.00
2011-01-05 08:00:00 4126 8 280.68 280.68 280.68 277.6 305.30	91.9352252686	280.68	277.60	Mostly_Clear(fair)	False	False	277.60
2011-01-05 09:00:00 4127 9 462.62 462.62 462.62 618.2 653.30	70.8133971292	462.62	618.20	Partly_Cloudy(fair)	True	False	618.20
2011-01-05 10:00:00 4128 10 631.30 631.30 631.30 804.8 891.50	70.8133971292	631.30	804.80	Partly_Cloudy(fair)	True	False	804.80
