2011-01-09 06:00:00 10136 6 0.00 0.00 0.00 0.0 0.00	38.799775659	0.00	0.00	Cloudy/Wind(fair)	True	False	0.00
2011-01-09 07:00:00 10137 7 20.36 20.36 20.36 0.0 38.80	52.469197636	20.36	0.00	Partly_Cloudy/Wind(fair)	True	False	0.00
2011-01-09 08:00:00 10138 8 183.59 183.59 183.59 14.6 349.90	52.469197636	183.59	14.60	Partly_Cloudy/Wind(fair)	True	False	14.60
2011-01-09 09:00:00 10139 9 350.60 350.60 350.60 45.2 668.20	52.469197636	350.60	45.20	Partly_Cloudy(fair)	True	False	45.20
2011-01-09 10:00:00 10140 10 566.50 566.50 566.50 74.7 891.50	63.5443037975	566.50	74.70	Partly_Cloudy(fair)	True	False	74.70
2011-01-09 11:00:00 10141 11 613.58 613.58 613.58 102.6 965.60	63.5443037975	613.58	102.60	Partly_Cloudy(mostly_cloudy)	True	False	102.60
2011-01-09 12:00:00 10142 12 634.36 634.36 634.36 233.6 998.30	63.5443037975	634.36	233.60	Partly_Cloudy(mostly_cloudy)	True	False	233.60
2011-01-09 13:00:00 10143 13 549.02 549.02 549.02 388.4 864.00	63.5443037975	549.02	388.40	Partly_Cloudy(fair)	True	False	388.40
2011-01-09 14:00:00 10144 14 426.70 426.70 426.70 391.8 671.50	63.5443037975	426.70	391.80	Partly_Cloudy(mostly_cloudy)	True	False	391.80
2011-01-09 15:00:00 10145 15 225.01 225.01 225.01 188.8 354.10	63.5443037975	225.01	188.80	Mostly_Sunny(fair)	False	False	188.80
2011-01-09 16:00:00 10146 16 35.27 35.27 35.27 15.7 55.50	63.5443037975	35.27	15.70	Mostly_Sunny(fair)	False	False	15.70
2011-01-09 17:00:00 10147 17 0.00 0.00 0.00 0.0 0.00	63.5443037975	0.00	0.00	Mostly_Clear(fair)	False	False	0.00
2011-01-09 18:00:00 10148 18 0.00 0.00 0.00 0.0 0.00	89.0245718541	0.00	0.00	Clear(fair)	True	False	0.00
2011-01-09 19:00:00 10149 19 0.00 0.00 0.00 0.0 0.00	89.0245718541	0.00	0.00	Clear(fair)	True	False	0.00
2011-01-09 20:00:00 10150 20 0.00 0.00 0.00 0.0 0.00	89.0245718541	0.00	0.00	Clear(fair)	True	False	0.00
2011-01-09 21:00:00 10151 21 0.00 0.00 0.00 0.0 0.00	89.0245718541	0.00	0.00	Clear(fair)	True	False	0.00
2011-01-09 22:00:00 10152 22 0.00 0.00 0.00 0.0 0.00	89.0245718541	0.00	0.00	Clear(fair)	True	False	0.00
2011-01-09 23:00:00 10153 23 0.00 0.00 0.00 0.0 0.00	89.0245718541	0.00	0.00	Clear(fair)	True	False	0.00
2011-01-10 00:00:00 10154 0 0.00 0.00 0.00 0.0 0.00	89.0245718541	0.00	0.00	Clear(fair)	True	False	0.00
2011-01-10 01:00:00 10155 1 0.00 0.00 0.00 0.0 0.00	89.0245718541	0.00	0.00	Clear(fair)	True	False	0.00
2011-01-10 02:00:00 10156 2 0.00 0.00 0.00 0.0 0.00	89.0245718541	0.00	0.00	Clear(fair)	True	False	0.00
2011-01-10 03:00:00 10157 3 0.00 0.00 0.00 0.0 0.00	89.0245718541	0.00	0.00	Clear(fair)	True	False	0.00
2011-01-10 04:00:00 10158 4 0.00 0.00 0.00 0.0 0.00	89.0245718541	0.00	0.00	Clear(fair)	True	False	0.00
2011-01-10 05:00:00 10159 5 0.00 0.00 0.00 0.0 0.00	89.0245718541	0.00	0.00	Clear(fair)	True	False	0.00
2011-01-10 06:00:00 10160 6 0.00 0.00 0.00 0.0 0.00	89.0245718541	0.00	0.00	Clear(fair)	True	False	0.00
2011-01-10 07:00:00 10161 7 34.54 34.54 34.54 17.5 38.80	89.0245718541	34.54	17.50	Clear(fair)	True	False	17.50
2011-01-10 08:00:00 10162 8 311.50 311.50 311.50 237.8 349.90	89.0245718541	311.50	237.80	Sunny(fair)	True	False	237.80
2011-01-10 09:00:00 10163 9 594.86 594.86 594.86 483.0 668.20	89.0245718541	594.86	483.00	Sunny(fair)	True	False	483.00
2011-01-10 10:00:00 10164 10 815.68 815.68 815.68 743.8 891.50	91.4955424221	815.68	743.80	Sunny(fair)	True	False	743.80
2011-01-10 11:00:00 10165 11 883.48 883.48 883.48 870.3 965.60	91.4955424221	883.48	870.30	Sunny(fair)	True	False	870.30
2011-01-10 12:00:00 10166 12 913.40 913.40 913.40 690.9 998.30	91.4955424221	913.40	690.90	Sunny(fair)	True	False	690.90
2011-01-10 13:00:00 10167 13 790.52 790.52 790.52 590.6 864.00	91.4955424221	790.52	590.60	Sunny(fair)	True	False	590.60
2011-01-10 14:00:00 10168 14 614.39 614.39 614.39 324.0 671.50	91.4955424221	614.39	324.00	Sunny(fair)	True	False	324.00
2011-01-10 15:00:00 10169 15 323.99 323.99 323.99 148.2 354.10	91.4955424221	323.99	148.20	Sunny(fair)	True	False	148.20
2011-01-10 16:00:00 10170 16 49.41 49.41 49.41 21.5 55.50	89.0245718541	49.41	21.50	Sunny(fair)	True	False	21.50
2011-01-10 17:00:00 10171 17 0.00 0.00 0.00 0.0 0.00	89.0245718541	0.00	0.00	Clear(fair)	True	False	0.00
2011-01-10 18:00:00 10172 18 0.00 0.00 0.00 0.0 0.00	89.0245718541	0.00	0.00	Clear(fair)	True	False	0.00
2011-01-10 19:00:00 10173 19 0.00 0.00 0.00 0.0 0.00	89.0245718541	0.00	0.00	Clear(Unkown)	True	False	0.00
2011-01-10 20:00:00 10174 20 0.00 0.00 0.00 0.0 0.00	89.0245718541	0.00	0.00	Clear(fair)	True	False	0.00
2011-01-10 21:00:00 10175 21 0.00 0.00 0.00 0.0 0.00	89.0245718541	0.00	0.00	Clear(fair)	True	False	0.00
2011-01-10 22:00:00 10176 22 0.00 0.00 0.00 0.0 0.00	89.0245718541	0.00	0.00	Clear(fair)	True	False	0.00
2011-01-10 23:00:00 10177 23 0.00 0.00 0.00 0.0 0.00	89.0245718541	0.00	0.00	Clear(fair)	True	False	0.00
2011-01-11 00:00:00 10178 0 0.00 0.00 0.00 0.0 0.00	89.0245718541	0.00	0.00	Mostly_Clear(fair)	False	False	0.00
2011-01-11 01:00:00 10179 1 0.00 0.00 0.00 0.0 0.00	89.0245718541	0.00	0.00	Mostly_Clear(fair)	False	False	0.00
2011-01-11 02:00:00 10180 2 0.00 0.00 0.00 0.0 0.00	89.0245718541	0.00	0.00	Mostly_Clear(fair)	False	False	0.00
2011-01-11 03:00:00 10181 3 0.00 0.00 0.00 0.0 0.00	52.469197636	0.00	0.00	Partly_Cloudy(fair)	True	False	0.00
2011-01-11 04:00:00 10182 4 0.00 0.00 0.00 0.0 0.00	52.469197636	0.00	0.00	Partly_Cloudy(fair)	True	False	0.00
2011-01-11 05:00:00 10183 5 0.00 0.00 0.00 0.0 0.00	52.469197636	0.00	0.00	Partly_Cloudy(fair)	True	False	0.00
2011-01-11 06:00:00 10184 6 0.00 0.00 0.00 0.0 0.00	52.469197636	0.00	0.00	Partly_Cloudy(fair)	True	False	0.00
