2011-01-09 07:00:00 10185 7 20.36 20.36 20.36 0.0 38.80	52.469197636	20.36	0.00	Partly_Cloudy/Wind(fair)	True	False	0.00
2011-01-09 08:00:00 10186 8 183.59 183.59 183.59 14.6 349.90	52.469197636	183.59	14.60	Partly_Cloudy(fair)	True	False	14.60
2011-01-09 09:00:00 10187 9 350.60 350.60 350.60 45.2 668.20	52.469197636	350.60	45.20	Partly_Cloudy(fair)	True	False	45.20
2011-01-09 10:00:00 10188 10 566.50 566.50 566.50 74.7 891.50	63.5443037975	566.50	74.70	Partly_Cloudy(fair)	True	False	74.70
2011-01-09 11:00:00 10189 11 613.58 613.58 613.58 102.6 965.60	63.5443037975	613.58	102.60	Partly_Cloudy(mostly_cloudy)	True	False	102.60
2011-01-09 12:00:00 10190 12 634.36 634.36 634.36 233.6 998.30	63.5443037975	634.36	233.60	Partly_Cloudy(mostly_cloudy)	True	False	233.60
2011-01-09 13:00:00 10191 13 549.02 549.02 549.02 388.4 864.00	63.5443037975	549.02	388.40	Partly_Cloudy(fair)	True	False	388.40
2011-01-09 14:00:00 10192 14 426.70 426.70 426.70 391.8 671.50	63.5443037975	426.70	391.80	Partly_Cloudy(mostly_cloudy)	True	False	391.80
2011-01-09 15:00:00 10193 15 225.01 225.01 225.01 188.8 354.10	63.5443037975	225.01	188.80	Mostly_Sunny(fair)	False	False	188.80
2011-01-09 16:00:00 10194 16 35.27 35.27 35.27 15.7 55.50	63.5443037975	35.27	15.70	Mostly_Sunny(fair)	False	False	15.70
2011-01-09 17:00:00 10195 17 0.00 0.00 0.00 0.0 0.00	63.5443037975	0.00	0.00	Mostly_Clear(fair)	False	False	0.00
2011-01-09 18:00:00 10196 18 0.00 0.00 0.00 0.0 0.00	89.0245718541	0.00	0.00	Clear(fair)	True	False	0.00
2011-01-09 19:00:00 10197 19 0.00 0.00 0.00 0.0 0.00	89.0245718541	0.00	0.00	Clear(fair)	True	False	0.00
2011-01-09 20:00:00 10198 20 0.00 0.00 0.00 0.0 0.00	89.0245718541	0.00	0.00	Clear(fair)	True	False	0.00
2011-01-09 21:00:00 10199 21 0.00 0.00 0.00 0.0 0.00	89.0245718541	0.00	0.00	Clear(fair)	True	False	0.00
2011-01-09 22:00:00 10200 22 0.00 0.00 0.00 0.0 0.00	89.0245718541	0.00	0.00	Clear(fair)	True	False	0.00
2011-01-09 23:00:00 10201 23 0.00 0.00 0.00 0.0 0.00	89.0245718541	0.00	0.00	Clear(fair)	True	False	0.00
2011-01-10 00:00:00 10202 0 0.00 0.00 0.00 0.0 0.00	89.0245718541	0.00	0.00	Clear(fair)	True	False	0.00
2011-01-10 01:00:00 10203 1 0.00 0.00 0.00 0.0 0.00	89.0245718541	0.00	0.00	Clear(fair)	True	False	0.00
2011-01-10 02:00:00 10204 2 0.00 0.00 0.00 0.0 0.00	89.0245718541	0.00	0.00	Clear(fair)	True	False	0.00
2011-01-10 03:00:00 10205 3 0.00 0.00 0.00 0.0 0.00	89.0245718541	0.00	0.00	Clear(fair)	True	False	0.00
2011-01-10 04:00:00 10206 4 0.00 0.00 0.00 0.0 0.00	89.0245718541	0.00	0.00	Clear(fair)	True	False	0.00
2011-01-10 05:00:00 10207 5 0.00 0.00 0.00 0.0 0.00	89.0245718541	0.00	0.00	Clear(fair)	True	False	0.00
2011-01-10 06:00:00 10208 6 0.00 0.00 0.00 0.0 0.00	89.0245718541	0.00	0.00	Clear(fair)	True	False	0.00
2011-01-10 07:00:00 10209 7 34.54 34.54 34.54 17.5 38.80	89.0245718541	34.54	17.50	Clear(fair)	True	False	17.50
2011-01-10 08:00:00 10210 8 311.50 311.50 311.50 237.8 349.90	89.0245718541	311.50	237.80	Sunny(fair)	True	False	237.80
2011-01-10 09:00:00 10211 9 594.86 594.86 594.86 483.0 668.20	89.0245718541	594.86	483.00	Sunny(fair)	True	False	483.00
2011-01-10 10:00:00 10212 10 815.68 815.68 815.68 743.8 891.50	91.4955424221	815.68	743.80	Sunny(fair)	True	False	743.80
2011-01-10 11:00:00 10213 11 883.48 883.48 883.48 870.3 965.60	91.4955424221	883.48	870.30	Sunny(fair)	True	False	870.30
2011-01-10 12:00:00 10214 12 913.40 913.40 913.40 690.9 998.30	91.4955424221	913.40	690.90	Sunny(fair)	True	False	690.90
2011-01-10 13:00:00 10215 13 790.52 790.52 790.52 590.6 864.00	91.4955424221	790.52	590.60	Sunny(fair)	True	False	590.60
2011-01-10 14:00:00 10216 14 614.39 614.39 614.39 324.0 671.50	91.4955424221	614.39	324.00	Sunny(fair)	True	False	324.00
2011-01-10 15:00:00 10217 15 323.99 323.99 323.99 148.2 354.10	91.4955424221	323.99	148.20	Sunny(fair)	True	False	148.20
2011-01-10 16:00:00 10218 16 49.41 49.41 49.41 21.5 55.50	89.0245718541	49.41	21.50	Sunny(fair)	True	False	21.50
2011-01-10 17:00:00 10219 17 0.00 0.00 0.00 0.0 0.00	89.0245718541	0.00	0.00	Clear(fair)	True	False	0.00
2011-01-10 18:00:00 10220 18 0.00 0.00 0.00 0.0 0.00	89.0245718541	0.00	0.00	Clear(fair)	True	False	0.00
2011-01-10 19:00:00 10221 19 0.00 0.00 0.00 0.0 0.00	89.0245718541	0.00	0.00	Clear(Unkown)	True	False	0.00
2011-01-10 20:00:00 10222 20 0.00 0.00 0.00 0.0 0.00	89.0245718541	0.00	0.00	Clear(fair)	True	False	0.00
2011-01-10 21:00:00 10223 21 0.00 0.00 0.00 0.0 0.00	89.0245718541	0.00	0.00	Clear(fair)	True	False	0.00
2011-01-10 22:00:00 10224 22 0.00 0.00 0.00 0.0 0.00	89.0245718541	0.00	0.00	Clear(fair)	True	False	0.00
2011-01-10 23:00:00 10225 23 0.00 0.00 0.00 0.0 0.00	89.0245718541	0.00	0.00	Clear(fair)	True	False	0.00
2011-01-11 00:00:00 10226 0 0.00 0.00 0.00 0.0 0.00	89.0245718541	0.00	0.00	Mostly_Clear(fair)	False	False	0.00
2011-01-11 01:00:00 10227 1 0.00 0.00 0.00 0.0 0.00	89.0245718541	0.00	0.00	Mostly_Clear(fair)	False	False	0.00
2011-01-11 02:00:00 10228 2 0.00 0.00 0.00 0.0 0.00	89.0245718541	0.00	0.00	Mostly_Clear(fair)	False	False	0.00
2011-01-11 03:00:00 10229 3 0.00 0.00 0.00 0.0 0.00	52.469197636	0.00	0.00	Partly_Cloudy(fair)	True	False	0.00
2011-01-11 04:00:00 10230 4 0.00 0.00 0.00 0.0 0.00	52.469197636	0.00	0.00	Partly_Cloudy(fair)	True	False	0.00
2011-01-11 05:00:00 10231 5 0.00 0.00 0.00 0.0 0.00	52.469197636	0.00	0.00	Partly_Cloudy(fair)	True	False	0.00
2011-01-11 06:00:00 10232 6 0.00 0.00 0.00 0.0 0.00	52.469197636	0.00	0.00	Partly_Cloudy(fair)	True	False	0.00
2011-01-11 07:00:00 10233 7 20.36 20.36 20.36 31.8 38.80	52.469197636	20.36	31.80	Partly_Cloudy(fair)	True	False	31.80
