2011-02-03 02:00:00 38921 2 0.00 0.00 0.00 0.0 0.00	43.1359791802	0.00	0.00	Partly_Cloudy(cloudy)	True	False	0.00
2011-02-03 03:00:00 38922 3 0.00 0.00 0.00 0.0 0.00	24.0877742947	0.00	0.00	Mostly_Cloudy(cloudy)	True	False	0.00
2011-02-03 04:00:00 38923 4 0.00 0.00 0.00 0.0 0.00	43.1359791802	0.00	0.00	Partly_Cloudy(cloudy)	True	False	0.00
2011-02-03 05:00:00 38924 5 0.00 0.00 0.00 0.0 0.00	43.1359791802	0.00	0.00	Partly_Cloudy(cloudy)	True	False	0.00
2011-02-03 06:00:00 38925 6 0.00 0.00 0.00 0.0 0.00	43.1359791802	0.00	0.00	Mostly_Clear(mostly_cloudy)	False	False	0.00
2011-02-03 07:00:00 38926 7 40.59 40.59 40.59 12.7 94.10	43.1359791802	40.59	12.70	Partly_Cloudy(Unkown)	True	False	12.70
2011-02-03 08:00:00 38927 8 189.54 189.54 189.54 128.9 439.40	43.1359791802	189.54	128.90	Mostly_Sunny(Unkown)	False	False	128.90
2011-02-03 09:00:00 38928 9 323.78 323.78 323.78 451.1 750.60	43.1359791802	323.78	451.10	Mostly_Sunny(cloudy)	False	False	451.10
2011-02-03 10:00:00 38929 10 413.11 413.11 413.11 600.0 957.70	43.1359791802	413.11	600.00	Mostly_Sunny(fair)	False	False	600.00
2011-02-03 11:00:00 38930 11 452.93 452.93 452.93 674.2 1050.00	43.1359791802	452.93	674.20	Mostly_Sunny(fair)	False	False	674.20
2011-02-03 12:00:00 38931 12 457.24 457.24 457.24 698.0 1060.00	43.1359791802	457.24	698.00	Mostly_Sunny(fair)	False	False	698.00
2011-02-03 13:00:00 38932 13 416.95 416.95 416.95 636.9 966.60	43.1359791802	416.95	636.90	Mostly_Sunny(fair)	False	False	636.90
2011-02-03 14:00:00 38933 14 344.01 344.01 344.01 516.0 797.50	43.1359791802	344.01	516.00	Mostly_Sunny(fair)	False	False	516.00
2011-02-03 15:00:00 38934 15 222.06 222.06 222.06 323.0 514.80	43.1359791802	222.06	323.00	Mostly_Sunny(fair)	False	False	323.00
2011-02-03 16:00:00 38935 16 66.30 66.30 66.30 86.5 153.70	43.1359791802	66.30	86.50	Mostly_Sunny(fair)	False	False	86.50
2011-02-03 17:00:00 38936 17 2.03 2.03 2.03 0.5 4.70	43.1359791802	2.03	0.50	Mostly_Sunny(fair)	False	False	0.50
2011-02-03 18:00:00 38937 18 0.00 0.00 0.00 0.0 0.00	73.8432601881	0.00	0.00	Clear(fair)	True	False	0.00
2011-02-03 19:00:00 38938 19 0.00 0.00 0.00 0.0 0.00	73.8432601881	0.00	0.00	Clear(fair)	True	False	0.00
2011-02-03 20:00:00 38939 20 0.00 0.00 0.00 0.0 0.00	73.8432601881	0.00	0.00	Clear(fair)	True	False	0.00
2011-02-03 21:00:00 38940 21 0.00 0.00 0.00 0.0 0.00	73.8432601881	0.00	0.00	Clear(fair)	True	False	0.00
2011-02-03 22:00:00 38941 22 0.00 0.00 0.00 0.0 0.00	73.8432601881	0.00	0.00	Clear(fair)	True	False	0.00
2011-02-03 23:00:00 38942 23 0.00 0.00 0.00 0.0 0.00	73.8432601881	0.00	0.00	Clear(fair)	True	False	0.00
2011-02-04 00:00:00 38943 0 0.00 0.00 0.00 0.0 0.00	73.8432601881	0.00	0.00	Clear(fair)	True	False	0.00
2011-02-04 01:00:00 38944 1 0.00 0.00 0.00 0.0 0.00	73.8432601881	0.00	0.00	Clear(fair)	True	False	0.00
2011-02-04 02:00:00 38945 2 0.00 0.00 0.00 0.0 0.00	73.8432601881	0.00	0.00	Clear(fair)	True	False	0.00
2011-02-04 03:00:00 38946 3 0.00 0.00 0.00 0.0 0.00	43.1359791802	0.00	0.00	Partly_Cloudy(fair)	True	False	0.00
2011-02-04 04:00:00 38947 4 0.00 0.00 0.00 0.0 0.00	43.1359791802	0.00	0.00	Partly_Cloudy(fair)	True	False	0.00
2011-02-04 05:00:00 38948 5 0.00 0.00 0.00 0.0 0.00	43.1359791802	0.00	0.00	Partly_Cloudy(fair)	True	False	0.00
2011-02-04 06:00:00 38949 6 0.00 0.00 0.00 0.0 0.00	43.1359791802	0.00	0.00	Partly_Cloudy(fair)	True	False	0.00
2011-02-04 07:00:00 38950 7 40.59 40.59 40.59 17.3 94.10	43.1359791802	40.59	17.30	Partly_Cloudy(fair)	True	False	17.30
2011-02-04 08:00:00 38951 8 189.54 189.54 189.54 131.0 439.40	43.1359791802	189.54	131.00	Partly_Cloudy(fair)	True	False	131.00
2011-02-04 09:00:00 38952 9 554.27 554.27 554.27 263.7 750.60	73.8432601881	554.27	263.70	Sunny(fair)	True	False	263.70
2011-02-04 10:00:00 38953 10 806.30 806.30 806.30 334.7 957.70	84.1912916362	806.30	334.70	Sunny(fair)	True	False	334.70
2011-02-04 11:00:00 38954 11 884.01 884.01 884.01 413.7 1050.00	84.1912916362	884.01	413.70	Sunny(fair)	True	False	413.70
2011-02-04 12:00:00 38955 12 892.43 892.43 892.43 402.5 1060.00	84.1912916362	892.43	402.50	Sunny(fair)	True	False	402.50
2011-02-04 13:00:00 38956 13 813.79 813.79 813.79 316.4 966.60	84.1912916362	813.79	316.40	Sunny(fair)	True	False	316.40
2011-02-04 14:00:00 38957 14 671.43 671.43 671.43 336.5 797.50	84.1912916362	671.43	336.50	Sunny(fair)	True	False	336.50
2011-02-04 15:00:00 38958 15 433.42 433.42 433.42 175.7 514.80	84.1912916362	433.42	175.70	Sunny(fair)	True	False	175.70
2011-02-04 16:00:00 38959 16 113.50 113.50 113.50 47.4 153.70	73.8432601881	113.50	47.40	Sunny(fair)	True	False	47.40
2011-02-04 17:00:00 38960 17 3.47 3.47 3.47 0.3 4.70	73.8432601881	3.47	0.30	Sunny(fair)	True	False	0.30
2011-02-04 18:00:00 38961 18 0.00 0.00 0.00 0.0 0.00	43.1359791802	0.00	0.00	Partly_Cloudy(fair)	True	False	0.00
2011-02-04 19:00:00 38962 19 0.00 0.00 0.00 0.0 0.00	43.1359791802	0.00	0.00	Partly_Cloudy(fair)	True	False	0.00
2011-02-04 20:00:00 38963 20 0.00 0.00 0.00 0.0 0.00	43.1359791802	0.00	0.00	Partly_Cloudy(fair)	True	False	0.00
2011-02-04 21:00:00 38964 21 0.00 0.00 0.00 0.0 0.00	43.1359791802	0.00	0.00	Partly_Cloudy(fair)	True	False	0.00
2011-02-04 22:00:00 38965 22 0.00 0.00 0.00 0.0 0.00	43.1359791802	0.00	0.00	Partly_Cloudy(fair)	True	False	0.00
2011-02-04 23:00:00 38966 23 0.00 0.00 0.00 0.0 0.00	43.1359791802	0.00	0.00	Partly_Cloudy(fair)	True	False	0.00
2011-02-05 00:00:00 38967 0 0.00 0.00 0.00 0.0 0.00	24.0877742947	0.00	0.00	Mostly_Cloudy(fair)	True	False	0.00
2011-02-05 01:00:00 38968 1 0.00 0.00 0.00 0.0 0.00	24.0877742947	0.00	0.00	Mostly_Cloudy(fair)	True	False	0.00
