2011-01-16 10:00:00 18468 10 787.73 787.73 787.73 784.8 891.50	88.360212361	787.73	784.80	Mostly_Sunny(fair)	False	False	784.80
2011-01-16 11:00:00 18469 11 853.21 853.21 853.21 937.0 965.60	88.360212361	853.21	937.00	Sunny(fair)	True	False	937.00
2011-01-16 12:00:00 18470 12 882.10 882.10 882.10 943.9 998.30	88.360212361	882.10	943.90	Mostly_Sunny(fair)	False	False	943.90
2011-01-16 13:00:00 18471 13 790.56 790.56 790.56 850.0 894.70	88.360212361	790.56	850.00	Mostly_Sunny(partly_cloudy)	False	False	850.00
2011-01-16 14:00:00 18472 14 465.03 465.03 465.03 657.5 760.30	61.1639787639	465.03	657.50	Partly_Cloudy(fair)	True	False	657.50
2011-01-16 15:00:00 18473 15 272.42 272.42 272.42 309.5 445.40	61.1639787639	272.42	309.50	Partly_Cloudy(fair)	True	False	309.50
2011-01-16 16:00:00 18474 16 42.60 42.60 42.60 32.8 80.70	52.7897425624	42.60	32.80	Partly_Cloudy(fair)	True	False	32.80
2011-01-16 17:00:00 18475 17 0.32 0.32 0.32 0.0 0.60	52.7897425624	0.32	0.00	Mostly_Clear(fair)	False	False	0.00
2011-01-16 18:00:00 18476 18 0.00 0.00 0.00 0.0 0.00	52.7897425624	0.00	0.00	Mostly_Clear(fair)	False	False	0.00
2011-01-16 19:00:00 18477 19 0.00 0.00 0.00 0.0 0.00	52.7897425624	0.00	0.00	Mostly_Clear(fair)	False	False	0.00
2011-01-16 20:00:00 18478 20 0.00 0.00 0.00 0.0 0.00	52.7897425624	0.00	0.00	Mostly_Clear(fair)	False	False	0.00
2011-01-16 21:00:00 18479 21 0.00 0.00 0.00 0.0 0.00	52.7897425624	0.00	0.00	Mostly_Clear(fair)	False	False	0.00
2011-01-16 22:00:00 18480 22 0.00 0.00 0.00 0.0 0.00	52.7897425624	0.00	0.00	Mostly_Clear(fair)	False	False	0.00
2011-01-16 23:00:00 18481 23 0.00 0.00 0.00 0.0 0.00	52.7897425624	0.00	0.00	Mostly_Clear(fair)	False	False	0.00
2011-01-17 00:00:00 18482 0 0.00 0.00 0.00 0.0 0.00	86.5160131697	0.00	0.00	Clear(fair)	True	False	0.00
2011-01-17 01:00:00 18483 1 0.00 0.00 0.00 0.0 0.00	86.5160131697	0.00	0.00	Clear(fair)	True	False	0.00
2011-01-17 02:00:00 18484 2 0.00 0.00 0.00 0.0 0.00	86.5160131697	0.00	0.00	Clear(fair)	True	False	0.00
2011-01-17 03:00:00 18485 3 0.00 0.00 0.00 0.0 0.00	86.5160131697	0.00	0.00	Clear(mostly_cloudy)	True	False	0.00
2011-01-17 04:00:00 18486 4 0.00 0.00 0.00 0.0 0.00	86.5160131697	0.00	0.00	Clear(cloudy)	True	False	0.00
2011-01-17 05:00:00 18487 5 0.00 0.00 0.00 0.0 0.00	86.5160131697	0.00	0.00	Clear(cloudy)	True	False	0.00
2011-01-17 06:00:00 18488 6 0.00 0.00 0.00 0.0 0.00	86.5160131697	0.00	0.00	Clear(cloudy)	True	False	0.00
2011-01-17 07:00:00 18489 7 42.91 42.91 42.91 14.0 49.60	86.5160131697	42.91	14.00	Clear(cloudy)	True	False	14.00
2011-01-17 08:00:00 18490 8 338.97 338.97 338.97 112.4 391.80	86.5160131697	338.97	112.40	Sunny(cloudy)	True	False	112.40
2011-01-17 09:00:00 18491 9 578.10 578.10 578.10 160.3 668.20	86.5160131697	578.10	160.30	Sunny(cloudy)	True	False	160.30
2011-01-17 10:00:00 18492 10 787.73 787.73 787.73 234.9 891.50	88.360212361	787.73	234.90	Sunny(cloudy)	True	False	234.90
2011-01-17 11:00:00 18493 11 853.21 853.21 853.21 283.9 965.60	88.360212361	853.21	283.90	Sunny(cloudy)	True	False	283.90
2011-01-17 12:00:00 18494 12 882.10 882.10 882.10 323.3 998.30	88.360212361	882.10	323.30	Sunny(cloudy)	True	False	323.30
2011-01-17 13:00:00 18495 13 790.56 790.56 790.56 195.9 894.70	88.360212361	790.56	195.90	Sunny(cloudy)	True	False	195.90
2011-01-17 14:00:00 18496 14 671.80 671.80 671.80 111.7 760.30	88.360212361	671.80	111.70	Sunny(cloudy)	True	False	111.70
2011-01-17 15:00:00 18497 15 393.56 393.56 393.56 40.8 445.40	88.360212361	393.56	40.80	Mostly_Sunny(cloudy)	False	False	40.80
2011-01-17 16:00:00 18498 16 71.31 71.31 71.31 4.6 80.70	88.360212361	71.31	4.60	Mostly_Sunny(cloudy)	False	False	4.60
2011-01-17 17:00:00 18499 17 0.53 0.53 0.53 0.0 0.60	88.360212361	0.53	0.00	Mostly_Clear(cloudy)	False	False	0.00
2011-01-17 18:00:00 18500 18 0.00 0.00 0.00 0.0 0.00	30.9590577678	0.00	0.00	Mostly_Cloudy(cloudy)	True	False	0.00
2011-01-17 19:00:00 18501 19 0.00 0.00 0.00 0.0 0.00	30.9590577678	0.00	0.00	Mostly_Cloudy(cloudy)	True	False	0.00
2011-01-17 20:00:00 18502 20 0.00 0.00 0.00 0.0 0.00	30.9590577678	0.00	0.00	Mostly_Cloudy(cloudy)	True	False	0.00
2011-01-17 21:00:00 18503 21 0.00 0.00 0.00 0.0 0.00	31.5977539561	0.00	0.00	Cloudy(cloudy)	True	False	0.00
2011-01-17 22:00:00 18504 22 0.00 0.00 0.00 0.0 0.00	31.5977539561	0.00	0.00	Cloudy(cloudy)	True	False	0.00
2011-01-17 23:00:00 18505 23 0.00 0.00 0.00 0.0 0.00	31.5977539561	0.00	0.00	Cloudy(light_snow)	True	False	0.00
2011-01-18 00:00:00 18506 0 0.00 0.00 0.00 0.0 0.00	20.0578718927	0.00	0.00	Snow_Shower(light_snow)	True	False	0.00
2011-01-18 01:00:00 18507 1 0.00 0.00 0.00 0.0 0.00	20.0578718927	0.00	0.00	Snow_Shower(light_snow)	True	False	0.00
2011-01-18 02:00:00 18508 2 0.00 0.00 0.00 0.0 0.00	20.0578718927	0.00	0.00	Snow_Shower(light_snow)	True	False	0.00
2011-01-18 03:00:00 18509 3 0.00 0.00 0.00 0.0 0.00	20.0578718927	0.00	0.00	Snow_Shower(snow)	True	False	0.00
2011-01-18 04:00:00 18510 4 0.00 0.00 0.00 0.0 0.00	20.0578718927	0.00	0.00	Snow_Shower(light_freezing_rain)	True	False	0.00
2011-01-18 05:00:00 18511 5 0.00 0.00 0.00 0.0 0.00	20.0578718927	0.00	0.00	Snow_Shower(light_freezing_rain)	True	False	0.00
2011-01-18 06:00:00 18512 6 0.00 0.00 0.00 0.0 0.00	20.0578718927	0.00	0.00	Snow_Shower(light_freezing_rain)	True	False	0.00
2011-01-18 07:00:00 18513 7 9.95 9.95 9.95 0.0 49.60	20.0578718927	9.95	0.00	Snow_Shower(light_freezing_rain)	True	False	0.00
2011-01-18 08:00:00 18514 8 78.59 78.59 78.59 0.0 391.80	20.0578718927	78.59	0.00	Snow_Shower(light_freezing_rain)	True	False	0.00
2011-01-18 09:00:00 18515 9 31.48 31.48 31.48 4.5 668.20	4.71116096467	31.48	4.50	Rain_/_Snow(light_freezing_rain)	True	False	4.50
2011-01-18 10:00:00 18516 10 247.11 247.11 247.11 16.6 891.50	27.7187884207	247.11	16.60	Rain_/_Snow(light_freezing_rain)	True	False	16.60
