2011-01-21 10:00:00 24270 10 828.69 828.69 567.09 21.0 957.70	59.2137913021	567.09	21.00	Partly_Cloudy(light_snow)	True	False	21.00
2011-01-21 11:00:00 24271 11 23.02 23.02 621.74 26.5 1050.00	59.2137913021	621.74	26.50	Partly_Cloudy(light_snow)	True	False	26.50
2011-01-21 12:00:00 24272 12 23.15 23.15 625.06 32.6 1055.60	59.2137913021	625.06	32.60	Mostly_Sunny(fair)	False	False	32.60
2011-01-21 13:00:00 24273 13 558.62 20.69 558.62 107.0 943.40	59.2137913021	558.62	107.00	Partly_Cloudy(cloudy)	True	False	107.00
2011-01-21 14:00:00 24274 14 453.40 16.79 453.40 117.7 765.70	59.2137913021	453.40	117.70	Partly_Cloudy(light_snow)	True	False	117.70
2011-01-21 15:00:00 24275 15 282.15 10.45 282.15 46.0 476.50	59.2137913021	282.15	46.00	Flurries(cloudy)	False	False	46.00
2011-01-21 16:00:00 24276 16 59.93 2.70 59.93 11.2 123.20	48.6476190476	59.93	11.20	Partly_Cloudy(mostly_cloudy)	True	False	11.20
2011-01-21 17:00:00 24277 17 0.68 0.03 0.68 0.0 1.40	48.6476190476	0.68	0.00	Partly_Cloudy(mostly_cloudy)	True	False	0.00
2011-01-21 18:00:00 24278 18 0.00 0.00 0.00 0.0 0.00	82.2857142857	0.00	0.00	Clear(mostly_cloudy)	True	False	0.00
2011-01-21 19:00:00 24279 19 0.00 0.00 0.00 0.0 0.00	82.2857142857	0.00	0.00	Clear(fair)	True	False	0.00
2011-01-21 20:00:00 24280 20 0.00 0.00 0.00 0.0 0.00	82.2857142857	0.00	0.00	Clear(fair)	True	False	0.00
2011-01-21 21:00:00 24281 21 0.00 0.00 0.00 0.0 0.00	82.2857142857	0.00	0.00	Clear(fair)	True	False	0.00
2011-01-21 22:00:00 24282 22 0.00 0.00 0.00 0.0 0.00	82.2857142857	0.00	0.00	Clear(fair)	True	False	0.00
2011-01-21 23:00:00 24283 23 0.00 0.00 0.00 0.0 0.00	82.2857142857	0.00	0.00	Clear(fair)	True	False	0.00
2011-01-22 00:00:00 24284 0 0.00 0.00 0.00 0.0 0.00	82.2857142857	0.00	0.00	Clear(fair)	True	False	0.00
2011-01-22 01:00:00 24285 1 0.00 0.00 0.00 0.0 0.00	82.2857142857	0.00	0.00	Clear(fair)	True	False	0.00
2011-01-22 02:00:00 24286 2 0.00 0.00 0.00 0.0 0.00	82.2857142857	0.00	0.00	Clear(fair)	True	False	0.00
2011-01-22 03:00:00 24287 3 0.00 0.00 0.00 0.0 0.00	82.2857142857	0.00	0.00	Clear(fair)	True	False	0.00
2011-01-22 04:00:00 24288 4 0.00 0.00 0.00 0.0 0.00	82.2857142857	0.00	0.00	Clear(fair)	True	False	0.00
2011-01-22 05:00:00 24289 5 0.00 0.00 0.00 0.0 0.00	82.2857142857	0.00	0.00	Clear(fair)	True	False	0.00
2011-01-22 06:00:00 24290 6 0.00 0.00 0.00 0.0 0.00	82.2857142857	0.00	0.00	Clear(fair)	True	False	0.00
2011-01-22 07:00:00 24291 7 56.78 56.78 56.78 7.1 69.00	82.2857142857	56.78	7.10	Clear(fair)	True	False	7.10
2011-01-22 08:00:00 24292 8 349.96 349.96 349.96 60.9 425.30	82.2857142857	349.96	60.90	Sunny(fair)	True	False	60.90
2011-01-22 09:00:00 24293 9 617.64 617.64 617.64 135.7 750.60	82.2857142857	617.64	135.70	Sunny(fair)	True	False	135.70
2011-01-22 10:00:00 24294 10 828.69 828.69 828.69 151.3 957.70	86.5289882531	828.69	151.30	Sunny(fair)	True	False	151.30
2011-01-22 11:00:00 24295 11 908.55 908.55 908.55 151.0 1050.00	86.5289882531	908.55	151.00	Sunny(fair)	True	False	151.00
2011-01-22 12:00:00 24296 12 625.06 625.06 625.06 174.7 1055.60	59.2137913021	625.06	174.70	Partly_Cloudy(fair)	True	False	174.70
2011-01-22 13:00:00 24297 13 558.62 558.62 558.62 143.0 943.40	59.2137913021	558.62	143.00	Partly_Cloudy(fair)	True	False	143.00
2011-01-22 14:00:00 24298 14 453.40 453.40 453.40 127.0 765.70	59.2137913021	453.40	127.00	Partly_Cloudy(fair)	True	False	127.00
2011-01-22 15:00:00 24299 15 202.90 202.90 202.90 82.7 476.50	42.580952381	202.90	82.70	Mostly_Cloudy(fair)	True	False	82.70
2011-01-22 16:00:00 24300 16 43.22 43.22 43.22 14.7 123.20	35.0790126681	43.22	14.70	Mostly_Cloudy(fair)	True	False	14.70
2011-01-22 17:00:00 24301 17 0.49 0.49 0.49 0.0 1.40	35.0790126681	0.49	0.00	Mostly_Cloudy(fair)	True	False	0.00
2011-01-22 18:00:00 24302 18 0.00 0.00 0.00 0.0 0.00	35.0790126681	0.00	0.00	Mostly_Cloudy(fair)	True	False	0.00
2011-01-22 19:00:00 24303 19 0.00 0.00 0.00 0.0 0.00	35.0790126681	0.00	0.00	Mostly_Cloudy(fair)	True	False	0.00
2011-01-22 20:00:00 24304 20 0.00 0.00 0.00 0.0 0.00	35.0790126681	0.00	0.00	Mostly_Cloudy(fair)	True	False	0.00
2011-01-22 21:00:00 24305 21 0.00 0.00 0.00 0.0 0.00	20.4952380952	0.00	0.00	Cloudy(fair)	True	False	0.00
2011-01-22 22:00:00 24306 22 0.00 0.00 0.00 0.0 0.00	20.4952380952	0.00	0.00	Cloudy(fair)	True	False	0.00
2011-01-22 23:00:00 24307 23 0.00 0.00 0.00 0.0 0.00	20.4952380952	0.00	0.00	Cloudy(fair)	True	False	0.00
2011-01-23 00:00:00 24308 0 0.00 0.00 0.00 0.0 0.00	20.4952380952	0.00	0.00	Cloudy(fair)	True	False	0.00
2011-01-23 01:00:00 24309 1 0.00 0.00 0.00 0.0 0.00	20.4952380952	0.00	0.00	Cloudy(fair)	True	False	0.00
2011-01-23 02:00:00 24310 2 0.00 0.00 0.00 0.0 0.00	20.4952380952	0.00	0.00	Cloudy(fair)	True	False	0.00
2011-01-23 03:00:00 24311 3 0.00 0.00 0.00 0.0 0.00	35.0790126681	0.00	0.00	Mostly_Cloudy(fair)	True	False	0.00
2011-01-23 04:00:00 24312 4 0.00 0.00 0.00 0.0 0.00	35.0790126681	0.00	0.00	Mostly_Cloudy(fair)	True	False	0.00
2011-01-23 05:00:00 24313 5 0.00 0.00 0.00 0.0 0.00	35.0790126681	0.00	0.00	Mostly_Cloudy(fair)	True	False	0.00
2011-01-23 06:00:00 24314 6 0.00 0.00 0.00 0.0 0.00	35.0790126681	0.00	0.00	Mostly_Cloudy(fair)	True	False	0.00
2011-01-23 07:00:00 24315 7 24.20 24.20 24.20 10.3 69.00	35.0790126681	24.20	10.30	Mostly_Cloudy(fair)	True	False	10.30
2011-01-23 08:00:00 24316 8 149.19 149.19 149.19 97.7 425.30	35.0790126681	149.19	97.70	Mostly_Cloudy(fair)	True	False	97.70
2011-01-23 09:00:00 24317 9 263.30 263.30 263.30 191.7 750.60	35.0790126681	263.30	191.70	Mostly_Cloudy(fair)	True	False	191.70
2011-01-23 10:00:00 24318 10 407.80 407.80 407.80 264.2 957.70	42.580952381	407.80	264.20	Mostly_Cloudy(fair)	True	False	264.20
