2011-01-03 08:00:00 3423 8 280.68 280.68 280.68 287.1 305.30	91.9352252686	280.68	287.10	Sunny(fair)	True	False	287.10
2011-01-03 09:00:00 3424 9 600.61 600.61 600.61 627.3 653.30	91.9352252686	600.61	627.30	Mostly_Clear(fair)	False	False	627.30
2011-01-03 10:00:00 3425 10 819.60 819.60 819.60 818.1 891.50	91.9352252686	819.60	818.10	Mostly_Clear(fair)	False	False	818.10
2011-01-03 11:00:00 3426 11 884.78 884.78 884.78 919.3 962.40	91.9352252686	884.78	919.30	Mostly_Clear(fair)	False	False	919.30
2011-01-03 12:00:00 3427 12 706.93 706.93 706.93 915.9 998.30	70.8133971292	706.93	915.90	Partly_Cloudy(fair)	True	False	915.90
2011-01-03 13:00:00 3428 13 586.83 586.83 586.83 783.1 828.70	70.8133971292	586.83	783.10	Partly_Cloudy(fair)	True	False	783.10
2011-01-03 14:00:00 3429 14 441.66 441.66 441.66 571.7 623.70	70.8133971292	441.66	571.70	Partly_Cloudy(fair)	True	False	571.70
2011-01-03 15:00:00 3430 15 155.38 155.38 155.38 236.0 313.50	49.5642592407	155.38	236.00	Mostly_Cloudy(fair)	True	False	236.00
2011-01-03 16:00:00 3431 16 21.41 21.41 21.41 14.9 43.20	49.5642592407	21.41	14.90	Mostly_Cloudy(fair)	True	False	14.90
2011-01-03 17:00:00 3432 17 0.00 0.00 0.00 0.0 0.00	49.5642592407	0.00	0.00	Mostly_Cloudy(fair)	True	False	0.00
2011-01-03 18:00:00 3433 18 0.00 0.00 0.00 0.0 0.00	49.5642592407	0.00	0.00	Mostly_Cloudy(fair)	True	False	0.00
2011-01-03 19:00:00 3434 19 0.00 0.00 0.00 0.0 0.00	49.5642592407	0.00	0.00	Mostly_Cloudy(fair)	True	False	0.00
2011-01-03 20:00:00 3435 20 0.00 0.00 0.00 0.0 0.00	49.5642592407	0.00	0.00	Mostly_Cloudy(fair)	True	False	0.00
2011-01-03 21:00:00 3436 21 0.00 0.00 0.00 0.0 0.00	49.5642592407	0.00	0.00	Mostly_Cloudy(fair)	True	False	0.00
2011-01-03 22:00:00 3437 22 0.00 0.00 0.00 0.0 0.00	52.7396574176	0.00	0.00	Mostly_Cloudy(fair)	True	False	0.00
2011-01-03 23:00:00 3438 23 0.00 0.00 0.00 0.0 0.00	52.7396574176	0.00	0.00	Mostly_Cloudy(fair)	True	False	0.00
2011-01-04 00:00:00 3439 0 0.00 0.00 0.00 0.0 0.00	52.7396574176	0.00	0.00	Mostly_Cloudy(fair)	True	False	0.00
2011-01-04 01:00:00 3440 1 0.00 0.00 0.00 0.0 0.00	52.7396574176	0.00	0.00	Mostly_Cloudy(fair)	True	False	0.00
2011-01-04 02:00:00 3441 2 0.00 0.00 0.00 0.0 0.00	52.7396574176	0.00	0.00	Mostly_Cloudy(fair)	True	False	0.00
2011-01-04 03:00:00 3442 3 0.00 0.00 0.00 0.0 0.00	52.7396574176	0.00	0.00	Mostly_Cloudy(fair)	True	False	0.00
2011-01-04 04:00:00 3443 4 0.00 0.00 0.00 0.0 0.00	49.5642592407	0.00	0.00	Mostly_Cloudy(fair)	True	False	0.00
2011-01-04 05:00:00 3444 5 0.00 0.00 0.00 0.0 0.00	49.5642592407	0.00	0.00	Mostly_Cloudy(fair)	True	False	0.00
2011-01-04 06:00:00 3445 6 0.00 0.00 0.00 0.0 0.00	70.8133971292	0.00	0.00	Partly_Cloudy(fair)	True	False	0.00
2011-01-04 07:00:00 3446 7 17.35 17.35 17.35 0.6 24.50	70.8133971292	17.35	0.60	Partly_Cloudy(fair)	True	False	0.60
2011-01-04 08:00:00 3447 8 216.19 216.19 216.19 61.7 305.30	70.8133971292	216.19	61.70	Partly_Cloudy(fair)	True	False	61.70
2011-01-04 09:00:00 3448 9 462.62 462.62 462.62 140.1 653.30	70.8133971292	462.62	140.10	Partly_Cloudy(fair)	True	False	140.10
2011-01-04 10:00:00 3449 10 631.30 631.30 631.30 215.4 891.50	70.8133971292	631.30	215.40	Partly_Cloudy(fair)	True	False	215.40
2011-01-04 11:00:00 3450 11 681.51 681.51 681.51 577.2 962.40	70.8133971292	681.51	577.20	Partly_Cloudy(fair)	True	False	577.20
2011-01-04 12:00:00 3451 12 706.93 706.93 706.93 878.6 998.30	70.8133971292	706.93	878.60	Partly_Cloudy(cloudy)	True	False	878.60
2011-01-04 13:00:00 3452 13 586.83 586.83 586.83 689.8 828.70	70.8133971292	586.83	689.80	Partly_Cloudy(fair)	True	False	689.80
2011-01-04 14:00:00 3453 14 441.66 441.66 441.66 325.4 623.70	70.8133971292	441.66	325.40	Partly_Cloudy(partly_cloudy)	True	False	325.40
2011-01-04 15:00:00 3454 15 222.00 222.00 222.00 118.4 313.50	70.8133971292	222.00	118.40	Partly_Cloudy(fair)	True	False	118.40
2011-01-04 16:00:00 3455 16 30.59 30.59 30.59 15.7 43.20	70.8133971292	30.59	15.70	Partly_Cloudy(fair)	True	False	15.70
2011-01-04 17:00:00 3456 17 0.00 0.00 0.00 0.0 0.00	70.8133971292	0.00	0.00	Partly_Cloudy(fair)	True	False	0.00
2011-01-04 18:00:00 3457 18 0.00 0.00 0.00 0.0 0.00	70.8133971292	0.00	0.00	Mostly_Clear(fair)	False	False	0.00
2011-01-04 19:00:00 3458 19 0.00 0.00 0.00 0.0 0.00	70.8133971292	0.00	0.00	Mostly_Clear(fair)	False	False	0.00
2011-01-04 20:00:00 3459 20 0.00 0.00 0.00 0.0 0.00	70.8133971292	0.00	0.00	Mostly_Sunny(fair)	False	False	0.00
