2011-01-30 21:00:00 35209 21 0.00 0.00 0.00 0.0 0.00	84.1912916362	0.00	0.00	Mostly_Clear(fair)	False	False	0.00
2011-01-30 22:00:00 35210 22 0.00 0.00 0.00 0.0 0.00	77.9019242706	0.00	0.00	Clear(fair)	True	False	0.00
2011-01-30 23:00:00 35211 23 0.00 0.00 0.00 0.0 0.00	77.9019242706	0.00	0.00	Clear(fair)	True	False	0.00
2011-01-31 00:00:00 35212 0 0.00 0.00 0.00 0.0 0.00	77.9019242706	0.00	0.00	Clear(fair)	True	False	0.00
2011-01-31 01:00:00 35213 1 0.00 0.00 0.00 0.0 0.00	77.9019242706	0.00	0.00	Clear(fair)	True	False	0.00
2011-01-31 02:00:00 35214 2 0.00 0.00 0.00 0.0 0.00	77.9019242706	0.00	0.00	Mostly_Clear(fair)	False	False	0.00
2011-01-31 03:00:00 35215 3 0.00 0.00 0.00 0.0 0.00	40.7828857533	0.00	0.00	Partly_Cloudy(fair)	True	False	0.00
2011-01-31 04:00:00 35216 4 0.00 0.00 0.00 0.0 0.00	40.7828857533	0.00	0.00	Partly_Cloudy(fair)	True	False	0.00
2011-01-31 05:00:00 35217 5 0.00 0.00 0.00 0.0 0.00	40.7828857533	0.00	0.00	Partly_Cloudy(fair)	True	False	0.00
2011-01-31 06:00:00 35218 6 0.00 0.00 0.00 0.0 0.00	40.7828857533	0.00	0.00	Partly_Cloudy(fair)	True	False	0.00
2011-01-31 07:00:00 35219 7 38.38 38.38 38.38 35.1 94.10	40.7828857533	38.38	35.10	Partly_Cloudy(fair)	True	False	35.10
2011-01-31 08:00:00 35220 8 179.20 179.20 179.20 211.4 439.40	40.7828857533	179.20	211.40	Partly_Cloudy(fair)	True	False	211.40
2011-01-31 09:00:00 35221 9 306.12 306.12 306.12 452.8 750.60	40.7828857533	306.12	452.80	Partly_Cloudy(fair)	True	False	452.80
2011-01-31 10:00:00 35222 10 505.39 505.39 505.39 568.9 957.70	52.7714285714	505.39	568.90	Partly_Cloudy(fair)	True	False	568.90
2011-01-31 11:00:00 35223 11 554.10 554.10 554.10 616.3 1050.00	52.7714285714	554.10	616.30	Partly_Cloudy(fair)	True	False	616.30
2011-01-31 12:00:00 35224 12 559.38 559.38 559.38 631.6 1060.00	52.7714285714	559.38	631.60	Partly_Cloudy(fair)	True	False	631.60
2011-01-31 13:00:00 35225 13 510.09 510.09 510.09 544.1 966.60	52.7714285714	510.09	544.10	Partly_Cloudy(fair)	True	False	544.10
2011-01-31 14:00:00 35226 14 420.85 420.85 420.85 442.9 797.50	52.7714285714	420.85	442.90	Partly_Cloudy(fair)	True	False	442.90
2011-01-31 15:00:00 35227 15 271.67 271.67 271.67 247.7 514.80	52.7714285714	271.67	247.70	Partly_Cloudy(fair)	True	False	247.70
2011-01-31 16:00:00 35228 16 62.68 62.68 62.68 46.8 153.70	40.7828857533	62.68	46.80	Partly_Cloudy(fair)	True	False	46.80
2011-01-31 17:00:00 35229 17 1.26 1.26 1.26 0.3 3.10	40.7828857533	1.26	0.30	Partly_Cloudy(fair)	True	False	0.30
2011-01-31 18:00:00 35230 18 0.00 0.00 0.00 0.0 0.00	40.7828857533	0.00	0.00	Partly_Cloudy(fair)	True	False	0.00
2011-01-31 19:00:00 35231 19 0.00 0.00 0.00 0.0 0.00	40.7828857533	0.00	0.00	Partly_Cloudy(mostly_cloudy)	True	False	0.00
2011-01-31 20:00:00 35232 20 0.00 0.00 0.00 0.0 0.00	40.7828857533	0.00	0.00	Partly_Cloudy(cloudy)	True	False	0.00
2011-01-31 21:00:00 35233 21 0.00 0.00 0.00 0.0 0.00	17.6391475274	0.00	0.00	Cloudy(cloudy)	True	False	0.00
2011-01-31 22:00:00 35234 22 0.00 0.00 0.00 0.0 0.00	17.6391475274	0.00	0.00	Cloudy(cloudy)	True	False	0.00
2011-01-31 23:00:00 35235 23 0.00 0.00 0.00 0.0 0.00	17.6391475274	0.00	0.00	Cloudy(cloudy)	True	False	0.00
2011-02-01 00:00:00 35236 0 0.00 0.00 0.00 0.0 0.00	0.417667327973	0.00	0.00	Few_Snow_Showers(cloudy)	True	False	0.00
2011-02-01 01:00:00 35237 1 0.00 0.00 0.00 0.0 0.00	0.417667327973	0.00	0.00	Few_Snow_Showers(light_snow)	True	False	0.00
2011-02-01 02:00:00 35238 2 0.00 0.00 0.00 0.0 0.00	0.417667327973	0.00	0.00	Few_Snow_Showers(light_snow)	True	False	0.00
2011-02-01 03:00:00 35239 3 0.00 0.00 0.00 0.0 0.00	0.047619047619	0.00	0.00	Snow_Shower(light_snow)	True	False	0.00
2011-02-01 04:00:00 35240 4 0.00 0.00 0.00 0.0 0.00	0.047619047619	0.00	0.00	Snow_Shower(light_snow)	True	False	0.00
2011-02-01 05:00:00 35241 5 0.00 0.00 0.00 0.0 0.00	0.047619047619	0.00	0.00	Snow_Shower(cloudy)	True	False	0.00
2011-02-01 06:00:00 35242 6 0.00 0.00 0.00 0.0 0.00	0.417667327973	0.00	0.00	Light_Snow(cloudy)	True	False	0.00
2011-02-01 07:00:00 35243 7 0.39 0.39 0.39 0.0 94.10	0.417667327973	0.39	0.00	Light_Snow(light_freezing_rain)	True	False	0.00
2011-02-01 08:00:00 35244 8 1.84 1.84 1.84 0.0 439.40	0.417667327973	1.84	0.00	Light_Snow(cloudy)	True	False	0.00
2011-02-01 09:00:00 35245 9 0.36 0.36 0.36 0.0 750.60	0.047619047619	0.36	0.00	Snow(light_freezing_rain)	True	False	0.00
2011-02-01 10:00:00 35246 10 0.46 0.46 0.46 2.3 957.70	0.047619047619	0.46	2.30	Snow(cloudy)	True	False	2.30
2011-02-01 11:00:00 35247 11 0.50 0.50 0.50 2.0 1050.00	0.047619047619	0.50	2.00	Snow(cloudy)	True	False	2.00
2011-02-01 12:00:00 35248 12 0.50 0.50 0.50 3.8 1060.00	0.047619047619	0.50	3.80	Snow(light_freezing_rain)	True	False	3.80
2011-02-01 13:00:00 35249 13 0.46 0.46 0.46 9.2 966.60	0.047619047619	0.46	9.20	Snow(light_freezing_rain)	True	False	9.20
2011-02-01 14:00:00 35250 14 0.38 0.38 0.38 12.6 797.50	0.047619047619	0.38	12.60	Snow(cloudy)	True	False	12.60
2011-02-01 15:00:00 35251 15 0.25 0.25 0.25 4.3 514.80	0.047619047619	0.25	4.30	Snow(cloudy)	True	False	4.30
2011-02-01 16:00:00 35252 16 0.07 0.07 0.07 0.0 153.70	0.047619047619	0.07	0.00	Snow(cloudy)	True	False	0.00
2011-02-01 17:00:00 35253 17 0.00 0.00 0.00 0.0 3.10	0.047619047619	0.00	0.00	Snow(fog)	True	False	0.00
2011-02-01 18:00:00 35254 18 0.00 0.00 0.00 0.0 0.00	17.6391475274	0.00	0.00	Cloudy(cloudy)	True	False	0.00
2011-02-01 19:00:00 35255 19 0.00 0.00 0.00 0.0 0.00	17.6391475274	0.00	0.00	Cloudy(cloudy)	True	False	0.00
2011-02-01 20:00:00 35256 20 0.00 0.00 0.00 0.0 0.00	17.6391475274	0.00	0.00	Cloudy(cloudy)	True	False	0.00
2011-02-01 21:00:00 35257 21 0.00 0.00 0.00 0.0 0.00	17.6391475274	0.00	0.00	Cloudy(cloudy)	True	False	0.00
