2011-01-29 10:00:00 33516 10 505.39 505.39 505.39 281.1 957.70	52.7714285714	505.39	281.10	Partly_Cloudy(fair)	True	False	281.10
2011-01-29 11:00:00 33517 11 308.19 308.19 325.90 270.2 1050.00	31.0380952381	325.90	270.20	Mostly_Cloudy(fair)	True	False	270.20
2011-01-29 12:00:00 33518 12 329.00 311.13 329.00 362.4 1060.00	31.0380952381	329.00	362.40	Mostly_Cloudy(fair)	True	False	362.40
2011-01-29 13:00:00 33519 13 300.01 283.71 300.01 239.5 966.60	31.0380952381	300.01	239.50	Flurries(partly_cloudy)	False	False	239.50
2011-01-29 14:00:00 33520 14 3.33 234.08 3.33 162.0 797.50	0.417667327973	3.33	162.00	Few_Snow_Showers(partly_cloudy)	True	False	162.00
2011-01-29 15:00:00 33521 15 2.15 151.10 2.15 54.1 514.80	0.417667327973	2.15	54.10	Few_Snow_Showers(mostly_cloudy)	True	False	54.10
2011-01-29 16:00:00 33522 16 0.07 45.11 0.07 19.8 153.70	0.047619047619	0.07	19.80	Snow_Shower(light_snow)	True	False	19.80
2011-01-29 17:00:00 33523 17 0.00 0.91 0.00 0.0 3.10	0.047619047619	0.00	0.00	Snow_Shower(cloudy)	True	False	0.00
2011-01-29 18:00:00 33524 18 0.00 0.00 0.00 0.0 0.00	0.047619047619	0.00	0.00	Snow_Shower(light_snow)	True	False	0.00
2011-01-29 19:00:00 33525 19 0.00 0.00 0.00 0.0 0.00	0.047619047619	0.00	0.00	Snow_Shower(cloudy)	True	False	0.00
2011-01-29 20:00:00 33526 20 0.00 0.00 0.00 0.0 0.00	0.047619047619	0.00	0.00	Snow_Shower(cloudy)	True	False	0.00
2011-01-29 21:00:00 33527 21 0.00 0.00 0.00 0.0 0.00	0.047619047619	0.00	0.00	Flurries(cloudy)	False	False	0.00
2011-01-29 22:00:00 33528 22 0.00 0.00 0.00 0.0 0.00	0.047619047619	0.00	0.00	Flurries(cloudy)	False	False	0.00
2011-01-29 23:00:00 33529 23 0.00 0.00 0.00 0.0 0.00	0.047619047619	0.00	0.00	Flurries(cloudy)	False	False	0.00
2011-01-30 00:00:00 33530 0 0.00 0.00 0.00 0.0 0.00	26.513427401	0.00	0.00	Mostly_Cloudy(cloudy)	True	False	0.00
2011-01-30 01:00:00 33531 1 0.00 0.00 0.00 0.0 0.00	26.513427401	0.00	0.00	Mostly_Cloudy(cloudy)	True	False	0.00
2011-01-30 02:00:00 33532 2 0.00 0.00 0.00 0.0 0.00	26.513427401	0.00	0.00	Mostly_Cloudy(cloudy)	True	False	0.00
2011-01-30 03:00:00 33533 3 0.00 0.00 0.00 0.0 0.00	26.513427401	0.00	0.00	Mostly_Cloudy(cloudy)	True	False	0.00
2011-01-30 04:00:00 33534 4 0.00 0.00 0.00 0.0 0.00	26.513427401	0.00	0.00	Mostly_Cloudy(cloudy)	True	False	0.00
2011-01-30 05:00:00 33535 5 0.00 0.00 0.00 0.0 0.00	26.513427401	0.00	0.00	Mostly_Cloudy(fog)	True	False	0.00
2011-01-30 06:00:00 33536 6 0.00 0.00 0.00 0.0 0.00	26.513427401	0.00	0.00	Mostly_Cloudy(fog)	True	False	0.00
2011-01-30 07:00:00 33537 7 24.95 24.95 24.95 6.3 94.10	26.513427401	24.95	6.30	Mostly_Cloudy(fog)	True	False	6.30
2011-01-30 08:00:00 33538 8 116.50 116.50 116.50 68.2 439.40	26.513427401	116.50	68.20	Mostly_Cloudy(fog)	True	False	68.20
2011-01-30 09:00:00 33539 9 199.01 199.01 199.01 193.5 750.60	26.513427401	199.01	193.50	Mostly_Cloudy(cloudy)	True	False	193.50
2011-01-30 10:00:00 33540 10 297.25 297.25 297.25 429.2 957.70	31.0380952381	297.25	429.20	Mostly_Cloudy(cloudy)	True	False	429.20
2011-01-30 11:00:00 33541 11 325.90 325.90 325.90 376.5 1050.00	31.0380952381	325.90	376.50	Mostly_Cloudy(mostly_cloudy)	True	False	376.50
2011-01-30 12:00:00 33542 12 559.38 559.38 559.38 410.1 1060.00	52.7714285714	559.38	410.10	Partly_Cloudy(cloudy)	True	False	410.10
2011-01-30 13:00:00 33543 13 510.09 510.09 510.09 231.8 966.60	52.7714285714	510.09	231.80	Partly_Cloudy(cloudy)	True	False	231.80
2011-01-30 14:00:00 33544 14 420.85 420.85 420.85 388.2 797.50	52.7714285714	420.85	388.20	Partly_Cloudy(cloudy)	True	False	388.20
2011-01-30 15:00:00 33545 15 271.67 271.67 271.67 157.4 514.80	52.7714285714	271.67	157.40	Mostly_Sunny(cloudy)	False	False	157.40
2011-01-30 16:00:00 33546 16 81.11 81.11 81.11 72.5 153.70	52.7714285714	81.11	72.50	Mostly_Sunny(cloudy)	False	False	72.50
2011-01-30 17:00:00 33547 17 1.64 1.64 1.64 0.3 3.10	52.7714285714	1.64	0.30	Mostly_Sunny(partly_cloudy)	False	False	0.30
2011-01-30 18:00:00 33548 18 0.00 0.00 0.00 0.0 0.00	77.9019242706	0.00	0.00	Clear(cloudy)	True	False	0.00
2011-01-30 19:00:00 33549 19 0.00 0.00 0.00 0.0 0.00	77.9019242706	0.00	0.00	Clear(mostly_cloudy)	True	False	0.00
2011-01-30 20:00:00 33550 20 0.00 0.00 0.00 0.0 0.00	77.9019242706	0.00	0.00	Clear(partly_cloudy)	True	False	0.00
2011-01-30 21:00:00 33551 21 0.00 0.00 0.00 0.0 0.00	77.9019242706	0.00	0.00	Clear(fair)	True	False	0.00
2011-01-30 22:00:00 33552 22 0.00 0.00 0.00 0.0 0.00	77.9019242706	0.00	0.00	Clear(fair)	True	False	0.00
2011-01-30 23:00:00 33553 23 0.00 0.00 0.00 0.0 0.00	77.9019242706	0.00	0.00	Clear(fair)	True	False	0.00
2011-01-31 00:00:00 33554 0 0.00 0.00 0.00 0.0 0.00	77.9019242706	0.00	0.00	Clear(fair)	True	False	0.00
2011-01-31 01:00:00 33555 1 0.00 0.00 0.00 0.0 0.00	77.9019242706	0.00	0.00	Clear(fair)	True	False	0.00
2011-01-31 02:00:00 33556 2 0.00 0.00 0.00 0.0 0.00	77.9019242706	0.00	0.00	Clear(fair)	True	False	0.00
2011-01-31 03:00:00 33557 3 0.00 0.00 0.00 0.0 0.00	77.9019242706	0.00	0.00	Clear(fair)	True	False	0.00
2011-01-31 04:00:00 33558 4 0.00 0.00 0.00 0.0 0.00	77.9019242706	0.00	0.00	Clear(fair)	True	False	0.00
2011-01-31 05:00:00 33559 5 0.00 0.00 0.00 0.0 0.00	77.9019242706	0.00	0.00	Clear(fair)	True	False	0.00
2011-01-31 06:00:00 33560 6 0.00 0.00 0.00 0.0 0.00	42.8267800213	0.00	0.00	Partly_Cloudy(fair)	True	False	0.00
2011-01-31 07:00:00 33561 7 40.30 40.30 40.30 35.1 94.10	42.8267800213	40.30	35.10	Partly_Cloudy(fair)	True	False	35.10
2011-01-31 08:00:00 33562 8 188.18 188.18 188.18 211.4 439.40	42.8267800213	188.18	211.40	Partly_Cloudy(fair)	True	False	211.40
2011-01-31 09:00:00 33563 9 321.46 321.46 321.46 452.8 750.60	42.8267800213	321.46	452.80	Partly_Cloudy(fair)	True	False	452.80
2011-01-31 10:00:00 33564 10 505.39 505.39 505.39 568.9 957.70	52.7714285714	505.39	568.90	Partly_Cloudy(fair)	True	False	568.90
