2011-01-20 07:00:00 22965 7 27.26 27.26 27.26 26.0 54.10	50.3860451816	27.26	26.00	Partly_Cloudy(mostly_cloudy)	True	False	26.00
2011-01-20 08:00:00 22966 8 188.30 188.30 188.30 132.4 391.80	50.3860451816	188.30	132.40	Mostly_Sunny(mostly_cloudy)	False	False	132.40
2011-01-20 09:00:00 22967 9 352.40 352.40 352.40 466.6 699.40	50.3860451816	352.40	466.60	Partly_Cloudy(fair)	True	False	466.60
2011-01-20 10:00:00 22968 10 573.22 573.22 573.22 594.7 898.90	63.768686074	573.22	594.70	Partly_Cloudy(fair)	True	False	594.70
2011-01-20 11:00:00 22969 11 648.40 648.40 648.40 543.8 1016.80	63.768686074	648.40	543.80	Partly_Cloudy(fair)	True	False	543.80
2011-01-20 12:00:00 22970 12 655.35 655.35 655.35 739.3 1027.70	63.768686074	655.35	739.30	Partly_Cloudy(fair)	True	False	739.30
2011-01-20 13:00:00 22971 13 587.50 587.50 587.50 606.7 921.30	63.768686074	587.50	606.70	Partly_Cloudy(fair)	True	False	606.70
2011-01-20 14:00:00 22972 14 484.83 484.83 484.83 304.2 760.30	63.768686074	484.83	304.20	Partly_Cloudy(fair)	True	False	304.20
2011-01-20 15:00:00 22973 15 201.14 201.14 201.14 201.0 447.60	44.9365027678	201.14	201.00	Mostly_Cloudy(partly_cloudy)	True	False	201.00
2011-01-20 16:00:00 22974 16 36.00 36.00 36.00 35.8 101.90	35.3281599369	36.00	35.80	Mostly_Cloudy(fair)	True	False	35.80
2011-01-20 17:00:00 22975 17 0.49 0.49 0.49 0.0 1.40	35.3281599369	0.49	0.00	Mostly_Cloudy(fair)	True	False	0.00
2011-01-20 18:00:00 22976 18 0.00 0.00 0.00 0.0 0.00	35.3281599369	0.00	0.00	Mostly_Cloudy(fair)	True	False	0.00
2011-01-20 19:00:00 22977 19 0.00 0.00 0.00 0.0 0.00	35.3281599369	0.00	0.00	Mostly_Cloudy(mostly_cloudy)	True	False	0.00
2011-01-20 20:00:00 22978 20 0.00 0.00 0.00 0.0 0.00	35.3281599369	0.00	0.00	Mostly_Cloudy(cloudy)	True	False	0.00
2011-01-20 21:00:00 22979 21 0.00 0.00 0.00 0.0 0.00	20.0578718927	0.00	0.00	Snow_Shower(cloudy)	True	False	0.00
2011-01-20 22:00:00 22980 22 0.00 0.00 0.00 0.0 0.00	20.0578718927	0.00	0.00	Snow_Shower(cloudy)	True	False	0.00
2011-01-20 23:00:00 22981 23 0.00 0.00 0.00 0.0 0.00	20.0578718927	0.00	0.00	Snow_Shower(cloudy)	True	False	0.00
2011-01-21 00:00:00 22982 0 0.00 0.00 0.00 0.0 0.00	20.0578718927	0.00	0.00	Snow(mostly_cloudy)	True	False	0.00
2011-01-21 01:00:00 22983 1 0.00 0.00 0.00 0.0 0.00	20.0578718927	0.00	0.00	Snow(cloudy)	True	False	0.00
2011-01-21 02:00:00 22984 2 0.00 0.00 0.00 0.0 0.00	20.0578718927	0.00	0.00	Snow(snow)	True	False	0.00
2011-01-21 03:00:00 22985 3 0.00 0.00 0.00 0.0 0.00	20.0578718927	0.00	0.00	Snow(snow)	True	False	0.00
2011-01-21 04:00:00 22986 4 0.00 0.00 0.00 0.0 0.00	20.0578718927	0.00	0.00	Snow(light_snow)	True	False	0.00
2011-01-21 05:00:00 22987 5 0.00 0.00 0.00 0.0 0.00	20.0578718927	0.00	0.00	Snow(light_snow)	True	False	0.00
2011-01-21 06:00:00 22988 6 0.00 0.00 0.00 0.0 0.00	20.0578718927	0.00	0.00	Snow(light_snow)	True	False	0.00
2011-01-21 07:00:00 22989 7 10.85 10.85 10.85 0.0 54.10	20.0578718927	10.85	0.00	Snow(cloudy)	True	False	0.00
2011-01-21 08:00:00 22990 8 78.59 78.59 78.59 0.6 391.80	20.0578718927	78.59	0.60	Snow(fair)	True	False	0.60
2011-01-21 09:00:00 22991 9 352.40 352.40 352.40 8.3 699.40	50.3860451816	352.40	8.30	Partly_Cloudy(fair)	True	False	8.30
2011-01-21 10:00:00 22992 10 573.22 573.22 573.22 21.0 898.90	63.768686074	573.22	21.00	Partly_Cloudy(light_snow)	True	False	21.00
2011-01-21 11:00:00 22993 11 648.40 648.40 648.40 26.5 1016.80	63.768686074	648.40	26.50	Partly_Cloudy(light_snow)	True	False	26.50
2011-01-21 12:00:00 22994 12 461.81 461.81 461.81 32.6 1027.70	44.9365027678	461.81	32.60	Mostly_Cloudy(fair)	True	False	32.60
2011-01-21 13:00:00 22995 13 414.00 414.00 414.00 107.0 921.30	44.9365027678	414.00	107.00	Mostly_Cloudy(cloudy)	True	False	107.00
2011-01-21 14:00:00 22996 14 341.65 341.65 341.65 117.7 760.30	44.9365027678	341.65	117.70	Mostly_Cloudy(light_snow)	True	False	117.70
2011-01-21 15:00:00 22997 15 285.43 285.43 285.43 46.0 447.60	63.768686074	285.43	46.00	Partly_Cloudy(cloudy)	True	False	46.00
2011-01-21 16:00:00 22998 16 51.34 51.34 51.34 11.2 101.90	50.3860451816	51.34	11.20	Partly_Cloudy(mostly_cloudy)	True	False	11.20
2011-01-21 17:00:00 22999 17 0.71 0.71 0.71 0.0 1.40	50.3860451816	0.71	0.00	Partly_Cloudy(mostly_cloudy)	True	False	0.00
2011-01-21 18:00:00 23000 18 0.00 0.00 0.00 0.0 0.00	50.3860451816	0.00	0.00	Partly_Cloudy(mostly_cloudy)	True	False	0.00
2011-01-21 19:00:00 23001 19 0.00 0.00 0.00 0.0 0.00	50.3860451816	0.00	0.00	Partly_Cloudy(fair)	True	False	0.00
2011-01-21 20:00:00 23002 20 0.00 0.00 0.00 0.0 0.00	50.3860451816	0.00	0.00	Partly_Cloudy(fair)	True	False	0.00
2011-01-21 21:00:00 23003 21 0.00 0.00 0.00 0.0 0.00	85.3751914242	0.00	0.00	Clear(fair)	True	False	0.00
2011-01-21 22:00:00 23004 22 0.00 0.00 0.00 0.0 0.00	85.3751914242	0.00	0.00	Clear(fair)	True	False	0.00
2011-01-21 23:00:00 23005 23 0.00 0.00 0.00 0.0 0.00	85.3751914242	0.00	0.00	Clear(fair)	True	False	0.00
2011-01-22 00:00:00 23006 0 0.00 0.00 0.00 0.0 0.00	85.3751914242	0.00	0.00	Clear(fair)	True	False	0.00
2011-01-22 01:00:00 23007 1 0.00 0.00 0.00 0.0 0.00	85.3751914242	0.00	0.00	Clear(fair)	True	False	0.00
2011-01-22 02:00:00 23008 2 0.00 0.00 0.00 0.0 0.00	85.3751914242	0.00	0.00	Clear(fair)	True	False	0.00
2011-01-22 03:00:00 23009 3 0.00 0.00 0.00 0.0 0.00	85.3751914242	0.00	0.00	Clear(fair)	True	False	0.00
2011-01-22 04:00:00 23010 4 0.00 0.00 0.00 0.0 0.00	85.3751914242	0.00	0.00	Clear(fair)	True	False	0.00
2011-01-22 05:00:00 23011 5 0.00 0.00 0.00 0.0 0.00	85.3751914242	0.00	0.00	Clear(fair)	True	False	0.00
2011-01-22 06:00:00 23012 6 0.00 0.00 0.00 0.0 0.00	85.3751914242	0.00	0.00	Clear(fair)	True	False	0.00
2011-01-22 07:00:00 23013 7 46.19 46.19 46.19 7.1 54.10	85.3751914242	46.19	7.10	Clear(fair)	True	False	7.10
