2011-01-28 07:00:00 32211 7 19.29 19.29 19.29 3.8 94.10	20.4952380952	19.29	3.80	Cloudy(cloudy)	True	False	3.80
2011-01-28 08:00:00 32212 8 90.06 90.06 90.06 36.3 439.40	20.4952380952	90.06	36.30	Cloudy(cloudy)	True	False	36.30
2011-01-28 09:00:00 32213 9 153.84 153.84 153.84 74.4 750.60	20.4952380952	153.84	74.40	Cloudy(cloudy)	True	False	74.40
2011-01-28 10:00:00 32214 10 198.50 198.50 198.50 186.7 957.70	20.7264150943	198.50	186.70	Cloudy(light_snow)	True	False	186.70
2011-01-28 11:00:00 32215 11 217.63 217.63 217.63 231.7 1050.00	20.7264150943	217.63	231.70	Cloudy(mostly_cloudy)	True	False	231.70
2011-01-28 12:00:00 32216 12 219.70 219.70 219.70 130.5 1060.00	20.7264150943	219.70	130.50	Cloudy(cloudy)	True	False	130.50
2011-01-28 13:00:00 32217 13 0.46 0.46 0.46 110.9 966.60	0.047619047619	0.46	110.90	Snow_Shower(cloudy)	True	False	110.90
2011-01-28 14:00:00 32218 14 0.38 0.38 0.38 63.6 797.50	0.047619047619	0.38	63.60	Snow_Shower(cloudy)	True	False	63.60
2011-01-28 15:00:00 32219 15 0.25 0.25 0.25 58.9 514.80	0.047619047619	0.25	58.90	Snow_Shower(cloudy)	True	False	58.90
2011-01-28 16:00:00 32220 16 0.07 0.07 0.07 6.5 153.70	0.047619047619	0.07	6.50	Snow_Shower(cloudy)	True	False	6.50
2011-01-28 17:00:00 32221 17 0.00 0.00 0.00 0.0 3.10	0.047619047619	0.00	0.00	Snow_Shower(light_snow)	True	False	0.00
2011-01-28 18:00:00 32222 18 0.00 0.00 0.00 0.0 0.00	0.417667327973	0.00	0.00	Few_Snow_Showers(cloudy)	True	False	0.00
2011-01-28 19:00:00 32223 19 0.00 0.00 0.00 0.0 0.00	0.417667327973	0.00	0.00	Few_Snow_Showers(light_snow)	True	False	0.00
2011-01-28 20:00:00 32224 20 0.00 0.00 0.00 0.0 0.00	0.417667327973	0.00	0.00	Few_Snow_Showers(light_snow)	True	False	0.00
2011-01-28 21:00:00 32225 21 0.00 0.00 0.00 0.0 0.00	20.4952380952	0.00	0.00	Cloudy(cloudy)	True	False	0.00
2011-01-28 22:00:00 32226 22 0.00 0.00 0.00 0.0 0.00	20.4952380952	0.00	0.00	Cloudy(cloudy)	True	False	0.00
2011-01-28 23:00:00 32227 23 0.00 0.00 0.00 0.0 0.00	20.4952380952	0.00	0.00	Cloudy(cloudy)	True	False	0.00
2011-01-29 00:00:00 32228 0 0.00 0.00 0.00 0.0 0.00	20.4952380952	0.00	0.00	Cloudy(fog)	True	False	0.00
2011-01-29 01:00:00 32229 1 0.00 0.00 0.00 0.0 0.00	20.4952380952	0.00	0.00	Cloudy(fog)	True	False	0.00
2011-01-29 02:00:00 32230 2 0.00 0.00 0.00 0.0 0.00	20.4952380952	0.00	0.00	Cloudy(fog)	True	False	0.00
2011-01-29 03:00:00 32231 3 0.00 0.00 0.00 0.0 0.00	26.513427401	0.00	0.00	Mostly_Cloudy(cloudy)	True	False	0.00
2011-01-29 04:00:00 32232 4 0.00 0.00 0.00 0.0 0.00	26.513427401	0.00	0.00	Mostly_Cloudy(cloudy)	True	False	0.00
2011-01-29 05:00:00 32233 5 0.00 0.00 0.00 0.0 0.00	26.513427401	0.00	0.00	Mostly_Cloudy(cloudy)	True	False	0.00
2011-01-29 06:00:00 32234 6 0.00 0.00 0.00 0.0 0.00	26.513427401	0.00	0.00	Mostly_Cloudy(cloudy)	True	False	0.00
2011-01-29 07:00:00 32235 7 24.95 24.95 24.95 7.6 94.10	26.513427401	24.95	7.60	Mostly_Cloudy(fair)	True	False	7.60
2011-01-29 08:00:00 32236 8 116.50 116.50 116.50 91.7 439.40	26.513427401	116.50	91.70	Mostly_Cloudy(fog)	True	False	91.70
2011-01-29 09:00:00 32237 9 199.01 199.01 199.01 187.1 750.60	26.513427401	199.01	187.10	Mostly_Cloudy(fair)	True	False	187.10
2011-01-29 10:00:00 32238 10 297.25 297.25 297.25 281.1 957.70	31.0380952381	297.25	281.10	Mostly_Cloudy(fair)	True	False	281.10
2011-01-29 11:00:00 32239 11 325.90 325.90 325.90 270.2 1050.00	31.0380952381	325.90	270.20	Mostly_Cloudy(fair)	True	False	270.20
2011-01-29 12:00:00 32240 12 0.50 0.50 0.50 362.4 1060.00	0.047619047619	0.50	362.40	Snow_Shower(fair)	True	False	362.40
2011-01-29 13:00:00 32241 13 0.46 0.46 0.46 239.5 966.60	0.047619047619	0.46	239.50	Snow_Shower(partly_cloudy)	True	False	239.50
2011-01-29 14:00:00 32242 14 0.38 0.38 0.38 162.0 797.50	0.047619047619	0.38	162.00	Snow_Shower(partly_cloudy)	True	False	162.00
2011-01-29 15:00:00 32243 15 0.25 0.25 0.25 54.1 514.80	0.047619047619	0.25	54.10	Flurries(mostly_cloudy)	False	False	54.10
2011-01-29 16:00:00 32244 16 0.07 0.07 0.07 19.8 153.70	0.047619047619	0.07	19.80	Flurries(light_snow)	False	False	19.80
2011-01-29 17:00:00 32245 17 0.00 0.00 0.00 0.0 3.10	0.047619047619	0.00	0.00	Flurries(cloudy)	False	False	0.00
2011-01-29 18:00:00 32246 18 0.00 0.00 0.00 0.0 0.00	26.513427401	0.00	0.00	Mostly_Cloudy(light_snow)	True	False	0.00
2011-01-29 19:00:00 32247 19 0.00 0.00 0.00 0.0 0.00	26.513427401	0.00	0.00	Mostly_Cloudy(cloudy)	True	False	0.00
2011-01-29 20:00:00 32248 20 0.00 0.00 0.00 0.0 0.00	26.513427401	0.00	0.00	Mostly_Cloudy(cloudy)	True	False	0.00
2011-01-29 21:00:00 32249 21 0.00 0.00 0.00 0.0 0.00	43.1235431235	0.00	0.00	Partly_Cloudy(cloudy)	True	False	0.00
2011-01-29 22:00:00 32250 22 0.00 0.00 0.00 0.0 0.00	43.1235431235	0.00	0.00	Partly_Cloudy(cloudy)	True	False	0.00
2011-01-29 23:00:00 32251 23 0.00 0.00 0.00 0.0 0.00	43.1235431235	0.00	0.00	Partly_Cloudy(cloudy)	True	False	0.00
2011-01-30 00:00:00 32252 0 0.00 0.00 0.00 0.0 0.00	43.1235431235	0.00	0.00	Partly_Cloudy(cloudy)	True	False	0.00
2011-01-30 01:00:00 32253 1 0.00 0.00 0.00 0.0 0.00	43.1235431235	0.00	0.00	Partly_Cloudy(cloudy)	True	False	0.00
2011-01-30 02:00:00 32254 2 0.00 0.00 0.00 0.0 0.00	43.1235431235	0.00	0.00	Partly_Cloudy(cloudy)	True	False	0.00
2011-01-30 03:00:00 32255 3 0.00 0.00 0.00 0.0 0.00	43.1235431235	0.00	0.00	Partly_Cloudy(cloudy)	True	False	0.00
2011-01-30 04:00:00 32256 4 0.00 0.00 0.00 0.0 0.00	43.1235431235	0.00	0.00	Partly_Cloudy(cloudy)	True	False	0.00
2011-01-30 05:00:00 32257 5 0.00 0.00 0.00 0.0 0.00	43.1235431235	0.00	0.00	Partly_Cloudy(fog)	True	False	0.00
2011-01-30 06:00:00 32258 6 0.00 0.00 0.00 0.0 0.00	43.1235431235	0.00	0.00	Partly_Cloudy(fog)	True	False	0.00
2011-01-30 07:00:00 32259 7 40.58 40.58 40.58 6.3 94.10	43.1235431235	40.58	6.30	Partly_Cloudy(fog)	True	False	6.30
