2011-01-21 13:00:00 24417 13 816.31 816.31 558.62 107.0 943.40	59.2137913021	558.62	107.00	Partly_Cloudy(cloudy)	True	False	107.00
2011-01-21 14:00:00 24418 14 86.85 86.85 453.40 117.7 765.70	59.2137913021	453.40	117.70	Partly_Cloudy(light_snow)	True	False	117.70
2011-01-21 15:00:00 24419 15 282.15 54.04 282.15 46.0 476.50	59.2137913021	282.15	46.00	Partly_Cloudy(cloudy)	True	False	46.00
2011-01-21 16:00:00 24420 16 59.93 13.97 59.93 11.2 123.20	48.6476190476	59.93	11.20	Partly_Cloudy(mostly_cloudy)	True	False	11.20
2011-01-21 17:00:00 24421 17 0.68 0.16 0.68 0.0 1.40	48.6476190476	0.68	0.00	Partly_Cloudy(mostly_cloudy)	True	False	0.00
2011-01-21 18:00:00 24422 18 0.00 0.00 0.00 0.0 0.00	48.6476190476	0.00	0.00	Mostly_Clear(mostly_cloudy)	False	False	0.00
2011-01-21 19:00:00 24423 19 0.00 0.00 0.00 0.0 0.00	82.2857142857	0.00	0.00	Clear(fair)	True	False	0.00
2011-01-21 20:00:00 24424 20 0.00 0.00 0.00 0.0 0.00	82.2857142857	0.00	0.00	Clear(fair)	True	False	0.00
2011-01-21 21:00:00 24425 21 0.00 0.00 0.00 0.0 0.00	82.2857142857	0.00	0.00	Clear(fair)	True	False	0.00
2011-01-21 22:00:00 24426 22 0.00 0.00 0.00 0.0 0.00	82.2857142857	0.00	0.00	Clear(fair)	True	False	0.00
2011-01-21 23:00:00 24427 23 0.00 0.00 0.00 0.0 0.00	82.2857142857	0.00	0.00	Clear(fair)	True	False	0.00
2011-01-22 00:00:00 24428 0 0.00 0.00 0.00 0.0 0.00	82.2857142857	0.00	0.00	Clear(fair)	True	False	0.00
2011-01-22 01:00:00 24429 1 0.00 0.00 0.00 0.0 0.00	82.2857142857	0.00	0.00	Clear(fair)	True	False	0.00
2011-01-22 02:00:00 24430 2 0.00 0.00 0.00 0.0 0.00	82.2857142857	0.00	0.00	Clear(fair)	True	False	0.00
2011-01-22 03:00:00 24431 3 0.00 0.00 0.00 0.0 0.00	82.2857142857	0.00	0.00	Clear(fair)	True	False	0.00
2011-01-22 04:00:00 24432 4 0.00 0.00 0.00 0.0 0.00	82.2857142857	0.00	0.00	Clear(fair)	True	False	0.00
2011-01-22 05:00:00 24433 5 0.00 0.00 0.00 0.0 0.00	82.2857142857	0.00	0.00	Clear(fair)	True	False	0.00
2011-01-22 06:00:00 24434 6 0.00 0.00 0.00 0.0 0.00	82.2857142857	0.00	0.00	Clear(fair)	True	False	0.00
2011-01-22 07:00:00 24435 7 56.78 56.78 56.78 7.1 69.00	82.2857142857	56.78	7.10	Clear(fair)	True	False	7.10
2011-01-22 08:00:00 24436 8 349.96 349.96 349.96 60.9 425.30	82.2857142857	349.96	60.90	Sunny(fair)	True	False	60.90
2011-01-22 09:00:00 24437 9 365.15 365.15 365.15 135.7 750.60	48.6476190476	365.15	135.70	Partly_Cloudy(fair)	True	False	135.70
2011-01-22 10:00:00 24438 10 567.09 567.09 567.09 151.3 957.70	59.2137913021	567.09	151.30	Partly_Cloudy(fair)	True	False	151.30
2011-01-22 11:00:00 24439 11 621.74 621.74 621.74 151.0 1050.00	59.2137913021	621.74	151.00	Partly_Cloudy(fair)	True	False	151.00
2011-01-22 12:00:00 24440 12 625.06 625.06 625.06 174.7 1055.60	59.2137913021	625.06	174.70	Partly_Cloudy(fair)	True	False	174.70
2011-01-22 13:00:00 24441 13 558.62 558.62 558.62 143.0 943.40	59.2137913021	558.62	143.00	Partly_Cloudy(fair)	True	False	143.00
2011-01-22 14:00:00 24442 14 453.40 453.40 453.40 127.0 765.70	59.2137913021	453.40	127.00	Partly_Cloudy(fair)	True	False	127.00
2011-01-22 15:00:00 24443 15 202.90 202.90 202.90 82.7 476.50	42.580952381	202.90	82.70	Mostly_Cloudy(fair)	True	False	82.70
2011-01-22 16:00:00 24444 16 43.22 43.22 43.22 14.7 123.20	35.0790126681	43.22	14.70	Mostly_Cloudy(fair)	True	False	14.70
2011-01-22 17:00:00 24445 17 0.49 0.49 0.49 0.0 1.40	35.0790126681	0.49	0.00	Mostly_Cloudy(fair)	True	False	0.00
2011-01-22 18:00:00 24446 18 0.00 0.00 0.00 0.0 0.00	35.0790126681	0.00	0.00	Mostly_Cloudy(fair)	True	False	0.00
2011-01-22 19:00:00 24447 19 0.00 0.00 0.00 0.0 0.00	35.0790126681	0.00	0.00	Mostly_Cloudy(fair)	True	False	0.00
2011-01-22 20:00:00 24448 20 0.00 0.00 0.00 0.0 0.00	35.0790126681	0.00	0.00	Mostly_Cloudy(fair)	True	False	0.00
2011-01-22 21:00:00 24449 21 0.00 0.00 0.00 0.0 0.00	35.0790126681	0.00	0.00	Mostly_Cloudy(fair)	True	False	0.00
2011-01-22 22:00:00 24450 22 0.00 0.00 0.00 0.0 0.00	35.0790126681	0.00	0.00	Mostly_Cloudy(fair)	True	False	0.00
2011-01-22 23:00:00 24451 23 0.00 0.00 0.00 0.0 0.00	35.0790126681	0.00	0.00	Mostly_Cloudy(fair)	True	False	0.00
2011-01-23 00:00:00 24452 0 0.00 0.00 0.00 0.0 0.00	35.0790126681	0.00	0.00	Mostly_Cloudy(fair)	True	False	0.00
2011-01-23 01:00:00 24453 1 0.00 0.00 0.00 0.0 0.00	35.0790126681	0.00	0.00	Mostly_Cloudy(fair)	True	False	0.00
2011-01-23 02:00:00 24454 2 0.00 0.00 0.00 0.0 0.00	35.0790126681	0.00	0.00	Mostly_Cloudy(fair)	True	False	0.00
2011-01-23 03:00:00 24455 3 0.00 0.00 0.00 0.0 0.00	35.0790126681	0.00	0.00	Mostly_Cloudy(fair)	True	False	0.00
2011-01-23 04:00:00 24456 4 0.00 0.00 0.00 0.0 0.00	35.0790126681	0.00	0.00	Mostly_Cloudy(fair)	True	False	0.00
2011-01-23 05:00:00 24457 5 0.00 0.00 0.00 0.0 0.00	35.0790126681	0.00	0.00	Mostly_Cloudy(fair)	True	False	0.00
2011-01-23 06:00:00 24458 6 0.00 0.00 0.00 0.0 0.00	35.0790126681	0.00	0.00	Mostly_Cloudy(fair)	True	False	0.00
2011-01-23 07:00:00 24459 7 24.20 24.20 24.20 10.3 69.00	35.0790126681	24.20	10.30	Mostly_Cloudy(fair)	True	False	10.30
2011-01-23 08:00:00 24460 8 149.19 149.19 149.19 97.7 425.30	35.0790126681	149.19	97.70	Mostly_Cloudy(fair)	True	False	97.70
2011-01-23 09:00:00 24461 9 365.15 365.15 365.15 191.7 750.60	48.6476190476	365.15	191.70	Partly_Cloudy(fair)	True	False	191.70
2011-01-23 10:00:00 24462 10 567.09 567.09 567.09 264.2 957.70	59.2137913021	567.09	264.20	Partly_Cloudy(fair)	True	False	264.20
2011-01-23 11:00:00 24463 11 621.74 621.74 621.74 319.4 1050.00	59.2137913021	621.74	319.40	Partly_Cloudy(fair)	True	False	319.40
2011-01-23 12:00:00 24464 12 449.48 449.48 449.48 356.8 1055.60	42.580952381	449.48	356.80	Mostly_Cloudy(fair)	True	False	356.80
2011-01-23 13:00:00 24465 13 401.71 401.71 401.71 340.4 943.40	42.580952381	401.71	340.40	Mostly_Cloudy(fair)	True	False	340.40
