2011-01-25 13:00:00 29085 13 241.40 821.52 241.40 310.9 966.60	24.9741361473	241.40	310.90	Cloudy(partly_cloudy)	True	False	310.90
2011-01-25 14:00:00 29086 14 262.65 256.51 262.65 246.0 797.50	32.9339622642	262.65	246.00	Mostly_Cloudy(fair)	True	False	246.00
2011-01-25 15:00:00 29087 15 169.54 165.58 169.54 89.3 514.80	32.9339622642	169.54	89.30	Mostly_Cloudy(mostly_cloudy)	True	False	89.30
2011-01-25 16:00:00 29088 16 68.26 49.44 68.26 12.8 153.70	44.4134078212	68.26	12.80	Partly_Cloudy(cloudy)	True	False	12.80
2011-01-25 17:00:00 29089 17 1.38 1.00 1.38 0.0 3.10	44.4134078212	1.38	0.00	Partly_Cloudy(cloudy)	True	False	0.00
2011-01-25 18:00:00 29090 18 0.00 0.00 0.00 0.0 0.00	44.4134078212	0.00	0.00	Partly_Cloudy(cloudy)	True	False	0.00
2011-01-25 19:00:00 29091 19 0.00 0.00 0.00 0.0 0.00	44.4134078212	0.00	0.00	Partly_Cloudy(cloudy)	True	False	0.00
2011-01-25 20:00:00 29092 20 0.00 0.00 0.00 0.0 0.00	44.4134078212	0.00	0.00	Partly_Cloudy(cloudy)	True	False	0.00
2011-01-25 21:00:00 29093 21 0.00 0.00 0.00 0.0 0.00	44.4134078212	0.00	0.00	Mostly_Clear(cloudy)	False	False	0.00
2011-01-25 22:00:00 29094 22 0.00 0.00 0.00 0.0 0.00	44.4134078212	0.00	0.00	Mostly_Clear(cloudy)	False	False	0.00
2011-01-25 23:00:00 29095 23 0.00 0.00 0.00 0.0 0.00	44.4134078212	0.00	0.00	Mostly_Clear(cloudy)	False	False	0.00
2011-01-26 00:00:00 29096 0 0.00 0.00 0.00 0.0 0.00	44.4134078212	0.00	0.00	Partly_Cloudy(fair)	True	False	0.00
2011-01-26 01:00:00 29097 1 0.00 0.00 0.00 0.0 0.00	44.4134078212	0.00	0.00	Partly_Cloudy(fair)	True	False	0.00
2011-01-26 02:00:00 29098 2 0.00 0.00 0.00 0.0 0.00	44.4134078212	0.00	0.00	Partly_Cloudy(fair)	True	False	0.00
2011-01-26 03:00:00 29099 3 0.00 0.00 0.00 0.0 0.00	20.4952380952	0.00	0.00	Cloudy(fair)	True	False	0.00
2011-01-26 04:00:00 29100 4 0.00 0.00 0.00 0.0 0.00	20.4952380952	0.00	0.00	Cloudy(mostly_cloudy)	True	False	0.00
2011-01-26 05:00:00 29101 5 0.00 0.00 0.00 0.0 0.00	20.4952380952	0.00	0.00	Cloudy(mostly_cloudy)	True	False	0.00
2011-01-26 06:00:00 29102 6 0.00 0.00 0.00 0.0 0.00	20.4952380952	0.00	0.00	Cloudy(cloudy)	True	False	0.00
2011-01-26 07:00:00 29103 7 15.02 15.02 15.02 0.0 73.30	20.4952380952	15.02	0.00	Cloudy(Unkown)	True	False	0.00
2011-01-26 08:00:00 29104 8 87.17 87.17 87.17 0.0 425.30	20.4952380952	87.17	0.00	Cloudy(snow)	True	False	0.00
2011-01-26 09:00:00 29105 9 46.39 46.39 46.39 0.0 750.60	6.18087182824	46.39	0.00	Light_Wintry_Mix(snow_and_fog)	True	False	0.00
2011-01-26 10:00:00 29106 10 32.30 32.30 32.30 0.1 957.70	3.37304075235	32.30	0.10	Light_Wintry_Mix(heavy_snow)	True	False	0.10
2011-01-26 11:00:00 29107 11 35.42 35.42 35.42 0.4 1050.00	3.37304075235	35.42	0.40	Light_Wintry_Mix(light_snow)	True	False	0.40
2011-01-26 12:00:00 29108 12 46.49 46.49 46.49 5.4 1060.00	4.38550694372	46.49	5.40	Rain_/_Snow_Showers(Unkown)	True	False	5.40
2011-01-26 13:00:00 29109 13 42.39 42.39 42.39 8.0 966.60	4.38550694372	42.39	8.00	Rain_/_Snow_Showers(Unkown)	True	False	8.00
2011-01-26 14:00:00 29110 14 34.97 34.97 34.97 5.3 797.50	4.38550694372	34.97	5.30	Rain_/_Snow_Showers(light_snow)	True	False	5.30
2011-01-26 15:00:00 29111 15 22.58 22.58 22.58 0.2 514.80	4.38550694372	22.58	0.20	Rain_/_Snow_Showers(light_snow)	True	False	0.20
2011-01-26 16:00:00 29112 16 2.17 2.17 2.17 0.0 153.70	1.41220357048	2.17	0.00	Rain_/_Snow_Showers(light_snow)	True	False	0.00
2011-01-26 17:00:00 29113 17 0.04 0.04 0.04 0.0 3.10	1.41220357048	0.04	0.00	Rain_/_Snow_Showers(cloudy)	True	False	0.00
2011-01-26 18:00:00 29114 18 0.00 0.00 0.00 0.0 0.00	3.45765345765	0.00	0.00	Wintry_Mix(wintry_mix)	True	False	0.00
2011-01-26 19:00:00 29115 19 0.00 0.00 0.00 0.0 0.00	3.45765345765	0.00	0.00	Wintry_Mix(light_snow)	True	False	0.00
2011-01-26 20:00:00 29116 20 0.00 0.00 0.00 0.0 0.00	3.45765345765	0.00	0.00	Wintry_Mix(snow)	True	False	0.00
2011-01-26 21:00:00 29117 21 0.00 0.00 0.00 0.0 0.00	0.0	0.00	0.00	Snow(heavy_snow)	True	False	0.00
2011-01-26 22:00:00 29118 22 0.00 0.00 0.00 0.0 0.00	0.0	0.00	0.00	Snow(snow)	True	False	0.00
2011-01-26 23:00:00 29119 23 0.00 0.00 0.00 0.0 0.00	0.0	0.00	0.00	Snow(snow)	True	False	0.00
2011-01-27 00:00:00 29120 0 0.00 0.00 0.00 0.0 0.00	0.0	0.00	0.00	Snow(light_snow)	True	False	0.00
2011-01-27 01:00:00 29121 1 0.00 0.00 0.00 0.0 0.00	0.0	0.00	0.00	Snow(light_snow)	True	False	0.00
2011-01-27 02:00:00 29122 2 0.00 0.00 0.00 0.0 0.00	0.0	0.00	0.00	Snow(light_snow)	True	False	0.00
2011-01-27 03:00:00 29123 3 0.00 0.00 0.00 0.0 0.00	0.0	0.00	0.00	Snow_Shower(mostly_cloudy)	True	False	0.00
2011-01-27 04:00:00 29124 4 0.00 0.00 0.00 0.0 0.00	0.0	0.00	0.00	Snow_Shower(cloudy)	True	False	0.00
2011-01-27 05:00:00 29125 5 0.00 0.00 0.00 0.0 0.00	0.0	0.00	0.00	Snow_Shower(cloudy)	True	False	0.00
2011-01-27 06:00:00 29126 6 0.00 0.00 0.00 0.0 0.00	28.547561867	0.00	0.00	Mostly_Cloudy(cloudy)	True	False	0.00
2011-01-27 07:00:00 29127 7 20.93 20.93 20.93 0.0 73.30	28.547561867	20.93	0.00	Mostly_Cloudy(cloudy)	True	False	0.00
2011-01-27 08:00:00 29128 8 121.41 121.41 121.41 0.0 425.30	28.547561867	121.41	0.00	Mostly_Cloudy(cloudy)	True	False	0.00
2011-01-27 09:00:00 29129 9 10.60 10.60 10.60 0.0 750.60	1.41220357048	10.60	0.00	Few_Snow_Showers(cloudy)	True	False	0.00
2011-01-27 10:00:00 29130 10 42.00 42.00 42.00 1.1 957.70	4.38550694372	42.00	1.10	Few_Snow_Showers(cloudy)	True	False	1.10
2011-01-27 11:00:00 29131 11 46.05 46.05 46.05 89.4 1050.00	4.38550694372	46.05	89.40	Few_Snow_Showers(cloudy)	True	False	89.40
2011-01-27 12:00:00 29132 12 602.64 602.64 602.64 171.1 1060.00	56.8526645768	602.64	171.10	Partly_Cloudy(cloudy)	True	False	171.10
2011-01-27 13:00:00 29133 13 549.54 549.54 549.54 277.7 966.60	56.8526645768	549.54	277.70	Partly_Cloudy(partly_cloudy)	True	False	277.70
