2011-01-13 16:00:00 15276 16 70.94 70.94 70.94 6.8 76.80	92.3752792256	70.94	6.80	Mostly_Sunny(fair)	False	False	6.80
2011-01-13 17:00:00 15277 17 0.03 0.03 0.03 0.0 0.30	92.3752792256	0.03	0.00	Mostly_Clear(fair)	False	False	0.00
2011-01-13 18:00:00 15278 18 0.00 0.00 0.00 0.0 0.00	52.8997514499	0.00	0.00	Partly_Cloudy(fair)	True	False	0.00
2011-01-13 19:00:00 15279 19 0.00 0.00 0.00 0.0 0.00	52.8997514499	0.00	0.00	Partly_Cloudy(fair)	True	False	0.00
2011-01-13 20:00:00 15280 20 0.00 0.00 0.00 0.0 0.00	52.8997514499	0.00	0.00	Partly_Cloudy(fair)	True	False	0.00
2011-01-13 21:00:00 15281 21 0.00 0.00 0.00 0.0 0.00	52.8997514499	0.00	0.00	Mostly_Clear(fair)	False	False	0.00
2011-01-13 22:00:00 15282 22 0.00 0.00 0.00 0.0 0.00	90.4430734717	0.00	0.00	Clear(fair)	True	False	0.00
2011-01-13 23:00:00 15283 23 0.00 0.00 0.00 0.0 0.00	90.4430734717	0.00	0.00	Clear(fair)	True	False	0.00
2011-01-14 00:00:00 15284 0 0.00 0.00 0.00 0.0 0.00	90.4430734717	0.00	0.00	Clear(fair)	True	False	0.00
2011-01-14 01:00:00 15285 1 0.00 0.00 0.00 0.0 0.00	90.4430734717	0.00	0.00	Clear(fair)	True	False	0.00
2011-01-14 02:00:00 15286 2 0.00 0.00 0.00 0.0 0.00	90.4430734717	0.00	0.00	Clear(fair)	True	False	0.00
2011-01-14 03:00:00 15287 3 0.00 0.00 0.00 0.0 0.00	52.8997514499	0.00	0.00	Partly_Cloudy(fair)	True	False	0.00
2011-01-14 04:00:00 15288 4 0.00 0.00 0.00 0.0 0.00	52.8997514499	0.00	0.00	Partly_Cloudy(fair)	True	False	0.00
2011-01-14 05:00:00 15289 5 0.00 0.00 0.00 0.0 0.00	52.8997514499	0.00	0.00	Partly_Cloudy(fair)	True	False	0.00
2011-01-14 06:00:00 15290 6 0.00 0.00 0.00 0.0 0.00	48.2137753644	0.00	0.00	Mostly_Cloudy(fair)	True	False	0.00
2011-01-14 07:00:00 15291 7 19.43 19.43 19.43 0.9 40.30	48.2137753644	19.43	0.90	Mostly_Cloudy(fair)	True	False	0.90
2011-01-14 08:00:00 15292 8 168.70 168.70 168.70 56.4 349.90	48.2137753644	168.70	56.40	Mostly_Cloudy(fair)	True	False	56.40
2011-01-14 09:00:00 15293 9 217.84 217.84 217.84 144.1 668.20	32.6014913007	217.84	144.10	Cloudy(fair)	True	False	144.10
2011-01-14 10:00:00 15294 10 335.77 335.77 335.77 288.8 891.50	37.664028849	335.77	288.80	Cloudy(fair)	True	False	288.80
2011-01-14 11:00:00 15295 11 363.68 363.68 363.68 356.8 965.60	37.664028849	363.68	356.80	Cloudy(fair)	True	False	356.80
2011-01-14 12:00:00 15296 12 550.22 550.22 550.22 408.8 998.30	55.1154132539	550.22	408.80	Mostly_Cloudy(fair)	True	False	408.80
2011-01-14 13:00:00 15297 13 476.20 476.20 476.20 399.7 864.00	55.1154132539	476.20	399.70	Mostly_Cloudy(fair)	True	False	399.70
2011-01-14 14:00:00 15298 14 370.10 370.10 370.10 314.6 671.50	55.1154132539	370.10	314.60	Mostly_Cloudy(fair)	True	False	314.60
2011-01-14 15:00:00 15299 15 238.18 238.18 238.18 161.5 354.70	67.149958575	238.18	161.50	Partly_Cloudy(fair)	True	False	161.50
2011-01-14 16:00:00 15300 16 40.63 40.63 40.63 13.6 76.80	52.8997514499	40.63	13.60	Partly_Cloudy(fair)	True	False	13.60
2011-01-14 17:00:00 15301 17 0.16 0.16 0.16 0.0 0.30	52.8997514499	0.16	0.00	Partly_Cloudy(fair)	True	False	0.00
2011-01-14 18:00:00 15302 18 0.00 0.00 0.00 0.0 0.00	52.8997514499	0.00	0.00	Mostly_Clear(fair)	False	False	0.00
2011-01-14 19:00:00 15303 19 0.00 0.00 0.00 0.0 0.00	52.8997514499	0.00	0.00	Mostly_Clear(fair)	False	False	0.00
2011-01-14 20:00:00 15304 20 0.00 0.00 0.00 0.0 0.00	52.8997514499	0.00	0.00	Mostly_Clear(fair)	False	False	0.00
2011-01-14 21:00:00 15305 21 0.00 0.00 0.00 0.0 0.00	90.4430734717	0.00	0.00	Clear(fair)	True	False	0.00
2011-01-14 22:00:00 15306 22 0.00 0.00 0.00 0.0 0.00	90.4430734717	0.00	0.00	Clear(fair)	True	False	0.00
2011-01-14 23:00:00 15307 23 0.00 0.00 0.00 0.0 0.00	90.4430734717	0.00	0.00	Clear(fair)	True	False	0.00
2011-01-15 00:00:00 15308 0 0.00 0.00 0.00 0.0 0.00	90.4430734717	0.00	0.00	Mostly_Clear(fair)	False	False	0.00
2011-01-15 01:00:00 15309 1 0.00 0.00 0.00 0.0 0.00	90.4430734717	0.00	0.00	Mostly_Clear(fair)	False	False	0.00
2011-01-15 02:00:00 15310 2 0.00 0.00 0.00 0.0 0.00	90.4430734717	0.00	0.00	Mostly_Clear(fair)	False	False	0.00
2011-01-15 03:00:00 15311 3 0.00 0.00 0.00 0.0 0.00	52.8997514499	0.00	0.00	Partly_Cloudy(fair)	True	False	0.00
2011-01-15 04:00:00 15312 4 0.00 0.00 0.00 0.0 0.00	52.8997514499	0.00	0.00	Partly_Cloudy(fair)	True	False	0.00
2011-01-15 05:00:00 15313 5 0.00 0.00 0.00 0.0 0.00	52.8997514499	0.00	0.00	Partly_Cloudy(fair)	True	False	0.00
2011-01-15 06:00:00 15314 6 0.00 0.00 0.00 0.0 0.00	48.2137753644	0.00	0.00	Mostly_Cloudy(fair)	True	False	0.00
2011-01-15 07:00:00 15315 7 19.43 19.43 19.43 8.7 40.30	48.2137753644	19.43	8.70	Mostly_Cloudy(fair)	True	False	8.70
2011-01-15 08:00:00 15316 8 168.70 168.70 168.70 136.2 349.90	48.2137753644	168.70	136.20	Mostly_Cloudy(fair)	True	False	136.20
2011-01-15 09:00:00 15317 9 217.84 217.84 217.84 87.5 668.20	32.6014913007	217.84	87.50	Cloudy(fair)	True	False	87.50
2011-01-15 10:00:00 15318 10 335.77 335.77 335.77 187.7 891.50	37.664028849	335.77	187.70	Cloudy(cloudy)	True	False	187.70
2011-01-15 11:00:00 15319 11 363.68 363.68 363.68 306.5 965.60	37.664028849	363.68	306.50	Cloudy(mostly_cloudy)	True	False	306.50
2011-01-15 12:00:00 15320 12 376.00 376.00 376.00 411.8 998.30	37.664028849	376.00	411.80	Cloudy(mostly_cloudy)	True	False	411.80
2011-01-15 13:00:00 15321 13 325.42 325.42 325.42 440.6 864.00	37.664028849	325.42	440.60	Cloudy(mostly_cloudy)	True	False	440.60
2011-01-15 14:00:00 15322 14 252.91 252.91 252.91 196.9 671.50	37.664028849	252.91	196.90	Cloudy(fair)	True	False	196.90
2011-01-15 15:00:00 15323 15 101.81 101.81 101.81 49.6 354.70	28.7037037037	101.81	49.60	Few_Snow_Showers(cloudy)	True	False	49.60
2011-01-15 16:00:00 15324 16 22.04 22.04 22.04 1.6 76.80	28.7037037037	22.04	1.60	Few_Snow_Showers(cloudy)	True	False	1.60
