2011-01-08 00:00:00 8674 0 0.00 0.00 0.00 0.0 0.00	53.1446540881	0.00	0.00	Partly_Cloudy(fair)	True	False	0.00
2011-01-08 01:00:00 8675 1 0.00 0.00 0.00 0.0 0.00	53.1446540881	0.00	0.00	Partly_Cloudy(fair)	True	False	0.00
2011-01-08 02:00:00 8676 2 0.00 0.00 0.00 0.0 0.00	53.1446540881	0.00	0.00	Partly_Cloudy(fair)	True	False	0.00
2011-01-08 03:00:00 8677 3 0.00 0.00 0.00 0.0 0.00	49.5642592407	0.00	0.00	Mostly_Cloudy(fair)	True	False	0.00
2011-01-08 04:00:00 8678 4 0.00 0.00 0.00 0.0 0.00	49.5642592407	0.00	0.00	Mostly_Cloudy(mostly_cloudy)	True	False	0.00
2011-01-08 05:00:00 8679 5 0.00 0.00 0.00 0.0 0.00	49.5642592407	0.00	0.00	Mostly_Cloudy(mostly_cloudy)	True	False	0.00
2011-01-08 06:00:00 8680 6 0.00 0.00 0.00 0.0 0.00	49.5642592407	0.00	0.00	Flurries(cloudy)	False	False	0.00
2011-01-08 07:00:00 8681 7 15.76 15.76 15.76 0.0 31.80	49.5642592407	15.76	0.00	Flurries(mostly_cloudy)	False	False	0.00
2011-01-08 08:00:00 8682 8 165.79 165.79 165.79 1.2 334.50	49.5642592407	165.79	1.20	Flurries(cloudy)	False	False	1.20
2011-01-08 09:00:00 8683 9 195.99 195.99 195.99 10.6 654.90	29.9263907325	195.99	10.60	Few_Snow_Showers(mostly_cloudy)	True	False	10.60
2011-01-08 10:00:00 8684 10 266.79 266.79 266.79 17.8 891.50	29.9263907325	266.79	17.80	Few_Snow_Showers(fair)	True	False	17.80
2011-01-08 11:00:00 8685 11 288.01 288.01 288.01 20.0 962.40	29.9263907325	288.01	20.00	Few_Snow_Showers(fair)	True	False	20.00
2011-01-08 12:00:00 8686 12 298.76 298.76 298.76 16.7 998.30	29.9263907325	298.76	16.70	Light_Snow(cloudy)	True	False	16.70
2011-01-08 13:00:00 8687 13 248.00 248.00 248.00 11.5 828.70	29.9263907325	248.00	11.50	Light_Snow(snow)	True	False	11.50
2011-01-08 14:00:00 8688 14 186.65 186.65 186.65 4.3 623.70	29.9263907325	186.65	4.30	Light_Snow(light_snow)	True	False	4.30
2011-01-08 15:00:00 8689 15 96.69 96.69 96.69 1.1 323.10	29.9263907325	96.69	1.10	Light_Snow(light_snow)	True	False	1.10
2011-01-08 16:00:00 8690 16 16.61 16.61 16.61 0.0 55.50	29.9263907325	16.61	0.00	Light_Snow(light_snow)	True	False	0.00
2011-01-08 17:00:00 8691 17 0.00 0.00 0.00 0.0 0.00	29.9263907325	0.00	0.00	Light_Snow(light_snow)	True	False	0.00
2011-01-08 18:00:00 8692 18 0.00 0.00 0.00 0.0 0.00	24.4508577842	0.00	0.00	Snow_Shower(cloudy)	True	False	0.00
2011-01-08 19:00:00 8693 19 0.00 0.00 0.00 0.0 0.00	24.4508577842	0.00	0.00	Snow_Shower(cloudy)	True	False	0.00
2011-01-08 20:00:00 8694 20 0.00 0.00 0.00 0.0 0.00	24.4508577842	0.00	0.00	Snow_Shower(cloudy)	True	False	0.00
2011-01-08 21:00:00 8695 21 0.00 0.00 0.00 0.0 0.00	29.9263907325	0.00	0.00	Few_Snow_Showers(cloudy)	True	False	0.00
2011-01-08 22:00:00 8696 22 0.00 0.00 0.00 0.0 0.00	29.9263907325	0.00	0.00	Few_Snow_Showers(cloudy)	True	False	0.00
2011-01-08 23:00:00 8697 23 0.00 0.00 0.00 0.0 0.00	29.9263907325	0.00	0.00	Few_Snow_Showers(cloudy)	True	False	0.00
2011-01-09 00:00:00 8698 0 0.00 0.00 0.00 0.0 0.00	49.5642592407	0.00	0.00	Mostly_Cloudy(cloudy)	True	False	0.00
2011-01-09 01:00:00 8699 1 0.00 0.00 0.00 0.0 0.00	49.5642592407	0.00	0.00	Mostly_Cloudy(cloudy)	True	False	0.00
2011-01-09 02:00:00 8700 2 0.00 0.00 0.00 0.0 0.00	49.5642592407	0.00	0.00	Mostly_Cloudy(mostly_cloudy)	True	False	0.00
2011-01-09 03:00:00 8701 3 0.00 0.00 0.00 0.0 0.00	49.5642592407	0.00	0.00	Mostly_Cloudy(cloudy)	True	False	0.00
2011-01-09 04:00:00 8702 4 0.00 0.00 0.00 0.0 0.00	49.5642592407	0.00	0.00	Mostly_Cloudy(cloudy)	True	False	0.00
2011-01-09 05:00:00 8703 5 0.00 0.00 0.00 0.0 0.00	49.5642592407	0.00	0.00	Mostly_Cloudy(mostly_cloudy)	True	False	0.00
2011-01-09 06:00:00 8704 6 0.00 0.00 0.00 0.0 0.00	53.1446540881	0.00	0.00	Partly_Cloudy(fair)	True	False	0.00
2011-01-09 07:00:00 8705 7 16.90 16.90 16.90 0.0 31.80	53.1446540881	16.90	0.00	Partly_Cloudy(fair)	True	False	0.00
2011-01-09 08:00:00 8706 8 177.77 177.77 177.77 14.6 334.50	53.1446540881	177.77	14.60	Partly_Cloudy(fair)	True	False	14.60
2011-01-09 09:00:00 8707 9 348.04 348.04 348.04 45.2 654.90	53.1446540881	348.04	45.20	Partly_Cloudy(fair)	True	False	45.20
2011-01-09 10:00:00 8708 10 609.91 609.91 609.91 74.7 891.50	68.4143017476	609.91	74.70	Partly_Cloudy(fair)	True	False	74.70
2011-01-09 11:00:00 8709 11 658.42 658.42 658.42 102.6 962.40	68.4143017476	658.42	102.60	Partly_Cloudy(mostly_cloudy)	True	False	102.60
2011-01-09 12:00:00 8710 12 682.98 682.98 682.98 233.6 998.30	68.4143017476	682.98	233.60	Partly_Cloudy(mostly_cloudy)	True	False	233.60
2011-01-09 13:00:00 8711 13 566.95 566.95 566.95 388.4 828.70	68.4143017476	566.95	388.40	Partly_Cloudy(fair)	True	False	388.40
2011-01-09 14:00:00 8712 14 426.70 426.70 426.70 391.8 623.70	68.4143017476	426.70	391.80	Partly_Cloudy(mostly_cloudy)	True	False	391.80
2011-01-09 15:00:00 8713 15 221.05 221.05 221.05 188.8 323.10	68.4143017476	221.05	188.80	Partly_Cloudy(fair)	True	False	188.80
2011-01-09 16:00:00 8714 16 29.50 29.50 29.50 15.7 55.50	53.1446540881	29.50	15.70	Partly_Cloudy(fair)	True	False	15.70
2011-01-09 17:00:00 8715 17 0.00 0.00 0.00 0.0 0.00	53.1446540881	0.00	0.00	Partly_Cloudy(fair)	True	False	0.00
2011-01-09 18:00:00 8716 18 0.00 0.00 0.00 0.0 0.00	91.4955424221	0.00	0.00	Clear(fair)	True	False	0.00
2011-01-09 19:00:00 8717 19 0.00 0.00 0.00 0.0 0.00	91.4955424221	0.00	0.00	Clear(fair)	True	False	0.00
2011-01-09 20:00:00 8718 20 0.00 0.00 0.00 0.0 0.00	91.4955424221	0.00	0.00	Clear(fair)	True	False	0.00
2011-01-09 21:00:00 8719 21 0.00 0.00 0.00 0.0 0.00	91.4955424221	0.00	0.00	Clear(fair)	True	False	0.00
2011-01-09 22:00:00 8720 22 0.00 0.00 0.00 0.0 0.00	91.4955424221	0.00	0.00	Clear(fair)	True	False	0.00
2011-01-09 23:00:00 8721 23 0.00 0.00 0.00 0.0 0.00	91.4955424221	0.00	0.00	Clear(fair)	True	False	0.00
