2011-01-14 13:00:00 16300 13 798.12 798.12 798.12 399.7 864.00	92.3752792256	798.12	399.70	Sunny(fair)	True	False	399.70
2011-01-14 14:00:00 16301 14 310.65 310.65 620.30 314.6 671.50	92.3752792256	620.30	314.60	Sunny(fair)	True	False	314.60
2011-01-14 15:00:00 16302 15 238.18 164.09 238.18 161.5 354.70	67.149958575	238.18	161.50	Partly_Cloudy(fair)	True	False	161.50
2011-01-14 16:00:00 16303 16 43.20 37.15 43.20 13.6 80.30	53.798256538	43.20	13.60	Partly_Cloudy(fair)	True	False	13.60
2011-01-14 17:00:00 16304 17 0.32 0.28 0.32 0.0 0.60	53.798256538	0.32	0.00	Partly_Cloudy(fair)	True	False	0.00
2011-01-14 18:00:00 16305 18 0.00 0.00 0.00 0.0 0.00	53.798256538	0.00	0.00	Partly_Cloudy(fair)	True	False	0.00
2011-01-14 19:00:00 16306 19 0.00 0.00 0.00 0.0 0.00	53.798256538	0.00	0.00	Mostly_Clear(fair)	False	False	0.00
2011-01-14 20:00:00 16307 20 0.00 0.00 0.00 0.0 0.00	53.798256538	0.00	0.00	Mostly_Clear(fair)	False	False	0.00
2011-01-14 21:00:00 16308 21 0.00 0.00 0.00 0.0 0.00	89.4255501572	0.00	0.00	Clear(fair)	True	False	0.00
2011-01-14 22:00:00 16309 22 0.00 0.00 0.00 0.0 0.00	89.4255501572	0.00	0.00	Clear(fair)	True	False	0.00
2011-01-14 23:00:00 16310 23 0.00 0.00 0.00 0.0 0.00	89.4255501572	0.00	0.00	Clear(fair)	True	False	0.00
2011-01-15 00:00:00 16311 0 0.00 0.00 0.00 0.0 0.00	89.4255501572	0.00	0.00	Clear(fair)	True	False	0.00
2011-01-15 01:00:00 16312 1 0.00 0.00 0.00 0.0 0.00	89.4255501572	0.00	0.00	Clear(fair)	True	False	0.00
2011-01-15 02:00:00 16313 2 0.00 0.00 0.00 0.0 0.00	89.4255501572	0.00	0.00	Clear(fair)	True	False	0.00
2011-01-15 03:00:00 16314 3 0.00 0.00 0.00 0.0 0.00	53.798256538	0.00	0.00	Partly_Cloudy(fair)	True	False	0.00
2011-01-15 04:00:00 16315 4 0.00 0.00 0.00 0.0 0.00	53.798256538	0.00	0.00	Partly_Cloudy(fair)	True	False	0.00
2011-01-15 05:00:00 16316 5 0.00 0.00 0.00 0.0 0.00	53.798256538	0.00	0.00	Partly_Cloudy(fair)	True	False	0.00
2011-01-15 06:00:00 16317 6 0.00 0.00 0.00 0.0 0.00	47.9166666667	0.00	0.00	Mostly_Cloudy(fair)	True	False	0.00
2011-01-15 07:00:00 16318 7 19.31 19.31 19.31 8.7 40.30	47.9166666667	19.31	8.70	Mostly_Cloudy(fair)	True	False	8.70
2011-01-15 08:00:00 16319 8 167.66 167.66 167.66 136.2 349.90	47.9166666667	167.66	136.20	Mostly_Cloudy(fair)	True	False	136.20
2011-01-15 09:00:00 16320 9 320.18 320.18 320.18 87.5 668.20	47.9166666667	320.18	87.50	Mostly_Cloudy(fair)	True	False	87.50
2011-01-15 10:00:00 16321 10 491.35 491.35 491.35 187.7 891.50	55.1154132539	491.35	187.70	Mostly_Cloudy(cloudy)	True	False	187.70
2011-01-15 11:00:00 16322 11 532.19 532.19 532.19 306.5 965.60	55.1154132539	532.19	306.50	Mostly_Cloudy(mostly_cloudy)	True	False	306.50
2011-01-15 12:00:00 16323 12 286.55 286.55 286.55 411.8 998.30	28.7037037037	286.55	411.80	Few_Snow_Showers(mostly_cloudy)	True	False	411.80
2011-01-15 13:00:00 16324 13 248.00 248.00 248.00 440.6 864.00	28.7037037037	248.00	440.60	Few_Snow_Showers(mostly_cloudy)	True	False	440.60
2011-01-15 14:00:00 16325 14 192.75 192.75 192.75 196.9 671.50	28.7037037037	192.75	196.90	Few_Snow_Showers(fair)	True	False	196.90
2011-01-15 15:00:00 16326 15 101.81 101.81 101.81 49.6 354.70	28.7037037037	101.81	49.60	Few_Snow_Showers(cloudy)	True	False	49.60
2011-01-15 16:00:00 16327 16 3.78 3.78 3.78 1.6 80.30	4.71116096467	3.78	1.60	Few_Snow_Showers(cloudy)	True	False	1.60
2011-01-15 17:00:00 16328 17 0.03 0.03 0.03 0.0 0.60	4.71116096467	0.03	0.00	Few_Snow_Showers(cloudy)	True	False	0.00
2011-01-15 18:00:00 16329 18 0.00 0.00 0.00 0.0 0.00	4.71116096467	0.00	0.00	Few_Snow_Showers(cloudy)	True	False	0.00
2011-01-15 19:00:00 16330 19 0.00 0.00 0.00 0.0 0.00	4.71116096467	0.00	0.00	Few_Snow_Showers(cloudy)	True	False	0.00
2011-01-15 20:00:00 16331 20 0.00 0.00 0.00 0.0 0.00	4.71116096467	0.00	0.00	Few_Snow_Showers(cloudy)	True	False	0.00
2011-01-15 21:00:00 16332 21 0.00 0.00 0.00 0.0 0.00	34.7133283693	0.00	0.00	Cloudy(cloudy)	True	False	0.00
2011-01-15 22:00:00 16333 22 0.00 0.00 0.00 0.0 0.00	34.7133283693	0.00	0.00	Cloudy(fair)	True	False	0.00
2011-01-15 23:00:00 16334 23 0.00 0.00 0.00 0.0 0.00	34.7133283693	0.00	0.00	Cloudy(partly_cloudy)	True	False	0.00
2011-01-16 00:00:00 16335 0 0.00 0.00 0.00 0.0 0.00	34.7133283693	0.00	0.00	Cloudy(mostly_cloudy)	True	False	0.00
2011-01-16 01:00:00 16336 1 0.00 0.00 0.00 0.0 0.00	34.7133283693	0.00	0.00	Cloudy(partly_cloudy)	True	False	0.00
2011-01-16 02:00:00 16337 2 0.00 0.00 0.00 0.0 0.00	34.7133283693	0.00	0.00	Cloudy(mostly_cloudy)	True	False	0.00
2011-01-16 03:00:00 16338 3 0.00 0.00 0.00 0.0 0.00	34.7133283693	0.00	0.00	Cloudy(fair)	True	False	0.00
2011-01-16 04:00:00 16339 4 0.00 0.00 0.00 0.0 0.00	34.7133283693	0.00	0.00	Cloudy(fair)	True	False	0.00
2011-01-16 05:00:00 16340 5 0.00 0.00 0.00 0.0 0.00	34.7133283693	0.00	0.00	Cloudy(fair)	True	False	0.00
2011-01-16 06:00:00 16341 6 0.00 0.00 0.00 0.0 0.00	53.798256538	0.00	0.00	Partly_Cloudy(fair)	True	False	0.00
2011-01-16 07:00:00 16342 7 21.68 21.68 21.68 3.4 40.30	53.798256538	21.68	3.40	Partly_Cloudy(fair)	True	False	3.40
2011-01-16 08:00:00 16343 8 188.24 188.24 188.24 208.1 349.90	53.798256538	188.24	208.10	Partly_Cloudy(fair)	True	False	208.10
2011-01-16 09:00:00 16344 9 597.54 597.54 597.54 538.1 668.20	89.4255501572	597.54	538.10	Sunny(fair)	True	False	538.10
2011-01-16 10:00:00 16345 10 823.53 823.53 823.53 784.8 891.50	92.3752792256	823.53	784.80	Sunny(fair)	True	False	784.80
2011-01-16 11:00:00 16346 11 891.98 891.98 891.98 937.0 965.60	92.3752792256	891.98	937.00	Sunny(fair)	True	False	937.00
2011-01-16 12:00:00 16347 12 922.18 922.18 922.18 943.9 998.30	92.3752792256	922.18	943.90	Mostly_Sunny(fair)	False	False	943.90
2011-01-16 13:00:00 16348 13 798.12 798.12 798.12 850.0 864.00	92.3752792256	798.12	850.00	Mostly_Sunny(partly_cloudy)	False	False	850.00
