2011-01-19 16:00:00 22235 16 89.43 89.43 89.43 25.1 101.90	35.3281599369	89.43	25.10	Mostly_Cloudy(cloudy)	True	False	25.10
2011-01-19 17:00:00 22236 17 0.25 0.25 0.25 0.0 1.00	30.2222659323	0.25	0.00	Cloudy(cloudy)	True	False	0.00
2011-01-19 18:00:00 22237 18 0.00 0.00 0.00 0.0 0.00	35.3281599369	0.00	0.00	Mostly_Cloudy(cloudy)	True	False	0.00
2011-01-19 19:00:00 22238 19 0.00 0.00 0.00 0.0 0.00	52.0302592057	0.00	0.00	Partly_Cloudy(cloudy)	True	False	0.00
2011-01-19 20:00:00 22239 20 0.00 0.00 0.00 0.0 0.00	52.0302592057	0.00	0.00	Partly_Cloudy(cloudy)	True	False	0.00
2011-01-19 21:00:00 22240 21 0.00 0.00 0.00 0.0 0.00	52.0302592057	0.00	0.00	Partly_Cloudy(cloudy)	True	False	0.00
2011-01-19 22:00:00 22241 22 0.00 0.00 0.00 0.0 0.00	52.0302592057	0.00	0.00	Partly_Cloudy(cloudy)	True	False	0.00
2011-01-19 23:00:00 22242 23 0.00 0.00 0.00 0.0 0.00	52.0302592057	0.00	0.00	Partly_Cloudy(cloudy)	True	False	0.00
2011-01-20 00:00:00 22243 0 0.00 0.00 0.00 0.0 0.00	52.0302592057	0.00	0.00	Mostly_Clear(cloudy)	False	False	0.00
2011-01-20 01:00:00 22244 1 0.00 0.00 0.00 0.0 0.00	52.0302592057	0.00	0.00	Mostly_Clear(cloudy)	False	False	0.00
2011-01-20 02:00:00 22245 2 0.00 0.00 0.00 0.0 0.00	52.0302592057	0.00	0.00	Mostly_Clear(cloudy)	False	False	0.00
2011-01-20 03:00:00 22246 3 0.00 0.00 0.00 0.0 0.00	85.3751914242	0.00	0.00	Clear(cloudy)	True	False	0.00
2011-01-20 04:00:00 22247 4 0.00 0.00 0.00 0.0 0.00	85.3751914242	0.00	0.00	Clear(cloudy)	True	False	0.00
2011-01-20 05:00:00 22248 5 0.00 0.00 0.00 0.0 0.00	85.3751914242	0.00	0.00	Clear(cloudy)	True	False	0.00
2011-01-20 06:00:00 22249 6 0.00 0.00 0.00 0.0 0.00	85.3751914242	0.00	0.00	Mostly_Clear(cloudy)	False	False	0.00
2011-01-20 07:00:00 22250 7 46.19 46.19 46.19 26.0 54.10	85.3751914242	46.19	26.00	Mostly_Clear(mostly_cloudy)	False	False	26.00
2011-01-20 08:00:00 22251 8 334.50 334.50 334.50 132.4 391.80	85.3751914242	334.50	132.40	Mostly_Sunny(mostly_cloudy)	False	False	132.40
2011-01-20 09:00:00 22252 9 363.90 363.90 363.90 466.6 699.40	52.0302592057	363.90	466.60	Partly_Cloudy(fair)	True	False	466.60
2011-01-20 10:00:00 22253 10 629.59 629.59 629.59 594.7 898.90	70.0402144772	629.59	594.70	Partly_Cloudy(fair)	True	False	594.70
2011-01-20 11:00:00 22254 11 712.17 712.17 712.17 543.8 1016.80	70.0402144772	712.17	543.80	Partly_Cloudy(fair)	True	False	543.80
2011-01-20 12:00:00 22255 12 461.81 461.81 461.81 739.3 1027.70	44.9365027678	461.81	739.30	Mostly_Cloudy(fair)	True	False	739.30
2011-01-20 13:00:00 22256 13 414.00 414.00 414.00 606.7 921.30	44.9365027678	414.00	606.70	Mostly_Cloudy(fair)	True	False	606.70
2011-01-20 14:00:00 22257 14 341.65 341.65 341.65 304.2 760.30	44.9365027678	341.65	304.20	Mostly_Cloudy(fair)	True	False	304.20
2011-01-20 15:00:00 22258 15 137.23 137.23 137.23 201.0 447.60	30.6589504143	137.23	201.00	Cloudy(partly_cloudy)	True	False	201.00
2011-01-20 16:00:00 22259 16 30.80 30.80 30.80 35.8 101.90	30.2222659323	30.80	35.80	Cloudy(fair)	True	False	35.80
2011-01-20 17:00:00 22260 17 0.30 0.30 0.30 0.0 1.00	30.2222659323	0.30	0.00	Cloudy(fair)	True	False	0.00
2011-01-20 18:00:00 22261 18 0.00 0.00 0.00 0.0 0.00	30.2222659323	0.00	0.00	Cloudy(fair)	True	False	0.00
2011-01-20 19:00:00 22262 19 0.00 0.00 0.00 0.0 0.00	30.2222659323	0.00	0.00	Cloudy(mostly_cloudy)	True	False	0.00
2011-01-20 20:00:00 22263 20 0.00 0.00 0.00 0.0 0.00	30.2222659323	0.00	0.00	Cloudy(cloudy)	True	False	0.00
2011-01-20 21:00:00 22264 21 0.00 0.00 0.00 0.0 0.00	4.67237735009	0.00	0.00	Few_Snow_Showers(cloudy)	True	False	0.00
2011-01-20 22:00:00 22265 22 0.00 0.00 0.00 0.0 0.00	4.67237735009	0.00	0.00	Few_Snow_Showers(cloudy)	True	False	0.00
2011-01-20 23:00:00 22266 23 0.00 0.00 0.00 0.0 0.00	4.67237735009	0.00	0.00	Few_Snow_Showers(cloudy)	True	False	0.00
2011-01-21 00:00:00 22267 0 0.00 0.00 0.00 0.0 0.00	20.0578718927	0.00	0.00	Snow(mostly_cloudy)	True	False	0.00
2011-01-21 01:00:00 22268 1 0.00 0.00 0.00 0.0 0.00	20.0578718927	0.00	0.00	Snow(cloudy)	True	False	0.00
2011-01-21 02:00:00 22269 2 0.00 0.00 0.00 0.0 0.00	20.0578718927	0.00	0.00	Snow(snow)	True	False	0.00
2011-01-21 03:00:00 22270 3 0.00 0.00 0.00 0.0 0.00	20.0578718927	0.00	0.00	Snow(snow)	True	False	0.00
2011-01-21 04:00:00 22271 4 0.00 0.00 0.00 0.0 0.00	20.0578718927	0.00	0.00	Snow(light_snow)	True	False	0.00
2011-01-21 05:00:00 22272 5 0.00 0.00 0.00 0.0 0.00	20.0578718927	0.00	0.00	Snow(light_snow)	True	False	0.00
2011-01-21 06:00:00 22273 6 0.00 0.00 0.00 0.0 0.00	20.0578718927	0.00	0.00	Snow(light_snow)	True	False	0.00
2011-01-21 07:00:00 22274 7 10.85 10.85 10.85 0.0 54.10	20.0578718927	10.85	0.00	Snow(cloudy)	True	False	0.00
2011-01-21 08:00:00 22275 8 78.59 78.59 78.59 0.6 391.80	20.0578718927	78.59	0.60	Snow(fair)	True	False	0.60
2011-01-21 09:00:00 22276 9 140.28 140.28 140.28 8.3 699.40	20.0578718927	140.28	8.30	Snow_Shower(fair)	True	False	8.30
2011-01-21 10:00:00 22277 10 180.30 180.30 180.30 21.0 898.90	20.0578718927	180.30	21.00	Snow_Shower(light_snow)	True	False	21.00
2011-01-21 11:00:00 22278 11 203.95 203.95 203.95 26.5 1016.80	20.0578718927	203.95	26.50	Snow_Shower(light_snow)	True	False	26.50
2011-01-21 12:00:00 22279 12 461.81 461.81 461.81 32.6 1027.70	44.9365027678	461.81	32.60	Mostly_Cloudy(fair)	True	False	32.60
2011-01-21 13:00:00 22280 13 414.00 414.00 414.00 107.0 921.30	44.9365027678	414.00	107.00	Mostly_Cloudy(cloudy)	True	False	107.00
2011-01-21 14:00:00 22281 14 341.65 341.65 341.65 117.7 760.30	44.9365027678	341.65	117.70	Mostly_Cloudy(light_snow)	True	False	117.70
2011-01-21 15:00:00 22282 15 313.50 313.50 313.50 46.0 447.60	70.0402144772	313.50	46.00	Partly_Cloudy(cloudy)	True	False	46.00
2011-01-21 16:00:00 22283 16 53.02 53.02 53.02 11.2 101.90	52.0302592057	53.02	11.20	Partly_Cloudy(mostly_cloudy)	True	False	11.20
