2011-01-12 02:00:00 13434 2 0.00 0.00 0.00 0.0 0.00	22.7103499628	0.00	0.00	Snow(light_snow)	True	False	0.00
2011-01-12 03:00:00 13435 3 0.00 0.00 0.00 0.0 0.00	22.7103499628	0.00	0.00	Snow(snow)	True	False	0.00
2011-01-12 04:00:00 13436 4 0.00 0.00 0.00 0.0 0.00	33.5051546392	0.00	0.00	Cloudy(light_snow)	True	False	0.00
2011-01-12 05:00:00 13437 5 0.00 0.00 0.00 0.0 0.00	33.5051546392	0.00	0.00	Cloudy(mostly_cloudy)	True	False	0.00
2011-01-12 06:00:00 13438 6 0.00 0.00 0.00 0.0 0.00	33.5051546392	0.00	0.00	Cloudy(cloudy)	True	False	0.00
2011-01-12 07:00:00 13439 7 13.00 13.00 13.00 0.0 38.80	33.5051546392	13.00	0.00	Cloudy(fair)	True	False	0.00
2011-01-12 08:00:00 13440 8 117.23 117.23 117.23 0.0 349.90	33.5051546392	117.23	0.00	Cloudy(fair)	True	False	0.00
2011-01-12 09:00:00 13441 9 151.75 151.75 151.75 0.5 668.20	22.7103499628	151.75	0.50	Snow_Shower(fair)	True	False	0.50
2011-01-12 10:00:00 13442 10 202.46 202.46 202.46 5.3 891.50	22.7103499628	202.46	5.30	Snow_Shower(haze)	True	False	5.30
2011-01-12 11:00:00 13443 11 219.29 219.29 219.29 8.0 965.60	22.7103499628	219.29	8.00	Snow_Shower(light_snow)	True	False	8.00
2011-01-12 12:00:00 13444 12 286.55 286.55 286.55 15.7 998.30	28.7037037037	286.55	15.70	Few_Snow_Showers(cloudy)	True	False	15.70
2011-01-12 13:00:00 13445 13 248.00 248.00 248.00 14.9 864.00	28.7037037037	248.00	14.90	Few_Snow_Showers(light_snow)	True	False	14.90
2011-01-12 14:00:00 13446 14 192.75 192.75 192.75 11.4 671.50	28.7037037037	192.75	11.40	Few_Snow_Showers(light_snow)	True	False	11.40
2011-01-12 15:00:00 13447 15 101.64 101.64 101.64 11.8 354.10	28.7037037037	101.64	11.80	Few_Snow_Showers(light_snow)	True	False	11.80
2011-01-12 16:00:00 13448 16 19.03 19.03 19.03 0.0 66.30	28.7037037037	19.03	0.00	Few_Snow_Showers(cloudy)	True	False	0.00
2011-01-12 17:00:00 13449 17 0.09 0.09 0.09 0.0 0.30	28.7037037037	0.09	0.00	Few_Snow_Showers(light_snow)	True	False	0.00
2011-01-12 18:00:00 13450 18 0.00 0.00 0.00 0.0 0.00	28.7037037037	0.00	0.00	Few_Snow_Showers(cloudy)	True	False	0.00
2011-01-12 19:00:00 13451 19 0.00 0.00 0.00 0.0 0.00	28.7037037037	0.00	0.00	Few_Snow_Showers(cloudy)	True	False	0.00
2011-01-12 20:00:00 13452 20 0.00 0.00 0.00 0.0 0.00	28.7037037037	0.00	0.00	Few_Snow_Showers(cloudy)	True	False	0.00
2011-01-12 21:00:00 13453 21 0.00 0.00 0.00 0.0 0.00	28.7037037037	0.00	0.00	Few_Snow_Showers(mostly_cloudy)	True	False	0.00
2011-01-12 22:00:00 13454 22 0.00 0.00 0.00 0.0 0.00	28.7037037037	0.00	0.00	Few_Snow_Showers(mostly_cloudy)	True	False	0.00
2011-01-12 23:00:00 13455 23 0.00 0.00 0.00 0.0 0.00	28.7037037037	0.00	0.00	Few_Snow_Showers(mostly_cloudy)	True	False	0.00
2011-01-13 00:00:00 13456 0 0.00 0.00 0.00 0.0 0.00	33.5051546392	0.00	0.00	Cloudy(fair)	True	False	0.00
2011-01-13 01:00:00 13457 1 0.00 0.00 0.00 0.0 0.00	33.5051546392	0.00	0.00	Cloudy(fair)	True	False	0.00
2011-01-13 02:00:00 13458 2 0.00 0.00 0.00 0.0 0.00	33.5051546392	0.00	0.00	Cloudy(fair)	True	False	0.00
2011-01-13 03:00:00 13459 3 0.00 0.00 0.00 0.0 0.00	48.2137753644	0.00	0.00	Mostly_Cloudy(fair)	True	False	0.00
2011-01-13 04:00:00 13460 4 0.00 0.00 0.00 0.0 0.00	48.2137753644	0.00	0.00	Mostly_Cloudy(fair)	True	False	0.00
2011-01-13 05:00:00 13461 5 0.00 0.00 0.00 0.0 0.00	48.2137753644	0.00	0.00	Mostly_Cloudy(fair)	True	False	0.00
2011-01-13 06:00:00 13462 6 0.00 0.00 0.00 0.0 0.00	52.7897425624	0.00	0.00	Partly_Cloudy(fair)	True	False	0.00
2011-01-13 07:00:00 13463 7 20.48 20.48 20.48 0.2 38.80	52.7897425624	20.48	0.20	Partly_Cloudy(fair)	True	False	0.20
2011-01-13 08:00:00 13464 8 184.71 184.71 184.71 15.9 349.90	52.7897425624	184.71	15.90	Partly_Cloudy(fair)	True	False	15.90
2011-01-13 09:00:00 13465 9 352.74 352.74 352.74 40.8 668.20	52.7897425624	352.74	40.80	Mostly_Sunny(fair)	False	False	40.80
2011-01-13 10:00:00 13466 10 470.62 470.62 470.62 68.0 891.50	52.7897425624	470.62	68.00	Mostly_Sunny(fair)	False	False	68.00
2011-01-13 11:00:00 13467 11 509.74 509.74 509.74 116.4 965.60	52.7897425624	509.74	116.40	Mostly_Sunny(fair)	False	False	116.40
2011-01-13 12:00:00 13468 12 527.00 527.00 527.00 173.0 998.30	52.7897425624	527.00	173.00	Mostly_Sunny(fair)	False	False	173.00
2011-01-13 13:00:00 13469 13 456.10 456.10 456.10 203.9 864.00	52.7897425624	456.10	203.90	Mostly_Sunny(fair)	False	False	203.90
2011-01-13 14:00:00 13470 14 354.48 354.48 354.48 181.3 671.50	52.7897425624	354.48	181.30	Mostly_Sunny(Unkown)	False	False	181.30
2011-01-13 15:00:00 13471 15 186.93 186.93 186.93 95.1 354.10	52.7897425624	186.93	95.10	Mostly_Sunny(fair)	False	False	95.10
2011-01-13 16:00:00 13472 16 35.00 35.00 35.00 6.8 66.30	52.7897425624	35.00	6.80	Mostly_Sunny(fair)	False	False	6.80
2011-01-13 17:00:00 13473 17 0.16 0.16 0.16 0.0 0.30	52.7897425624	0.16	0.00	Mostly_Clear(fair)	False	False	0.00
2011-01-13 18:00:00 13474 18 0.00 0.00 0.00 0.0 0.00	52.7897425624	0.00	0.00	Mostly_Clear(fair)	False	False	0.00
2011-01-13 19:00:00 13475 19 0.00 0.00 0.00 0.0 0.00	52.7897425624	0.00	0.00	Mostly_Clear(fair)	False	False	0.00
2011-01-13 20:00:00 13476 20 0.00 0.00 0.00 0.0 0.00	52.7897425624	0.00	0.00	Mostly_Clear(fair)	False	False	0.00
2011-01-13 21:00:00 13477 21 0.00 0.00 0.00 0.0 0.00	89.0245718541	0.00	0.00	Clear(fair)	True	False	0.00
2011-01-13 22:00:00 13478 22 0.00 0.00 0.00 0.0 0.00	89.0245718541	0.00	0.00	Clear(fair)	True	False	0.00
2011-01-13 23:00:00 13479 23 0.00 0.00 0.00 0.0 0.00	89.0245718541	0.00	0.00	Clear(fair)	True	False	0.00
2011-01-14 00:00:00 13480 0 0.00 0.00 0.00 0.0 0.00	89.0245718541	0.00	0.00	Clear(fair)	True	False	0.00
2011-01-14 01:00:00 13481 1 0.00 0.00 0.00 0.0 0.00	89.0245718541	0.00	0.00	Clear(fair)	True	False	0.00
