2011-01-19 14:00:00 22138 14 233.10 667.28 667.28 314.4 760.30	30.6589504143	667.28	314.40	Cloudy(mostly_cloudy)	True	False	314.40
2011-01-19 15:00:00 22139 15 201.14 185.09 185.09 71.3 447.60	44.9365027678	185.09	71.30	Mostly_Cloudy(cloudy)	True	False	71.30
2011-01-19 16:00:00 22140 16 36.00 42.14 42.14 25.1 101.90	35.3281599369	42.14	25.10	Mostly_Cloudy(cloudy)	True	False	25.10
2011-01-19 17:00:00 22141 17 0.35 0.41 0.41 0.0 1.00	35.3281599369	0.41	0.00	Mostly_Cloudy(cloudy)	True	False	0.00
2011-01-19 18:00:00 22142 18 0.00 0.00 0.00 0.0 0.00	52.0302592057	0.00	0.00	Partly_Cloudy(cloudy)	True	False	0.00
2011-01-19 19:00:00 22143 19 0.00 0.00 0.00 0.0 0.00	52.0302592057	0.00	0.00	Partly_Cloudy(cloudy)	True	False	0.00
2011-01-19 20:00:00 22144 20 0.00 0.00 0.00 0.0 0.00	52.0302592057	0.00	0.00	Partly_Cloudy(cloudy)	True	False	0.00
2011-01-19 21:00:00 22145 21 0.00 0.00 0.00 0.0 0.00	52.0302592057	0.00	0.00	Partly_Cloudy(cloudy)	True	False	0.00
2011-01-19 22:00:00 22146 22 0.00 0.00 0.00 0.0 0.00	52.0302592057	0.00	0.00	Partly_Cloudy(cloudy)	True	False	0.00
2011-01-19 23:00:00 22147 23 0.00 0.00 0.00 0.0 0.00	52.0302592057	0.00	0.00	Partly_Cloudy(cloudy)	True	False	0.00
2011-01-20 00:00:00 22148 0 0.00 0.00 0.00 0.0 0.00	52.0302592057	0.00	0.00	Mostly_Clear(cloudy)	False	False	0.00
2011-01-20 01:00:00 22149 1 0.00 0.00 0.00 0.0 0.00	52.0302592057	0.00	0.00	Mostly_Clear(cloudy)	False	False	0.00
2011-01-20 02:00:00 22150 2 0.00 0.00 0.00 0.0 0.00	52.0302592057	0.00	0.00	Mostly_Clear(cloudy)	False	False	0.00
2011-01-20 03:00:00 22151 3 0.00 0.00 0.00 0.0 0.00	85.3751914242	0.00	0.00	Clear(cloudy)	True	False	0.00
2011-01-20 04:00:00 22152 4 0.00 0.00 0.00 0.0 0.00	85.3751914242	0.00	0.00	Clear(cloudy)	True	False	0.00
2011-01-20 05:00:00 22153 5 0.00 0.00 0.00 0.0 0.00	85.3751914242	0.00	0.00	Clear(cloudy)	True	False	0.00
2011-01-20 06:00:00 22154 6 0.00 0.00 0.00 0.0 0.00	85.3751914242	0.00	0.00	Mostly_Clear(cloudy)	False	False	0.00
2011-01-20 07:00:00 22155 7 46.19 46.19 46.19 26.0 54.10	85.3751914242	46.19	26.00	Mostly_Clear(mostly_cloudy)	False	False	26.00
2011-01-20 08:00:00 22156 8 334.50 334.50 334.50 132.4 391.80	85.3751914242	334.50	132.40	Mostly_Sunny(mostly_cloudy)	False	False	132.40
2011-01-20 09:00:00 22157 9 363.90 363.90 363.90 466.6 699.40	52.0302592057	363.90	466.60	Partly_Cloudy(fair)	True	False	466.60
2011-01-20 10:00:00 22158 10 629.59 629.59 629.59 594.7 898.90	70.0402144772	629.59	594.70	Partly_Cloudy(fair)	True	False	594.70
2011-01-20 11:00:00 22159 11 712.17 712.17 712.17 543.8 1016.80	70.0402144772	712.17	543.80	Partly_Cloudy(fair)	True	False	543.80
2011-01-20 12:00:00 22160 12 461.81 461.81 461.81 739.3 1027.70	44.9365027678	461.81	739.30	Mostly_Cloudy(fair)	True	False	739.30
2011-01-20 13:00:00 22161 13 414.00 414.00 414.00 606.7 921.30	44.9365027678	414.00	606.70	Mostly_Cloudy(fair)	True	False	606.70
2011-01-20 14:00:00 22162 14 341.65 341.65 341.65 304.2 760.30	44.9365027678	341.65	304.20	Mostly_Cloudy(fair)	True	False	304.20
2011-01-20 15:00:00 22163 15 137.23 137.23 137.23 201.0 447.60	30.6589504143	137.23	201.00	Cloudy(partly_cloudy)	True	False	201.00
2011-01-20 16:00:00 22164 16 30.80 30.80 30.80 35.8 101.90	30.2222659323	30.80	35.80	Cloudy(fair)	True	False	35.80
2011-01-20 17:00:00 22165 17 0.30 0.30 0.30 0.0 1.00	30.2222659323	0.30	0.00	Cloudy(fair)	True	False	0.00
2011-01-20 18:00:00 22166 18 0.00 0.00 0.00 0.0 0.00	30.2222659323	0.00	0.00	Cloudy(fair)	True	False	0.00
2011-01-20 19:00:00 22167 19 0.00 0.00 0.00 0.0 0.00	30.2222659323	0.00	0.00	Cloudy(mostly_cloudy)	True	False	0.00
2011-01-20 20:00:00 22168 20 0.00 0.00 0.00 0.0 0.00	30.2222659323	0.00	0.00	Cloudy(cloudy)	True	False	0.00
2011-01-20 21:00:00 22169 21 0.00 0.00 0.00 0.0 0.00	4.67237735009	0.00	0.00	Few_Snow_Showers(cloudy)	True	False	0.00
2011-01-20 22:00:00 22170 22 0.00 0.00 0.00 0.0 0.00	4.67237735009	0.00	0.00	Few_Snow_Showers(cloudy)	True	False	0.00
2011-01-20 23:00:00 22171 23 0.00 0.00 0.00 0.0 0.00	4.67237735009	0.00	0.00	Few_Snow_Showers(cloudy)	True	False	0.00
2011-01-21 00:00:00 22172 0 0.00 0.00 0.00 0.0 0.00	4.67237735009	0.00	0.00	Light_Snow(mostly_cloudy)	True	False	0.00
2011-01-21 01:00:00 22173 1 0.00 0.00 0.00 0.0 0.00	4.67237735009	0.00	0.00	Light_Snow(cloudy)	True	False	0.00
2011-01-21 02:00:00 22174 2 0.00 0.00 0.00 0.0 0.00	4.67237735009	0.00	0.00	Light_Snow(snow)	True	False	0.00
2011-01-21 03:00:00 22175 3 0.00 0.00 0.00 0.0 0.00	20.0578718927	0.00	0.00	Snow(snow)	True	False	0.00
2011-01-21 04:00:00 22176 4 0.00 0.00 0.00 0.0 0.00	20.0578718927	0.00	0.00	Snow(light_snow)	True	False	0.00
2011-01-21 05:00:00 22177 5 0.00 0.00 0.00 0.0 0.00	20.0578718927	0.00	0.00	Snow(light_snow)	True	False	0.00
2011-01-21 06:00:00 22178 6 0.00 0.00 0.00 0.0 0.00	20.0578718927	0.00	0.00	Snow(light_snow)	True	False	0.00
2011-01-21 07:00:00 22179 7 10.85 10.85 10.85 0.0 54.10	20.0578718927	10.85	0.00	Snow(cloudy)	True	False	0.00
2011-01-21 08:00:00 22180 8 78.59 78.59 78.59 0.6 391.80	20.0578718927	78.59	0.60	Snow(fair)	True	False	0.60
2011-01-21 09:00:00 22181 9 140.28 140.28 140.28 8.3 699.40	20.0578718927	140.28	8.30	Snow(fair)	True	False	8.30
2011-01-21 10:00:00 22182 10 180.30 180.30 180.30 21.0 898.90	20.0578718927	180.30	21.00	Snow(light_snow)	True	False	21.00
2011-01-21 11:00:00 22183 11 203.95 203.95 203.95 26.5 1016.80	20.0578718927	203.95	26.50	Snow(light_snow)	True	False	26.50
2011-01-21 12:00:00 22184 12 461.81 461.81 461.81 32.6 1027.70	44.9365027678	461.81	32.60	Mostly_Cloudy(fair)	True	False	32.60
2011-01-21 13:00:00 22185 13 414.00 414.00 414.00 107.0 921.30	44.9365027678	414.00	107.00	Mostly_Cloudy(cloudy)	True	False	107.00
