2011-01-23 07:00:00 26451 7 56.78 56.78 56.78 10.3 69.00	82.2857142857	56.78	10.30	Clear(fair)	True	False	10.30
2011-01-23 08:00:00 26452 8 349.96 349.96 349.96 97.7 425.30	82.2857142857	349.96	97.70	Sunny(fair)	True	False	97.70
2011-01-23 09:00:00 26453 9 617.64 617.64 617.64 191.7 750.60	82.2857142857	617.64	191.70	Sunny(fair)	True	False	191.70
2011-01-23 10:00:00 26454 10 835.60 835.60 835.60 264.2 957.70	87.2501998401	835.60	264.20	Sunny(fair)	True	False	264.20
2011-01-23 11:00:00 26455 11 916.13 916.13 916.13 319.4 1050.00	87.2501998401	916.13	319.40	Mostly_Sunny(fair)	False	False	319.40
2011-01-23 12:00:00 26456 12 610.60 610.60 610.60 356.8 1055.60	57.8438802577	610.60	356.80	Partly_Cloudy(fair)	True	False	356.80
2011-01-23 13:00:00 26457 13 545.70 545.70 545.70 340.4 943.40	57.8438802577	545.70	340.40	Partly_Cloudy(fair)	True	False	340.40
2011-01-23 14:00:00 26458 14 442.91 442.91 442.91 289.7 765.70	57.8438802577	442.91	289.70	Partly_Cloudy(fair)	True	False	289.70
2011-01-23 15:00:00 26459 15 275.63 275.63 275.63 140.1 476.50	57.8438802577	275.63	140.10	Partly_Cloudy(fair)	True	False	140.10
2011-01-23 16:00:00 26460 16 57.40 57.40 57.40 20.4 123.20	46.5897166842	57.40	20.40	Partly_Cloudy(fair)	True	False	20.40
2011-01-23 17:00:00 26461 17 0.65 0.65 0.65 0.0 1.40	46.5897166842	0.65	0.00	Partly_Cloudy(fair)	True	False	0.00
2011-01-23 18:00:00 26462 18 0.00 0.00 0.00 0.0 0.00	46.5897166842	0.00	0.00	Partly_Cloudy(fair)	True	False	0.00
2011-01-23 19:00:00 26463 19 0.00 0.00 0.00 0.0 0.00	46.5897166842	0.00	0.00	Partly_Cloudy(fair)	True	False	0.00
2011-01-23 20:00:00 26464 20 0.00 0.00 0.00 0.0 0.00	46.5897166842	0.00	0.00	Partly_Cloudy(fair)	True	False	0.00
2011-01-23 21:00:00 26465 21 0.00 0.00 0.00 0.0 0.00	46.5897166842	0.00	0.00	Mostly_Clear(fair)	False	False	0.00
2011-01-23 22:00:00 26466 22 0.00 0.00 0.00 0.0 0.00	46.5897166842	0.00	0.00	Mostly_Clear(fair)	False	False	0.00
2011-01-23 23:00:00 26467 23 0.00 0.00 0.00 0.0 0.00	46.5897166842	0.00	0.00	Mostly_Clear(fair)	False	False	0.00
2011-01-24 00:00:00 26468 0 0.00 0.00 0.00 0.0 0.00	82.2857142857	0.00	0.00	Clear(fair)	True	False	0.00
2011-01-24 01:00:00 26469 1 0.00 0.00 0.00 0.0 0.00	82.2857142857	0.00	0.00	Clear(fair)	True	False	0.00
2011-01-24 02:00:00 26470 2 0.00 0.00 0.00 0.0 0.00	82.2857142857	0.00	0.00	Clear(fair)	True	False	0.00
2011-01-24 03:00:00 26471 3 0.00 0.00 0.00 0.0 0.00	82.2857142857	0.00	0.00	Clear(fair)	True	False	0.00
2011-01-24 04:00:00 26472 4 0.00 0.00 0.00 0.0 0.00	82.2857142857	0.00	0.00	Clear(fair)	True	False	0.00
2011-01-24 05:00:00 26473 5 0.00 0.00 0.00 0.0 0.00	82.2857142857	0.00	0.00	Clear(fair)	True	False	0.00
2011-01-24 06:00:00 26474 6 0.00 0.00 0.00 0.0 0.00	82.2857142857	0.00	0.00	Clear(fair)	True	False	0.00
2011-01-24 07:00:00 26475 7 56.78 56.78 56.78 19.0 69.00	82.2857142857	56.78	19.00	Clear(fair)	True	False	19.00
2011-01-24 08:00:00 26476 8 349.96 349.96 349.96 155.2 425.30	82.2857142857	349.96	155.20	Sunny(fair)	True	False	155.20
2011-01-24 09:00:00 26477 9 617.64 617.64 617.64 291.0 750.60	82.2857142857	617.64	291.00	Sunny(fair)	True	False	291.00
2011-01-24 10:00:00 26478 10 835.60 835.60 835.60 385.0 957.70	87.2501998401	835.60	385.00	Sunny(fair)	True	False	385.00
2011-01-24 11:00:00 26479 11 916.13 916.13 916.13 446.3 1050.00	87.2501998401	916.13	446.30	Sunny(fair)	True	False	446.30
2011-01-24 12:00:00 26480 12 921.01 921.01 921.01 485.1 1055.60	87.2501998401	921.01	485.10	Mostly_Sunny(fair)	False	False	485.10
2011-01-24 13:00:00 26481 13 823.12 823.12 823.12 460.8 943.40	87.2501998401	823.12	460.80	Mostly_Sunny(fair)	False	False	460.80
2011-01-24 14:00:00 26482 14 668.07 668.07 668.07 379.3 765.70	87.2501998401	668.07	379.30	Mostly_Sunny(fair)	False	False	379.30
2011-01-24 15:00:00 26483 15 275.63 275.63 275.63 215.2 476.50	57.8438802577	275.63	215.20	Partly_Cloudy(fair)	True	False	215.20
2011-01-24 16:00:00 26484 16 57.40 57.40 57.40 30.1 123.20	46.5897166842	57.40	30.10	Partly_Cloudy(mostly_cloudy)	True	False	30.10
2011-01-24 17:00:00 26485 17 0.65 0.65 0.65 0.0 1.40	46.5897166842	0.65	0.00	Partly_Cloudy(fair)	True	False	0.00
2011-01-24 18:00:00 26486 18 0.00 0.00 0.00 0.0 0.00	46.5897166842	0.00	0.00	Partly_Cloudy(cloudy)	True	False	0.00
2011-01-24 19:00:00 26487 19 0.00 0.00 0.00 0.0 0.00	46.5897166842	0.00	0.00	Partly_Cloudy(cloudy)	True	False	0.00
2011-01-24 20:00:00 26488 20 0.00 0.00 0.00 0.0 0.00	46.5897166842	0.00	0.00	Partly_Cloudy(cloudy)	True	False	0.00
2011-01-24 21:00:00 26489 21 0.00 0.00 0.00 0.0 0.00	28.547561867	0.00	0.00	Mostly_Cloudy(cloudy)	True	False	0.00
2011-01-24 22:00:00 26490 22 0.00 0.00 0.00 0.0 0.00	28.547561867	0.00	0.00	Mostly_Cloudy(mostly_cloudy)	True	False	0.00
2011-01-24 23:00:00 26491 23 0.00 0.00 0.00 0.0 0.00	28.547561867	0.00	0.00	Mostly_Cloudy(cloudy)	True	False	0.00
2011-01-25 00:00:00 26492 0 0.00 0.00 0.00 0.0 0.00	28.547561867	0.00	0.00	Mostly_Cloudy(cloudy)	True	False	0.00
2011-01-25 01:00:00 26493 1 0.00 0.00 0.00 0.0 0.00	28.547561867	0.00	0.00	Mostly_Cloudy(cloudy)	True	False	0.00
2011-01-25 02:00:00 26494 2 0.00 0.00 0.00 0.0 0.00	28.547561867	0.00	0.00	Mostly_Cloudy(cloudy)	True	False	0.00
2011-01-25 03:00:00 26495 3 0.00 0.00 0.00 0.0 0.00	28.547561867	0.00	0.00	Flurries(cloudy)	False	False	0.00
2011-01-25 04:00:00 26496 4 0.00 0.00 0.00 0.0 0.00	28.547561867	0.00	0.00	Flurries(cloudy)	False	False	0.00
2011-01-25 05:00:00 26497 5 0.00 0.00 0.00 0.0 0.00	28.547561867	0.00	0.00	Flurries(cloudy)	False	False	0.00
2011-01-25 06:00:00 26498 6 0.00 0.00 0.00 0.0 0.00	28.547561867	0.00	0.00	Flurries(cloudy)	False	False	0.00
2011-01-25 07:00:00 26499 7 19.70 19.70 19.70 0.0 69.00	28.547561867	19.70	0.00	Flurries(light_snow)	False	False	0.00
