2011-01-18 01:00:00 20356 1 0.00 0.00 0.00 0.0 0.00	20.0578718927	0.00	0.00	Snow(light_snow)	True	False	0.00
2011-01-18 02:00:00 20357 2 0.00 0.00 0.00 0.0 0.00	20.0578718927	0.00	0.00	Heavy_Snow(light_snow)	False	False	0.00
2011-01-18 03:00:00 20358 3 0.00 0.00 0.00 0.0 0.00	9.32286555447	0.00	0.00	Light_Freezing_Rain/Sleet(snow)	True	False	0.00
2011-01-18 04:00:00 20359 4 0.00 0.00 0.00 0.0 0.00	9.32286555447	0.00	0.00	Light_Freezing_Rain/Sleet(light_freezing_rain)	True	False	0.00
2011-01-18 05:00:00 20360 5 0.00 0.00 0.00 0.0 0.00	9.32286555447	0.00	0.00	Light_Freezing_Rain(light_freezing_rain)	True	False	0.00
2011-01-18 06:00:00 20361 6 0.00 0.00 0.00 0.0 0.00	9.32286555447	0.00	0.00	Light_Freezing_Rain(light_freezing_rain)	True	False	0.00
2011-01-18 07:00:00 20362 7 2.15 2.15 2.15 0.0 54.10	3.97676496872	2.15	0.00	Wintry_Mix(light_freezing_rain)	True	False	0.00
2011-01-18 08:00:00 20363 8 15.58 15.58 15.58 0.0 391.80	3.97676496872	15.58	0.00	Wintry_Mix(light_freezing_rain)	True	False	0.00
2011-01-18 09:00:00 20364 9 65.20 65.20 65.20 4.5 699.40	9.32286555447	65.20	4.50	Rain_/_Freezing_Rain(light_freezing_rain)	True	False	4.50
2011-01-18 10:00:00 20365 10 31.80 31.80 31.80 16.6 898.90	3.53807707484	31.80	16.60	Rain_/_Freezing_Rain(light_freezing_rain)	True	False	16.60
2011-01-18 11:00:00 20366 11 35.98 35.98 35.98 26.2 1016.80	3.53807707484	35.98	26.20	Rain_/_Freezing_Rain(light_rain)	True	False	26.20
2011-01-18 12:00:00 20367 12 36.36 36.36 36.36 49.4 1027.70	3.53807707484	36.36	49.40	Rain_/_Freezing_Rain_/_Wind(light_rain)	True	False	49.40
2011-01-18 13:00:00 20368 13 32.60 32.60 32.60 73.3 921.30	3.53807707484	32.60	73.30	Rain_/_Freezing_Rain_/_Wind(cloudy)	True	False	73.30
2011-01-18 14:00:00 20369 14 26.90 26.90 26.90 76.2 760.30	3.53807707484	26.90	76.20	Rain_/_Freezing_Rain_/_Wind(light_rain)	True	False	76.20
2011-01-18 15:00:00 20370 15 15.84 15.84 15.84 42.7 447.60	3.53807707484	15.84	42.70	Freezing_Drizzle(light_rain)	True	False	42.70
2011-01-18 16:00:00 20371 16 9.50 9.50 9.50 9.2 101.90	9.32286555447	9.50	9.20	Freezing_Drizzle(cloudy)	True	False	9.20
2011-01-18 17:00:00 20372 17 0.09 0.09 0.09 0.0 1.00	9.32286555447	0.09	0.00	Freezing_Drizzle(cloudy)	True	False	0.00
2011-01-18 18:00:00 20373 18 0.00 0.00 0.00 0.0 0.00	30.6589504143	0.00	0.00	Cloudy(cloudy)	True	False	0.00
2011-01-18 19:00:00 20374 19 0.00 0.00 0.00 0.0 0.00	30.6589504143	0.00	0.00	Cloudy(cloudy)	True	False	0.00
2011-01-18 20:00:00 20375 20 0.00 0.00 0.00 0.0 0.00	30.6589504143	0.00	0.00	Cloudy(cloudy)	True	False	0.00
2011-01-18 21:00:00 20376 21 0.00 0.00 0.00 0.0 0.00	30.6589504143	0.00	0.00	Cloudy(cloudy)	True	False	0.00
2011-01-18 22:00:00 20377 22 0.00 0.00 0.00 0.0 0.00	30.6589504143	0.00	0.00	Cloudy(cloudy)	True	False	0.00
2011-01-18 23:00:00 20378 23 0.00 0.00 0.00 0.0 0.00	30.6589504143	0.00	0.00	Cloudy(cloudy)	True	False	0.00
2011-01-19 00:00:00 20379 0 0.00 0.00 0.00 0.0 0.00	9.32286555447	0.00	0.00	Freezing_Drizzle(mostly_cloudy)	True	False	0.00
2011-01-19 01:00:00 20380 1 0.00 0.00 0.00 0.0 0.00	9.32286555447	0.00	0.00	Freezing_Drizzle(fair)	True	False	0.00
2011-01-19 02:00:00 20381 2 0.00 0.00 0.00 0.0 0.00	9.32286555447	0.00	0.00	Freezing_Drizzle(partly_cloudy)	True	False	0.00
2011-01-19 03:00:00 20382 3 0.00 0.00 0.00 0.0 0.00	9.32286555447	0.00	0.00	Light_Rain_/_Freezing_Rain(mostly_cloudy)	True	False	0.00
2011-01-19 04:00:00 20383 4 0.00 0.00 0.00 0.0 0.00	9.32286555447	0.00	0.00	Light_Rain_/_Freezing_Rain(light_rain)	True	False	0.00
2011-01-19 05:00:00 20384 5 0.00 0.00 0.00 0.0 0.00	9.32286555447	0.00	0.00	Light_Rain_/_Freezing_Rain(light_rain)	True	False	0.00
2011-01-19 06:00:00 20385 6 0.00 0.00 0.00 0.0 0.00	9.32286555447	0.00	0.00	Light_Rain_/_Freezing_Rain(fog)	True	False	0.00
2011-01-19 07:00:00 20386 7 5.04 5.04 5.04 0.5 54.10	9.32286555447	5.04	0.50	Light_Rain_/_Freezing_Rain(cloudy)	True	False	0.50
2011-01-19 08:00:00 20387 8 36.53 36.53 36.53 28.1 391.80	9.32286555447	36.53	28.10	Light_Rain_/_Freezing_Rain(fog)	True	False	28.10
2011-01-19 09:00:00 20388 9 27.81 27.81 27.81 122.9 699.40	3.97676496872	27.81	122.90	Showers(cloudy)	True	False	122.90
2011-01-19 10:00:00 20389 10 35.75 35.75 35.75 384.8 898.90	3.97676496872	35.75	384.80	Showers(cloudy)	True	False	384.80
2011-01-19 11:00:00 20390 11 40.44 40.44 40.44 830.0 1016.80	3.97676496872	40.44	830.00	Showers(cloudy)	True	False	830.00
2011-01-19 12:00:00 20391 12 36.36 36.36 36.36 454.8 1027.70	3.53807707484	36.36	454.80	Few_Showers(fair)	True	False	454.80
2011-01-19 13:00:00 20392 13 32.60 32.60 32.60 278.6 921.30	3.53807707484	32.60	278.60	Few_Showers(cloudy)	True	False	278.60
2011-01-19 14:00:00 20393 14 26.90 26.90 26.90 314.4 760.30	3.53807707484	26.90	314.40	Few_Showers(mostly_cloudy)	True	False	314.40
2011-01-19 15:00:00 20394 15 201.14 201.14 201.14 71.3 447.60	44.9365027678	201.14	71.30	Mostly_Cloudy(cloudy)	True	False	71.30
2011-01-19 16:00:00 20395 16 30.30 30.30 30.30 25.1 101.90	29.7345584482	30.30	25.10	Mostly_Cloudy(cloudy)	True	False	25.10
2011-01-19 17:00:00 20396 17 0.30 0.30 0.30 0.0 1.00	29.7345584482	0.30	0.00	Mostly_Cloudy(cloudy)	True	False	0.00
2011-01-19 18:00:00 20397 18 0.00 0.00 0.00 0.0 0.00	54.4944925256	0.00	0.00	Partly_Cloudy(cloudy)	True	False	0.00
2011-01-19 19:00:00 20398 19 0.00 0.00 0.00 0.0 0.00	54.4944925256	0.00	0.00	Partly_Cloudy(cloudy)	True	False	0.00
2011-01-19 20:00:00 20399 20 0.00 0.00 0.00 0.0 0.00	54.4944925256	0.00	0.00	Partly_Cloudy(cloudy)	True	False	0.00
2011-01-19 21:00:00 20400 21 0.00 0.00 0.00 0.0 0.00	85.3751914242	0.00	0.00	Clear(cloudy)	True	False	0.00
2011-01-19 22:00:00 20401 22 0.00 0.00 0.00 0.0 0.00	85.3751914242	0.00	0.00	Clear(cloudy)	True	False	0.00
2011-01-19 23:00:00 20402 23 0.00 0.00 0.00 0.0 0.00	85.3751914242	0.00	0.00	Clear(cloudy)	True	False	0.00
2011-01-20 00:00:00 20403 0 0.00 0.00 0.00 0.0 0.00	85.3751914242	0.00	0.00	Clear(cloudy)	True	False	0.00
2011-01-20 01:00:00 20404 1 0.00 0.00 0.00 0.0 0.00	85.3751914242	0.00	0.00	Clear(cloudy)	True	False	0.00
