2011-01-21 15:00:00 24514 15 412.31 412.31 282.15 46.0 476.50	59.2137913021	282.15	46.00	Partly_Cloudy/Wind(cloudy)	True	False	46.00
2011-01-21 16:00:00 24515 16 11.89 11.89 43.22 11.2 123.20	35.0790126681	43.22	11.20	Mostly_Cloudy/Wind(mostly_cloudy)	True	False	11.20
2011-01-21 17:00:00 24516 17 0.68 0.14 0.68 0.0 1.40	48.6476190476	0.68	0.00	Partly_Cloudy(mostly_cloudy)	True	False	0.00
2011-01-21 18:00:00 24517 18 0.00 0.00 0.00 0.0 0.00	48.6476190476	0.00	0.00	Mostly_Clear(mostly_cloudy)	False	False	0.00
2011-01-21 19:00:00 24518 19 0.00 0.00 0.00 0.0 0.00	82.2857142857	0.00	0.00	Clear(fair)	True	False	0.00
2011-01-21 20:00:00 24519 20 0.00 0.00 0.00 0.0 0.00	82.2857142857	0.00	0.00	Clear(fair)	True	False	0.00
2011-01-21 21:00:00 24520 21 0.00 0.00 0.00 0.0 0.00	82.2857142857	0.00	0.00	Clear(fair)	True	False	0.00
2011-01-21 22:00:00 24521 22 0.00 0.00 0.00 0.0 0.00	82.2857142857	0.00	0.00	Clear(fair)	True	False	0.00
2011-01-21 23:00:00 24522 23 0.00 0.00 0.00 0.0 0.00	82.2857142857	0.00	0.00	Clear(fair)	True	False	0.00
2011-01-22 00:00:00 24523 0 0.00 0.00 0.00 0.0 0.00	82.2857142857	0.00	0.00	Clear(fair)	True	False	0.00
2011-01-22 01:00:00 24524 1 0.00 0.00 0.00 0.0 0.00	82.2857142857	0.00	0.00	Clear(fair)	True	False	0.00
2011-01-22 02:00:00 24525 2 0.00 0.00 0.00 0.0 0.00	82.2857142857	0.00	0.00	Clear(fair)	True	False	0.00
2011-01-22 03:00:00 24526 3 0.00 0.00 0.00 0.0 0.00	82.2857142857	0.00	0.00	Clear(fair)	True	False	0.00
2011-01-22 04:00:00 24527 4 0.00 0.00 0.00 0.0 0.00	82.2857142857	0.00	0.00	Clear(fair)	True	False	0.00
2011-01-22 05:00:00 24528 5 0.00 0.00 0.00 0.0 0.00	82.2857142857	0.00	0.00	Clear(fair)	True	False	0.00
2011-01-22 06:00:00 24529 6 0.00 0.00 0.00 0.0 0.00	82.2857142857	0.00	0.00	Clear(fair)	True	False	0.00
2011-01-22 07:00:00 24530 7 56.78 56.78 56.78 7.1 69.00	82.2857142857	56.78	7.10	Clear(fair)	True	False	7.10
2011-01-22 08:00:00 24531 8 349.96 349.96 349.96 60.9 425.30	82.2857142857	349.96	60.90	Sunny(fair)	True	False	60.90
2011-01-22 09:00:00 24532 9 365.15 365.15 365.15 135.7 750.60	48.6476190476	365.15	135.70	Partly_Cloudy(fair)	True	False	135.70
2011-01-22 10:00:00 24533 10 567.09 567.09 567.09 151.3 957.70	59.2137913021	567.09	151.30	Partly_Cloudy(fair)	True	False	151.30
2011-01-22 11:00:00 24534 11 621.74 621.74 621.74 151.0 1050.00	59.2137913021	621.74	151.00	Partly_Cloudy(fair)	True	False	151.00
2011-01-22 12:00:00 24535 12 625.06 625.06 625.06 174.7 1055.60	59.2137913021	625.06	174.70	Partly_Cloudy(fair)	True	False	174.70
2011-01-22 13:00:00 24536 13 558.62 558.62 558.62 143.0 943.40	59.2137913021	558.62	143.00	Partly_Cloudy(fair)	True	False	143.00
2011-01-22 14:00:00 24537 14 453.40 453.40 453.40 127.0 765.70	59.2137913021	453.40	127.00	Partly_Cloudy(fair)	True	False	127.00
2011-01-22 15:00:00 24538 15 202.90 202.90 202.90 82.7 476.50	42.580952381	202.90	82.70	Mostly_Cloudy(fair)	True	False	82.70
2011-01-22 16:00:00 24539 16 43.22 43.22 43.22 14.7 123.20	35.0790126681	43.22	14.70	Mostly_Cloudy(fair)	True	False	14.70
2011-01-22 17:00:00 24540 17 0.49 0.49 0.49 0.0 1.40	35.0790126681	0.49	0.00	Mostly_Cloudy(fair)	True	False	0.00
2011-01-22 18:00:00 24541 18 0.00 0.00 0.00 0.0 0.00	35.0790126681	0.00	0.00	Mostly_Cloudy(fair)	True	False	0.00
2011-01-22 19:00:00 24542 19 0.00 0.00 0.00 0.0 0.00	35.0790126681	0.00	0.00	Mostly_Cloudy(fair)	True	False	0.00
2011-01-22 20:00:00 24543 20 0.00 0.00 0.00 0.0 0.00	35.0790126681	0.00	0.00	Mostly_Cloudy(fair)	True	False	0.00
2011-01-22 21:00:00 24544 21 0.00 0.00 0.00 0.0 0.00	35.0790126681	0.00	0.00	Mostly_Cloudy(fair)	True	False	0.00
2011-01-22 22:00:00 24545 22 0.00 0.00 0.00 0.0 0.00	35.0790126681	0.00	0.00	Mostly_Cloudy(fair)	True	False	0.00
2011-01-22 23:00:00 24546 23 0.00 0.00 0.00 0.0 0.00	35.0790126681	0.00	0.00	Mostly_Cloudy(fair)	True	False	0.00
2011-01-23 00:00:00 24547 0 0.00 0.00 0.00 0.0 0.00	35.0790126681	0.00	0.00	Mostly_Cloudy(fair)	True	False	0.00
2011-01-23 01:00:00 24548 1 0.00 0.00 0.00 0.0 0.00	35.0790126681	0.00	0.00	Mostly_Cloudy(fair)	True	False	0.00
2011-01-23 02:00:00 24549 2 0.00 0.00 0.00 0.0 0.00	35.0790126681	0.00	0.00	Mostly_Cloudy(fair)	True	False	0.00
2011-01-23 03:00:00 24550 3 0.00 0.00 0.00 0.0 0.00	35.0790126681	0.00	0.00	Mostly_Cloudy(fair)	True	False	0.00
2011-01-23 04:00:00 24551 4 0.00 0.00 0.00 0.0 0.00	35.0790126681	0.00	0.00	Mostly_Cloudy(fair)	True	False	0.00
2011-01-23 05:00:00 24552 5 0.00 0.00 0.00 0.0 0.00	35.0790126681	0.00	0.00	Mostly_Cloudy(fair)	True	False	0.00
2011-01-23 06:00:00 24553 6 0.00 0.00 0.00 0.0 0.00	35.0790126681	0.00	0.00	Mostly_Cloudy(fair)	True	False	0.00
2011-01-23 07:00:00 24554 7 24.20 24.20 24.20 10.3 69.00	35.0790126681	24.20	10.30	Mostly_Cloudy(fair)	True	False	10.30
2011-01-23 08:00:00 24555 8 149.19 149.19 149.19 97.7 425.30	35.0790126681	149.19	97.70	Mostly_Cloudy(fair)	True	False	97.70
2011-01-23 09:00:00 24556 9 365.15 365.15 365.15 191.7 750.60	48.6476190476	365.15	191.70	Partly_Cloudy(fair)	True	False	191.70
2011-01-23 10:00:00 24557 10 567.09 567.09 567.09 264.2 957.70	59.2137913021	567.09	264.20	Partly_Cloudy(fair)	True	False	264.20
2011-01-23 11:00:00 24558 11 621.74 621.74 621.74 319.4 1050.00	59.2137913021	621.74	319.40	Partly_Cloudy(fair)	True	False	319.40
2011-01-23 12:00:00 24559 12 449.48 449.48 449.48 356.8 1055.60	42.580952381	449.48	356.80	Mostly_Cloudy(fair)	True	False	356.80
2011-01-23 13:00:00 24560 13 401.71 401.71 401.71 340.4 943.40	42.580952381	401.71	340.40	Mostly_Cloudy(fair)	True	False	340.40
2011-01-23 14:00:00 24561 14 326.04 326.04 326.04 289.7 765.70	42.580952381	326.04	289.70	Mostly_Cloudy(fair)	True	False	289.70
2011-01-23 15:00:00 24562 15 202.90 202.90 202.90 140.1 476.50	42.580952381	202.90	140.10	Mostly_Cloudy(fair)	True	False	140.10
