2011-02-03 10:00:00 39312 10 498.72 498.72 498.72 600.0 957.70	52.0752351097	498.72	600.00	Partly_Cloudy(fair)	True	False	600.00
2011-02-03 11:00:00 39313 11 546.79 546.79 546.79 674.2 1050.00	52.0752351097	546.79	674.20	Partly_Cloudy(fair)	True	False	674.20
2011-02-03 12:00:00 39314 12 552.00 552.00 552.00 698.0 1060.00	52.0752351097	552.00	698.00	Partly_Cloudy(fair)	True	False	698.00
2011-02-03 13:00:00 39315 13 503.36 503.36 503.36 636.9 966.60	52.0752351097	503.36	636.90	Partly_Cloudy(fair)	True	False	636.90
2011-02-03 14:00:00 39316 14 415.30 415.30 415.30 516.0 797.50	52.0752351097	415.30	516.00	Partly_Cloudy(fair)	True	False	516.00
2011-02-03 15:00:00 39317 15 268.08 268.08 268.08 323.0 514.80	52.0752351097	268.08	323.00	Partly_Cloudy(fair)	True	False	323.00
2011-02-03 16:00:00 39318 16 80.04 80.04 80.04 86.5 153.70	52.0752351097	80.04	86.50	Mostly_Sunny(fair)	False	False	86.50
2011-02-03 17:00:00 39319 17 2.45 2.45 2.45 0.5 4.70	52.0752351097	2.45	0.50	Mostly_Sunny(fair)	False	False	0.50
2011-02-03 18:00:00 39320 18 0.00 0.00 0.00 0.0 0.00	73.8432601881	0.00	0.00	Clear(fair)	True	False	0.00
2011-02-03 19:00:00 39321 19 0.00 0.00 0.00 0.0 0.00	73.8432601881	0.00	0.00	Clear(fair)	True	False	0.00
2011-02-03 20:00:00 39322 20 0.00 0.00 0.00 0.0 0.00	73.8432601881	0.00	0.00	Clear(fair)	True	False	0.00
2011-02-03 21:00:00 39323 21 0.00 0.00 0.00 0.0 0.00	73.8432601881	0.00	0.00	Clear(fair)	True	False	0.00
2011-02-03 22:00:00 39324 22 0.00 0.00 0.00 0.0 0.00	73.8432601881	0.00	0.00	Clear(fair)	True	False	0.00
2011-02-03 23:00:00 39325 23 0.00 0.00 0.00 0.0 0.00	73.8432601881	0.00	0.00	Clear(fair)	True	False	0.00
2011-02-04 00:00:00 39326 0 0.00 0.00 0.00 0.0 0.00	73.8432601881	0.00	0.00	Mostly_Clear(fair)	False	False	0.00
2011-02-04 01:00:00 39327 1 0.00 0.00 0.00 0.0 0.00	73.8432601881	0.00	0.00	Mostly_Clear(fair)	False	False	0.00
2011-02-04 02:00:00 39328 2 0.00 0.00 0.00 0.0 0.00	73.8432601881	0.00	0.00	Mostly_Clear(fair)	False	False	0.00
2011-02-04 03:00:00 39329 3 0.00 0.00 0.00 0.0 0.00	43.1359791802	0.00	0.00	Partly_Cloudy(fair)	True	False	0.00
2011-02-04 04:00:00 39330 4 0.00 0.00 0.00 0.0 0.00	43.1359791802	0.00	0.00	Partly_Cloudy(fair)	True	False	0.00
2011-02-04 05:00:00 39331 5 0.00 0.00 0.00 0.0 0.00	43.1359791802	0.00	0.00	Partly_Cloudy(fair)	True	False	0.00
2011-02-04 06:00:00 39332 6 0.00 0.00 0.00 0.0 0.00	43.1359791802	0.00	0.00	Partly_Cloudy(fair)	True	False	0.00
2011-02-04 07:00:00 39333 7 40.59 40.59 40.59 17.3 94.10	43.1359791802	40.59	17.30	Partly_Cloudy(fair)	True	False	17.30
2011-02-04 08:00:00 39334 8 189.54 189.54 189.54 131.0 439.40	43.1359791802	189.54	131.00	Partly_Cloudy(fair)	True	False	131.00
2011-02-04 09:00:00 39335 9 554.27 554.27 554.27 263.7 750.60	73.8432601881	554.27	263.70	Sunny(fair)	True	False	263.70
2011-02-04 10:00:00 39336 10 806.30 806.30 806.30 334.7 957.70	84.1912916362	806.30	334.70	Sunny(fair)	True	False	334.70
2011-02-04 11:00:00 39337 11 884.01 884.01 884.01 413.7 1050.00	84.1912916362	884.01	413.70	Sunny(fair)	True	False	413.70
2011-02-04 12:00:00 39338 12 892.43 892.43 892.43 402.5 1060.00	84.1912916362	892.43	402.50	Sunny(fair)	True	False	402.50
2011-02-04 13:00:00 39339 13 813.79 813.79 813.79 316.4 966.60	84.1912916362	813.79	316.40	Sunny(fair)	True	False	316.40
2011-02-04 14:00:00 39340 14 671.43 671.43 671.43 336.5 797.50	84.1912916362	671.43	336.50	Sunny(fair)	True	False	336.50
2011-02-04 15:00:00 39341 15 433.42 433.42 433.42 175.7 514.80	84.1912916362	433.42	175.70	Sunny(fair)	True	False	175.70
2011-02-04 16:00:00 39342 16 113.50 113.50 113.50 47.4 153.70	73.8432601881	113.50	47.40	Sunny(fair)	True	False	47.40
2011-02-04 17:00:00 39343 17 3.47 3.47 3.47 0.3 4.70	73.8432601881	3.47	0.30	Sunny(fair)	True	False	0.30
2011-02-04 18:00:00 39344 18 0.00 0.00 0.00 0.0 0.00	43.1359791802	0.00	0.00	Partly_Cloudy(fair)	True	False	0.00
2011-02-04 19:00:00 39345 19 0.00 0.00 0.00 0.0 0.00	43.1359791802	0.00	0.00	Partly_Cloudy(fair)	True	False	0.00
2011-02-04 20:00:00 39346 20 0.00 0.00 0.00 0.0 0.00	43.1359791802	0.00	0.00	Partly_Cloudy(fair)	True	False	0.00
2011-02-04 21:00:00 39347 21 0.00 0.00 0.00 0.0 0.00	24.0877742947	0.00	0.00	Mostly_Cloudy(fair)	True	False	0.00
2011-02-04 22:00:00 39348 22 0.00 0.00 0.00 0.0 0.00	24.0877742947	0.00	0.00	Mostly_Cloudy(fair)	True	False	0.00
2011-02-04 23:00:00 39349 23 0.00 0.00 0.00 0.0 0.00	24.0877742947	0.00	0.00	Mostly_Cloudy(fair)	True	False	0.00
2011-02-05 00:00:00 39350 0 0.00 0.00 0.00 0.0 0.00	24.0877742947	0.00	0.00	Mostly_Cloudy(fair)	True	False	0.00
2011-02-05 01:00:00 39351 1 0.00 0.00 0.00 0.0 0.00	24.0877742947	0.00	0.00	Mostly_Cloudy(fair)	True	False	0.00
2011-02-05 02:00:00 39352 2 0.00 0.00 0.00 0.0 0.00	24.0877742947	0.00	0.00	Mostly_Cloudy(cloudy)	True	False	0.00
2011-02-05 03:00:00 39353 3 0.00 0.00 0.00 0.0 0.00	1.41220357048	0.00	0.00	Few_Snow_Showers(mostly_cloudy)	True	False	0.00
2011-02-05 04:00:00 39354 4 0.00 0.00 0.00 0.0 0.00	1.41220357048	0.00	0.00	Few_Snow_Showers(cloudy)	True	False	0.00
2011-02-05 05:00:00 39355 5 0.00 0.00 0.00 0.0 0.00	1.41220357048	0.00	0.00	Few_Snow_Showers(cloudy)	True	False	0.00
2011-02-05 06:00:00 39356 6 0.00 0.00 0.00 0.0 0.00	0.124146492862	0.00	0.00	Snow_Shower(cloudy)	True	False	0.00
2011-02-05 07:00:00 39357 7 0.12 0.12 0.12 4.1 94.10	0.124146492862	0.12	4.10	Snow_Shower(cloudy)	True	False	4.10
2011-02-05 08:00:00 39358 8 0.55 0.55 0.55 48.3 439.40	0.124146492862	0.55	48.30	Snow_Shower(cloudy)	True	False	48.30
2011-02-05 09:00:00 39359 9 163.70 163.70 163.70 67.1 750.60	21.8092192912	163.70	67.10	Cloudy(fog)	True	False	67.10
2011-02-05 10:00:00 39360 10 208.95 208.95 208.95 129.8 957.70	21.8181818182	208.95	129.80	Cloudy(light_freezing_rain)	True	False	129.80
