2011-01-02 11:00:00 2436 11 884.78 884.78 114.97 222.3 962.40	11.9461581604	114.97	222.30	Drizzle/Fog(cloudy)	True	False	222.30
2011-01-02 12:00:00 2437 12 230.59 230.59 0.00 364.9 998.30	0.0	0.00	364.90	Showers(light_rain)	True	False	364.90
2011-01-02 13:00:00 2438 13 349.60 191.42 349.60 136.2 828.70	42.1862011638	349.60	136.20	Cloudy(cloudy)	True	False	136.20
2011-01-02 14:00:00 2439 14 263.12 144.07 263.12 63.7 623.70	42.1862011638	263.12	63.70	Cloudy(light_rain)	True	False	63.70
2011-01-02 15:00:00 2440 15 165.34 72.41 165.34 13.0 313.50	52.7396574176	165.34	13.00	Mostly_Cloudy(cloudy)	True	False	13.00
2011-01-02 16:00:00 2441 16 21.58 9.98 21.58 0.0 43.20	49.9577651744	21.58	0.00	Mostly_Cloudy(cloudy)	True	False	0.00
2011-01-02 17:00:00 2442 17 0.00 0.00 0.00 0.0 0.00	49.9577651744	0.00	0.00	Mostly_Cloudy(light_rain)	True	False	0.00
2011-01-02 18:00:00 2443 18 0.00 0.00 0.00 0.0 0.00	49.9577651744	0.00	0.00	Mostly_Cloudy(cloudy)	True	False	0.00
2011-01-02 19:00:00 2444 19 0.00 0.00 0.00 0.0 0.00	49.9577651744	0.00	0.00	Mostly_Cloudy(cloudy)	True	False	0.00
2011-01-02 20:00:00 2445 20 0.00 0.00 0.00 0.0 0.00	49.9577651744	0.00	0.00	Mostly_Cloudy(mostly_cloudy)	True	False	0.00
2011-01-02 21:00:00 2446 21 0.00 0.00 0.00 0.0 0.00	71.0648148148	0.00	0.00	Partly_Cloudy(fair)	True	False	0.00
2011-01-02 22:00:00 2447 22 0.00 0.00 0.00 0.0 0.00	71.0648148148	0.00	0.00	Partly_Cloudy(fair)	True	False	0.00
2011-01-02 23:00:00 2448 23 0.00 0.00 0.00 0.0 0.00	71.0648148148	0.00	0.00	Partly_Cloudy(fair)	True	False	0.00
2011-01-03 00:00:00 2449 0 0.00 0.00 0.00 0.0 0.00	71.0648148148	0.00	0.00	Mostly_Clear(fair)	False	False	0.00
2011-01-03 01:00:00 2450 1 0.00 0.00 0.00 0.0 0.00	71.0648148148	0.00	0.00	Mostly_Clear(fair)	False	False	0.00
2011-01-03 02:00:00 2451 2 0.00 0.00 0.00 0.0 0.00	71.0648148148	0.00	0.00	Mostly_Clear(fair)	False	False	0.00
2011-01-03 03:00:00 2452 3 0.00 0.00 0.00 0.0 0.00	92.7265170407	0.00	0.00	Clear(fair)	True	False	0.00
2011-01-03 04:00:00 2453 4 0.00 0.00 0.00 0.0 0.00	92.7265170407	0.00	0.00	Clear(fair)	True	False	0.00
2011-01-03 05:00:00 2454 5 0.00 0.00 0.00 0.0 0.00	92.7265170407	0.00	0.00	Clear(fair)	True	False	0.00
2011-01-03 06:00:00 2455 6 0.00 0.00 0.00 0.0 0.00	92.7265170407	0.00	0.00	Clear(fair)	True	False	0.00
2011-01-03 07:00:00 2456 7 22.72 22.72 22.72 20.3 24.50	92.7265170407	22.72	20.30	Clear(fair)	True	False	20.30
2011-01-03 08:00:00 2457 8 283.09 283.09 283.09 287.1 305.30	92.7265170407	283.09	287.10	Sunny(fair)	True	False	287.10
2011-01-03 09:00:00 2458 9 605.78 605.78 605.78 627.3 653.30	92.7265170407	605.78	627.30	Sunny(fair)	True	False	627.30
2011-01-03 10:00:00 2459 10 819.60 819.60 819.60 818.1 891.50	91.9352252686	819.60	818.10	Sunny(fair)	True	False	818.10
2011-01-03 11:00:00 2460 11 884.78 884.78 884.78 919.3 962.40	91.9352252686	884.78	919.30	Sunny(fair)	True	False	919.30
2011-01-03 12:00:00 2461 12 917.79 917.79 917.79 915.9 998.30	91.9352252686	917.79	915.90	Sunny(fair)	True	False	915.90
2011-01-03 13:00:00 2462 13 761.87 761.87 761.87 783.1 828.70	91.9352252686	761.87	783.10	Sunny(fair)	True	False	783.10
2011-01-03 14:00:00 2463 14 573.40 573.40 573.40 571.7 623.70	91.9352252686	573.40	571.70	Sunny(fair)	True	False	571.70
2011-01-03 15:00:00 2464 15 288.22 288.22 288.22 236.0 313.50	91.9352252686	288.22	236.00	Sunny(fair)	True	False	236.00
2011-01-03 16:00:00 2465 16 40.06 40.06 40.06 14.9 43.20	92.7265170407	40.06	14.90	Sunny(fair)	True	False	14.90
2011-01-03 17:00:00 2466 17 0.00 0.00 0.00 0.0 0.00	92.7265170407	0.00	0.00	Clear(fair)	True	False	0.00
2011-01-03 18:00:00 2467 18 0.00 0.00 0.00 0.0 0.00	71.0648148148	0.00	0.00	Partly_Cloudy(fair)	True	False	0.00
2011-01-03 19:00:00 2468 19 0.00 0.00 0.00 0.0 0.00	71.0648148148	0.00	0.00	Partly_Cloudy(fair)	True	False	0.00
2011-01-03 20:00:00 2469 20 0.00 0.00 0.00 0.0 0.00	71.0648148148	0.00	0.00	Partly_Cloudy(fair)	True	False	0.00
2011-01-03 21:00:00 2470 21 0.00 0.00 0.00 0.0 0.00	71.0648148148	0.00	0.00	Partly_Cloudy(fair)	True	False	0.00
2011-01-03 22:00:00 2471 22 0.00 0.00 0.00 0.0 0.00	71.0648148148	0.00	0.00	Partly_Cloudy(fair)	True	False	0.00
2011-01-03 23:00:00 2472 23 0.00 0.00 0.00 0.0 0.00	71.0648148148	0.00	0.00	Partly_Cloudy(fair)	True	False	0.00
2011-01-04 00:00:00 2473 0 0.00 0.00 0.00 0.0 0.00	71.0648148148	0.00	0.00	Partly_Cloudy(fair)	True	False	0.00
2011-01-04 01:00:00 2474 1 0.00 0.00 0.00 0.0 0.00	71.0648148148	0.00	0.00	Partly_Cloudy(fair)	True	False	0.00
2011-01-04 02:00:00 2475 2 0.00 0.00 0.00 0.0 0.00	71.0648148148	0.00	0.00	Partly_Cloudy(fair)	True	False	0.00
2011-01-04 03:00:00 2476 3 0.00 0.00 0.00 0.0 0.00	49.9577651744	0.00	0.00	Mostly_Cloudy(fair)	True	False	0.00
2011-01-04 04:00:00 2477 4 0.00 0.00 0.00 0.0 0.00	49.9577651744	0.00	0.00	Mostly_Cloudy(fair)	True	False	0.00
2011-01-04 05:00:00 2478 5 0.00 0.00 0.00 0.0 0.00	49.9577651744	0.00	0.00	Mostly_Cloudy(fair)	True	False	0.00
2011-01-04 06:00:00 2479 6 0.00 0.00 0.00 0.0 0.00	49.9577651744	0.00	0.00	Mostly_Cloudy(fair)	True	False	0.00
2011-01-04 07:00:00 2480 7 12.24 12.24 12.24 0.6 24.50	49.9577651744	12.24	0.60	Mostly_Cloudy(fair)	True	False	0.60
2011-01-04 08:00:00 2481 8 152.52 152.52 152.52 61.7 305.30	49.9577651744	152.52	61.70	Mostly_Cloudy(fair)	True	False	61.70
2011-01-04 09:00:00 2482 9 272.70 272.70 272.70 140.1 653.30	41.7419256084	272.70	140.10	Cloudy(fair)	True	False	140.10
2011-01-04 10:00:00 2483 10 376.09 376.09 376.09 215.4 891.50	42.1862011638	376.09	215.40	Cloudy(fair)	True	False	215.40
2011-01-04 11:00:00 2484 11 406.00 406.00 406.00 577.2 962.40	42.1862011638	406.00	577.20	Cloudy(fair)	True	False	577.20
