2011-01-10 07:00:00 11355 7 34.54 34.54 34.54 17.5 38.80	89.0245718541	34.54	17.50	Clear(fair)	True	False	17.50
2011-01-10 08:00:00 11356 8 311.50 311.50 311.50 237.8 349.90	89.0245718541	311.50	237.80	Sunny(fair)	True	False	237.80
2011-01-10 09:00:00 11357 9 594.86 594.86 594.86 483.0 668.20	89.0245718541	594.86	483.00	Sunny(fair)	True	False	483.00
2011-01-10 10:00:00 11358 10 815.68 815.68 815.68 743.8 891.50	91.4955424221	815.68	743.80	Sunny(fair)	True	False	743.80
2011-01-10 11:00:00 11359 11 883.48 883.48 883.48 870.3 965.60	91.4955424221	883.48	870.30	Sunny(fair)	True	False	870.30
2011-01-10 12:00:00 11360 12 913.40 913.40 913.40 690.9 998.30	91.4955424221	913.40	690.90	Sunny(fair)	True	False	690.90
2011-01-10 13:00:00 11361 13 790.52 790.52 790.52 590.6 864.00	91.4955424221	790.52	590.60	Sunny(fair)	True	False	590.60
2011-01-10 14:00:00 11362 14 614.39 614.39 614.39 324.0 671.50	91.4955424221	614.39	324.00	Sunny(fair)	True	False	324.00
2011-01-10 15:00:00 11363 15 323.99 323.99 323.99 148.2 354.10	91.4955424221	323.99	148.20	Sunny(fair)	True	False	148.20
2011-01-10 16:00:00 11364 16 49.41 49.41 49.41 21.5 55.50	89.0245718541	49.41	21.50	Sunny(fair)	True	False	21.50
2011-01-10 17:00:00 11365 17 0.00 0.00 0.00 0.0 0.00	89.0245718541	0.00	0.00	Clear(fair)	True	False	0.00
2011-01-10 18:00:00 11366 18 0.00 0.00 0.00 0.0 0.00	89.0245718541	0.00	0.00	Clear(fair)	True	False	0.00
2011-01-10 19:00:00 11367 19 0.00 0.00 0.00 0.0 0.00	89.0245718541	0.00	0.00	Clear(Unkown)	True	False	0.00
2011-01-10 20:00:00 11368 20 0.00 0.00 0.00 0.0 0.00	89.0245718541	0.00	0.00	Clear(fair)	True	False	0.00
2011-01-10 21:00:00 11369 21 0.00 0.00 0.00 0.0 0.00	89.0245718541	0.00	0.00	Clear(fair)	True	False	0.00
2011-01-10 22:00:00 11370 22 0.00 0.00 0.00 0.0 0.00	89.0245718541	0.00	0.00	Clear(fair)	True	False	0.00
2011-01-10 23:00:00 11371 23 0.00 0.00 0.00 0.0 0.00	89.0245718541	0.00	0.00	Clear(fair)	True	False	0.00
2011-01-11 00:00:00 11372 0 0.00 0.00 0.00 0.0 0.00	89.0245718541	0.00	0.00	Mostly_Clear(fair)	False	False	0.00
2011-01-11 01:00:00 11373 1 0.00 0.00 0.00 0.0 0.00	89.0245718541	0.00	0.00	Mostly_Clear(fair)	False	False	0.00
2011-01-11 02:00:00 11374 2 0.00 0.00 0.00 0.0 0.00	89.0245718541	0.00	0.00	Mostly_Clear(fair)	False	False	0.00
2011-01-11 03:00:00 11375 3 0.00 0.00 0.00 0.0 0.00	52.469197636	0.00	0.00	Partly_Cloudy(fair)	True	False	0.00
2011-01-11 04:00:00 11376 4 0.00 0.00 0.00 0.0 0.00	52.469197636	0.00	0.00	Partly_Cloudy(fair)	True	False	0.00
2011-01-11 05:00:00 11377 5 0.00 0.00 0.00 0.0 0.00	52.469197636	0.00	0.00	Partly_Cloudy(fair)	True	False	0.00
2011-01-11 06:00:00 11378 6 0.00 0.00 0.00 0.0 0.00	47.9166666667	0.00	0.00	Mostly_Cloudy(fair)	True	False	0.00
2011-01-11 07:00:00 11379 7 18.59 18.59 18.59 31.8 38.80	47.9166666667	18.59	31.80	Mostly_Cloudy(fair)	True	False	31.80
2011-01-11 08:00:00 11380 8 167.66 167.66 167.66 269.7 349.90	47.9166666667	167.66	269.70	Mostly_Cloudy(mostly_cloudy)	True	False	269.70
2011-01-11 09:00:00 11381 9 217.84 217.84 217.84 184.6 668.20	32.6014913007	217.84	184.60	Cloudy(fair)	True	False	184.60
2011-01-11 10:00:00 11382 10 290.64 290.64 290.64 239.2 891.50	32.6014913007	290.64	239.20	Cloudy(fair)	True	False	239.20
2011-01-11 11:00:00 11383 11 314.80 314.80 314.80 348.4 965.60	32.6014913007	314.80	348.40	Cloudy(fair)	True	False	348.40
2011-01-11 12:00:00 11384 12 325.46 325.46 325.46 364.9 998.30	32.6014913007	325.46	364.90	Cloudy(fair)	True	False	364.90
2011-01-11 13:00:00 11385 13 281.68 281.68 281.68 376.5 864.00	32.6014913007	281.68	376.50	Cloudy(partly_cloudy)	True	False	376.50
2011-01-11 14:00:00 11386 14 218.92 218.92 218.92 223.3 671.50	32.6014913007	218.92	223.30	Cloudy(partly_cloudy)	True	False	223.30
2011-01-11 15:00:00 11387 15 115.44 115.44 115.44 141.7 354.10	32.6014913007	115.44	141.70	Cloudy(partly_cloudy)	True	False	141.70
2011-01-11 16:00:00 11388 16 18.09 18.09 18.09 10.5 55.50	32.6014913007	18.09	10.50	Cloudy(mostly_cloudy)	True	False	10.50
2011-01-11 17:00:00 11389 17 0.00 0.00 0.00 0.0 0.00	32.6014913007	0.00	0.00	Cloudy(cloudy)	True	False	0.00
2011-01-11 18:00:00 11390 18 0.00 0.00 0.00 0.0 0.00	22.7103499628	0.00	0.00	Snow_Shower(cloudy)	True	False	0.00
2011-01-11 19:00:00 11391 19 0.00 0.00 0.00 0.0 0.00	22.7103499628	0.00	0.00	Snow_Shower(cloudy)	True	False	0.00
2011-01-11 20:00:00 11392 20 0.00 0.00 0.00 0.0 0.00	22.7103499628	0.00	0.00	Snow_Shower(light_snow)	True	False	0.00
2011-01-11 21:00:00 11393 21 0.00 0.00 0.00 0.0 0.00	22.7103499628	0.00	0.00	Snow(light_snow)	True	False	0.00
2011-01-11 22:00:00 11394 22 0.00 0.00 0.00 0.0 0.00	22.7103499628	0.00	0.00	Snow(light_snow)	True	False	0.00
2011-01-11 23:00:00 11395 23 0.00 0.00 0.00 0.0 0.00	22.7103499628	0.00	0.00	Snow(snow)	True	False	0.00
2011-01-12 00:00:00 11396 0 0.00 0.00 0.00 0.0 0.00	22.7103499628	0.00	0.00	Snow(light_snow)	True	False	0.00
2011-01-12 01:00:00 11397 1 0.00 0.00 0.00 0.0 0.00	22.7103499628	0.00	0.00	Snow(light_snow)	True	False	0.00
2011-01-12 02:00:00 11398 2 0.00 0.00 0.00 0.0 0.00	22.7103499628	0.00	0.00	Snow(light_snow)	True	False	0.00
2011-01-12 03:00:00 11399 3 0.00 0.00 0.00 0.0 0.00	22.7103499628	0.00	0.00	Snow(snow)	True	False	0.00
2011-01-12 04:00:00 11400 4 0.00 0.00 0.00 0.0 0.00	22.7103499628	0.00	0.00	Snow(light_snow)	True	False	0.00
2011-01-12 05:00:00 11401 5 0.00 0.00 0.00 0.0 0.00	22.7103499628	0.00	0.00	Snow(mostly_cloudy)	True	False	0.00
2011-01-12 06:00:00 11402 6 0.00 0.00 0.00 0.0 0.00	22.7103499628	0.00	0.00	Snow(cloudy)	True	False	0.00
2011-01-12 07:00:00 11403 7 8.81 8.81 8.81 0.0 38.80	22.7103499628	8.81	0.00	Snow(fair)	True	False	0.00
