2011-01-26 06:00:00 29912 6 0.00 0.00 0.00 0.0 0.00	0.0	0.00	0.00	Snow(cloudy)	True	False	0.00
2011-01-26 07:00:00 29913 7 5.82 5.82 5.82 0.0 94.10	6.18087182824	5.82	0.00	Light_Freezing_Rain(Unkown)	True	False	0.00
2011-01-26 08:00:00 29914 8 0.00 0.00 0.00 0.0 439.40	0.0	0.00	0.00	Snow(snow)	True	False	0.00
2011-01-26 09:00:00 29915 9 0.00 0.00 0.00 0.0 750.60	0.0	0.00	0.00	Snow(snow_and_fog)	True	False	0.00
2011-01-26 10:00:00 29916 10 32.30 32.30 32.30 0.1 957.70	3.37304075235	32.30	0.10	Light_Wintry_Mix(heavy_snow)	True	False	0.10
2011-01-26 11:00:00 29917 11 35.42 35.42 35.42 0.4 1050.00	3.37304075235	35.42	0.40	Light_Wintry_Mix(light_snow)	True	False	0.40
2011-01-26 12:00:00 29918 12 0.00 0.00 0.00 5.4 1060.00	0.0	0.00	5.40	Snow_Shower(Unkown)	True	False	5.40
2011-01-26 13:00:00 29919 13 0.00 0.00 0.00 8.0 966.60	0.0	0.00	8.00	Snow_Shower(Unkown)	True	False	8.00
2011-01-26 14:00:00 29920 14 0.00 0.00 0.00 5.3 797.50	0.0	0.00	5.30	Snow_Shower(light_snow)	True	False	5.30
2011-01-26 15:00:00 29921 15 0.00 0.00 0.00 0.2 514.80	0.0	0.00	0.20	Snow(light_snow)	True	False	0.20
2011-01-26 16:00:00 29922 16 0.00 0.00 0.00 0.0 153.70	0.0	0.00	0.00	Snow(light_snow)	True	False	0.00
2011-01-26 17:00:00 29923 17 0.00 0.00 0.00 0.0 3.10	0.0	0.00	0.00	Snow(cloudy)	True	False	0.00
2011-01-26 18:00:00 29924 18 0.00 0.00 0.00 0.0 0.00	0.0	0.00	0.00	Snow(wintry_mix)	True	False	0.00
2011-01-26 19:00:00 29925 19 0.00 0.00 0.00 0.0 0.00	0.0	0.00	0.00	Snow(light_snow)	True	False	0.00
2011-01-26 20:00:00 29926 20 0.00 0.00 0.00 0.0 0.00	0.0	0.00	0.00	Snow(snow)	True	False	0.00
2011-01-26 21:00:00 29927 21 0.00 0.00 0.00 0.0 0.00	0.0	0.00	0.00	Heavy_Snow(heavy_snow)	True	False	0.00
2011-01-26 22:00:00 29928 22 0.00 0.00 0.00 0.0 0.00	0.0	0.00	0.00	Heavy_Snow(snow)	True	False	0.00
2011-01-26 23:00:00 29929 23 0.00 0.00 0.00 0.0 0.00	0.0	0.00	0.00	Heavy_Snow(snow)	True	False	0.00
2011-01-27 00:00:00 29930 0 0.00 0.00 0.00 0.0 0.00	0.0	0.00	0.00	Snow(light_snow)	True	False	0.00
2011-01-27 01:00:00 29931 1 0.00 0.00 0.00 0.0 0.00	0.0	0.00	0.00	Snow(light_snow)	True	False	0.00
2011-01-27 02:00:00 29932 2 0.00 0.00 0.00 0.0 0.00	0.0	0.00	0.00	Snow(light_snow)	True	False	0.00
2011-01-27 03:00:00 29933 3 0.00 0.00 0.00 0.0 0.00	0.0	0.00	0.00	Snow_Shower(mostly_cloudy)	True	False	0.00
2011-01-27 04:00:00 29934 4 0.00 0.00 0.00 0.0 0.00	0.0	0.00	0.00	Snow_Shower(cloudy)	True	False	0.00
2011-01-27 05:00:00 29935 5 0.00 0.00 0.00 0.0 0.00	0.0	0.00	0.00	Snow_Shower(cloudy)	True	False	0.00
2011-01-27 06:00:00 29936 6 0.00 0.00 0.00 0.0 0.00	28.547561867	0.00	0.00	Mostly_Cloudy(cloudy)	True	False	0.00
2011-01-27 07:00:00 29937 7 26.86 26.86 26.86 0.0 94.10	28.547561867	26.86	0.00	Mostly_Cloudy(cloudy)	True	False	0.00
2011-01-27 08:00:00 29938 8 125.44 125.44 125.44 0.0 439.40	28.547561867	125.44	0.00	Mostly_Cloudy(cloudy)	True	False	0.00
2011-01-27 09:00:00 29939 9 617.20 617.20 617.20 0.0 750.60	82.2275512923	617.20	0.00	Sunny(cloudy)	True	False	0.00
2011-01-27 10:00:00 29940 10 825.25 825.25 825.25 1.1 957.70	86.1698113208	825.25	1.10	Sunny(cloudy)	True	False	1.10
2011-01-27 11:00:00 29941 11 904.78 904.78 904.78 89.4 1050.00	86.1698113208	904.78	89.40	Sunny(cloudy)	True	False	89.40
2011-01-27 12:00:00 29942 12 913.40 913.40 913.40 171.1 1060.00	86.1698113208	913.40	171.10	Sunny(cloudy)	True	False	171.10
2011-01-27 13:00:00 29943 13 832.92 832.92 832.92 277.7 966.60	86.1698113208	832.92	277.70	Sunny(partly_cloudy)	True	False	277.70
2011-01-27 14:00:00 29944 14 687.20 687.20 687.20 194.7 797.50	86.1698113208	687.20	194.70	Sunny(fair)	True	False	194.70
2011-01-27 15:00:00 29945 15 443.60 443.60 443.60 101.9 514.80	86.1698113208	443.60	101.90	Mostly_Sunny(mostly_cloudy)	False	False	101.90
2011-01-27 16:00:00 29946 16 132.44 132.44 132.44 8.6 153.70	86.1698113208	132.44	8.60	Mostly_Sunny(cloudy)	False	False	8.60
2011-01-27 17:00:00 29947 17 2.67 2.67 2.67 0.0 3.10	86.1698113208	2.67	0.00	Mostly_Sunny(cloudy)	False	False	0.00
2011-01-27 18:00:00 29948 18 0.00 0.00 0.00 0.0 0.00	86.1698113208	0.00	0.00	Mostly_Clear(cloudy)	False	False	0.00
2011-01-27 19:00:00 29949 19 0.00 0.00 0.00 0.0 0.00	86.1698113208	0.00	0.00	Mostly_Clear(cloudy)	False	False	0.00
2011-01-27 20:00:00 29950 20 0.00 0.00 0.00 0.0 0.00	86.1698113208	0.00	0.00	Mostly_Clear(cloudy)	False	False	0.00
2011-01-27 21:00:00 29951 21 0.00 0.00 0.00 0.0 0.00	43.1359791802	0.00	0.00	Partly_Cloudy(cloudy)	True	False	0.00
2011-01-27 22:00:00 29952 22 0.00 0.00 0.00 0.0 0.00	43.1359791802	0.00	0.00	Partly_Cloudy(fair)	True	False	0.00
2011-01-27 23:00:00 29953 23 0.00 0.00 0.00 0.0 0.00	43.1359791802	0.00	0.00	Partly_Cloudy(fair)	True	False	0.00
2011-01-28 00:00:00 29954 0 0.00 0.00 0.00 0.0 0.00	28.547561867	0.00	0.00	Mostly_Cloudy(fair)	True	False	0.00
2011-01-28 01:00:00 29955 1 0.00 0.00 0.00 0.0 0.00	28.547561867	0.00	0.00	Mostly_Cloudy(fair)	True	False	0.00
2011-01-28 02:00:00 29956 2 0.00 0.00 0.00 0.0 0.00	28.547561867	0.00	0.00	Mostly_Cloudy(fair)	True	False	0.00
2011-01-28 03:00:00 29957 3 0.00 0.00 0.00 0.0 0.00	20.4952380952	0.00	0.00	Cloudy(partly_cloudy)	True	False	0.00
2011-01-28 04:00:00 29958 4 0.00 0.00 0.00 0.0 0.00	20.4952380952	0.00	0.00	Cloudy(fair)	True	False	0.00
2011-01-28 05:00:00 29959 5 0.00 0.00 0.00 0.0 0.00	20.4952380952	0.00	0.00	Cloudy(cloudy)	True	False	0.00
2011-01-28 06:00:00 29960 6 0.00 0.00 0.00 0.0 0.00	1.41220357048	0.00	0.00	Few_Snow_Showers(cloudy)	True	False	0.00
