2011-01-21 07:00:00 24123 7 59.71 59.71 59.71 0.0 69.00	86.5289882531	59.71	0.00	Flurries(cloudy)	False	False	0.00
2011-01-21 08:00:00 24124 8 149.19 149.19 149.19 0.6 425.30	35.0790126681	149.19	0.60	Mostly_Cloudy(fair)	True	False	0.60
2011-01-21 09:00:00 24125 9 365.15 365.15 365.15 8.3 750.60	48.6476190476	365.15	8.30	Partly_Cloudy(fair)	True	False	8.30
2011-01-21 10:00:00 24126 10 567.09 567.09 567.09 21.0 957.70	59.2137913021	567.09	21.00	Partly_Cloudy(light_snow)	True	False	21.00
2011-01-21 11:00:00 24127 11 621.74 621.74 621.74 26.5 1050.00	59.2137913021	621.74	26.50	Partly_Cloudy(light_snow)	True	False	26.50
2011-01-21 12:00:00 24128 12 625.06 625.06 625.06 32.6 1055.60	59.2137913021	625.06	32.60	Mostly_Sunny(fair)	False	False	32.60
2011-01-21 13:00:00 24129 13 558.62 558.62 558.62 107.0 943.40	59.2137913021	558.62	107.00	Mostly_Sunny(cloudy)	False	False	107.00
2011-01-21 14:00:00 24130 14 453.40 453.40 453.40 117.7 765.70	59.2137913021	453.40	117.70	Mostly_Sunny(light_snow)	False	False	117.70
2011-01-21 15:00:00 24131 15 282.15 282.15 282.15 46.0 476.50	59.2137913021	282.15	46.00	Partly_Cloudy(cloudy)	True	False	46.00
2011-01-21 16:00:00 24132 16 59.93 59.93 59.93 11.2 123.20	48.6476190476	59.93	11.20	Partly_Cloudy(mostly_cloudy)	True	False	11.20
2011-01-21 17:00:00 24133 17 0.68 0.68 0.68 0.0 1.40	48.6476190476	0.68	0.00	Partly_Cloudy(mostly_cloudy)	True	False	0.00
2011-01-21 18:00:00 24134 18 0.00 0.00 0.00 0.0 0.00	82.2857142857	0.00	0.00	Clear(mostly_cloudy)	True	False	0.00
2011-01-21 19:00:00 24135 19 0.00 0.00 0.00 0.0 0.00	82.2857142857	0.00	0.00	Clear(fair)	True	False	0.00
2011-01-21 20:00:00 24136 20 0.00 0.00 0.00 0.0 0.00	82.2857142857	0.00	0.00	Clear(fair)	True	False	0.00
2011-01-21 21:00:00 24137 21 0.00 0.00 0.00 0.0 0.00	82.2857142857	0.00	0.00	Clear(fair)	True	False	0.00
2011-01-21 22:00:00 24138 22 0.00 0.00 0.00 0.0 0.00	82.2857142857	0.00	0.00	Clear(fair)	True	False	0.00
2011-01-21 23:00:00 24139 23 0.00 0.00 0.00 0.0 0.00	82.2857142857	0.00	0.00	Clear(fair)	True	False	0.00
2011-01-22 00:00:00 24140 0 0.00 0.00 0.00 0.0 0.00	82.2857142857	0.00	0.00	Clear(fair)	True	False	0.00
2011-01-22 01:00:00 24141 1 0.00 0.00 0.00 0.0 0.00	82.2857142857	0.00	0.00	Clear(fair)	True	False	0.00
2011-01-22 02:00:00 24142 2 0.00 0.00 0.00 0.0 0.00	82.2857142857	0.00	0.00	Clear(fair)	True	False	0.00
2011-01-22 03:00:00 24143 3 0.00 0.00 0.00 0.0 0.00	82.2857142857	0.00	0.00	Clear(fair)	True	False	0.00
2011-01-22 04:00:00 24144 4 0.00 0.00 0.00 0.0 0.00	82.2857142857	0.00	0.00	Clear(fair)	True	False	0.00
2011-01-22 05:00:00 24145 5 0.00 0.00 0.00 0.0 0.00	82.2857142857	0.00	0.00	Clear(fair)	True	False	0.00
2011-01-22 06:00:00 24146 6 0.00 0.00 0.00 0.0 0.00	82.2857142857	0.00	0.00	Clear(fair)	True	False	0.00
2011-01-22 07:00:00 24147 7 56.78 56.78 56.78 7.1 69.00	82.2857142857	56.78	7.10	Clear(fair)	True	False	7.10
2011-01-22 08:00:00 24148 8 349.96 349.96 349.96 60.9 425.30	82.2857142857	349.96	60.90	Sunny(fair)	True	False	60.90
2011-01-22 09:00:00 24149 9 617.64 617.64 617.64 135.7 750.60	82.2857142857	617.64	135.70	Sunny(fair)	True	False	135.70
2011-01-22 10:00:00 24150 10 828.69 828.69 828.69 151.3 957.70	86.5289882531	828.69	151.30	Sunny(fair)	True	False	151.30
2011-01-22 11:00:00 24151 11 908.55 908.55 908.55 151.0 1050.00	86.5289882531	908.55	151.00	Sunny(fair)	True	False	151.00
2011-01-22 12:00:00 24152 12 625.06 625.06 625.06 174.7 1055.60	59.2137913021	625.06	174.70	Partly_Cloudy(fair)	True	False	174.70
2011-01-22 13:00:00 24153 13 558.62 558.62 558.62 143.0 943.40	59.2137913021	558.62	143.00	Partly_Cloudy(fair)	True	False	143.00
2011-01-22 14:00:00 24154 14 453.40 453.40 453.40 127.0 765.70	59.2137913021	453.40	127.00	Partly_Cloudy(fair)	True	False	127.00
2011-01-22 15:00:00 24155 15 202.90 202.90 202.90 82.7 476.50	42.580952381	202.90	82.70	Mostly_Cloudy(fair)	True	False	82.70
2011-01-22 16:00:00 24156 16 43.22 43.22 43.22 14.7 123.20	35.0790126681	43.22	14.70	Mostly_Cloudy(fair)	True	False	14.70
2011-01-22 17:00:00 24157 17 0.49 0.49 0.49 0.0 1.40	35.0790126681	0.49	0.00	Mostly_Cloudy(fair)	True	False	0.00
2011-01-22 18:00:00 24158 18 0.00 0.00 0.00 0.0 0.00	35.0790126681	0.00	0.00	Mostly_Cloudy(fair)	True	False	0.00
2011-01-22 19:00:00 24159 19 0.00 0.00 0.00 0.0 0.00	35.0790126681	0.00	0.00	Mostly_Cloudy(fair)	True	False	0.00
2011-01-22 20:00:00 24160 20 0.00 0.00 0.00 0.0 0.00	35.0790126681	0.00	0.00	Mostly_Cloudy(fair)	True	False	0.00
2011-01-22 21:00:00 24161 21 0.00 0.00 0.00 0.0 0.00	20.4952380952	0.00	0.00	Cloudy(fair)	True	False	0.00
2011-01-22 22:00:00 24162 22 0.00 0.00 0.00 0.0 0.00	20.4952380952	0.00	0.00	Cloudy(fair)	True	False	0.00
2011-01-22 23:00:00 24163 23 0.00 0.00 0.00 0.0 0.00	20.4952380952	0.00	0.00	Cloudy(fair)	True	False	0.00
2011-01-23 00:00:00 24164 0 0.00 0.00 0.00 0.0 0.00	20.4952380952	0.00	0.00	Cloudy(fair)	True	False	0.00
2011-01-23 01:00:00 24165 1 0.00 0.00 0.00 0.0 0.00	20.4952380952	0.00	0.00	Cloudy(fair)	True	False	0.00
2011-01-23 02:00:00 24166 2 0.00 0.00 0.00 0.0 0.00	20.4952380952	0.00	0.00	Cloudy(fair)	True	False	0.00
2011-01-23 03:00:00 24167 3 0.00 0.00 0.00 0.0 0.00	35.0790126681	0.00	0.00	Mostly_Cloudy(fair)	True	False	0.00
2011-01-23 04:00:00 24168 4 0.00 0.00 0.00 0.0 0.00	35.0790126681	0.00	0.00	Mostly_Cloudy(fair)	True	False	0.00
2011-01-23 05:00:00 24169 5 0.00 0.00 0.00 0.0 0.00	35.0790126681	0.00	0.00	Mostly_Cloudy(fair)	True	False	0.00
2011-01-23 06:00:00 24170 6 0.00 0.00 0.00 0.0 0.00	35.0790126681	0.00	0.00	Mostly_Cloudy(fair)	True	False	0.00
2011-01-23 07:00:00 24171 7 24.20 24.20 24.20 10.3 69.00	35.0790126681	24.20	10.30	Mostly_Cloudy(fair)	True	False	10.30
