2011-01-31 18:00:00 36223 18 0.00 0.00 0.00 0.0 0.00	43.8894792774	0.00	0.00	Partly_Cloudy(fair)	True	False	0.00
2011-01-31 19:00:00 36224 19 0.00 0.00 0.00 0.0 0.00	24.0877742947	0.00	0.00	Mostly_Cloudy(mostly_cloudy)	True	False	0.00
2011-01-31 20:00:00 36225 20 0.00 0.00 0.00 0.0 0.00	24.0877742947	0.00	0.00	Mostly_Cloudy(cloudy)	True	False	0.00
2011-01-31 21:00:00 36226 21 0.00 0.00 0.00 0.0 0.00	19.1397360036	0.00	0.00	Cloudy(cloudy)	True	False	0.00
2011-01-31 22:00:00 36227 22 0.00 0.00 0.00 0.0 0.00	19.1397360036	0.00	0.00	Cloudy(cloudy)	True	False	0.00
2011-01-31 23:00:00 36228 23 0.00 0.00 0.00 0.0 0.00	0.417667327973	0.00	0.00	Light_Snow(cloudy)	True	False	0.00
2011-02-01 00:00:00 36229 0 0.00 0.00 0.00 0.0 0.00	0.047619047619	0.00	0.00	Snow_Shower(cloudy)	True	False	0.00
2011-02-01 01:00:00 36230 1 0.00 0.00 0.00 0.0 0.00	0.047619047619	0.00	0.00	Snow_Shower(light_snow)	True	False	0.00
2011-02-01 02:00:00 36231 2 0.00 0.00 0.00 0.0 0.00	0.047619047619	0.00	0.00	Snow_Shower(light_snow)	True	False	0.00
2011-02-01 03:00:00 36232 3 0.00 0.00 0.00 0.0 0.00	0.047619047619	0.00	0.00	Snow(light_snow)	True	False	0.00
2011-02-01 04:00:00 36233 4 0.00 0.00 0.00 0.0 0.00	0.047619047619	0.00	0.00	Snow(light_snow)	True	False	0.00
2011-02-01 05:00:00 36234 5 0.00 0.00 0.00 0.0 0.00	0.047619047619	0.00	0.00	Snow(cloudy)	True	False	0.00
2011-02-01 06:00:00 36235 6 0.00 0.00 0.00 0.0 0.00	0.047619047619	0.00	0.00	Snow(cloudy)	True	False	0.00
2011-02-01 07:00:00 36236 7 0.04 0.04 0.04 0.0 94.10	0.047619047619	0.04	0.00	Snow(light_freezing_rain)	True	False	0.00
2011-02-01 08:00:00 36237 8 0.21 0.21 0.21 0.0 439.40	0.047619047619	0.21	0.00	Snow(cloudy)	True	False	0.00
2011-02-01 09:00:00 36238 9 0.36 0.36 0.36 0.0 750.60	0.047619047619	0.36	0.00	Snow(light_freezing_rain)	True	False	0.00
2011-02-01 10:00:00 36239 10 0.46 0.46 0.46 2.3 957.70	0.047619047619	0.46	2.30	Snow(cloudy)	True	False	2.30
2011-02-01 11:00:00 36240 11 0.50 0.50 0.50 2.0 1050.00	0.047619047619	0.50	2.00	Snow(cloudy)	True	False	2.00
2011-02-01 12:00:00 36241 12 36.65 36.65 36.65 3.8 1060.00	3.45765345765	36.65	3.80	Freezing_Rain(light_freezing_rain)	True	False	3.80
2011-02-01 13:00:00 36242 13 33.42 33.42 33.42 9.2 966.60	3.45765345765	33.42	9.20	Freezing_Rain(light_freezing_rain)	True	False	9.20
2011-02-01 14:00:00 36243 14 27.57 27.57 27.57 12.6 797.50	3.45765345765	27.57	12.60	Freezing_Rain(cloudy)	True	False	12.60
2011-02-01 15:00:00 36244 15 17.80 17.80 17.80 4.3 514.80	3.45765345765	17.80	4.30	Freezing_Rain(cloudy)	True	False	4.30
2011-02-01 16:00:00 36245 16 5.31 5.31 5.31 0.0 153.70	3.45765345765	5.31	0.00	Freezing_Rain(cloudy)	True	False	0.00
2011-02-01 17:00:00 36246 17 0.11 0.11 0.11 0.0 3.10	3.45765345765	0.11	0.00	Freezing_Rain(fog)	True	False	0.00
2011-02-01 18:00:00 36247 18 0.00 0.00 0.00 0.0 0.00	6.18087182824	0.00	0.00	Freezing_Drizzle(cloudy)	True	False	0.00
2011-02-01 19:00:00 36248 19 0.00 0.00 0.00 0.0 0.00	6.18087182824	0.00	0.00	Freezing_Drizzle(cloudy)	True	False	0.00
2011-02-01 20:00:00 36249 20 0.00 0.00 0.00 0.0 0.00	6.18087182824	0.00	0.00	Freezing_Drizzle(cloudy)	True	False	0.00
2011-02-01 21:00:00 36250 21 0.00 0.00 0.00 0.0 0.00	19.1397360036	0.00	0.00	Cloudy(cloudy)	True	False	0.00
2011-02-01 22:00:00 36251 22 0.00 0.00 0.00 0.0 0.00	19.1397360036	0.00	0.00	Cloudy(cloudy)	True	False	0.00
2011-02-01 23:00:00 36252 23 0.00 0.00 0.00 0.0 0.00	19.1397360036	0.00	0.00	Cloudy(cloudy)	True	False	0.00
2011-02-02 00:00:00 36253 0 0.00 0.00 0.00 0.0 0.00	6.18087182824	0.00	0.00	Freezing_Drizzle(light_freezing_rain)	True	False	0.00
2011-02-02 01:00:00 36254 1 0.00 0.00 0.00 0.0 0.00	6.18087182824	0.00	0.00	Freezing_Drizzle(light_freezing_rain)	True	False	0.00
2011-02-02 02:00:00 36255 2 0.00 0.00 0.00 0.0 0.00	6.18087182824	0.00	0.00	Freezing_Drizzle(wintry_mix)	True	False	0.00
2011-02-02 03:00:00 36256 3 0.00 0.00 0.00 0.0 0.00	3.45765345765	0.00	0.00	Wintry_Mix(freezing_rain)	True	False	0.00
2011-02-02 04:00:00 36257 4 0.00 0.00 0.00 0.0 0.00	3.45765345765	0.00	0.00	Wintry_Mix(freezing_rain)	True	False	0.00
2011-02-02 05:00:00 36258 5 0.00 0.00 0.00 0.0 0.00	3.45765345765	0.00	0.00	Wintry_Mix(light_freezing_rain)	True	False	0.00
2011-02-02 06:00:00 36259 6 0.00 0.00 0.00 0.0 0.00	3.45765345765	0.00	0.00	Wintry_Mix(light_freezing_rain)	True	False	0.00
2011-02-02 07:00:00 36260 7 3.25 3.25 3.25 0.0 94.10	3.45765345765	3.25	0.00	Wintry_Mix(freezing_rain)	True	False	0.00
2011-02-02 08:00:00 36261 8 15.19 15.19 15.19 1.0 439.40	3.45765345765	15.19	1.00	Wintry_Mix(wintry_mix)	True	False	1.00
2011-02-02 09:00:00 36262 9 25.95 25.95 25.95 20.5 750.60	3.45765345765	25.95	20.50	Rain(light_rain)	True	False	20.50
2011-02-02 10:00:00 36263 10 33.11 33.11 33.11 43.8 957.70	3.45765345765	33.11	43.80	Rain(cloudy)	True	False	43.80
2011-02-02 11:00:00 36264 11 36.31 36.31 36.31 91.7 1050.00	3.45765345765	36.31	91.70	Rain(cloudy)	True	False	91.70
2011-02-02 12:00:00 36265 12 36.65 36.65 36.65 131.5 1060.00	3.45765345765	36.65	131.50	Rain(cloudy)	True	False	131.50
2011-02-02 13:00:00 36266 13 33.42 33.42 33.42 139.2 966.60	3.45765345765	33.42	139.20	Rain(fog)	True	False	139.20
2011-02-02 14:00:00 36267 14 27.57 27.57 27.57 137.0 797.50	3.45765345765	27.57	137.00	Rain(fog)	True	False	137.00
2011-02-02 15:00:00 36268 15 2.15 2.15 2.15 92.4 514.80	0.417667327973	2.15	92.40	Rain_/_Snow_Showers(cloudy)	True	False	92.40
2011-02-02 16:00:00 36269 16 0.64 0.64 0.64 28.9 153.70	0.417667327973	0.64	28.90	Rain_/_Snow_Showers(fog)	True	False	28.90
2011-02-02 17:00:00 36270 17 0.01 0.01 0.01 0.0 3.10	0.417667327973	0.01	0.00	Rain_/_Snow_Showers(cloudy)	True	False	0.00
2011-02-02 18:00:00 36271 18 0.00 0.00 0.00 0.0 0.00	19.1397360036	0.00	0.00	Cloudy(partly_cloudy)	True	False	0.00
