2011-01-12 08:00:00 13727 8 117.23 117.23 117.23 0.0 349.90	33.5051546392	117.23	0.00	Cloudy(fair)	True	False	0.00
2011-01-12 09:00:00 13728 9 352.74 352.74 352.74 0.5 668.20	52.7897425624	352.74	0.50	Partly_Cloudy(fair)	True	False	0.50
2011-01-12 10:00:00 13729 10 491.35 491.35 491.35 5.3 891.50	55.1154132539	491.35	5.30	Mostly_Cloudy(haze)	True	False	5.30
2011-01-12 11:00:00 13730 11 532.19 532.19 532.19 8.0 965.60	55.1154132539	532.19	8.00	Mostly_Cloudy(light_snow)	True	False	8.00
2011-01-12 12:00:00 13731 12 550.22 550.22 550.22 15.7 998.30	55.1154132539	550.22	15.70	Mostly_Cloudy(cloudy)	True	False	15.70
2011-01-12 13:00:00 13732 13 476.20 476.20 476.20 14.9 864.00	55.1154132539	476.20	14.90	Mostly_Cloudy(light_snow)	True	False	14.90
2011-01-12 14:00:00 13733 14 192.75 192.75 192.75 11.4 671.50	28.7037037037	192.75	11.40	Few_Snow_Showers(light_snow)	True	False	11.40
2011-01-12 15:00:00 13734 15 101.64 101.64 101.64 11.8 354.10	28.7037037037	101.64	11.80	Few_Snow_Showers(light_snow)	True	False	11.80
2011-01-12 16:00:00 13735 16 19.03 19.03 19.03 0.0 66.30	28.7037037037	19.03	0.00	Few_Snow_Showers(cloudy)	True	False	0.00
2011-01-12 17:00:00 13736 17 0.09 0.09 0.09 0.0 0.30	28.7037037037	0.09	0.00	Few_Snow_Showers(light_snow)	True	False	0.00
2011-01-12 18:00:00 13737 18 0.00 0.00 0.00 0.0 0.00	28.7037037037	0.00	0.00	Few_Snow_Showers(cloudy)	True	False	0.00
2011-01-12 19:00:00 13738 19 0.00 0.00 0.00 0.0 0.00	28.7037037037	0.00	0.00	Few_Snow_Showers(cloudy)	True	False	0.00
2011-01-12 20:00:00 13739 20 0.00 0.00 0.00 0.0 0.00	28.7037037037	0.00	0.00	Few_Snow_Showers(cloudy)	True	False	0.00
2011-01-12 21:00:00 13740 21 0.00 0.00 0.00 0.0 0.00	28.7037037037	0.00	0.00	Few_Snow_Showers(mostly_cloudy)	True	False	0.00
2011-01-12 22:00:00 13741 22 0.00 0.00 0.00 0.0 0.00	28.7037037037	0.00	0.00	Few_Snow_Showers(mostly_cloudy)	True	False	0.00
2011-01-12 23:00:00 13742 23 0.00 0.00 0.00 0.0 0.00	28.7037037037	0.00	0.00	Few_Snow_Showers(mostly_cloudy)	True	False	0.00
2011-01-13 00:00:00 13743 0 0.00 0.00 0.00 0.0 0.00	48.2137753644	0.00	0.00	Mostly_Cloudy(fair)	True	False	0.00
2011-01-13 01:00:00 13744 1 0.00 0.00 0.00 0.0 0.00	48.2137753644	0.00	0.00	Mostly_Cloudy(fair)	True	False	0.00
2011-01-13 02:00:00 13745 2 0.00 0.00 0.00 0.0 0.00	48.2137753644	0.00	0.00	Mostly_Cloudy(fair)	True	False	0.00
2011-01-13 03:00:00 13746 3 0.00 0.00 0.00 0.0 0.00	52.7897425624	0.00	0.00	Partly_Cloudy(fair)	True	False	0.00
2011-01-13 04:00:00 13747 4 0.00 0.00 0.00 0.0 0.00	52.7897425624	0.00	0.00	Partly_Cloudy(fair)	True	False	0.00
2011-01-13 05:00:00 13748 5 0.00 0.00 0.00 0.0 0.00	52.7897425624	0.00	0.00	Partly_Cloudy(fair)	True	False	0.00
2011-01-13 06:00:00 13749 6 0.00 0.00 0.00 0.0 0.00	52.7897425624	0.00	0.00	Mostly_Clear(fair)	False	False	0.00
2011-01-13 07:00:00 13750 7 20.48 20.48 20.48 0.2 38.80	52.7897425624	20.48	0.20	Mostly_Clear(fair)	False	False	0.20
2011-01-13 08:00:00 13751 8 184.71 184.71 184.71 15.9 349.90	52.7897425624	184.71	15.90	Mostly_Sunny(fair)	False	False	15.90
2011-01-13 09:00:00 13752 9 594.86 594.86 594.86 40.8 668.20	89.0245718541	594.86	40.80	Sunny(fair)	True	False	40.80
2011-01-13 10:00:00 13753 10 815.68 815.68 815.68 68.0 891.50	91.4955424221	815.68	68.00	Sunny(fair)	True	False	68.00
2011-01-13 11:00:00 13754 11 883.48 883.48 883.48 116.4 965.60	91.4955424221	883.48	116.40	Sunny(fair)	True	False	116.40
2011-01-13 12:00:00 13755 12 913.40 913.40 913.40 173.0 998.30	91.4955424221	913.40	173.00	Mostly_Sunny(fair)	False	False	173.00
2011-01-13 13:00:00 13756 13 790.52 790.52 790.52 203.9 864.00	91.4955424221	790.52	203.90	Mostly_Sunny(fair)	False	False	203.90
2011-01-13 14:00:00 13757 14 614.39 614.39 614.39 181.3 671.50	91.4955424221	614.39	181.30	Mostly_Sunny(Unkown)	False	False	181.30
2011-01-13 15:00:00 13758 15 323.99 323.99 323.99 95.1 354.10	91.4955424221	323.99	95.10	Sunny(fair)	True	False	95.10
2011-01-13 16:00:00 13759 16 59.02 59.02 59.02 6.8 66.30	89.0245718541	59.02	6.80	Sunny(fair)	True	False	6.80
2011-01-13 17:00:00 13760 17 0.27 0.27 0.27 0.0 0.30	89.0245718541	0.27	0.00	Clear(fair)	True	False	0.00
2011-01-13 18:00:00 13761 18 0.00 0.00 0.00 0.0 0.00	89.0245718541	0.00	0.00	Mostly_Clear(fair)	False	False	0.00
2011-01-13 19:00:00 13762 19 0.00 0.00 0.00 0.0 0.00	89.0245718541	0.00	0.00	Mostly_Clear(fair)	False	False	0.00
2011-01-13 20:00:00 13763 20 0.00 0.00 0.00 0.0 0.00	89.0245718541	0.00	0.00	Mostly_Clear(fair)	False	False	0.00
2011-01-13 21:00:00 13764 21 0.00 0.00 0.00 0.0 0.00	89.0245718541	0.00	0.00	Clear(fair)	True	False	0.00
2011-01-13 22:00:00 13765 22 0.00 0.00 0.00 0.0 0.00	89.0245718541	0.00	0.00	Clear(fair)	True	False	0.00
2011-01-13 23:00:00 13766 23 0.00 0.00 0.00 0.0 0.00	89.0245718541	0.00	0.00	Clear(fair)	True	False	0.00
2011-01-14 00:00:00 13767 0 0.00 0.00 0.00 0.0 0.00	89.0245718541	0.00	0.00	Clear(fair)	True	False	0.00
2011-01-14 01:00:00 13768 1 0.00 0.00 0.00 0.0 0.00	89.0245718541	0.00	0.00	Clear(fair)	True	False	0.00
2011-01-14 02:00:00 13769 2 0.00 0.00 0.00 0.0 0.00	89.0245718541	0.00	0.00	Clear(fair)	True	False	0.00
2011-01-14 03:00:00 13770 3 0.00 0.00 0.00 0.0 0.00	89.0245718541	0.00	0.00	Mostly_Clear(fair)	False	False	0.00
2011-01-14 04:00:00 13771 4 0.00 0.00 0.00 0.0 0.00	89.0245718541	0.00	0.00	Mostly_Clear(fair)	False	False	0.00
2011-01-14 05:00:00 13772 5 0.00 0.00 0.00 0.0 0.00	89.0245718541	0.00	0.00	Mostly_Clear(fair)	False	False	0.00
2011-01-14 06:00:00 13773 6 0.00 0.00 0.00 0.0 0.00	48.2137753644	0.00	0.00	Mostly_Cloudy(fair)	True	False	0.00
2011-01-14 07:00:00 13774 7 18.71 18.71 18.71 0.9 38.80	48.2137753644	18.71	0.90	Mostly_Cloudy(fair)	True	False	0.90
2011-01-14 08:00:00 13775 8 168.70 168.70 168.70 56.4 349.90	48.2137753644	168.70	56.40	Mostly_Cloudy(fair)	True	False	56.40
