2011-01-22 05:00:00 25195 5 0.00 0.00 0.00 0.0 0.00	82.2713378791	0.00	0.00	Clear(fair)	True	False	0.00
2011-01-22 06:00:00 25196 6 0.00 0.00 0.00 0.0 0.00	82.2713378791	0.00	0.00	Clear(fair)	True	False	0.00
2011-01-22 07:00:00 25197 7 56.77 56.77 56.77 7.1 69.00	82.2713378791	56.77	7.10	Mostly_Clear(fair)	False	False	7.10
2011-01-22 08:00:00 25198 8 349.90 349.90 349.90 60.9 425.30	82.2713378791	349.90	60.90	Mostly_Sunny(fair)	False	False	60.90
2011-01-22 09:00:00 25199 9 352.40 352.40 352.40 135.7 750.60	46.9491073808	352.40	135.70	Partly_Cloudy(fair)	True	False	135.70
2011-01-22 10:00:00 25200 10 567.09 567.09 567.09 151.3 957.70	59.2137913021	567.09	151.30	Partly_Cloudy(fair)	True	False	151.30
2011-01-22 11:00:00 25201 11 621.74 621.74 621.74 151.0 1050.00	59.2137913021	621.74	151.00	Partly_Cloudy(fair)	True	False	151.00
2011-01-22 12:00:00 25202 12 349.10 349.10 349.10 174.7 1055.60	33.0712391057	349.10	174.70	Mostly_Cloudy(fair)	True	False	174.70
2011-01-22 13:00:00 25203 13 311.99 311.99 311.99 143.0 943.40	33.0712391057	311.99	143.00	Mostly_Cloudy(fair)	True	False	143.00
2011-01-22 14:00:00 25204 14 253.23 253.23 253.23 127.0 765.70	33.0712391057	253.23	127.00	Mostly_Cloudy(fair)	True	False	127.00
2011-01-22 15:00:00 25205 15 157.58 157.58 157.58 82.7 476.50	33.0712391057	157.58	82.70	Mostly_Cloudy(fair)	True	False	82.70
2011-01-22 16:00:00 25206 16 38.24 38.24 38.24 14.7 123.20	31.0380952381	38.24	14.70	Mostly_Cloudy(fair)	True	False	14.70
2011-01-22 17:00:00 25207 17 0.43 0.43 0.43 0.0 1.40	31.0380952381	0.43	0.00	Mostly_Cloudy(fair)	True	False	0.00
2011-01-22 18:00:00 25208 18 0.00 0.00 0.00 0.0 0.00	46.9491073808	0.00	0.00	Partly_Cloudy(fair)	True	False	0.00
2011-01-22 19:00:00 25209 19 0.00 0.00 0.00 0.0 0.00	46.9491073808	0.00	0.00	Partly_Cloudy(fair)	True	False	0.00
2011-01-22 20:00:00 25210 20 0.00 0.00 0.00 0.0 0.00	46.9491073808	0.00	0.00	Partly_Cloudy(fair)	True	False	0.00
2011-01-22 21:00:00 25211 21 0.00 0.00 0.00 0.0 0.00	46.9491073808	0.00	0.00	Partly_Cloudy(fair)	True	False	0.00
2011-01-22 22:00:00 25212 22 0.00 0.00 0.00 0.0 0.00	46.9491073808	0.00	0.00	Partly_Cloudy(fair)	True	False	0.00
2011-01-22 23:00:00 25213 23 0.00 0.00 0.00 0.0 0.00	46.9491073808	0.00	0.00	Partly_Cloudy(fair)	True	False	0.00
2011-01-23 00:00:00 25214 0 0.00 0.00 0.00 0.0 0.00	46.9491073808	0.00	0.00	Partly_Cloudy(fair)	True	False	0.00
2011-01-23 01:00:00 25215 1 0.00 0.00 0.00 0.0 0.00	46.9491073808	0.00	0.00	Partly_Cloudy(fair)	True	False	0.00
2011-01-23 02:00:00 25216 2 0.00 0.00 0.00 0.0 0.00	46.9491073808	0.00	0.00	Partly_Cloudy(fair)	True	False	0.00
2011-01-23 03:00:00 25217 3 0.00 0.00 0.00 0.0 0.00	46.9491073808	0.00	0.00	Partly_Cloudy(fair)	True	False	0.00
2011-01-23 04:00:00 25218 4 0.00 0.00 0.00 0.0 0.00	46.9491073808	0.00	0.00	Partly_Cloudy(fair)	True	False	0.00
2011-01-23 05:00:00 25219 5 0.00 0.00 0.00 0.0 0.00	46.9491073808	0.00	0.00	Partly_Cloudy(fair)	True	False	0.00
2011-01-23 06:00:00 25220 6 0.00 0.00 0.00 0.0 0.00	46.9491073808	0.00	0.00	Partly_Cloudy(fair)	True	False	0.00
2011-01-23 07:00:00 25221 7 32.39 32.39 32.39 10.3 69.00	46.9491073808	32.39	10.30	Partly_Cloudy(fair)	True	False	10.30
2011-01-23 08:00:00 25222 8 199.67 199.67 199.67 97.7 425.30	46.9491073808	199.67	97.70	Partly_Cloudy(fair)	True	False	97.70
2011-01-23 09:00:00 25223 9 352.40 352.40 352.40 191.7 750.60	46.9491073808	352.40	191.70	Mostly_Sunny(fair)	False	False	191.70
2011-01-23 10:00:00 25224 10 449.63 449.63 449.63 264.2 957.70	46.9491073808	449.63	264.20	Mostly_Sunny(fair)	False	False	264.20
2011-01-23 11:00:00 25225 11 492.97 492.97 492.97 319.4 1050.00	46.9491073808	492.97	319.40	Mostly_Sunny(fair)	False	False	319.40
2011-01-23 12:00:00 25226 12 625.06 625.06 625.06 356.8 1055.60	59.2137913021	625.06	356.80	Partly_Cloudy(fair)	True	False	356.80
2011-01-23 13:00:00 25227 13 558.62 558.62 558.62 340.4 943.40	59.2137913021	558.62	340.40	Partly_Cloudy(fair)	True	False	340.40
2011-01-23 14:00:00 25228 14 453.40 453.40 453.40 289.7 765.70	59.2137913021	453.40	289.70	Partly_Cloudy(fair)	True	False	289.70
2011-01-23 15:00:00 25229 15 282.15 282.15 282.15 140.1 476.50	59.2137913021	282.15	140.10	Partly_Cloudy(fair)	True	False	140.10
2011-01-23 16:00:00 25230 16 57.84 57.84 57.84 20.4 123.20	46.9491073808	57.84	20.40	Partly_Cloudy(fair)	True	False	20.40
2011-01-23 17:00:00 25231 17 0.66 0.66 0.66 0.0 1.40	46.9491073808	0.66	0.00	Partly_Cloudy(fair)	True	False	0.00
2011-01-23 18:00:00 25232 18 0.00 0.00 0.00 0.0 0.00	46.9491073808	0.00	0.00	Mostly_Clear(fair)	False	False	0.00
2011-01-23 19:00:00 25233 19 0.00 0.00 0.00 0.0 0.00	46.9491073808	0.00	0.00	Mostly_Clear(fair)	False	False	0.00
2011-01-23 20:00:00 25234 20 0.00 0.00 0.00 0.0 0.00	46.9491073808	0.00	0.00	Mostly_Clear(fair)	False	False	0.00
2011-01-23 21:00:00 25235 21 0.00 0.00 0.00 0.0 0.00	82.2713378791	0.00	0.00	Clear(fair)	True	False	0.00
2011-01-23 22:00:00 25236 22 0.00 0.00 0.00 0.0 0.00	82.2713378791	0.00	0.00	Clear(fair)	True	False	0.00
2011-01-23 23:00:00 25237 23 0.00 0.00 0.00 0.0 0.00	82.2713378791	0.00	0.00	Clear(fair)	True	False	0.00
2011-01-24 00:00:00 25238 0 0.00 0.00 0.00 0.0 0.00	82.2713378791	0.00	0.00	Clear(fair)	True	False	0.00
2011-01-24 01:00:00 25239 1 0.00 0.00 0.00 0.0 0.00	82.2713378791	0.00	0.00	Clear(fair)	True	False	0.00
2011-01-24 02:00:00 25240 2 0.00 0.00 0.00 0.0 0.00	82.2713378791	0.00	0.00	Clear(fair)	True	False	0.00
2011-01-24 03:00:00 25241 3 0.00 0.00 0.00 0.0 0.00	82.2713378791	0.00	0.00	Mostly_Clear(fair)	False	False	0.00
2011-01-24 04:00:00 25242 4 0.00 0.00 0.00 0.0 0.00	82.2713378791	0.00	0.00	Mostly_Clear(fair)	False	False	0.00
2011-01-24 05:00:00 25243 5 0.00 0.00 0.00 0.0 0.00	82.2713378791	0.00	0.00	Mostly_Clear(fair)	False	False	0.00
