2011-01-19 20:00:00 22430 20 0.00 0.00 0.00 0.0 0.00	35.3281599369	0.00	0.00	Mostly_Cloudy(cloudy)	True	False	0.00
2011-01-19 21:00:00 22431 21 0.00 0.00 0.00 0.0 0.00	52.0302592057	0.00	0.00	Partly_Cloudy(cloudy)	True	False	0.00
2011-01-19 22:00:00 22432 22 0.00 0.00 0.00 0.0 0.00	52.0302592057	0.00	0.00	Partly_Cloudy(cloudy)	True	False	0.00
2011-01-19 23:00:00 22433 23 0.00 0.00 0.00 0.0 0.00	52.0302592057	0.00	0.00	Partly_Cloudy(cloudy)	True	False	0.00
2011-01-20 00:00:00 22434 0 0.00 0.00 0.00 0.0 0.00	52.0302592057	0.00	0.00	Partly_Cloudy(cloudy)	True	False	0.00
2011-01-20 01:00:00 22435 1 0.00 0.00 0.00 0.0 0.00	52.0302592057	0.00	0.00	Partly_Cloudy(cloudy)	True	False	0.00
2011-01-20 02:00:00 22436 2 0.00 0.00 0.00 0.0 0.00	52.0302592057	0.00	0.00	Mostly_Clear(cloudy)	False	False	0.00
2011-01-20 03:00:00 22437 3 0.00 0.00 0.00 0.0 0.00	85.3751914242	0.00	0.00	Clear(cloudy)	True	False	0.00
2011-01-20 04:00:00 22438 4 0.00 0.00 0.00 0.0 0.00	85.3751914242	0.00	0.00	Clear(cloudy)	True	False	0.00
2011-01-20 05:00:00 22439 5 0.00 0.00 0.00 0.0 0.00	85.3751914242	0.00	0.00	Clear(cloudy)	True	False	0.00
2011-01-20 06:00:00 22440 6 0.00 0.00 0.00 0.0 0.00	85.3751914242	0.00	0.00	Mostly_Clear(cloudy)	False	False	0.00
2011-01-20 07:00:00 22441 7 46.19 46.19 46.19 26.0 54.10	85.3751914242	46.19	26.00	Mostly_Clear(mostly_cloudy)	False	False	26.00
2011-01-20 08:00:00 22442 8 334.50 334.50 334.50 132.4 391.80	85.3751914242	334.50	132.40	Mostly_Sunny(mostly_cloudy)	False	False	132.40
2011-01-20 09:00:00 22443 9 363.90 363.90 363.90 466.6 699.40	52.0302592057	363.90	466.60	Partly_Cloudy(fair)	True	False	466.60
2011-01-20 10:00:00 22444 10 629.59 629.59 629.59 594.7 898.90	70.0402144772	629.59	594.70	Partly_Cloudy(fair)	True	False	594.70
2011-01-20 11:00:00 22445 11 712.17 712.17 712.17 543.8 1016.80	70.0402144772	712.17	543.80	Partly_Cloudy(fair)	True	False	543.80
2011-01-20 12:00:00 22446 12 461.81 461.81 461.81 739.3 1027.70	44.9365027678	461.81	739.30	Mostly_Cloudy(fair)	True	False	739.30
2011-01-20 13:00:00 22447 13 414.00 414.00 414.00 606.7 921.30	44.9365027678	414.00	606.70	Mostly_Cloudy(fair)	True	False	606.70
2011-01-20 14:00:00 22448 14 341.65 341.65 341.65 304.2 760.30	44.9365027678	341.65	304.20	Mostly_Cloudy(fair)	True	False	304.20
2011-01-20 15:00:00 22449 15 137.23 137.23 137.23 201.0 447.60	30.6589504143	137.23	201.00	Cloudy(partly_cloudy)	True	False	201.00
2011-01-20 16:00:00 22450 16 30.80 30.80 30.80 35.8 101.90	30.2222659323	30.80	35.80	Cloudy(fair)	True	False	35.80
2011-01-20 17:00:00 22451 17 0.30 0.30 0.30 0.0 1.00	30.2222659323	0.30	0.00	Cloudy(fair)	True	False	0.00
2011-01-20 18:00:00 22452 18 0.00 0.00 0.00 0.0 0.00	30.2222659323	0.00	0.00	Cloudy(fair)	True	False	0.00
2011-01-20 19:00:00 22453 19 0.00 0.00 0.00 0.0 0.00	30.2222659323	0.00	0.00	Cloudy(mostly_cloudy)	True	False	0.00
2011-01-20 20:00:00 22454 20 0.00 0.00 0.00 0.0 0.00	30.2222659323	0.00	0.00	Cloudy(cloudy)	True	False	0.00
2011-01-20 21:00:00 22455 21 0.00 0.00 0.00 0.0 0.00	4.67237735009	0.00	0.00	Few_Snow_Showers(cloudy)	True	False	0.00
2011-01-20 22:00:00 22456 22 0.00 0.00 0.00 0.0 0.00	4.67237735009	0.00	0.00	Few_Snow_Showers(cloudy)	True	False	0.00
2011-01-20 23:00:00 22457 23 0.00 0.00 0.00 0.0 0.00	4.67237735009	0.00	0.00	Few_Snow_Showers(cloudy)	True	False	0.00
2011-01-21 00:00:00 22458 0 0.00 0.00 0.00 0.0 0.00	20.0578718927	0.00	0.00	Snow(mostly_cloudy)	True	False	0.00
2011-01-21 01:00:00 22459 1 0.00 0.00 0.00 0.0 0.00	20.0578718927	0.00	0.00	Snow(cloudy)	True	False	0.00
2011-01-21 02:00:00 22460 2 0.00 0.00 0.00 0.0 0.00	20.0578718927	0.00	0.00	Snow(snow)	True	False	0.00
2011-01-21 03:00:00 22461 3 0.00 0.00 0.00 0.0 0.00	20.0578718927	0.00	0.00	Snow(snow)	True	False	0.00
2011-01-21 04:00:00 22462 4 0.00 0.00 0.00 0.0 0.00	20.0578718927	0.00	0.00	Snow(light_snow)	True	False	0.00
2011-01-21 05:00:00 22463 5 0.00 0.00 0.00 0.0 0.00	20.0578718927	0.00	0.00	Snow(light_snow)	True	False	0.00
2011-01-21 06:00:00 22464 6 0.00 0.00 0.00 0.0 0.00	20.0578718927	0.00	0.00	Snow(light_snow)	True	False	0.00
2011-01-21 07:00:00 22465 7 10.85 10.85 10.85 0.0 54.10	20.0578718927	10.85	0.00	Snow(cloudy)	True	False	0.00
2011-01-21 08:00:00 22466 8 78.59 78.59 78.59 0.6 391.80	20.0578718927	78.59	0.60	Snow(fair)	True	False	0.60
2011-01-21 09:00:00 22467 9 140.28 140.28 140.28 8.3 699.40	20.0578718927	140.28	8.30	Snow_Shower(fair)	True	False	8.30
2011-01-21 10:00:00 22468 10 180.30 180.30 180.30 21.0 898.90	20.0578718927	180.30	21.00	Snow_Shower(light_snow)	True	False	21.00
2011-01-21 11:00:00 22469 11 203.95 203.95 203.95 26.5 1016.80	20.0578718927	203.95	26.50	Snow_Shower(light_snow)	True	False	26.50
2011-01-21 12:00:00 22470 12 461.81 461.81 461.81 32.6 1027.70	44.9365027678	461.81	32.60	Mostly_Cloudy(fair)	True	False	32.60
2011-01-21 13:00:00 22471 13 414.00 414.00 414.00 107.0 921.30	44.9365027678	414.00	107.00	Mostly_Cloudy(cloudy)	True	False	107.00
2011-01-21 14:00:00 22472 14 341.65 341.65 341.65 117.7 760.30	44.9365027678	341.65	117.70	Mostly_Cloudy(light_snow)	True	False	117.70
2011-01-21 15:00:00 22473 15 313.50 313.50 313.50 46.0 447.60	70.0402144772	313.50	46.00	Partly_Cloudy(cloudy)	True	False	46.00
2011-01-21 16:00:00 22474 16 53.02 53.02 53.02 11.2 101.90	52.0302592057	53.02	11.20	Partly_Cloudy(mostly_cloudy)	True	False	11.20
2011-01-21 17:00:00 22475 17 0.52 0.52 0.52 0.0 1.00	52.0302592057	0.52	0.00	Partly_Cloudy(mostly_cloudy)	True	False	0.00
2011-01-21 18:00:00 22476 18 0.00 0.00 0.00 0.0 0.00	85.3751914242	0.00	0.00	Clear(mostly_cloudy)	True	False	0.00
