2011-01-02 07:00:00 2240 7 1.44 1.44 1.44 0.0 24.50	5.89584015722	1.44	0.00	Foggy(fog)	True	False	0.00
2011-01-02 08:00:00 2241 8 18.00 18.00 18.00 10.5 305.30	5.89584015722	18.00	10.50	Foggy(fog)	True	False	10.50
2011-01-02 09:00:00 2242 9 38.52 38.52 38.52 31.3 653.30	5.89584015722	38.52	31.30	Foggy(fog)	True	False	31.30
2011-01-02 10:00:00 2243 10 106.50 106.50 106.50 137.1 891.50	11.9461581604	106.50	137.10	Foggy(fog)	True	False	137.10
2011-01-02 11:00:00 2244 11 406.00 406.00 406.00 222.3 962.40	42.1862011638	406.00	222.30	Cloudy(cloudy)	True	False	222.30
2011-01-02 12:00:00 2245 12 526.50 526.50 526.50 364.9 998.30	52.7396574176	526.50	364.90	Mostly_Cloudy(light_rain)	True	False	364.90
2011-01-02 13:00:00 2246 13 437.05 437.05 437.05 136.2 828.70	52.7396574176	437.05	136.20	Mostly_Cloudy(cloudy)	True	False	136.20
2011-01-02 14:00:00 2247 14 0.00 0.00 0.00 63.7 623.70	0.0	0.00	63.70	Few_Showers(light_rain)	True	False	63.70
2011-01-02 15:00:00 2248 15 0.00 0.00 0.00 13.0 313.50	0.0	0.00	13.00	Few_Showers(cloudy)	True	False	13.00
2011-01-02 16:00:00 2249 16 0.00 0.00 0.00 0.0 43.20	0.0	0.00	0.00	Few_Showers(cloudy)	True	False	0.00
2011-01-02 17:00:00 2250 17 0.00 0.00 0.00 0.0 0.00	0.0	0.00	0.00	Few_Showers(light_rain)	True	False	0.00
2011-01-02 18:00:00 2251 18 0.00 0.00 0.00 0.0 0.00	49.9577651744	0.00	0.00	Mostly_Cloudy(cloudy)	True	False	0.00
2011-01-02 19:00:00 2252 19 0.00 0.00 0.00 0.0 0.00	49.9577651744	0.00	0.00	Mostly_Cloudy(cloudy)	True	False	0.00
2011-01-02 20:00:00 2253 20 0.00 0.00 0.00 0.0 0.00	49.9577651744	0.00	0.00	Mostly_Cloudy(mostly_cloudy)	True	False	0.00
2011-01-02 21:00:00 2254 21 0.00 0.00 0.00 0.0 0.00	71.0648148148	0.00	0.00	Partly_Cloudy(fair)	True	False	0.00
2011-01-02 22:00:00 2255 22 0.00 0.00 0.00 0.0 0.00	71.0648148148	0.00	0.00	Partly_Cloudy(fair)	True	False	0.00
2011-01-02 23:00:00 2256 23 0.00 0.00 0.00 0.0 0.00	71.0648148148	0.00	0.00	Partly_Cloudy(fair)	True	False	0.00
2011-01-03 00:00:00 2257 0 0.00 0.00 0.00 0.0 0.00	71.0648148148	0.00	0.00	Mostly_Clear(fair)	False	False	0.00
2011-01-03 01:00:00 2258 1 0.00 0.00 0.00 0.0 0.00	71.0648148148	0.00	0.00	Mostly_Clear(fair)	False	False	0.00
2011-01-03 02:00:00 2259 2 0.00 0.00 0.00 0.0 0.00	71.0648148148	0.00	0.00	Mostly_Clear(fair)	False	False	0.00
2011-01-03 03:00:00 2260 3 0.00 0.00 0.00 0.0 0.00	92.7265170407	0.00	0.00	Clear(fair)	True	False	0.00
2011-01-03 04:00:00 2261 4 0.00 0.00 0.00 0.0 0.00	92.7265170407	0.00	0.00	Clear(fair)	True	False	0.00
2011-01-03 05:00:00 2262 5 0.00 0.00 0.00 0.0 0.00	92.7265170407	0.00	0.00	Clear(fair)	True	False	0.00
2011-01-03 06:00:00 2263 6 0.00 0.00 0.00 0.0 0.00	92.7265170407	0.00	0.00	Clear(fair)	True	False	0.00
2011-01-03 07:00:00 2264 7 22.72 22.72 22.72 20.3 24.50	92.7265170407	22.72	20.30	Clear(fair)	True	False	20.30
2011-01-03 08:00:00 2265 8 283.09 283.09 283.09 287.1 305.30	92.7265170407	283.09	287.10	Sunny(fair)	True	False	287.10
2011-01-03 09:00:00 2266 9 605.78 605.78 605.78 627.3 653.30	92.7265170407	605.78	627.30	Sunny(fair)	True	False	627.30
2011-01-03 10:00:00 2267 10 819.60 819.60 819.60 818.1 891.50	91.9352252686	819.60	818.10	Sunny(fair)	True	False	818.10
2011-01-03 11:00:00 2268 11 884.78 884.78 884.78 919.3 962.40	91.9352252686	884.78	919.30	Sunny(fair)	True	False	919.30
2011-01-03 12:00:00 2269 12 917.79 917.79 917.79 915.9 998.30	91.9352252686	917.79	915.90	Sunny(fair)	True	False	915.90
2011-01-03 13:00:00 2270 13 761.87 761.87 761.87 783.1 828.70	91.9352252686	761.87	783.10	Sunny(fair)	True	False	783.10
2011-01-03 14:00:00 2271 14 573.40 573.40 573.40 571.7 623.70	91.9352252686	573.40	571.70	Sunny(fair)	True	False	571.70
2011-01-03 15:00:00 2272 15 288.22 288.22 288.22 236.0 313.50	91.9352252686	288.22	236.00	Sunny(fair)	True	False	236.00
2011-01-03 16:00:00 2273 16 40.06 40.06 40.06 14.9 43.20	92.7265170407	40.06	14.90	Sunny(fair)	True	False	14.90
2011-01-03 17:00:00 2274 17 0.00 0.00 0.00 0.0 0.00	92.7265170407	0.00	0.00	Clear(fair)	True	False	0.00
2011-01-03 18:00:00 2275 18 0.00 0.00 0.00 0.0 0.00	71.0648148148	0.00	0.00	Partly_Cloudy(fair)	True	False	0.00
2011-01-03 19:00:00 2276 19 0.00 0.00 0.00 0.0 0.00	71.0648148148	0.00	0.00	Partly_Cloudy(fair)	True	False	0.00
2011-01-03 20:00:00 2277 20 0.00 0.00 0.00 0.0 0.00	71.0648148148	0.00	0.00	Partly_Cloudy(fair)	True	False	0.00
2011-01-03 21:00:00 2278 21 0.00 0.00 0.00 0.0 0.00	71.0648148148	0.00	0.00	Partly_Cloudy(fair)	True	False	0.00
2011-01-03 22:00:00 2279 22 0.00 0.00 0.00 0.0 0.00	71.0648148148	0.00	0.00	Partly_Cloudy(fair)	True	False	0.00
2011-01-03 23:00:00 2280 23 0.00 0.00 0.00 0.0 0.00	71.0648148148	0.00	0.00	Partly_Cloudy(fair)	True	False	0.00
2011-01-04 00:00:00 2281 0 0.00 0.00 0.00 0.0 0.00	71.0648148148	0.00	0.00	Partly_Cloudy(fair)	True	False	0.00
2011-01-04 01:00:00 2282 1 0.00 0.00 0.00 0.0 0.00	71.0648148148	0.00	0.00	Partly_Cloudy(fair)	True	False	0.00
2011-01-04 02:00:00 2283 2 0.00 0.00 0.00 0.0 0.00	71.0648148148	0.00	0.00	Partly_Cloudy(fair)	True	False	0.00
2011-01-04 03:00:00 2284 3 0.00 0.00 0.00 0.0 0.00	49.9577651744	0.00	0.00	Mostly_Cloudy(fair)	True	False	0.00
2011-01-04 04:00:00 2285 4 0.00 0.00 0.00 0.0 0.00	49.9577651744	0.00	0.00	Mostly_Cloudy(fair)	True	False	0.00
2011-01-04 05:00:00 2286 5 0.00 0.00 0.00 0.0 0.00	49.9577651744	0.00	0.00	Mostly_Cloudy(fair)	True	False	0.00
2011-01-04 06:00:00 2287 6 0.00 0.00 0.00 0.0 0.00	49.9577651744	0.00	0.00	Mostly_Cloudy(fair)	True	False	0.00
2011-01-04 07:00:00 2288 7 12.24 12.24 12.24 0.6 24.50	49.9577651744	12.24	0.60	Mostly_Cloudy(fair)	True	False	0.60
