2011-01-02 03:00:00 2056 3 0.00 0.00 0.00 0.0 0.00	41.7419256084	0.00	0.00	Cloudy(fog)	True	False	0.00
2011-01-02 04:00:00 2057 4 0.00 0.00 0.00 0.0 0.00	5.89584015722	0.00	0.00	Foggy(fog)	True	False	0.00
2011-01-02 05:00:00 2058 5 0.00 0.00 0.00 0.0 0.00	5.89584015722	0.00	0.00	Foggy(fog)	True	False	0.00
2011-01-02 06:00:00 2059 6 0.00 0.00 0.00 0.0 0.00	5.89584015722	0.00	0.00	Foggy(fog)	True	False	0.00
2011-01-02 07:00:00 2060 7 10.23 10.23 10.23 0.0 24.50	41.7419256084	10.23	0.00	Cloudy(fog)	True	False	0.00
2011-01-02 08:00:00 2061 8 127.44 127.44 127.44 10.5 305.30	41.7419256084	127.44	10.50	Cloudy(fog)	True	False	10.50
2011-01-02 09:00:00 2062 9 0.00 0.00 0.00 31.3 653.30	0.0	0.00	31.30	Showers(fog)	True	False	31.30
2011-01-02 10:00:00 2063 10 0.00 0.00 0.00 137.1 891.50	0.0	0.00	137.10	Showers(fog)	True	False	137.10
2011-01-02 11:00:00 2064 11 0.00 0.00 0.00 222.3 962.40	0.0	0.00	222.30	Showers(cloudy)	True	False	222.30
2011-01-02 12:00:00 2065 12 0.00 0.00 0.00 364.9 998.30	0.0	0.00	364.90	Few_Showers(light_rain)	True	False	364.90
2011-01-02 13:00:00 2066 13 0.00 0.00 0.00 136.2 828.70	0.0	0.00	136.20	Few_Showers(cloudy)	True	False	136.20
2011-01-02 14:00:00 2067 14 0.00 0.00 0.00 63.7 623.70	0.0	0.00	63.70	Few_Showers(light_rain)	True	False	63.70
2011-01-02 15:00:00 2068 15 0.00 0.00 0.00 13.0 313.50	0.0	0.00	13.00	Few_Showers(cloudy)	True	False	13.00
2011-01-02 16:00:00 2069 16 0.00 0.00 0.00 0.0 43.20	0.0	0.00	0.00	Few_Showers(cloudy)	True	False	0.00
2011-01-02 17:00:00 2070 17 0.00 0.00 0.00 0.0 0.00	0.0	0.00	0.00	Few_Showers(light_rain)	True	False	0.00
2011-01-02 18:00:00 2071 18 0.00 0.00 0.00 0.0 0.00	49.9577651744	0.00	0.00	Mostly_Cloudy(cloudy)	True	False	0.00
2011-01-02 19:00:00 2072 19 0.00 0.00 0.00 0.0 0.00	49.9577651744	0.00	0.00	Mostly_Cloudy(cloudy)	True	False	0.00
2011-01-02 20:00:00 2073 20 0.00 0.00 0.00 0.0 0.00	49.9577651744	0.00	0.00	Mostly_Cloudy(mostly_cloudy)	True	False	0.00
2011-01-02 21:00:00 2074 21 0.00 0.00 0.00 0.0 0.00	71.0648148148	0.00	0.00	Partly_Cloudy(fair)	True	False	0.00
2011-01-02 22:00:00 2075 22 0.00 0.00 0.00 0.0 0.00	71.0648148148	0.00	0.00	Partly_Cloudy(fair)	True	False	0.00
2011-01-02 23:00:00 2076 23 0.00 0.00 0.00 0.0 0.00	71.0648148148	0.00	0.00	Partly_Cloudy(fair)	True	False	0.00
2011-01-03 00:00:00 2077 0 0.00 0.00 0.00 0.0 0.00	71.0648148148	0.00	0.00	Mostly_Clear(fair)	False	False	0.00
2011-01-03 01:00:00 2078 1 0.00 0.00 0.00 0.0 0.00	71.0648148148	0.00	0.00	Mostly_Clear(fair)	False	False	0.00
2011-01-03 02:00:00 2079 2 0.00 0.00 0.00 0.0 0.00	71.0648148148	0.00	0.00	Mostly_Clear(fair)	False	False	0.00
2011-01-03 03:00:00 2080 3 0.00 0.00 0.00 0.0 0.00	92.7265170407	0.00	0.00	Clear(fair)	True	False	0.00
2011-01-03 04:00:00 2081 4 0.00 0.00 0.00 0.0 0.00	92.7265170407	0.00	0.00	Clear(fair)	True	False	0.00
2011-01-03 05:00:00 2082 5 0.00 0.00 0.00 0.0 0.00	92.7265170407	0.00	0.00	Clear(fair)	True	False	0.00
2011-01-03 06:00:00 2083 6 0.00 0.00 0.00 0.0 0.00	92.7265170407	0.00	0.00	Clear(fair)	True	False	0.00
2011-01-03 07:00:00 2084 7 22.72 22.72 22.72 20.3 24.50	92.7265170407	22.72	20.30	Clear(fair)	True	False	20.30
2011-01-03 08:00:00 2085 8 283.09 283.09 283.09 287.1 305.30	92.7265170407	283.09	287.10	Sunny(fair)	True	False	287.10
2011-01-03 09:00:00 2086 9 605.78 605.78 605.78 627.3 653.30	92.7265170407	605.78	627.30	Sunny(fair)	True	False	627.30
2011-01-03 10:00:00 2087 10 819.60 819.60 819.60 818.1 891.50	91.9352252686	819.60	818.10	Sunny(fair)	True	False	818.10
2011-01-03 11:00:00 2088 11 884.78 884.78 884.78 919.3 962.40	91.9352252686	884.78	919.30	Sunny(fair)	True	False	919.30
2011-01-03 12:00:00 2089 12 917.79 917.79 917.79 915.9 998.30	91.9352252686	917.79	915.90	Sunny(fair)	True	False	915.90
2011-01-03 13:00:00 2090 13 761.87 761.87 761.87 783.1 828.70	91.9352252686	761.87	783.10	Sunny(fair)	True	False	783.10
2011-01-03 14:00:00 2091 14 573.40 573.40 573.40 571.7 623.70	91.9352252686	573.40	571.70	Sunny(fair)	True	False	571.70
2011-01-03 15:00:00 2092 15 288.22 288.22 288.22 236.0 313.50	91.9352252686	288.22	236.00	Sunny(fair)	True	False	236.00
2011-01-03 16:00:00 2093 16 40.06 40.06 40.06 14.9 43.20	92.7265170407	40.06	14.90	Sunny(fair)	True	False	14.90
2011-01-03 17:00:00 2094 17 0.00 0.00 0.00 0.0 0.00	92.7265170407	0.00	0.00	Clear(fair)	True	False	0.00
2011-01-03 18:00:00 2095 18 0.00 0.00 0.00 0.0 0.00	71.0648148148	0.00	0.00	Partly_Cloudy(fair)	True	False	0.00
2011-01-03 19:00:00 2096 19 0.00 0.00 0.00 0.0 0.00	71.0648148148	0.00	0.00	Partly_Cloudy(fair)	True	False	0.00
2011-01-03 20:00:00 2097 20 0.00 0.00 0.00 0.0 0.00	71.0648148148	0.00	0.00	Partly_Cloudy(fair)	True	False	0.00
2011-01-03 21:00:00 2098 21 0.00 0.00 0.00 0.0 0.00	71.0648148148	0.00	0.00	Partly_Cloudy(fair)	True	False	0.00
2011-01-03 22:00:00 2099 22 0.00 0.00 0.00 0.0 0.00	71.0648148148	0.00	0.00	Partly_Cloudy(fair)	True	False	0.00
2011-01-03 23:00:00 2100 23 0.00 0.00 0.00 0.0 0.00	71.0648148148	0.00	0.00	Partly_Cloudy(fair)	True	False	0.00
2011-01-04 00:00:00 2101 0 0.00 0.00 0.00 0.0 0.00	71.0648148148	0.00	0.00	Partly_Cloudy(fair)	True	False	0.00
2011-01-04 01:00:00 2102 1 0.00 0.00 0.00 0.0 0.00	71.0648148148	0.00	0.00	Partly_Cloudy(fair)	True	False	0.00
2011-01-04 02:00:00 2103 2 0.00 0.00 0.00 0.0 0.00	71.0648148148	0.00	0.00	Partly_Cloudy(fair)	True	False	0.00
2011-01-04 03:00:00 2104 3 0.00 0.00 0.00 0.0 0.00	49.9577651744	0.00	0.00	Mostly_Cloudy(fair)	True	False	0.00
