2011-01-31 08:00:00 35746 8 369.94 369.94 369.94 211.4 439.40	84.1912916362	369.94	211.40	Mostly_Sunny(fair)	False	False	211.40
2011-01-31 09:00:00 35747 9 361.12 361.12 361.12 452.8 750.60	84.1912916362	361.12	452.80	Mostly_Sunny(fair)	False	False	452.80
2011-01-31 10:00:00 35748 10 505.39 505.39 505.39 568.9 957.70	52.7714285714	505.39	568.90	Partly_Cloudy(fair)	True	False	568.90
2011-01-31 11:00:00 35749 11 554.10 554.10 554.10 616.3 1050.00	52.7714285714	554.10	616.30	Partly_Cloudy(fair)	True	False	616.30
2011-01-31 12:00:00 35750 12 559.38 559.38 559.38 631.6 1060.00	52.7714285714	559.38	631.60	Partly_Cloudy(fair)	True	False	631.60
2011-01-31 13:00:00 35751 13 510.09 510.09 510.09 544.1 966.60	52.7714285714	510.09	544.10	Partly_Cloudy(fair)	True	False	544.10
2011-01-31 14:00:00 35752 14 420.85 420.85 420.85 442.9 797.50	52.7714285714	420.85	442.90	Partly_Cloudy(fair)	True	False	442.90
2011-01-31 15:00:00 35753 15 271.67 271.67 271.67 247.7 514.80	52.7714285714	271.67	247.70	Partly_Cloudy(fair)	True	False	247.70
2011-01-31 16:00:00 35754 16 67.46 67.46 67.46 46.8 153.70	43.8894792774	67.46	46.80	Partly_Cloudy(fair)	True	False	46.80
2011-01-31 17:00:00 35755 17 1.36 1.36 1.36 0.3 3.10	43.8894792774	1.36	0.30	Partly_Cloudy(fair)	True	False	0.30
2011-01-31 18:00:00 35756 18 0.00 0.00 0.00 0.0 0.00	24.0877742947	0.00	0.00	Mostly_Cloudy(fair)	True	False	0.00
2011-01-31 19:00:00 35757 19 0.00 0.00 0.00 0.0 0.00	24.0877742947	0.00	0.00	Mostly_Cloudy(mostly_cloudy)	True	False	0.00
2011-01-31 20:00:00 35758 20 0.00 0.00 0.00 0.0 0.00	24.0877742947	0.00	0.00	Mostly_Cloudy(cloudy)	True	False	0.00
2011-01-31 21:00:00 35759 21 0.00 0.00 0.00 0.0 0.00	19.1397360036	0.00	0.00	Cloudy(cloudy)	True	False	0.00
2011-01-31 22:00:00 35760 22 0.00 0.00 0.00 0.0 0.00	19.1397360036	0.00	0.00	Cloudy(cloudy)	True	False	0.00
2011-01-31 23:00:00 35761 23 0.00 0.00 0.00 0.0 0.00	19.1397360036	0.00	0.00	Cloudy(cloudy)	True	False	0.00
2011-02-01 00:00:00 35762 0 0.00 0.00 0.00 0.0 0.00	0.417667327973	0.00	0.00	Few_Snow_Showers(cloudy)	True	False	0.00
2011-02-01 01:00:00 35763 1 0.00 0.00 0.00 0.0 0.00	0.417667327973	0.00	0.00	Few_Snow_Showers(light_snow)	True	False	0.00
2011-02-01 02:00:00 35764 2 0.00 0.00 0.00 0.0 0.00	0.417667327973	0.00	0.00	Few_Snow_Showers(light_snow)	True	False	0.00
2011-02-01 03:00:00 35765 3 0.00 0.00 0.00 0.0 0.00	0.047619047619	0.00	0.00	Snow_Shower(light_snow)	True	False	0.00
2011-02-01 04:00:00 35766 4 0.00 0.00 0.00 0.0 0.00	0.047619047619	0.00	0.00	Snow_Shower(light_snow)	True	False	0.00
2011-02-01 05:00:00 35767 5 0.00 0.00 0.00 0.0 0.00	0.047619047619	0.00	0.00	Snow_Shower(cloudy)	True	False	0.00
2011-02-01 06:00:00 35768 6 0.00 0.00 0.00 0.0 0.00	0.417667327973	0.00	0.00	Light_Snow(cloudy)	True	False	0.00
2011-02-01 07:00:00 35769 7 0.39 0.39 0.39 0.0 94.10	0.417667327973	0.39	0.00	Light_Snow(light_freezing_rain)	True	False	0.00
2011-02-01 08:00:00 35770 8 1.84 1.84 1.84 0.0 439.40	0.417667327973	1.84	0.00	Light_Snow(cloudy)	True	False	0.00
2011-02-01 09:00:00 35771 9 0.36 0.36 0.36 0.0 750.60	0.047619047619	0.36	0.00	Snow(light_freezing_rain)	True	False	0.00
2011-02-01 10:00:00 35772 10 0.46 0.46 0.46 2.3 957.70	0.047619047619	0.46	2.30	Snow(cloudy)	True	False	2.30
2011-02-01 11:00:00 35773 11 0.50 0.50 0.50 2.0 1050.00	0.047619047619	0.50	2.00	Snow(cloudy)	True	False	2.00
2011-02-01 12:00:00 35774 12 0.50 0.50 0.50 3.8 1060.00	0.047619047619	0.50	3.80	Snow(light_freezing_rain)	True	False	3.80
2011-02-01 13:00:00 35775 13 0.46 0.46 0.46 9.2 966.60	0.047619047619	0.46	9.20	Snow(light_freezing_rain)	True	False	9.20
2011-02-01 14:00:00 35776 14 0.38 0.38 0.38 12.6 797.50	0.047619047619	0.38	12.60	Snow(cloudy)	True	False	12.60
2011-02-01 15:00:00 35777 15 17.80 17.80 17.80 4.3 514.80	3.45765345765	17.80	4.30	Freezing_Rain(cloudy)	True	False	4.30
2011-02-01 16:00:00 35778 16 5.31 5.31 5.31 0.0 153.70	3.45765345765	5.31	0.00	Freezing_Rain(cloudy)	True	False	0.00
2011-02-01 17:00:00 35779 17 0.11 0.11 0.11 0.0 3.10	3.45765345765	0.11	0.00	Freezing_Rain(fog)	True	False	0.00
2011-02-01 18:00:00 35780 18 0.00 0.00 0.00 0.0 0.00	6.18087182824	0.00	0.00	Light_Freezing_Rain(cloudy)	True	False	0.00
2011-02-01 19:00:00 35781 19 0.00 0.00 0.00 0.0 0.00	6.18087182824	0.00	0.00	Light_Freezing_Rain(cloudy)	True	False	0.00
2011-02-01 20:00:00 35782 20 0.00 0.00 0.00 0.0 0.00	6.18087182824	0.00	0.00	Light_Freezing_Rain(cloudy)	True	False	0.00
2011-02-01 21:00:00 35783 21 0.00 0.00 0.00 0.0 0.00	6.18087182824	0.00	0.00	Light_Freezing_Rain(cloudy)	True	False	0.00
2011-02-01 22:00:00 35784 22 0.00 0.00 0.00 0.0 0.00	6.18087182824	0.00	0.00	Light_Freezing_Rain(cloudy)	True	False	0.00
2011-02-01 23:00:00 35785 23 0.00 0.00 0.00 0.0 0.00	6.18087182824	0.00	0.00	Light_Freezing_Rain(cloudy)	True	False	0.00
2011-02-02 00:00:00 35786 0 0.00 0.00 0.00 0.0 0.00	6.18087182824	0.00	0.00	Light_Freezing_Rain(light_freezing_rain)	True	False	0.00
2011-02-02 01:00:00 35787 1 0.00 0.00 0.00 0.0 0.00	6.18087182824	0.00	0.00	Light_Freezing_Rain(light_freezing_rain)	True	False	0.00
2011-02-02 02:00:00 35788 2 0.00 0.00 0.00 0.0 0.00	6.18087182824	0.00	0.00	Light_Freezing_Rain(wintry_mix)	True	False	0.00
2011-02-02 03:00:00 35789 3 0.00 0.00 0.00 0.0 0.00	3.45765345765	0.00	0.00	Freezing_Rain(freezing_rain)	True	False	0.00
2011-02-02 04:00:00 35790 4 0.00 0.00 0.00 0.0 0.00	3.45765345765	0.00	0.00	Freezing_Rain(freezing_rain)	True	False	0.00
2011-02-02 05:00:00 35791 5 0.00 0.00 0.00 0.0 0.00	3.45765345765	0.00	0.00	Freezing_Rain(light_freezing_rain)	True	False	0.00
2011-02-02 06:00:00 35792 6 0.00 0.00 0.00 0.0 0.00	3.45765345765	0.00	0.00	Freezing_Rain(light_freezing_rain)	True	False	0.00
2011-02-02 07:00:00 35793 7 3.25 3.25 3.25 0.0 94.10	3.45765345765	3.25	0.00	Freezing_Rain(freezing_rain)	True	False	0.00
2011-02-02 08:00:00 35794 8 15.19 15.19 15.19 1.0 439.40	3.45765345765	15.19	1.00	Freezing_Rain(wintry_mix)	True	False	1.00
