2011-01-25 17:00:00 29280 17 2.63 2.63 1.38 0.0 3.10	44.4134078212	1.38	0.00	Partly_Cloudy(cloudy)	True	False	0.00
2011-01-25 18:00:00 29281 18 0.00 0.00 0.00 0.0 0.00	28.547561867	0.00	0.00	Mostly_Cloudy(cloudy)	True	False	0.00
2011-01-25 19:00:00 29282 19 0.00 0.00 0.00 0.0 0.00	44.4134078212	0.00	0.00	Partly_Cloudy(cloudy)	True	False	0.00
2011-01-25 20:00:00 29283 20 0.00 0.00 0.00 0.0 0.00	44.4134078212	0.00	0.00	Partly_Cloudy(cloudy)	True	False	0.00
2011-01-25 21:00:00 29284 21 0.00 0.00 0.00 0.0 0.00	44.4134078212	0.00	0.00	Partly_Cloudy(cloudy)	True	False	0.00
2011-01-25 22:00:00 29285 22 0.00 0.00 0.00 0.0 0.00	44.4134078212	0.00	0.00	Partly_Cloudy(cloudy)	True	False	0.00
2011-01-25 23:00:00 29286 23 0.00 0.00 0.00 0.0 0.00	44.4134078212	0.00	0.00	Mostly_Clear(cloudy)	False	False	0.00
2011-01-26 00:00:00 29287 0 0.00 0.00 0.00 0.0 0.00	44.4134078212	0.00	0.00	Partly_Cloudy(fair)	True	False	0.00
2011-01-26 01:00:00 29288 1 0.00 0.00 0.00 0.0 0.00	44.4134078212	0.00	0.00	Partly_Cloudy(fair)	True	False	0.00
2011-01-26 02:00:00 29289 2 0.00 0.00 0.00 0.0 0.00	44.4134078212	0.00	0.00	Partly_Cloudy(fair)	True	False	0.00
2011-01-26 03:00:00 29290 3 0.00 0.00 0.00 0.0 0.00	20.4952380952	0.00	0.00	Cloudy(fair)	True	False	0.00
2011-01-26 04:00:00 29291 4 0.00 0.00 0.00 0.0 0.00	20.4952380952	0.00	0.00	Cloudy(mostly_cloudy)	True	False	0.00
2011-01-26 05:00:00 29292 5 0.00 0.00 0.00 0.0 0.00	20.4952380952	0.00	0.00	Cloudy(mostly_cloudy)	True	False	0.00
2011-01-26 06:00:00 29293 6 0.00 0.00 0.00 0.0 0.00	20.4952380952	0.00	0.00	Cloudy(cloudy)	True	False	0.00
2011-01-26 07:00:00 29294 7 15.02 15.02 15.02 0.0 73.30	20.4952380952	15.02	0.00	Cloudy(Unkown)	True	False	0.00
2011-01-26 08:00:00 29295 8 87.17 87.17 87.17 0.0 425.30	20.4952380952	87.17	0.00	Cloudy(snow)	True	False	0.00
2011-01-26 09:00:00 29296 9 153.84 153.84 153.84 0.0 750.60	20.4952380952	153.84	0.00	Cloudy(snow_and_fog)	True	False	0.00
2011-01-26 10:00:00 29297 10 239.18 239.18 239.18 0.1 957.70	24.9741361473	239.18	0.10	Cloudy(heavy_snow)	True	False	0.10
2011-01-26 11:00:00 29298 11 262.23 262.23 262.23 0.4 1050.00	24.9741361473	262.23	0.40	Cloudy(light_snow)	True	False	0.40
2011-01-26 12:00:00 29299 12 0.00 0.00 0.00 5.4 1060.00	0.0	0.00	5.40	Snow_Shower(Unkown)	True	False	5.40
2011-01-26 13:00:00 29300 13 0.00 0.00 0.00 8.0 966.60	0.0	0.00	8.00	Snow_Shower(Unkown)	True	False	8.00
2011-01-26 14:00:00 29301 14 0.00 0.00 0.00 5.3 797.50	0.0	0.00	5.30	Snow_Shower(light_snow)	True	False	5.30
2011-01-26 15:00:00 29302 15 0.00 0.00 0.00 0.2 514.80	0.0	0.00	0.20	Snow(light_snow)	True	False	0.20
2011-01-26 16:00:00 29303 16 0.00 0.00 0.00 0.0 153.70	0.0	0.00	0.00	Snow(light_snow)	True	False	0.00
2011-01-26 17:00:00 29304 17 0.00 0.00 0.00 0.0 3.10	0.0	0.00	0.00	Snow(cloudy)	True	False	0.00
2011-01-26 18:00:00 29305 18 0.00 0.00 0.00 0.0 0.00	0.0	0.00	0.00	Snow(wintry_mix)	True	False	0.00
2011-01-26 19:00:00 29306 19 0.00 0.00 0.00 0.0 0.00	0.0	0.00	0.00	Snow(light_snow)	True	False	0.00
2011-01-26 20:00:00 29307 20 0.00 0.00 0.00 0.0 0.00	0.0	0.00	0.00	Snow(snow)	True	False	0.00
2011-01-26 21:00:00 29308 21 0.00 0.00 0.00 0.0 0.00	0.0	0.00	0.00	Heavy_Snow(heavy_snow)	True	False	0.00
2011-01-26 22:00:00 29309 22 0.00 0.00 0.00 0.0 0.00	0.0	0.00	0.00	Heavy_Snow(snow)	True	False	0.00
2011-01-26 23:00:00 29310 23 0.00 0.00 0.00 0.0 0.00	0.0	0.00	0.00	Heavy_Snow(snow)	True	False	0.00
2011-01-27 00:00:00 29311 0 0.00 0.00 0.00 0.0 0.00	0.0	0.00	0.00	Snow(light_snow)	True	False	0.00
2011-01-27 01:00:00 29312 1 0.00 0.00 0.00 0.0 0.00	0.0	0.00	0.00	Snow(light_snow)	True	False	0.00
2011-01-27 02:00:00 29313 2 0.00 0.00 0.00 0.0 0.00	0.0	0.00	0.00	Snow(light_snow)	True	False	0.00
2011-01-27 03:00:00 29314 3 0.00 0.00 0.00 0.0 0.00	0.0	0.00	0.00	Snow_Shower(mostly_cloudy)	True	False	0.00
2011-01-27 04:00:00 29315 4 0.00 0.00 0.00 0.0 0.00	0.0	0.00	0.00	Snow_Shower(cloudy)	True	False	0.00
2011-01-27 05:00:00 29316 5 0.00 0.00 0.00 0.0 0.00	0.0	0.00	0.00	Snow_Shower(cloudy)	True	False	0.00
2011-01-27 06:00:00 29317 6 0.00 0.00 0.00 0.0 0.00	44.4134078212	0.00	0.00	Partly_Cloudy(cloudy)	True	False	0.00
2011-01-27 07:00:00 29318 7 32.56 32.56 32.56 0.0 73.30	44.4134078212	32.56	0.00	Partly_Cloudy(cloudy)	True	False	0.00
2011-01-27 08:00:00 29319 8 188.89 188.89 188.89 0.0 425.30	44.4134078212	188.89	0.00	Partly_Cloudy(cloudy)	True	False	0.00
2011-01-27 09:00:00 29320 9 617.20 617.20 617.20 0.0 750.60	82.2275512923	617.20	0.00	Sunny(cloudy)	True	False	0.00
2011-01-27 10:00:00 29321 10 813.95 813.95 813.95 1.1 957.70	84.9904761905	813.95	1.10	Sunny(cloudy)	True	False	1.10
2011-01-27 11:00:00 29322 11 892.40 892.40 892.40 89.4 1050.00	84.9904761905	892.40	89.40	Sunny(cloudy)	True	False	89.40
2011-01-27 12:00:00 29323 12 900.90 900.90 900.90 171.1 1060.00	84.9904761905	900.90	171.10	Sunny(cloudy)	True	False	171.10
2011-01-27 13:00:00 29324 13 821.52 821.52 821.52 277.7 966.60	84.9904761905	821.52	277.70	Sunny(partly_cloudy)	True	False	277.70
2011-01-27 14:00:00 29325 14 677.80 677.80 677.80 194.7 797.50	84.9904761905	677.80	194.70	Sunny(fair)	True	False	194.70
2011-01-27 15:00:00 29326 15 437.53 437.53 437.53 101.9 514.80	84.9904761905	437.53	101.90	Mostly_Sunny(mostly_cloudy)	False	False	101.90
2011-01-27 16:00:00 29327 16 130.63 130.63 130.63 8.6 153.70	84.9904761905	130.63	8.60	Mostly_Sunny(cloudy)	False	False	8.60
2011-01-27 17:00:00 29328 17 2.63 2.63 2.63 0.0 3.10	84.9904761905	2.63	0.00	Mostly_Sunny(cloudy)	False	False	0.00
