2011-01-15 00:00:00 16810 0 0.00 0.00 0.00 0.0 0.00	86.5160131697	0.00	0.00	Clear(fair)	True	False	0.00
2011-01-15 01:00:00 16811 1 0.00 0.00 0.00 0.0 0.00	86.5160131697	0.00	0.00	Clear(fair)	True	False	0.00
2011-01-15 02:00:00 16812 2 0.00 0.00 0.00 0.0 0.00	86.5160131697	0.00	0.00	Mostly_Clear(fair)	False	False	0.00
2011-01-15 03:00:00 16813 3 0.00 0.00 0.00 0.0 0.00	55.5142503098	0.00	0.00	Partly_Cloudy(fair)	True	False	0.00
2011-01-15 04:00:00 16814 4 0.00 0.00 0.00 0.0 0.00	55.5142503098	0.00	0.00	Partly_Cloudy(fair)	True	False	0.00
2011-01-15 05:00:00 16815 5 0.00 0.00 0.00 0.0 0.00	55.5142503098	0.00	0.00	Partly_Cloudy(fair)	True	False	0.00
2011-01-15 06:00:00 16816 6 0.00 0.00 0.00 0.0 0.00	43.0576824911	0.00	0.00	Mostly_Cloudy(fair)	True	False	0.00
2011-01-15 07:00:00 16817 7 21.36 21.36 21.36 8.7 49.60	43.0576824911	21.36	8.70	Mostly_Cloudy(fair)	True	False	8.70
2011-01-15 08:00:00 16818 8 168.70 168.70 168.70 136.2 391.80	43.0576824911	168.70	136.20	Mostly_Cloudy(fair)	True	False	136.20
2011-01-15 09:00:00 16819 9 287.71 287.71 287.71 87.5 668.20	43.0576824911	287.71	87.50	Mostly_Cloudy(fair)	True	False	87.50
2011-01-15 10:00:00 16820 10 447.55 447.55 447.55 187.7 891.50	50.202065559	447.55	187.70	Mostly_Cloudy(cloudy)	True	False	187.70
2011-01-15 11:00:00 16821 11 484.75 484.75 484.75 306.5 965.60	50.202065559	484.75	306.50	Mostly_Cloudy(mostly_cloudy)	True	False	306.50
2011-01-15 12:00:00 16822 12 276.72 276.72 276.72 411.8 998.30	27.7187884207	276.72	411.80	Few_Snow_Showers(mostly_cloudy)	True	False	411.80
2011-01-15 13:00:00 16823 13 248.00 248.00 248.00 440.6 894.70	27.7187884207	248.00	440.60	Few_Snow_Showers(mostly_cloudy)	True	False	440.60
2011-01-15 14:00:00 16824 14 210.75 210.75 210.75 196.9 760.30	27.7187884207	210.75	196.90	Few_Snow_Showers(fair)	True	False	196.90
2011-01-15 15:00:00 16825 15 123.46 123.46 123.46 49.6 445.40	27.7187884207	123.46	49.60	Few_Snow_Showers(cloudy)	True	False	49.60
2011-01-15 16:00:00 16826 16 3.80 3.80 3.80 1.6 80.70	4.71116096467	3.80	1.60	Few_Snow_Showers(cloudy)	True	False	1.60
2011-01-15 17:00:00 16827 17 0.03 0.03 0.03 0.0 0.60	4.71116096467	0.03	0.00	Few_Snow_Showers(cloudy)	True	False	0.00
2011-01-15 18:00:00 16828 18 0.00 0.00 0.00 0.0 0.00	4.71116096467	0.00	0.00	Few_Snow_Showers(cloudy)	True	False	0.00
2011-01-15 19:00:00 16829 19 0.00 0.00 0.00 0.0 0.00	4.71116096467	0.00	0.00	Few_Snow_Showers(cloudy)	True	False	0.00
2011-01-15 20:00:00 16830 20 0.00 0.00 0.00 0.0 0.00	4.71116096467	0.00	0.00	Few_Snow_Showers(cloudy)	True	False	0.00
2011-01-15 21:00:00 16831 21 0.00 0.00 0.00 0.0 0.00	31.5977539561	0.00	0.00	Cloudy(cloudy)	True	False	0.00
2011-01-15 22:00:00 16832 22 0.00 0.00 0.00 0.0 0.00	31.5977539561	0.00	0.00	Cloudy(fair)	True	False	0.00
2011-01-15 23:00:00 16833 23 0.00 0.00 0.00 0.0 0.00	31.5977539561	0.00	0.00	Cloudy(partly_cloudy)	True	False	0.00
2011-01-16 00:00:00 16834 0 0.00 0.00 0.00 0.0 0.00	31.5977539561	0.00	0.00	Cloudy(mostly_cloudy)	True	False	0.00
2011-01-16 01:00:00 16835 1 0.00 0.00 0.00 0.0 0.00	31.5977539561	0.00	0.00	Cloudy(partly_cloudy)	True	False	0.00
2011-01-16 02:00:00 16836 2 0.00 0.00 0.00 0.0 0.00	31.5977539561	0.00	0.00	Cloudy(mostly_cloudy)	True	False	0.00
2011-01-16 03:00:00 16837 3 0.00 0.00 0.00 0.0 0.00	31.5977539561	0.00	0.00	Cloudy(fair)	True	False	0.00
2011-01-16 04:00:00 16838 4 0.00 0.00 0.00 0.0 0.00	31.5977539561	0.00	0.00	Cloudy(fair)	True	False	0.00
2011-01-16 05:00:00 16839 5 0.00 0.00 0.00 0.0 0.00	31.5977539561	0.00	0.00	Cloudy(fair)	True	False	0.00
2011-01-16 06:00:00 16840 6 0.00 0.00 0.00 0.0 0.00	55.5142503098	0.00	0.00	Partly_Cloudy(fair)	True	False	0.00
2011-01-16 07:00:00 16841 7 27.54 27.54 27.54 3.4 49.60	55.5142503098	27.54	3.40	Partly_Cloudy(fair)	True	False	3.40
2011-01-16 08:00:00 16842 8 217.50 217.50 217.50 208.1 391.80	55.5142503098	217.50	208.10	Partly_Cloudy(fair)	True	False	208.10
2011-01-16 09:00:00 16843 9 370.95 370.95 370.95 538.1 668.20	55.5142503098	370.95	538.10	Partly_Cloudy(fair)	True	False	538.10
2011-01-16 10:00:00 16844 10 598.64 598.64 598.64 784.8 891.50	67.149958575	598.64	784.80	Partly_Cloudy(fair)	True	False	784.80
2011-01-16 11:00:00 16845 11 648.40 648.40 648.40 937.0 965.60	67.149958575	648.40	937.00	Partly_Cloudy(fair)	True	False	937.00
2011-01-16 12:00:00 16846 12 670.36 670.36 670.36 943.9 998.30	67.149958575	670.36	943.90	Mostly_Sunny(fair)	False	False	943.90
2011-01-16 13:00:00 16847 13 600.79 600.79 600.79 850.0 894.70	67.149958575	600.79	850.00	Mostly_Sunny(partly_cloudy)	False	False	850.00
2011-01-16 14:00:00 16848 14 510.54 510.54 510.54 657.5 760.30	67.149958575	510.54	657.50	Mostly_Sunny(fair)	False	False	657.50
2011-01-16 15:00:00 16849 15 299.09 299.09 299.09 309.5 445.40	67.149958575	299.09	309.50	Mostly_Sunny(fair)	False	False	309.50
2011-01-16 16:00:00 16850 16 54.19 54.19 54.19 32.8 80.70	67.149958575	54.19	32.80	Mostly_Sunny(fair)	False	False	32.80
2011-01-16 17:00:00 16851 17 0.40 0.40 0.40 0.0 0.60	67.149958575	0.40	0.00	Mostly_Clear(fair)	False	False	0.00
2011-01-16 18:00:00 16852 18 0.00 0.00 0.00 0.0 0.00	86.5160131697	0.00	0.00	Clear(fair)	True	False	0.00
2011-01-16 19:00:00 16853 19 0.00 0.00 0.00 0.0 0.00	86.5160131697	0.00	0.00	Clear(fair)	True	False	0.00
2011-01-16 20:00:00 16854 20 0.00 0.00 0.00 0.0 0.00	86.5160131697	0.00	0.00	Clear(fair)	True	False	0.00
2011-01-16 21:00:00 16855 21 0.00 0.00 0.00 0.0 0.00	86.5160131697	0.00	0.00	Clear(fair)	True	False	0.00
2011-01-16 22:00:00 16856 22 0.00 0.00 0.00 0.0 0.00	86.5160131697	0.00	0.00	Clear(fair)	True	False	0.00
2011-01-16 23:00:00 16857 23 0.00 0.00 0.00 0.0 0.00	86.5160131697	0.00	0.00	Clear(fair)	True	False	0.00
