2010-07-12 00:00:00 53783 0 0.00 0.00 0.00 0.0 0.00	73.7248504622	0.00	0.00	Partly_Cloudy(clear)	True	False	0.00
2010-07-12 01:00:00 53832 1 0.00 0.00 0.00 0.0 0.00	77.1288743883	0.00	0.00	Clear(clear)	True	False	0.00
2010-07-12 02:00:00 53881 2 0.00 0.00 0.00 0.0 0.00	77.1288743883	0.00	0.00	Clear(clear)	True	False	0.00
2010-07-12 03:00:00 53930 3 0.00 0.00 0.00 0.0 0.00	77.1288743883	0.00	0.00	Clear(clear)	True	False	0.00
2010-07-12 04:00:00 53979 4 0.00 0.00 0.00 0.0 0.00	77.1288743883	0.00	0.00	Clear(fog)	True	False	0.00
2010-07-12 05:00:00 54028 5 0.23 0.23 0.23 0.0 0.30	77.1288743883	0.23	0.00	Clear(fair)	True	False	0.00
2010-07-12 06:00:00 54077 6 59.93 59.93 59.93 77.7 77.70	77.1288743883	59.93	77.70	Sunny(sunny)	True	False	77.70
2010-07-12 07:00:00 54126 7 159.97 159.97 159.97 186.0 207.40	77.1288743883	159.97	186.00	Sunny(sunny)	True	False	186.00
2010-07-12 08:00:00 54175 8 374.77 374.77 374.77 454.0 485.90	77.1288743883	374.77	454.00	Sunny(sunny)	True	False	454.00
2010-07-12 09:00:00 54224 9 574.69 574.69 574.69 518.0 745.10	77.1288743883	574.69	518.00	Sunny(sunny)	True	False	518.00
2010-07-12 10:00:00 54273 10 709.20 709.20 709.20 597.2 919.50	77.1288743883	709.20	597.20	Mostly_Sunny(partly_cloudy)	False	False	597.20
2010-07-12 11:00:00 54322 11 801.29 801.29 801.29 898.0 1038.90	77.1288743883	801.29	898.00	Mostly_Sunny(mostly_cloudy)	False	False	898.00
2010-07-12 12:00:00 54371 12 856.70 856.70 856.70 1031.2 1108.10	77.3125169209	856.70	1031.20	Mostly_Sunny(partly_cloudy)	False	False	1031.20
2010-07-12 13:00:00 54420 13 829.33 829.33 829.33 927.1 1107.70	74.8695559578	829.33	927.10	Partly_Cloudy(fair)	True	False	927.10
2010-07-12 14:00:00 54469 14 793.92 793.92 793.92 907.1 1060.40	74.8695559578	793.92	907.10	Partly_Cloudy(sunny)	True	False	907.10
2010-07-12 15:00:00 54518 15 703.10 703.10 703.10 485.2 939.10	74.8695559578	703.10	485.20	Partly_Cloudy(sunny)	True	False	485.20
2010-07-12 16:00:00 54567 16 458.70 458.70 458.70 399.8 758.90	60.4422604423	458.70	399.80	Mostly_Cloudy(partly_cloudy)	True	False	399.80
2010-07-12 17:00:00 54616 17 301.43 301.43 301.43 220.2 498.70	60.4422604423	301.43	220.20	Mostly_Cloudy(mostly_cloudy)	True	False	220.20
2010-07-12 18:00:00 54665 18 136.48 136.48 136.48 71.7 225.80	60.4422604423	136.48	71.70	Mostly_Cloudy(mostly_cloudy)	True	False	71.70
2010-07-12 19:00:00 54714 19 49.20 49.20 49.20 9.2 81.40	60.4422604423	49.20	9.20	Mostly_Cloudy(mostly_cloudy)	True	False	9.20
2010-07-12 20:00:00 54763 20 4.11 4.11 4.11 0.0 6.80	60.4422604423	4.11	0.00	Mostly_Cloudy(fair)	True	False	0.00
2010-07-12 21:00:00 54812 21 0.00 0.00 0.00 0.0 0.00	60.4422604423	0.00	0.00	Mostly_Cloudy(light_rain)	True	False	0.00
2010-07-12 22:00:00 54861 22 0.00 0.00 0.00 0.0 0.00	60.4422604423	0.00	0.00	Mostly_Cloudy(mostly_cloudy)	True	False	0.00
2010-07-12 23:00:00 54910 23 0.00 0.00 0.00 0.0 0.00	60.4422604423	0.00	0.00	Mostly_Cloudy(light_rain)	True	False	0.00
2010-07-13 00:00:00 54959 0 0.00 0.00 0.00 0.0 0.00	60.4422604423	0.00	0.00	Mostly_Cloudy(light_rain)	True	False	0.00
2010-07-13 01:00:00 55008 1 0.00 0.00 0.00 0.0 0.00	37.323037323	0.00	0.00	Cloudy(cloudy)	True	False	0.00
2010-07-13 02:00:00 55057 2 0.00 0.00 0.00 0.0 0.00	37.323037323	0.00	0.00	Cloudy(cloudy)	True	False	0.00
2010-07-13 03:00:00 55106 3 0.00 0.00 0.00 0.0 0.00	37.323037323	0.00	0.00	Cloudy(mostly_cloudy)	True	False	0.00
2010-07-13 04:00:00 55155 4 0.00 0.00 0.00 0.0 0.00	27.3693534101	0.00	0.00	Isolated_T-Storms(mostly_cloudy)	True	False	0.00
2010-07-13 05:00:00 55204 5 0.07 0.07 0.07 0.0 0.30	22.7933391087	0.07	0.00	Showers(mostly_cloudy)	True	False	0.00
2010-07-13 06:00:00 55253 6 17.71 17.71 17.71 53.8 77.70	22.7933391087	17.71	53.80	Showers(partly_cloudy)	True	False	53.80
2010-07-13 07:00:00 55302 7 47.27 47.27 47.27 101.4 207.40	22.7933391087	47.27	101.40	Showers(partly_cloudy)	True	False	101.40
2010-07-13 08:00:00 55351 8 110.75 110.75 110.75 173.7 485.90	22.7933391087	110.75	173.70	Showers(mostly_cloudy)	True	False	173.70
2010-07-13 09:00:00 55400 9 169.83 169.83 169.83 209.4 745.10	22.7933391087	169.83	209.40	Showers(cloudy)	True	False	209.40
2010-07-13 10:00:00 55449 10 209.58 209.58 209.58 119.2 919.50	22.7933391087	209.58	119.20	Showers(mostly_cloudy)	True	False	119.20
2010-07-13 11:00:00 55498 11 236.80 236.80 236.80 32.1 1038.90	22.7933391087	236.80	32.10	Showers(heavy_rain)	True	False	32.10
2010-07-13 12:00:00 55547 12 252.57 252.57 252.57 203.2 1108.10	22.7933391087	252.57	203.20	Showers(heavy_rain)	True	False	203.20
2010-07-13 13:00:00 55596 13 230.09 230.09 230.09 902.3 1107.70	20.7721587819	230.09	902.30	Scattered_T-Storms(mostly_cloudy)	True	False	902.30
2010-07-13 14:00:00 55645 14 220.27 220.27 220.27 669.2 1060.40	20.7721587819	220.27	669.20	Scattered_T-Storms(partly_cloudy)	True	False	669.20
2010-07-13 15:00:00 55694 15 195.07 195.07 195.07 490.0 939.10	20.7721587819	195.07	490.00	Scattered_T-Storms(mostly_cloudy)	True	False	490.00
2010-07-13 16:00:00 55743 16 231.31 231.31 231.31 308.9 758.90	30.4792460397	231.31	308.90	Scattered_T-Storms(partly_cloudy)	True	False	308.90
2010-07-13 17:00:00 55792 17 152.00 152.00 152.00 274.5 498.70	30.4792460397	152.00	274.50	Scattered_T-Storms(mostly_cloudy)	True	False	274.50
2010-07-13 18:00:00 55841 18 68.82 68.82 68.82 225.8 225.80	30.4792460397	68.82	225.80	Scattered_T-Storms(partly_cloudy)	True	False	225.80
2010-07-13 19:00:00 55890 19 24.81 24.81 24.81 39.8 81.40	30.4792460397	24.81	39.80	Scattered_T-Storms(partly_cloudy)	True	False	39.80
2010-07-13 20:00:00 55939 20 2.07 2.07 2.07 0.0 6.80	30.4792460397	2.07	0.00	Scattered_T-Storms(partly_cloudy)	True	False	0.00
2010-07-13 21:00:00 55988 21 0.00 0.00 0.00 0.0 0.00	30.4792460397	0.00	0.00	Scattered_T-Storms(mostly_cloudy)	True	False	0.00
2010-07-13 22:00:00 56037 22 0.00 0.00 0.00 0.0 0.00	30.4792460397	0.00	0.00	T-Storms(mostly_cloudy)	True	False	0.00
2010-07-13 23:00:00 56086 23 0.00 0.00 0.00 0.0 0.00	30.4792460397	0.00	0.00	T-Storms(rain)	True	False	0.00
2010-07-14 00:00:00 56135 0 0.00 0.00 0.00 0.0 0.00	30.4792460397	0.00	0.00	T-Storms(partly_cloudy)	True	False	0.00
2010-07-14 01:00:00 56184 1 0.00 0.00 0.00 0.0 0.00	30.4792460397	0.00	0.00	Scattered_T-Storms(fog)	True	False	0.00
2010-07-14 02:00:00 56233 2 0.00 0.00 0.00 0.0 0.00	30.4792460397	0.00	0.00	Scattered_T-Storms(fog)	True	False	0.00
2010-07-14 03:00:00 56282 3 0.00 0.00 0.00 0.0 0.00	30.4792460397	0.00	0.00	Scattered_T-Storms(fog)	True	False	0.00
2010-07-14 04:00:00 56331 4 0.00 0.00 0.00 0.0 0.00	30.4792460397	0.00	0.00	Scattered_T-Storms(fog)	True	False	0.00
2010-07-14 05:00:00 56380 5 0.09 0.09 0.09 0.0 0.30	30.4792460397	0.09	0.00	Scattered_T-Storms(light_rain)	True	False	0.00
2010-07-14 06:00:00 56429 6 23.68 23.68 23.68 0.0 77.70	30.4792460397	23.68	0.00	Scattered_T-Storms(light_rain)	True	False	0.00
2010-07-14 07:00:00 56478 7 47.27 47.27 47.27 69.3 207.40	22.7933391087	47.27	69.30	T-Showers(mostly_cloudy)	True	False	69.30
2010-07-14 08:00:00 56527 8 110.75 110.75 110.75 118.7 485.90	22.7933391087	110.75	118.70	T-Showers(light_rain)	True	False	118.70
2010-07-14 09:00:00 56576 9 169.83 169.83 169.83 272.1 745.10	22.7933391087	169.83	272.10	T-Showers(light_rain)	True	False	272.10
2010-07-14 10:00:00 56625 10 191.00 191.00 191.00 508.0 919.50	20.7721587819	191.00	508.00	Scattered_T-Storms(rain)	True	False	508.00
2010-07-14 11:00:00 56674 11 215.80 215.80 215.80 635.2 1038.90	20.7721587819	215.80	635.20	Scattered_T-Storms(light_rain)	True	False	635.20
2010-07-14 12:00:00 56723 12 230.18 230.18 230.18 410.0 1108.10	20.7721587819	230.18	410.00	Scattered_T-Storms(light_rain)	True	False	410.00
2010-07-14 13:00:00 56772 13 230.09 230.09 230.09 110.6 1107.70	20.7721587819	230.09	110.60	Scattered_T-Storms(cloudy)	True	False	110.60
2010-07-14 14:00:00 56821 14 220.27 220.27 220.27 219.0 1060.40	20.7721587819	220.27	219.00	Scattered_T-Storms(light_rain)	True	False	219.00
2010-07-14 15:00:00 56870 15 195.07 195.07 195.07 61.9 939.10	20.7721587819	195.07	61.90	Scattered_T-Storms(cloudy)	True	False	61.90
2010-07-14 16:00:00 56919 16 207.71 207.71 207.71 122.2 758.90	27.3693534101	207.71	122.20	Scattered_T-Storms(cloudy)	True	False	122.20
2010-07-14 17:00:00 56968 17 136.49 136.49 136.49 161.6 498.70	27.3693534101	136.49	161.60	Scattered_T-Storms(mostly_cloudy)	True	False	161.60
2010-07-14 18:00:00 57017 18 61.80 61.80 61.80 125.7 225.80	27.3693534101	61.80	125.70	Scattered_T-Storms(mostly_cloudy)	True	False	125.70
2010-07-14 19:00:00 57066 19 22.28 22.28 22.28 51.3 81.40	27.3693534101	22.28	51.30	Scattered_T-Storms(mostly_cloudy)	True	False	51.30
2010-07-14 20:00:00 57115 20 1.86 1.86 1.86 6.8 6.80	27.3693534101	1.86	6.80	Scattered_T-Storms(mostly_cloudy)	True	False	6.80
2010-07-14 21:00:00 57164 21 0.00 0.00 0.00 0.0 0.00	27.3693534101	0.00	0.00	Scattered_T-Storms(cloudy)	True	False	0.00
2010-07-14 22:00:00 57213 22 0.00 0.00 0.00 0.0 0.00	27.3693534101	0.00	0.00	Isolated_T-Storms(partly_cloudy)	True	False	0.00
2010-07-14 23:00:00 57262 23 0.00 0.00 0.00 0.0 0.00	27.3693534101	0.00	0.00	Isolated_T-Storms(fair)	True	False	0.00
2010-07-15 00:00:00 57311 0 0.00 0.00 0.00 0.0 0.00	27.3693534101	0.00	0.00	Isolated_T-Storms(clear)	True	False	0.00
2010-07-15 01:00:00 57360 1 0.00 0.00 0.00 0.0 0.00	27.3693534101	0.00	0.00	Mostly_Clear(fog)	False	False	0.00
2010-07-15 02:00:00 57409 2 0.00 0.00 0.00 0.0 0.00	74.3959957648	0.00	0.00	Partly_Cloudy(cloudy)	True	False	0.00
2010-07-15 03:00:00 57458 3 0.00 0.00 0.00 0.0 0.00	74.3959957648	0.00	0.00	Partly_Cloudy(partly_cloudy)	True	False	0.00
2010-07-15 04:00:00 57507 4 0.00 0.00 0.00 0.0 0.00	74.3959957648	0.00	0.00	Partly_Cloudy(fair)	True	False	0.00
2010-07-15 05:00:00 57556 5 0.22 0.22 0.22 0.0 0.30	74.3959957648	0.22	0.00	Partly_Cloudy(clear)	True	False	0.00
2010-07-15 06:00:00 57605 6 57.81 57.81 57.81 10.1 77.70	74.3959957648	57.81	10.10	Partly_Cloudy(cloudy)	True	False	10.10
2010-07-15 07:00:00 57654 7 154.30 154.30 154.30 141.2 207.40	74.3959957648	154.30	141.20	Partly_Cloudy(cloudy)	True	False	141.20
2010-07-15 08:00:00 57703 8 361.49 361.49 361.49 247.0 485.90	74.3959957648	361.49	247.00	Partly_Cloudy(partly_cloudy)	True	False	247.00
2010-07-15 09:00:00 57752 9 554.32 554.32 554.32 232.3 745.10	74.3959957648	554.32	232.30	Partly_Cloudy(cloudy)	True	False	232.30
2010-07-15 10:00:00 57801 10 693.88 693.88 693.88 427.8 919.50	75.4625033842	693.88	427.80	Partly_Cloudy(cloudy)	True	False	427.80
2010-07-15 11:00:00 57850 11 783.98 783.98 783.98 590.3 1038.90	75.4625033842	783.98	590.30	Partly_Cloudy(mostly_cloudy)	True	False	590.30
2010-07-15 12:00:00 57899 12 836.20 836.20 836.20 575.1 1108.10	75.4625033842	836.20	575.10	Partly_Cloudy(fair)	True	False	575.10
2010-07-15 13:00:00 57948 13 835.90 835.90 835.90 499.9 1107.70	75.4625033842	835.90	499.90	Partly_Cloudy(fair)	True	False	499.90
2010-07-15 14:00:00 57997 14 800.20 800.20 800.20 671.5 1060.40	75.4625033842	800.20	671.50	Partly_Cloudy(mostly_cloudy)	True	False	671.50
2010-07-15 15:00:00 58046 15 708.67 708.67 708.67 723.7 939.10	75.4625033842	708.67	723.70	Partly_Cloudy(partly_cloudy)	True	False	723.70
2010-07-15 16:00:00 58095 16 563.83 563.83 563.83 629.9 758.90	74.2951224532	563.83	629.90	Partly_Cloudy(fair)	True	False	629.90
2010-07-15 17:00:00 58144 17 370.51 370.51 370.51 371.2 498.70	74.2951224532	370.51	371.20	Partly_Cloudy(fair)	True	False	371.20
2010-07-15 18:00:00 58193 18 167.76 167.76 167.76 190.2 225.80	74.2951224532	167.76	190.20	Partly_Cloudy(fair)	True	False	190.20
2010-07-15 19:00:00 58242 19 60.48 60.48 60.48 32.3 81.40	74.2951224532	60.48	32.30	Partly_Cloudy(fair)	True	False	32.30
2010-07-15 20:00:00 58291 20 5.05 5.05 5.05 0.0 6.80	74.2951224532	5.05	0.00	Partly_Cloudy(sunny)	True	False	0.00
2010-07-15 21:00:00 58340 21 0.00 0.00 0.00 0.0 0.00	74.2951224532	0.00	0.00	Partly_Cloudy(clear)	True	False	0.00
2010-07-15 22:00:00 58389 22 0.00 0.00 0.00 0.0 0.00	74.2951224532	0.00	0.00	Partly_Cloudy(clear)	True	False	0.00
2010-07-15 23:00:00 58438 23 0.00 0.00 0.00 0.0 0.00	74.2951224532	0.00	0.00	Partly_Cloudy(fair)	True	False	0.00
2010-07-16 00:00:00 58487 0 0.00 0.00 0.00 0.0 0.00	74.2951224532	0.00	0.00	Partly_Cloudy(clear)	True	False	0.00
2010-07-16 01:00:00 58536 1 0.00 0.00 0.00 0.0 0.00	79.1986282826	0.00	0.00	Clear(partly_cloudy)	True	False	0.00
2010-07-16 02:00:00 58585 2 0.00 0.00 0.00 0.0 0.00	79.1986282826	0.00	0.00	Clear(cloudy)	True	False	0.00
2010-07-16 03:00:00 58634 3 0.00 0.00 0.00 0.0 0.00	79.1986282826	0.00	0.00	Clear(cloudy)	True	False	0.00
2010-07-16 04:00:00 58683 4 0.00 0.00 0.00 0.0 0.00	79.1986282826	0.00	0.00	Clear(cloudy)	True	False	0.00
2010-07-16 05:00:00 58732 5 0.24 0.24 0.24 0.0 0.30	79.1986282826	0.24	0.00	Clear(cloudy)	True	False	0.00
2010-07-16 06:00:00 58781 6 61.54 61.54 61.54 14.2 77.70	79.1986282826	61.54	14.20	Sunny(cloudy)	True	False	14.20
2010-07-16 07:00:00 58830 7 164.26 164.26 164.26 146.1 207.40	79.1986282826	164.26	146.10	Sunny(fair)	True	False	146.10
2010-07-16 08:00:00 58879 8 384.83 384.83 384.83 374.5 485.90	79.1986282826	384.83	374.50	Sunny(cloudy)	True	False	374.50
2010-07-16 09:00:00 58928 9 590.11 590.11 590.11 634.1 745.10	79.1986282826	590.11	634.10	Sunny(cloudy)	True	False	634.10
2010-07-16 10:00:00 58977 10 783.69 783.69 783.69 820.4 919.50	85.2305398786	783.69	820.40	Sunny(fair)	True	False	820.40
2010-07-16 11:00:00 59026 11 885.46 885.46 885.46 942.7 1038.90	85.2305398786	885.46	942.70	Sunny(sunny)	True	False	942.70
2010-07-16 12:00:00 59075 12 947.90 947.90 947.90 953.4 1108.10	85.5431912486	947.90	953.40	Sunny(fair)	True	False	953.40
2010-07-16 13:00:00 59124 13 947.56 947.56 947.56 638.1 1107.70	85.5431912486	947.56	638.10	Sunny(sunny)	True	False	638.10
2010-07-16 14:00:00 59173 14 907.10 907.10 907.10 952.4 1060.40	85.5431912486	907.10	952.40	Sunny(partly_cloudy)	True	False	952.40
2010-07-16 15:00:00 59222 15 803.34 803.34 803.34 791.1 939.10	85.5431912486	803.34	791.10	Sunny(sunny)	True	False	791.10
2010-07-16 16:00:00 59271 16 563.83 563.83 563.83 450.5 758.90	74.2951224532	563.83	450.50	Partly_Cloudy(fair)	True	False	450.50
2010-07-16 17:00:00 59320 17 370.51 370.51 370.51 324.1 498.70	74.2951224532	370.51	324.10	Partly_Cloudy(fair)	True	False	324.10
2010-07-16 18:00:00 59369 18 167.76 167.76 167.76 147.2 225.80	74.2951224532	167.76	147.20	Partly_Cloudy(sunny)	True	False	147.20
2010-07-16 19:00:00 59418 19 22.28 22.28 22.28 13.1 81.40	27.3693534101	22.28	13.10	Isolated_T-Storms(fair)	True	False	13.10
2010-07-16 20:00:00 59467 20 1.86 1.86 1.86 1.0 6.80	27.3693534101	1.86	1.00	Isolated_T-Storms(partly_cloudy)	True	False	1.00
2010-07-16 21:00:00 59516 21 0.00 0.00 0.00 0.0 0.00	27.3693534101	0.00	0.00	Isolated_T-Storms(partly_cloudy)	True	False	0.00
2010-07-16 22:00:00 59565 22 0.00 0.00 0.00 0.0 0.00	27.3693534101	0.00	0.00	Isolated_T-Storms(partly_cloudy)	True	False	0.00
2010-07-16 23:00:00 59614 23 0.00 0.00 0.00 0.0 0.00	27.3693534101	0.00	0.00	Isolated_T-Storms(partly_cloudy)	True	False	0.00
2010-07-17 00:00:00 59663 0 0.00 0.00 0.00 0.0 0.00	27.3693534101	0.00	0.00	Isolated_T-Storms(partly_cloudy)	True	False	0.00
2010-07-17 01:00:00 59712 1 0.00 0.00 0.00 0.0 0.00	74.2951224532	0.00	0.00	Partly_Cloudy(mostly_cloudy)	True	False	0.00
2010-07-17 02:00:00 59761 2 0.00 0.00 0.00 0.0 0.00	58.4307808374	0.00	0.00	Mostly_Cloudy(partly_cloudy)	True	False	0.00
2010-07-17 03:00:00 59810 3 0.00 0.00 0.00 0.0 0.00	58.4307808374	0.00	0.00	Mostly_Cloudy(partly_cloudy)	True	False	0.00
2010-07-17 04:00:00 59859 4 0.00 0.00 0.00 0.0 0.00	74.2951224532	0.00	0.00	Partly_Cloudy(partly_cloudy)	True	False	0.00
2010-07-17 05:00:00 59908 5 0.22 0.22 0.22 0.0 0.30	74.2951224532	0.22	0.00	Partly_Cloudy(partly_cloudy)	True	False	0.00
2010-07-17 06:00:00 59957 6 57.73 57.73 57.73 8.9 77.70	74.2951224532	57.73	8.90	Partly_Cloudy(fog)	True	False	8.90
2010-07-17 07:00:00 60006 7 164.31 164.31 164.31 180.8 207.40	79.2248208223	164.31	180.80	Sunny(sunny)	True	False	180.80
2010-07-17 08:00:00 60055 8 384.95 384.95 384.95 425.3 485.90	79.2248208223	384.95	425.30	Sunny(sunny)	True	False	425.30
2010-07-17 09:00:00 60104 9 590.30 590.30 590.30 661.6 745.10	79.2248208223	590.30	661.60	Sunny(sunny)	True	False	661.60
2010-07-17 10:00:00 60153 10 786.57 786.57 786.57 845.5 919.50	85.5431912486	786.57	845.50	Sunny(sunny)	True	False	845.50
2010-07-17 11:00:00 60202 11 888.71 888.71 888.71 957.9 1038.90	85.5431912486	888.71	957.90	Sunny(sunny)	True	False	957.90
2010-07-17 12:00:00 60251 12 947.90 947.90 947.90 856.7 1108.10	85.5431912486	947.90	856.70	Sunny(sunny)	True	False	856.70
2010-07-17 13:00:00 60300 13 947.56 947.56 947.56 969.2 1107.70	85.5431912486	947.56	969.20	Mostly_Sunny(sunny)	False	False	969.20
2010-07-17 14:00:00 60349 14 907.10 907.10 907.10 857.4 1060.40	85.5431912486	907.10	857.40	Mostly_Sunny(sunny)	False	False	857.40
2010-07-17 15:00:00 60398 15 803.34 803.34 803.34 743.0 939.10	85.5431912486	803.34	743.00	Mostly_Sunny(partly_cloudy)	False	False	743.00
2010-07-17 16:00:00 60447 16 649.19 649.19 649.19 642.6 758.90	85.5431912486	649.19	642.60	Mostly_Sunny(partly_cloudy)	False	False	642.60
2010-07-17 17:00:00 60496 17 426.60 426.60 426.60 372.3 498.70	85.5431912486	426.60	372.30	Mostly_Sunny(fair)	False	False	372.30
2010-07-17 18:00:00 60545 18 193.16 193.16 193.16 166.7 225.80	85.5431912486	193.16	166.70	Mostly_Sunny(partly_cloudy)	False	False	166.70
2010-07-17 19:00:00 60594 19 69.63 69.63 69.63 62.1 81.40	85.5431912486	69.63	62.10	Mostly_Sunny(mostly_cloudy)	False	False	62.10
2010-07-17 20:00:00 60643 20 5.82 5.82 5.82 1.4 6.80	85.5431912486	5.82	1.40	Mostly_Sunny(fair)	False	False	1.40
2010-07-17 21:00:00 60692 21 0.00 0.00 0.00 0.0 0.00	85.5431912486	0.00	0.00	Mostly_Clear(clear)	False	False	0.00
2010-07-17 22:00:00 60741 22 0.00 0.00 0.00 0.0 0.00	79.2665319087	0.00	0.00	Clear(clear)	True	False	0.00
2010-07-17 23:00:00 60790 23 0.00 0.00 0.00 0.0 0.00	79.2665319087	0.00	0.00	Clear(clear)	True	False	0.00
2010-07-18 00:00:00 60839 0 0.00 0.00 0.00 0.0 0.00	79.2665319087	0.00	0.00	Clear(clear)	True	False	0.00
2010-07-18 01:00:00 60888 1 0.00 0.00 0.00 0.0 0.00	73.8263950399	0.00	0.00	Partly_Cloudy(clear)	True	False	0.00
2010-07-18 02:00:00 60937 2 0.00 0.00 0.00 0.0 0.00	79.2665319087	0.00	0.00	Clear(partly_cloudy)	True	False	0.00
2010-07-18 03:00:00 60986 3 0.00 0.00 0.00 0.0 0.00	79.2665319087	0.00	0.00	Clear(clear)	True	False	0.00
2010-07-18 04:00:00 61035 4 0.00 0.00 0.00 0.0 0.00	73.8263950399	0.00	0.00	Partly_Cloudy(fair)	True	False	0.00
2010-07-18 05:00:00 61084 5 0.15 0.15 0.15 0.0 0.20	73.8263950399	0.15	0.00	Partly_Cloudy(fair)	True	False	0.00
2010-07-18 06:00:00 61133 6 57.36 57.36 57.36 24.2 77.70	73.8263950399	57.36	24.20	Partly_Cloudy(fog)	True	False	24.20
2010-07-18 07:00:00 61182 7 153.12 153.12 153.12 176.8 207.40	73.8263950399	153.12	176.80	Partly_Cloudy(sunny)	True	False	176.80
2010-07-18 08:00:00 61231 8 358.72 358.72 358.72 422.5 485.90	73.8263950399	358.72	422.50	Partly_Cloudy(sunny)	True	False	422.50
2010-07-18 09:00:00 61280 9 550.08 550.08 550.08 661.7 745.10	73.8263950399	550.08	661.70	Partly_Cloudy(sunny)	True	False	661.70
2010-07-18 10:00:00 61329 10 693.88 693.88 693.88 861.5 919.50	75.4625033842	693.88	861.50	Partly_Cloudy(sunny)	True	False	861.50
2010-07-18 11:00:00 61378 11 783.98 783.98 783.98 832.1 1038.90	75.4625033842	783.98	832.10	Partly_Cloudy(fair)	True	False	832.10
2010-07-18 12:00:00 61427 12 836.20 836.20 836.20 1019.8 1108.10	75.4625033842	836.20	1019.80	Partly_Cloudy(partly_cloudy)	True	False	1019.80
2010-07-18 13:00:00 61476 13 835.90 835.90 835.90 974.1 1107.70	75.4625033842	835.90	974.10	Partly_Cloudy(sunny)	True	False	974.10
2010-07-18 14:00:00 61525 14 800.20 800.20 800.20 767.6 1060.40	75.4625033842	800.20	767.60	Partly_Cloudy(fair)	True	False	767.60
2010-07-18 15:00:00 61574 15 708.67 708.67 708.67 831.6 939.10	75.4625033842	708.67	831.60	Partly_Cloudy(sunny)	True	False	831.60
2010-07-18 16:00:00 61623 16 608.14 608.14 608.14 566.3 758.90	80.1350048216	608.14	566.30	Mostly_Sunny(sunny)	False	False	566.30
2010-07-18 17:00:00 61672 17 399.63 399.63 399.63 425.6 498.70	80.1350048216	399.63	425.60	Mostly_Sunny(sunny)	False	False	425.60
2010-07-18 18:00:00 61721 18 180.94 180.94 180.94 195.5 225.80	80.1350048216	180.94	195.50	Mostly_Sunny(sunny)	False	False	195.50
2010-07-18 19:00:00 61770 19 65.23 65.23 65.23 40.3 81.40	80.1350048216	65.23	40.30	Sunny(sunny)	True	False	40.30
2010-07-18 20:00:00 61819 20 5.45 5.45 5.45 0.5 6.80	80.1350048216	5.45	0.50	Sunny(sunny)	True	False	0.50
2010-07-18 21:00:00 61868 21 0.00 0.00 0.00 0.0 0.00	80.1350048216	0.00	0.00	Clear(clear)	True	False	0.00
2010-07-18 22:00:00 61917 22 0.00 0.00 0.00 0.0 0.00	80.1350048216	0.00	0.00	Clear(clear)	True	False	0.00
2010-07-18 23:00:00 61966 23 0.00 0.00 0.00 0.0 0.00	80.1350048216	0.00	0.00	Clear(partly_cloudy)	True	False	0.00
