2010-08-23 00:00:00 30983 0 0.00 0.00 0.00 0.0 0.00	15.8255897069	0.00	0.00	Isolated_T-Storms(fog)	True	False	0.00
2010-08-23 01:00:00 31032 1 0.00 0.00 0.00 0.0 0.00	76.1829878485	0.00	0.00	Partly_Cloudy(clear)	True	False	0.00
2010-08-23 02:00:00 31081 2 0.00 0.00 0.00 0.0 0.00	76.1829878485	0.00	0.00	Partly_Cloudy(fair)	True	False	0.00
2010-08-23 03:00:00 31130 3 0.00 0.00 0.00 0.0 0.00	76.1829878485	0.00	0.00	Partly_Cloudy(fog)	True	False	0.00
2010-08-23 04:00:00 31179 4 0.00 0.00 0.00 0.0 0.00	76.1829878485	0.00	0.00	Partly_Cloudy(fog)	True	False	0.00
2010-08-23 05:00:00 31228 5 0.00 0.00 0.00 0.0 0.00	76.1829878485	0.00	0.00	Partly_Cloudy(clear)	True	False	0.00
2010-08-23 06:00:00 31277 6 14.25 14.25 14.25 1.9 18.70	76.1829878485	14.25	1.90	Partly_Cloudy(fair)	True	False	1.90
2010-08-23 07:00:00 31326 7 141.55 141.55 141.55 65.8 185.80	76.1829878485	141.55	65.80	Partly_Cloudy(sunny)	True	False	65.80
2010-08-23 08:00:00 31375 8 329.72 329.72 329.72 124.3 432.80	76.1829878485	329.72	124.30	Partly_Cloudy(sunny)	True	False	124.30
2010-08-23 09:00:00 31424 9 539.76 539.76 539.76 100.5 708.50	76.1829878485	539.76	100.50	Partly_Cloudy(cloudy)	True	False	100.50
2010-08-23 10:00:00 31473 10 750.30 750.30 750.30 206.1 928.20	80.8338720103	750.30	206.10	Partly_Cloudy(cloudy)	True	False	206.10
2010-08-23 11:00:00 31522 11 853.61 853.61 853.61 87.9 1056.00	80.8338720103	853.61	87.90	Partly_Cloudy(light_rain)	True	False	87.90
2010-08-23 12:00:00 31571 12 899.44 899.44 899.44 173.4 1112.70	80.8338720103	899.44	173.40	Partly_Cloudy(partly_cloudy)	True	False	173.40
2010-08-23 13:00:00 31620 13 891.84 891.84 891.84 147.6 1103.30	80.8338720103	891.84	147.60	Partly_Cloudy(cloudy)	True	False	147.60
2010-08-23 14:00:00 31669 14 822.89 822.89 822.89 106.3 1018.00	80.8338720103	822.89	106.30	Partly_Cloudy(light_rain)	True	False	106.30
2010-08-23 15:00:00 31718 15 733.00 733.00 733.00 107.3 906.80	80.8338720103	733.00	107.30	Partly_Cloudy(light_rain)	True	False	107.30
2010-08-23 16:00:00 31767 16 110.70 110.70 110.70 80.3 699.50	15.8255897069	110.70	80.30	Isolated_T-Storms(light_rain)	True	False	80.30
2010-08-23 17:00:00 31816 17 69.13 69.13 69.13 10.7 436.80	15.8255897069	69.13	10.70	Isolated_T-Storms(light_rain)	True	False	10.70
2010-08-23 18:00:00 31865 18 28.63 28.63 28.63 0.4 180.90	15.8255897069	28.63	0.40	Isolated_T-Storms(light_rain)	True	False	0.40
2010-08-23 19:00:00 31914 19 4.99 4.99 4.99 0.0 31.50	15.8255897069	4.99	0.00	Isolated_T-Storms(light_rain)	True	False	0.00
2010-08-23 20:00:00 31963 20 0.00 0.00 0.00 0.0 0.00	15.8255897069	0.00	0.00	Isolated_T-Storms(cloudy)	True	False	0.00
2010-08-23 21:00:00 32012 21 0.00 0.00 0.00 0.0 0.00	15.8255897069	0.00	0.00	Isolated_T-Storms(cloudy)	True	False	0.00
2010-08-23 22:00:00 32061 22 0.00 0.00 0.00 0.0 0.00	15.8255897069	0.00	0.00	Isolated_T-Storms(cloudy)	True	False	0.00
2010-08-23 23:00:00 32110 23 0.00 0.00 0.00 0.0 0.00	15.8255897069	0.00	0.00	Isolated_T-Storms(cloudy)	True	False	0.00
2010-08-24 00:00:00 32159 0 0.00 0.00 0.00 0.0 0.00	17.2081454998	0.00	0.00	Isolated_T-Storms(cloudy)	True	False	0.00
2010-08-24 01:00:00 32208 1 0.00 0.00 0.00 0.0 0.00	17.2081454998	0.00	0.00	Few_Showers(cloudy)	True	False	0.00
2010-08-24 02:00:00 32257 2 0.00 0.00 0.00 0.0 0.00	17.2081454998	0.00	0.00	Few_Showers(cloudy)	True	False	0.00
2010-08-24 03:00:00 32306 3 0.00 0.00 0.00 0.0 0.00	17.2081454998	0.00	0.00	Few_Showers(cloudy)	True	False	0.00
2010-08-24 04:00:00 32355 4 0.00 0.00 0.00 0.0 0.00	23.1066887783	0.00	0.00	Cloudy(cloudy)	True	False	0.00
2010-08-24 05:00:00 32404 5 0.00 0.00 0.00 0.0 0.00	23.1066887783	0.00	0.00	Cloudy(partly_cloudy)	True	False	0.00
2010-08-24 06:00:00 32453 6 4.18 4.18 4.18 1.5 18.10	23.1066887783	4.18	1.50	Cloudy(cloudy)	True	False	1.50
2010-08-24 07:00:00 32502 7 31.97 31.97 31.97 103.9 185.80	17.2081454998	31.97	103.90	Few_Showers(cloudy)	True	False	103.90
2010-08-24 08:00:00 32551 8 74.25 74.25 74.25 290.1 431.50	17.2081454998	74.25	290.10	Few_Showers(cloudy)	True	False	290.10
2010-08-24 09:00:00 32600 9 121.92 121.92 121.92 413.8 708.50	17.2081454998	121.92	413.80	Few_Showers(cloudy)	True	False	413.80
2010-08-24 10:00:00 32649 10 168.80 168.80 168.80 207.8 928.20	18.1857358328	168.80	207.80	Showers(mostly_cloudy)	True	False	207.80
2010-08-24 11:00:00 32698 11 192.04 192.04 192.04 191.5 1056.00	18.1857358328	192.04	191.50	Showers(cloudy)	True	False	191.50
2010-08-24 12:00:00 32747 12 202.35 202.35 202.35 226.6 1112.70	18.1857358328	202.35	226.60	Showers(cloudy)	True	False	226.60
2010-08-24 13:00:00 32796 13 200.64 200.64 200.64 169.4 1103.30	18.1857358328	200.64	169.40	Showers(cloudy)	True	False	169.40
2010-08-24 14:00:00 32845 14 185.13 185.13 185.13 153.0 1018.00	18.1857358328	185.13	153.00	Showers(cloudy)	True	False	153.00
2010-08-24 15:00:00 32894 15 159.13 159.13 159.13 119.8 875.00	18.1857358328	159.13	119.80	Showers(cloudy)	True	False	119.80
2010-08-24 16:00:00 32943 16 110.70 110.70 110.70 94.0 643.30	17.2081454998	110.70	94.00	Few_Showers(cloudy)	True	False	94.00
2010-08-24 17:00:00 32992 17 69.02 69.02 69.02 37.9 401.10	17.2081454998	69.02	37.90	Few_Showers(cloudy)	True	False	37.90
2010-08-24 18:00:00 33041 18 31.13 31.13 31.13 5.2 180.90	17.2081454998	31.13	5.20	Few_Showers(cloudy)	True	False	5.20
2010-08-24 19:00:00 33090 19 5.42 5.42 5.42 0.0 31.50	17.2081454998	5.42	0.00	Few_Showers(cloudy)	True	False	0.00
2010-08-24 20:00:00 33139 20 0.00 0.00 0.00 0.0 0.00	17.2081454998	0.00	0.00	Few_Showers(cloudy)	True	False	0.00
2010-08-24 21:00:00 33188 21 0.00 0.00 0.00 0.0 0.00	17.2081454998	0.00	0.00	Few_Showers(cloudy)	True	False	0.00
2010-08-24 22:00:00 33237 22 0.00 0.00 0.00 0.0 0.00	18.1857358328	0.00	0.00	Showers(cloudy)	True	False	0.00
2010-08-24 23:00:00 33286 23 0.00 0.00 0.00 0.0 0.00	18.1857358328	0.00	0.00	Showers(cloudy)	True	False	0.00
2010-08-25 00:00:00 33335 0 0.00 0.00 0.00 0.0 0.00	18.1857358328	0.00	0.00	Showers(cloudy)	True	False	0.00
2010-08-25 01:00:00 33384 1 0.00 0.00 0.00 0.0 0.00	18.1857358328	0.00	0.00	Showers(cloudy)	True	False	0.00
2010-08-25 02:00:00 33433 2 0.00 0.00 0.00 0.0 0.00	18.1857358328	0.00	0.00	Showers(cloudy)	True	False	0.00
2010-08-25 03:00:00 33482 3 0.00 0.00 0.00 0.0 0.00	18.1857358328	0.00	0.00	Showers(cloudy)	True	False	0.00
2010-08-25 04:00:00 33531 4 0.00 0.00 0.00 0.0 0.00	17.2081454998	0.00	0.00	Few_Showers(cloudy)	True	False	0.00
2010-08-25 05:00:00 33580 5 0.00 0.00 0.00 0.0 0.00	17.2081454998	0.00	0.00	Few_Showers(cloudy)	True	False	0.00
2010-08-25 06:00:00 33629 6 3.11 3.11 3.11 0.0 18.10	17.2081454998	3.11	0.00	Few_Showers(light_rain)	True	False	0.00
2010-08-25 07:00:00 33678 7 31.97 31.97 31.97 36.4 185.80	17.2081454998	31.97	36.40	Few_Showers(light_rain)	True	False	36.40
2010-08-25 08:00:00 33727 8 71.50 71.50 71.50 119.8 415.50	17.2081454998	71.50	119.80	Few_Showers(light_rain)	True	False	119.80
2010-08-25 09:00:00 33776 9 121.92 121.92 121.92 245.6 708.50	17.2081454998	121.92	245.60	Few_Showers(cloudy)	True	False	245.60
2010-08-25 10:00:00 33825 10 237.60 237.60 237.60 366.2 928.20	25.5979314803	237.60	366.20	Few_Showers(cloudy)	True	False	366.20
2010-08-25 11:00:00 33874 11 270.31 270.31 270.31 386.4 1056.00	25.5979314803	270.31	386.40	Few_Showers(cloudy)	True	False	386.40
2010-08-25 12:00:00 33923 12 284.83 284.83 284.83 376.2 1112.70	25.5979314803	284.83	376.20	Few_Showers(cloudy)	True	False	376.20
2010-08-25 13:00:00 33972 13 282.42 282.42 282.42 239.1 1103.30	25.5979314803	282.42	239.10	Few_Showers(cloudy)	True	False	239.10
2010-08-25 14:00:00 34021 14 260.59 260.59 260.59 146.0 1018.00	25.5979314803	260.59	146.00	Few_Showers(cloudy)	True	False	146.00
2010-08-25 15:00:00 34070 15 223.98 223.98 223.98 236.1 875.00	25.5979314803	223.98	236.10	Few_Showers(cloudy)	True	False	236.10
2010-08-25 16:00:00 34119 16 110.70 110.70 110.70 137.3 643.30	17.2081454998	110.70	137.30	Isolated_T-Storms(cloudy)	True	False	137.30
2010-08-25 17:00:00 34168 17 69.02 69.02 69.02 58.7 401.10	17.2081454998	69.02	58.70	Isolated_T-Storms(cloudy)	True	False	58.70
2010-08-25 18:00:00 34217 18 31.13 31.13 31.13 42.8 180.90	17.2081454998	31.13	42.80	Isolated_T-Storms(cloudy)	True	False	42.80
2010-08-25 19:00:00 34266 19 5.42 5.42 5.42 4.9 31.50	17.2081454998	5.42	4.90	Few_Showers(light_rain)	True	False	4.90
2010-08-25 20:00:00 34315 20 0.00 0.00 0.00 0.0 0.00	17.2081454998	0.00	0.00	Few_Showers(cloudy)	True	False	0.00
2010-08-25 21:00:00 34364 21 0.00 0.00 0.00 0.0 0.00	17.2081454998	0.00	0.00	Few_Showers(cloudy)	True	False	0.00
2010-08-25 22:00:00 34413 22 0.00 0.00 0.00 0.0 0.00	17.2081454998	0.00	0.00	Mostly_Clear(cloudy)	False	False	0.00
2010-08-25 23:00:00 34462 23 0.00 0.00 0.00 0.0 0.00	17.2081454998	0.00	0.00	Mostly_Clear(cloudy)	False	False	0.00
2010-08-26 00:00:00 34511 0 0.00 0.00 0.00 0.0 0.00	20.0	0.00	0.00	Mostly_Clear(fair)	False	False	0.00
2010-08-26 01:00:00 34560 1 0.00 0.00 0.00 0.0 0.00	90.1098901099	0.00	0.00	Clear(fog)	True	False	0.00
2010-08-26 02:00:00 34609 2 0.00 0.00 0.00 0.0 0.00	90.1098901099	0.00	0.00	Clear(fog)	True	False	0.00
2010-08-26 03:00:00 34658 3 0.00 0.00 0.00 0.0 0.00	90.1098901099	0.00	0.00	Clear(fair)	True	False	0.00
2010-08-26 04:00:00 34707 4 0.00 0.00 0.00 0.0 0.00	76.3151333832	0.00	0.00	Partly_Cloudy(fog)	True	False	0.00
2010-08-26 05:00:00 34756 5 0.00 0.00 0.00 0.0 0.00	76.3151333832	0.00	0.00	Partly_Cloudy(partly_cloudy)	True	False	0.00
2010-08-26 06:00:00 34805 6 13.81 13.81 13.81 3.9 18.10	76.3151333832	13.81	3.90	Partly_Cloudy(fog)	True	False	3.90
2010-08-26 07:00:00 34854 7 141.79 141.79 141.79 125.9 185.80	76.3151333832	141.79	125.90	Mostly_Sunny(fair)	False	False	125.90
2010-08-26 08:00:00 34903 8 317.09 317.09 317.09 391.5 415.50	76.3151333832	317.09	391.50	Mostly_Sunny(sunny)	False	False	391.50
2010-08-26 09:00:00 34952 9 540.69 540.69 540.69 654.6 708.50	76.3151333832	540.69	654.60	Mostly_Sunny(sunny)	False	False	654.60
2010-08-26 10:00:00 35001 10 708.36 708.36 708.36 857.5 928.20	76.3151333832	708.36	857.50	Mostly_Sunny(sunny)	False	False	857.50
2010-08-26 11:00:00 35050 11 805.89 805.89 805.89 699.0 1056.00	76.3151333832	805.89	699.00	Mostly_Sunny(partly_cloudy)	False	False	699.00
2010-08-26 12:00:00 35099 12 849.16 849.16 849.16 909.0 1112.70	76.3151333832	849.16	909.00	Mostly_Sunny(partly_cloudy)	False	False	909.00
2010-08-26 13:00:00 35148 13 841.98 841.98 841.98 1003.3 1103.30	76.3151333832	841.98	1003.30	Mostly_Sunny(partly_cloudy)	False	False	1003.30
2010-08-26 14:00:00 35197 14 939.69 939.69 939.69 1066.6 1018.00	92.3070009886	939.69	1066.60	Sunny(partly_cloudy)	True	False	1066.60
2010-08-26 15:00:00 35246 15 807.69 807.69 807.69 762.0 875.00	92.3070009886	807.69	762.00	Sunny(partly_cloudy)	True	False	762.00
2010-08-26 16:00:00 35295 16 490.94 490.94 490.94 636.0 643.30	76.3151333832	490.94	636.00	Partly_Cloudy(partly_cloudy)	True	False	636.00
2010-08-26 17:00:00 35344 17 306.10 306.10 306.10 319.7 401.10	76.3151333832	306.10	319.70	Partly_Cloudy(partly_cloudy)	True	False	319.70
2010-08-26 18:00:00 35393 18 138.05 138.05 138.05 110.6 180.90	76.3151333832	138.05	110.60	Partly_Cloudy(fair)	True	False	110.60
2010-08-26 19:00:00 35442 19 28.38 28.38 28.38 7.1 31.50	90.1098901099	28.38	7.10	Sunny(partly_cloudy)	True	False	7.10
2010-08-26 20:00:00 35491 20 0.00 0.00 0.00 0.0 0.00	90.1098901099	0.00	0.00	Clear(clear)	True	False	0.00
2010-08-26 21:00:00 35540 21 0.00 0.00 0.00 0.0 0.00	90.1098901099	0.00	0.00	Clear(clear)	True	False	0.00
2010-08-26 22:00:00 35589 22 0.00 0.00 0.00 0.0 0.00	90.1098901099	0.00	0.00	Clear(clear)	True	False	0.00
2010-08-26 23:00:00 35638 23 0.00 0.00 0.00 0.0 0.00	90.1098901099	0.00	0.00	Clear(clear)	True	False	0.00
2010-08-27 00:00:00 35687 0 0.00 0.00 0.00 0.0 0.00	90.2499461323	0.00	0.00	Clear(clear)	True	False	0.00
2010-08-27 01:00:00 35736 1 0.00 0.00 0.00 0.0 0.00	90.2499461323	0.00	0.00	Clear(Unkown)	True	False	0.00
2010-08-27 02:00:00 35785 2 0.00 0.00 0.00 0.0 0.00	90.2499461323	0.00	0.00	Clear(fair)	True	False	0.00
2010-08-27 03:00:00 35834 3 0.00 0.00 0.00 0.0 0.00	90.2499461323	0.00	0.00	Clear(clear)	True	False	0.00
2010-08-27 04:00:00 35883 4 0.00 0.00 0.00 0.0 0.00	90.2499461323	0.00	0.00	Clear(clear)	True	False	0.00
2010-08-27 05:00:00 35932 5 0.00 0.00 0.00 0.0 0.00	90.2499461323	0.00	0.00	Clear(fog)	True	False	0.00
2010-08-27 06:00:00 35981 6 14.98 14.98 14.98 5.9 16.60	90.2499461323	14.98	5.90	Clear(sunny)	True	False	5.90
2010-08-27 07:00:00 36030 7 145.03 145.03 145.03 139.1 160.70	90.2499461323	145.03	139.10	Sunny(sunny)	True	False	139.10
2010-08-27 08:00:00 36079 8 374.99 374.99 374.99 429.7 415.50	90.2499461323	374.99	429.70	Sunny(sunny)	True	False	429.70
2010-08-27 09:00:00 36128 9 639.42 639.42 639.42 706.8 708.50	90.2499461323	639.42	706.80	Sunny(sunny)	True	False	706.80
2010-08-27 10:00:00 36177 10 860.69 860.69 860.69 920.5 928.20	92.7272727273	860.69	920.50	Sunny(sunny)	True	False	920.50
2010-08-27 11:00:00 36226 11 979.20 979.20 979.20 1054.6 1056.00	92.7272727273	979.20	1054.60	Sunny(fair)	True	False	1054.60
2010-08-27 12:00:00 36275 12 1031.78 1031.78 1031.78 1105.8 1112.70	92.7272727273	1031.78	1105.80	Sunny(fair)	True	False	1105.80
2010-08-27 13:00:00 36324 13 1023.06 1023.06 1023.06 1100.2 1103.30	92.7272727273	1023.06	1100.20	Sunny(fair)	True	False	1100.20
2010-08-27 14:00:00 36373 14 943.96 943.96 943.96 1021.7 1018.00	92.7272727273	943.96	1021.70	Sunny(sunny)	True	False	1021.70
2010-08-27 15:00:00 36422 15 811.36 811.36 811.36 879.7 875.00	92.7272727273	811.36	879.70	Sunny(fair)	True	False	879.70
2010-08-27 16:00:00 36471 16 580.58 580.58 580.58 653.4 643.30	90.2499461323	580.58	653.40	Sunny(sunny)	True	False	653.40
2010-08-27 17:00:00 36520 17 361.99 361.99 361.99 368.0 401.10	90.2499461323	361.99	368.00	Sunny(sunny)	True	False	368.00
2010-08-27 18:00:00 36569 18 163.26 163.26 163.26 96.0 180.90	90.2499461323	163.26	96.00	Sunny(sunny)	True	False	96.00
2010-08-27 19:00:00 36618 19 28.43 28.43 28.43 4.9 31.50	90.2499461323	28.43	4.90	Sunny(sunny)	True	False	4.90
2010-08-27 20:00:00 36667 20 0.00 0.00 0.00 0.0 0.00	90.2499461323	0.00	0.00	Clear(clear)	True	False	0.00
2010-08-27 21:00:00 36716 21 0.00 0.00 0.00 0.0 0.00	90.2499461323	0.00	0.00	Clear(clear)	True	False	0.00
2010-08-27 22:00:00 36765 22 0.00 0.00 0.00 0.0 0.00	90.2499461323	0.00	0.00	Clear(clear)	True	False	0.00
2010-08-27 23:00:00 36814 23 0.00 0.00 0.00 0.0 0.00	90.2499461323	0.00	0.00	Clear(clear)	True	False	0.00
2010-08-28 00:00:00 36863 0 0.00 0.00 0.00 0.0 0.00	90.2178030303	0.00	0.00	Clear(clear)	True	False	0.00
2010-08-28 01:00:00 36912 1 0.00 0.00 0.00 0.0 0.00	90.2178030303	0.00	0.00	Clear(clear)	True	False	0.00
2010-08-28 02:00:00 36961 2 0.00 0.00 0.00 0.0 0.00	90.2178030303	0.00	0.00	Clear(fair)	True	False	0.00
2010-08-28 03:00:00 37010 3 0.00 0.00 0.00 0.0 0.00	90.2178030303	0.00	0.00	Clear(clear)	True	False	0.00
2010-08-28 04:00:00 37059 4 0.00 0.00 0.00 0.0 0.00	90.2178030303	0.00	0.00	Clear(clear)	True	False	0.00
2010-08-28 05:00:00 37108 5 0.00 0.00 0.00 0.0 0.00	90.2178030303	0.00	0.00	Clear(clear)	True	False	0.00
2010-08-28 06:00:00 37157 6 11.01 11.01 11.01 6.3 12.20	90.2178030303	11.01	6.30	Clear(sunny)	True	False	6.30
2010-08-28 07:00:00 37206 7 144.98 144.98 144.98 133.6 160.70	90.2178030303	144.98	133.60	Sunny(sunny)	True	False	133.60
2010-08-28 08:00:00 37255 8 374.85 374.85 374.85 417.0 415.50	90.2178030303	374.85	417.00	Sunny(sunny)	True	False	417.00
2010-08-28 09:00:00 37304 9 639.19 639.19 639.19 696.6 708.50	90.2178030303	639.19	696.60	Sunny(sunny)	True	False	696.60
2010-08-28 10:00:00 37353 10 861.57 861.57 861.57 909.5 928.20	92.8215353938	861.57	909.50	Sunny(sunny)	True	False	909.50
2010-08-28 11:00:00 37402 11 980.20 980.20 980.20 1028.3 1056.00	92.8215353938	980.20	1028.30	Sunny(sunny)	True	False	1028.30
2010-08-28 12:00:00 37451 12 1032.83 1032.83 1032.83 1074.5 1112.70	92.8215353938	1032.83	1074.50	Sunny(sunny)	True	False	1074.50
2010-08-28 13:00:00 37500 13 1024.10 1024.10 1024.10 1056.5 1103.30	92.8215353938	1024.10	1056.50	Sunny(sunny)	True	False	1056.50
2010-08-28 14:00:00 37549 14 944.92 944.92 944.92 974.6 1018.00	92.8215353938	944.92	974.60	Sunny(sunny)	True	False	974.60
2010-08-28 15:00:00 37598 15 812.19 812.19 812.19 841.6 875.00	92.8215353938	812.19	841.60	Sunny(sunny)	True	False	841.60
2010-08-28 16:00:00 37647 16 580.37 580.37 580.37 620.9 643.30	90.2178030303	580.37	620.90	Sunny(sunny)	True	False	620.90
2010-08-28 17:00:00 37696 17 361.86 361.86 361.86 345.5 401.10	90.2178030303	361.86	345.50	Sunny(sunny)	True	False	345.50
2010-08-28 18:00:00 37745 18 163.20 163.20 163.20 95.1 180.90	90.2178030303	163.20	95.10	Sunny(sunny)	True	False	95.10
2010-08-28 19:00:00 37794 19 28.42 28.42 28.42 4.8 31.50	90.2178030303	28.42	4.80	Sunny(sunny)	True	False	4.80
2010-08-28 20:00:00 37843 20 0.00 0.00 0.00 0.0 0.00	90.2178030303	0.00	0.00	Clear(clear)	True	False	0.00
2010-08-28 21:00:00 37892 21 0.00 0.00 0.00 0.0 0.00	90.2178030303	0.00	0.00	Clear(clear)	True	False	0.00
2010-08-28 22:00:00 37941 22 0.00 0.00 0.00 0.0 0.00	90.2178030303	0.00	0.00	Clear(clear)	True	False	0.00
2010-08-28 23:00:00 37990 23 0.00 0.00 0.00 0.0 0.00	90.2178030303	0.00	0.00	Clear(clear)	True	False	0.00
2010-08-29 00:00:00 38039 0 0.00 0.00 0.00 0.0 0.00	90.4022582922	0.00	0.00	Clear(clear)	True	False	0.00
2010-08-29 01:00:00 38088 1 0.00 0.00 0.00 0.0 0.00	90.4022582922	0.00	0.00	Clear(clear)	True	False	0.00
2010-08-29 02:00:00 38137 2 0.00 0.00 0.00 0.0 0.00	90.4022582922	0.00	0.00	Clear(fair)	True	False	0.00
2010-08-29 03:00:00 38186 3 0.00 0.00 0.00 0.0 0.00	90.4022582922	0.00	0.00	Clear(fog)	True	False	0.00
2010-08-29 04:00:00 38235 4 0.00 0.00 0.00 0.0 0.00	90.4022582922	0.00	0.00	Clear(fog)	True	False	0.00
2010-08-29 05:00:00 38284 5 0.00 0.00 0.00 0.0 0.00	90.4022582922	0.00	0.00	Clear(clear)	True	False	0.00
2010-08-29 06:00:00 38333 6 11.03 11.03 11.03 4.1 12.20	90.4022582922	11.03	4.10	Clear(sunny)	True	False	4.10
2010-08-29 07:00:00 38382 7 130.99 130.99 130.99 128.4 144.90	90.4022582922	130.99	128.40	Sunny(sunny)	True	False	128.40
2010-08-29 08:00:00 38431 8 375.62 375.62 375.62 411.6 415.50	90.4022582922	375.62	411.60	Sunny(sunny)	True	False	411.60
2010-08-29 09:00:00 38480 9 640.50 640.50 640.50 679.5 708.50	90.4022582922	640.50	679.50	Sunny(sunny)	True	False	679.50
2010-08-29 10:00:00 38529 10 861.57 861.57 861.57 872.0 928.20	92.8215353938	861.57	872.00	Sunny(sunny)	True	False	872.00
2010-08-29 11:00:00 38578 11 980.20 980.20 980.20 995.6 1056.00	92.8215353938	980.20	995.60	Sunny(sunny)	True	False	995.60
2010-08-29 12:00:00 38627 12 1032.83 1032.83 1032.83 1033.9 1112.70	92.8215353938	1032.83	1033.90	Sunny(sunny)	True	False	1033.90
2010-08-29 13:00:00 38676 13 1024.10 1024.10 1024.10 1025.6 1103.30	92.8215353938	1024.10	1025.60	Sunny(sunny)	True	False	1025.60
2010-08-29 14:00:00 38725 14 944.92 944.92 944.92 956.3 1018.00	92.8215353938	944.92	956.30	Sunny(sunny)	True	False	956.30
2010-08-29 15:00:00 38774 15 812.19 812.19 812.19 829.4 875.00	92.8215353938	812.19	829.40	Sunny(sunny)	True	False	829.40
2010-08-29 16:00:00 38823 16 581.56 581.56 581.56 623.3 643.30	90.4022582922	581.56	623.30	Sunny(sunny)	True	False	623.30
2010-08-29 17:00:00 38872 17 362.60 362.60 362.60 338.4 401.10	90.4022582922	362.60	338.40	Sunny(sunny)	True	False	338.40
2010-08-29 18:00:00 38921 18 163.54 163.54 163.54 86.0 180.90	90.4022582922	163.54	86.00	Sunny(sunny)	True	False	86.00
2010-08-29 19:00:00 38970 19 28.48 28.48 28.48 4.3 31.50	90.4022582922	28.48	4.30	Sunny(sunny)	True	False	4.30
2010-08-29 20:00:00 39019 20 0.00 0.00 0.00 0.0 0.00	90.4022582922	0.00	0.00	Clear(clear)	True	False	0.00
2010-08-29 21:00:00 39068 21 0.00 0.00 0.00 0.0 0.00	90.4022582922	0.00	0.00	Clear(clear)	True	False	0.00
2010-08-29 22:00:00 39117 22 0.00 0.00 0.00 0.0 0.00	90.4022582922	0.00	0.00	Clear(clear)	True	False	0.00
2010-08-29 23:00:00 39166 23 0.00 0.00 0.00 0.0 0.00	90.4022582922	0.00	0.00	Clear(clear)	True	False	0.00
