2011-02-28 17:00:00 23877 17 33.21 33.21 7.28 1.7 34.60	21.0300804477	7.28	1.70	Cloudy(cloudy)	True	False	1.70
2011-02-28 18:00:00 23878 18 0.01 0.01 0.06 0.0 0.30	21.0300804477	0.06	0.00	Cloudy(cloudy)	True	False	0.00
2011-02-28 19:00:00 23879 19 0.00 0.00 0.00 0.0 0.00	21.0300804477	0.00	0.00	Cloudy(cloudy)	True	False	0.00
2011-02-28 20:00:00 23880 20 0.00 0.00 0.00 0.0 0.00	21.0300804477	0.00	0.00	Cloudy(Unkown)	True	False	0.00
2011-02-28 21:00:00 23881 21 0.00 0.00 0.00 0.0 0.00	21.0300804477	0.00	0.00	Cloudy(cloudy)	True	False	0.00
2011-02-28 22:00:00 23882 22 0.00 0.00 0.00 0.0 0.00	4.48905932777	0.00	0.00	Showers(cloudy)	True	False	0.00
2011-02-28 23:00:00 23883 23 0.00 0.00 0.00 0.0 0.00	5.58312655087	0.00	0.00	Few_Showers(mostly_cloudy)	True	False	0.00
2011-03-01 00:00:00 23884 0 0.00 0.00 0.00 0.0 0.00	22.7170742652	0.00	0.00	Mostly_Cloudy(fair)	True	False	0.00
2011-03-01 01:00:00 23885 1 0.00 0.00 0.00 0.0 0.00	22.7170742652	0.00	0.00	Mostly_Cloudy(fair)	True	False	0.00
2011-03-01 02:00:00 23886 2 0.00 0.00 0.00 0.0 0.00	22.7170742652	0.00	0.00	Mostly_Cloudy(fair)	True	False	0.00
2011-03-01 03:00:00 23887 3 0.00 0.00 0.00 0.0 0.00	94.1931238691	0.00	0.00	Clear(fair)	True	False	0.00
2011-03-01 04:00:00 23888 4 0.00 0.00 0.00 0.0 0.00	94.1931238691	0.00	0.00	Clear(fair)	True	False	0.00
2011-03-01 05:00:00 23889 5 0.00 0.00 0.00 0.0 0.00	94.1931238691	0.00	0.00	Clear(fair)	True	False	0.00
2011-03-01 06:00:00 23890 6 25.71 25.71 25.71 10.5 27.30	94.1931238691	25.71	10.50	Clear(fair)	True	False	10.50
2011-03-01 07:00:00 23891 7 228.14 228.14 228.14 86.9 242.20	94.1931238691	228.14	86.90	Sunny(fair)	True	False	86.90
2011-03-01 08:00:00 23892 8 572.60 572.60 572.60 414.6 607.90	94.1931238691	572.60	414.60	Sunny(fair)	True	False	414.60
2011-03-01 09:00:00 23893 9 835.12 835.12 835.12 872.1 886.60	94.1931238691	835.12	872.10	Sunny(fair)	True	False	872.10
2011-03-01 10:00:00 23894 10 1020.96 1020.96 1020.96 1051.7 1063.70	95.9818847562	1020.96	1051.70	Sunny(fair)	True	False	1051.70
2011-03-01 11:00:00 23895 11 1103.50 1103.50 1103.50 1133.5 1149.70	95.9818847562	1103.50	1133.50	Sunny(fair)	True	False	1133.50
2011-03-01 12:00:00 23896 12 1097.65 1097.65 1097.65 1119.5 1143.60	95.9818847562	1097.65	1119.50	Sunny(fair)	True	False	1119.50
2011-03-01 13:00:00 23897 13 996.10 996.10 996.10 1001.7 1037.80	95.9818847562	996.10	1001.70	Sunny(fair)	True	False	1001.70
2011-03-01 14:00:00 23898 14 855.58 855.58 855.58 862.8 891.40	95.9818847562	855.58	862.80	Sunny(fair)	True	False	862.80
2011-03-01 15:00:00 23899 15 616.40 616.40 616.40 609.4 642.20	95.9818847562	616.40	609.40	Sunny(fair)	True	False	609.40
2011-03-01 16:00:00 23900 16 284.46 284.46 284.46 269.8 302.00	94.1931238691	284.46	269.80	Sunny(fair)	True	False	269.80
2011-03-01 17:00:00 23901 17 32.59 32.59 32.59 22.2 34.60	94.1931238691	32.59	22.20	Sunny(fair)	True	False	22.20
2011-03-01 18:00:00 23902 18 0.28 0.28 0.28 0.0 0.30	94.1931238691	0.28	0.00	Clear(fair)	True	False	0.00
2011-03-01 19:00:00 23903 19 0.00 0.00 0.00 0.0 0.00	94.1931238691	0.00	0.00	Sunny(fair)	True	False	0.00
2011-03-01 20:00:00 23904 20 0.00 0.00 0.00 0.0 0.00	94.1931238691	0.00	0.00	Sunny(fair)	True	False	0.00
2011-03-01 21:00:00 23905 21 0.00 0.00 0.00 0.0 0.00	94.1931238691	0.00	0.00	Sunny(fair)	True	False	0.00
2011-03-01 22:00:00 23906 22 0.00 0.00 0.00 0.0 0.00	95.9818847562	0.00	0.00	Sunny(fair)	True	False	0.00
2011-03-01 23:00:00 23907 23 0.00 0.00 0.00 0.0 0.00	95.9818847562	0.00	0.00	Sunny(fair)	True	False	0.00
2011-03-02 00:00:00 23908 0 0.00 0.00 0.00 0.0 0.00	95.9818847562	0.00	0.00	Sunny(fair)	True	False	0.00
2011-03-02 01:00:00 23909 1 0.00 0.00 0.00 0.0 0.00	95.9818847562	0.00	0.00	Sunny(fair)	True	False	0.00
2011-03-02 02:00:00 23910 2 0.00 0.00 0.00 0.0 0.00	95.9818847562	0.00	0.00	Sunny(fair)	True	False	0.00
2011-03-02 03:00:00 23911 3 0.00 0.00 0.00 0.0 0.00	95.9818847562	0.00	0.00	Sunny(fair)	True	False	0.00
2011-03-02 04:00:00 23912 4 0.00 0.00 0.00 0.0 0.00	94.1931238691	0.00	0.00	Sunny(fair)	True	False	0.00
2011-03-02 05:00:00 23913 5 0.00 0.00 0.00 0.0 0.00	94.1931238691	0.00	0.00	Sunny(fair)	True	False	0.00
