2011-02-22 14:00:00 16872 14 792.43 792.43 792.43 859.0 891.40	88.8975397073	792.43	859.00	Sunny(fair)	True	False	859.00
2011-02-22 15:00:00 16873 15 570.90 570.90 570.90 593.7 642.20	88.8975397073	570.90	593.70	Sunny(fair)	True	False	593.70
2011-02-22 16:00:00 16874 16 240.10 240.10 268.47 239.6 302.00	79.5032077644	268.47	239.60	Sunny(fair)	True	False	239.60
2011-02-22 17:00:00 16875 17 26.79 26.79 29.96 11.7 33.70	79.5032077644	29.96	11.70	Sunny(fair)	True	False	11.70
2011-02-22 18:00:00 16876 18 0.00 0.00 0.00 0.0 0.00	79.5032077644	0.00	0.00	Clear(fair)	True	False	0.00
2011-02-22 19:00:00 16877 19 0.00 0.00 0.00 0.0 0.00	79.5032077644	0.00	0.00	Clear(fair)	True	False	0.00
2011-02-22 20:00:00 16878 20 0.00 0.00 0.00 0.0 0.00	79.5032077644	0.00	0.00	Clear(fair)	True	False	0.00
2011-02-22 21:00:00 16879 21 0.00 0.00 0.00 0.0 0.00	79.5032077644	0.00	0.00	Clear(fair)	True	False	0.00
2011-02-22 22:00:00 16880 22 0.00 0.00 0.00 0.0 0.00	79.5032077644	0.00	0.00	Clear(fair)	True	False	0.00
2011-02-22 23:00:00 16881 23 0.00 0.00 0.00 0.0 0.00	79.5032077644	0.00	0.00	Clear(fair)	True	False	0.00
2011-02-23 00:00:00 16882 0 0.00 0.00 0.00 0.0 0.00	79.5032077644	0.00	0.00	Clear(fair)	True	False	0.00
2011-02-23 01:00:00 16883 1 0.00 0.00 0.00 0.0 0.00	79.5032077644	0.00	0.00	Clear(fair)	True	False	0.00
2011-02-23 02:00:00 16884 2 0.00 0.00 0.00 0.0 0.00	79.5032077644	0.00	0.00	Clear(fair)	True	False	0.00
2011-02-23 03:00:00 16885 3 0.00 0.00 0.00 0.0 0.00	79.5032077644	0.00	0.00	Clear(fair)	True	False	0.00
2011-02-23 04:00:00 16886 4 0.00 0.00 0.00 0.0 0.00	79.5032077644	0.00	0.00	Clear(fair)	True	False	0.00
2011-02-23 05:00:00 16887 5 0.00 0.00 0.00 0.0 0.00	79.5032077644	0.00	0.00	Clear(fair)	True	False	0.00
2011-02-23 06:00:00 16888 6 14.15 14.15 14.15 3.2 17.80	79.5032077644	14.15	3.20	Clear(fair)	True	False	3.20
2011-02-23 07:00:00 16889 7 192.56 192.56 192.56 171.6 242.20	79.5032077644	192.56	171.60	Sunny(fair)	True	False	171.60
2011-02-23 08:00:00 16890 8 483.30 483.30 483.30 533.0 607.90	79.5032077644	483.30	533.00	Sunny(fair)	True	False	533.00
2011-02-23 09:00:00 16891 9 704.88 704.88 704.88 824.3 886.60	79.5032077644	704.88	824.30	Sunny(fair)	True	False	824.30
2011-02-23 10:00:00 16892 10 945.60 945.60 945.60 999.3 1063.70	88.8975397073	945.60	999.30	Sunny(fair)	True	False	999.30
2011-02-23 11:00:00 16893 11 1022.06 1022.06 1022.06 1082.7 1149.70	88.8975397073	1022.06	1082.70	Sunny(fair)	True	False	1082.70
2011-02-23 12:00:00 16894 12 1016.63 1016.63 1016.63 1086.2 1143.60	88.8975397073	1016.63	1086.20	Sunny(fair)	True	False	1086.20
2011-02-23 13:00:00 16895 13 922.58 922.58 922.58 983.5 1037.80	88.8975397073	922.58	983.50	Sunny(fair)	True	False	983.50
2011-02-23 14:00:00 16896 14 792.43 792.43 792.43 828.7 891.40	88.8975397073	792.43	828.70	Sunny(fair)	True	False	828.70
2011-02-23 15:00:00 16897 15 570.90 570.90 570.90 573.7 642.20	88.8975397073	570.90	573.70	Sunny(fair)	True	False	573.70
2011-02-23 16:00:00 16898 16 240.10 240.10 240.10 236.0 302.00	79.5032077644	240.10	236.00	Sunny(fair)	True	False	236.00
2011-02-23 17:00:00 16899 17 26.79 26.79 26.79 13.2 33.70	79.5032077644	26.79	13.20	Sunny(fair)	True	False	13.20
2011-02-23 18:00:00 16900 18 0.00 0.00 0.00 0.0 0.00	79.5032077644	0.00	0.00	Clear(fair)	True	False	0.00
2011-02-23 19:00:00 16901 19 0.00 0.00 0.00 0.0 0.00	79.5032077644	0.00	0.00	Clear(fair)	True	False	0.00
2011-02-23 20:00:00 16902 20 0.00 0.00 0.00 0.0 0.00	79.5032077644	0.00	0.00	Clear(fair)	True	False	0.00
2011-02-23 21:00:00 16903 21 0.00 0.00 0.00 0.0 0.00	79.5032077644	0.00	0.00	Clear(fair)	True	False	0.00
2011-02-23 22:00:00 16904 22 0.00 0.00 0.00 0.0 0.00	79.5032077644	0.00	0.00	Clear(fair)	True	False	0.00
2011-02-23 23:00:00 16905 23 0.00 0.00 0.00 0.0 0.00	79.5032077644	0.00	0.00	Clear(fair)	True	False	0.00
2011-02-24 00:00:00 16906 0 0.00 0.00 0.00 0.0 0.00	79.5032077644	0.00	0.00	Clear(fair)	True	False	0.00
2011-02-24 01:00:00 16907 1 0.00 0.00 0.00 0.0 0.00	79.5032077644	0.00	0.00	Clear(fair)	True	False	0.00
2011-02-24 02:00:00 16908 2 0.00 0.00 0.00 0.0 0.00	79.5032077644	0.00	0.00	Clear(fair)	True	False	0.00
2011-02-24 03:00:00 16909 3 0.00 0.00 0.00 0.0 0.00	79.5032077644	0.00	0.00	Clear(fair)	True	False	0.00
2011-02-24 04:00:00 16910 4 0.00 0.00 0.00 0.0 0.00	79.5032077644	0.00	0.00	Clear(fair)	True	False	0.00
2011-02-24 05:00:00 16911 5 0.00 0.00 0.00 0.0 0.00	79.5032077644	0.00	0.00	Clear(fair)	True	False	0.00
2011-02-24 06:00:00 16912 6 14.15 14.15 14.15 3.7 17.80	79.5032077644	14.15	3.70	Clear(fair)	True	False	3.70
2011-02-24 07:00:00 16913 7 192.56 192.56 192.56 158.1 242.20	79.5032077644	192.56	158.10	Sunny(fair)	True	False	158.10
2011-02-24 08:00:00 16914 8 483.30 483.30 483.30 379.0 607.90	79.5032077644	483.30	379.00	Sunny(fair)	True	False	379.00
2011-02-24 09:00:00 16915 9 704.88 704.88 704.88 312.4 886.60	79.5032077644	704.88	312.40	Sunny(cloudy)	True	False	312.40
2011-02-24 10:00:00 16916 10 945.60 945.60 945.60 509.4 1063.70	88.8975397073	945.60	509.40	Sunny(cloudy)	True	False	509.40
2011-02-24 11:00:00 16917 11 1022.06 1022.06 1022.06 445.0 1149.70	88.8975397073	1022.06	445.00	Sunny(fair)	True	False	445.00
2011-02-24 12:00:00 16918 12 1016.63 1016.63 1016.63 479.5 1143.60	88.8975397073	1016.63	479.50	Sunny(mostly_cloudy)	True	False	479.50
2011-02-24 13:00:00 16919 13 922.58 922.58 922.58 284.2 1037.80	88.8975397073	922.58	284.20	Sunny(cloudy)	True	False	284.20
