2011-03-09 13:00:00 34017 13 1044.07 1044.07 193.62 316.7 1152.20	16.8043837523	193.62	316.70	Cloudy(mostly_cloudy)	True	False	316.70
2011-03-09 14:00:00 34018 14 292.32 292.32 545.78 195.8 1063.50	51.319215414	545.78	195.80	Mostly_Cloudy(cloudy)	True	False	195.80
2011-03-09 15:00:00 34019 15 77.61 250.43 77.61 108.9 911.10	8.51877607789	77.61	108.90	Showers(cloudy)	True	False	108.90
2011-03-09 16:00:00 34020 16 93.09 182.35 93.09 23.0 663.40	14.0319131436	93.09	23.00	Cloudy(cloudy)	True	False	23.00
2011-03-09 17:00:00 34021 17 46.16 90.43 46.16 3.6 329.00	14.0319131436	46.16	3.60	Cloudy(cloudy)	True	False	3.60
2011-03-09 18:00:00 34022 18 7.55 14.79 7.55 0.0 53.80	14.0319131436	7.55	0.00	Cloudy(cloudy)	True	False	0.00
2011-03-09 19:00:00 34023 19 0.01 0.03 0.01 0.0 0.10	14.0319131436	0.01	0.00	Cloudy(cloudy)	True	False	0.00
2011-03-09 20:00:00 34024 20 0.00 0.00 0.00 0.0 0.00	14.0319131436	0.00	0.00	Cloudy(cloudy)	True	False	0.00
2011-03-09 21:00:00 34025 21 0.00 0.00 0.00 0.0 0.00	0.64880112835	0.00	0.00	Rain_/_Snow_Showers(cloudy)	True	False	0.00
2011-03-09 22:00:00 34026 22 0.00 0.00 0.00 0.0 0.00	0.64880112835	0.00	0.00	Rain_/_Snow_Showers(cloudy)	True	False	0.00
2011-03-09 23:00:00 34027 23 0.00 0.00 0.00 0.0 0.00	0.64880112835	0.00	0.00	Rain_/_Snow_Showers(cloudy)	True	False	0.00
2011-03-10 00:00:00 34028 0 0.00 0.00 0.00 0.0 0.00	4.48905932777	0.00	0.00	Showers(cloudy)	True	False	0.00
2011-03-10 01:00:00 34029 1 0.00 0.00 0.00 0.0 0.00	4.48905932777	0.00	0.00	Showers(cloudy)	True	False	0.00
2011-03-10 02:00:00 34030 2 0.00 0.00 0.00 0.0 0.00	4.48905932777	0.00	0.00	Showers(light_rain)	True	False	0.00
2011-03-10 03:00:00 34031 3 0.00 0.00 0.00 0.0 0.00	4.48905932777	0.00	0.00	Showers(light_rain)	True	False	0.00
2011-03-10 04:00:00 34032 4 0.00 0.00 0.00 0.0 0.00	4.48905932777	0.00	0.00	Showers(cloudy)	True	False	0.00
2011-03-10 05:00:00 34033 5 0.00 0.00 0.00 0.0 0.00	4.48905932777	0.00	0.00	Showers(light_rain)	True	False	0.00
2011-03-10 06:00:00 34034 6 1.80 1.80 1.80 0.0 27.30	6.59574468085	1.80	0.00	Light_Rain(light_rain)	True	False	0.00
2011-03-10 07:00:00 34035 7 15.97 15.97 15.97 9.9 242.20	6.59574468085	15.97	9.90	Light_Rain(light_rain)	True	False	9.90
2011-03-10 08:00:00 34036 8 40.10 40.10 40.10 106.2 607.90	6.59574468085	40.10	106.20	Light_Rain(light_rain)	True	False	106.20
2011-03-10 09:00:00 34037 9 39.80 39.80 39.80 176.4 886.60	4.48905932777	39.80	176.40	Rain(cloudy)	True	False	176.40
2011-03-10 10:00:00 34038 10 90.61 90.61 90.61 101.9 1063.70	8.51877607789	90.61	101.90	Rain(cloudy)	True	False	101.90
2011-03-10 11:00:00 34039 11 97.94 97.94 97.94 52.7 1149.70	8.51877607789	97.94	52.70	Rain(light_rain)	True	False	52.70
2011-03-10 12:00:00 34040 12 98.00 98.00 98.00 64.4 1150.40	8.51877607789	98.00	64.40	Rain(rain)	True	False	64.40
2011-03-10 13:00:00 34041 13 98.15 98.15 98.15 97.3 1152.20	8.51877607789	98.15	97.30	Rain(rain)	True	False	97.30
2011-03-10 14:00:00 34042 14 90.60 90.60 90.60 50.0 1063.50	8.51877607789	90.60	50.00	Rain(light_rain)	True	False	50.00
2011-03-10 15:00:00 34043 15 77.61 77.61 77.61 38.3 911.10	8.51877607789	77.61	38.30	Rain(light_rain)	True	False	38.30
2011-03-10 16:00:00 34044 16 29.78 29.78 29.78 7.9 663.40	4.48905932777	29.78	7.90	Rain(light_rain)	True	False	7.90
2011-03-10 17:00:00 34045 17 14.77 14.77 14.77 0.0 329.00	4.48905932777	14.77	0.00	Rain(light_rain)	True	False	0.00
2011-03-10 18:00:00 34046 18 2.42 2.42 2.42 0.0 53.80	4.48905932777	2.42	0.00	Rain(rain)	True	False	0.00
2011-03-10 19:00:00 34047 19 0.00 0.00 0.00 0.0 0.10	4.48905932777	0.00	0.00	Rain(light_rain)	True	False	0.00
2011-03-10 20:00:00 34048 20 0.00 0.00 0.00 0.0 0.00	4.48905932777	0.00	0.00	Rain(rain)	True	False	0.00
2011-03-10 21:00:00 34049 21 0.00 0.00 0.00 0.0 0.00	4.48905932777	0.00	0.00	Rain(light_rain)	True	False	0.00
2011-03-10 22:00:00 34050 22 0.00 0.00 0.00 0.0 0.00	4.48905932777	0.00	0.00	Rain(cloudy)	True	False	0.00
2011-03-10 23:00:00 34051 23 0.00 0.00 0.00 0.0 0.00	4.48905932777	0.00	0.00	Rain(rain)	True	False	0.00
2011-03-11 00:00:00 34052 0 0.00 0.00 0.00 0.0 0.00	0.0	0.00	0.00	Heavy_Rain(rain)	True	False	0.00
2011-03-11 01:00:00 34053 1 0.00 0.00 0.00 0.0 0.00	0.0	0.00	0.00	Heavy_Rain(rain)	True	False	0.00
2011-03-11 02:00:00 34054 2 0.00 0.00 0.00 0.0 0.00	0.0	0.00	0.00	Heavy_Rain(light_rain)	True	False	0.00
2011-03-11 03:00:00 34055 3 0.00 0.00 0.00 0.0 0.00	4.48905932777	0.00	0.00	Rain(light_rain)	True	False	0.00
2011-03-11 04:00:00 34056 4 0.00 0.00 0.00 0.0 0.00	4.48905932777	0.00	0.00	Rain(light_rain)	True	False	0.00
2011-03-11 05:00:00 34057 5 0.00 0.00 0.00 0.0 0.00	4.48905932777	0.00	0.00	Rain(mostly_cloudy)	True	False	0.00
2011-03-11 06:00:00 34058 6 1.80 1.80 1.80 0.0 27.30	6.59574468085	1.80	0.00	Few_Showers(cloudy)	True	False	0.00
2011-03-11 07:00:00 34059 7 15.97 15.97 15.97 36.9 242.20	6.59574468085	15.97	36.90	Few_Showers(light_rain)	True	False	36.90
2011-03-11 08:00:00 34060 8 40.10 40.10 40.10 142.0 607.90	6.59574468085	40.10	142.00	Few_Showers(cloudy)	True	False	142.00
2011-03-11 09:00:00 34061 9 124.41 124.41 124.41 589.4 886.60	14.0319131436	124.41	589.40	Cloudy(cloudy)	True	False	589.40
2011-03-11 10:00:00 34062 10 178.75 178.75 178.75 360.2 1063.70	16.8043837523	178.75	360.20	Cloudy(cloudy)	True	False	360.20
2011-03-11 11:00:00 34063 11 193.20 193.20 193.20 675.4 1149.70	16.8043837523	193.20	675.40	Cloudy(cloudy)	True	False	675.40
2011-03-11 12:00:00 34064 12 590.38 590.38 590.38 558.7 1150.40	51.319215414	590.38	558.70	Mostly_Cloudy(cloudy)	True	False	558.70
2011-03-11 13:00:00 34065 13 591.30 591.30 591.30 735.1 1152.20	51.319215414	591.30	735.10	Mostly_Cloudy(mostly_cloudy)	True	False	735.10
