2011-03-23 03:00:00 49593 3 0.00 0.00 0.00 0.0 0.00	8.25214899713	0.00	0.00	Light_Rain(light_snow)	True	False	0.00
2011-03-23 04:00:00 49594 4 0.00 0.00 0.00 0.0 0.00	8.25214899713	0.00	0.00	Snow(light_snow)	False	False	0.00
2011-03-23 05:00:00 49595 5 0.00 0.00 0.00 0.0 0.00	8.25214899713	0.00	0.00	Snow(light_snow)	False	False	0.00
2011-03-23 06:00:00 49596 6 2.25 2.25 2.25 0.0 27.30	8.25214899713	2.25	0.00	Snow(light_snow)	False	False	0.00
2011-03-23 07:00:00 49597 7 19.67 19.67 19.67 0.0 238.40	8.25214899713	19.67	0.00	Snow(light_snow)	False	False	0.00
2011-03-23 08:00:00 49598 8 47.66 47.66 47.66 0.0 577.50	8.25214899713	47.66	0.00	Light_Snow(light_snow)	False	False	0.00
2011-03-23 09:00:00 49599 9 69.65 69.65 69.65 0.2 844.00	8.25214899713	69.65	0.20	Rain_/_Snow_Showers(light_snow)	False	False	0.20
2011-03-23 10:00:00 49600 10 83.54 83.54 83.54 0.6 1012.30	8.25214899713	83.54	0.60	Rain_/_Snow_Showers(cloudy)	False	False	0.60
2011-03-23 11:00:00 49601 11 93.06 93.06 93.06 10.4 1127.70	8.25214899713	93.06	10.40	Rain_/_Snow_Showers(light_rain)	False	False	10.40
2011-03-23 12:00:00 49602 12 97.88 97.88 97.88 17.9 1186.10	8.25214899713	97.88	17.90	Rain_/_Snow_Showers(light_rain)	False	False	17.90
2011-03-23 13:00:00 49603 13 96.57 96.57 96.57 27.4 1170.30	8.25214899713	96.57	27.40	Rain_/_Snow(light_rain)	False	False	27.40
2011-03-23 14:00:00 49604 14 95.55 95.55 95.55 41.5 1157.90	8.25214899713	95.55	41.50	Rain_/_Snow(light_rain)	False	False	41.50
2011-03-23 15:00:00 49605 15 81.84 81.84 81.84 33.2 991.70	8.25214899713	81.84	33.20	Rain_/_Snow(cloudy)	False	False	33.20
2011-03-23 16:00:00 49606 16 32.58 32.58 32.58 15.0 684.10	4.7619047619	32.58	15.00	Rain(wintry_mix)	True	False	15.00
2011-03-23 17:00:00 49607 17 16.62 16.62 16.62 4.6 349.00	4.7619047619	16.62	4.60	Rain(light_rain)	True	False	4.60
2011-03-23 18:00:00 49608 18 4.68 4.68 4.68 0.0 98.30	4.7619047619	4.68	0.00	Rain(light_rain)	True	False	0.00
2011-03-23 19:00:00 49609 19 0.28 0.28 0.28 0.0 5.90	4.7619047619	0.28	0.00	Wintry_Mix(light_rain)	True	False	0.00
2011-03-23 20:00:00 49610 20 0.00 0.00 0.00 0.0 0.00	4.7619047619	0.00	0.00	Wintry_Mix(t-storm)	True	False	0.00
2011-03-23 21:00:00 49611 21 0.00 0.00 0.00 0.0 0.00	4.7619047619	0.00	0.00	Wintry_Mix(light_snow)	True	False	0.00
2011-03-23 22:00:00 49612 22 0.00 0.00 0.00 0.0 0.00	4.7619047619	0.00	0.00	Rain(light_snow)	True	False	0.00
2011-03-23 23:00:00 49613 23 0.00 0.00 0.00 0.0 0.00	4.7619047619	0.00	0.00	Rain(cloudy)	True	False	0.00
2011-03-24 00:00:00 49614 0 0.00 0.00 0.00 0.0 0.00	4.7619047619	0.00	0.00	Rain(light_snow)	True	False	0.00
2011-03-24 01:00:00 49615 1 0.00 0.00 0.00 0.0 0.00	4.7619047619	0.00	0.00	Wintry_Mix(cloudy)	True	False	0.00
2011-03-24 02:00:00 49616 2 0.00 0.00 0.00 0.0 0.00	4.7619047619	0.00	0.00	Wintry_Mix(light_snow)	True	False	0.00
2011-03-24 03:00:00 49617 3 0.00 0.00 0.00 0.0 0.00	4.7619047619	0.00	0.00	Wintry_Mix(light_snow)	True	False	0.00
2011-03-24 04:00:00 49618 4 0.00 0.00 0.00 0.0 0.00	4.7619047619	0.00	0.00	Rain_/_Snow(cloudy)	False	False	0.00
2011-03-24 05:00:00 49619 5 0.00 0.00 0.00 0.0 0.00	4.7619047619	0.00	0.00	Rain_/_Snow(cloudy)	False	False	0.00
2011-03-24 06:00:00 49620 6 1.30 1.30 1.30 0.0 27.30	4.7619047619	1.30	0.00	Rain_/_Snow(cloudy)	False	False	0.00
2011-03-24 07:00:00 49621 7 11.35 11.35 11.35 0.1 238.40	4.7619047619	11.35	0.10	Snow_Shower(cloudy)	False	False	0.10
2011-03-24 08:00:00 49622 8 27.50 27.50 27.50 5.1 577.50	4.7619047619	27.50	5.10	Snow_Shower(cloudy)	False	False	5.10
2011-03-24 09:00:00 49623 9 40.19 40.19 40.19 13.6 844.00	4.7619047619	40.19	13.60	Snow_Shower(cloudy)	False	False	13.60
2011-03-24 10:00:00 49624 10 48.20 48.20 48.20 35.1 1012.30	4.7619047619	48.20	35.10	Snow_Shower(cloudy)	False	False	35.10
2011-03-24 11:00:00 49625 11 53.70 53.70 53.70 173.0 1127.70	4.7619047619	53.70	173.00	Snow_Shower(cloudy)	False	False	173.00
2011-03-24 12:00:00 49626 12 56.48 56.48 56.48 432.5 1186.10	4.7619047619	56.48	432.50	Snow_Shower(cloudy)	False	False	432.50
2011-03-24 13:00:00 49627 13 150.37 150.37 150.37 349.6 1170.30	12.8491620112	150.37	349.60	Cloudy(cloudy)	True	False	349.60
2011-03-24 14:00:00 49628 14 148.78 148.78 148.78 350.9 1157.90	12.8491620112	148.78	350.90	Cloudy(cloudy)	True	False	350.90
2011-03-24 15:00:00 49629 15 127.43 127.43 127.43 549.1 991.70	12.8491620112	127.43	549.10	Cloudy(cloudy)	True	False	549.10
2011-03-24 16:00:00 49630 16 201.26 201.26 201.26 698.1 684.10	29.4199134199	201.26	698.10	Mostly_Cloudy(fair)	True	False	698.10
2011-03-24 17:00:00 49631 17 102.68 102.68 102.68 338.8 349.00	29.4199134199	102.68	338.80	Mostly_Cloudy(fair)	True	False	338.80
2011-03-24 18:00:00 49632 18 28.92 28.92 28.92 68.1 98.30	29.4199134199	28.92	68.10	Mostly_Cloudy(sunny)	True	False	68.10
2011-03-24 19:00:00 49633 19 4.30 4.30 4.30 0.6 5.90	72.893982808	4.30	0.60	Partly_Cloudy(sunny)	True	False	0.60
2011-03-24 20:00:00 49634 20 0.00 0.00 0.00 0.0 0.00	72.893982808	0.00	0.00	Partly_Cloudy(clear)	True	False	0.00
2011-03-24 21:00:00 49635 21 0.00 0.00 0.00 0.0 0.00	72.893982808	0.00	0.00	Partly_Cloudy(clear)	True	False	0.00
2011-03-24 22:00:00 49636 22 0.00 0.00 0.00 0.0 0.00	85.36855904	0.00	0.00	Clear(clear)	True	False	0.00
2011-03-24 23:00:00 49637 23 0.00 0.00 0.00 0.0 0.00	85.36855904	0.00	0.00	Clear(clear)	True	False	0.00
2011-03-25 00:00:00 49638 0 0.00 0.00 0.00 0.0 0.00	85.36855904	0.00	0.00	Clear(clear)	True	False	0.00
2011-03-25 01:00:00 49639 1 0.00 0.00 0.00 0.0 0.00	85.36855904	0.00	0.00	Clear(clear)	True	False	0.00
2011-03-25 02:00:00 49640 2 0.00 0.00 0.00 0.0 0.00	85.36855904	0.00	0.00	Clear(fair)	True	False	0.00
2011-03-25 03:00:00 49641 3 0.00 0.00 0.00 0.0 0.00	85.36855904	0.00	0.00	Clear(clear)	True	False	0.00
