2011-03-16 12:00:00 41975 12 1053.94 1053.94 160.51 441.0 1186.10	13.5323182414	160.51	441.00	Cloudy(cloudy)	True	False	441.00
2011-03-16 13:00:00 41976 13 435.13 435.13 158.37 537.1 1170.30	13.5323182414	158.37	537.10	Cloudy(cloudy)	True	False	537.10
2011-03-16 14:00:00 41977 14 711.05 430.52 711.05 776.9 1157.90	61.4082918116	711.05	776.90	Mostly_Cloudy(mostly_cloudy)	True	False	776.90
2011-03-16 15:00:00 41978 15 608.99 368.72 608.99 803.0 991.70	61.4082918116	608.99	803.00	Mostly_Cloudy(cloudy)	True	False	803.00
2011-03-16 16:00:00 41979 16 481.14 254.35 481.14 444.7 684.10	70.3313379985	481.14	444.70	Partly_Cloudy(mostly_cloudy)	True	False	444.70
2011-03-16 17:00:00 41980 17 245.46 129.76 245.46 256.1 349.00	70.3313379985	245.46	256.10	Partly_Cloudy(cloudy)	True	False	256.10
2011-03-16 18:00:00 41981 18 61.33 32.42 61.33 31.4 87.20	70.3313379985	61.33	31.40	Partly_Cloudy(cloudy)	True	False	31.40
2011-03-16 19:00:00 41982 19 0.70 0.37 0.70 0.0 1.00	70.3313379985	0.70	0.00	Partly_Cloudy(partly_cloudy)	True	False	0.00
2011-03-16 20:00:00 41983 20 0.00 0.00 0.00 0.0 0.00	70.3313379985	0.00	0.00	Partly_Cloudy(mostly_cloudy)	True	False	0.00
2011-03-16 21:00:00 41984 21 0.00 0.00 0.00 0.0 0.00	70.3313379985	0.00	0.00	Partly_Cloudy(cloudy)	True	False	0.00
2011-03-16 22:00:00 41985 22 0.00 0.00 0.00 0.0 0.00	70.3313379985	0.00	0.00	Mostly_Clear(mostly_cloudy)	False	False	0.00
2011-03-16 23:00:00 41986 23 0.00 0.00 0.00 0.0 0.00	70.3313379985	0.00	0.00	Mostly_Clear(fair)	False	False	0.00
2011-03-17 00:00:00 41987 0 0.00 0.00 0.00 0.0 0.00	70.3313379985	0.00	0.00	Mostly_Clear(cloudy)	False	False	0.00
2011-03-17 01:00:00 41988 1 0.00 0.00 0.00 0.0 0.00	70.3313379985	0.00	0.00	Mostly_Clear(mostly_cloudy)	False	False	0.00
2011-03-17 02:00:00 41989 2 0.00 0.00 0.00 0.0 0.00	70.3313379985	0.00	0.00	Mostly_Clear(clear)	False	False	0.00
2011-03-17 03:00:00 41990 3 0.00 0.00 0.00 0.0 0.00	70.3313379985	0.00	0.00	Mostly_Clear(partly_cloudy)	False	False	0.00
2011-03-17 04:00:00 41991 4 0.00 0.00 0.00 0.0 0.00	70.3313379985	0.00	0.00	Mostly_Clear(cloudy)	False	False	0.00
2011-03-17 05:00:00 41992 5 0.00 0.00 0.00 0.0 0.00	70.3313379985	0.00	0.00	Mostly_Clear(cloudy)	False	False	0.00
2011-03-17 06:00:00 41993 6 19.20 19.20 19.20 0.0 27.30	70.3313379985	19.20	0.00	Mostly_Clear(clear)	False	False	0.00
2011-03-17 07:00:00 41994 7 206.76 206.76 206.76 46.9 242.20	85.36855904	206.76	46.90	Clear(sunny)	True	False	46.90
2011-03-17 08:00:00 41995 8 518.96 518.96 518.96 304.7 607.90	85.36855904	518.96	304.70	Sunny(sunny)	True	False	304.70
2011-03-17 09:00:00 41996 9 756.88 756.88 756.88 624.0 886.60	85.36855904	756.88	624.00	Sunny(fair)	True	False	624.00
2011-03-17 10:00:00 41997 10 945.18 945.18 945.18 884.5 1063.70	88.8579629469	945.18	884.50	Sunny(sunny)	True	False	884.50
2011-03-17 11:00:00 41998 11 1021.60 1021.60 1021.60 1043.3 1149.70	88.8579629469	1021.60	1043.30	Sunny(sunny)	True	False	1043.30
2011-03-17 12:00:00 41999 12 1053.94 1053.94 1053.94 1108.3 1186.10	88.8579629469	1053.94	1108.30	Sunny(fair)	True	False	1108.30
2011-03-17 13:00:00 42000 13 1039.90 1039.90 1039.90 1102.3 1170.30	88.8579629469	1039.90	1102.30	Sunny(sunny)	True	False	1102.30
2011-03-17 14:00:00 42001 14 1028.89 1028.89 1028.89 1009.9 1157.90	88.8579629469	1028.89	1009.90	Sunny(sunny)	True	False	1009.90
2011-03-17 15:00:00 42002 15 881.20 881.20 881.20 870.9 991.70	88.8579629469	881.20	870.90	Sunny(sunny)	True	False	870.90
2011-03-17 16:00:00 42003 16 584.01 584.01 584.01 632.5 684.10	85.36855904	584.01	632.50	Sunny(sunny)	True	False	632.50
2011-03-17 17:00:00 42004 17 297.94 297.94 297.94 302.6 349.00	85.36855904	297.94	302.60	Sunny(sunny)	True	False	302.60
2011-03-17 18:00:00 42005 18 74.44 74.44 74.44 59.7 87.20	85.36855904	74.44	59.70	Sunny(sunny)	True	False	59.70
2011-03-17 19:00:00 42006 19 0.70 0.70 0.70 0.0 1.00	70.3313379985	0.70	0.00	Partly_Cloudy(sunny)	True	False	0.00
2011-03-17 20:00:00 42007 20 0.00 0.00 0.00 0.0 0.00	70.3313379985	0.00	0.00	Partly_Cloudy(clear)	True	False	0.00
2011-03-17 21:00:00 42008 21 0.00 0.00 0.00 0.0 0.00	70.3313379985	0.00	0.00	Partly_Cloudy(clear)	True	False	0.00
2011-03-17 22:00:00 42009 22 0.00 0.00 0.00 0.0 0.00	29.1659812469	0.00	0.00	Mostly_Cloudy(partly_cloudy)	True	False	0.00
2011-03-17 23:00:00 42010 23 0.00 0.00 0.00 0.0 0.00	29.1659812469	0.00	0.00	Mostly_Cloudy(mostly_cloudy)	True	False	0.00
2011-03-18 00:00:00 42011 0 0.00 0.00 0.00 0.0 0.00	29.1659812469	0.00	0.00	Mostly_Cloudy(mostly_cloudy)	True	False	0.00
2011-03-18 01:00:00 42012 1 0.00 0.00 0.00 0.0 0.00	29.1659812469	0.00	0.00	Mostly_Cloudy(partly_cloudy)	True	False	0.00
2011-03-18 02:00:00 42013 2 0.00 0.00 0.00 0.0 0.00	29.1659812469	0.00	0.00	Mostly_Cloudy(clear)	True	False	0.00
2011-03-18 03:00:00 42014 3 0.00 0.00 0.00 0.0 0.00	29.1659812469	0.00	0.00	Mostly_Cloudy(clear)	True	False	0.00
2011-03-18 04:00:00 42015 4 0.00 0.00 0.00 0.0 0.00	29.1659812469	0.00	0.00	Mostly_Cloudy(partly_cloudy)	True	False	0.00
2011-03-18 05:00:00 42016 5 0.00 0.00 0.00 0.0 0.00	29.1659812469	0.00	0.00	Mostly_Cloudy(fair)	True	False	0.00
2011-03-18 06:00:00 42017 6 7.96 7.96 7.96 0.0 27.30	29.1659812469	7.96	0.00	Mostly_Cloudy(fair)	True	False	0.00
2011-03-18 07:00:00 42018 7 21.08 21.08 21.08 35.7 242.20	8.70541497539	21.08	35.70	Few_Showers(partly_cloudy)	True	False	35.70
2011-03-18 08:00:00 42019 8 52.92 52.92 52.92 251.6 607.90	8.70541497539	52.92	251.60	Few_Showers(sunny)	True	False	251.60
2011-03-18 09:00:00 42020 9 77.18 77.18 77.18 464.4 886.60	8.70541497539	77.18	464.40	Few_Showers(sunny)	True	False	464.40
2011-03-18 10:00:00 42021 10 785.17 785.17 785.17 780.7 1063.70	73.8146644788	785.17	780.70	Partly_Cloudy(sunny)	True	False	780.70
2011-03-18 11:00:00 42022 11 848.65 848.65 848.65 809.1 1149.70	73.8146644788	848.65	809.10	Partly_Cloudy(sunny)	True	False	809.10
2011-03-18 12:00:00 42023 12 875.52 875.52 875.52 1010.7 1186.10	73.8146644788	875.52	1010.70	Partly_Cloudy(sunny)	True	False	1010.70
