2011-02-20 23:00:00 14995 23 0.00 0.00 0.00 0.0 0.00	6.53379712325	0.00	0.00	Light_Sleet(cloudy)	True	False	0.00
2011-02-21 00:00:00 14996 0 0.00 0.00 0.00 0.0 0.00	6.53379712325	0.00	0.00	Light_Wintry_Mix(cloudy)	True	False	0.00
2011-02-21 01:00:00 14997 1 0.00 0.00 0.00 0.0 0.00	0.645596454037	0.00	0.00	Rain/Snow_Showers(light_snow)	True	False	0.00
2011-02-21 02:00:00 14998 2 0.00 0.00 0.00 0.0 0.00	0.0	0.00	0.00	Heavy_Snow(light_snow)	True	False	0.00
2011-02-21 03:00:00 14999 3 0.00 0.00 0.00 0.0 0.00	0.365312690267	0.00	0.00	Snow(snow)	True	False	0.00
2011-02-21 04:00:00 15000 4 0.00 0.00 0.00 0.0 0.00	0.365312690267	0.00	0.00	Snow(snow)	True	False	0.00
2011-02-21 05:00:00 15001 5 0.00 0.00 0.00 0.0 0.00	0.365312690267	0.00	0.00	Snow(light_snow)	True	False	0.00
2011-02-21 06:00:00 15002 6 1.49 1.49 1.49 0.0 15.60	9.53757225434	1.49	0.00	Wintry_Mix(light_snow)	True	False	0.00
2011-02-21 07:00:00 15003 7 23.10 23.10 23.10 0.0 242.20	9.53757225434	23.10	0.00	Wintry_Mix(light_snow)	True	False	0.00
2011-02-21 08:00:00 15004 8 57.98 57.98 57.98 1.3 607.90	9.53757225434	57.98	1.30	Wintry_Mix(cloudy)	True	False	1.30
2011-02-21 09:00:00 15005 9 5.72 5.72 5.72 13.3 886.60	0.645596454037	5.72	13.30	Rain_/_Snow(light_snow)	True	False	13.30
2011-02-21 10:00:00 15006 10 17.12 17.12 17.12 29.3 1063.70	1.60911542141	17.12	29.30	Rain_/_Snow(cloudy)	True	False	29.30
2011-02-21 11:00:00 15007 11 18.50 18.50 18.50 43.0 1149.70	1.60911542141	18.50	43.00	Rain_/_Snow(cloudy)	True	False	43.00
2011-02-21 12:00:00 15008 12 18.40 18.40 18.40 47.2 1143.60	1.60911542141	18.40	47.20	Rain_/_Snow_Showers(cloudy)	True	False	47.20
2011-02-21 13:00:00 15009 13 16.70 16.70 16.70 74.1 1037.80	1.60911542141	16.70	74.10	Rain_/_Snow_Showers(cloudy)	True	False	74.10
2011-02-21 14:00:00 15010 14 14.34 14.34 14.34 101.9 891.40	1.60911542141	14.34	101.90	Rain_/_Snow_Showers(mostly_cloudy)	True	False	101.90
2011-02-21 15:00:00 15011 15 156.43 156.43 156.43 84.0 642.20	24.3592214299	156.43	84.00	Cloudy(partly_cloudy)	True	False	84.00
2011-02-21 16:00:00 15012 16 68.25 68.25 68.25 40.1 302.00	22.6003572436	68.25	40.10	Cloudy(fair)	True	False	40.10
2011-02-21 17:00:00 15013 17 6.96 6.96 6.96 3.6 30.80	22.6003572436	6.96	3.60	Cloudy(fair)	True	False	3.60
2011-02-21 18:00:00 15014 18 0.00 0.00 0.00 0.0 0.00	0.645596454037	0.00	0.00	Few_Snow_Showers(fair)	True	False	0.00
2011-02-21 19:00:00 15015 19 0.00 0.00 0.00 0.0 0.00	0.645596454037	0.00	0.00	Few_Snow_Showers(fair)	True	False	0.00
2011-02-21 20:00:00 15016 20 0.00 0.00 0.00 0.0 0.00	0.645596454037	0.00	0.00	Few_Snow_Showers(fair)	True	False	0.00
2011-02-21 21:00:00 15017 21 0.00 0.00 0.00 0.0 0.00	0.365312690267	0.00	0.00	Snow_Shower(cloudy)	True	False	0.00
2011-02-21 22:00:00 15018 22 0.00 0.00 0.00 0.0 0.00	0.365312690267	0.00	0.00	Snow_Shower(cloudy)	True	False	0.00
2011-02-21 23:00:00 15019 23 0.00 0.00 0.00 0.0 0.00	0.365312690267	0.00	0.00	Snow_Shower(cloudy)	True	False	0.00
2011-02-22 00:00:00 15020 0 0.00 0.00 0.00 0.0 0.00	0.365312690267	0.00	0.00	Snow(cloudy)	True	False	0.00
2011-02-22 01:00:00 15021 1 0.00 0.00 0.00 0.0 0.00	0.365312690267	0.00	0.00	Snow(cloudy)	True	False	0.00
2011-02-22 02:00:00 15022 2 0.00 0.00 0.00 0.0 0.00	0.365312690267	0.00	0.00	Snow(cloudy)	True	False	0.00
2011-02-22 03:00:00 15023 3 0.00 0.00 0.00 0.0 0.00	0.645596454037	0.00	0.00	Light_Snow(cloudy)	True	False	0.00
2011-02-22 04:00:00 15024 4 0.00 0.00 0.00 0.0 0.00	0.645596454037	0.00	0.00	Light_Snow(cloudy)	True	False	0.00
2011-02-22 05:00:00 15025 5 0.00 0.00 0.00 0.0 0.00	0.645596454037	0.00	0.00	Light_Snow(mostly_cloudy)	True	False	0.00
2011-02-22 06:00:00 15026 6 0.06 0.06 0.06 0.4 15.60	0.365312690267	0.06	0.40	Snow_Shower(cloudy)	True	False	0.40
2011-02-22 07:00:00 15027 7 0.88 0.88 0.88 59.7 242.20	0.365312690267	0.88	59.70	Snow_Shower(cloudy)	True	False	59.70
2011-02-22 08:00:00 15028 8 2.22 2.22 2.22 400.0 607.90	0.365312690267	2.22	400.00	Snow_Shower(mostly_cloudy)	True	False	400.00
2011-02-22 09:00:00 15029 9 5.72 5.72 5.72 798.1 886.60	0.645596454037	5.72	798.10	Few_Snow_Showers(fair)	True	False	798.10
2011-02-22 10:00:00 15030 10 17.12 17.12 17.12 1040.2 1063.70	1.60911542141	17.12	1040.20	Few_Snow_Showers(fair)	True	False	1040.20
2011-02-22 11:00:00 15031 11 18.50 18.50 18.50 1132.7 1149.70	1.60911542141	18.50	1132.70	Few_Snow_Showers(fair)	True	False	1132.70
2011-02-22 12:00:00 15032 12 850.26 850.26 850.26 1136.1 1143.60	74.3498303905	850.26	1136.10	Partly_Cloudy(fair)	True	False	1136.10
2011-02-22 13:00:00 15033 13 771.60 771.60 771.60 1025.6 1037.80	74.3498303905	771.60	1025.60	Partly_Cloudy(fair)	True	False	1025.60
2011-02-22 14:00:00 15034 14 662.75 662.75 662.75 859.0 891.40	74.3498303905	662.75	859.00	Partly_Cloudy(fair)	True	False	859.00
2011-02-22 15:00:00 15035 15 418.42 418.42 418.42 593.7 642.20	65.153899965	418.42	593.70	Sunny(fair)	True	False	593.70
2011-02-22 16:00:00 15036 16 191.91 191.91 191.91 239.6 302.00	63.5471815634	191.91	239.60	Sunny(fair)	True	False	239.60
2011-02-22 17:00:00 15037 17 19.57 19.57 19.57 11.7 30.80	63.5471815634	19.57	11.70	Sunny(fair)	True	False	11.70
2011-02-22 18:00:00 15038 18 0.00 0.00 0.00 0.0 0.00	63.5471815634	0.00	0.00	Clear(fair)	True	False	0.00
2011-02-22 19:00:00 15039 19 0.00 0.00 0.00 0.0 0.00	63.5471815634	0.00	0.00	Clear(fair)	True	False	0.00
2011-02-22 20:00:00 15040 20 0.00 0.00 0.00 0.0 0.00	63.5471815634	0.00	0.00	Clear(fair)	True	False	0.00
2011-02-22 21:00:00 15041 21 0.00 0.00 0.00 0.0 0.00	63.5471815634	0.00	0.00	Clear(fair)	True	False	0.00
2011-02-22 22:00:00 15042 22 0.00 0.00 0.00 0.0 0.00	63.5471815634	0.00	0.00	Clear(fair)	True	False	0.00
