2011-02-24 04:00:00 18686 4 0.00 0.00 0.00 0.0 0.00	88.8975397073	0.00	0.00	Clear(fair)	True	False	0.00
2011-02-24 05:00:00 18687 5 0.00 0.00 0.00 0.0 0.00	88.8975397073	0.00	0.00	Clear(fair)	True	False	0.00
2011-02-24 06:00:00 18688 6 24.27 24.27 24.27 3.7 27.30	88.8975397073	24.27	3.70	Clear(fair)	True	False	3.70
2011-02-24 07:00:00 18689 7 215.31 215.31 215.31 158.1 242.20	88.8975397073	215.31	158.10	Sunny(fair)	True	False	158.10
2011-02-24 08:00:00 18690 8 540.41 540.41 540.41 379.0 607.90	88.8975397073	540.41	379.00	Sunny(fair)	True	False	379.00
2011-02-24 09:00:00 18691 9 788.17 788.17 788.17 312.4 886.60	88.8975397073	788.17	312.40	Sunny(cloudy)	True	False	312.40
2011-02-24 10:00:00 18692 10 775.92 775.92 775.92 509.4 1063.70	72.9450856943	775.92	509.40	Partly_Cloudy(cloudy)	True	False	509.40
2011-02-24 11:00:00 18693 11 838.65 838.65 838.65 445.0 1149.70	72.9450856943	838.65	445.00	Partly_Cloudy(fair)	True	False	445.00
2011-02-24 12:00:00 18694 12 371.13 371.13 371.13 479.5 1143.60	32.4527592366	371.13	479.50	Mostly_Cloudy(mostly_cloudy)	True	False	479.50
2011-02-24 13:00:00 18695 13 336.79 336.79 336.79 284.2 1037.80	32.4527592366	336.79	284.20	Mostly_Cloudy(cloudy)	True	False	284.20
2011-02-24 14:00:00 18696 14 289.28 289.28 289.28 344.9 891.40	32.4527592366	289.28	344.90	Mostly_Cloudy(mostly_cloudy)	True	False	344.90
2011-02-24 15:00:00 18697 15 41.96 41.96 41.96 250.5 642.20	6.53379712325	41.96	250.50	Few_Showers(fair)	True	False	250.50
2011-02-24 16:00:00 18698 16 19.73 19.73 19.73 71.0 302.00	6.53379712325	19.73	71.00	Few_Showers(mostly_cloudy)	True	False	71.00
2011-02-24 17:00:00 18699 17 2.26 2.26 2.26 9.5 34.60	6.53379712325	2.26	9.50	Few_Showers(mostly_cloudy)	True	False	9.50
2011-02-24 18:00:00 18700 18 0.00 0.00 0.00 0.0 0.00	9.53757225434	0.00	0.00	Showers(fair)	True	False	0.00
2011-02-24 19:00:00 18701 19 0.00 0.00 0.00 0.0 0.00	9.53757225434	0.00	0.00	Showers(cloudy)	True	False	0.00
2011-02-24 20:00:00 18702 20 0.00 0.00 0.00 0.0 0.00	9.53757225434	0.00	0.00	Showers(cloudy)	True	False	0.00
2011-02-24 21:00:00 18703 21 0.00 0.00 0.00 0.0 0.00	6.53379712325	0.00	0.00	Light_Rain(light_rain)	True	False	0.00
2011-02-24 22:00:00 18704 22 0.00 0.00 0.00 0.0 0.00	6.53379712325	0.00	0.00	Light_Rain(light_rain)	True	False	0.00
2011-02-24 23:00:00 18705 23 0.00 0.00 0.00 0.0 0.00	6.53379712325	0.00	0.00	Light_Rain(cloudy)	True	False	0.00
2011-02-25 00:00:00 18706 0 0.00 0.00 0.00 0.0 0.00	9.53757225434	0.00	0.00	Rain(light_rain)	True	False	0.00
2011-02-25 01:00:00 18707 1 0.00 0.00 0.00 0.0 0.00	9.53757225434	0.00	0.00	Rain(light_rain)	True	False	0.00
2011-02-25 02:00:00 18708 2 0.00 0.00 0.00 0.0 0.00	9.53757225434	0.00	0.00	Rain(light_rain)	True	False	0.00
2011-02-25 03:00:00 18709 3 0.00 0.00 0.00 0.0 0.00	9.53757225434	0.00	0.00	Rain(light_rain)	True	False	0.00
2011-02-25 04:00:00 18710 4 0.00 0.00 0.00 0.0 0.00	9.53757225434	0.00	0.00	Rain(rain)	True	False	0.00
2011-02-25 05:00:00 18711 5 0.00 0.00 0.00 0.0 0.00	9.53757225434	0.00	0.00	Rain(rain)	True	False	0.00
2011-02-25 06:00:00 18712 6 2.60 2.60 2.60 0.0 27.30	9.53757225434	2.60	0.00	Rain(light_rain)	True	False	0.00
2011-02-25 07:00:00 18713 7 23.10 23.10 23.10 0.0 242.20	9.53757225434	23.10	0.00	Rain(light_rain)	True	False	0.00
2011-02-25 08:00:00 18714 8 57.98 57.98 57.98 0.0 607.90	9.53757225434	57.98	0.00	Rain(rain)	True	False	0.00
2011-02-25 09:00:00 18715 9 84.56 84.56 84.56 12.4 886.60	9.53757225434	84.56	12.40	Rain(rain)	True	False	12.40
2011-02-25 10:00:00 18716 10 104.18 104.18 104.18 69.9 1063.70	9.79385926764	104.18	69.90	Rain(light_rain)	True	False	69.90
2011-02-25 11:00:00 18717 11 112.60 112.60 112.60 67.4 1149.70	9.79385926764	112.60	67.40	Rain(rain)	True	False	67.40
2011-02-25 12:00:00 18718 12 112.00 112.00 112.00 71.0 1143.60	9.79385926764	112.00	71.00	Showers(rain)	True	False	71.00
2011-02-25 13:00:00 18719 13 101.64 101.64 101.64 58.3 1037.80	9.79385926764	101.64	58.30	Showers(light_rain)	True	False	58.30
2011-02-25 14:00:00 18720 14 87.30 87.30 87.30 184.5 891.40	9.79385926764	87.30	184.50	Showers(fair)	True	False	184.50
2011-02-25 15:00:00 18721 15 162.96 162.96 162.96 52.0 642.20	25.3760055964	162.96	52.00	Cloudy(mostly_cloudy)	True	False	52.00
2011-02-25 16:00:00 18722 16 69.81 69.81 69.81 84.5 302.00	23.1174203253	69.81	84.50	Cloudy(cloudy)	True	False	84.50
2011-02-25 17:00:00 18723 17 8.00 8.00 8.00 3.7 34.60	23.1174203253	8.00	3.70	Cloudy(cloudy_and_windy)	True	False	3.70
2011-02-25 18:00:00 18724 18 0.00 0.00 0.00 0.0 0.00	69.0440984605	0.00	0.00	Partly_Cloudy_/_Wind(cloudy)	True	False	0.00
2011-02-25 19:00:00 18725 19 0.00 0.00 0.00 0.0 0.00	69.0440984605	0.00	0.00	Partly_Cloudy_/_Wind(cloudy)	True	False	0.00
2011-02-25 20:00:00 18726 20 0.00 0.00 0.00 0.0 0.00	69.0440984605	0.00	0.00	Partly_Cloudy_/_Wind(mostly_cloudy)	True	False	0.00
2011-02-25 21:00:00 18727 21 0.00 0.00 0.00 0.0 0.00	88.8975397073	0.00	0.00	Clear_/_Wind(cloudy_and_windy)	True	False	0.00
2011-02-25 22:00:00 18728 22 0.00 0.00 0.00 0.0 0.00	88.8975397073	0.00	0.00	Clear_/_Wind(mostly_cloudy)	True	False	0.00
2011-02-25 23:00:00 18729 23 0.00 0.00 0.00 0.0 0.00	88.8975397073	0.00	0.00	Clear_/_Wind(fair)	True	False	0.00
2011-02-26 00:00:00 18730 0 0.00 0.00 0.00 0.0 0.00	88.8975397073	0.00	0.00	Clear(fair)	True	False	0.00
2011-02-26 01:00:00 18731 1 0.00 0.00 0.00 0.0 0.00	88.8975397073	0.00	0.00	Clear(fair)	True	False	0.00
2011-02-26 02:00:00 18732 2 0.00 0.00 0.00 0.0 0.00	88.8975397073	0.00	0.00	Clear(fair)	True	False	0.00
2011-02-26 03:00:00 18733 3 0.00 0.00 0.00 0.0 0.00	88.8975397073	0.00	0.00	Clear(fair)	True	False	0.00
2011-02-26 04:00:00 18734 4 0.00 0.00 0.00 0.0 0.00	88.8975397073	0.00	0.00	Clear(fair)	True	False	0.00
