2011-02-12 04:00:00 4831 4 0.00 0.00 0.00 0.0 0.00	49.7722914669	0.00	0.00	Partly_Cloudy(fair)	True	False	0.00
2011-02-12 05:00:00 4832 5 0.00 0.00 0.00 0.0 0.00	49.7722914669	0.00	0.00	Partly_Cloudy(mostly_cloudy)	True	False	0.00
2011-02-12 06:00:00 4833 6 1.29 1.29 1.29 0.0 2.60	49.7722914669	1.29	0.00	Partly_Cloudy(cloudy)	True	False	0.00
2011-02-12 07:00:00 4834 7 81.68 81.68 81.68 34.6 164.10	49.7722914669	81.68	34.60	Partly_Cloudy(cloudy)	True	False	34.60
2011-02-12 08:00:00 4835 8 253.84 253.84 253.84 147.9 510.00	49.7722914669	253.84	147.90	Partly_Cloudy(cloudy)	True	False	147.90
2011-02-12 09:00:00 4836 9 153.95 153.95 153.95 475.0 807.60	19.0626693155	153.95	475.00	Mostly_Cloudy(cloudy)	True	False	475.00
2011-02-12 10:00:00 4837 10 230.57 230.57 230.57 591.8 1001.50	23.0225311601	230.57	591.80	Mostly_Cloudy(mostly_cloudy)	True	False	591.80
2011-02-12 11:00:00 4838 11 252.49 252.49 252.49 626.2 1096.70	23.0225311601	252.49	626.20	Mostly_Cloudy(fair)	True	False	626.20
2011-02-12 12:00:00 4839 12 254.95 254.95 254.95 321.0 1107.40	23.0225311601	254.95	321.00	Mostly_Cloudy(cloudy)	True	False	321.00
2011-02-12 13:00:00 4840 13 231.22 231.22 231.22 583.7 1004.30	23.0225311601	231.22	583.70	Mostly_Cloudy(cloudy)	True	False	583.70
2011-02-12 14:00:00 4841 14 192.10 192.10 192.10 553.8 834.40	23.0225311601	192.10	553.80	Mostly_Cloudy(cloudy)	True	False	553.80
2011-02-12 15:00:00 4842 15 415.62 415.62 415.62 344.9 570.90	72.8011558606	415.62	344.90	Partly_Cloudy(mostly_cloudy)	True	False	344.90
2011-02-12 16:00:00 4843 16 111.14 111.14 111.14 84.1 223.30	49.7722914669	111.14	84.10	Partly_Cloudy(partly_cloudy)	True	False	84.10
2011-02-12 17:00:00 4844 17 5.72 5.72 5.72 7.0 11.50	49.7722914669	5.72	7.00	Partly_Cloudy(mostly_cloudy)	True	False	7.00
2011-02-12 18:00:00 4845 18 0.00 0.00 0.00 0.0 0.00	49.7722914669	0.00	0.00	Partly_Cloudy(fair)	True	False	0.00
2011-02-12 19:00:00 4846 19 0.00 0.00 0.00 0.0 0.00	49.7722914669	0.00	0.00	Partly_Cloudy(fair)	True	False	0.00
2011-02-12 20:00:00 4847 20 0.00 0.00 0.00 0.0 0.00	49.7722914669	0.00	0.00	Partly_Cloudy(fair)	True	False	0.00
2011-02-12 21:00:00 4848 21 0.00 0.00 0.00 0.0 0.00	71.4836223507	0.00	0.00	Clear(fair)	True	False	0.00
2011-02-12 22:00:00 4849 22 0.00 0.00 0.00 0.0 0.00	71.4836223507	0.00	0.00	Clear(fair)	True	False	0.00
2011-02-12 23:00:00 4850 23 0.00 0.00 0.00 0.0 0.00	71.4836223507	0.00	0.00	Clear(fair)	True	False	0.00
2011-02-13 00:00:00 4851 0 0.00 0.00 0.00 0.0 0.00	71.4836223507	0.00	0.00	Clear(fair)	True	False	0.00
2011-02-13 01:00:00 4852 1 0.00 0.00 0.00 0.0 0.00	71.4836223507	0.00	0.00	Clear(fair)	True	False	0.00
2011-02-13 02:00:00 4853 2 0.00 0.00 0.00 0.0 0.00	71.4836223507	0.00	0.00	Clear(fair)	True	False	0.00
2011-02-13 03:00:00 4854 3 0.00 0.00 0.00 0.0 0.00	19.0626693155	0.00	0.00	Mostly_Cloudy(partly_cloudy)	True	False	0.00
2011-02-13 04:00:00 4855 4 0.00 0.00 0.00 0.0 0.00	19.0626693155	0.00	0.00	Mostly_Cloudy(fair)	True	False	0.00
2011-02-13 05:00:00 4856 5 0.00 0.00 0.00 0.0 0.00	19.0626693155	0.00	0.00	Mostly_Cloudy(fair)	True	False	0.00
2011-02-13 06:00:00 4857 6 0.50 0.50 0.50 0.0 2.60	19.0626693155	0.50	0.00	Mostly_Cloudy(fair)	True	False	0.00
2011-02-13 07:00:00 4858 7 31.28 31.28 31.28 57.1 164.10	19.0626693155	31.28	57.10	Mostly_Cloudy(cloudy)	True	False	57.10
2011-02-13 08:00:00 4859 8 97.22 97.22 97.22 110.9 510.00	19.0626693155	97.22	110.90	Mostly_Cloudy(fair)	True	False	110.90
2011-02-13 09:00:00 4860 9 5.39 5.39 5.39 383.3 807.60	0.667131335258	5.39	383.30	Few_Snow_Showers(fair)	True	False	383.30
2011-02-13 10:00:00 4861 10 16.89 16.89 16.89 268.3 1001.50	1.68687881827	16.89	268.30	Few_Snow_Showers(mostly_cloudy)	True	False	268.30
2011-02-13 11:00:00 4862 11 18.50 18.50 18.50 719.6 1096.70	1.68687881827	18.50	719.60	Few_Snow_Showers(mostly_cloudy)	True	False	719.60
2011-02-13 12:00:00 4863 12 18.68 18.68 18.68 749.3 1107.40	1.68687881827	18.68	749.30	Few_Snow_Showers(partly_cloudy)	True	False	749.30
2011-02-13 13:00:00 4864 13 16.94 16.94 16.94 582.4 1004.30	1.68687881827	16.94	582.40	Few_Snow_Showers(partly_cloudy)	True	False	582.40
2011-02-13 14:00:00 4865 14 14.08 14.08 14.08 423.1 834.40	1.68687881827	14.08	423.10	Few_Snow_Showers(Unkown)	True	False	423.10
2011-02-13 15:00:00 4866 15 415.62 415.62 415.62 245.8 570.90	72.8011558606	415.62	245.80	Partly_Cloudy(Unkown)	True	False	245.80
2011-02-13 16:00:00 4867 16 111.14 111.14 111.14 92.5 223.30	49.7722914669	111.14	92.50	Partly_Cloudy(fair)	True	False	92.50
2011-02-13 17:00:00 4868 17 5.72 5.72 5.72 2.0 11.50	49.7722914669	5.72	2.00	Partly_Cloudy(fair)	True	False	2.00
2011-02-13 18:00:00 4869 18 0.00 0.00 0.00 0.0 0.00	49.7722914669	0.00	0.00	Partly_Cloudy(fair)	True	False	0.00
2011-02-13 19:00:00 4870 19 0.00 0.00 0.00 0.0 0.00	49.7722914669	0.00	0.00	Partly_Cloudy(fair)	True	False	0.00
2011-02-13 20:00:00 4871 20 0.00 0.00 0.00 0.0 0.00	49.7722914669	0.00	0.00	Partly_Cloudy(mostly_cloudy)	True	False	0.00
2011-02-13 21:00:00 4872 21 0.00 0.00 0.00 0.0 0.00	19.0626693155	0.00	0.00	Mostly_Cloudy(fair)	True	False	0.00
2011-02-13 22:00:00 4873 22 0.00 0.00 0.00 0.0 0.00	19.0626693155	0.00	0.00	Mostly_Cloudy(fair)	True	False	0.00
2011-02-13 23:00:00 4874 23 0.00 0.00 0.00 0.0 0.00	19.0626693155	0.00	0.00	Mostly_Cloudy(fair)	True	False	0.00
2011-02-14 00:00:00 4875 0 0.00 0.00 0.00 0.0 0.00	21.9435736677	0.00	0.00	Cloudy(fair)	True	False	0.00
2011-02-14 01:00:00 4876 1 0.00 0.00 0.00 0.0 0.00	21.9435736677	0.00	0.00	Cloudy(fair)	True	False	0.00
2011-02-14 02:00:00 4877 2 0.00 0.00 0.00 0.0 0.00	21.9435736677	0.00	0.00	Cloudy(fair)	True	False	0.00
2011-02-14 03:00:00 4878 3 0.00 0.00 0.00 0.0 0.00	21.9435736677	0.00	0.00	Cloudy(fair)	True	False	0.00
2011-02-14 04:00:00 4879 4 0.00 0.00 0.00 0.0 0.00	21.9435736677	0.00	0.00	Cloudy(fair)	True	False	0.00
