2011-03-02 21:00:00 26341 21 0.00 0.00 0.00 0.0 0.00	80.9590973202	0.00	0.00	Clear(fair)	True	False	0.00
2011-03-02 22:00:00 26342 22 0.00 0.00 0.00 0.0 0.00	80.9590973202	0.00	0.00	Clear(fair)	True	False	0.00
2011-03-02 23:00:00 26343 23 0.00 0.00 0.00 0.0 0.00	80.9590973202	0.00	0.00	Clear(fair)	True	False	0.00
2011-03-03 00:00:00 26344 0 0.00 0.00 0.00 0.0 0.00	80.9590973202	0.00	0.00	Clear(fair)	True	False	0.00
2011-03-03 01:00:00 26345 1 0.00 0.00 0.00 0.0 0.00	80.9590973202	0.00	0.00	Clear(fair)	True	False	0.00
2011-03-03 02:00:00 26346 2 0.00 0.00 0.00 0.0 0.00	80.9590973202	0.00	0.00	Clear(fair)	True	False	0.00
2011-03-03 03:00:00 26347 3 0.00 0.00 0.00 0.0 0.00	80.9590973202	0.00	0.00	Clear(fair)	True	False	0.00
2011-03-03 04:00:00 26348 4 0.00 0.00 0.00 0.0 0.00	80.9590973202	0.00	0.00	Clear(fair)	True	False	0.00
2011-03-03 05:00:00 26349 5 0.00 0.00 0.00 0.0 0.00	80.9590973202	0.00	0.00	Clear(fair)	True	False	0.00
2011-03-03 06:00:00 26350 6 22.10 22.10 22.10 9.3 27.30	80.9590973202	22.10	9.30	Clear(fair)	True	False	9.30
2011-03-03 07:00:00 26351 7 196.08 196.08 196.08 226.7 242.20	80.9590973202	196.08	226.70	Sunny(fair)	True	False	226.70
2011-03-03 08:00:00 26352 8 492.15 492.15 492.15 605.9 607.90	80.9590973202	492.15	605.90	Sunny(fair)	True	False	605.90
2011-03-03 09:00:00 26353 9 717.78 717.78 717.78 914.7 886.60	80.9590973202	717.78	914.70	Sunny(fair)	True	False	914.70
2011-03-03 10:00:00 26354 10 958.09 958.09 958.09 1099.4 1063.70	90.0711682	958.09	1099.40	Sunny(fair)	True	False	1099.40
2011-03-03 11:00:00 26355 11 1035.55 1035.55 1035.55 1183.5 1149.70	90.0711682	1035.55	1183.50	Sunny(fair)	True	False	1183.50
2011-03-03 12:00:00 26356 12 1036.18 1036.18 1036.18 1174.4 1150.40	90.0711682	1036.18	1174.40	Sunny(fair)	True	False	1174.40
2011-03-03 13:00:00 26357 13 1037.80 1037.80 1037.80 1068.6 1152.20	90.0711682	1037.80	1068.60	Sunny(fair)	True	False	1068.60
2011-03-03 14:00:00 26358 14 957.91 957.91 957.91 904.4 1063.50	90.0711682	957.91	904.40	Sunny(fair)	True	False	904.40
2011-03-03 15:00:00 26359 15 820.64 820.64 820.64 640.6 911.10	90.0711682	820.64	640.60	Sunny(fair)	True	False	640.60
2011-03-03 16:00:00 26360 16 537.08 537.08 537.08 274.8 663.40	80.9590973202	537.08	274.80	Sunny(fair)	True	False	274.80
2011-03-03 17:00:00 26361 17 266.36 266.36 266.36 31.2 329.00	80.9590973202	266.36	31.20	Sunny(fair)	True	False	31.20
2011-03-03 18:00:00 26362 18 38.94 38.94 38.94 0.0 48.10	80.9590973202	38.94	0.00	Clear(fair)	True	False	0.00
2011-03-03 19:00:00 26363 19 0.00 0.00 0.00 0.0 0.00	80.9590973202	0.00	0.00	Clear(fair)	True	False	0.00
2011-03-03 20:00:00 26364 20 0.00 0.00 0.00 0.0 0.00	80.9590973202	0.00	0.00	Clear(fair)	True	False	0.00
2011-03-03 21:00:00 26365 21 0.00 0.00 0.00 0.0 0.00	80.9590973202	0.00	0.00	Mostly_Clear(fair)	False	False	0.00
2011-03-03 22:00:00 26366 22 0.00 0.00 0.00 0.0 0.00	80.9590973202	0.00	0.00	Mostly_Clear(fair)	False	False	0.00
2011-03-03 23:00:00 26367 23 0.00 0.00 0.00 0.0 0.00	80.9590973202	0.00	0.00	Mostly_Clear(fair)	False	False	0.00
2011-03-04 00:00:00 26368 0 0.00 0.00 0.00 0.0 0.00	71.0796244784	0.00	0.00	Partly_Cloudy(fair)	True	False	0.00
2011-03-04 01:00:00 26369 1 0.00 0.00 0.00 0.0 0.00	71.0796244784	0.00	0.00	Partly_Cloudy(fair)	True	False	0.00
2011-03-04 02:00:00 26370 2 0.00 0.00 0.00 0.0 0.00	71.0796244784	0.00	0.00	Partly_Cloudy(fair)	True	False	0.00
2011-03-04 03:00:00 26371 3 0.00 0.00 0.00 0.0 0.00	71.0796244784	0.00	0.00	Partly_Cloudy(fair)	True	False	0.00
2011-03-04 04:00:00 26372 4 0.00 0.00 0.00 0.0 0.00	71.0796244784	0.00	0.00	Partly_Cloudy(fair)	True	False	0.00
2011-03-04 05:00:00 26373 5 0.00 0.00 0.00 0.0 0.00	71.0796244784	0.00	0.00	Partly_Cloudy(fair)	True	False	0.00
2011-03-04 06:00:00 26374 6 19.40 19.40 19.40 8.8 27.30	71.0796244784	19.40	8.80	Partly_Cloudy(fair)	True	False	8.80
2011-03-04 07:00:00 26375 7 172.15 172.15 172.15 160.0 242.20	71.0796244784	172.15	160.00	Partly_Cloudy(fair)	True	False	160.00
2011-03-04 08:00:00 26376 8 432.09 432.09 432.09 410.0 607.90	71.0796244784	432.09	410.00	Partly_Cloudy(fair)	True	False	410.00
2011-03-04 09:00:00 26377 9 168.82 168.82 168.82 748.1 886.60	19.0409026798	168.82	748.10	Mostly_Cloudy(fair)	True	False	748.10
2011-03-04 10:00:00 26378 10 545.88 545.88 545.88 1019.2 1063.70	51.319215414	545.88	1019.20	Mostly_Cloudy(fair)	True	False	1019.20
2011-03-04 11:00:00 26379 11 590.02 590.02 590.02 964.7 1149.70	51.319215414	590.02	964.70	Mostly_Cloudy(fair)	True	False	964.70
2011-03-04 12:00:00 26380 12 590.38 590.38 590.38 1068.1 1150.40	51.319215414	590.38	1068.10	Mostly_Cloudy(fair)	True	False	1068.10
2011-03-04 13:00:00 26381 13 591.30 591.30 591.30 999.6 1152.20	51.319215414	591.30	999.60	Mostly_Cloudy(fair)	True	False	999.60
2011-03-04 14:00:00 26382 14 545.78 545.78 545.78 849.5 1063.50	51.319215414	545.78	849.50	Mostly_Cloudy(fair)	True	False	849.50
2011-03-04 15:00:00 26383 15 467.57 467.57 467.57 568.2 911.10	51.319215414	467.57	568.20	Mostly_Cloudy(fair)	True	False	568.20
2011-03-04 16:00:00 26384 16 126.32 126.32 126.32 216.4 663.40	19.0409026798	126.32	216.40	Mostly_Cloudy(fair)	True	False	216.40
2011-03-04 17:00:00 26385 17 62.64 62.64 62.64 17.4 329.00	19.0409026798	62.64	17.40	Mostly_Cloudy(fair)	True	False	17.40
2011-03-04 18:00:00 26386 18 9.16 9.16 9.16 0.0 48.10	19.0409026798	9.16	0.00	Mostly_Cloudy(fair)	True	False	0.00
2011-03-04 19:00:00 26387 19 0.00 0.00 0.00 0.0 0.00	19.0409026798	0.00	0.00	Mostly_Cloudy(fair)	True	False	0.00
2011-03-04 20:00:00 26388 20 0.00 0.00 0.00 0.0 0.00	19.0409026798	0.00	0.00	Mostly_Cloudy(cloudy)	True	False	0.00
2011-03-04 21:00:00 26389 21 0.00 0.00 0.00 0.0 0.00	19.0409026798	0.00	0.00	Mostly_Cloudy(cloudy)	True	False	0.00
