2011-03-24 15:00:00 51334 15 881.23 881.23 127.43 549.1 991.70	12.8491620112	127.43	549.10	Cloudy(cloudy)	True	False	549.10
2011-03-24 16:00:00 51335 16 378.78 378.78 378.78 698.1 684.10	29.4199134199	378.78	698.10	Mostly_Cloudy(fair)	True	False	698.10
2011-03-24 17:00:00 51336 17 254.40 193.24 193.24 338.8 349.00	72.893982808	193.24	338.80	Partly_Cloudy(fair)	True	False	338.80
2011-03-24 18:00:00 51337 18 71.65 54.43 54.43 68.1 98.30	72.893982808	54.43	68.10	Partly_Cloudy(sunny)	True	False	68.10
2011-03-24 19:00:00 51338 19 4.30 3.27 3.27 0.6 5.90	55.3695674095	3.27	0.60	Mostly_Sunny(sunny)	False	False	0.60
2011-03-24 20:00:00 51339 20 0.00 0.00 0.00 0.0 0.00	84.2591672463	0.00	0.00	Clear(clear)	True	False	0.00
2011-03-24 21:00:00 51340 21 0.00 0.00 0.00 0.0 0.00	84.2591672463	0.00	0.00	Clear(clear)	True	False	0.00
2011-03-24 22:00:00 51341 22 0.00 0.00 0.00 0.0 0.00	84.2591672463	0.00	0.00	Clear(clear)	True	False	0.00
2011-03-24 23:00:00 51342 23 0.00 0.00 0.00 0.0 0.00	84.2591672463	0.00	0.00	Clear(clear)	True	False	0.00
2011-03-25 00:00:00 51343 0 0.00 0.00 0.00 0.0 0.00	84.2591672463	0.00	0.00	Clear(clear)	True	False	0.00
2011-03-25 01:00:00 51344 1 0.00 0.00 0.00 0.0 0.00	84.2591672463	0.00	0.00	Clear(clear)	True	False	0.00
2011-03-25 02:00:00 51345 2 0.00 0.00 0.00 0.0 0.00	84.2591672463	0.00	0.00	Clear(fair)	True	False	0.00
2011-03-25 03:00:00 51346 3 0.00 0.00 0.00 0.0 0.00	84.2591672463	0.00	0.00	Clear(clear)	True	False	0.00
2011-03-25 04:00:00 51347 4 0.00 0.00 0.00 0.0 0.00	84.2591672463	0.00	0.00	Clear(clear)	True	False	0.00
2011-03-25 05:00:00 51348 5 0.00 0.00 0.00 0.0 0.00	84.2591672463	0.00	0.00	Clear(clear)	True	False	0.00
2011-03-25 06:00:00 51349 6 23.00 23.00 23.00 0.0 27.30	84.2591672463	23.00	0.00	Clear(clear)	True	False	0.00
2011-03-25 07:00:00 51350 7 200.87 200.87 200.87 72.9 238.40	84.2591672463	200.87	72.90	Sunny(sunny)	True	False	72.90
2011-03-25 08:00:00 51351 8 486.60 486.60 486.60 368.1 577.50	84.2591672463	486.60	368.10	Sunny(sunny)	True	False	368.10
2011-03-25 09:00:00 51352 9 709.63 709.63 709.63 718.8 842.20	84.2591672463	709.63	718.80	Sunny(sunny)	True	False	718.80
2011-03-25 10:00:00 51353 10 894.20 894.20 894.20 973.9 1006.30	88.8601808606	894.20	973.90	Sunny(sunny)	True	False	973.90
2011-03-25 11:00:00 51354 11 1002.08 1002.08 1002.08 1125.4 1127.70	88.8601808606	1002.08	1125.40	Sunny(sunny)	True	False	1125.40
2011-03-25 12:00:00 51355 12 1053.97 1053.97 1053.97 1204.4 1186.10	88.8601808606	1053.97	1204.40	Sunny(sunny)	True	False	1204.40
2011-03-25 13:00:00 51356 13 1039.93 1039.93 1039.93 1123.8 1170.30	88.8601808606	1039.93	1123.80	Sunny(sunny)	True	False	1123.80
2011-03-25 14:00:00 51357 14 1028.91 1028.91 1028.91 974.1 1157.90	88.8601808606	1028.91	974.10	Sunny(sunny)	True	False	974.10
2011-03-25 15:00:00 51358 15 881.23 881.23 881.23 817.0 991.70	88.8601808606	881.23	817.00	Sunny(fair)	True	False	817.00
2011-03-25 16:00:00 51359 16 498.67 498.67 498.67 337.7 684.10	72.893982808	498.67	337.70	Partly_Cloudy(partly_cloudy)	True	False	337.70
2011-03-25 17:00:00 51360 17 254.40 254.40 254.40 172.7 349.00	72.893982808	254.40	172.70	Partly_Cloudy(partly_cloudy)	True	False	172.70
2011-03-25 18:00:00 51361 18 71.65 71.65 71.65 43.6 98.30	72.893982808	71.65	43.60	Partly_Cloudy(partly_cloudy)	True	False	43.60
2011-03-25 19:00:00 51362 19 4.30 4.30 4.30 0.0 5.90	72.893982808	4.30	0.00	Partly_Cloudy(mostly_cloudy)	True	False	0.00
2011-03-25 20:00:00 51363 20 0.00 0.00 0.00 0.0 0.00	72.893982808	0.00	0.00	Partly_Cloudy(mostly_cloudy)	True	False	0.00
2011-03-25 21:00:00 51364 21 0.00 0.00 0.00 0.0 0.00	72.893982808	0.00	0.00	Partly_Cloudy(partly_cloudy)	True	False	0.00
2011-03-25 22:00:00 51365 22 0.00 0.00 0.00 0.0 0.00	29.4199134199	0.00	0.00	Mostly_Cloudy(clear)	True	False	0.00
2011-03-25 23:00:00 51366 23 0.00 0.00 0.00 0.0 0.00	29.4199134199	0.00	0.00	Mostly_Cloudy(clear)	True	False	0.00
2011-03-26 00:00:00 51367 0 0.00 0.00 0.00 0.0 0.00	29.4199134199	0.00	0.00	Mostly_Cloudy(clear)	True	False	0.00
2011-03-26 01:00:00 51368 1 0.00 0.00 0.00 0.0 0.00	72.893982808	0.00	0.00	Partly_Cloudy(clear)	True	False	0.00
2011-03-26 02:00:00 51369 2 0.00 0.00 0.00 0.0 0.00	72.893982808	0.00	0.00	Partly_Cloudy(clear)	True	False	0.00
2011-03-26 03:00:00 51370 3 0.00 0.00 0.00 0.0 0.00	72.893982808	0.00	0.00	Partly_Cloudy(clear)	True	False	0.00
2011-03-26 04:00:00 51371 4 0.00 0.00 0.00 0.0 0.00	84.2591672463	0.00	0.00	Clear(clear)	True	False	0.00
2011-03-26 05:00:00 51372 5 0.00 0.00 0.00 0.0 0.00	84.2591672463	0.00	0.00	Clear(clear)	True	False	0.00
2011-03-26 06:00:00 51373 6 23.00 23.00 23.00 0.0 27.30	84.2591672463	23.00	0.00	Clear(clear)	True	False	0.00
2011-03-26 07:00:00 51374 7 200.87 200.87 200.87 75.2 238.40	84.2591672463	200.87	75.20	Sunny(sunny)	True	False	75.20
2011-03-26 08:00:00 51375 8 486.60 486.60 486.60 376.9 577.50	84.2591672463	486.60	376.90	Sunny(sunny)	True	False	376.90
2011-03-26 09:00:00 51376 9 709.63 709.63 709.63 733.6 842.20	84.2591672463	709.63	733.60	Sunny(sunny)	True	False	733.60
2011-03-26 10:00:00 51377 10 894.20 894.20 894.20 1001.8 1006.30	88.8601808606	894.20	1001.80	Sunny(sunny)	True	False	1001.80
2011-03-26 11:00:00 51378 11 1002.08 1002.08 1002.08 1159.1 1127.70	88.8601808606	1002.08	1159.10	Sunny(sunny)	True	False	1159.10
2011-03-26 12:00:00 51379 12 1053.97 1053.97 1053.97 1241.1 1186.10	88.8601808606	1053.97	1241.10	Sunny(sunny)	True	False	1241.10
2011-03-26 13:00:00 51380 13 1039.93 1039.93 1039.93 1229.9 1170.30	88.8601808606	1039.93	1229.90	Sunny(sunny)	True	False	1229.90
2011-03-26 14:00:00 51381 14 1028.91 1028.91 1028.91 1141.8 1157.90	88.8601808606	1028.91	1141.80	Sunny(sunny)	True	False	1141.80
2011-03-26 15:00:00 51382 15 881.23 881.23 881.23 989.6 991.70	88.8601808606	881.23	989.60	Sunny(sunny)	True	False	989.60
