2011-02-27 21:00:00 22938 21 0.00 0.00 0.00 0.0 0.00	22.171758877	0.00	0.00	Cloudy(fair)	True	False	0.00
2011-02-27 22:00:00 22939 22 0.00 0.00 0.00 0.0 0.00	22.7170742652	0.00	0.00	Mostly_Cloudy(fair)	True	False	0.00
2011-02-27 23:00:00 22940 23 0.00 0.00 0.00 0.0 0.00	22.7170742652	0.00	0.00	Mostly_Cloudy(fair)	True	False	0.00
2011-02-28 00:00:00 22941 0 0.00 0.00 0.00 0.0 0.00	22.171758877	0.00	0.00	Cloudy(fair)	True	False	0.00
2011-02-28 01:00:00 22942 1 0.00 0.00 0.00 0.0 0.00	22.171758877	0.00	0.00	Cloudy(mostly_cloudy)	True	False	0.00
2011-02-28 02:00:00 22943 2 0.00 0.00 0.00 0.0 0.00	22.171758877	0.00	0.00	Cloudy(cloudy)	True	False	0.00
2011-02-28 03:00:00 22944 3 0.00 0.00 0.00 0.0 0.00	4.8738710682	0.00	0.00	Light_Rain(cloudy)	True	False	0.00
2011-02-28 04:00:00 22945 4 0.00 0.00 0.00 0.0 0.00	4.8738710682	0.00	0.00	Light_Rain(light_rain)	True	False	0.00
2011-02-28 05:00:00 22946 5 0.00 0.00 0.00 0.0 0.00	4.8738710682	0.00	0.00	Light_Rain(light_rain)	True	False	0.00
2011-02-28 06:00:00 22947 6 1.23 1.23 1.23 0.0 27.30	4.48905932777	1.23	0.00	Rain(light_rain)	True	False	0.00
2011-02-28 07:00:00 22948 7 10.87 10.87 10.87 0.0 242.20	4.48905932777	10.87	0.00	Rain(cloudy)	True	False	0.00
2011-02-28 08:00:00 22949 8 27.29 27.29 27.29 23.1 607.90	4.48905932777	27.29	23.10	Rain(rain)	True	False	23.10
2011-02-28 09:00:00 22950 9 39.80 39.80 39.80 24.4 886.60	4.48905932777	39.80	24.40	Rain(light_rain)	True	False	24.40
2011-02-28 10:00:00 22951 10 91.15 91.15 91.15 127.7 1063.70	8.56942987058	91.15	127.70	Rain(rain)	True	False	127.70
2011-02-28 11:00:00 22952 11 98.52 98.52 98.52 194.4 1149.70	8.56942987058	98.52	194.40	Rain(light_rain)	True	False	194.40
2011-02-28 12:00:00 22953 12 98.00 98.00 98.00 181.6 1143.60	8.56942987058	98.00	181.60	Rain(partly_cloudy)	True	False	181.60
2011-02-28 13:00:00 22954 13 88.93 88.93 88.93 167.4 1037.80	8.56942987058	88.93	167.40	Rain(fair)	True	False	167.40
2011-02-28 14:00:00 22955 14 76.39 76.39 76.39 91.1 891.40	8.56942987058	76.39	91.10	Rain(fair)	True	False	91.10
2011-02-28 15:00:00 22956 15 55.03 55.03 55.03 83.2 642.20	8.56942987058	55.03	83.20	Rain(fair)	True	False	83.20
2011-02-28 16:00:00 22957 16 13.56 13.56 13.56 26.5 302.00	4.48905932777	13.56	26.50	Rain(cloudy)	True	False	26.50
2011-02-28 17:00:00 22958 17 1.55 1.55 1.55 1.7 34.60	4.48905932777	1.55	1.70	Rain(cloudy)	True	False	1.70
2011-02-28 18:00:00 22959 18 0.00 0.00 0.00 0.0 0.00	4.48905932777	0.00	0.00	Rain(cloudy)	True	False	0.00
2011-02-28 19:00:00 22960 19 0.00 0.00 0.00 0.0 0.00	4.48905932777	0.00	0.00	Rain(cloudy)	True	False	0.00
2011-02-28 20:00:00 22961 20 0.00 0.00 0.00 0.0 0.00	4.48905932777	0.00	0.00	Rain(Unkown)	True	False	0.00
2011-02-28 21:00:00 22962 21 0.00 0.00 0.00 0.0 0.00	1.60911542141	0.00	0.00	Showers_/_Wind(cloudy)	True	False	0.00
2011-02-28 22:00:00 22963 22 0.00 0.00 0.00 0.0 0.00	1.60911542141	0.00	0.00	Showers_/_Wind(cloudy)	True	False	0.00
2011-02-28 23:00:00 22964 23 0.00 0.00 0.00 0.0 0.00	1.60911542141	0.00	0.00	Showers_/_Wind(mostly_cloudy)	True	False	0.00
2011-03-01 00:00:00 22965 0 0.00 0.00 0.00 0.0 0.00	1.60911542141	0.00	0.00	Mostly_Clear(fair)	False	False	0.00
2011-03-01 01:00:00 22966 1 0.00 0.00 0.00 0.0 0.00	1.60911542141	0.00	0.00	Mostly_Clear(fair)	False	False	0.00
2011-03-01 02:00:00 22967 2 0.00 0.00 0.00 0.0 0.00	1.60911542141	0.00	0.00	Mostly_Clear(fair)	False	False	0.00
2011-03-01 03:00:00 22968 3 0.00 0.00 0.00 0.0 0.00	92.2791081751	0.00	0.00	Clear(fair)	True	False	0.00
2011-03-01 04:00:00 22969 4 0.00 0.00 0.00 0.0 0.00	92.2791081751	0.00	0.00	Clear(fair)	True	False	0.00
2011-03-01 05:00:00 22970 5 0.00 0.00 0.00 0.0 0.00	92.2791081751	0.00	0.00	Clear(fair)	True	False	0.00
2011-03-01 06:00:00 22971 6 25.19 25.19 25.19 10.5 27.30	92.2791081751	25.19	10.50	Clear(fair)	True	False	10.50
2011-03-01 07:00:00 22972 7 223.50 223.50 223.50 86.9 242.20	92.2791081751	223.50	86.90	Sunny(fair)	True	False	86.90
2011-03-01 08:00:00 22973 8 560.96 560.96 560.96 414.6 607.90	92.2791081751	560.96	414.60	Sunny(fair)	True	False	414.60
2011-03-01 09:00:00 22974 9 818.15 818.15 818.15 872.1 886.60	92.2791081751	818.15	872.10	Sunny(fair)	True	False	872.10
2011-03-01 10:00:00 22975 10 1014.66 1014.66 1014.66 1051.7 1063.70	95.3901017657	1014.66	1051.70	Sunny(fair)	True	False	1051.70
2011-03-01 11:00:00 22976 11 1096.70 1096.70 1096.70 1133.5 1149.70	95.3901017657	1096.70	1133.50	Sunny(fair)	True	False	1133.50
2011-03-01 12:00:00 22977 12 1090.88 1090.88 1090.88 1119.5 1143.60	95.3901017657	1090.88	1119.50	Sunny(fair)	True	False	1119.50
2011-03-01 13:00:00 22978 13 989.96 989.96 989.96 1001.7 1037.80	95.3901017657	989.96	1001.70	Sunny(fair)	True	False	1001.70
2011-03-01 14:00:00 22979 14 850.31 850.31 850.31 862.8 891.40	95.3901017657	850.31	862.80	Sunny(fair)	True	False	862.80
2011-03-01 15:00:00 22980 15 612.60 612.60 612.60 609.4 642.20	95.3901017657	612.60	609.40	Sunny(fair)	True	False	609.40
2011-03-01 16:00:00 22981 16 278.68 278.68 278.68 269.8 302.00	92.2791081751	278.68	269.80	Sunny(fair)	True	False	269.80
2011-03-01 17:00:00 22982 17 31.93 31.93 31.93 22.2 34.60	92.2791081751	31.93	22.20	Sunny(fair)	True	False	22.20
2011-03-01 18:00:00 22983 18 0.00 0.00 0.00 0.0 0.00	92.2791081751	0.00	0.00	Clear(fair)	True	False	0.00
2011-03-01 19:00:00 22984 19 0.00 0.00 0.00 0.0 0.00	92.2791081751	0.00	0.00	Clear(fair)	True	False	0.00
2011-03-01 20:00:00 22985 20 0.00 0.00 0.00 0.0 0.00	92.2791081751	0.00	0.00	Clear(fair)	True	False	0.00
2011-03-01 21:00:00 22986 21 0.00 0.00 0.00 0.0 0.00	92.2791081751	0.00	0.00	Clear(fair)	True	False	0.00
