2011-02-28 10:00:00 23547 10 1020.96 1020.96 60.47 127.7 1063.70	5.68510310272	60.47	127.70	Thundershowers(rain)	True	False	127.70
2011-02-28 11:00:00 23548 11 138.02 138.02 65.36 194.4 1149.70	5.68510310272	65.36	194.40	Light_Rain(light_rain)	True	False	194.40
2011-02-28 12:00:00 23549 12 65.01 137.29 65.01 181.6 1143.60	5.68510310272	65.01	181.60	Light_Rain(partly_cloudy)	True	False	181.60
2011-02-28 13:00:00 23550 13 88.93 124.59 88.93 167.4 1037.80	8.56942987058	88.93	167.40	Showers(fair)	True	False	167.40
2011-02-28 14:00:00 23551 14 206.07 107.01 206.07 91.1 891.40	23.1174203253	206.07	91.10	Cloudy(fair)	True	False	91.10
2011-02-28 15:00:00 23552 15 148.46 77.10 148.46 83.2 642.20	23.1174203253	148.46	83.20	Cloudy(fair)	True	False	83.20
2011-02-28 16:00:00 23553 16 13.56 36.26 13.56 26.5 302.00	4.48905932777	13.56	26.50	Rain_/_Thunder(cloudy)	True	False	26.50
2011-02-28 17:00:00 23554 17 1.55 4.15 1.55 1.7 34.60	4.48905932777	1.55	1.70	Rain_/_Thunder(cloudy)	True	False	1.70
2011-02-28 18:00:00 23555 18 0.01 0.04 0.01 0.0 0.30	4.48905932777	0.01	0.00	Rain_/_Thunder(cloudy)	True	False	0.00
2011-02-28 19:00:00 23556 19 0.00 0.00 0.00 0.0 0.00	4.48905932777	0.00	0.00	Rain_/_Thunder(cloudy)	True	False	0.00
2011-02-28 20:00:00 23557 20 0.00 0.00 0.00 0.0 0.00	4.48905932777	0.00	0.00	Rain_/_Thunder(Unkown)	True	False	0.00
2011-02-28 21:00:00 23558 21 0.00 0.00 0.00 0.0 0.00	4.48905932777	0.00	0.00	Showers(cloudy)	True	False	0.00
2011-02-28 22:00:00 23559 22 0.00 0.00 0.00 0.0 0.00	4.48905932777	0.00	0.00	Showers(cloudy)	True	False	0.00
2011-02-28 23:00:00 23560 23 0.00 0.00 0.00 0.0 0.00	4.48905932777	0.00	0.00	Showers(mostly_cloudy)	True	False	0.00
2011-03-01 00:00:00 23561 0 0.00 0.00 0.00 0.0 0.00	22.7170742652	0.00	0.00	Mostly_Cloudy(fair)	True	False	0.00
2011-03-01 01:00:00 23562 1 0.00 0.00 0.00 0.0 0.00	22.7170742652	0.00	0.00	Mostly_Cloudy(fair)	True	False	0.00
2011-03-01 02:00:00 23563 2 0.00 0.00 0.00 0.0 0.00	22.7170742652	0.00	0.00	Mostly_Cloudy(fair)	True	False	0.00
2011-03-01 03:00:00 23564 3 0.00 0.00 0.00 0.0 0.00	94.1931238691	0.00	0.00	Clear(fair)	True	False	0.00
2011-03-01 04:00:00 23565 4 0.00 0.00 0.00 0.0 0.00	94.1931238691	0.00	0.00	Clear(fair)	True	False	0.00
2011-03-01 05:00:00 23566 5 0.00 0.00 0.00 0.0 0.00	94.1931238691	0.00	0.00	Clear(fair)	True	False	0.00
2011-03-01 06:00:00 23567 6 25.71 25.71 25.71 10.5 27.30	94.1931238691	25.71	10.50	Clear(fair)	True	False	10.50
2011-03-01 07:00:00 23568 7 228.14 228.14 228.14 86.9 242.20	94.1931238691	228.14	86.90	Sunny(fair)	True	False	86.90
2011-03-01 08:00:00 23569 8 572.60 572.60 572.60 414.6 607.90	94.1931238691	572.60	414.60	Sunny(fair)	True	False	414.60
2011-03-01 09:00:00 23570 9 835.12 835.12 835.12 872.1 886.60	94.1931238691	835.12	872.10	Sunny(fair)	True	False	872.10
2011-03-01 10:00:00 23571 10 1020.96 1020.96 1020.96 1051.7 1063.70	95.9818847562	1020.96	1051.70	Sunny(fair)	True	False	1051.70
2011-03-01 11:00:00 23572 11 1103.50 1103.50 1103.50 1133.5 1149.70	95.9818847562	1103.50	1133.50	Sunny(fair)	True	False	1133.50
2011-03-01 12:00:00 23573 12 1097.65 1097.65 1097.65 1119.5 1143.60	95.9818847562	1097.65	1119.50	Sunny(fair)	True	False	1119.50
2011-03-01 13:00:00 23574 13 996.10 996.10 996.10 1001.7 1037.80	95.9818847562	996.10	1001.70	Sunny(fair)	True	False	1001.70
2011-03-01 14:00:00 23575 14 855.58 855.58 855.58 862.8 891.40	95.9818847562	855.58	862.80	Sunny(fair)	True	False	862.80
2011-03-01 15:00:00 23576 15 616.40 616.40 616.40 609.4 642.20	95.9818847562	616.40	609.40	Sunny(fair)	True	False	609.40
2011-03-01 16:00:00 23577 16 284.46 284.46 284.46 269.8 302.00	94.1931238691	284.46	269.80	Sunny(fair)	True	False	269.80
2011-03-01 17:00:00 23578 17 32.59 32.59 32.59 22.2 34.60	94.1931238691	32.59	22.20	Sunny(fair)	True	False	22.20
2011-03-01 18:00:00 23579 18 0.28 0.28 0.28 0.0 0.30	94.1931238691	0.28	0.00	Clear(fair)	True	False	0.00
2011-03-01 19:00:00 23580 19 0.00 0.00 0.00 0.0 0.00	94.1931238691	0.00	0.00	Clear(fair)	True	False	0.00
2011-03-01 20:00:00 23581 20 0.00 0.00 0.00 0.0 0.00	94.1931238691	0.00	0.00	Clear(fair)	True	False	0.00
2011-03-01 21:00:00 23582 21 0.00 0.00 0.00 0.0 0.00	94.1931238691	0.00	0.00	Clear(fair)	True	False	0.00
2011-03-01 22:00:00 23583 22 0.00 0.00 0.00 0.0 0.00	94.1931238691	0.00	0.00	Clear(fair)	True	False	0.00
2011-03-01 23:00:00 23584 23 0.00 0.00 0.00 0.0 0.00	94.1931238691	0.00	0.00	Clear(fair)	True	False	0.00
2011-03-02 00:00:00 23585 0 0.00 0.00 0.00 0.0 0.00	94.1931238691	0.00	0.00	Mostly_Clear(fair)	False	False	0.00
2011-03-02 01:00:00 23586 1 0.00 0.00 0.00 0.0 0.00	94.1931238691	0.00	0.00	Mostly_Clear(fair)	False	False	0.00
2011-03-02 02:00:00 23587 2 0.00 0.00 0.00 0.0 0.00	94.1931238691	0.00	0.00	Mostly_Clear(fair)	False	False	0.00
2011-03-02 03:00:00 23588 3 0.00 0.00 0.00 0.0 0.00	71.3923098618	0.00	0.00	Partly_Cloudy(fair)	True	False	0.00
2011-03-02 04:00:00 23589 4 0.00 0.00 0.00 0.0 0.00	71.3923098618	0.00	0.00	Partly_Cloudy(fair)	True	False	0.00
2011-03-02 05:00:00 23590 5 0.00 0.00 0.00 0.0 0.00	71.3923098618	0.00	0.00	Partly_Cloudy(fair)	True	False	0.00
2011-03-02 06:00:00 23591 6 19.49 19.49 19.49 8.3 27.30	71.3923098618	19.49	8.30	Partly_Cloudy(fair)	True	False	8.30
2011-03-02 07:00:00 23592 7 172.91 172.91 172.91 187.1 242.20	71.3923098618	172.91	187.10	Partly_Cloudy(fair)	True	False	187.10
2011-03-02 08:00:00 23593 8 433.99 433.99 433.99 517.9 607.90	71.3923098618	433.99	517.90	Partly_Cloudy(fair)	True	False	517.90
2011-03-02 09:00:00 23594 9 632.96 632.96 632.96 813.0 886.60	71.3923098618	632.96	813.00	Mostly_Sunny(partly_cloudy)	False	False	813.00
2011-03-02 10:00:00 23595 10 759.40 759.40 759.40 978.2 1063.70	71.3923098618	759.40	978.20	Mostly_Sunny(fair)	False	False	978.20
