2011-02-19 19:00:00 13668 19 0.00 0.00 0.00 0.0 0.00	22.5482912333	0.00	0.00	Mostly_Cloudy/Wind(cloudy_and_windy)	True	False	0.00
2011-02-19 20:00:00 13669 20 0.00 0.00 0.00 0.0 0.00	22.5482912333	0.00	0.00	Mostly_Cloudy/Wind(cloudy)	True	False	0.00
2011-02-19 21:00:00 13670 21 0.00 0.00 0.00 0.0 0.00	69.5949500263	0.00	0.00	Partly_Cloudy/Wind(cloudy)	True	False	0.00
2011-02-19 22:00:00 13671 22 0.00 0.00 0.00 0.0 0.00	69.5949500263	0.00	0.00	Partly_Cloudy/Wind(cloudy_and_windy)	True	False	0.00
2011-02-19 23:00:00 13672 23 0.00 0.00 0.00 0.0 0.00	69.5949500263	0.00	0.00	Partly_Cloudy/Wind(fair)	True	False	0.00
2011-02-20 00:00:00 13673 0 0.00 0.00 0.00 0.0 0.00	69.5949500263	0.00	0.00	Partly_Cloudy/Wind(cloudy_and_windy)	True	False	0.00
2011-02-20 01:00:00 13674 1 0.00 0.00 0.00 0.0 0.00	69.5949500263	0.00	0.00	Partly_Cloudy_/_Wind(mostly_cloudy_and_windy)	True	False	0.00
2011-02-20 02:00:00 13675 2 0.00 0.00 0.00 0.0 0.00	69.5949500263	0.00	0.00	Partly_Cloudy_/_Wind(mostly_cloudy_and_windy)	True	False	0.00
2011-02-20 03:00:00 13676 3 0.00 0.00 0.00 0.0 0.00	69.5949500263	0.00	0.00	Mostly_Clear(fair)	False	False	0.00
2011-02-20 04:00:00 13677 4 0.00 0.00 0.00 0.0 0.00	69.5949500263	0.00	0.00	Mostly_Clear(fair)	False	False	0.00
2011-02-20 05:00:00 13678 5 0.00 0.00 0.00 0.0 0.00	69.5949500263	0.00	0.00	Mostly_Clear(fair)	False	False	0.00
2011-02-20 06:00:00 13679 6 6.13 6.13 6.13 1.4 9.60	63.8808280132	6.13	1.40	Clear(fair)	True	False	1.40
2011-02-20 07:00:00 13680 7 128.27 128.27 128.27 147.1 200.80	63.8808280132	128.27	147.10	Sunny(fair)	True	False	147.10
2011-02-20 08:00:00 13681 8 356.07 356.07 356.07 522.3 557.40	63.8808280132	356.07	522.30	Sunny(fair)	True	False	522.30
2011-02-20 09:00:00 13682 9 515.90 515.90 515.90 808.3 807.60	63.8808280132	515.90	808.30	Sunny(fair)	True	False	808.30
2011-02-20 10:00:00 13683 10 703.35 703.35 703.35 969.8 1054.10	66.7251667252	703.35	969.80	Sunny(fair)	True	False	969.80
2011-02-20 11:00:00 13684 11 761.07 761.07 761.07 1044.4 1140.60	66.7251667252	761.07	1044.40	Sunny(fair)	True	False	1044.40
2011-02-20 12:00:00 13685 12 753.46 753.46 753.46 1023.0 1129.20	66.7251667252	753.46	1023.00	Mostly_Sunny(fair)	False	False	1023.00
2011-02-20 13:00:00 13686 13 689.80 689.80 689.80 998.1 1033.80	66.7251667252	689.80	998.10	Mostly_Sunny(fair)	False	False	998.10
2011-02-20 14:00:00 13687 14 570.30 570.30 570.30 846.9 854.70	66.7251667252	570.30	846.90	Mostly_Sunny(fair)	False	False	846.90
2011-02-20 15:00:00 13688 15 161.95 161.95 161.95 565.0 624.40	25.9368181387	161.95	565.00	Mostly_Cloudy(fair)	True	False	565.00
2011-02-20 16:00:00 13689 16 62.21 62.21 62.21 164.0 275.90	22.5482912333	62.21	164.00	Mostly_Cloudy(fair)	True	False	164.00
2011-02-20 17:00:00 13690 17 6.67 6.67 6.67 11.6 29.60	22.5482912333	6.67	11.60	Mostly_Cloudy(fair)	True	False	11.60
2011-02-20 18:00:00 13691 18 0.00 0.00 0.00 0.0 0.00	24.4534726253	0.00	0.00	Cloudy(fair)	True	False	0.00
2011-02-20 19:00:00 13692 19 0.00 0.00 0.00 0.0 0.00	24.4534726253	0.00	0.00	Cloudy(fair)	True	False	0.00
2011-02-20 20:00:00 13693 20 0.00 0.00 0.00 0.0 0.00	24.4534726253	0.00	0.00	Cloudy(mostly_cloudy)	True	False	0.00
2011-02-20 21:00:00 13694 21 0.00 0.00 0.00 0.0 0.00	0.368227248816	0.00	0.00	Snow_Shower(mostly_cloudy)	True	False	0.00
2011-02-20 22:00:00 13695 22 0.00 0.00 0.00 0.0 0.00	0.368227248816	0.00	0.00	Snow_Shower(cloudy)	True	False	0.00
2011-02-20 23:00:00 13696 23 0.00 0.00 0.00 0.0 0.00	0.368227248816	0.00	0.00	Snow_Shower(cloudy)	True	False	0.00
2011-02-21 00:00:00 13697 0 0.00 0.00 0.00 0.0 0.00	0.656265477959	0.00	0.00	Light_Snow(cloudy)	True	False	0.00
2011-02-21 01:00:00 13698 1 0.00 0.00 0.00 0.0 0.00	0.656265477959	0.00	0.00	Light_Snow(light_snow)	True	False	0.00
2011-02-21 02:00:00 13699 2 0.00 0.00 0.00 0.0 0.00	0.656265477959	0.00	0.00	Light_Snow(light_snow)	True	False	0.00
2011-02-21 03:00:00 13700 3 0.00 0.00 0.00 0.0 0.00	9.87199719446	0.00	0.00	Wintry_Mix(snow)	True	False	0.00
2011-02-21 04:00:00 13701 4 0.00 0.00 0.00 0.0 0.00	9.87199719446	0.00	0.00	Wintry_Mix(snow)	True	False	0.00
2011-02-21 05:00:00 13702 5 0.00 0.00 0.00 0.0 0.00	9.87199719446	0.00	0.00	Wintry_Mix(light_snow)	True	False	0.00
2011-02-21 06:00:00 13703 6 0.95 0.95 0.95 0.0 9.60	9.87199719446	0.95	0.00	Rain(light_snow)	True	False	0.00
2011-02-21 07:00:00 13704 7 19.82 19.82 19.82 0.0 200.80	9.87199719446	19.82	0.00	Rain(light_snow)	True	False	0.00
2011-02-21 08:00:00 13705 8 55.03 55.03 55.03 1.3 557.40	9.87199719446	55.03	1.30	Rain(cloudy)	True	False	1.30
2011-02-21 09:00:00 13706 9 79.73 79.73 79.73 13.3 807.60	9.87199719446	79.73	13.30	Showers(light_snow)	True	False	13.30
2011-02-21 10:00:00 13707 10 104.06 104.06 104.06 29.3 1054.10	9.87199719446	104.06	29.30	Showers(cloudy)	True	False	29.30
2011-02-21 11:00:00 13708 11 112.60 112.60 112.60 43.0 1140.60	9.87199719446	112.60	43.00	Showers(cloudy)	True	False	43.00
2011-02-21 12:00:00 13709 12 74.45 74.45 74.45 47.2 1129.20	6.59330234323	74.45	47.20	Few_Showers(cloudy)	True	False	47.20
2011-02-21 13:00:00 13710 13 68.16 68.16 68.16 74.1 1033.80	6.59330234323	68.16	74.10	Few_Showers(cloudy)	True	False	74.10
2011-02-21 14:00:00 13711 14 56.35 56.35 56.35 101.9 854.70	6.59330234323	56.35	101.90	Few_Showers(mostly_cloudy)	True	False	101.90
2011-02-21 15:00:00 13712 15 152.69 152.69 152.69 84.0 624.40	24.4534726253	152.69	84.00	Cloudy(partly_cloudy)	True	False	84.00
2011-02-21 16:00:00 13713 16 67.47 67.47 67.47 40.1 275.90	24.4534726253	67.47	40.10	Cloudy(fair)	True	False	40.10
2011-02-21 17:00:00 13714 17 7.24 7.24 7.24 3.6 29.60	24.4534726253	7.24	3.60	Cloudy(fair)	True	False	3.60
2011-02-21 18:00:00 13715 18 0.00 0.00 0.00 0.0 0.00	22.5482912333	0.00	0.00	Mostly_Cloudy(fair)	True	False	0.00
