2011-03-16 16:00:00 42170 16 481.14 607.88 607.88 444.7 684.10	70.3313379985	607.88	444.70	Partly_Cloudy(mostly_cloudy)	True	False	444.70
2011-03-16 17:00:00 42171 17 245.46 226.87 226.87 256.1 349.00	70.3313379985	226.87	256.10	Partly_Cloudy(cloudy)	True	False	256.10
2011-03-16 18:00:00 42172 18 61.33 56.68 56.68 31.4 87.20	70.3313379985	56.68	31.40	Partly_Cloudy(cloudy)	True	False	31.40
2011-03-16 19:00:00 42173 19 0.29 0.65 0.65 0.0 1.00	29.1659812469	0.65	0.00	Mostly_Cloudy(partly_cloudy)	True	False	0.00
2011-03-16 20:00:00 42174 20 0.00 0.00 0.00 0.0 0.00	29.1659812469	0.00	0.00	Mostly_Cloudy(mostly_cloudy)	True	False	0.00
2011-03-16 21:00:00 42175 21 0.00 0.00 0.00 0.0 0.00	29.1659812469	0.00	0.00	Mostly_Cloudy(cloudy)	True	False	0.00
2011-03-16 22:00:00 42176 22 0.00 0.00 0.00 0.0 0.00	70.3313379985	0.00	0.00	Partly_Cloudy(mostly_cloudy)	True	False	0.00
2011-03-16 23:00:00 42177 23 0.00 0.00 0.00 0.0 0.00	70.3313379985	0.00	0.00	Partly_Cloudy(fair)	True	False	0.00
2011-03-17 00:00:00 42178 0 0.00 0.00 0.00 0.0 0.00	70.3313379985	0.00	0.00	Partly_Cloudy(cloudy)	True	False	0.00
2011-03-17 01:00:00 42179 1 0.00 0.00 0.00 0.0 0.00	70.3313379985	0.00	0.00	Mostly_Clear(mostly_cloudy)	False	False	0.00
2011-03-17 02:00:00 42180 2 0.00 0.00 0.00 0.0 0.00	70.3313379985	0.00	0.00	Mostly_Clear(clear)	False	False	0.00
2011-03-17 03:00:00 42181 3 0.00 0.00 0.00 0.0 0.00	70.3313379985	0.00	0.00	Mostly_Clear(partly_cloudy)	False	False	0.00
2011-03-17 04:00:00 42182 4 0.00 0.00 0.00 0.0 0.00	85.36855904	0.00	0.00	Clear(cloudy)	True	False	0.00
2011-03-17 05:00:00 42183 5 0.00 0.00 0.00 0.0 0.00	85.36855904	0.00	0.00	Clear(cloudy)	True	False	0.00
2011-03-17 06:00:00 42184 6 23.31 23.31 23.31 0.0 27.30	85.36855904	23.31	0.00	Clear(clear)	True	False	0.00
2011-03-17 07:00:00 42185 7 206.76 206.76 206.76 46.9 242.20	85.36855904	206.76	46.90	Clear(sunny)	True	False	46.90
2011-03-17 08:00:00 42186 8 518.96 518.96 518.96 304.7 607.90	85.36855904	518.96	304.70	Sunny(sunny)	True	False	304.70
2011-03-17 09:00:00 42187 9 756.88 756.88 756.88 624.0 886.60	85.36855904	756.88	624.00	Sunny(fair)	True	False	624.00
2011-03-17 10:00:00 42188 10 945.18 945.18 945.18 884.5 1063.70	88.8579629469	945.18	884.50	Sunny(sunny)	True	False	884.50
2011-03-17 11:00:00 42189 11 1021.60 1021.60 1021.60 1043.3 1149.70	88.8579629469	1021.60	1043.30	Sunny(sunny)	True	False	1043.30
2011-03-17 12:00:00 42190 12 1053.94 1053.94 1053.94 1108.3 1186.10	88.8579629469	1053.94	1108.30	Sunny(fair)	True	False	1108.30
2011-03-17 13:00:00 42191 13 1039.90 1039.90 1039.90 1102.3 1170.30	88.8579629469	1039.90	1102.30	Sunny(sunny)	True	False	1102.30
2011-03-17 14:00:00 42192 14 1028.89 1028.89 1028.89 1009.9 1157.90	88.8579629469	1028.89	1009.90	Sunny(sunny)	True	False	1009.90
2011-03-17 15:00:00 42193 15 881.20 881.20 881.20 870.9 991.70	88.8579629469	881.20	870.90	Sunny(sunny)	True	False	870.90
2011-03-17 16:00:00 42194 16 584.01 584.01 584.01 632.5 684.10	85.36855904	584.01	632.50	Sunny(sunny)	True	False	632.50
2011-03-17 17:00:00 42195 17 297.94 297.94 297.94 302.6 349.00	85.36855904	297.94	302.60	Sunny(sunny)	True	False	302.60
2011-03-17 18:00:00 42196 18 74.44 74.44 74.44 59.7 87.20	85.36855904	74.44	59.70	Sunny(sunny)	True	False	59.70
2011-03-17 19:00:00 42197 19 0.85 0.85 0.85 0.0 1.00	85.36855904	0.85	0.00	Mostly_Sunny(sunny)	False	False	0.00
2011-03-17 20:00:00 42198 20 0.00 0.00 0.00 0.0 0.00	85.36855904	0.00	0.00	Mostly_Clear(clear)	False	False	0.00
2011-03-17 21:00:00 42199 21 0.00 0.00 0.00 0.0 0.00	85.36855904	0.00	0.00	Mostly_Clear(clear)	False	False	0.00
2011-03-17 22:00:00 42200 22 0.00 0.00 0.00 0.0 0.00	70.3313379985	0.00	0.00	Partly_Cloudy(partly_cloudy)	True	False	0.00
2011-03-17 23:00:00 42201 23 0.00 0.00 0.00 0.0 0.00	70.3313379985	0.00	0.00	Partly_Cloudy(mostly_cloudy)	True	False	0.00
2011-03-18 00:00:00 42202 0 0.00 0.00 0.00 0.0 0.00	70.3313379985	0.00	0.00	Partly_Cloudy(mostly_cloudy)	True	False	0.00
2011-03-18 01:00:00 42203 1 0.00 0.00 0.00 0.0 0.00	70.3313379985	0.00	0.00	Partly_Cloudy(partly_cloudy)	True	False	0.00
2011-03-18 02:00:00 42204 2 0.00 0.00 0.00 0.0 0.00	70.3313379985	0.00	0.00	Partly_Cloudy(clear)	True	False	0.00
2011-03-18 03:00:00 42205 3 0.00 0.00 0.00 0.0 0.00	70.3313379985	0.00	0.00	Partly_Cloudy(clear)	True	False	0.00
2011-03-18 04:00:00 42206 4 0.00 0.00 0.00 0.0 0.00	70.3313379985	0.00	0.00	Partly_Cloudy(partly_cloudy)	True	False	0.00
2011-03-18 05:00:00 42207 5 0.00 0.00 0.00 0.0 0.00	70.3313379985	0.00	0.00	Partly_Cloudy(fair)	True	False	0.00
2011-03-18 06:00:00 42208 6 19.20 19.20 19.20 0.0 27.30	70.3313379985	19.20	0.00	Partly_Cloudy(fair)	True	False	0.00
2011-03-18 07:00:00 42209 7 70.64 70.64 70.64 35.7 242.20	29.1659812469	70.64	35.70	Mostly_Cloudy(partly_cloudy)	True	False	35.70
2011-03-18 08:00:00 42210 8 177.30 177.30 177.30 251.6 607.90	29.1659812469	177.30	251.60	Mostly_Cloudy(sunny)	True	False	251.60
2011-03-18 09:00:00 42211 9 258.59 258.59 258.59 464.4 886.60	29.1659812469	258.59	464.40	Mostly_Cloudy(sunny)	True	False	464.40
2011-03-18 10:00:00 42212 10 653.20 653.20 653.20 780.7 1063.70	61.4082918116	653.20	780.70	Mostly_Cloudy(sunny)	True	False	780.70
2011-03-18 11:00:00 42213 11 706.01 706.01 706.01 809.1 1149.70	61.4082918116	706.01	809.10	Mostly_Cloudy(sunny)	True	False	809.10
2011-03-18 12:00:00 42214 12 728.36 728.36 728.36 1010.7 1186.10	61.4082918116	728.36	1010.70	Mostly_Cloudy(sunny)	True	False	1010.70
2011-03-18 13:00:00 42215 13 102.80 102.80 102.80 987.7 1170.30	8.78407246005	102.80	987.70	Few_Showers(fair)	True	False	987.70
2011-03-18 14:00:00 42216 14 101.71 101.71 101.71 982.1 1157.90	8.78407246005	101.71	982.10	Few_Showers(partly_cloudy)	True	False	982.10
2011-03-18 15:00:00 42217 15 87.11 87.11 87.11 807.4 991.70	8.78407246005	87.11	807.40	Few_Showers(sunny)	True	False	807.40
2011-03-18 16:00:00 42218 16 59.55 59.55 59.55 503.2 684.10	8.70541497539	59.55	503.20	Scattered_Showers(fair)	True	False	503.20
