2011-02-15 16:00:00 8880 16 182.20 182.20 227.11 204.7 275.90	66.0387513455	227.11	204.70	Sunny(fair)	True	False	204.70
2011-02-15 17:00:00 8881 17 19.55 19.55 21.96 5.6 29.60	66.0387513455	21.96	5.60	Sunny(fair)	True	False	5.60
2011-02-15 18:00:00 8882 18 0.00 0.00 0.00 0.0 0.00	66.0387513455	0.00	0.00	Clear(fair)	True	False	0.00
2011-02-15 19:00:00 8883 19 0.00 0.00 0.00 0.0 0.00	66.0387513455	0.00	0.00	Clear(fair)	True	False	0.00
2011-02-15 20:00:00 8884 20 0.00 0.00 0.00 0.0 0.00	66.0387513455	0.00	0.00	Clear(fair)	True	False	0.00
2011-02-15 21:00:00 8885 21 0.00 0.00 0.00 0.0 0.00	66.0387513455	0.00	0.00	Clear(fair)	True	False	0.00
2011-02-15 22:00:00 8886 22 0.00 0.00 0.00 0.0 0.00	66.0387513455	0.00	0.00	Clear(fair)	True	False	0.00
2011-02-15 23:00:00 8887 23 0.00 0.00 0.00 0.0 0.00	66.0387513455	0.00	0.00	Clear(fair)	True	False	0.00
2011-02-16 00:00:00 8888 0 0.00 0.00 0.00 0.0 0.00	66.0387513455	0.00	0.00	Clear(fair)	True	False	0.00
2011-02-16 01:00:00 8889 1 0.00 0.00 0.00 0.0 0.00	66.0387513455	0.00	0.00	Clear(fair)	True	False	0.00
2011-02-16 02:00:00 8890 2 0.00 0.00 0.00 0.0 0.00	66.0387513455	0.00	0.00	Clear(fair)	True	False	0.00
2011-02-16 03:00:00 8891 3 0.00 0.00 0.00 0.0 0.00	58.3279948751	0.00	0.00	Partly_Cloudy(fair)	True	False	0.00
2011-02-16 04:00:00 8892 4 0.00 0.00 0.00 0.0 0.00	58.3279948751	0.00	0.00	Partly_Cloudy(fair)	True	False	0.00
2011-02-16 05:00:00 8893 5 0.00 0.00 0.00 0.0 0.00	58.3279948751	0.00	0.00	Partly_Cloudy(fair)	True	False	0.00
2011-02-16 06:00:00 8894 6 1.63 1.63 1.63 0.0 2.80	58.3279948751	1.63	0.00	Partly_Cloudy(fair)	True	False	0.00
2011-02-16 07:00:00 8895 7 114.21 114.21 114.21 48.4 195.80	58.3279948751	114.21	48.40	Partly_Cloudy(fair)	True	False	48.40
2011-02-16 08:00:00 8896 8 325.12 325.12 325.12 297.8 557.40	58.3279948751	325.12	297.80	Partly_Cloudy(fair)	True	False	297.80
2011-02-16 09:00:00 8897 9 148.97 148.97 148.97 643.9 807.60	18.4464317026	148.97	643.90	Mostly_Cloudy(fair)	True	False	643.90
2011-02-16 10:00:00 8898 10 273.40 273.40 273.40 927.1 1054.10	25.9368181387	273.40	927.10	Mostly_Cloudy(fair)	True	False	927.10
2011-02-16 11:00:00 8899 11 295.84 295.84 295.84 1071.4 1140.60	25.9368181387	295.84	1071.40	Mostly_Cloudy(fair)	True	False	1071.40
2011-02-16 12:00:00 8900 12 292.88 292.88 292.88 1038.6 1129.20	25.9368181387	292.88	1038.60	Mostly_Sunny(sunny)	False	False	1038.60
2011-02-16 13:00:00 8901 13 268.13 268.13 268.13 952.0 1033.80	25.9368181387	268.13	952.00	Mostly_Sunny(sunny)	False	False	952.00
2011-02-16 14:00:00 8902 14 221.68 221.68 221.68 783.7 854.70	25.9368181387	221.68	783.70	Mostly_Sunny(sunny)	False	False	783.70
2011-02-16 15:00:00 8903 15 513.99 513.99 513.99 521.4 624.40	82.3166682478	513.99	521.40	Sunny(sunny)	True	False	521.40
2011-02-16 16:00:00 8904 16 182.20 182.20 182.20 194.8 275.90	66.0387513455	182.20	194.80	Sunny(fair)	True	False	194.80
2011-02-16 17:00:00 8905 17 19.55 19.55 19.55 10.1 29.60	66.0387513455	19.55	10.10	Sunny(fair)	True	False	10.10
2011-02-16 18:00:00 8906 18 0.00 0.00 0.00 0.0 0.00	66.0387513455	0.00	0.00	Clear(mostly_cloudy)	True	False	0.00
2011-02-16 19:00:00 8907 19 0.00 0.00 0.00 0.0 0.00	66.0387513455	0.00	0.00	Clear(mostly_cloudy)	True	False	0.00
2011-02-16 20:00:00 8908 20 0.00 0.00 0.00 0.0 0.00	66.0387513455	0.00	0.00	Clear(cloudy)	True	False	0.00
2011-02-16 21:00:00 8909 21 0.00 0.00 0.00 0.0 0.00	66.0387513455	0.00	0.00	Mostly_Clear(cloudy)	False	False	0.00
2011-02-16 22:00:00 8910 22 0.00 0.00 0.00 0.0 0.00	66.0387513455	0.00	0.00	Mostly_Clear(cloudy)	False	False	0.00
2011-02-16 23:00:00 8911 23 0.00 0.00 0.00 0.0 0.00	66.0387513455	0.00	0.00	Mostly_Clear(cloudy)	False	False	0.00
2011-02-17 00:00:00 8912 0 0.00 0.00 0.00 0.0 0.00	58.3279948751	0.00	0.00	Partly_Cloudy(mostly_cloudy)	True	False	0.00
2011-02-17 01:00:00 8913 1 0.00 0.00 0.00 0.0 0.00	58.3279948751	0.00	0.00	Partly_Cloudy(cloudy)	True	False	0.00
2011-02-17 02:00:00 8914 2 0.00 0.00 0.00 0.0 0.00	58.3279948751	0.00	0.00	Partly_Cloudy(cloudy)	True	False	0.00
2011-02-17 03:00:00 8915 3 0.00 0.00 0.00 0.0 0.00	58.3279948751	0.00	0.00	Partly_Cloudy(partly_cloudy)	True	False	0.00
2011-02-17 04:00:00 8916 4 0.00 0.00 0.00 0.0 0.00	58.3279948751	0.00	0.00	Partly_Cloudy(mostly_cloudy)	True	False	0.00
2011-02-17 05:00:00 8917 5 0.00 0.00 0.00 0.0 0.00	58.3279948751	0.00	0.00	Partly_Cloudy(mostly_cloudy)	True	False	0.00
2011-02-17 06:00:00 8918 6 0.52 0.52 0.52 0.0 2.80	18.4464317026	0.52	0.00	Mostly_Cloudy(cloudy)	True	False	0.00
2011-02-17 07:00:00 8919 7 36.12 36.12 36.12 20.5 195.80	18.4464317026	36.12	20.50	Mostly_Cloudy(cloudy)	True	False	20.50
2011-02-17 08:00:00 8920 8 102.82 102.82 102.82 114.0 557.40	18.4464317026	102.82	114.00	Mostly_Cloudy(cloudy)	True	False	114.00
2011-02-17 09:00:00 8921 9 471.06 471.06 471.06 225.1 807.60	58.3279948751	471.06	225.10	Partly_Cloudy(cloudy)	True	False	225.10
2011-02-17 10:00:00 8922 10 763.32 763.32 763.32 628.5 1054.10	72.4140984768	763.32	628.50	Partly_Cloudy(cloudy)	True	False	628.50
2011-02-17 11:00:00 8923 11 825.96 825.96 825.96 876.3 1140.60	72.4140984768	825.96	876.30	Partly_Cloudy(mostly_cloudy)	True	False	876.30
2011-02-17 12:00:00 8924 12 292.88 292.88 292.88 971.7 1129.20	25.9368181387	292.88	971.70	Mostly_Cloudy(mostly_cloudy)	True	False	971.70
2011-02-17 13:00:00 8925 13 268.13 268.13 268.13 827.2 1033.80	25.9368181387	268.13	827.20	Mostly_Cloudy(fair)	True	False	827.20
2011-02-17 14:00:00 8926 14 221.68 221.68 221.68 599.8 854.70	25.9368181387	221.68	599.80	Mostly_Cloudy(fair)	True	False	599.80
2011-02-17 15:00:00 8927 15 161.95 161.95 161.95 447.7 624.40	25.9368181387	161.95	447.70	Mostly_Cloudy(fair)	True	False	447.70
2011-02-17 16:00:00 8928 16 50.89 50.89 50.89 111.5 275.90	18.4464317026	50.89	111.50	Mostly_Cloudy(fair)	True	False	111.50
