2011-02-18 12:00:00 12157 12 267.54 753.46 267.54 708.5 1129.20	23.6925236925	267.54	708.50	Mostly_Cloudy(fair)	True	False	708.50
2011-02-18 13:00:00 12158 13 648.64 648.64 648.64 894.7 1033.80	23.6925236925	648.64	894.70	Mostly_Cloudy(fair)	True	False	894.70
2011-02-18 14:00:00 12159 14 631.41 536.27 536.27 738.0 854.70	73.8753099539	536.27	738.00	Partly_Cloudy(fair)	True	False	738.00
2011-02-18 15:00:00 12160 15 418.28 391.77 391.77 498.3 624.40	66.9886082219	391.77	498.30	Partly_Cloudy(fair)	True	False	498.30
2011-02-18 16:00:00 12161 16 184.82 173.11 173.11 191.4 275.90	66.9886082219	173.11	191.40	Partly_Cloudy(fair)	True	False	191.40
2011-02-18 17:00:00 12162 17 19.83 18.57 18.57 17.7 29.60	66.9886082219	18.57	17.70	Partly_Cloudy(fair)	True	False	17.70
2011-02-18 18:00:00 12163 18 0.00 0.00 0.00 0.0 0.00	66.9886082219	0.00	0.00	Partly_Cloudy(fair)	True	False	0.00
2011-02-18 19:00:00 12164 19 0.00 0.00 0.00 0.0 0.00	66.9886082219	0.00	0.00	Partly_Cloudy(light_rain)	True	False	0.00
2011-02-18 20:00:00 12165 20 0.00 0.00 0.00 0.0 0.00	66.9886082219	0.00	0.00	Mostly_Clear(fair)	False	False	0.00
2011-02-18 21:00:00 12166 21 0.00 0.00 0.00 0.0 0.00	66.9886082219	0.00	0.00	Mostly_Clear(fair)	False	False	0.00
2011-02-18 22:00:00 12167 22 0.00 0.00 0.00 0.0 0.00	66.9886082219	0.00	0.00	Mostly_Clear(fair)	False	False	0.00
2011-02-18 23:00:00 12168 23 0.00 0.00 0.00 0.0 0.00	63.8808280132	0.00	0.00	Clear(fair)	True	False	0.00
2011-02-19 00:00:00 12169 0 0.00 0.00 0.00 0.0 0.00	63.8808280132	0.00	0.00	Clear(fair)	True	False	0.00
2011-02-19 01:00:00 12170 1 0.00 0.00 0.00 0.0 0.00	63.8808280132	0.00	0.00	Clear(fair)	True	False	0.00
2011-02-19 02:00:00 12171 2 0.00 0.00 0.00 0.0 0.00	63.8808280132	0.00	0.00	Clear(clear)	True	False	0.00
2011-02-19 03:00:00 12172 3 0.00 0.00 0.00 0.0 0.00	63.8808280132	0.00	0.00	Clear(fair)	True	False	0.00
2011-02-19 04:00:00 12173 4 0.00 0.00 0.00 0.0 0.00	63.8808280132	0.00	0.00	Clear(fair)	True	False	0.00
2011-02-19 05:00:00 12174 5 0.00 0.00 0.00 0.0 0.00	63.8808280132	0.00	0.00	Mostly_Clear_/_Wind(clear)	False	False	0.00
2011-02-19 06:00:00 12175 6 6.13 6.13 6.13 0.1 9.60	63.8808280132	6.13	0.10	Mostly_Sunny_/_Wind(fair)	False	False	0.10
2011-02-19 07:00:00 12176 7 128.27 128.27 128.27 132.9 200.80	63.8808280132	128.27	132.90	Mostly_Sunny_/_Wind(fair)	False	False	132.90
2011-02-19 08:00:00 12177 8 373.39 373.39 373.39 486.6 557.40	66.9886082219	373.39	486.60	Partly_Cloudy_/_Wind(partly_cloudy)	True	False	486.60
2011-02-19 09:00:00 12178 9 596.62 596.62 596.62 726.9 807.60	73.8753099539	596.62	726.90	Partly_Cloudy_/_Wind(partly_cloudy)	True	False	726.90
2011-02-19 10:00:00 12179 10 778.72 778.72 778.72 628.7 1054.10	73.8753099539	778.72	628.70	Partly_Cloudy_/_Wind(partly_cloudy)	True	False	628.70
2011-02-19 11:00:00 12180 11 842.62 842.62 842.62 614.6 1140.60	73.8753099539	842.62	614.60	Partly_Cloudy_/_Wind(cloudy_and_windy)	True	False	614.60
2011-02-19 12:00:00 12181 12 834.20 834.20 834.20 717.1 1129.20	73.8753099539	834.20	717.10	Partly_Cloudy_/_Wind(cloudy_and_windy)	True	False	717.10
2011-02-19 13:00:00 12182 13 763.72 763.72 763.72 577.3 1033.80	73.8753099539	763.72	577.30	Partly_Cloudy_/_Wind(cloudy_and_windy)	True	False	577.30
2011-02-19 14:00:00 12183 14 202.50 202.50 202.50 467.3 854.70	23.6925236925	202.50	467.30	Mostly_Cloudy_/_Wind(mostly_cloudy_and_windy)	True	False	467.30
2011-02-19 15:00:00 12184 15 115.18 115.18 115.18 203.6 624.40	18.4464317026	115.18	203.60	Mostly_Cloudy_/_Wind(mostly_cloudy)	True	False	203.60
2011-02-19 16:00:00 12185 16 50.89 50.89 50.89 64.1 275.90	18.4464317026	50.89	64.10	Mostly_Cloudy_/_Wind(mostly_cloudy_and_windy)	True	False	64.10
2011-02-19 17:00:00 12186 17 19.83 19.83 19.83 6.0 29.60	66.9886082219	19.83	6.00	Partly_Cloudy_/_Wind(cloudy_and_windy)	True	False	6.00
2011-02-19 18:00:00 12187 18 0.00 0.00 0.00 0.0 0.00	66.9886082219	0.00	0.00	Partly_Cloudy_/_Wind(cloudy)	True	False	0.00
2011-02-19 19:00:00 12188 19 0.00 0.00 0.00 0.0 0.00	66.9886082219	0.00	0.00	Partly_Cloudy_/_Wind(cloudy_and_windy)	True	False	0.00
2011-02-19 20:00:00 12189 20 0.00 0.00 0.00 0.0 0.00	66.9886082219	0.00	0.00	Partly_Cloudy_/_Wind(cloudy)	True	False	0.00
2011-02-19 21:00:00 12190 21 0.00 0.00 0.00 0.0 0.00	66.9886082219	0.00	0.00	Partly_Cloudy_/_Wind(cloudy)	True	False	0.00
2011-02-19 22:00:00 12191 22 0.00 0.00 0.00 0.0 0.00	66.9886082219	0.00	0.00	Partly_Cloudy_/_Wind(cloudy_and_windy)	True	False	0.00
2011-02-19 23:00:00 12192 23 0.00 0.00 0.00 0.0 0.00	66.9886082219	0.00	0.00	Partly_Cloudy(fair)	True	False	0.00
2011-02-20 00:00:00 12193 0 0.00 0.00 0.00 0.0 0.00	66.9886082219	0.00	0.00	Partly_Cloudy(cloudy_and_windy)	True	False	0.00
2011-02-20 01:00:00 12194 1 0.00 0.00 0.00 0.0 0.00	66.9886082219	0.00	0.00	Partly_Cloudy(mostly_cloudy_and_windy)	True	False	0.00
2011-02-20 02:00:00 12195 2 0.00 0.00 0.00 0.0 0.00	66.9886082219	0.00	0.00	Mostly_Clear(mostly_cloudy_and_windy)	False	False	0.00
2011-02-20 03:00:00 12196 3 0.00 0.00 0.00 0.0 0.00	66.9886082219	0.00	0.00	Mostly_Clear(fair)	False	False	0.00
2011-02-20 04:00:00 12197 4 0.00 0.00 0.00 0.0 0.00	66.9886082219	0.00	0.00	Mostly_Clear(fair)	False	False	0.00
2011-02-20 05:00:00 12198 5 0.00 0.00 0.00 0.0 0.00	63.8808280132	0.00	0.00	Clear(fair)	True	False	0.00
2011-02-20 06:00:00 12199 6 6.13 6.13 6.13 1.4 9.60	63.8808280132	6.13	1.40	Sunny(fair)	True	False	1.40
2011-02-20 07:00:00 12200 7 128.27 128.27 128.27 147.1 200.80	63.8808280132	128.27	147.10	Sunny(fair)	True	False	147.10
2011-02-20 08:00:00 12201 8 356.07 356.07 356.07 522.3 557.40	63.8808280132	356.07	522.30	Sunny(fair)	True	False	522.30
2011-02-20 09:00:00 12202 9 538.87 538.87 538.87 808.3 807.60	66.7251667252	538.87	808.30	Sunny(fair)	True	False	808.30
2011-02-20 10:00:00 12203 10 703.35 703.35 703.35 969.8 1054.10	66.7251667252	703.35	969.80	Sunny(fair)	True	False	969.80
2011-02-20 11:00:00 12204 11 761.07 761.07 761.07 1044.4 1140.60	66.7251667252	761.07	1044.40	Sunny(fair)	True	False	1044.40
