2011-02-16 03:00:00 9407 3 0.00 0.00 0.00 0.0 0.00	62.6201153107	0.00	0.00	Partly_Cloudy(fair)	True	False	0.00
2011-02-16 04:00:00 9408 4 0.00 0.00 0.00 0.0 0.00	62.6201153107	0.00	0.00	Partly_Cloudy(fair)	True	False	0.00
2011-02-16 05:00:00 9409 5 0.00 0.00 0.00 0.0 0.00	18.4464317026	0.00	0.00	Mostly_Cloudy(fair)	True	False	0.00
2011-02-16 06:00:00 9410 6 1.77 1.77 1.77 0.0 9.60	18.4464317026	1.77	0.00	Mostly_Cloudy(fair)	True	False	0.00
2011-02-16 07:00:00 9411 7 37.04 37.04 37.04 48.4 200.80	18.4464317026	37.04	48.40	Mostly_Cloudy(fair)	True	False	48.40
2011-02-16 08:00:00 9412 8 102.82 102.82 102.82 297.8 557.40	18.4464317026	102.82	297.80	Mostly_Cloudy(fair)	True	False	297.80
2011-02-16 09:00:00 9413 9 148.97 148.97 148.97 643.9 807.60	18.4464317026	148.97	643.90	Mostly_Cloudy(fair)	True	False	643.90
2011-02-16 10:00:00 9414 10 273.40 273.40 273.40 927.1 1054.10	25.9368181387	273.40	927.10	Mostly_Cloudy(fair)	True	False	927.10
2011-02-16 11:00:00 9415 11 295.84 295.84 295.84 1071.4 1140.60	25.9368181387	295.84	1071.40	Mostly_Cloudy(fair)	True	False	1071.40
2011-02-16 12:00:00 9416 12 292.88 292.88 292.88 1038.6 1129.20	25.9368181387	292.88	1038.60	Mostly_Sunny(sunny)	False	False	1038.60
2011-02-16 13:00:00 9417 13 268.13 268.13 268.13 952.0 1033.80	25.9368181387	268.13	952.00	Mostly_Sunny(sunny)	False	False	952.00
2011-02-16 14:00:00 9418 14 221.68 221.68 221.68 783.7 854.70	25.9368181387	221.68	783.70	Mostly_Sunny(sunny)	False	False	783.70
2011-02-16 15:00:00 9419 15 452.93 452.93 452.93 521.4 624.40	72.5380800567	452.93	521.40	Sunny(sunny)	True	False	521.40
2011-02-16 16:00:00 9420 16 180.32 180.32 180.32 194.8 275.90	65.3587443946	180.32	194.80	Sunny(fair)	True	False	194.80
2011-02-16 17:00:00 9421 17 19.35 19.35 19.35 10.1 29.60	65.3587443946	19.35	10.10	Sunny(fair)	True	False	10.10
2011-02-16 18:00:00 9422 18 0.00 0.00 0.00 0.0 0.00	65.3587443946	0.00	0.00	Clear(mostly_cloudy)	True	False	0.00
2011-02-16 19:00:00 9423 19 0.00 0.00 0.00 0.0 0.00	65.3587443946	0.00	0.00	Clear(mostly_cloudy)	True	False	0.00
2011-02-16 20:00:00 9424 20 0.00 0.00 0.00 0.0 0.00	65.3587443946	0.00	0.00	Clear(cloudy)	True	False	0.00
2011-02-16 21:00:00 9425 21 0.00 0.00 0.00 0.0 0.00	62.6201153107	0.00	0.00	Partly_Cloudy(cloudy)	True	False	0.00
2011-02-16 22:00:00 9426 22 0.00 0.00 0.00 0.0 0.00	62.6201153107	0.00	0.00	Partly_Cloudy(cloudy)	True	False	0.00
2011-02-16 23:00:00 9427 23 0.00 0.00 0.00 0.0 0.00	62.6201153107	0.00	0.00	Partly_Cloudy(cloudy)	True	False	0.00
2011-02-17 00:00:00 9428 0 0.00 0.00 0.00 0.0 0.00	62.6201153107	0.00	0.00	Partly_Cloudy(mostly_cloudy)	True	False	0.00
2011-02-17 01:00:00 9429 1 0.00 0.00 0.00 0.0 0.00	62.6201153107	0.00	0.00	Partly_Cloudy(cloudy)	True	False	0.00
2011-02-17 02:00:00 9430 2 0.00 0.00 0.00 0.0 0.00	62.6201153107	0.00	0.00	Partly_Cloudy(cloudy)	True	False	0.00
2011-02-17 03:00:00 9431 3 0.00 0.00 0.00 0.0 0.00	62.6201153107	0.00	0.00	Partly_Cloudy(partly_cloudy)	True	False	0.00
2011-02-17 04:00:00 9432 4 0.00 0.00 0.00 0.0 0.00	62.6201153107	0.00	0.00	Partly_Cloudy(mostly_cloudy)	True	False	0.00
2011-02-17 05:00:00 9433 5 0.00 0.00 0.00 0.0 0.00	62.6201153107	0.00	0.00	Partly_Cloudy(mostly_cloudy)	True	False	0.00
2011-02-17 06:00:00 9434 6 1.77 1.77 1.77 0.0 9.60	18.4464317026	1.77	0.00	Mostly_Cloudy(cloudy)	True	False	0.00
2011-02-17 07:00:00 9435 7 37.04 37.04 37.04 20.5 200.80	18.4464317026	37.04	20.50	Mostly_Cloudy(cloudy)	True	False	20.50
2011-02-17 08:00:00 9436 8 102.82 102.82 102.82 114.0 557.40	18.4464317026	102.82	114.00	Mostly_Cloudy(cloudy)	True	False	114.00
2011-02-17 09:00:00 9437 9 505.72 505.72 505.72 225.1 807.60	62.6201153107	505.72	225.10	Partly_Cloudy(cloudy)	True	False	225.10
2011-02-17 10:00:00 9438 10 763.32 763.32 763.32 628.5 1054.10	72.4140984768	763.32	628.50	Partly_Cloudy(cloudy)	True	False	628.50
2011-02-17 11:00:00 9439 11 825.96 825.96 825.96 876.3 1140.60	72.4140984768	825.96	876.30	Partly_Cloudy(mostly_cloudy)	True	False	876.30
2011-02-17 12:00:00 9440 12 292.88 292.88 292.88 971.7 1129.20	25.9368181387	292.88	971.70	Mostly_Cloudy(mostly_cloudy)	True	False	971.70
2011-02-17 13:00:00 9441 13 268.13 268.13 268.13 827.2 1033.80	25.9368181387	268.13	827.20	Mostly_Cloudy(fair)	True	False	827.20
2011-02-17 14:00:00 9442 14 221.68 221.68 221.68 599.8 854.70	25.9368181387	221.68	599.80	Mostly_Cloudy(fair)	True	False	599.80
2011-02-17 15:00:00 9443 15 161.95 161.95 161.95 447.7 624.40	25.9368181387	161.95	447.70	Mostly_Cloudy(fair)	True	False	447.70
2011-02-17 16:00:00 9444 16 50.89 50.89 50.89 111.5 275.90	18.4464317026	50.89	111.50	Mostly_Cloudy(fair)	True	False	111.50
2011-02-17 17:00:00 9445 17 5.46 5.46 5.46 5.1 29.60	18.4464317026	5.46	5.10	Mostly_Cloudy(fair)	True	False	5.10
2011-02-17 18:00:00 9446 18 0.00 0.00 0.00 0.0 0.00	18.4464317026	0.00	0.00	Mostly_Cloudy(fair)	True	False	0.00
2011-02-17 19:00:00 9447 19 0.00 0.00 0.00 0.0 0.00	18.4464317026	0.00	0.00	Mostly_Cloudy(fair)	True	False	0.00
2011-02-17 20:00:00 9448 20 0.00 0.00 0.00 0.0 0.00	18.4464317026	0.00	0.00	Mostly_Cloudy(fair)	True	False	0.00
2011-02-17 21:00:00 9449 21 0.00 0.00 0.00 0.0 0.00	23.3279574993	0.00	0.00	Cloudy(fair)	True	False	0.00
2011-02-17 22:00:00 9450 22 0.00 0.00 0.00 0.0 0.00	23.3279574993	0.00	0.00	Cloudy(fair)	True	False	0.00
2011-02-17 23:00:00 9451 23 0.00 0.00 0.00 0.0 0.00	23.3279574993	0.00	0.00	Cloudy(fair)	True	False	0.00
2011-02-18 00:00:00 9452 0 0.00 0.00 0.00 0.0 0.00	23.3279574993	0.00	0.00	Cloudy(fair)	True	False	0.00
2011-02-18 01:00:00 9453 1 0.00 0.00 0.00 0.0 0.00	23.3279574993	0.00	0.00	Cloudy(fair)	True	False	0.00
2011-02-18 02:00:00 9454 2 0.00 0.00 0.00 0.0 0.00	23.3279574993	0.00	0.00	Cloudy(fair)	True	False	0.00
2011-02-18 03:00:00 9455 3 0.00 0.00 0.00 0.0 0.00	23.3279574993	0.00	0.00	Cloudy(fair)	True	False	0.00
