2011-03-28 23:00:00 56353 23 0.00 0.00 0.00 0.0 0.00	84.9153242462	0.00	0.00	Clear(clear)	True	False	0.00
2011-03-29 00:00:00 56354 0 0.00 0.00 0.00 0.0 0.00	84.9153242462	0.00	0.00	Clear(clear)	True	False	0.00
2011-03-29 01:00:00 56355 1 0.00 0.00 0.00 0.0 0.00	84.9153242462	0.00	0.00	Clear(clear)	True	False	0.00
2011-03-29 02:00:00 56356 2 0.00 0.00 0.00 0.0 0.00	84.9153242462	0.00	0.00	Clear(clear)	True	False	0.00
2011-03-29 03:00:00 56357 3 0.00 0.00 0.00 0.0 0.00	84.9153242462	0.00	0.00	Clear(clear)	True	False	0.00
2011-03-29 04:00:00 56358 4 0.00 0.00 0.00 0.0 0.00	84.9153242462	0.00	0.00	Clear(clear)	True	False	0.00
2011-03-29 05:00:00 56359 5 0.00 0.00 0.00 0.0 0.00	84.9153242462	0.00	0.00	Clear(Unkown)	True	False	0.00
2011-03-29 06:00:00 56360 6 5.69 5.69 5.69 0.4 6.70	84.9153242462	5.69	0.40	Clear(Unkown)	True	False	0.40
2011-03-29 07:00:00 56361 7 95.78 95.78 95.78 84.6 112.80	84.9153242462	95.78	84.60	Sunny(Unkown)	True	False	84.60
2011-03-29 08:00:00 56362 8 337.54 337.54 337.54 395.1 397.50	84.9153242462	337.54	395.10	Sunny(Unkown)	True	False	395.10
2011-03-29 09:00:00 56363 9 668.88 668.88 668.88 734.9 787.70	84.9153242462	668.88	734.90	Sunny(Unkown)	True	False	734.90
2011-03-29 10:00:00 56364 10 887.60 887.60 887.60 989.3 1006.40	88.1953183992	887.60	989.30	Sunny(Unkown)	True	False	989.30
2011-03-29 11:00:00 56365 11 1010.81 1010.81 1010.81 1141.7 1146.10	88.1953183992	1010.81	1141.70	Sunny(Unkown)	True	False	1141.70
2011-03-29 12:00:00 56366 12 1067.60 1067.60 1067.60 1215.4 1210.50	88.1953183992	1067.60	1215.40	Sunny(Unkown)	True	False	1215.40
2011-03-29 13:00:00 56367 13 1051.20 1051.20 1051.20 1203.4 1191.90	88.1953183992	1051.20	1203.40	Sunny(Unkown)	True	False	1203.40
2011-03-29 14:00:00 56368 14 1021.21 1021.21 1021.21 1116.1 1157.90	88.1953183992	1021.21	1116.10	Sunny(Unkown)	True	False	1116.10
2011-03-29 15:00:00 56369 15 874.63 874.63 874.63 963.9 991.70	88.1953183992	874.63	963.90	Sunny(Unkown)	True	False	963.90
2011-03-29 16:00:00 56370 16 607.48 607.48 607.48 714.2 715.40	84.9153242462	607.48	714.20	Sunny_/_Wind(Unkown)	True	False	714.20
2011-03-29 17:00:00 56371 17 333.29 333.29 333.29 376.8 392.50	84.9153242462	333.29	376.80	Sunny_/_Wind(sunny)	True	False	376.80
2011-03-29 18:00:00 56372 18 86.36 86.36 86.36 77.3 101.70	84.9153242462	86.36	77.30	Sunny_/_Wind(sunny)	True	False	77.30
2011-03-29 19:00:00 56373 19 5.01 5.01 5.01 1.0 5.90	84.9153242462	5.01	1.00	Sunny(sunny)	True	False	1.00
2011-03-29 20:00:00 56374 20 0.00 0.00 0.00 0.0 0.00	84.9153242462	0.00	0.00	Clear(clear)	True	False	0.00
2011-03-29 21:00:00 56375 21 0.00 0.00 0.00 0.0 0.00	84.9153242462	0.00	0.00	Clear(clear)	True	False	0.00
2011-03-29 22:00:00 56376 22 0.00 0.00 0.00 0.0 0.00	84.9153242462	0.00	0.00	Clear(clear)	True	False	0.00
2011-03-29 23:00:00 56377 23 0.00 0.00 0.00 0.0 0.00	84.9153242462	0.00	0.00	Clear(clear)	True	False	0.00
2011-03-30 00:00:00 56378 0 0.00 0.00 0.00 0.0 0.00	84.9153242462	0.00	0.00	Clear(clear)	True	False	0.00
2011-03-30 01:00:00 56379 1 0.00 0.00 0.00 0.0 0.00	84.9153242462	0.00	0.00	Clear(clear)	True	False	0.00
2011-03-30 02:00:00 56380 2 0.00 0.00 0.00 0.0 0.00	84.9153242462	0.00	0.00	Clear(fair)	True	False	0.00
2011-03-30 03:00:00 56381 3 0.00 0.00 0.00 0.0 0.00	84.9153242462	0.00	0.00	Clear(clear)	True	False	0.00
2011-03-30 04:00:00 56382 4 0.00 0.00 0.00 0.0 0.00	84.9153242462	0.00	0.00	Clear(clear)	True	False	0.00
2011-03-30 05:00:00 56383 5 0.00 0.00 0.00 0.0 0.00	84.9153242462	0.00	0.00	Clear(clear)	True	False	0.00
2011-03-30 06:00:00 56384 6 5.69 5.69 5.69 0.8 6.70	84.9153242462	5.69	0.80	Clear(clear)	True	False	0.80
2011-03-30 07:00:00 56385 7 88.93 88.93 88.93 112.1 112.80	78.8343248966	88.93	112.10	Partly_Cloudy(sunny)	True	False	112.10
2011-03-30 08:00:00 56386 8 313.37 313.37 313.37 374.5 397.50	78.8343248966	313.37	374.50	Partly_Cloudy(sunny)	True	False	374.50
2011-03-30 09:00:00 56387 9 620.98 620.98 620.98 635.6 787.70	78.8343248966	620.98	635.60	Partly_Cloudy(sunny)	True	False	635.60
2011-03-30 10:00:00 56388 10 364.26 364.26 364.26 861.2 1006.40	36.1943116033	364.26	861.20	Mostly_Cloudy(fair)	True	False	861.20
2011-03-30 11:00:00 56389 11 414.82 414.82 414.82 936.0 1146.10	36.1943116033	414.82	936.00	Mostly_Cloudy(partly_cloudy)	True	False	936.00
2011-03-30 12:00:00 56390 12 438.13 438.13 438.13 924.7 1210.50	36.1943116033	438.13	924.70	Mostly_Cloudy(partly_cloudy)	True	False	924.70
2011-03-30 13:00:00 56391 13 431.40 431.40 431.40 717.4 1191.90	36.1943116033	431.40	717.40	Mostly_Cloudy(partly_cloudy)	True	False	717.40
2011-03-30 14:00:00 56392 14 419.09 419.09 419.09 679.1 1157.90	36.1943116033	419.09	679.10	Mostly_Cloudy(mostly_cloudy)	True	False	679.10
2011-03-30 15:00:00 56393 15 358.94 358.94 358.94 708.4 991.70	36.1943116033	358.94	708.40	Mostly_Cloudy(mostly_cloudy)	True	False	708.40
2011-03-30 16:00:00 56394 16 563.98 563.98 563.98 416.8 715.40	78.8343248966	563.98	416.80	Partly_Cloudy(partly_cloudy)	True	False	416.80
2011-03-30 17:00:00 56395 17 309.42 309.42 309.42 92.4 392.50	78.8343248966	309.42	92.40	Partly_Cloudy(partly_cloudy)	True	False	92.40
2011-03-30 18:00:00 56396 18 80.17 80.17 80.17 13.2 101.70	78.8343248966	80.17	13.20	Partly_Cloudy(mostly_cloudy)	True	False	13.20
2011-03-30 19:00:00 56397 19 2.36 2.36 2.36 0.0 5.90	40.0524352123	2.36	0.00	Mostly_Cloudy(cloudy)	True	False	0.00
2011-03-30 20:00:00 56398 20 0.00 0.00 0.00 0.0 0.00	40.0524352123	0.00	0.00	Mostly_Cloudy(cloudy)	True	False	0.00
2011-03-30 21:00:00 56399 21 0.00 0.00 0.00 0.0 0.00	40.0524352123	0.00	0.00	Mostly_Cloudy(cloudy)	True	False	0.00
2011-03-30 22:00:00 56400 22 0.00 0.00 0.00 0.0 0.00	78.8343248966	0.00	0.00	Partly_Cloudy(cloudy)	True	False	0.00
2011-03-30 23:00:00 56401 23 0.00 0.00 0.00 0.0 0.00	78.8343248966	0.00	0.00	Partly_Cloudy(cloudy)	True	False	0.00
