2011-03-11 10:00:00 36146 10 957.95 957.95 957.95 360.2 1063.70	16.2097295301	957.95	360.20	Cloudy(cloudy)	True	False	360.20
2011-03-11 11:00:00 36147 11 389.32 389.32 389.32 675.4 1149.70	52.1436454708	389.32	675.40	Mostly_Cloudy(cloudy)	True	False	675.40
2011-03-11 12:00:00 36148 12 614.20 398.87 398.87 558.7 1177.90	52.1436454708	398.87	558.70	Mostly_Cloudy(cloudy)	True	False	558.70
2011-03-11 13:00:00 36149 13 846.96 396.30 396.30 735.1 1170.30	72.3714575833	396.30	735.10	Partly_Cloudy(mostly_cloudy)	True	False	735.10
2011-03-11 14:00:00 36150 14 784.00 366.84 366.84 791.6 1083.30	72.3714575833	366.84	791.60	Partly_Cloudy(fair)	True	False	791.60
2011-03-11 15:00:00 36151 15 671.17 314.04 314.04 408.3 927.40	72.3714575833	314.04	408.30	Partly_Cloudy(sunny)	True	False	408.30
2011-03-11 16:00:00 36152 16 484.49 231.66 231.66 94.2 684.10	70.8209525427	231.66	94.20	Partly_Cloudy(cloudy)	True	False	94.20
2011-03-11 17:00:00 36153 17 247.17 118.18 118.18 16.0 349.00	70.8209525427	118.18	16.00	Partly_Cloudy(cloudy)	True	False	16.00
2011-03-11 18:00:00 36154 18 47.66 22.79 22.79 0.0 67.30	70.8209525427	22.79	0.00	Partly_Cloudy(cloudy)	True	False	0.00
2011-03-11 19:00:00 36155 19 0.35 0.17 0.17 0.0 0.50	70.8209525427	0.17	0.00	Partly_Cloudy(cloudy)	True	False	0.00
2011-03-11 20:00:00 36156 20 0.00 0.00 0.00 0.0 0.00	70.8209525427	0.00	0.00	Partly_Cloudy(cloudy)	True	False	0.00
2011-03-11 21:00:00 36157 21 0.00 0.00 0.00 0.0 0.00	27.850087695	0.00	0.00	Mostly_Cloudy(cloudy)	True	False	0.00
2011-03-11 22:00:00 36158 22 0.00 0.00 0.00 0.0 0.00	27.850087695	0.00	0.00	Mostly_Cloudy(cloudy)	True	False	0.00
2011-03-11 23:00:00 36159 23 0.00 0.00 0.00 0.0 0.00	27.850087695	0.00	0.00	Mostly_Cloudy(partly_cloudy)	True	False	0.00
2011-03-12 00:00:00 36160 0 0.00 0.00 0.00 0.0 0.00	27.850087695	0.00	0.00	Mostly_Cloudy(partly_cloudy)	True	False	0.00
2011-03-12 01:00:00 36161 1 0.00 0.00 0.00 0.0 0.00	27.850087695	0.00	0.00	Mostly_Cloudy(mostly_cloudy)	True	False	0.00
2011-03-12 02:00:00 36162 2 0.00 0.00 0.00 0.0 0.00	27.850087695	0.00	0.00	Mostly_Cloudy(partly_cloudy)	True	False	0.00
2011-03-12 03:00:00 36163 3 0.00 0.00 0.00 0.0 0.00	27.850087695	0.00	0.00	Mostly_Cloudy(mostly_cloudy)	True	False	0.00
2011-03-12 04:00:00 36164 4 0.00 0.00 0.00 0.0 0.00	27.850087695	0.00	0.00	Mostly_Cloudy(cloudy)	True	False	0.00
2011-03-12 05:00:00 36165 5 0.00 0.00 0.00 0.0 0.00	27.850087695	0.00	0.00	Mostly_Cloudy(cloudy)	True	False	0.00
2011-03-12 06:00:00 36166 6 19.33 19.33 19.33 0.6 27.30	70.8209525427	19.33	0.60	Partly_Cloudy(cloudy)	True	False	0.60
2011-03-12 07:00:00 36167 7 171.53 171.53 171.53 88.7 242.20	70.8209525427	171.53	88.70	Partly_Cloudy(cloudy)	True	False	88.70
2011-03-12 08:00:00 36168 8 430.52 430.52 430.52 581.6 607.90	70.8209525427	430.52	581.60	Partly_Cloudy(mostly_cloudy)	True	False	581.60
2011-03-12 09:00:00 36169 9 627.90 627.90 627.90 877.2 886.60	70.8209525427	627.90	877.20	Partly_Cloudy(sunny)	True	False	877.20
2011-03-12 10:00:00 36170 10 769.82 769.82 769.82 1048.4 1063.70	72.3714575833	769.82	1048.40	Partly_Cloudy(fair)	True	False	1048.40
2011-03-12 11:00:00 36171 11 832.05 832.05 832.05 948.1 1149.70	72.3714575833	832.05	948.10	Partly_Cloudy(sunny)	True	False	948.10
2011-03-12 12:00:00 36172 12 852.46 852.46 852.46 496.9 1177.90	72.3714575833	852.46	496.90	Partly_Cloudy(sunny)	True	False	496.90
2011-03-12 13:00:00 36173 13 846.96 846.96 846.96 517.8 1170.30	72.3714575833	846.96	517.80	Partly_Cloudy(partly_cloudy)	True	False	517.80
2011-03-12 14:00:00 36174 14 784.00 784.00 784.00 696.9 1083.30	72.3714575833	784.00	696.90	Partly_Cloudy(mostly_cloudy)	True	False	696.90
2011-03-12 15:00:00 36175 15 483.58 483.58 483.58 487.9 927.40	52.1436454708	483.58	487.90	Mostly_Cloudy(partly_cloudy)	True	False	487.90
2011-03-12 16:00:00 36176 16 190.52 190.52 190.52 292.2 684.10	27.850087695	190.52	292.20	Mostly_Cloudy(partly_cloudy)	True	False	292.20
2011-03-12 17:00:00 36177 17 97.20 97.20 97.20 40.1 349.00	27.850087695	97.20	40.10	Mostly_Cloudy(sunny)	True	False	40.10
2011-03-12 18:00:00 36178 18 47.66 47.66 47.66 0.0 67.30	70.8209525427	47.66	0.00	Partly_Cloudy(clear)	True	False	0.00
2011-03-12 19:00:00 36179 19 0.35 0.35 0.35 0.0 0.50	70.8209525427	0.35	0.00	Partly_Cloudy(clear)	True	False	0.00
2011-03-12 20:00:00 36180 20 0.00 0.00 0.00 0.0 0.00	70.8209525427	0.00	0.00	Partly_Cloudy(clear)	True	False	0.00
2011-03-12 21:00:00 36181 21 0.00 0.00 0.00 0.0 0.00	70.8209525427	0.00	0.00	Partly_Cloudy(clear)	True	False	0.00
2011-03-12 22:00:00 36182 22 0.00 0.00 0.00 0.0 0.00	70.8209525427	0.00	0.00	Partly_Cloudy(mostly_cloudy)	True	False	0.00
2011-03-12 23:00:00 36183 23 0.00 0.00 0.00 0.0 0.00	70.8209525427	0.00	0.00	Partly_Cloudy(partly_cloudy)	True	False	0.00
2011-03-13 00:00:00 36184 0 0.00 0.00 0.00 0.0 0.00	70.8209525427	0.00	0.00	Partly_Cloudy(rain_shower)	True	False	0.00
2011-03-13 01:00:00 36185 1 0.00 0.00 0.00 0.0 0.00	70.8209525427	0.00	0.00	Partly_Cloudy(clear)	True	False	0.00
2011-03-13 02:00:00 36186 2 0.00 0.00 0.00 0.0 0.00	70.8209525427	0.00	0.00	Partly_Cloudy(Unkown)	True	False	0.00
2011-03-13 03:00:00 36187 3 0.00 0.00 0.00 0.0 0.00	70.8209525427	0.00	0.00	Partly_Cloudy(clear)	True	False	0.00
2011-03-13 04:00:00 36188 4 0.00 0.00 0.00 0.0 0.00	70.8209525427	0.00	0.00	Partly_Cloudy(partly_cloudy)	True	False	0.00
2011-03-13 05:00:00 36189 5 0.00 0.00 0.00 0.0 0.00	70.8209525427	0.00	0.00	Partly_Cloudy(clear)	True	False	0.00
2011-03-13 06:00:00 36190 6 23.77 23.77 23.77 0.0 27.30	87.0835870227	23.77	0.00	Clear(partly_cloudy)	True	False	0.00
2011-03-13 07:00:00 36191 7 210.92 210.92 210.92 11.6 242.20	87.0835870227	210.92	11.60	Sunny(cloudy)	True	False	11.60
2011-03-13 08:00:00 36192 8 529.38 529.38 529.38 94.6 607.90	87.0835870227	529.38	94.60	Sunny(cloudy)	True	False	94.60
2011-03-13 09:00:00 36193 9 798.46 798.46 798.46 119.7 886.60	90.0582273021	798.46	119.70	Sunny(cloudy)	True	False	119.70
2011-03-13 10:00:00 36194 10 957.95 957.95 957.95 237.9 1063.70	90.0582273021	957.95	237.90	Sunny(cloudy)	True	False	237.90
