2011-03-07 02:00:00 31164 2 0.00 0.00 0.00 0.0 0.00	5.58312655087	0.00	0.00	Light_Rain(light_rain)	True	False	0.00
2011-03-07 03:00:00 31165 3 0.00 0.00 0.00 0.0 0.00	4.52377035697	0.00	0.00	Showers(light_rain)	True	False	0.00
2011-03-07 04:00:00 31166 4 0.00 0.00 0.00 0.0 0.00	14.1984015045	0.00	0.00	Cloudy(cloudy)	True	False	0.00
2011-03-07 05:00:00 31167 5 0.00 0.00 0.00 0.0 0.00	14.1984015045	0.00	0.00	Cloudy(cloudy)	True	False	0.00
2011-03-07 06:00:00 31168 6 5.30 5.30 5.30 1.8 27.30	19.4054500413	5.30	1.80	Mostly_Cloudy/Wind(cloudy)	True	False	1.80
2011-03-07 07:00:00 31169 7 47.00 47.00 47.00 222.2 242.20	19.4054500413	47.00	222.20	Mostly_Cloudy/Wind(cloudy)	True	False	222.20
2011-03-07 08:00:00 31170 8 117.97 117.97 117.97 611.2 607.90	19.4054500413	117.97	611.20	Mostly_Cloudy_/_Wind(fair_and_windy)	True	False	611.20
2011-03-07 09:00:00 31171 9 653.59 653.59 653.59 883.7 886.60	73.7188528444	653.59	883.70	Partly_Cloudy_/_Wind(fair_and_windy)	True	False	883.70
2011-03-07 10:00:00 31172 10 784.15 784.15 784.15 1077.1 1063.70	73.7188528444	784.15	1077.10	Partly_Cloudy_/_Wind(fair)	True	False	1077.10
2011-03-07 11:00:00 31173 11 847.55 847.55 847.55 1170.2 1149.70	73.7188528444	847.55	1170.20	Partly_Cloudy_/_Wind(fair)	True	False	1170.20
2011-03-07 12:00:00 31174 12 1042.44 1042.44 1042.44 1173.4 1150.40	90.6157392163	1042.44	1173.40	Sunny_/_Wind(fair_and_windy)	True	False	1173.40
2011-03-07 13:00:00 31175 13 1044.07 1044.07 1044.07 1067.9 1152.20	90.6157392163	1044.07	1067.90	Sunny_/_Wind(fair)	True	False	1067.90
2011-03-07 14:00:00 31176 14 963.70 963.70 963.70 913.8 1063.50	90.6157392163	963.70	913.80	Sunny_/_Wind(fair)	True	False	913.80
2011-03-07 15:00:00 31177 15 825.60 825.60 825.60 653.0 911.10	90.6157392163	825.60	653.00	Sunny(fair)	True	False	653.00
2011-03-07 16:00:00 31178 16 581.41 581.41 581.41 307.0 663.40	87.6410345426	581.41	307.00	Sunny(fair)	True	False	307.00
2011-03-07 17:00:00 31179 17 288.34 288.34 288.34 32.2 329.00	87.6410345426	288.34	32.20	Sunny(fair)	True	False	32.20
2011-03-07 18:00:00 31180 18 47.15 47.15 47.15 0.0 53.80	87.6410345426	47.15	0.00	Clear(fair)	True	False	0.00
2011-03-07 19:00:00 31181 19 0.09 0.09 0.09 0.0 0.10	87.6410345426	0.09	0.00	Clear(fair)	True	False	0.00
2011-03-07 20:00:00 31182 20 0.00 0.00 0.00 0.0 0.00	87.6410345426	0.00	0.00	Clear(fair)	True	False	0.00
2011-03-07 21:00:00 31183 21 0.00 0.00 0.00 0.0 0.00	87.6410345426	0.00	0.00	Clear(fair)	True	False	0.00
2011-03-07 22:00:00 31184 22 0.00 0.00 0.00 0.0 0.00	87.6410345426	0.00	0.00	Clear(fair)	True	False	0.00
2011-03-07 23:00:00 31185 23 0.00 0.00 0.00 0.0 0.00	87.6410345426	0.00	0.00	Clear(fair)	True	False	0.00
2011-03-08 00:00:00 31186 0 0.00 0.00 0.00 0.0 0.00	87.6410345426	0.00	0.00	Clear(fair)	True	False	0.00
2011-03-08 01:00:00 31187 1 0.00 0.00 0.00 0.0 0.00	87.6410345426	0.00	0.00	Clear(fair)	True	False	0.00
2011-03-08 02:00:00 31188 2 0.00 0.00 0.00 0.0 0.00	87.6410345426	0.00	0.00	Clear(fair)	True	False	0.00
2011-03-08 03:00:00 31189 3 0.00 0.00 0.00 0.0 0.00	87.6410345426	0.00	0.00	Clear(fair)	True	False	0.00
2011-03-08 04:00:00 31190 4 0.00 0.00 0.00 0.0 0.00	87.6410345426	0.00	0.00	Clear(fair)	True	False	0.00
2011-03-08 05:00:00 31191 5 0.00 0.00 0.00 0.0 0.00	87.6410345426	0.00	0.00	Clear(fair)	True	False	0.00
2011-03-08 06:00:00 31192 6 23.93 23.93 23.93 19.4 27.30	87.6410345426	23.93	19.40	Mostly_Clear(fair)	False	False	19.40
2011-03-08 07:00:00 31193 7 212.27 212.27 212.27 254.2 242.20	87.6410345426	212.27	254.20	Mostly_Sunny(fair)	False	False	254.20
2011-03-08 08:00:00 31194 8 532.77 532.77 532.77 609.5 607.90	87.6410345426	532.77	609.50	Mostly_Sunny(fair)	False	False	609.50
2011-03-08 09:00:00 31195 9 653.59 653.59 653.59 881.8 886.60	73.7188528444	653.59	881.80	Partly_Cloudy(fair)	True	False	881.80
2011-03-08 10:00:00 31196 10 784.15 784.15 784.15 1027.3 1063.70	73.7188528444	784.15	1027.30	Partly_Cloudy(fair)	True	False	1027.30
2011-03-08 11:00:00 31197 11 847.55 847.55 847.55 1129.5 1149.70	73.7188528444	847.55	1129.50	Partly_Cloudy(fair)	True	False	1129.50
2011-03-08 12:00:00 31198 12 590.38 590.38 590.38 1101.8 1150.40	51.319215414	590.38	1101.80	Mostly_Cloudy(fair)	True	False	1101.80
2011-03-08 13:00:00 31199 13 591.30 591.30 591.30 938.7 1152.20	51.319215414	591.30	938.70	Mostly_Cloudy(fair)	True	False	938.70
2011-03-08 14:00:00 31200 14 545.78 545.78 545.78 618.8 1063.50	51.319215414	545.78	618.80	Mostly_Cloudy(fair)	True	False	618.80
2011-03-08 15:00:00 31201 15 467.57 467.57 467.57 261.9 911.10	51.319215414	467.57	261.90	Mostly_Cloudy(fair)	True	False	261.90
2011-03-08 16:00:00 31202 16 128.74 128.74 128.74 152.4 663.40	19.4054500413	128.74	152.40	Mostly_Cloudy(fair)	True	False	152.40
2011-03-08 17:00:00 31203 17 63.84 63.84 63.84 53.6 329.00	19.4054500413	63.84	53.60	Mostly_Cloudy(fair)	True	False	53.60
2011-03-08 18:00:00 31204 18 10.44 10.44 10.44 0.0 53.80	19.4054500413	10.44	0.00	Mostly_Cloudy(fair)	True	False	0.00
2011-03-08 19:00:00 31205 19 0.02 0.02 0.02 0.0 0.10	19.4054500413	0.02	0.00	Mostly_Cloudy(fair)	True	False	0.00
2011-03-08 20:00:00 31206 20 0.00 0.00 0.00 0.0 0.00	19.4054500413	0.00	0.00	Mostly_Cloudy(fair)	True	False	0.00
2011-03-08 21:00:00 31207 21 0.00 0.00 0.00 0.0 0.00	73.7188528444	0.00	0.00	Partly_Cloudy(fair)	True	False	0.00
2011-03-08 22:00:00 31208 22 0.00 0.00 0.00 0.0 0.00	73.7188528444	0.00	0.00	Partly_Cloudy(fair)	True	False	0.00
2011-03-08 23:00:00 31209 23 0.00 0.00 0.00 0.0 0.00	73.7188528444	0.00	0.00	Partly_Cloudy(fair)	True	False	0.00
2011-03-09 00:00:00 31210 0 0.00 0.00 0.00 0.0 0.00	87.6410345426	0.00	0.00	Clear(fair)	True	False	0.00
2011-03-09 01:00:00 31211 1 0.00 0.00 0.00 0.0 0.00	87.6410345426	0.00	0.00	Clear(fair)	True	False	0.00
