2011-02-26 07:00:00 21133 7 167.22 167.22 167.22 59.4 242.20	69.0440984605	167.22	59.40	Partly_Cloudy(fair)	True	False	59.40
2011-02-26 08:00:00 21134 8 138.10 138.10 138.10 228.5 607.90	22.7170742652	138.10	228.50	Mostly_Cloudy(fair)	True	False	228.50
2011-02-26 09:00:00 21135 9 201.41 201.41 201.41 504.3 886.60	22.7170742652	201.41	504.30	Mostly_Cloudy(sunny)	True	False	504.30
2011-02-26 10:00:00 21136 10 259.11 259.11 259.11 590.8 1063.70	24.3592214299	259.11	590.80	Cloudy(fair)	True	False	590.80
2011-02-26 11:00:00 21137 11 280.06 280.06 280.06 1039.4 1149.70	24.3592214299	280.06	1039.40	Cloudy(fair)	True	False	1039.40
2011-02-26 12:00:00 21138 12 834.20 834.20 834.20 1086.2 1143.60	72.9450856943	834.20	1086.20	Partly_Cloudy(fair)	True	False	1086.20
2011-02-26 13:00:00 21139 13 757.02 757.02 757.02 968.1 1037.80	72.9450856943	757.02	968.10	Partly_Cloudy(fair)	True	False	968.10
2011-02-26 14:00:00 21140 14 650.23 650.23 650.23 854.5 891.40	72.9450856943	650.23	854.50	Partly_Cloudy(cloudy)	True	False	854.50
2011-02-26 15:00:00 21141 15 217.36 217.36 217.36 502.1 642.20	33.8456360781	217.36	502.10	Mostly_Cloudy(fair)	True	False	502.10
2011-02-26 16:00:00 21142 16 68.61 68.61 68.61 123.9 302.00	22.7170742652	68.61	123.90	Mostly_Cloudy(fair)	True	False	123.90
2011-02-26 17:00:00 21143 17 7.86 7.86 7.86 18.3 34.60	22.7170742652	7.86	18.30	Mostly_Cloudy(fair)	True	False	18.30
2011-02-26 18:00:00 21144 18 0.00 0.00 0.00 0.0 0.00	22.7170742652	0.00	0.00	Mostly_Cloudy(partly_cloudy)	True	False	0.00
2011-02-26 19:00:00 21145 19 0.00 0.00 0.00 0.0 0.00	22.7170742652	0.00	0.00	Mostly_Cloudy(mostly_cloudy)	True	False	0.00
2011-02-26 20:00:00 21146 20 0.00 0.00 0.00 0.0 0.00	22.7170742652	0.00	0.00	Mostly_Cloudy(cloudy)	True	False	0.00
2011-02-26 21:00:00 21147 21 0.00 0.00 0.00 0.0 0.00	1.60911542141	0.00	0.00	Few_Snow_Showers(fair)	True	False	0.00
2011-02-26 22:00:00 21148 22 0.00 0.00 0.00 0.0 0.00	1.60911542141	0.00	0.00	Few_Snow_Showers(mostly_cloudy)	True	False	0.00
2011-02-26 23:00:00 21149 23 0.00 0.00 0.00 0.0 0.00	1.60911542141	0.00	0.00	Few_Snow_Showers(cloudy)	True	False	0.00
2011-02-27 00:00:00 21150 0 0.00 0.00 0.00 0.0 0.00	1.60911542141	0.00	0.00	Few_Snow_Showers(cloudy)	True	False	0.00
2011-02-27 01:00:00 21151 1 0.00 0.00 0.00 0.0 0.00	1.60911542141	0.00	0.00	Few_Snow_Showers(cloudy)	True	False	0.00
2011-02-27 02:00:00 21152 2 0.00 0.00 0.00 0.0 0.00	1.60911542141	0.00	0.00	Few_Snow_Showers(cloudy)	True	False	0.00
2011-02-27 03:00:00 21153 3 0.00 0.00 0.00 0.0 0.00	22.171758877	0.00	0.00	Cloudy(cloudy)	True	False	0.00
2011-02-27 04:00:00 21154 4 0.00 0.00 0.00 0.0 0.00	22.171758877	0.00	0.00	Cloudy(cloudy)	True	False	0.00
2011-02-27 05:00:00 21155 5 0.00 0.00 0.00 0.0 0.00	22.171758877	0.00	0.00	Cloudy(cloudy)	True	False	0.00
2011-02-27 06:00:00 21156 6 6.05 6.05 6.05 2.5 27.30	22.171758877	6.05	2.50	Cloudy(cloudy)	True	False	2.50
2011-02-27 07:00:00 21157 7 53.70 53.70 53.70 133.8 242.20	22.171758877	53.70	133.80	Cloudy(fair)	True	False	133.80
2011-02-27 08:00:00 21158 8 134.78 134.78 134.78 486.6 607.90	22.171758877	134.78	486.60	Cloudy(fair)	True	False	486.60
2011-02-27 09:00:00 21159 9 196.57 196.57 196.57 780.1 886.60	22.171758877	196.57	780.10	Cloudy(fair)	True	False	780.10
2011-02-27 10:00:00 21160 10 259.11 259.11 259.11 973.8 1063.70	24.3592214299	259.11	973.80	Cloudy(fair)	True	False	973.80
2011-02-27 11:00:00 21161 11 280.06 280.06 280.06 968.6 1149.70	24.3592214299	280.06	968.60	Cloudy(cloudy)	True	False	968.60
2011-02-27 12:00:00 21162 12 387.06 387.06 387.06 962.1 1143.60	33.8456360781	387.06	962.10	Mostly_Cloudy(cloudy)	True	False	962.10
2011-02-27 13:00:00 21163 13 351.25 351.25 351.25 1005.1 1037.80	33.8456360781	351.25	1005.10	Mostly_Cloudy(cloudy)	True	False	1005.10
2011-02-27 14:00:00 21164 14 301.70 301.70 301.70 845.0 891.40	33.8456360781	301.70	845.00	Mostly_Cloudy(partly_cloudy)	True	False	845.00
2011-02-27 15:00:00 21165 15 217.36 217.36 217.36 564.5 642.20	33.8456360781	217.36	564.50	Mostly_Cloudy(fair)	True	False	564.50
2011-02-27 16:00:00 21166 16 68.61 68.61 68.61 184.2 302.00	22.7170742652	68.61	184.20	Mostly_Cloudy(fair)	True	False	184.20
2011-02-27 17:00:00 21167 17 7.86 7.86 7.86 27.9 34.60	22.7170742652	7.86	27.90	Mostly_Cloudy(fair)	True	False	27.90
2011-02-27 18:00:00 21168 18 0.00 0.00 0.00 0.0 0.00	69.0440984605	0.00	0.00	Partly_Cloudy(fair)	True	False	0.00
2011-02-27 19:00:00 21169 19 0.00 0.00 0.00 0.0 0.00	69.0440984605	0.00	0.00	Partly_Cloudy(fair)	True	False	0.00
2011-02-27 20:00:00 21170 20 0.00 0.00 0.00 0.0 0.00	69.0440984605	0.00	0.00	Partly_Cloudy(fair)	True	False	0.00
2011-02-27 21:00:00 21171 21 0.00 0.00 0.00 0.0 0.00	22.7170742652	0.00	0.00	Mostly_Cloudy(fair)	True	False	0.00
2011-02-27 22:00:00 21172 22 0.00 0.00 0.00 0.0 0.00	22.7170742652	0.00	0.00	Mostly_Cloudy(fair)	True	False	0.00
2011-02-27 23:00:00 21173 23 0.00 0.00 0.00 0.0 0.00	22.7170742652	0.00	0.00	Mostly_Cloudy(fair)	True	False	0.00
2011-02-28 00:00:00 21174 0 0.00 0.00 0.00 0.0 0.00	22.7170742652	0.00	0.00	Mostly_Cloudy(fair)	True	False	0.00
2011-02-28 01:00:00 21175 1 0.00 0.00 0.00 0.0 0.00	22.7170742652	0.00	0.00	Mostly_Cloudy(mostly_cloudy)	True	False	0.00
2011-02-28 02:00:00 21176 2 0.00 0.00 0.00 0.0 0.00	22.7170742652	0.00	0.00	Mostly_Cloudy(cloudy)	True	False	0.00
2011-02-28 03:00:00 21177 3 0.00 0.00 0.00 0.0 0.00	22.171758877	0.00	0.00	Cloudy(cloudy)	True	False	0.00
2011-02-28 04:00:00 21178 4 0.00 0.00 0.00 0.0 0.00	22.171758877	0.00	0.00	Cloudy(light_rain)	True	False	0.00
2011-02-28 05:00:00 21179 5 0.00 0.00 0.00 0.0 0.00	22.171758877	0.00	0.00	Cloudy(light_rain)	True	False	0.00
2011-02-28 06:00:00 21180 6 1.72 1.72 1.72 0.0 27.30	6.31142802081	1.72	0.00	Light_Rain(light_rain)	True	False	0.00
2011-02-28 07:00:00 21181 7 15.29 15.29 15.29 0.0 242.20	6.31142802081	15.29	0.00	Light_Rain(cloudy)	True	False	0.00
