2011-03-27 11:00:00 54595 11 1010.81 1010.81 1010.81 1144.5 1146.10	36.1943116033	1010.81	1144.50	Mostly_Cloudy(sunny)	True	False	1144.50
2011-03-27 12:00:00 54596 12 1067.60 1067.60 1067.60 1220.7 1210.50	84.5624632939	1067.60	1220.70	Partly_Cloudy(sunny)	True	False	1220.70
2011-03-27 13:00:00 54597 13 1007.90 1051.20 1051.20 1209.3 1191.90	84.5624632939	1051.20	1209.30	Partly_Cloudy(sunny)	True	False	1209.30
2011-03-27 14:00:00 54598 14 979.15 1021.21 1021.21 1130.0 1157.90	84.5624632939	1021.21	1130.00	Partly_Cloudy(sunny)	True	False	1130.00
2011-03-27 15:00:00 54599 15 838.61 874.63 874.63 975.3 991.70	88.1953183992	874.63	975.30	Mostly_Sunny(sunny)	False	False	975.30
2011-03-27 16:00:00 54600 16 608.20 630.95 630.95 721.3 715.40	85.0158982512	630.95	721.30	Sunny(sunny)	True	False	721.30
2011-03-27 17:00:00 54601 17 333.69 346.17 346.17 377.9 392.50	85.0158982512	346.17	377.90	Sunny(sunny)	True	False	377.90
2011-03-27 18:00:00 54602 18 86.46 89.69 89.69 76.0 101.70	85.0158982512	89.69	76.00	Sunny(sunny)	True	False	76.00
2011-03-27 19:00:00 54603 19 5.02 5.20 5.20 1.0 5.90	85.0158982512	5.20	1.00	Sunny(sunny)	True	False	1.00
2011-03-27 20:00:00 54604 20 0.00 0.00 0.00 0.0 0.00	85.0158982512	0.00	0.00	Clear(clear)	True	False	0.00
2011-03-27 21:00:00 54605 21 0.00 0.00 0.00 0.0 0.00	85.0158982512	0.00	0.00	Clear(clear)	True	False	0.00
2011-03-27 22:00:00 54606 22 0.00 0.00 0.00 0.0 0.00	85.0158982512	0.00	0.00	Clear(clear)	True	False	0.00
2011-03-27 23:00:00 54607 23 0.00 0.00 0.00 0.0 0.00	85.0158982512	0.00	0.00	Clear(clear)	True	False	0.00
2011-03-28 00:00:00 54608 0 0.00 0.00 0.00 0.0 0.00	85.0158982512	0.00	0.00	Clear(clear)	True	False	0.00
2011-03-28 01:00:00 54609 1 0.00 0.00 0.00 0.0 0.00	85.0158982512	0.00	0.00	Clear(clear)	True	False	0.00
2011-03-28 02:00:00 54610 2 0.00 0.00 0.00 0.0 0.00	85.0158982512	0.00	0.00	Clear(clear)	True	False	0.00
2011-03-28 03:00:00 54611 3 0.00 0.00 0.00 0.0 0.00	85.0158982512	0.00	0.00	Clear(clear)	True	False	0.00
2011-03-28 04:00:00 54612 4 0.00 0.00 0.00 0.0 0.00	85.0158982512	0.00	0.00	Clear(clear)	True	False	0.00
2011-03-28 05:00:00 54613 5 0.00 0.00 0.00 0.0 0.00	85.0158982512	0.00	0.00	Clear(clear)	True	False	0.00
2011-03-28 06:00:00 54614 6 2.98 2.98 2.98 0.3 3.50	85.0158982512	2.98	0.30	Clear(clear)	True	False	0.30
2011-03-28 07:00:00 54615 7 92.50 92.50 92.50 85.2 108.80	85.0158982512	92.50	85.20	Sunny(sunny)	True	False	85.20
2011-03-28 08:00:00 54616 8 337.94 337.94 337.94 398.3 397.50	85.0158982512	337.94	398.30	Sunny(sunny)	True	False	398.30
2011-03-28 09:00:00 54617 9 669.67 669.67 669.67 740.9 787.70	85.0158982512	669.67	740.90	Sunny(sunny)	True	False	740.90
2011-03-28 10:00:00 54618 10 887.60 887.60 887.60 1001.5 1006.40	88.1953183992	887.60	1001.50	Sunny(sunny)	True	False	1001.50
2011-03-28 11:00:00 54619 11 1010.81 1010.81 1010.81 1092.2 1146.10	88.1953183992	1010.81	1092.20	Sunny(sunny)	True	False	1092.20
2011-03-28 12:00:00 54620 12 1067.60 1067.60 1067.60 1156.2 1210.50	88.1953183992	1067.60	1156.20	Sunny(fair)	True	False	1156.20
2011-03-28 13:00:00 54621 13 1051.20 1051.20 1051.20 1171.3 1191.90	88.1953183992	1051.20	1171.30	Sunny(sunny)	True	False	1171.30
2011-03-28 14:00:00 54622 14 1021.21 1021.21 1021.21 1047.7 1157.90	88.1953183992	1021.21	1047.70	Sunny(sunny)	True	False	1047.70
2011-03-28 15:00:00 54623 15 874.63 874.63 874.63 929.5 991.70	88.1953183992	874.63	929.50	Sunny(sunny)	True	False	929.50
2011-03-28 16:00:00 54624 16 608.20 608.20 608.20 714.7 715.40	85.0158982512	608.20	714.70	Sunny(sunny)	True	False	714.70
2011-03-28 17:00:00 54625 17 333.69 333.69 333.69 375.1 392.50	85.0158982512	333.69	375.10	Sunny(sunny)	True	False	375.10
2011-03-28 18:00:00 54626 18 86.46 86.46 86.46 76.3 101.70	85.0158982512	86.46	76.30	Sunny(sunny)	True	False	76.30
2011-03-28 19:00:00 54627 19 5.02 5.02 5.02 1.1 5.90	85.0158982512	5.02	1.10	Sunny(sunny)	True	False	1.10
2011-03-28 20:00:00 54628 20 0.00 0.00 0.00 0.0 0.00	85.0158982512	0.00	0.00	Clear(clear)	True	False	0.00
2011-03-28 21:00:00 54629 21 0.00 0.00 0.00 0.0 0.00	85.0158982512	0.00	0.00	Clear(clear)	True	False	0.00
2011-03-28 22:00:00 54630 22 0.00 0.00 0.00 0.0 0.00	85.0158982512	0.00	0.00	Clear(clear)	True	False	0.00
2011-03-28 23:00:00 54631 23 0.00 0.00 0.00 0.0 0.00	85.0158982512	0.00	0.00	Clear(clear)	True	False	0.00
2011-03-29 00:00:00 54632 0 0.00 0.00 0.00 0.0 0.00	85.0158982512	0.00	0.00	Clear(clear)	True	False	0.00
2011-03-29 01:00:00 54633 1 0.00 0.00 0.00 0.0 0.00	85.0158982512	0.00	0.00	Clear(clear)	True	False	0.00
2011-03-29 02:00:00 54634 2 0.00 0.00 0.00 0.0 0.00	85.0158982512	0.00	0.00	Clear(clear)	True	False	0.00
2011-03-29 03:00:00 54635 3 0.00 0.00 0.00 0.0 0.00	85.0158982512	0.00	0.00	Clear(clear)	True	False	0.00
2011-03-29 04:00:00 54636 4 0.00 0.00 0.00 0.0 0.00	85.0158982512	0.00	0.00	Clear(clear)	True	False	0.00
2011-03-29 05:00:00 54637 5 0.00 0.00 0.00 0.0 0.00	85.0158982512	0.00	0.00	Clear(Unkown)	True	False	0.00
2011-03-29 06:00:00 54638 6 2.98 2.98 2.98 0.4 3.50	85.0158982512	2.98	0.40	Clear(Unkown)	True	False	0.40
2011-03-29 07:00:00 54639 7 92.50 92.50 92.50 84.6 108.80	85.0158982512	92.50	84.60	Sunny(Unkown)	True	False	84.60
2011-03-29 08:00:00 54640 8 337.94 337.94 337.94 395.1 397.50	85.0158982512	337.94	395.10	Sunny(Unkown)	True	False	395.10
2011-03-29 09:00:00 54641 9 669.67 669.67 669.67 734.9 787.70	85.0158982512	669.67	734.90	Sunny(Unkown)	True	False	734.90
2011-03-29 10:00:00 54642 10 887.60 887.60 887.60 989.3 1006.40	88.1953183992	887.60	989.30	Sunny(Unkown)	True	False	989.30
2011-03-29 11:00:00 54643 11 1010.81 1010.81 1010.81 1141.7 1146.10	88.1953183992	1010.81	1141.70	Sunny(Unkown)	True	False	1141.70
