2011-03-27 15:00:00 54790 15 874.63 874.63 874.63 975.3 991.70	88.1953183992	874.63	975.30	Mostly_Sunny(sunny)	False	False	975.30
2011-03-27 16:00:00 54791 16 608.20 630.95 630.95 721.3 715.40	85.0158982512	630.95	721.30	Sunny(sunny)	True	False	721.30
2011-03-27 17:00:00 54792 17 333.69 346.17 346.17 377.9 392.50	85.0158982512	346.17	377.90	Sunny(sunny)	True	False	377.90
2011-03-27 18:00:00 54793 18 86.46 89.69 89.69 76.0 101.70	85.0158982512	89.69	76.00	Sunny(sunny)	True	False	76.00
2011-03-27 19:00:00 54794 19 5.02 5.20 5.20 1.0 5.90	85.0158982512	5.20	1.00	Sunny(sunny)	True	False	1.00
2011-03-27 20:00:00 54795 20 0.00 0.00 0.00 0.0 0.00	85.0158982512	0.00	0.00	Clear(clear)	True	False	0.00
2011-03-27 21:00:00 54796 21 0.00 0.00 0.00 0.0 0.00	85.0158982512	0.00	0.00	Clear(clear)	True	False	0.00
2011-03-27 22:00:00 54797 22 0.00 0.00 0.00 0.0 0.00	85.0158982512	0.00	0.00	Clear(clear)	True	False	0.00
2011-03-27 23:00:00 54798 23 0.00 0.00 0.00 0.0 0.00	85.0158982512	0.00	0.00	Clear(clear)	True	False	0.00
2011-03-28 00:00:00 54799 0 0.00 0.00 0.00 0.0 0.00	85.0158982512	0.00	0.00	Clear(clear)	True	False	0.00
2011-03-28 01:00:00 54800 1 0.00 0.00 0.00 0.0 0.00	85.0158982512	0.00	0.00	Clear(clear)	True	False	0.00
2011-03-28 02:00:00 54801 2 0.00 0.00 0.00 0.0 0.00	85.0158982512	0.00	0.00	Clear(clear)	True	False	0.00
2011-03-28 03:00:00 54802 3 0.00 0.00 0.00 0.0 0.00	85.0158982512	0.00	0.00	Clear(clear)	True	False	0.00
2011-03-28 04:00:00 54803 4 0.00 0.00 0.00 0.0 0.00	85.0158982512	0.00	0.00	Clear(clear)	True	False	0.00
2011-03-28 05:00:00 54804 5 0.00 0.00 0.00 0.0 0.00	85.0158982512	0.00	0.00	Clear(clear)	True	False	0.00
2011-03-28 06:00:00 54805 6 2.98 2.98 2.98 0.3 3.50	85.0158982512	2.98	0.30	Clear(clear)	True	False	0.30
2011-03-28 07:00:00 54806 7 92.50 92.50 92.50 85.2 108.80	85.0158982512	92.50	85.20	Sunny(sunny)	True	False	85.20
2011-03-28 08:00:00 54807 8 337.94 337.94 337.94 398.3 397.50	85.0158982512	337.94	398.30	Sunny(sunny)	True	False	398.30
2011-03-28 09:00:00 54808 9 669.67 669.67 669.67 740.9 787.70	85.0158982512	669.67	740.90	Sunny(sunny)	True	False	740.90
2011-03-28 10:00:00 54809 10 887.60 887.60 887.60 1001.5 1006.40	88.1953183992	887.60	1001.50	Sunny(sunny)	True	False	1001.50
2011-03-28 11:00:00 54810 11 1010.81 1010.81 1010.81 1092.2 1146.10	88.1953183992	1010.81	1092.20	Sunny(sunny)	True	False	1092.20
2011-03-28 12:00:00 54811 12 1067.60 1067.60 1067.60 1156.2 1210.50	88.1953183992	1067.60	1156.20	Sunny(fair)	True	False	1156.20
2011-03-28 13:00:00 54812 13 1051.20 1051.20 1051.20 1171.3 1191.90	88.1953183992	1051.20	1171.30	Sunny(sunny)	True	False	1171.30
2011-03-28 14:00:00 54813 14 1021.21 1021.21 1021.21 1047.7 1157.90	88.1953183992	1021.21	1047.70	Sunny(sunny)	True	False	1047.70
2011-03-28 15:00:00 54814 15 874.63 874.63 874.63 929.5 991.70	88.1953183992	874.63	929.50	Sunny(sunny)	True	False	929.50
2011-03-28 16:00:00 54815 16 608.20 608.20 608.20 714.7 715.40	85.0158982512	608.20	714.70	Sunny(sunny)	True	False	714.70
2011-03-28 17:00:00 54816 17 333.69 333.69 333.69 375.1 392.50	85.0158982512	333.69	375.10	Sunny(sunny)	True	False	375.10
2011-03-28 18:00:00 54817 18 86.46 86.46 86.46 76.3 101.70	85.0158982512	86.46	76.30	Sunny(sunny)	True	False	76.30
2011-03-28 19:00:00 54818 19 5.02 5.02 5.02 1.1 5.90	85.0158982512	5.02	1.10	Sunny(sunny)	True	False	1.10
2011-03-28 20:00:00 54819 20 0.00 0.00 0.00 0.0 0.00	85.0158982512	0.00	0.00	Clear(clear)	True	False	0.00
2011-03-28 21:00:00 54820 21 0.00 0.00 0.00 0.0 0.00	85.0158982512	0.00	0.00	Clear(clear)	True	False	0.00
2011-03-28 22:00:00 54821 22 0.00 0.00 0.00 0.0 0.00	85.0158982512	0.00	0.00	Clear(clear)	True	False	0.00
2011-03-28 23:00:00 54822 23 0.00 0.00 0.00 0.0 0.00	85.0158982512	0.00	0.00	Clear(clear)	True	False	0.00
2011-03-29 00:00:00 54823 0 0.00 0.00 0.00 0.0 0.00	85.0158982512	0.00	0.00	Clear(clear)	True	False	0.00
2011-03-29 01:00:00 54824 1 0.00 0.00 0.00 0.0 0.00	85.0158982512	0.00	0.00	Clear(clear)	True	False	0.00
2011-03-29 02:00:00 54825 2 0.00 0.00 0.00 0.0 0.00	85.0158982512	0.00	0.00	Clear(clear)	True	False	0.00
2011-03-29 03:00:00 54826 3 0.00 0.00 0.00 0.0 0.00	85.0158982512	0.00	0.00	Clear(clear)	True	False	0.00
2011-03-29 04:00:00 54827 4 0.00 0.00 0.00 0.0 0.00	85.0158982512	0.00	0.00	Clear(clear)	True	False	0.00
2011-03-29 05:00:00 54828 5 0.00 0.00 0.00 0.0 0.00	85.0158982512	0.00	0.00	Clear(Unkown)	True	False	0.00
2011-03-29 06:00:00 54829 6 2.98 2.98 2.98 0.4 3.50	85.0158982512	2.98	0.40	Clear(Unkown)	True	False	0.40
2011-03-29 07:00:00 54830 7 92.50 92.50 92.50 84.6 108.80	85.0158982512	92.50	84.60	Sunny(Unkown)	True	False	84.60
2011-03-29 08:00:00 54831 8 337.94 337.94 337.94 395.1 397.50	85.0158982512	337.94	395.10	Sunny(Unkown)	True	False	395.10
2011-03-29 09:00:00 54832 9 669.67 669.67 669.67 734.9 787.70	85.0158982512	669.67	734.90	Sunny(Unkown)	True	False	734.90
2011-03-29 10:00:00 54833 10 887.60 887.60 887.60 989.3 1006.40	88.1953183992	887.60	989.30	Sunny(Unkown)	True	False	989.30
2011-03-29 11:00:00 54834 11 1010.81 1010.81 1010.81 1141.7 1146.10	88.1953183992	1010.81	1141.70	Sunny(Unkown)	True	False	1141.70
2011-03-29 12:00:00 54835 12 1067.60 1067.60 1067.60 1215.4 1210.50	88.1953183992	1067.60	1215.40	Sunny(Unkown)	True	False	1215.40
2011-03-29 13:00:00 54836 13 1051.20 1051.20 1051.20 1203.4 1191.90	88.1953183992	1051.20	1203.40	Sunny(Unkown)	True	False	1203.40
2011-03-29 14:00:00 54837 14 1021.21 1021.21 1021.21 1116.1 1157.90	88.1953183992	1021.21	1116.10	Sunny(Unkown)	True	False	1116.10
2011-03-29 15:00:00 54838 15 874.63 874.63 874.63 963.9 991.70	88.1953183992	874.63	963.90	Sunny(Unkown)	True	False	963.90
