2011-02-16 10:00:00 9750 10 763.32 763.32 764.62 927.1 1054.10	72.4140984768	764.62	927.10	Partly_Cloudy(fair)	True	False	927.10
2011-02-16 11:00:00 9751 11 825.96 825.96 827.37 1071.4 1140.60	72.4140984768	827.37	1071.40	Partly_Cloudy(fair)	True	False	1071.40
2011-02-16 12:00:00 9752 12 817.70 817.70 819.10 1038.6 1129.20	72.4140984768	819.10	1038.60	Partly_Cloudy(sunny)	True	False	1038.60
2011-02-16 13:00:00 9753 13 748.62 748.62 749.90 952.0 1033.80	72.4140984768	749.90	952.00	Partly_Cloudy(sunny)	True	False	952.00
2011-02-16 14:00:00 9754 14 618.92 618.92 619.98 783.7 854.70	72.5380800567	619.98	783.70	Mostly_Sunny(sunny)	False	False	783.70
2011-02-16 15:00:00 9755 15 452.15 452.15 452.93 521.4 624.40	72.5380800567	452.93	521.40	Mostly_Sunny(sunny)	False	False	521.40
2011-02-16 16:00:00 9756 16 180.32 180.32 200.13 194.8 275.90	65.3587443946	200.13	194.80	Sunny(fair)	True	False	194.80
2011-02-16 17:00:00 9757 17 19.35 19.35 21.47 10.1 29.60	65.3587443946	21.47	10.10	Sunny(fair)	True	False	10.10
2011-02-16 18:00:00 9758 18 0.00 0.00 0.00 0.0 0.00	65.3587443946	0.00	0.00	Clear(mostly_cloudy)	True	False	0.00
2011-02-16 19:00:00 9759 19 0.00 0.00 0.00 0.0 0.00	65.3587443946	0.00	0.00	Clear(mostly_cloudy)	True	False	0.00
2011-02-16 20:00:00 9760 20 0.00 0.00 0.00 0.0 0.00	65.3587443946	0.00	0.00	Clear(cloudy)	True	False	0.00
2011-02-16 21:00:00 9761 21 0.00 0.00 0.00 0.0 0.00	62.6201153107	0.00	0.00	Partly_Cloudy(cloudy)	True	False	0.00
2011-02-16 22:00:00 9762 22 0.00 0.00 0.00 0.0 0.00	62.6201153107	0.00	0.00	Partly_Cloudy(cloudy)	True	False	0.00
2011-02-16 23:00:00 9763 23 0.00 0.00 0.00 0.0 0.00	62.6201153107	0.00	0.00	Partly_Cloudy(cloudy)	True	False	0.00
2011-02-17 00:00:00 9764 0 0.00 0.00 0.00 0.0 0.00	62.6201153107	0.00	0.00	Partly_Cloudy(mostly_cloudy)	True	False	0.00
2011-02-17 01:00:00 9765 1 0.00 0.00 0.00 0.0 0.00	62.6201153107	0.00	0.00	Partly_Cloudy(cloudy)	True	False	0.00
2011-02-17 02:00:00 9766 2 0.00 0.00 0.00 0.0 0.00	62.6201153107	0.00	0.00	Partly_Cloudy(cloudy)	True	False	0.00
2011-02-17 03:00:00 9767 3 0.00 0.00 0.00 0.0 0.00	62.6201153107	0.00	0.00	Partly_Cloudy(partly_cloudy)	True	False	0.00
2011-02-17 04:00:00 9768 4 0.00 0.00 0.00 0.0 0.00	62.6201153107	0.00	0.00	Partly_Cloudy(mostly_cloudy)	True	False	0.00
2011-02-17 05:00:00 9769 5 0.00 0.00 0.00 0.0 0.00	62.6201153107	0.00	0.00	Partly_Cloudy(mostly_cloudy)	True	False	0.00
2011-02-17 06:00:00 9770 6 1.77 1.77 1.77 0.0 9.60	18.4464317026	1.77	0.00	Mostly_Cloudy(cloudy)	True	False	0.00
2011-02-17 07:00:00 9771 7 37.04 37.04 37.04 20.5 200.80	18.4464317026	37.04	20.50	Mostly_Cloudy(cloudy)	True	False	20.50
2011-02-17 08:00:00 9772 8 102.82 102.82 102.82 114.0 557.40	18.4464317026	102.82	114.00	Mostly_Cloudy(cloudy)	True	False	114.00
2011-02-17 09:00:00 9773 9 505.72 505.72 505.72 225.1 807.60	62.6201153107	505.72	225.10	Partly_Cloudy(cloudy)	True	False	225.10
2011-02-17 10:00:00 9774 10 763.32 763.32 763.32 628.5 1054.10	72.4140984768	763.32	628.50	Partly_Cloudy(cloudy)	True	False	628.50
2011-02-17 11:00:00 9775 11 825.96 825.96 825.96 876.3 1140.60	72.4140984768	825.96	876.30	Partly_Cloudy(mostly_cloudy)	True	False	876.30
2011-02-17 12:00:00 9776 12 292.88 292.88 292.88 971.7 1129.20	25.9368181387	292.88	971.70	Mostly_Cloudy(mostly_cloudy)	True	False	971.70
2011-02-17 13:00:00 9777 13 268.13 268.13 268.13 827.2 1033.80	25.9368181387	268.13	827.20	Mostly_Cloudy(fair)	True	False	827.20
2011-02-17 14:00:00 9778 14 221.68 221.68 221.68 599.8 854.70	25.9368181387	221.68	599.80	Mostly_Cloudy(fair)	True	False	599.80
2011-02-17 15:00:00 9779 15 161.95 161.95 161.95 447.7 624.40	25.9368181387	161.95	447.70	Mostly_Cloudy(fair)	True	False	447.70
2011-02-17 16:00:00 9780 16 50.89 50.89 50.89 111.5 275.90	18.4464317026	50.89	111.50	Mostly_Cloudy(fair)	True	False	111.50
2011-02-17 17:00:00 9781 17 5.46 5.46 5.46 5.1 29.60	18.4464317026	5.46	5.10	Mostly_Cloudy(fair)	True	False	5.10
2011-02-17 18:00:00 9782 18 0.00 0.00 0.00 0.0 0.00	18.4464317026	0.00	0.00	Mostly_Cloudy(fair)	True	False	0.00
2011-02-17 19:00:00 9783 19 0.00 0.00 0.00 0.0 0.00	18.4464317026	0.00	0.00	Mostly_Cloudy(fair)	True	False	0.00
2011-02-17 20:00:00 9784 20 0.00 0.00 0.00 0.0 0.00	18.4464317026	0.00	0.00	Mostly_Cloudy(fair)	True	False	0.00
2011-02-17 21:00:00 9785 21 0.00 0.00 0.00 0.0 0.00	23.3279574993	0.00	0.00	Cloudy(fair)	True	False	0.00
2011-02-17 22:00:00 9786 22 0.00 0.00 0.00 0.0 0.00	23.3279574993	0.00	0.00	Cloudy(fair)	True	False	0.00
2011-02-17 23:00:00 9787 23 0.00 0.00 0.00 0.0 0.00	23.3279574993	0.00	0.00	Cloudy(fair)	True	False	0.00
2011-02-18 00:00:00 9788 0 0.00 0.00 0.00 0.0 0.00	23.3279574993	0.00	0.00	Cloudy(fair)	True	False	0.00
2011-02-18 01:00:00 9789 1 0.00 0.00 0.00 0.0 0.00	23.3279574993	0.00	0.00	Cloudy(fair)	True	False	0.00
2011-02-18 02:00:00 9790 2 0.00 0.00 0.00 0.0 0.00	23.3279574993	0.00	0.00	Cloudy(fair)	True	False	0.00
2011-02-18 03:00:00 9791 3 0.00 0.00 0.00 0.0 0.00	23.3279574993	0.00	0.00	Cloudy(fair)	True	False	0.00
2011-02-18 04:00:00 9792 4 0.00 0.00 0.00 0.0 0.00	23.3279574993	0.00	0.00	Cloudy(clear)	True	False	0.00
2011-02-18 05:00:00 9793 5 0.00 0.00 0.00 0.0 0.00	23.3279574993	0.00	0.00	Cloudy(fair)	True	False	0.00
2011-02-18 06:00:00 9794 6 2.24 2.24 2.24 0.0 9.60	23.3279574993	2.24	0.00	Cloudy(fair)	True	False	0.00
2011-02-18 07:00:00 9795 7 46.84 46.84 46.84 72.0 200.80	23.3279574993	46.84	72.00	Cloudy(fair)	True	False	72.00
2011-02-18 08:00:00 9796 8 130.03 130.03 130.03 144.1 557.40	23.3279574993	130.03	144.10	Cloudy(partly_cloudy)	True	False	144.10
2011-02-18 09:00:00 9797 9 148.97 148.97 148.97 100.6 807.60	18.4464317026	148.97	100.60	Mostly_Cloudy(fair)	True	False	100.60
2011-02-18 10:00:00 9798 10 273.40 273.40 273.40 132.3 1054.10	25.9368181387	273.40	132.30	Mostly_Cloudy(fair)	True	False	132.30
