2011-02-11 02:00:00 3576 2 0.00 0.00 0.00 0.0 0.00	71.4836223507	0.00	0.00	Clear(fair)	True	False	0.00
2011-02-11 03:00:00 3577 3 0.00 0.00 0.00 0.0 0.00	71.4836223507	0.00	0.00	Clear(fair)	True	False	0.00
2011-02-11 04:00:00 3578 4 0.00 0.00 0.00 0.0 0.00	71.4836223507	0.00	0.00	Clear(fair)	True	False	0.00
2011-02-11 05:00:00 3579 5 0.00 0.00 0.00 0.0 0.00	71.4836223507	0.00	0.00	Clear(fair)	True	False	0.00
2011-02-11 06:00:00 3580 6 1.86 1.86 1.86 0.1 2.60	71.4836223507	1.86	0.10	Clear(fair)	True	False	0.10
2011-02-11 07:00:00 3581 7 117.30 117.30 117.30 128.4 164.10	71.4836223507	117.30	128.40	Sunny(fair)	True	False	128.40
2011-02-11 08:00:00 3582 8 364.57 364.57 364.57 398.7 510.00	71.4836223507	364.57	398.70	Sunny(fair)	True	False	398.70
2011-02-11 09:00:00 3583 9 577.30 577.30 577.30 765.2 807.60	71.4836223507	577.30	765.20	Mostly_Sunny(fair)	False	False	765.20
2011-02-11 10:00:00 3584 10 715.91 715.91 715.91 956.7 1001.50	71.4836223507	715.91	956.70	Mostly_Sunny(fair)	False	False	956.70
2011-02-11 11:00:00 3585 11 783.96 783.96 783.96 1053.3 1096.70	71.4836223507	783.96	1053.30	Mostly_Sunny(fair)	False	False	1053.30
2011-02-11 12:00:00 3586 12 782.64 782.64 782.64 1067.1 1107.40	70.6735378715	782.64	1067.10	Partly_Cloudy(fair)	True	False	1067.10
2011-02-11 13:00:00 3587 13 709.77 709.77 709.77 959.5 1004.30	70.6735378715	709.77	959.50	Partly_Cloudy(fair)	True	False	959.50
2011-02-11 14:00:00 3588 14 589.70 589.70 589.70 795.3 834.40	70.6735378715	589.70	795.30	Partly_Cloudy(fair)	True	False	795.30
2011-02-11 15:00:00 3589 15 403.48 403.48 403.48 517.4 570.90	70.6735378715	403.48	517.40	Mostly_Sunny(fair)	False	False	517.40
2011-02-11 16:00:00 3590 16 157.81 157.81 157.81 164.9 223.30	70.6735378715	157.81	164.90	Mostly_Sunny(fair)	False	False	164.90
2011-02-11 17:00:00 3591 17 8.13 8.13 8.13 3.9 11.50	70.6735378715	8.13	3.90	Mostly_Sunny(fair)	False	False	3.90
2011-02-11 18:00:00 3592 18 0.00 0.00 0.00 0.0 0.00	49.7722914669	0.00	0.00	Partly_Cloudy(fair)	True	False	0.00
2011-02-11 19:00:00 3593 19 0.00 0.00 0.00 0.0 0.00	49.7722914669	0.00	0.00	Partly_Cloudy(fair)	True	False	0.00
2011-02-11 20:00:00 3594 20 0.00 0.00 0.00 0.0 0.00	49.7722914669	0.00	0.00	Partly_Cloudy(fair)	True	False	0.00
2011-02-11 21:00:00 3595 21 0.00 0.00 0.00 0.0 0.00	49.7722914669	0.00	0.00	Partly_Cloudy(fair)	True	False	0.00
2011-02-11 22:00:00 3596 22 0.00 0.00 0.00 0.0 0.00	49.7722914669	0.00	0.00	Partly_Cloudy(fair)	True	False	0.00
2011-02-11 23:00:00 3597 23 0.00 0.00 0.00 0.0 0.00	49.7722914669	0.00	0.00	Partly_Cloudy(fair)	True	False	0.00
2011-02-12 00:00:00 3598 0 0.00 0.00 0.00 0.0 0.00	49.7722914669	0.00	0.00	Partly_Cloudy(fair)	True	False	0.00
2011-02-12 01:00:00 3599 1 0.00 0.00 0.00 0.0 0.00	49.7722914669	0.00	0.00	Partly_Cloudy(fair)	True	False	0.00
2011-02-12 02:00:00 3600 2 0.00 0.00 0.00 0.0 0.00	49.7722914669	0.00	0.00	Partly_Cloudy(fair)	True	False	0.00
2011-02-12 03:00:00 3601 3 0.00 0.00 0.00 0.0 0.00	49.7722914669	0.00	0.00	Partly_Cloudy(fair)	True	False	0.00
2011-02-12 04:00:00 3602 4 0.00 0.00 0.00 0.0 0.00	49.7722914669	0.00	0.00	Partly_Cloudy(fair)	True	False	0.00
2011-02-12 05:00:00 3603 5 0.00 0.00 0.00 0.0 0.00	49.7722914669	0.00	0.00	Partly_Cloudy(mostly_cloudy)	True	False	0.00
2011-02-12 06:00:00 3604 6 1.29 1.29 1.29 0.0 2.60	49.7722914669	1.29	0.00	Partly_Cloudy(cloudy)	True	False	0.00
2011-02-12 07:00:00 3605 7 81.68 81.68 81.68 34.6 164.10	49.7722914669	81.68	34.60	Partly_Cloudy(cloudy)	True	False	34.60
2011-02-12 08:00:00 3606 8 253.84 253.84 253.84 147.9 510.00	49.7722914669	253.84	147.90	Partly_Cloudy(cloudy)	True	False	147.90
2011-02-12 09:00:00 3607 9 401.96 401.96 401.96 475.0 807.60	49.7722914669	401.96	475.00	Flurries(cloudy)	False	False	475.00
2011-02-12 10:00:00 3608 10 498.47 498.47 498.47 591.8 1001.50	49.7722914669	498.47	591.80	Flurries(mostly_cloudy)	False	False	591.80
2011-02-12 11:00:00 3609 11 545.85 545.85 545.85 626.2 1096.70	49.7722914669	545.85	626.20	Flurries(fair)	False	False	626.20
2011-02-12 12:00:00 3610 12 551.18 551.18 551.18 321.0 1107.40	49.7722914669	551.18	321.00	Flurries(cloudy)	False	False	321.00
2011-02-12 13:00:00 3611 13 499.86 499.86 499.86 583.7 1004.30	49.7722914669	499.86	583.70	Flurries(cloudy)	False	False	583.70
2011-02-12 14:00:00 3612 14 415.30 415.30 415.30 553.8 834.40	49.7722914669	415.30	553.80	Flurries(cloudy)	False	False	553.80
2011-02-12 15:00:00 3613 15 403.48 403.48 403.48 344.9 570.90	70.6735378715	403.48	344.90	Partly_Cloudy(mostly_cloudy)	True	False	344.90
2011-02-12 16:00:00 3614 16 111.14 111.14 111.14 84.1 223.30	49.7722914669	111.14	84.10	Partly_Cloudy(partly_cloudy)	True	False	84.10
2011-02-12 17:00:00 3615 17 5.72 5.72 5.72 7.0 11.50	49.7722914669	5.72	7.00	Partly_Cloudy(mostly_cloudy)	True	False	7.00
2011-02-12 18:00:00 3616 18 0.00 0.00 0.00 0.0 0.00	71.4836223507	0.00	0.00	Clear(fair)	True	False	0.00
2011-02-12 19:00:00 3617 19 0.00 0.00 0.00 0.0 0.00	71.4836223507	0.00	0.00	Clear(fair)	True	False	0.00
2011-02-12 20:00:00 3618 20 0.00 0.00 0.00 0.0 0.00	71.4836223507	0.00	0.00	Clear(fair)	True	False	0.00
2011-02-12 21:00:00 3619 21 0.00 0.00 0.00 0.0 0.00	71.4836223507	0.00	0.00	Clear(fair)	True	False	0.00
2011-02-12 22:00:00 3620 22 0.00 0.00 0.00 0.0 0.00	71.4836223507	0.00	0.00	Clear(fair)	True	False	0.00
2011-02-12 23:00:00 3621 23 0.00 0.00 0.00 0.0 0.00	71.4836223507	0.00	0.00	Clear(fair)	True	False	0.00
2011-02-13 00:00:00 3622 0 0.00 0.00 0.00 0.0 0.00	71.4836223507	0.00	0.00	Clear(fair)	True	False	0.00
2011-02-13 01:00:00 3623 1 0.00 0.00 0.00 0.0 0.00	71.4836223507	0.00	0.00	Clear(fair)	True	False	0.00
