2011-02-25 14:00:00 20318 14 848.33 848.33 87.30 184.5 891.40	9.79385926764	87.30	184.50	Showers(fair)	True	False	184.50
2011-02-25 15:00:00 20319 15 132.92 132.92 162.96 52.0 642.20	25.3760055964	162.96	52.00	Cloudy/Wind(mostly_cloudy)	True	False	52.00
2011-02-25 16:00:00 20320 16 68.25 62.51 68.25 84.5 302.00	22.6003572436	68.25	84.50	Cloudy/Wind(cloudy)	True	False	84.50
2011-02-25 17:00:00 20321 17 7.82 7.16 7.82 3.7 34.60	22.6003572436	7.82	3.70	Cloudy/Wind(cloudy_and_windy)	True	False	3.70
2011-02-25 18:00:00 20322 18 0.00 0.00 0.00 0.0 0.00	22.7170742652	0.00	0.00	Mostly_Cloudy/Wind(cloudy)	True	False	0.00
2011-02-25 19:00:00 20323 19 0.00 0.00 0.00 0.0 0.00	22.7170742652	0.00	0.00	Mostly_Cloudy/Wind(cloudy)	True	False	0.00
2011-02-25 20:00:00 20324 20 0.00 0.00 0.00 0.0 0.00	22.7170742652	0.00	0.00	Mostly_Cloudy_/_Wind(mostly_cloudy)	True	False	0.00
2011-02-25 21:00:00 20325 21 0.00 0.00 0.00 0.0 0.00	22.7170742652	0.00	0.00	Mostly_Clear(cloudy_and_windy)	False	False	0.00
2011-02-25 22:00:00 20326 22 0.00 0.00 0.00 0.0 0.00	22.7170742652	0.00	0.00	Mostly_Clear(mostly_cloudy)	False	False	0.00
2011-02-25 23:00:00 20327 23 0.00 0.00 0.00 0.0 0.00	22.7170742652	0.00	0.00	Mostly_Clear(fair)	False	False	0.00
2011-02-26 00:00:00 20328 0 0.00 0.00 0.00 0.0 0.00	90.0641552887	0.00	0.00	Clear(fair)	True	False	0.00
2011-02-26 01:00:00 20329 1 0.00 0.00 0.00 0.0 0.00	90.0641552887	0.00	0.00	Clear(fair)	True	False	0.00
2011-02-26 02:00:00 20330 2 0.00 0.00 0.00 0.0 0.00	90.0641552887	0.00	0.00	Clear(fair)	True	False	0.00
2011-02-26 03:00:00 20331 3 0.00 0.00 0.00 0.0 0.00	69.0440984605	0.00	0.00	Partly_Cloudy(fair)	True	False	0.00
2011-02-26 04:00:00 20332 4 0.00 0.00 0.00 0.0 0.00	69.0440984605	0.00	0.00	Partly_Cloudy(fair)	True	False	0.00
2011-02-26 05:00:00 20333 5 0.00 0.00 0.00 0.0 0.00	69.0440984605	0.00	0.00	Partly_Cloudy(fair)	True	False	0.00
2011-02-26 06:00:00 20334 6 18.85 18.85 18.85 0.5 27.30	69.0440984605	18.85	0.50	Partly_Cloudy(fair)	True	False	0.50
2011-02-26 07:00:00 20335 7 167.22 167.22 167.22 59.4 242.20	69.0440984605	167.22	59.40	Partly_Cloudy(fair)	True	False	59.40
2011-02-26 08:00:00 20336 8 419.72 419.72 419.72 228.5 607.90	69.0440984605	419.72	228.50	Partly_Cloudy(fair)	True	False	228.50
2011-02-26 09:00:00 20337 9 201.41 201.41 201.41 504.3 886.60	22.7170742652	201.41	504.30	Mostly_Cloudy(sunny)	True	False	504.30
2011-02-26 10:00:00 20338 10 360.02 360.02 360.02 590.8 1063.70	33.8456360781	360.02	590.80	Mostly_Cloudy(fair)	True	False	590.80
2011-02-26 11:00:00 20339 11 389.12 389.12 389.12 1039.4 1149.70	33.8456360781	389.12	1039.40	Mostly_Cloudy(fair)	True	False	1039.40
2011-02-26 12:00:00 20340 12 387.06 387.06 387.06 1086.2 1143.60	33.8456360781	387.06	1086.20	Mostly_Cloudy(fair)	True	False	1086.20
2011-02-26 13:00:00 20341 13 351.25 351.25 351.25 968.1 1037.80	33.8456360781	351.25	968.10	Mostly_Cloudy(fair)	True	False	968.10
2011-02-26 14:00:00 20342 14 301.70 301.70 301.70 854.5 891.40	33.8456360781	301.70	854.50	Mostly_Cloudy(cloudy)	True	False	854.50
2011-02-26 15:00:00 20343 15 217.36 217.36 217.36 502.1 642.20	33.8456360781	217.36	502.10	Mostly_Cloudy(fair)	True	False	502.10
2011-02-26 16:00:00 20344 16 68.61 68.61 68.61 123.9 302.00	22.7170742652	68.61	123.90	Mostly_Cloudy(fair)	True	False	123.90
2011-02-26 17:00:00 20345 17 7.86 7.86 7.86 18.3 34.60	22.7170742652	7.86	18.30	Mostly_Cloudy(fair)	True	False	18.30
2011-02-26 18:00:00 20346 18 0.00 0.00 0.00 0.0 0.00	22.6003572436	0.00	0.00	Cloudy(partly_cloudy)	True	False	0.00
2011-02-26 19:00:00 20347 19 0.00 0.00 0.00 0.0 0.00	22.6003572436	0.00	0.00	Cloudy(mostly_cloudy)	True	False	0.00
2011-02-26 20:00:00 20348 20 0.00 0.00 0.00 0.0 0.00	22.6003572436	0.00	0.00	Cloudy(cloudy)	True	False	0.00
2011-02-26 21:00:00 20349 21 0.00 0.00 0.00 0.0 0.00	0.774063271259	0.00	0.00	Few_Snow_Showers(fair)	True	False	0.00
2011-02-26 22:00:00 20350 22 0.00 0.00 0.00 0.0 0.00	0.774063271259	0.00	0.00	Few_Snow_Showers(mostly_cloudy)	True	False	0.00
2011-02-26 23:00:00 20351 23 0.00 0.00 0.00 0.0 0.00	0.774063271259	0.00	0.00	Few_Snow_Showers(cloudy)	True	False	0.00
2011-02-27 00:00:00 20352 0 0.00 0.00 0.00 0.0 0.00	0.365312690267	0.00	0.00	Snow_Shower(cloudy)	True	False	0.00
2011-02-27 01:00:00 20353 1 0.00 0.00 0.00 0.0 0.00	0.365312690267	0.00	0.00	Snow_Shower(cloudy)	True	False	0.00
2011-02-27 02:00:00 20354 2 0.00 0.00 0.00 0.0 0.00	0.365312690267	0.00	0.00	Snow_Shower(cloudy)	True	False	0.00
2011-02-27 03:00:00 20355 3 0.00 0.00 0.00 0.0 0.00	0.774063271259	0.00	0.00	Light_Snow(cloudy)	True	False	0.00
2011-02-27 04:00:00 20356 4 0.00 0.00 0.00 0.0 0.00	0.774063271259	0.00	0.00	Light_Snow(cloudy)	True	False	0.00
2011-02-27 05:00:00 20357 5 0.00 0.00 0.00 0.0 0.00	0.774063271259	0.00	0.00	Light_Snow(cloudy)	True	False	0.00
2011-02-27 06:00:00 20358 6 0.21 0.21 0.21 2.5 27.30	0.774063271259	0.21	2.50	Few_Snow_Showers(cloudy)	True	False	2.50
2011-02-27 07:00:00 20359 7 1.87 1.87 1.87 133.8 242.20	0.774063271259	1.87	133.80	Few_Snow_Showers(fair)	True	False	133.80
2011-02-27 08:00:00 20360 8 4.71 4.71 4.71 486.6 607.90	0.774063271259	4.71	486.60	Few_Snow_Showers(fair)	True	False	486.60
2011-02-27 09:00:00 20361 9 84.56 84.56 84.56 780.1 886.60	9.53757225434	84.56	780.10	Showers(fair)	True	False	780.10
2011-02-27 10:00:00 20362 10 104.18 104.18 104.18 973.8 1063.70	9.79385926764	104.18	973.80	Showers(fair)	True	False	973.80
2011-02-27 11:00:00 20363 11 112.60 112.60 112.60 968.6 1149.70	9.79385926764	112.60	968.60	Showers(cloudy)	True	False	968.60
2011-02-27 12:00:00 20364 12 74.72 74.72 74.72 962.1 1143.60	6.53379712325	74.72	962.10	Few_Showers(cloudy)	True	False	962.10
2011-02-27 13:00:00 20365 13 67.81 67.81 67.81 1005.1 1037.80	6.53379712325	67.81	1005.10	Few_Showers(cloudy)	True	False	1005.10
