2011-03-05 06:00:00 29036 6 4.59 4.59 4.59 0.0 27.30	16.8028511822	4.59	0.00	Cloudy(cloudy)	True	False	0.00
2011-03-05 07:00:00 29037 7 40.70 40.70 40.70 31.0 242.20	16.8028511822	40.70	31.00	Cloudy(cloudy)	True	False	31.00
2011-03-05 08:00:00 29038 8 102.14 102.14 102.14 253.4 607.90	16.8028511822	102.14	253.40	Cloudy(cloudy)	True	False	253.40
2011-03-05 09:00:00 29039 9 148.97 148.97 148.97 747.8 886.60	16.8028511822	148.97	747.80	Cloudy(cloudy)	True	False	747.80
2011-03-05 10:00:00 29040 10 199.29 199.29 199.29 974.6 1063.70	18.7355943365	199.29	974.60	Cloudy(mostly_cloudy)	True	False	974.60
2011-03-05 11:00:00 29041 11 215.40 215.40 215.40 880.7 1149.70	18.7355943365	215.40	880.70	Cloudy(partly_cloudy)	True	False	880.70
2011-03-05 12:00:00 29042 12 215.53 215.53 215.53 529.8 1150.40	18.7355943365	215.53	529.80	Cloudy(cloudy)	True	False	529.80
2011-03-05 13:00:00 29043 13 215.87 215.87 215.87 493.3 1152.20	18.7355943365	215.87	493.30	Cloudy(cloudy)	True	False	493.30
2011-03-05 14:00:00 29044 14 199.25 199.25 199.25 269.5 1063.50	18.7355943365	199.25	269.50	Cloudy(mostly_cloudy)	True	False	269.50
2011-03-05 15:00:00 29045 15 170.70 170.70 170.70 267.4 911.10	18.7355943365	170.70	267.40	Cloudy(cloudy)	True	False	267.40
2011-03-05 16:00:00 29046 16 111.47 111.47 111.47 73.6 663.40	16.8028511822	111.47	73.60	Cloudy(cloudy)	True	False	73.60
2011-03-05 17:00:00 29047 17 55.28 55.28 55.28 4.0 329.00	16.8028511822	55.28	4.00	Cloudy(cloudy)	True	False	4.00
2011-03-05 18:00:00 29048 18 8.77 8.77 8.77 0.0 52.20	16.8028511822	8.77	0.00	Cloudy(cloudy)	True	False	0.00
2011-03-05 19:00:00 29049 19 0.02 0.02 0.02 0.0 0.10	16.8028511822	0.02	0.00	Cloudy(cloudy)	True	False	0.00
2011-03-05 20:00:00 29050 20 0.00 0.00 0.00 0.0 0.00	16.8028511822	0.00	0.00	Cloudy(mostly_cloudy)	True	False	0.00
2011-03-05 21:00:00 29051 21 0.00 0.00 0.00 0.0 0.00	16.8028511822	0.00	0.00	Cloudy(mostly_cloudy)	True	False	0.00
2011-03-05 22:00:00 29052 22 0.00 0.00 0.00 0.0 0.00	16.8028511822	0.00	0.00	Cloudy(cloudy)	True	False	0.00
2011-03-05 23:00:00 29053 23 0.00 0.00 0.00 0.0 0.00	16.8028511822	0.00	0.00	Cloudy(cloudy)	True	False	0.00
2011-03-06 00:00:00 29054 0 0.00 0.00 0.00 0.0 0.00	16.8028511822	0.00	0.00	Cloudy(cloudy)	True	False	0.00
2011-03-06 01:00:00 29055 1 0.00 0.00 0.00 0.0 0.00	16.8028511822	0.00	0.00	Cloudy(partly_cloudy)	True	False	0.00
2011-03-06 02:00:00 29056 2 0.00 0.00 0.00 0.0 0.00	16.8028511822	0.00	0.00	Cloudy(cloudy)	True	False	0.00
2011-03-06 03:00:00 29057 3 0.00 0.00 0.00 0.0 0.00	16.8028511822	0.00	0.00	Cloudy(cloudy)	True	False	0.00
2011-03-06 04:00:00 29058 4 0.00 0.00 0.00 0.0 0.00	16.8028511822	0.00	0.00	Cloudy(partly_cloudy)	True	False	0.00
2011-03-06 05:00:00 29059 5 0.00 0.00 0.00 0.0 0.00	16.8028511822	0.00	0.00	Cloudy(cloudy)	True	False	0.00
2011-03-06 06:00:00 29060 6 1.23 1.23 1.23 0.0 27.30	4.52377035697	1.23	0.00	Showers(cloudy)	True	False	0.00
2011-03-06 07:00:00 29061 7 10.96 10.96 10.96 35.9 242.20	4.52377035697	10.96	35.90	Showers(cloudy)	True	False	35.90
2011-03-06 08:00:00 29062 8 27.50 27.50 27.50 70.3 607.90	4.52377035697	27.50	70.30	Showers(light_rain)	True	False	70.30
2011-03-06 09:00:00 29063 9 49.50 49.50 49.50 109.3 886.60	5.58312655087	49.50	109.30	Light_Rain(rain)	True	False	109.30
2011-03-06 10:00:00 29064 10 54.47 54.47 54.47 90.4 1063.70	5.12063877799	54.47	90.40	Light_Rain(rain)	True	False	90.40
2011-03-06 11:00:00 29065 11 58.87 58.87 58.87 85.1 1149.70	5.12063877799	58.87	85.10	Light_Rain(light_rain)	True	False	85.10
2011-03-06 12:00:00 29066 12 98.00 98.00 98.00 184.0 1150.40	8.51877607789	98.00	184.00	Rain(light_rain)	True	False	184.00
2011-03-06 13:00:00 29067 13 98.15 98.15 98.15 163.5 1152.20	8.51877607789	98.15	163.50	Rain(light_rain)	True	False	163.50
2011-03-06 14:00:00 29068 14 90.60 90.60 90.60 97.1 1063.50	8.51877607789	90.60	97.10	Rain(cloudy)	True	False	97.10
2011-03-06 15:00:00 29069 15 77.61 77.61 77.61 57.2 911.10	8.51877607789	77.61	57.20	Rain(light_rain)	True	False	57.20
2011-03-06 16:00:00 29070 16 30.01 30.01 30.01 3.6 663.40	4.52377035697	30.01	3.60	Rain(rain)	True	False	3.60
2011-03-06 17:00:00 29071 17 14.88 14.88 14.88 0.0 329.00	4.52377035697	14.88	0.00	Rain(heavy_rain)	True	False	0.00
2011-03-06 18:00:00 29072 18 2.36 2.36 2.36 0.0 52.20	4.52377035697	2.36	0.00	Rain(rain)	True	False	0.00
2011-03-06 19:00:00 29073 19 0.00 0.00 0.00 0.0 0.10	4.52377035697	0.00	0.00	Rain(rain)	True	False	0.00
2011-03-06 20:00:00 29074 20 0.00 0.00 0.00 0.0 0.00	4.52377035697	0.00	0.00	Rain(rain)	True	False	0.00
2011-03-06 21:00:00 29075 21 0.00 0.00 0.00 0.0 0.00	4.52377035697	0.00	0.00	Rain(light_rain)	True	False	0.00
2011-03-06 22:00:00 29076 22 0.00 0.00 0.00 0.0 0.00	4.52377035697	0.00	0.00	Rain(light_rain)	True	False	0.00
2011-03-06 23:00:00 29077 23 0.00 0.00 0.00 0.0 0.00	4.52377035697	0.00	0.00	Rain(light_rain)	True	False	0.00
2011-03-07 00:00:00 29078 0 0.00 0.00 0.00 0.0 0.00	4.52377035697	0.00	0.00	Rain(light_rain)	True	False	0.00
2011-03-07 01:00:00 29079 1 0.00 0.00 0.00 0.0 0.00	4.52377035697	0.00	0.00	Rain(light_rain)	True	False	0.00
2011-03-07 02:00:00 29080 2 0.00 0.00 0.00 0.0 0.00	4.52377035697	0.00	0.00	Rain(light_rain)	True	False	0.00
2011-03-07 03:00:00 29081 3 0.00 0.00 0.00 0.0 0.00	26.4076391176	0.00	0.00	Mostly_Cloudy(light_rain)	True	False	0.00
2011-03-07 04:00:00 29082 4 0.00 0.00 0.00 0.0 0.00	26.4076391176	0.00	0.00	Mostly_Cloudy(cloudy)	True	False	0.00
2011-03-07 05:00:00 29083 5 0.00 0.00 0.00 0.0 0.00	26.4076391176	0.00	0.00	Mostly_Cloudy(cloudy)	True	False	0.00
2011-03-07 06:00:00 29084 6 7.21 7.21 7.21 1.8 27.30	26.4076391176	7.21	1.80	Mostly_Cloudy(cloudy)	True	False	1.80
