2011-02-15 12:00:00 8697 12 929.52 929.52 929.52 1130.7 1129.20	82.3166682478	929.52	1130.70	Sunny(fair)	True	False	1130.70
2011-02-15 13:00:00 8698 13 850.99 850.99 850.99 1023.7 1033.80	82.3166682478	850.99	1023.70	Sunny(fair)	True	False	1023.70
2011-02-15 14:00:00 8699 14 703.56 703.56 703.56 856.0 854.70	82.3166682478	703.56	856.00	Sunny(fair)	True	False	856.00
2011-02-15 15:00:00 8700 15 513.99 513.99 513.99 574.8 624.40	82.3166682478	513.99	574.80	Sunny(fair)	True	False	574.80
2011-02-15 16:00:00 8701 16 182.20 182.20 227.11 204.7 275.90	66.0387513455	227.11	204.70	Sunny(fair)	True	False	204.70
2011-02-15 17:00:00 8702 17 19.55 19.55 24.37 5.6 29.60	66.0387513455	24.37	5.60	Sunny(fair)	True	False	5.60
2011-02-15 18:00:00 8703 18 0.00 0.00 0.00 0.0 0.00	66.0387513455	0.00	0.00	Clear(fair)	True	False	0.00
2011-02-15 19:00:00 8704 19 0.00 0.00 0.00 0.0 0.00	66.0387513455	0.00	0.00	Clear(fair)	True	False	0.00
2011-02-15 20:00:00 8705 20 0.00 0.00 0.00 0.0 0.00	66.0387513455	0.00	0.00	Clear(fair)	True	False	0.00
2011-02-15 21:00:00 8706 21 0.00 0.00 0.00 0.0 0.00	66.0387513455	0.00	0.00	Clear(fair)	True	False	0.00
2011-02-15 22:00:00 8707 22 0.00 0.00 0.00 0.0 0.00	66.0387513455	0.00	0.00	Clear(fair)	True	False	0.00
2011-02-15 23:00:00 8708 23 0.00 0.00 0.00 0.0 0.00	66.0387513455	0.00	0.00	Clear(fair)	True	False	0.00
2011-02-16 00:00:00 8709 0 0.00 0.00 0.00 0.0 0.00	66.0387513455	0.00	0.00	Clear(fair)	True	False	0.00
2011-02-16 01:00:00 8710 1 0.00 0.00 0.00 0.0 0.00	66.0387513455	0.00	0.00	Clear(fair)	True	False	0.00
2011-02-16 02:00:00 8711 2 0.00 0.00 0.00 0.0 0.00	66.0387513455	0.00	0.00	Clear(fair)	True	False	0.00
2011-02-16 03:00:00 8712 3 0.00 0.00 0.00 0.0 0.00	58.3279948751	0.00	0.00	Partly_Cloudy(fair)	True	False	0.00
2011-02-16 04:00:00 8713 4 0.00 0.00 0.00 0.0 0.00	58.3279948751	0.00	0.00	Partly_Cloudy(fair)	True	False	0.00
2011-02-16 05:00:00 8714 5 0.00 0.00 0.00 0.0 0.00	58.3279948751	0.00	0.00	Partly_Cloudy(fair)	True	False	0.00
2011-02-16 06:00:00 8715 6 1.63 1.63 1.63 0.0 2.80	58.3279948751	1.63	0.00	Partly_Cloudy(fair)	True	False	0.00
2011-02-16 07:00:00 8716 7 114.21 114.21 114.21 48.4 195.80	58.3279948751	114.21	48.40	Partly_Cloudy(fair)	True	False	48.40
2011-02-16 08:00:00 8717 8 325.12 325.12 325.12 297.8 557.40	58.3279948751	325.12	297.80	Partly_Cloudy(fair)	True	False	297.80
2011-02-16 09:00:00 8718 9 471.06 471.06 471.06 643.9 807.60	58.3279948751	471.06	643.90	Partly_Cloudy(fair)	True	False	643.90
2011-02-16 10:00:00 8719 10 763.32 763.32 763.32 927.1 1054.10	72.4140984768	763.32	927.10	Partly_Cloudy(fair)	True	False	927.10
2011-02-16 11:00:00 8720 11 825.96 825.96 825.96 1071.4 1140.60	72.4140984768	825.96	1071.40	Partly_Cloudy(fair)	True	False	1071.40
2011-02-16 12:00:00 8721 12 817.70 817.70 817.70 1038.6 1129.20	72.4140984768	817.70	1038.60	Mostly_Sunny(sunny)	False	False	1038.60
2011-02-16 13:00:00 8722 13 748.62 748.62 748.62 952.0 1033.80	72.4140984768	748.62	952.00	Mostly_Sunny(sunny)	False	False	952.00
2011-02-16 14:00:00 8723 14 618.92 618.92 618.92 783.7 854.70	72.4140984768	618.92	783.70	Mostly_Sunny(sunny)	False	False	783.70
2011-02-16 15:00:00 8724 15 513.99 513.99 513.99 521.4 624.40	82.3166682478	513.99	521.40	Sunny(sunny)	True	False	521.40
2011-02-16 16:00:00 8725 16 182.20 182.20 182.20 194.8 275.90	66.0387513455	182.20	194.80	Sunny(fair)	True	False	194.80
2011-02-16 17:00:00 8726 17 19.55 19.55 19.55 10.1 29.60	66.0387513455	19.55	10.10	Sunny(fair)	True	False	10.10
2011-02-16 18:00:00 8727 18 0.00 0.00 0.00 0.0 0.00	66.0387513455	0.00	0.00	Mostly_Clear(mostly_cloudy)	False	False	0.00
2011-02-16 19:00:00 8728 19 0.00 0.00 0.00 0.0 0.00	66.0387513455	0.00	0.00	Mostly_Clear(mostly_cloudy)	False	False	0.00
2011-02-16 20:00:00 8729 20 0.00 0.00 0.00 0.0 0.00	66.0387513455	0.00	0.00	Mostly_Clear(cloudy)	False	False	0.00
2011-02-16 21:00:00 8730 21 0.00 0.00 0.00 0.0 0.00	66.0387513455	0.00	0.00	Clear(cloudy)	True	False	0.00
2011-02-16 22:00:00 8731 22 0.00 0.00 0.00 0.0 0.00	66.0387513455	0.00	0.00	Clear(cloudy)	True	False	0.00
2011-02-16 23:00:00 8732 23 0.00 0.00 0.00 0.0 0.00	66.0387513455	0.00	0.00	Clear(cloudy)	True	False	0.00
2011-02-17 00:00:00 8733 0 0.00 0.00 0.00 0.0 0.00	58.3279948751	0.00	0.00	Partly_Cloudy(mostly_cloudy)	True	False	0.00
2011-02-17 01:00:00 8734 1 0.00 0.00 0.00 0.0 0.00	58.3279948751	0.00	0.00	Partly_Cloudy(cloudy)	True	False	0.00
2011-02-17 02:00:00 8735 2 0.00 0.00 0.00 0.0 0.00	58.3279948751	0.00	0.00	Partly_Cloudy(cloudy)	True	False	0.00
2011-02-17 03:00:00 8736 3 0.00 0.00 0.00 0.0 0.00	18.4464317026	0.00	0.00	Mostly_Cloudy(partly_cloudy)	True	False	0.00
2011-02-17 04:00:00 8737 4 0.00 0.00 0.00 0.0 0.00	18.4464317026	0.00	0.00	Mostly_Cloudy(mostly_cloudy)	True	False	0.00
2011-02-17 05:00:00 8738 5 0.00 0.00 0.00 0.0 0.00	18.4464317026	0.00	0.00	Mostly_Cloudy(mostly_cloudy)	True	False	0.00
2011-02-17 06:00:00 8739 6 0.52 0.52 0.52 0.0 2.80	18.4464317026	0.52	0.00	Mostly_Cloudy(cloudy)	True	False	0.00
2011-02-17 07:00:00 8740 7 36.12 36.12 36.12 20.5 195.80	18.4464317026	36.12	20.50	Mostly_Cloudy(cloudy)	True	False	20.50
2011-02-17 08:00:00 8741 8 102.82 102.82 102.82 114.0 557.40	18.4464317026	102.82	114.00	Mostly_Cloudy(cloudy)	True	False	114.00
2011-02-17 09:00:00 8742 9 148.97 148.97 148.97 225.1 807.60	18.4464317026	148.97	225.10	Mostly_Cloudy(cloudy)	True	False	225.10
2011-02-17 10:00:00 8743 10 273.40 273.40 273.40 628.5 1054.10	25.9368181387	273.40	628.50	Mostly_Cloudy(cloudy)	True	False	628.50
2011-02-17 11:00:00 8744 11 295.84 295.84 295.84 876.3 1140.60	25.9368181387	295.84	876.30	Mostly_Cloudy(mostly_cloudy)	True	False	876.30
2011-02-17 12:00:00 8745 12 292.88 292.88 292.88 971.7 1129.20	25.9368181387	292.88	971.70	Mostly_Cloudy(mostly_cloudy)	True	False	971.70
