2011-03-09 20:00:00 34345 20 0.00 0.00 0.00 0.0 0.00	14.0319131436	0.00	0.00	Cloudy(cloudy)	True	False	0.00
2011-03-09 21:00:00 34346 21 0.00 0.00 0.00 0.0 0.00	6.59574468085	0.00	0.00	Few_Showers(cloudy)	True	False	0.00
2011-03-09 22:00:00 34347 22 0.00 0.00 0.00 0.0 0.00	6.59574468085	0.00	0.00	Few_Showers(cloudy)	True	False	0.00
2011-03-09 23:00:00 34348 23 0.00 0.00 0.00 0.0 0.00	14.0319131436	0.00	0.00	Cloudy(cloudy)	True	False	0.00
2011-03-10 00:00:00 34349 0 0.00 0.00 0.00 0.0 0.00	14.0319131436	0.00	0.00	Cloudy(cloudy)	True	False	0.00
2011-03-10 01:00:00 34350 1 0.00 0.00 0.00 0.0 0.00	14.0319131436	0.00	0.00	Cloudy(cloudy)	True	False	0.00
2011-03-10 02:00:00 34351 2 0.00 0.00 0.00 0.0 0.00	4.48905932777	0.00	0.00	Showers(light_rain)	True	False	0.00
2011-03-10 03:00:00 34352 3 0.00 0.00 0.00 0.0 0.00	4.48905932777	0.00	0.00	Showers(light_rain)	True	False	0.00
2011-03-10 04:00:00 34353 4 0.00 0.00 0.00 0.0 0.00	4.48905932777	0.00	0.00	Showers(cloudy)	True	False	0.00
2011-03-10 05:00:00 34354 5 0.00 0.00 0.00 0.0 0.00	4.48905932777	0.00	0.00	Showers(light_rain)	True	False	0.00
2011-03-10 06:00:00 34355 6 1.23 1.23 1.23 0.0 27.30	4.48905932777	1.23	0.00	Rain(light_rain)	True	False	0.00
2011-03-10 07:00:00 34356 7 10.87 10.87 10.87 9.9 242.20	4.48905932777	10.87	9.90	Rain(light_rain)	True	False	9.90
2011-03-10 08:00:00 34357 8 27.29 27.29 27.29 106.2 607.90	4.48905932777	27.29	106.20	Rain(light_rain)	True	False	106.20
2011-03-10 09:00:00 34358 9 39.80 39.80 39.80 176.4 886.60	4.48905932777	39.80	176.40	Rain(cloudy)	True	False	176.40
2011-03-10 10:00:00 34359 10 90.61 90.61 90.61 101.9 1063.70	8.51877607789	90.61	101.90	Rain(cloudy)	True	False	101.90
2011-03-10 11:00:00 34360 11 97.94 97.94 97.94 52.7 1149.70	8.51877607789	97.94	52.70	Rain(light_rain)	True	False	52.70
2011-03-10 12:00:00 34361 12 0.00 0.00 0.00 64.4 1150.40	0.0	0.00	64.40	Heavy_Rain(rain)	True	False	64.40
2011-03-10 13:00:00 34362 13 0.00 0.00 0.00 97.3 1152.20	0.0	0.00	97.30	Heavy_Rain(rain)	True	False	97.30
2011-03-10 14:00:00 34363 14 0.00 0.00 0.00 50.0 1063.50	0.0	0.00	50.00	Heavy_Rain(light_rain)	True	False	50.00
2011-03-10 15:00:00 34364 15 0.00 0.00 0.00 38.3 911.10	0.0	0.00	38.30	Heavy_Rain_/_Wind(light_rain)	True	False	38.30
2011-03-10 16:00:00 34365 16 0.00 0.00 0.00 7.9 663.40	0.0	0.00	7.90	Heavy_Rain_/_Wind(light_rain)	True	False	7.90
2011-03-10 17:00:00 34366 17 0.00 0.00 0.00 0.0 329.00	0.0	0.00	0.00	Heavy_Rain_/_Wind(light_rain)	True	False	0.00
2011-03-10 18:00:00 34367 18 2.42 2.42 2.42 0.0 53.80	4.48905932777	2.42	0.00	Rain(rain)	True	False	0.00
2011-03-10 19:00:00 34368 19 0.00 0.00 0.00 0.0 0.10	4.48905932777	0.00	0.00	Rain(light_rain)	True	False	0.00
2011-03-10 20:00:00 34369 20 0.00 0.00 0.00 0.0 0.00	4.48905932777	0.00	0.00	Rain(rain)	True	False	0.00
2011-03-10 21:00:00 34370 21 0.00 0.00 0.00 0.0 0.00	4.48905932777	0.00	0.00	Rain_/_Wind(light_rain)	True	False	0.00
2011-03-10 22:00:00 34371 22 0.00 0.00 0.00 0.0 0.00	4.48905932777	0.00	0.00	Rain_/_Wind(cloudy)	True	False	0.00
2011-03-10 23:00:00 34372 23 0.00 0.00 0.00 0.0 0.00	4.48905932777	0.00	0.00	Rain_/_Wind(rain)	True	False	0.00
2011-03-11 00:00:00 34373 0 0.00 0.00 0.00 0.0 0.00	4.48905932777	0.00	0.00	Rain_/_Thunder_/_Wind(rain)	True	False	0.00
2011-03-11 01:00:00 34374 1 0.00 0.00 0.00 0.0 0.00	4.48905932777	0.00	0.00	Rain_/_Thunder_/_Wind(rain)	True	False	0.00
2011-03-11 02:00:00 34375 2 0.00 0.00 0.00 0.0 0.00	4.48905932777	0.00	0.00	Rain_/_Thunder_/_Wind(light_rain)	True	False	0.00
2011-03-11 03:00:00 34376 3 0.00 0.00 0.00 0.0 0.00	4.48905932777	0.00	0.00	Rain(light_rain)	True	False	0.00
2011-03-11 04:00:00 34377 4 0.00 0.00 0.00 0.0 0.00	4.48905932777	0.00	0.00	Rain(light_rain)	True	False	0.00
2011-03-11 05:00:00 34378 5 0.00 0.00 0.00 0.0 0.00	4.48905932777	0.00	0.00	Rain(mostly_cloudy)	True	False	0.00
2011-03-11 06:00:00 34379 6 1.80 1.80 1.80 0.0 27.30	6.59574468085	1.80	0.00	Few_Showers(cloudy)	True	False	0.00
2011-03-11 07:00:00 34380 7 15.97 15.97 15.97 36.9 242.20	6.59574468085	15.97	36.90	Few_Showers(light_rain)	True	False	36.90
2011-03-11 08:00:00 34381 8 40.10 40.10 40.10 142.0 607.90	6.59574468085	40.10	142.00	Few_Showers(cloudy)	True	False	142.00
2011-03-11 09:00:00 34382 9 124.41 124.41 124.41 589.4 886.60	14.0319131436	124.41	589.40	Cloudy(cloudy)	True	False	589.40
2011-03-11 10:00:00 34383 10 178.75 178.75 178.75 360.2 1063.70	16.8043837523	178.75	360.20	Cloudy(cloudy)	True	False	360.20
2011-03-11 11:00:00 34384 11 193.20 193.20 193.20 675.4 1149.70	16.8043837523	193.20	675.40	Cloudy(cloudy)	True	False	675.40
2011-03-11 12:00:00 34385 12 590.38 590.38 590.38 558.7 1150.40	51.319215414	590.38	558.70	Mostly_Cloudy(cloudy)	True	False	558.70
2011-03-11 13:00:00 34386 13 591.30 591.30 591.30 735.1 1152.20	51.319215414	591.30	735.10	Mostly_Cloudy(mostly_cloudy)	True	False	735.10
2011-03-11 14:00:00 34387 14 545.78 545.78 545.78 791.6 1063.50	51.319215414	545.78	791.60	Mostly_Cloudy(fair)	True	False	791.60
2011-03-11 15:00:00 34388 15 467.57 467.57 467.57 408.3 911.10	51.319215414	467.57	408.30	Mostly_Cloudy(sunny)	True	False	408.30
2011-03-11 16:00:00 34389 16 128.74 128.74 128.74 94.2 663.40	19.4054500413	128.74	94.20	Mostly_Cloudy(cloudy)	True	False	94.20
2011-03-11 17:00:00 34390 17 63.84 63.84 63.84 16.0 329.00	19.4054500413	63.84	16.00	Mostly_Cloudy(cloudy)	True	False	16.00
2011-03-11 18:00:00 34391 18 10.44 10.44 10.44 0.0 53.80	19.4054500413	10.44	0.00	Mostly_Cloudy(cloudy)	True	False	0.00
