2011-03-19 08:00:00 45197 8 411.60 411.60 411.60 313.9 607.90	67.7087831419	411.60	313.90	Partly_Cloudy(sunny)	True	False	313.90
2011-03-19 09:00:00 45198 9 600.31 600.31 600.31 664.8 886.60	67.7087831419	600.31	664.80	Partly_Cloudy(sunny)	True	False	664.80
2011-03-19 10:00:00 45199 10 945.45 945.45 945.45 924.7 1063.70	88.8831923438	945.45	924.70	Sunny(fair)	True	False	924.70
2011-03-19 11:00:00 45200 11 1021.89 1021.89 1021.89 1080.9 1149.70	88.8831923438	1021.89	1080.90	Sunny(sunny)	True	False	1080.90
2011-03-19 12:00:00 45201 12 1054.24 1054.24 1054.24 1141.6 1186.10	88.8831923438	1054.24	1141.60	Sunny(partly_cloudy)	True	False	1141.60
2011-03-19 13:00:00 45202 13 1040.20 1040.20 1040.20 1126.5 1170.30	88.8831923438	1040.20	1126.50	Sunny(partly_cloudy)	True	False	1126.50
2011-03-19 14:00:00 45203 14 1029.18 1029.18 1029.18 1076.6 1157.90	88.8831923438	1029.18	1076.60	Sunny(fair)	True	False	1076.60
2011-03-19 15:00:00 45204 15 881.45 881.45 881.45 928.9 991.70	88.8831923438	881.45	928.90	Sunny(fair)	True	False	928.90
2011-03-19 16:00:00 45205 16 590.28 590.28 590.28 680.8 684.10	86.2855678031	590.28	680.80	Sunny(fair)	True	False	680.80
2011-03-19 17:00:00 45206 17 301.14 301.14 301.14 338.7 349.00	86.2855678031	301.14	338.70	Sunny(sunny)	True	False	338.70
2011-03-19 18:00:00 45207 18 75.24 75.24 75.24 56.7 87.20	86.2855678031	75.24	56.70	Sunny(sunny)	True	False	56.70
2011-03-19 19:00:00 45208 19 1.21 1.21 1.21 0.1 1.40	86.2855678031	1.21	0.10	Sunny(sunny)	True	False	0.10
2011-03-19 20:00:00 45209 20 0.00 0.00 0.00 0.0 0.00	86.2855678031	0.00	0.00	Clear(clear)	True	False	0.00
2011-03-19 21:00:00 45210 21 0.00 0.00 0.00 0.0 0.00	86.2855678031	0.00	0.00	Clear(clear)	True	False	0.00
2011-03-19 22:00:00 45211 22 0.00 0.00 0.00 0.0 0.00	86.2855678031	0.00	0.00	Clear(clear)	True	False	0.00
2011-03-19 23:00:00 45212 23 0.00 0.00 0.00 0.0 0.00	86.2855678031	0.00	0.00	Clear(clear)	True	False	0.00
2011-03-20 00:00:00 45213 0 0.00 0.00 0.00 0.0 0.00	86.2855678031	0.00	0.00	Clear(clear)	True	False	0.00
2011-03-20 01:00:00 45214 1 0.00 0.00 0.00 0.0 0.00	86.2855678031	0.00	0.00	Clear(clear)	True	False	0.00
2011-03-20 02:00:00 45215 2 0.00 0.00 0.00 0.0 0.00	86.2855678031	0.00	0.00	Clear(clear)	True	False	0.00
2011-03-20 03:00:00 45216 3 0.00 0.00 0.00 0.0 0.00	86.2855678031	0.00	0.00	Clear(clear)	True	False	0.00
2011-03-20 04:00:00 45217 4 0.00 0.00 0.00 0.0 0.00	86.2855678031	0.00	0.00	Clear(clear)	True	False	0.00
2011-03-20 05:00:00 45218 5 0.00 0.00 0.00 0.0 0.00	86.2855678031	0.00	0.00	Clear(clear)	True	False	0.00
2011-03-20 06:00:00 45219 6 23.56 23.56 23.56 0.0 27.30	86.2855678031	23.56	0.00	Clear(clear)	True	False	0.00
2011-03-20 07:00:00 45220 7 208.98 208.98 208.98 50.6 242.20	86.2855678031	208.98	50.60	Clear(sunny)	True	False	50.60
2011-03-20 08:00:00 45221 8 524.53 524.53 524.53 323.6 607.90	86.2855678031	524.53	323.60	Sunny(sunny)	True	False	323.60
2011-03-20 09:00:00 45222 9 765.01 765.01 765.01 671.9 886.60	86.2855678031	765.01	671.90	Sunny(sunny)	True	False	671.90
2011-03-20 10:00:00 45223 10 945.45 945.45 945.45 932.9 1063.70	88.8831923438	945.45	932.90	Sunny(sunny)	True	False	932.90
2011-03-20 11:00:00 45224 11 1021.89 1021.89 1021.89 1072.4 1149.70	88.8831923438	1021.89	1072.40	Sunny(sunny)	True	False	1072.40
2011-03-20 12:00:00 45225 12 1054.24 1054.24 1054.24 1138.6 1186.10	88.8831923438	1054.24	1138.60	Sunny(sunny)	True	False	1138.60
2011-03-20 13:00:00 45226 13 1040.20 1040.20 1040.20 1131.6 1170.30	88.8831923438	1040.20	1131.60	Sunny(sunny)	True	False	1131.60
2011-03-20 14:00:00 45227 14 1029.18 1029.18 1029.18 1051.8 1157.90	88.8831923438	1029.18	1051.80	Sunny(sunny)	True	False	1051.80
2011-03-20 15:00:00 45228 15 881.45 881.45 881.45 901.5 991.70	88.8831923438	881.45	901.50	Sunny(sunny)	True	False	901.50
2011-03-20 16:00:00 45229 16 590.28 590.28 590.28 617.9 684.10	86.2855678031	590.28	617.90	Sunny(sunny)	True	False	617.90
2011-03-20 17:00:00 45230 17 301.14 301.14 301.14 330.6 349.00	86.2855678031	301.14	330.60	Sunny(sunny)	True	False	330.60
2011-03-20 18:00:00 45231 18 75.24 75.24 75.24 51.5 87.20	86.2855678031	75.24	51.50	Sunny(sunny)	True	False	51.50
2011-03-20 19:00:00 45232 19 1.21 1.21 1.21 0.3 1.40	86.2855678031	1.21	0.30	Sunny(sunny)	True	False	0.30
2011-03-20 20:00:00 45233 20 0.00 0.00 0.00 0.0 0.00	86.2855678031	0.00	0.00	Clear(clear)	True	False	0.00
2011-03-20 21:00:00 45234 21 0.00 0.00 0.00 0.0 0.00	86.2855678031	0.00	0.00	Clear(fair)	True	False	0.00
2011-03-20 22:00:00 45235 22 0.00 0.00 0.00 0.0 0.00	67.7087831419	0.00	0.00	Partly_Cloudy(fair)	True	False	0.00
2011-03-20 23:00:00 45236 23 0.00 0.00 0.00 0.0 0.00	67.7087831419	0.00	0.00	Partly_Cloudy(fair)	True	False	0.00
2011-03-21 00:00:00 45237 0 0.00 0.00 0.00 0.0 0.00	67.7087831419	0.00	0.00	Partly_Cloudy(cloudy)	True	False	0.00
2011-03-21 01:00:00 45238 1 0.00 0.00 0.00 0.0 0.00	29.1659812469	0.00	0.00	Mostly_Cloudy(partly_cloudy)	True	False	0.00
2011-03-21 02:00:00 45239 2 0.00 0.00 0.00 0.0 0.00	29.1659812469	0.00	0.00	Mostly_Cloudy(partly_cloudy)	True	False	0.00
2011-03-21 03:00:00 45240 3 0.00 0.00 0.00 0.0 0.00	29.1659812469	0.00	0.00	Mostly_Cloudy(cloudy)	True	False	0.00
2011-03-21 04:00:00 45241 4 0.00 0.00 0.00 0.0 0.00	29.1659812469	0.00	0.00	Rain_/_Snow_Showers(cloudy)	False	False	0.00
2011-03-21 05:00:00 45242 5 0.00 0.00 0.00 0.0 0.00	29.1659812469	0.00	0.00	Rain_/_Snow_Showers(light_rain)	False	False	0.00
2011-03-21 06:00:00 45243 6 7.96 7.96 7.96 0.0 27.30	29.1659812469	7.96	0.00	Rain_/_Snow_Showers(light_snow)	False	False	0.00
2011-03-21 07:00:00 45244 7 70.64 70.64 70.64 0.0 242.20	29.1659812469	70.64	0.00	Rain_/_Snow_Showers(light_rain)	False	False	0.00
2011-03-21 08:00:00 45245 8 177.30 177.30 177.30 4.8 607.90	29.1659812469	177.30	4.80	Rain_/_Snow_Showers(light_snow)	False	False	4.80
