2011-03-26 20:00:00 53899 20 0.00 0.00 0.00 0.0 0.00	87.2009672683	0.00	0.00	Clear(clear)	True	False	0.00
2011-03-26 21:00:00 53900 21 0.00 0.00 0.00 0.0 0.00	87.2009672683	0.00	0.00	Sunny(fair)	True	False	0.00
2011-03-26 22:00:00 53901 22 0.00 0.00 0.00 0.0 0.00	88.8798618869	0.00	0.00	Sunny(partly_cloudy)	True	False	0.00
2011-03-26 23:00:00 53902 23 0.00 0.00 0.00 0.0 0.00	88.8798618869	0.00	0.00	Sunny(partly_cloudy)	True	False	0.00
2011-03-27 00:00:00 53903 0 0.00 0.00 0.00 0.0 0.00	88.8798618869	0.00	0.00	Sunny(fair)	True	False	0.00
2011-03-27 01:00:00 53904 1 0.00 0.00 0.00 0.0 0.00	88.8798618869	0.00	0.00	Sunny(partly_cloudy)	True	False	0.00
2011-03-27 02:00:00 53905 2 0.00 0.00 0.00 0.0 0.00	88.8798618869	0.00	0.00	Sunny(mostly_cloudy)	True	False	0.00
2011-03-27 03:00:00 53906 3 0.00 0.00 0.00 0.0 0.00	88.8798618869	0.00	0.00	Sunny(mostly_cloudy)	True	False	0.00
2011-03-27 04:00:00 53907 4 0.00 0.00 0.00 0.0 0.00	87.2009672683	0.00	0.00	Sunny(partly_cloudy)	True	False	0.00
2011-03-27 05:00:00 53908 5 0.00 0.00 0.00 0.0 0.00	87.2009672683	0.00	0.00	Sunny(partly_cloudy)	True	False	0.00
2011-03-27 06:00:00 53909 6 3.05 3.05 3.05 0.0 3.50	87.2009672683	3.05	0.00	Sunny(mostly_cloudy)	True	False	0.00
2011-03-27 07:00:00 53910 7 94.87 94.87 94.87 39.8 108.80	87.2009672683	94.87	39.80	Sunny(mostly_cloudy)	True	False	39.80
