2011-03-09 03:00:00 33528 3 0.00 0.00 0.00 0.0 0.00	88.8908175664	0.00	0.00	Clear(fair)	True	False	0.00
2011-03-09 04:00:00 33529 4 0.00 0.00 0.00 0.0 0.00	88.8908175664	0.00	0.00	Clear(fair)	True	False	0.00
2011-03-09 05:00:00 33530 5 0.00 0.00 0.00 0.0 0.00	88.8908175664	0.00	0.00	Clear(fair)	True	False	0.00
2011-03-09 06:00:00 33531 6 24.27 24.27 24.27 35.1 27.30	88.8908175664	24.27	35.10	Mostly_Clear(fair)	False	False	35.10
2011-03-09 07:00:00 33532 7 215.29 215.29 215.29 111.5 242.20	88.8908175664	215.29	111.50	Mostly_Sunny(fair)	False	False	111.50
2011-03-09 08:00:00 33533 8 451.97 451.97 451.97 386.9 607.90	74.3498303905	451.97	386.90	Partly_Cloudy(fair)	True	False	386.90
2011-03-09 09:00:00 33534 9 172.05 172.05 172.05 306.0 886.60	19.4054500413	172.05	306.00	Mostly_Cloudy(fair)	True	False	306.00
2011-03-09 10:00:00 33535 10 545.88 545.88 545.88 478.5 1063.70	51.319215414	545.88	478.50	Mostly_Cloudy(fair)	True	False	478.50
2011-03-09 11:00:00 33536 11 590.02 590.02 590.02 383.9 1149.70	51.319215414	590.02	383.90	Mostly_Cloudy(fair)	True	False	383.90
2011-03-09 12:00:00 33537 12 590.38 590.38 590.38 340.4 1150.40	51.319215414	590.38	340.40	Mostly_Cloudy(fair)	True	False	340.40
2011-03-09 13:00:00 33538 13 591.30 591.30 591.30 316.7 1152.20	51.319215414	591.30	316.70	Mostly_Cloudy(mostly_cloudy)	True	False	316.70
2011-03-09 14:00:00 33539 14 545.78 545.78 545.78 195.8 1063.50	51.319215414	545.78	195.80	Mostly_Cloudy(cloudy)	True	False	195.80
2011-03-09 15:00:00 33540 15 153.10 153.10 153.10 108.9 911.10	16.8043837523	153.10	108.90	Cloudy(cloudy)	True	False	108.90
2011-03-09 16:00:00 33541 16 93.09 93.09 93.09 23.0 663.40	14.0319131436	93.09	23.00	Cloudy(cloudy)	True	False	23.00
2011-03-09 17:00:00 33542 17 46.16 46.16 46.16 3.6 329.00	14.0319131436	46.16	3.60	Cloudy(cloudy)	True	False	3.60
2011-03-09 18:00:00 33543 18 7.55 7.55 7.55 0.0 53.80	14.0319131436	7.55	0.00	Cloudy(cloudy)	True	False	0.00
2011-03-09 19:00:00 33544 19 0.01 0.01 0.01 0.0 0.10	14.0319131436	0.01	0.00	Cloudy(cloudy)	True	False	0.00
2011-03-09 20:00:00 33545 20 0.00 0.00 0.00 0.0 0.00	14.0319131436	0.00	0.00	Cloudy(cloudy)	True	False	0.00
2011-03-09 21:00:00 33546 21 0.00 0.00 0.00 0.0 0.00	0.64880112835	0.00	0.00	Rain_/_Snow_Showers(cloudy)	True	False	0.00
2011-03-09 22:00:00 33547 22 0.00 0.00 0.00 0.0 0.00	0.64880112835	0.00	0.00	Rain_/_Snow_Showers(cloudy)	True	False	0.00
2011-03-09 23:00:00 33548 23 0.00 0.00 0.00 0.0 0.00	0.64880112835	0.00	0.00	Rain_/_Snow_Showers(cloudy)	True	False	0.00
2011-03-10 00:00:00 33549 0 0.00 0.00 0.00 0.0 0.00	4.48905932777	0.00	0.00	Showers(cloudy)	True	False	0.00
2011-03-10 01:00:00 33550 1 0.00 0.00 0.00 0.0 0.00	4.48905932777	0.00	0.00	Showers(cloudy)	True	False	0.00
2011-03-10 02:00:00 33551 2 0.00 0.00 0.00 0.0 0.00	4.48905932777	0.00	0.00	Showers(light_rain)	True	False	0.00
2011-03-10 03:00:00 33552 3 0.00 0.00 0.00 0.0 0.00	4.48905932777	0.00	0.00	Showers(light_rain)	True	False	0.00
2011-03-10 04:00:00 33553 4 0.00 0.00 0.00 0.0 0.00	4.48905932777	0.00	0.00	Showers(cloudy)	True	False	0.00
2011-03-10 05:00:00 33554 5 0.00 0.00 0.00 0.0 0.00	4.48905932777	0.00	0.00	Showers(light_rain)	True	False	0.00
2011-03-10 06:00:00 33555 6 1.23 1.23 1.23 0.0 27.30	4.48905932777	1.23	0.00	Rain(light_rain)	True	False	0.00
2011-03-10 07:00:00 33556 7 10.87 10.87 10.87 9.9 242.20	4.48905932777	10.87	9.90	Rain(light_rain)	True	False	9.90
2011-03-10 08:00:00 33557 8 27.29 27.29 27.29 106.2 607.90	4.48905932777	27.29	106.20	Rain(light_rain)	True	False	106.20
2011-03-10 09:00:00 33558 9 39.80 39.80 39.80 176.4 886.60	4.48905932777	39.80	176.40	Rain(cloudy)	True	False	176.40
2011-03-10 10:00:00 33559 10 90.61 90.61 90.61 101.9 1063.70	8.51877607789	90.61	101.90	Rain(cloudy)	True	False	101.90
2011-03-10 11:00:00 33560 11 97.94 97.94 97.94 52.7 1149.70	8.51877607789	97.94	52.70	Rain(light_rain)	True	False	52.70
2011-03-10 12:00:00 33561 12 98.00 98.00 98.00 64.4 1150.40	8.51877607789	98.00	64.40	Rain(rain)	True	False	64.40
2011-03-10 13:00:00 33562 13 98.15 98.15 98.15 97.3 1152.20	8.51877607789	98.15	97.30	Rain(rain)	True	False	97.30
2011-03-10 14:00:00 33563 14 90.60 90.60 90.60 50.0 1063.50	8.51877607789	90.60	50.00	Rain(light_rain)	True	False	50.00
2011-03-10 15:00:00 33564 15 77.61 77.61 77.61 38.3 911.10	8.51877607789	77.61	38.30	Rain(light_rain)	True	False	38.30
2011-03-10 16:00:00 33565 16 29.78 29.78 29.78 7.9 663.40	4.48905932777	29.78	7.90	Rain(light_rain)	True	False	7.90
2011-03-10 17:00:00 33566 17 14.77 14.77 14.77 0.0 329.00	4.48905932777	14.77	0.00	Rain(light_rain)	True	False	0.00
2011-03-10 18:00:00 33567 18 0.00 0.00 0.00 0.0 53.80	0.0	0.00	0.00	Heavy_Rain(rain)	True	False	0.00
2011-03-10 19:00:00 33568 19 0.00 0.00 0.00 0.0 0.10	0.0	0.00	0.00	Heavy_Rain(light_rain)	True	False	0.00
2011-03-10 20:00:00 33569 20 0.00 0.00 0.00 0.0 0.00	0.0	0.00	0.00	Heavy_Rain(rain)	True	False	0.00
2011-03-10 21:00:00 33570 21 0.00 0.00 0.00 0.0 0.00	0.0	0.00	0.00	Heavy_Rain(light_rain)	True	False	0.00
2011-03-10 22:00:00 33571 22 0.00 0.00 0.00 0.0 0.00	0.0	0.00	0.00	Heavy_Rain(cloudy)	True	False	0.00
2011-03-10 23:00:00 33572 23 0.00 0.00 0.00 0.0 0.00	0.0	0.00	0.00	Heavy_Rain(rain)	True	False	0.00
2011-03-11 00:00:00 33573 0 0.00 0.00 0.00 0.0 0.00	0.0	0.00	0.00	Heavy_Rain(rain)	True	False	0.00
2011-03-11 01:00:00 33574 1 0.00 0.00 0.00 0.0 0.00	0.0	0.00	0.00	Heavy_Rain(rain)	True	False	0.00
2011-03-11 02:00:00 33575 2 0.00 0.00 0.00 0.0 0.00	0.0	0.00	0.00	Heavy_Rain(light_rain)	True	False	0.00
2011-03-11 03:00:00 33576 3 0.00 0.00 0.00 0.0 0.00	4.48905932777	0.00	0.00	Rain(light_rain)	True	False	0.00
