2011-03-04 14:00:00 28272 14 784.00 784.00 1001.31 849.5 1063.50	73.7188528444	1001.31	849.50	Partly_Cloudy(fair)	True	False	849.50
2011-03-04 15:00:00 28273 15 467.57 467.57 727.77 568.2 911.10	51.319215414	727.77	568.20	Mostly_Cloudy(fair)	True	False	568.20
2011-03-04 16:00:00 28274 16 175.19 175.19 529.91 216.4 663.40	26.4076391176	529.91	216.40	Mostly_Cloudy(fair)	True	False	216.40
2011-03-04 17:00:00 28275 17 86.88 86.88 262.80 17.4 329.00	26.4076391176	262.80	17.40	Mostly_Cloudy(fair)	True	False	17.40
2011-03-04 18:00:00 28276 18 13.78 13.78 41.70 0.0 52.20	26.4076391176	41.70	0.00	Mostly_Cloudy(fair)	True	False	0.00
2011-03-04 19:00:00 28277 19 0.03 0.03 0.08 0.0 0.10	26.4076391176	0.08	0.00	Mostly_Cloudy(fair)	True	False	0.00
2011-03-04 20:00:00 28278 20 0.00 0.00 0.00 0.0 0.00	26.4076391176	0.00	0.00	Mostly_Cloudy(cloudy)	True	False	0.00
2011-03-04 21:00:00 28279 21 0.00 0.00 0.00 0.0 0.00	16.8043837523	0.00	0.00	Cloudy(cloudy)	True	False	0.00
2011-03-04 22:00:00 28280 22 0.00 0.00 0.00 0.0 0.00	16.8043837523	0.00	0.00	Cloudy(cloudy)	True	False	0.00
2011-03-04 23:00:00 28281 23 0.00 0.00 0.00 0.0 0.00	16.8043837523	0.00	0.00	Cloudy(cloudy)	True	False	0.00
2011-03-05 00:00:00 28282 0 0.00 0.00 0.00 0.0 0.00	16.8043837523	0.00	0.00	Cloudy(cloudy)	True	False	0.00
2011-03-05 01:00:00 28283 1 0.00 0.00 0.00 0.0 0.00	16.8043837523	0.00	0.00	Cloudy(cloudy)	True	False	0.00
2011-03-05 02:00:00 28284 2 0.00 0.00 0.00 0.0 0.00	16.8043837523	0.00	0.00	Cloudy(Unkown)	True	False	0.00
2011-03-05 03:00:00 28285 3 0.00 0.00 0.00 0.0 0.00	16.8043837523	0.00	0.00	Cloudy(Unkown)	True	False	0.00
2011-03-05 04:00:00 28286 4 0.00 0.00 0.00 0.0 0.00	16.8043837523	0.00	0.00	Cloudy(cloudy)	True	False	0.00
2011-03-05 05:00:00 28287 5 0.00 0.00 0.00 0.0 0.00	16.8043837523	0.00	0.00	Cloudy(light_rain)	True	False	0.00
2011-03-05 06:00:00 28288 6 4.59 4.59 4.59 0.0 27.30	16.8043837523	4.59	0.00	Cloudy(cloudy)	True	False	0.00
2011-03-05 07:00:00 28289 7 40.70 40.70 40.70 31.0 242.20	16.8043837523	40.70	31.00	Cloudy(cloudy)	True	False	31.00
2011-03-05 08:00:00 28290 8 102.15 102.15 102.15 253.4 607.90	16.8043837523	102.15	253.40	Cloudy(cloudy)	True	False	253.40
2011-03-05 09:00:00 28291 9 148.99 148.99 148.99 747.8 886.60	16.8043837523	148.99	747.80	Cloudy(cloudy)	True	False	747.80
2011-03-05 10:00:00 28292 10 214.30 214.30 214.30 974.6 1063.70	20.1466578923	214.30	974.60	Cloudy(mostly_cloudy)	True	False	974.60
2011-03-05 11:00:00 28293 11 231.63 231.63 231.63 880.7 1149.70	20.1466578923	231.63	880.70	Cloudy(partly_cloudy)	True	False	880.70
2011-03-05 12:00:00 28294 12 231.77 231.77 231.77 529.8 1150.40	20.1466578923	231.77	529.80	Cloudy(cloudy)	True	False	529.80
2011-03-05 13:00:00 28295 13 232.13 232.13 232.13 493.3 1152.20	20.1466578923	232.13	493.30	Cloudy(cloudy)	True	False	493.30
2011-03-05 14:00:00 28296 14 214.26 214.26 214.26 269.5 1063.50	20.1466578923	214.26	269.50	Cloudy(mostly_cloudy)	True	False	269.50
2011-03-05 15:00:00 28297 15 183.56 183.56 183.56 267.4 911.10	20.1466578923	183.56	267.40	Cloudy(cloudy)	True	False	267.40
2011-03-05 16:00:00 28298 16 111.48 111.48 111.48 73.6 663.40	16.8043837523	111.48	73.60	Cloudy(cloudy)	True	False	73.60
2011-03-05 17:00:00 28299 17 55.29 55.29 55.29 4.0 329.00	16.8043837523	55.29	4.00	Cloudy(cloudy)	True	False	4.00
2011-03-05 18:00:00 28300 18 8.77 8.77 8.77 0.0 52.20	16.8043837523	8.77	0.00	Cloudy(cloudy)	True	False	0.00
2011-03-05 19:00:00 28301 19 0.02 0.02 0.02 0.0 0.10	16.8043837523	0.02	0.00	Cloudy(cloudy)	True	False	0.00
2011-03-05 20:00:00 28302 20 0.00 0.00 0.00 0.0 0.00	16.8043837523	0.00	0.00	Cloudy(mostly_cloudy)	True	False	0.00
2011-03-05 21:00:00 28303 21 0.00 0.00 0.00 0.0 0.00	16.8043837523	0.00	0.00	Cloudy(mostly_cloudy)	True	False	0.00
2011-03-05 22:00:00 28304 22 0.00 0.00 0.00 0.0 0.00	16.8043837523	0.00	0.00	Cloudy(cloudy)	True	False	0.00
2011-03-05 23:00:00 28305 23 0.00 0.00 0.00 0.0 0.00	16.8043837523	0.00	0.00	Cloudy(cloudy)	True	False	0.00
2011-03-06 00:00:00 28306 0 0.00 0.00 0.00 0.0 0.00	16.8043837523	0.00	0.00	Cloudy(cloudy)	True	False	0.00
2011-03-06 01:00:00 28307 1 0.00 0.00 0.00 0.0 0.00	16.8043837523	0.00	0.00	Cloudy(partly_cloudy)	True	False	0.00
2011-03-06 02:00:00 28308 2 0.00 0.00 0.00 0.0 0.00	16.8043837523	0.00	0.00	Cloudy(cloudy)	True	False	0.00
2011-03-06 03:00:00 28309 3 0.00 0.00 0.00 0.0 0.00	5.58312655087	0.00	0.00	Few_Showers(cloudy)	True	False	0.00
2011-03-06 04:00:00 28310 4 0.00 0.00 0.00 0.0 0.00	5.58312655087	0.00	0.00	Few_Showers(partly_cloudy)	True	False	0.00
2011-03-06 05:00:00 28311 5 0.00 0.00 0.00 0.0 0.00	5.58312655087	0.00	0.00	Few_Showers(cloudy)	True	False	0.00
2011-03-06 06:00:00 28312 6 1.52 1.52 1.52 0.0 27.30	5.58312655087	1.52	0.00	Light_Rain(cloudy)	True	False	0.00
2011-03-06 07:00:00 28313 7 13.52 13.52 13.52 35.9 242.20	5.58312655087	13.52	35.90	Light_Rain(cloudy)	True	False	35.90
2011-03-06 08:00:00 28314 8 33.94 33.94 33.94 70.3 607.90	5.58312655087	33.94	70.30	Light_Rain(light_rain)	True	False	70.30
2011-03-06 09:00:00 28315 9 148.99 148.99 148.99 109.3 886.60	16.8043837523	148.99	109.30	Cloudy(rain)	True	False	109.30
2011-03-06 10:00:00 28316 10 214.30 214.30 214.30 90.4 1063.70	20.1466578923	214.30	90.40	Cloudy(rain)	True	False	90.40
2011-03-06 11:00:00 28317 11 231.63 231.63 231.63 85.1 1149.70	20.1466578923	231.63	85.10	Cloudy(light_rain)	True	False	85.10
2011-03-06 12:00:00 28318 12 58.91 58.91 58.91 184.0 1150.40	5.12063877799	58.91	184.00	Light_Rain(light_rain)	True	False	184.00
2011-03-06 13:00:00 28319 13 59.00 59.00 59.00 163.5 1152.20	5.12063877799	59.00	163.50	Light_Rain(light_rain)	True	False	163.50
