2011-03-07 20:00:00 32043 20 0.00 0.00 0.00 0.0 0.00	87.6410345426	0.00	0.00	Clear(fair)	True	False	0.00
2011-03-07 21:00:00 32044 21 0.00 0.00 0.00 0.0 0.00	87.6410345426	0.00	0.00	Clear(fair)	True	False	0.00
2011-03-07 22:00:00 32045 22 0.00 0.00 0.00 0.0 0.00	87.6410345426	0.00	0.00	Clear(fair)	True	False	0.00
2011-03-07 23:00:00 32046 23 0.00 0.00 0.00 0.0 0.00	87.6410345426	0.00	0.00	Clear(fair)	True	False	0.00
2011-03-08 00:00:00 32047 0 0.00 0.00 0.00 0.0 0.00	87.6410345426	0.00	0.00	Clear(fair)	True	False	0.00
2011-03-08 01:00:00 32048 1 0.00 0.00 0.00 0.0 0.00	87.6410345426	0.00	0.00	Mostly_Clear(fair)	False	False	0.00
2011-03-08 02:00:00 32049 2 0.00 0.00 0.00 0.0 0.00	87.6410345426	0.00	0.00	Clear(fair)	True	False	0.00
2011-03-08 03:00:00 32050 3 0.00 0.00 0.00 0.0 0.00	73.7188528444	0.00	0.00	Partly_Cloudy(fair)	True	False	0.00
2011-03-08 04:00:00 32051 4 0.00 0.00 0.00 0.0 0.00	73.7188528444	0.00	0.00	Partly_Cloudy(fair)	True	False	0.00
2011-03-08 05:00:00 32052 5 0.00 0.00 0.00 0.0 0.00	73.7188528444	0.00	0.00	Partly_Cloudy(fair)	True	False	0.00
2011-03-08 06:00:00 32053 6 20.13 20.13 20.13 19.4 27.30	73.7188528444	20.13	19.40	Partly_Cloudy(fair)	True	False	19.40
2011-03-08 07:00:00 32054 7 178.55 178.55 178.55 254.2 242.20	73.7188528444	178.55	254.20	Partly_Cloudy(fair)	True	False	254.20
2011-03-08 08:00:00 32055 8 448.14 448.14 448.14 609.5 607.90	73.7188528444	448.14	609.50	Partly_Cloudy(fair)	True	False	609.50
2011-03-08 09:00:00 32056 9 172.05 172.05 172.05 881.8 886.60	19.4054500413	172.05	881.80	Mostly_Cloudy(fair)	True	False	881.80
2011-03-08 10:00:00 32057 10 545.88 545.88 545.88 1027.3 1063.70	51.319215414	545.88	1027.30	Mostly_Cloudy(fair)	True	False	1027.30
2011-03-08 11:00:00 32058 11 590.02 590.02 590.02 1129.5 1149.70	51.319215414	590.02	1129.50	Mostly_Cloudy(fair)	True	False	1129.50
2011-03-08 12:00:00 32059 12 848.06 848.06 848.06 1101.8 1150.40	73.7188528444	848.06	1101.80	Partly_Cloudy(fair)	True	False	1101.80
2011-03-08 13:00:00 32060 13 849.39 849.39 849.39 938.7 1152.20	73.7188528444	849.39	938.70	Partly_Cloudy(fair)	True	False	938.70
2011-03-08 14:00:00 32061 14 784.00 784.00 784.00 618.8 1063.50	73.7188528444	784.00	618.80	Partly_Cloudy(fair)	True	False	618.80
2011-03-08 15:00:00 32062 15 671.65 671.65 671.65 261.9 911.10	73.7188528444	671.65	261.90	Mostly_Sunny(fair)	False	False	261.90
2011-03-08 16:00:00 32063 16 489.05 489.05 489.05 152.4 663.40	73.7188528444	489.05	152.40	Mostly_Sunny(fair)	False	False	152.40
2011-03-08 17:00:00 32064 17 242.54 242.54 242.54 53.6 329.00	73.7188528444	242.54	53.60	Mostly_Sunny(fair)	False	False	53.60
2011-03-08 18:00:00 32065 18 39.66 39.66 39.66 0.0 53.80	73.7188528444	39.66	0.00	Partly_Cloudy(fair)	True	False	0.00
2011-03-08 19:00:00 32066 19 0.07 0.07 0.07 0.0 0.10	73.7188528444	0.07	0.00	Partly_Cloudy(fair)	True	False	0.00
2011-03-08 20:00:00 32067 20 0.00 0.00 0.00 0.0 0.00	73.7188528444	0.00	0.00	Partly_Cloudy(fair)	True	False	0.00
2011-03-08 21:00:00 32068 21 0.00 0.00 0.00 0.0 0.00	87.6410345426	0.00	0.00	Clear(fair)	True	False	0.00
2011-03-08 22:00:00 32069 22 0.00 0.00 0.00 0.0 0.00	87.6410345426	0.00	0.00	Clear(fair)	True	False	0.00
2011-03-08 23:00:00 32070 23 0.00 0.00 0.00 0.0 0.00	87.6410345426	0.00	0.00	Clear(fair)	True	False	0.00
2011-03-09 00:00:00 32071 0 0.00 0.00 0.00 0.0 0.00	87.6410345426	0.00	0.00	Clear(fair)	True	False	0.00
2011-03-09 01:00:00 32072 1 0.00 0.00 0.00 0.0 0.00	87.6410345426	0.00	0.00	Clear(fair)	True	False	0.00
2011-03-09 02:00:00 32073 2 0.00 0.00 0.00 0.0 0.00	87.6410345426	0.00	0.00	Clear(fair)	True	False	0.00
2011-03-09 03:00:00 32074 3 0.00 0.00 0.00 0.0 0.00	87.6410345426	0.00	0.00	Clear(fair)	True	False	0.00
2011-03-09 04:00:00 32075 4 0.00 0.00 0.00 0.0 0.00	87.6410345426	0.00	0.00	Clear(fair)	True	False	0.00
2011-03-09 05:00:00 32076 5 0.00 0.00 0.00 0.0 0.00	87.6410345426	0.00	0.00	Clear(fair)	True	False	0.00
2011-03-09 06:00:00 32077 6 23.93 23.93 23.93 35.1 27.30	87.6410345426	23.93	35.10	Mostly_Clear(fair)	False	False	35.10
2011-03-09 07:00:00 32078 7 212.27 212.27 212.27 111.5 242.20	87.6410345426	212.27	111.50	Mostly_Sunny(fair)	False	False	111.50
2011-03-09 08:00:00 32079 8 532.77 532.77 532.77 386.9 607.90	87.6410345426	532.77	386.90	Mostly_Sunny(fair)	False	False	386.90
2011-03-09 09:00:00 32080 9 653.59 653.59 653.59 306.0 886.60	73.7188528444	653.59	306.00	Partly_Cloudy(fair)	True	False	306.00
2011-03-09 10:00:00 32081 10 784.15 784.15 784.15 478.5 1063.70	73.7188528444	784.15	478.50	Partly_Cloudy(fair)	True	False	478.50
2011-03-09 11:00:00 32082 11 847.55 847.55 847.55 383.9 1149.70	73.7188528444	847.55	383.90	Partly_Cloudy(fair)	True	False	383.90
2011-03-09 12:00:00 32083 12 590.38 590.38 590.38 340.4 1150.40	51.319215414	590.38	340.40	Mostly_Cloudy(fair)	True	False	340.40
2011-03-09 13:00:00 32084 13 591.30 591.30 591.30 316.7 1152.20	51.319215414	591.30	316.70	Mostly_Cloudy(mostly_cloudy)	True	False	316.70
2011-03-09 14:00:00 32085 14 545.78 545.78 545.78 195.8 1063.50	51.319215414	545.78	195.80	Mostly_Cloudy(cloudy)	True	False	195.80
2011-03-09 15:00:00 32086 15 165.66 165.66 165.66 108.9 911.10	18.1826071863	165.66	108.90	Cloudy(cloudy)	True	False	108.90
2011-03-09 16:00:00 32087 16 94.19 94.19 94.19 23.0 663.40	14.1984015045	94.19	23.00	Cloudy(cloudy)	True	False	23.00
2011-03-09 17:00:00 32088 17 46.71 46.71 46.71 3.6 329.00	14.1984015045	46.71	3.60	Cloudy(cloudy)	True	False	3.60
2011-03-09 18:00:00 32089 18 7.64 7.64 7.64 0.0 53.80	14.1984015045	7.64	0.00	Cloudy(cloudy)	True	False	0.00
