2011-02-09 23:00:00 2284 23 0.00 0.00 0.00 0.0 0.00	25.2173913043	0.00	0.00	Cloudy(cloudy)	True	False	0.00
2011-02-10 00:00:00 2285 0 0.00 0.00 0.00 0.0 0.00	25.2173913043	0.00	0.00	Cloudy(cloudy)	True	False	0.00
2011-02-10 01:00:00 2286 1 0.00 0.00 0.00 0.0 0.00	25.2173913043	0.00	0.00	Cloudy(cloudy)	True	False	0.00
2011-02-10 02:00:00 2287 2 0.00 0.00 0.00 0.0 0.00	25.2173913043	0.00	0.00	Cloudy(cloudy)	True	False	0.00
2011-02-10 03:00:00 2288 3 0.00 0.00 0.00 0.0 0.00	25.2173913043	0.00	0.00	Cloudy(partly_cloudy)	True	False	0.00
2011-02-10 04:00:00 2289 4 0.00 0.00 0.00 0.0 0.00	25.2173913043	0.00	0.00	Cloudy(fair)	True	False	0.00
2011-02-10 05:00:00 2290 5 0.00 0.00 0.00 0.0 0.00	25.2173913043	0.00	0.00	Cloudy(fair)	True	False	0.00
2011-02-10 06:00:00 2291 6 0.66 0.66 0.66 0.0 2.60	25.2173913043	0.66	0.00	Cloudy(fair)	True	False	0.00
2011-02-10 07:00:00 2292 7 41.38 41.38 41.38 56.5 164.10	25.2173913043	41.38	56.50	Cloudy(fair)	True	False	56.50
2011-02-10 08:00:00 2293 8 128.61 128.61 128.61 440.3 510.00	25.2173913043	128.61	440.30	Cloudy(fair)	True	False	440.30
2011-02-10 09:00:00 2294 9 401.96 401.96 401.96 781.4 807.60	49.7722914669	401.96	781.40	Partly_Cloudy(fair)	True	False	781.40
2011-02-10 10:00:00 2295 10 702.52 702.52 702.52 985.8 1001.50	70.1468040485	702.52	985.80	Partly_Cloudy(fair)	True	False	985.80
2011-02-10 11:00:00 2296 11 769.30 769.30 769.30 1097.1 1096.70	70.1468040485	769.30	1097.10	Partly_Cloudy(fair)	True	False	1097.10
2011-02-10 12:00:00 2297 12 776.81 776.81 776.81 1106.0 1107.40	70.1468040485	776.81	1106.00	Partly_Cloudy(fair)	True	False	1106.00
2011-02-10 13:00:00 2298 13 704.48 704.48 704.48 996.2 1004.30	70.1468040485	704.48	996.20	Partly_Cloudy(fair)	True	False	996.20
2011-02-10 14:00:00 2299 14 585.30 585.30 585.30 818.8 834.40	70.1468040485	585.30	818.80	Partly_Cloudy(fair)	True	False	818.80
2011-02-10 15:00:00 2300 15 400.47 400.47 400.47 538.2 570.90	70.1468040485	400.47	538.20	Partly_Cloudy(fair)	True	False	538.20
2011-02-10 16:00:00 2301 16 111.14 111.14 111.14 168.6 223.30	49.7722914669	111.14	168.60	Partly_Cloudy(sunny)	True	False	168.60
2011-02-10 17:00:00 2302 17 5.72 5.72 5.72 3.9 11.50	49.7722914669	5.72	3.90	Partly_Cloudy(fair)	True	False	3.90
2011-02-10 18:00:00 2303 18 0.00 0.00 0.00 0.0 0.00	49.7722914669	0.00	0.00	Partly_Cloudy(fair)	True	False	0.00
2011-02-10 19:00:00 2304 19 0.00 0.00 0.00 0.0 0.00	49.7722914669	0.00	0.00	Partly_Cloudy(fair)	True	False	0.00
2011-02-10 20:00:00 2305 20 0.00 0.00 0.00 0.0 0.00	49.7722914669	0.00	0.00	Partly_Cloudy(fair)	True	False	0.00
2011-02-10 21:00:00 2306 21 0.00 0.00 0.00 0.0 0.00	49.7722914669	0.00	0.00	Partly_Cloudy(fair)	True	False	0.00
2011-02-10 22:00:00 2307 22 0.00 0.00 0.00 0.0 0.00	49.7722914669	0.00	0.00	Partly_Cloudy(fair)	True	False	0.00
2011-02-10 23:00:00 2308 23 0.00 0.00 0.00 0.0 0.00	49.7722914669	0.00	0.00	Partly_Cloudy(fair)	True	False	0.00
2011-02-11 00:00:00 2309 0 0.00 0.00 0.00 0.0 0.00	49.7722914669	0.00	0.00	Partly_Cloudy(fair)	True	False	0.00
2011-02-11 01:00:00 2310 1 0.00 0.00 0.00 0.0 0.00	49.7722914669	0.00	0.00	Partly_Cloudy(fair)	True	False	0.00
2011-02-11 02:00:00 2311 2 0.00 0.00 0.00 0.0 0.00	49.7722914669	0.00	0.00	Partly_Cloudy(fair)	True	False	0.00
2011-02-11 03:00:00 2312 3 0.00 0.00 0.00 0.0 0.00	49.7722914669	0.00	0.00	Partly_Cloudy(fair)	True	False	0.00
2011-02-11 04:00:00 2313 4 0.00 0.00 0.00 0.0 0.00	49.7722914669	0.00	0.00	Partly_Cloudy(fair)	True	False	0.00
2011-02-11 05:00:00 2314 5 0.00 0.00 0.00 0.0 0.00	49.7722914669	0.00	0.00	Partly_Cloudy(fair)	True	False	0.00
2011-02-11 06:00:00 2315 6 1.29 1.29 1.29 0.1 2.60	49.7722914669	1.29	0.10	Mostly_Clear(fair)	False	False	0.10
2011-02-11 07:00:00 2316 7 81.68 81.68 81.68 128.4 164.10	49.7722914669	81.68	128.40	Mostly_Sunny(fair)	False	False	128.40
2011-02-11 08:00:00 2317 8 253.84 253.84 253.84 398.7 510.00	49.7722914669	253.84	398.70	Mostly_Sunny(fair)	False	False	398.70
2011-02-11 09:00:00 2318 9 401.96 401.96 401.96 765.2 807.60	49.7722914669	401.96	765.20	Mostly_Sunny(fair)	False	False	765.20
2011-02-11 10:00:00 2319 10 498.47 498.47 498.47 956.7 1001.50	49.7722914669	498.47	956.70	Mostly_Sunny(fair)	False	False	956.70
2011-02-11 11:00:00 2320 11 545.85 545.85 545.85 1053.3 1096.70	49.7722914669	545.85	1053.30	Mostly_Sunny(fair)	False	False	1053.30
2011-02-11 12:00:00 2321 12 930.49 930.49 930.49 1067.1 1107.40	84.0248016778	930.49	1067.10	Sunny(fair)	True	False	1067.10
2011-02-11 13:00:00 2322 13 843.86 843.86 843.86 959.5 1004.30	84.0248016778	843.86	959.50	Sunny(fair)	True	False	959.50
2011-02-11 14:00:00 2323 14 701.10 701.10 701.10 795.3 834.40	84.0248016778	701.10	795.30	Sunny(fair)	True	False	795.30
2011-02-11 15:00:00 2324 15 479.70 479.70 479.70 517.4 570.90	84.0248016778	479.70	517.40	Sunny(fair)	True	False	517.40
2011-02-11 16:00:00 2325 16 159.62 159.62 159.62 164.9 223.30	71.4836223507	159.62	164.90	Sunny(fair)	True	False	164.90
2011-02-11 17:00:00 2326 17 8.22 8.22 8.22 3.9 11.50	71.4836223507	8.22	3.90	Sunny(fair)	True	False	3.90
2011-02-11 18:00:00 2327 18 0.00 0.00 0.00 0.0 0.00	71.4836223507	0.00	0.00	Clear(fair)	True	False	0.00
2011-02-11 19:00:00 2328 19 0.00 0.00 0.00 0.0 0.00	71.4836223507	0.00	0.00	Clear(fair)	True	False	0.00
2011-02-11 20:00:00 2329 20 0.00 0.00 0.00 0.0 0.00	71.4836223507	0.00	0.00	Clear(fair)	True	False	0.00
2011-02-11 21:00:00 2330 21 0.00 0.00 0.00 0.0 0.00	71.4836223507	0.00	0.00	Mostly_Clear(fair)	False	False	0.00
2011-02-11 22:00:00 2331 22 0.00 0.00 0.00 0.0 0.00	71.4836223507	0.00	0.00	Mostly_Clear(fair)	False	False	0.00
2011-02-11 23:00:00 2332 23 0.00 0.00 0.00 0.0 0.00	71.4836223507	0.00	0.00	Mostly_Clear(fair)	False	False	0.00
