2011-02-23 22:00:00 18394 22 0.00 0.00 0.00 0.0 0.00	88.8975397073	0.00	0.00	Clear(fair)	True	False	0.00
2011-02-23 23:00:00 18395 23 0.00 0.00 0.00 0.0 0.00	88.8975397073	0.00	0.00	Clear(fair)	True	False	0.00
2011-02-24 00:00:00 18396 0 0.00 0.00 0.00 0.0 0.00	88.8975397073	0.00	0.00	Clear(fair)	True	False	0.00
2011-02-24 01:00:00 18397 1 0.00 0.00 0.00 0.0 0.00	88.8975397073	0.00	0.00	Clear(fair)	True	False	0.00
2011-02-24 02:00:00 18398 2 0.00 0.00 0.00 0.0 0.00	88.8975397073	0.00	0.00	Clear(fair)	True	False	0.00
2011-02-24 03:00:00 18399 3 0.00 0.00 0.00 0.0 0.00	88.8975397073	0.00	0.00	Clear(fair)	True	False	0.00
2011-02-24 04:00:00 18400 4 0.00 0.00 0.00 0.0 0.00	88.8975397073	0.00	0.00	Clear(fair)	True	False	0.00
2011-02-24 05:00:00 18401 5 0.00 0.00 0.00 0.0 0.00	88.8975397073	0.00	0.00	Clear(fair)	True	False	0.00
2011-02-24 06:00:00 18402 6 16.36 16.36 16.36 3.7 18.40	88.8975397073	16.36	3.70	Clear(fair)	True	False	3.70
2011-02-24 07:00:00 18403 7 215.31 215.31 215.31 158.1 242.20	88.8975397073	215.31	158.10	Sunny(fair)	True	False	158.10
2011-02-24 08:00:00 18404 8 540.41 540.41 540.41 379.0 607.90	88.8975397073	540.41	379.00	Sunny(fair)	True	False	379.00
2011-02-24 09:00:00 18405 9 788.17 788.17 788.17 312.4 886.60	88.8975397073	788.17	312.40	Sunny(cloudy)	True	False	312.40
2011-02-24 10:00:00 18406 10 1003.08 1003.08 1003.08 509.4 1063.70	94.3008408595	1003.08	509.40	Sunny(cloudy)	True	False	509.40
2011-02-24 11:00:00 18407 11 1084.18 1084.18 1084.18 445.0 1149.70	94.3008408595	1084.18	445.00	Sunny(fair)	True	False	445.00
2011-02-24 12:00:00 18408 12 850.26 850.26 850.26 479.5 1143.60	74.3498303905	850.26	479.50	Partly_Cloudy(mostly_cloudy)	True	False	479.50
2011-02-24 13:00:00 18409 13 771.60 771.60 771.60 284.2 1037.80	74.3498303905	771.60	284.20	Partly_Cloudy(cloudy)	True	False	284.20
2011-02-24 14:00:00 18410 14 662.75 662.75 662.75 344.9 891.40	74.3498303905	662.75	344.90	Partly_Cloudy(mostly_cloudy)	True	False	344.90
2011-02-24 15:00:00 18411 15 62.90 62.90 62.90 250.5 642.20	9.79385926764	62.90	250.50	Showers(fair)	True	False	250.50
2011-02-24 16:00:00 18412 16 28.80 28.80 28.80 71.0 302.00	9.53757225434	28.80	71.00	Showers(mostly_cloudy)	True	False	71.00
2011-02-24 17:00:00 18413 17 3.30 3.30 3.30 9.5 34.60	9.53757225434	3.30	9.50	Showers(mostly_cloudy)	True	False	9.50
2011-02-24 18:00:00 18414 18 0.00 0.00 0.00 0.0 0.00	9.53757225434	0.00	0.00	Showers(fair)	True	False	0.00
2011-02-24 19:00:00 18415 19 0.00 0.00 0.00 0.0 0.00	9.53757225434	0.00	0.00	Showers(cloudy)	True	False	0.00
2011-02-24 20:00:00 18416 20 0.00 0.00 0.00 0.0 0.00	9.53757225434	0.00	0.00	Showers(cloudy)	True	False	0.00
2011-02-24 21:00:00 18417 21 0.00 0.00 0.00 0.0 0.00	9.53757225434	0.00	0.00	Showers(light_rain)	True	False	0.00
2011-02-24 22:00:00 18418 22 0.00 0.00 0.00 0.0 0.00	9.53757225434	0.00	0.00	Showers(light_rain)	True	False	0.00
2011-02-24 23:00:00 18419 23 0.00 0.00 0.00 0.0 0.00	9.53757225434	0.00	0.00	Showers(cloudy)	True	False	0.00
2011-02-25 00:00:00 18420 0 0.00 0.00 0.00 0.0 0.00	6.53379712325	0.00	0.00	Light_Rain(light_rain)	True	False	0.00
2011-02-25 01:00:00 18421 1 0.00 0.00 0.00 0.0 0.00	6.53379712325	0.00	0.00	Light_Rain(light_rain)	True	False	0.00
2011-02-25 02:00:00 18422 2 0.00 0.00 0.00 0.0 0.00	6.53379712325	0.00	0.00	Light_Rain(light_rain)	True	False	0.00
2011-02-25 03:00:00 18423 3 0.00 0.00 0.00 0.0 0.00	9.53757225434	0.00	0.00	Rain(light_rain)	True	False	0.00
2011-02-25 04:00:00 18424 4 0.00 0.00 0.00 0.0 0.00	9.53757225434	0.00	0.00	Rain(rain)	True	False	0.00
2011-02-25 05:00:00 18425 5 0.00 0.00 0.00 0.0 0.00	9.53757225434	0.00	0.00	Rain(rain)	True	False	0.00
2011-02-25 06:00:00 18426 6 1.75 1.75 1.75 0.0 18.40	9.53757225434	1.75	0.00	Rain(light_rain)	True	False	0.00
2011-02-25 07:00:00 18427 7 23.10 23.10 23.10 0.0 242.20	9.53757225434	23.10	0.00	Rain(light_rain)	True	False	0.00
2011-02-25 08:00:00 18428 8 57.98 57.98 57.98 0.0 607.90	9.53757225434	57.98	0.00	Rain(rain)	True	False	0.00
2011-02-25 09:00:00 18429 9 84.56 84.56 84.56 12.4 886.60	9.53757225434	84.56	12.40	Rain(rain)	True	False	12.40
2011-02-25 10:00:00 18430 10 104.18 104.18 104.18 69.9 1063.70	9.79385926764	104.18	69.90	Rain(light_rain)	True	False	69.90
2011-02-25 11:00:00 18431 11 112.60 112.60 112.60 67.4 1149.70	9.79385926764	112.60	67.40	Rain(rain)	True	False	67.40
2011-02-25 12:00:00 18432 12 112.00 112.00 112.00 71.0 1143.60	9.79385926764	112.00	71.00	Rain(rain)	True	False	71.00
2011-02-25 13:00:00 18433 13 101.64 101.64 101.64 58.3 1037.80	9.79385926764	101.64	58.30	Rain(light_rain)	True	False	58.30
2011-02-25 14:00:00 18434 14 87.30 87.30 87.30 184.5 891.40	9.79385926764	87.30	184.50	Rain(fair)	True	False	184.50
2011-02-25 15:00:00 18435 15 162.96 162.96 162.96 52.0 642.20	25.3760055964	162.96	52.00	Cloudy(mostly_cloudy)	True	False	52.00
2011-02-25 16:00:00 18436 16 69.81 69.81 69.81 84.5 302.00	23.1174203253	69.81	84.50	Cloudy(cloudy)	True	False	84.50
2011-02-25 17:00:00 18437 17 8.00 8.00 8.00 3.7 34.60	23.1174203253	8.00	3.70	Cloudy(cloudy_and_windy)	True	False	3.70
2011-02-25 18:00:00 18438 18 0.00 0.00 0.00 0.0 0.00	68.1848777204	0.00	0.00	Partly_Cloudy_/_Wind(cloudy)	True	False	0.00
2011-02-25 19:00:00 18439 19 0.00 0.00 0.00 0.0 0.00	68.1848777204	0.00	0.00	Partly_Cloudy_/_Wind(cloudy)	True	False	0.00
2011-02-25 20:00:00 18440 20 0.00 0.00 0.00 0.0 0.00	68.1848777204	0.00	0.00	Partly_Cloudy_/_Wind(mostly_cloudy)	True	False	0.00
2011-02-25 21:00:00 18441 21 0.00 0.00 0.00 0.0 0.00	88.8975397073	0.00	0.00	Clear(cloudy_and_windy)	True	False	0.00
2011-02-25 22:00:00 18442 22 0.00 0.00 0.00 0.0 0.00	88.8975397073	0.00	0.00	Clear(mostly_cloudy)	True	False	0.00
