2011-03-11 03:00:00 35804 3 0.00 0.00 0.00 0.0 0.00	6.68647845468	0.00	0.00	Light_Rain(light_rain)	True	False	0.00
2011-03-11 04:00:00 35805 4 0.00 0.00 0.00 0.0 0.00	4.48905932777	0.00	0.00	Rain(light_rain)	True	False	0.00
2011-03-11 05:00:00 35806 5 0.00 0.00 0.00 0.0 0.00	6.68647845468	0.00	0.00	Light_Rain(mostly_cloudy)	True	False	0.00
2011-03-11 06:00:00 35807 6 1.83 1.83 1.83 0.0 27.30	6.68647845468	1.83	0.00	Light_Rain(cloudy)	True	False	0.00
2011-03-11 07:00:00 35808 7 10.87 10.87 10.87 36.9 242.20	4.48905932777	10.87	36.90	Showers(light_rain)	True	False	36.90
2011-03-11 08:00:00 35809 8 84.73 84.73 84.73 142.0 607.90	13.9388904274	84.73	142.00	Cloudy(cloudy)	True	False	142.00
2011-03-11 09:00:00 35810 9 59.28 59.28 59.28 589.4 886.60	6.68647845468	59.28	589.40	Few_Showers(cloudy)	True	False	589.40
2011-03-11 10:00:00 35811 10 66.50 66.50 66.50 360.2 1063.70	6.25176271505	66.50	360.20	Few_Showers(cloudy)	True	False	360.20
2011-03-11 11:00:00 35812 11 71.88 71.88 71.88 675.4 1149.70	6.25176271505	71.88	675.40	Few_Showers(cloudy)	True	False	675.40
2011-03-11 12:00:00 35813 12 852.46 852.46 852.46 558.7 1177.90	72.3714575833	852.46	558.70	Partly_Cloudy(cloudy)	True	False	558.70
2011-03-11 13:00:00 35814 13 846.96 846.96 846.96 735.1 1170.30	72.3714575833	846.96	735.10	Partly_Cloudy(mostly_cloudy)	True	False	735.10
2011-03-11 14:00:00 35815 14 784.00 784.00 784.00 791.6 1083.30	72.3714575833	784.00	791.60	Partly_Cloudy(fair)	True	False	791.60
2011-03-11 15:00:00 35816 15 671.17 671.17 671.17 408.3 927.40	72.3714575833	671.17	408.30	Partly_Cloudy(sunny)	True	False	408.30
2011-03-11 16:00:00 35817 16 484.49 484.49 484.49 94.2 684.10	70.8209525427	484.49	94.20	Partly_Cloudy(cloudy)	True	False	94.20
2011-03-11 17:00:00 35818 17 247.17 247.17 247.17 16.0 349.00	70.8209525427	247.17	16.00	Partly_Cloudy(cloudy)	True	False	16.00
2011-03-11 18:00:00 35819 18 47.66 47.66 47.66 0.0 67.30	70.8209525427	47.66	0.00	Partly_Cloudy(cloudy)	True	False	0.00
2011-03-11 19:00:00 35820 19 0.35 0.35 0.35 0.0 0.50	70.8209525427	0.35	0.00	Partly_Cloudy(cloudy)	True	False	0.00
2011-03-11 20:00:00 35821 20 0.00 0.00 0.00 0.0 0.00	70.8209525427	0.00	0.00	Partly_Cloudy(cloudy)	True	False	0.00
2011-03-11 21:00:00 35822 21 0.00 0.00 0.00 0.0 0.00	27.850087695	0.00	0.00	Mostly_Cloudy(cloudy)	True	False	0.00
2011-03-11 22:00:00 35823 22 0.00 0.00 0.00 0.0 0.00	27.850087695	0.00	0.00	Mostly_Cloudy(cloudy)	True	False	0.00
2011-03-11 23:00:00 35824 23 0.00 0.00 0.00 0.0 0.00	27.850087695	0.00	0.00	Mostly_Cloudy(partly_cloudy)	True	False	0.00
2011-03-12 00:00:00 35825 0 0.00 0.00 0.00 0.0 0.00	27.850087695	0.00	0.00	Mostly_Cloudy(partly_cloudy)	True	False	0.00
2011-03-12 01:00:00 35826 1 0.00 0.00 0.00 0.0 0.00	27.850087695	0.00	0.00	Mostly_Cloudy(mostly_cloudy)	True	False	0.00
2011-03-12 02:00:00 35827 2 0.00 0.00 0.00 0.0 0.00	27.850087695	0.00	0.00	Mostly_Cloudy(partly_cloudy)	True	False	0.00
2011-03-12 03:00:00 35828 3 0.00 0.00 0.00 0.0 0.00	27.850087695	0.00	0.00	Mostly_Cloudy(mostly_cloudy)	True	False	0.00
2011-03-12 04:00:00 35829 4 0.00 0.00 0.00 0.0 0.00	27.850087695	0.00	0.00	Mostly_Cloudy(cloudy)	True	False	0.00
2011-03-12 05:00:00 35830 5 0.00 0.00 0.00 0.0 0.00	27.850087695	0.00	0.00	Mostly_Cloudy(cloudy)	True	False	0.00
2011-03-12 06:00:00 35831 6 19.33 19.33 19.33 0.6 27.30	70.8209525427	19.33	0.60	Partly_Cloudy(cloudy)	True	False	0.60
2011-03-12 07:00:00 35832 7 171.53 171.53 171.53 88.7 242.20	70.8209525427	171.53	88.70	Partly_Cloudy(cloudy)	True	False	88.70
2011-03-12 08:00:00 35833 8 430.52 430.52 430.52 581.6 607.90	70.8209525427	430.52	581.60	Partly_Cloudy(mostly_cloudy)	True	False	581.60
2011-03-12 09:00:00 35834 9 627.90 627.90 627.90 877.2 886.60	70.8209525427	627.90	877.20	Partly_Cloudy(sunny)	True	False	877.20
2011-03-12 10:00:00 35835 10 769.82 769.82 769.82 1048.4 1063.70	72.3714575833	769.82	1048.40	Partly_Cloudy(fair)	True	False	1048.40
2011-03-12 11:00:00 35836 11 832.05 832.05 832.05 948.1 1149.70	72.3714575833	832.05	948.10	Partly_Cloudy(sunny)	True	False	948.10
2011-03-12 12:00:00 35837 12 852.46 852.46 852.46 496.9 1177.90	72.3714575833	852.46	496.90	Partly_Cloudy(sunny)	True	False	496.90
2011-03-12 13:00:00 35838 13 846.96 846.96 846.96 517.8 1170.30	72.3714575833	846.96	517.80	Partly_Cloudy(partly_cloudy)	True	False	517.80
2011-03-12 14:00:00 35839 14 784.00 784.00 784.00 696.9 1083.30	72.3714575833	784.00	696.90	Partly_Cloudy(mostly_cloudy)	True	False	696.90
2011-03-12 15:00:00 35840 15 483.58 483.58 483.58 487.9 927.40	52.1436454708	483.58	487.90	Mostly_Cloudy(partly_cloudy)	True	False	487.90
2011-03-12 16:00:00 35841 16 190.52 190.52 190.52 292.2 684.10	27.850087695	190.52	292.20	Mostly_Cloudy(partly_cloudy)	True	False	292.20
2011-03-12 17:00:00 35842 17 97.20 97.20 97.20 40.1 349.00	27.850087695	97.20	40.10	Mostly_Cloudy(sunny)	True	False	40.10
2011-03-12 18:00:00 35843 18 47.66 47.66 47.66 0.0 67.30	70.8209525427	47.66	0.00	Partly_Cloudy(clear)	True	False	0.00
2011-03-12 19:00:00 35844 19 0.35 0.35 0.35 0.0 0.50	70.8209525427	0.35	0.00	Partly_Cloudy(clear)	True	False	0.00
2011-03-12 20:00:00 35845 20 0.00 0.00 0.00 0.0 0.00	70.8209525427	0.00	0.00	Partly_Cloudy(clear)	True	False	0.00
2011-03-12 21:00:00 35846 21 0.00 0.00 0.00 0.0 0.00	70.8209525427	0.00	0.00	Partly_Cloudy(clear)	True	False	0.00
2011-03-12 22:00:00 35847 22 0.00 0.00 0.00 0.0 0.00	70.8209525427	0.00	0.00	Partly_Cloudy(mostly_cloudy)	True	False	0.00
2011-03-12 23:00:00 35848 23 0.00 0.00 0.00 0.0 0.00	70.8209525427	0.00	0.00	Partly_Cloudy(partly_cloudy)	True	False	0.00
2011-03-13 00:00:00 35849 0 0.00 0.00 0.00 0.0 0.00	70.8209525427	0.00	0.00	Partly_Cloudy(rain_shower)	True	False	0.00
2011-03-13 01:00:00 35850 1 0.00 0.00 0.00 0.0 0.00	70.8209525427	0.00	0.00	Partly_Cloudy(clear)	True	False	0.00
2011-03-13 02:00:00 35851 2 0.00 0.00 0.00 0.0 0.00	70.8209525427	0.00	0.00	Partly_Cloudy(Unkown)	True	False	0.00
2011-03-13 03:00:00 35852 3 0.00 0.00 0.00 0.0 0.00	70.8209525427	0.00	0.00	Partly_Cloudy(clear)	True	False	0.00
