2011-03-14 11:00:00 39632 11 1021.60 1021.60 193.20 698.8 1149.70	16.8043837523	193.20	698.80	Cloudy(Unkown)	True	False	698.80
2011-03-14 12:00:00 39633 12 720.92 720.92 720.92 207.6 1186.10	73.8146644788	720.92	207.60	Partly_Cloudy(cloudy)	True	False	207.60
2011-03-14 13:00:00 39634 13 863.85 711.32 711.32 334.4 1170.30	73.8146644788	711.32	334.40	Partly_Cloudy(cloudy)	True	False	334.40
2011-03-14 14:00:00 39635 14 854.70 703.78 703.78 313.0 1157.90	73.8146644788	703.78	313.00	Partly_Cloudy(cloudy)	True	False	313.00
2011-03-14 15:00:00 39636 15 732.02 602.77 602.77 287.8 991.70	73.8146644788	602.77	287.80	Partly_Cloudy(cloudy)	True	False	287.80
2011-03-14 16:00:00 39637 16 472.49 415.80 415.80 118.1 684.10	69.0666891493	415.80	118.10	Partly_Cloudy(cloudy)	True	False	118.10
2011-03-14 17:00:00 39638 17 241.04 212.13 212.13 31.6 349.00	60.7810733235	212.13	31.60	Mostly_Sunny(cloudy)	False	False	31.60
2011-03-14 18:00:00 39639 18 60.23 53.00 53.00 0.0 87.20	60.7810733235	53.00	0.00	Mostly_Sunny(cloudy)	False	False	0.00
2011-03-14 19:00:00 39640 19 0.69 0.61 0.61 0.0 1.00	69.0666891493	0.61	0.00	Partly_Cloudy(partly_cloudy)	True	False	0.00
2011-03-14 20:00:00 39641 20 0.00 0.00 0.00 0.0 0.00	69.0666891493	0.00	0.00	Partly_Cloudy(mostly_cloudy)	True	False	0.00
2011-03-14 21:00:00 39642 21 0.00 0.00 0.00 0.0 0.00	69.0666891493	0.00	0.00	Partly_Cloudy(mostly_cloudy)	True	False	0.00
2011-03-14 22:00:00 39643 22 0.00 0.00 0.00 0.0 0.00	69.0666891493	0.00	0.00	Mostly_Clear(mostly_cloudy)	False	False	0.00
2011-03-14 23:00:00 39644 23 0.00 0.00 0.00 0.0 0.00	69.0666891493	0.00	0.00	Mostly_Clear(partly_cloudy)	False	False	0.00
2011-03-15 00:00:00 39645 0 0.00 0.00 0.00 0.0 0.00	69.0666891493	0.00	0.00	Mostly_Clear(clear)	False	False	0.00
2011-03-15 01:00:00 39646 1 0.00 0.00 0.00 0.0 0.00	85.36855904	0.00	0.00	Clear(clear)	True	False	0.00
2011-03-15 02:00:00 39647 2 0.00 0.00 0.00 0.0 0.00	85.36855904	0.00	0.00	Clear(clear)	True	False	0.00
2011-03-15 03:00:00 39648 3 0.00 0.00 0.00 0.0 0.00	85.36855904	0.00	0.00	Clear(clear)	True	False	0.00
2011-03-15 04:00:00 39649 4 0.00 0.00 0.00 0.0 0.00	85.36855904	0.00	0.00	Clear(clear)	True	False	0.00
2011-03-15 05:00:00 39650 5 0.00 0.00 0.00 0.0 0.00	85.36855904	0.00	0.00	Clear(clear)	True	False	0.00
2011-03-15 06:00:00 39651 6 23.31 23.31 23.31 0.0 27.30	85.36855904	23.31	0.00	Clear(clear)	True	False	0.00
2011-03-15 07:00:00 39652 7 206.76 206.76 206.76 50.2 242.20	85.36855904	206.76	50.20	Clear(sunny)	True	False	50.20
2011-03-15 08:00:00 39653 8 518.96 518.96 518.96 272.5 607.90	85.36855904	518.96	272.50	Sunny(sunny)	True	False	272.50
2011-03-15 09:00:00 39654 9 756.88 756.88 756.88 628.0 886.60	85.36855904	756.88	628.00	Sunny(sunny)	True	False	628.00
2011-03-15 10:00:00 39655 10 945.18 945.18 945.18 869.3 1063.70	88.8579629469	945.18	869.30	Sunny(sunny)	True	False	869.30
2011-03-15 11:00:00 39656 11 1021.60 1021.60 1021.60 1055.6 1149.70	88.8579629469	1021.60	1055.60	Sunny(sunny)	True	False	1055.60
2011-03-15 12:00:00 39657 12 1053.94 1053.94 1053.94 878.0 1186.10	88.8579629469	1053.94	878.00	Sunny(fair)	True	False	878.00
2011-03-15 13:00:00 39658 13 1039.90 1039.90 1039.90 1092.1 1170.30	88.8579629469	1039.90	1092.10	Sunny(sunny)	True	False	1092.10
2011-03-15 14:00:00 39659 14 1028.89 1028.89 1028.89 706.0 1157.90	88.8579629469	1028.89	706.00	Sunny(sunny)	True	False	706.00
2011-03-15 15:00:00 39660 15 881.20 881.20 881.20 423.7 991.70	88.8579629469	881.20	423.70	Sunny(sunny)	True	False	423.70
2011-03-15 16:00:00 39661 16 472.49 472.49 472.49 312.8 684.10	69.0666891493	472.49	312.80	Partly_Cloudy(partly_cloudy)	True	False	312.80
2011-03-15 17:00:00 39662 17 241.04 241.04 241.04 170.0 349.00	69.0666891493	241.04	170.00	Partly_Cloudy(mostly_cloudy)	True	False	170.00
2011-03-15 18:00:00 39663 18 60.23 60.23 60.23 33.1 87.20	69.0666891493	60.23	33.10	Partly_Cloudy(partly_cloudy)	True	False	33.10
2011-03-15 19:00:00 39664 19 0.28 0.28 0.28 0.0 1.00	27.9989636411	0.28	0.00	Mostly_Cloudy(partly_cloudy)	True	False	0.00
2011-03-15 20:00:00 39665 20 0.00 0.00 0.00 0.0 0.00	27.9989636411	0.00	0.00	Mostly_Cloudy(cloudy)	True	False	0.00
2011-03-15 21:00:00 39666 21 0.00 0.00 0.00 0.0 0.00	27.9989636411	0.00	0.00	Mostly_Cloudy(cloudy)	True	False	0.00
2011-03-15 22:00:00 39667 22 0.00 0.00 0.00 0.0 0.00	13.6410642098	0.00	0.00	Cloudy(cloudy)	True	False	0.00
2011-03-15 23:00:00 39668 23 0.00 0.00 0.00 0.0 0.00	13.6410642098	0.00	0.00	Cloudy(cloudy)	True	False	0.00
2011-03-16 00:00:00 39669 0 0.00 0.00 0.00 0.0 0.00	13.6410642098	0.00	0.00	Cloudy(cloudy)	True	False	0.00
2011-03-16 01:00:00 39670 1 0.00 0.00 0.00 0.0 0.00	6.25176271505	0.00	0.00	Few_Showers(cloudy)	True	False	0.00
2011-03-16 02:00:00 39671 2 0.00 0.00 0.00 0.0 0.00	6.25176271505	0.00	0.00	Few_Showers(cloudy)	True	False	0.00
2011-03-16 03:00:00 39672 3 0.00 0.00 0.00 0.0 0.00	6.25176271505	0.00	0.00	Few_Showers(light_rain)	True	False	0.00
2011-03-16 04:00:00 39673 4 0.00 0.00 0.00 0.0 0.00	4.48905932777	0.00	0.00	Rain(cloudy)	True	False	0.00
2011-03-16 05:00:00 39674 5 0.00 0.00 0.00 0.0 0.00	4.48905932777	0.00	0.00	Rain(light_rain)	True	False	0.00
2011-03-16 06:00:00 39675 6 1.23 1.23 1.23 0.0 27.30	4.48905932777	1.23	0.00	Rain(rain)	True	False	0.00
2011-03-16 07:00:00 39676 7 10.87 10.87 10.87 0.0 242.20	4.48905932777	10.87	0.00	Rain(rain)	True	False	0.00
2011-03-16 08:00:00 39677 8 27.29 27.29 27.29 11.2 607.90	4.48905932777	27.29	11.20	Rain(light_rain)	True	False	11.20
2011-03-16 09:00:00 39678 9 39.80 39.80 39.80 73.8 886.60	4.48905932777	39.80	73.80	Rain(light_rain)	True	False	73.80
2011-03-16 10:00:00 39679 10 178.75 178.75 178.75 166.5 1063.70	16.8043837523	178.75	166.50	Cloudy(fog)	True	False	166.50
2011-03-16 11:00:00 39680 11 193.20 193.20 193.20 329.7 1149.70	16.8043837523	193.20	329.70	Cloudy(cloudy)	True	False	329.70
