2011-03-29 05:00:00 56646 5 0.00 0.00 0.00 0.0 0.00	84.7358121331	0.00	0.00	Clear(Unkown)	True	False	0.00
2011-03-29 06:00:00 56647 6 7.97 7.97 7.97 0.4 9.40	84.7358121331	7.97	0.40	Clear(Unkown)	True	False	0.40
2011-03-29 07:00:00 56648 7 123.97 123.97 123.97 84.6 146.30	84.7358121331	123.97	84.60	Sunny(Unkown)	True	False	84.60
2011-03-29 08:00:00 56649 8 369.02 369.02 369.02 395.1 435.50	84.7358121331	369.02	395.10	Sunny(Unkown)	True	False	395.10
2011-03-29 09:00:00 56650 9 667.46 667.46 667.46 734.9 787.70	84.7358121331	667.46	734.90	Sunny(Unkown)	True	False	734.90
2011-03-29 10:00:00 56651 10 887.60 887.60 887.60 989.3 1006.40	88.1953183992	887.60	989.30	Sunny(Unkown)	True	False	989.30
2011-03-29 11:00:00 56652 11 1010.81 1010.81 1010.81 1141.7 1146.10	88.1953183992	1010.81	1141.70	Sunny(Unkown)	True	False	1141.70
2011-03-29 12:00:00 56653 12 1067.60 1067.60 1067.60 1215.4 1210.50	88.1953183992	1067.60	1215.40	Sunny(Unkown)	True	False	1215.40
2011-03-29 13:00:00 56654 13 1051.20 1051.20 1051.20 1203.4 1191.90	88.1953183992	1051.20	1203.40	Sunny(Unkown)	True	False	1203.40
2011-03-29 14:00:00 56655 14 1021.21 1021.21 1021.21 1116.1 1157.90	88.1953183992	1021.21	1116.10	Sunny(Unkown)	True	False	1116.10
2011-03-29 15:00:00 56656 15 874.63 874.63 874.63 963.9 991.70	88.1953183992	874.63	963.90	Sunny(Unkown)	True	False	963.90
2011-03-29 16:00:00 56657 16 606.20 606.20 606.20 714.2 715.40	84.7358121331	606.20	714.20	Sunny(Unkown)	True	False	714.20
2011-03-29 17:00:00 56658 17 332.59 332.59 332.59 376.8 392.50	84.7358121331	332.59	376.80	Sunny(sunny)	True	False	376.80
2011-03-29 18:00:00 56659 18 90.16 90.16 90.16 77.3 106.40	84.7358121331	90.16	77.30	Sunny(sunny)	True	False	77.30
2011-03-29 19:00:00 56660 19 6.02 6.02 6.02 1.0 7.10	84.7358121331	6.02	1.00	Sunny(sunny)	True	False	1.00
2011-03-29 20:00:00 56661 20 0.00 0.00 0.00 0.0 0.00	84.7358121331	0.00	0.00	Clear(clear)	True	False	0.00
2011-03-29 21:00:00 56662 21 0.00 0.00 0.00 0.0 0.00	84.7358121331	0.00	0.00	Clear(clear)	True	False	0.00
2011-03-29 22:00:00 56663 22 0.00 0.00 0.00 0.0 0.00	84.7358121331	0.00	0.00	Clear(clear)	True	False	0.00
2011-03-29 23:00:00 56664 23 0.00 0.00 0.00 0.0 0.00	84.7358121331	0.00	0.00	Clear(clear)	True	False	0.00
2011-03-30 00:00:00 56665 0 0.00 0.00 0.00 0.0 0.00	84.7358121331	0.00	0.00	Clear(clear)	True	False	0.00
2011-03-30 01:00:00 56666 1 0.00 0.00 0.00 0.0 0.00	84.7358121331	0.00	0.00	Clear(clear)	True	False	0.00
2011-03-30 02:00:00 56667 2 0.00 0.00 0.00 0.0 0.00	84.7358121331	0.00	0.00	Clear(fair)	True	False	0.00
2011-03-30 03:00:00 56668 3 0.00 0.00 0.00 0.0 0.00	84.7358121331	0.00	0.00	Clear(clear)	True	False	0.00
2011-03-30 04:00:00 56669 4 0.00 0.00 0.00 0.0 0.00	79.213036566	0.00	0.00	Partly_Cloudy(clear)	True	False	0.00
2011-03-30 05:00:00 56670 5 0.00 0.00 0.00 0.0 0.00	79.213036566	0.00	0.00	Partly_Cloudy(clear)	True	False	0.00
2011-03-30 06:00:00 56671 6 7.45 7.45 7.45 0.8 9.40	79.213036566	7.45	0.80	Partly_Cloudy(clear)	True	False	0.80
2011-03-30 07:00:00 56672 7 115.89 115.89 115.89 112.1 146.30	79.213036566	115.89	112.10	Mostly_Sunny(sunny)	False	False	112.10
2011-03-30 08:00:00 56673 8 344.97 344.97 344.97 374.5 435.50	79.213036566	344.97	374.50	Mostly_Sunny(sunny)	False	False	374.50
2011-03-30 09:00:00 56674 9 623.96 623.96 623.96 635.6 787.70	79.213036566	623.96	635.60	Mostly_Sunny(sunny)	False	False	635.60
2011-03-30 10:00:00 56675 10 855.17 855.17 855.17 861.2 1006.40	84.9727955782	855.17	861.20	Partly_Cloudy(fair)	True	False	861.20
2011-03-30 11:00:00 56676 11 973.87 973.87 973.87 936.0 1146.10	84.9727955782	973.87	936.00	Partly_Cloudy(partly_cloudy)	True	False	936.00
2011-03-30 12:00:00 56677 12 1028.60 1028.60 1028.60 924.7 1210.50	84.9727955782	1028.60	924.70	Partly_Cloudy(partly_cloudy)	True	False	924.70
2011-03-30 13:00:00 56678 13 431.40 431.40 431.40 717.4 1191.90	36.1943116033	431.40	717.40	Mostly_Cloudy(partly_cloudy)	True	False	717.40
2011-03-30 14:00:00 56679 14 419.09 419.09 419.09 679.1 1157.90	36.1943116033	419.09	679.10	Mostly_Cloudy(mostly_cloudy)	True	False	679.10
2011-03-30 15:00:00 56680 15 358.94 358.94 358.94 708.4 991.70	36.1943116033	358.94	708.40	Mostly_Cloudy(mostly_cloudy)	True	False	708.40
2011-03-30 16:00:00 56681 16 279.10 279.10 279.10 416.8 715.40	39.0126291619	279.10	416.80	Mostly_Cloudy(partly_cloudy)	True	False	416.80
2011-03-30 17:00:00 56682 17 153.12 153.12 153.12 92.4 392.50	39.0126291619	153.12	92.40	Mostly_Cloudy(partly_cloudy)	True	False	92.40
2011-03-30 18:00:00 56683 18 41.51 41.51 41.51 13.2 106.40	39.0126291619	41.51	13.20	Mostly_Cloudy(mostly_cloudy)	True	False	13.20
2011-03-30 19:00:00 56684 19 0.72 0.72 0.72 0.0 7.10	10.1441968337	0.72	0.00	Few_Showers(cloudy)	True	False	0.00
2011-03-30 20:00:00 56685 20 0.00 0.00 0.00 0.0 0.00	10.1441968337	0.00	0.00	Few_Showers(cloudy)	True	False	0.00
2011-03-30 21:00:00 56686 21 0.00 0.00 0.00 0.0 0.00	10.1441968337	0.00	0.00	Few_Showers(cloudy)	True	False	0.00
2011-03-30 22:00:00 56687 22 0.00 0.00 0.00 0.0 0.00	39.0126291619	0.00	0.00	Mostly_Cloudy(cloudy)	True	False	0.00
2011-03-30 23:00:00 56688 23 0.00 0.00 0.00 0.0 0.00	39.0126291619	0.00	0.00	Mostly_Cloudy(cloudy)	True	False	0.00
2011-03-31 00:00:00 56689 0 0.00 0.00 0.00 0.0 0.00	39.0126291619	0.00	0.00	Mostly_Cloudy(light_rain)	True	False	0.00
2011-03-31 01:00:00 56690 1 0.00 0.00 0.00 0.0 0.00	39.0126291619	0.00	0.00	Mostly_Cloudy(cloudy)	True	False	0.00
2011-03-31 02:00:00 56691 2 0.00 0.00 0.00 0.0 0.00	39.0126291619	0.00	0.00	Mostly_Cloudy(cloudy)	True	False	0.00
2011-03-31 03:00:00 56692 3 0.00 0.00 0.00 0.0 0.00	39.0126291619	0.00	0.00	Mostly_Cloudy(cloudy)	True	False	0.00
2011-03-31 04:00:00 56693 4 0.00 0.00 0.00 0.0 0.00	79.213036566	0.00	0.00	Partly_Cloudy(cloudy)	True	False	0.00
2011-03-31 05:00:00 56694 5 0.00 0.00 0.00 0.0 0.00	79.213036566	0.00	0.00	Partly_Cloudy(cloudy)	True	False	0.00
