2011-03-03 18:00:00 27339 18 49.61 49.61 49.61 0.0 52.20	87.4067002257	49.61	0.00	Clear(fair)	True	False	0.00
2011-03-03 19:00:00 27340 19 0.00 0.00 0.00 0.0 0.10	87.4067002257	0.00	0.00	Clear(fair)	True	False	0.00
2011-03-03 20:00:00 27341 20 0.00 0.00 0.00 0.0 0.00	0.0	0.00	0.00	Mostly_Clear(fair)	False	False	0.00
2011-03-03 21:00:00 27342 21 0.00 0.00 0.00 0.0 0.00	71.3923098618	0.00	0.00	Partly_Cloudy(fair)	True	False	0.00
2011-03-03 22:00:00 27343 22 0.00 0.00 0.00 0.0 0.00	71.3923098618	0.00	0.00	Partly_Cloudy(fair)	True	False	0.00
2011-03-03 23:00:00 27344 23 0.00 0.00 0.00 0.0 0.00	71.3923098618	0.00	0.00	Partly_Cloudy(fair)	True	False	0.00
2011-03-04 00:00:00 27345 0 0.00 0.00 0.00 0.0 0.00	71.3923098618	0.00	0.00	Partly_Cloudy(fair)	True	False	0.00
2011-03-04 01:00:00 27346 1 0.00 0.00 0.00 0.0 0.00	71.3923098618	0.00	0.00	Partly_Cloudy(fair)	True	False	0.00
2011-03-04 02:00:00 27347 2 0.00 0.00 0.00 0.0 0.00	71.3923098618	0.00	0.00	Partly_Cloudy(fair)	True	False	0.00
2011-03-04 03:00:00 27348 3 0.00 0.00 0.00 0.0 0.00	19.0409026798	0.00	0.00	Mostly_Cloudy(fair)	True	False	0.00
2011-03-04 04:00:00 27349 4 0.00 0.00 0.00 0.0 0.00	19.0409026798	0.00	0.00	Mostly_Cloudy(fair)	True	False	0.00
2011-03-04 05:00:00 27350 5 0.00 0.00 0.00 0.0 0.00	19.0409026798	0.00	0.00	Mostly_Cloudy(fair)	True	False	0.00
2011-03-04 06:00:00 27351 6 5.20 5.20 5.20 8.8 27.30	19.0409026798	5.20	8.80	Mostly_Cloudy(fair)	True	False	8.80
2011-03-04 07:00:00 27352 7 46.12 46.12 46.12 160.0 242.20	19.0409026798	46.12	160.00	Mostly_Cloudy(fair)	True	False	160.00
2011-03-04 08:00:00 27353 8 115.75 115.75 115.75 410.0 607.90	19.0409026798	115.75	410.00	Mostly_Cloudy(fair)	True	False	410.00
2011-03-04 09:00:00 27354 9 148.99 148.99 148.99 748.1 886.60	16.8043837523	148.99	748.10	Cloudy(fair)	True	False	748.10
2011-03-04 10:00:00 27355 10 214.30 214.30 214.30 1019.2 1063.70	20.1466578923	214.30	1019.20	Cloudy(fair)	True	False	1019.20
2011-03-04 11:00:00 27356 11 231.63 231.63 231.63 964.7 1149.70	20.1466578923	231.63	964.70	Cloudy(fair)	True	False	964.70
2011-03-04 12:00:00 27357 12 231.77 231.77 231.77 1068.1 1150.40	20.1466578923	231.77	1068.10	Cloudy(fair)	True	False	1068.10
2011-03-04 13:00:00 27358 13 232.13 232.13 232.13 999.6 1152.20	20.1466578923	232.13	999.60	Cloudy(fair)	True	False	999.60
2011-03-04 14:00:00 27359 14 214.26 214.26 214.26 849.5 1063.50	20.1466578923	214.26	849.50	Cloudy(fair)	True	False	849.50
2011-03-04 15:00:00 27360 15 660.67 660.67 660.67 568.2 911.10	72.5139082058	660.67	568.20	Partly_Cloudy(fair)	True	False	568.20
2011-03-04 16:00:00 27361 16 473.62 473.62 473.62 216.4 663.40	71.3923098618	473.62	216.40	Partly_Cloudy(fair)	True	False	216.40
2011-03-04 17:00:00 27362 17 234.88 234.88 234.88 17.4 329.00	71.3923098618	234.88	17.40	Partly_Cloudy(fair)	True	False	17.40
2011-03-04 18:00:00 27363 18 9.94 9.94 9.94 0.0 52.20	19.0409026798	9.94	0.00	Mostly_Cloudy(fair)	True	False	0.00
2011-03-04 19:00:00 27364 19 0.02 0.02 0.02 0.0 0.10	19.0409026798	0.02	0.00	Mostly_Cloudy(fair)	True	False	0.00
2011-03-04 20:00:00 27365 20 0.00 0.00 0.00 0.0 0.00	19.0409026798	0.00	0.00	Mostly_Cloudy(cloudy)	True	False	0.00
2011-03-04 21:00:00 27366 21 0.00 0.00 0.00 0.0 0.00	16.8043837523	0.00	0.00	Cloudy(cloudy)	True	False	0.00
2011-03-04 22:00:00 27367 22 0.00 0.00 0.00 0.0 0.00	16.8043837523	0.00	0.00	Cloudy(cloudy)	True	False	0.00
2011-03-04 23:00:00 27368 23 0.00 0.00 0.00 0.0 0.00	16.8043837523	0.00	0.00	Cloudy(cloudy)	True	False	0.00
2011-03-05 00:00:00 27369 0 0.00 0.00 0.00 0.0 0.00	16.8043837523	0.00	0.00	Cloudy(cloudy)	True	False	0.00
2011-03-05 01:00:00 27370 1 0.00 0.00 0.00 0.0 0.00	16.8043837523	0.00	0.00	Cloudy(cloudy)	True	False	0.00
2011-03-05 02:00:00 27371 2 0.00 0.00 0.00 0.0 0.00	16.8043837523	0.00	0.00	Cloudy(Unkown)	True	False	0.00
2011-03-05 03:00:00 27372 3 0.00 0.00 0.00 0.0 0.00	19.0409026798	0.00	0.00	Mostly_Cloudy(Unkown)	True	False	0.00
2011-03-05 04:00:00 27373 4 0.00 0.00 0.00 0.0 0.00	19.0409026798	0.00	0.00	Mostly_Cloudy(cloudy)	True	False	0.00
2011-03-05 05:00:00 27374 5 0.00 0.00 0.00 0.0 0.00	19.0409026798	0.00	0.00	Mostly_Cloudy(light_rain)	True	False	0.00
2011-03-05 06:00:00 27375 6 5.20 5.20 5.20 0.0 27.30	19.0409026798	5.20	0.00	Mostly_Cloudy(cloudy)	True	False	0.00
2011-03-05 07:00:00 27376 7 46.12 46.12 46.12 31.0 242.20	19.0409026798	46.12	31.00	Mostly_Cloudy(cloudy)	True	False	31.00
2011-03-05 08:00:00 27377 8 115.75 115.75 115.75 253.4 607.90	19.0409026798	115.75	253.40	Mostly_Cloudy(cloudy)	True	False	253.40
2011-03-05 09:00:00 27378 9 148.99 148.99 148.99 747.8 886.60	16.8043837523	148.99	747.80	Cloudy(cloudy)	True	False	747.80
2011-03-05 10:00:00 27379 10 214.30 214.30 214.30 974.6 1063.70	20.1466578923	214.30	974.60	Cloudy(mostly_cloudy)	True	False	974.60
2011-03-05 11:00:00 27380 11 231.63 231.63 231.63 880.7 1149.70	20.1466578923	231.63	880.70	Cloudy(partly_cloudy)	True	False	880.70
2011-03-05 12:00:00 27381 12 58.91 58.91 58.91 529.8 1150.40	5.12063877799	58.91	529.80	Few_Showers(cloudy)	True	False	529.80
2011-03-05 13:00:00 27382 13 59.00 59.00 59.00 493.3 1152.20	5.12063877799	59.00	493.30	Few_Showers(cloudy)	True	False	493.30
2011-03-05 14:00:00 27383 14 54.46 54.46 54.46 269.5 1063.50	5.12063877799	54.46	269.50	Few_Showers(mostly_cloudy)	True	False	269.50
2011-03-05 15:00:00 27384 15 46.65 46.65 46.65 267.4 911.10	5.12063877799	46.65	267.40	Few_Showers(cloudy)	True	False	267.40
2011-03-05 16:00:00 27385 16 37.04 37.04 37.04 73.6 663.40	5.58312655087	37.04	73.60	Few_Showers(cloudy)	True	False	73.60
2011-03-05 17:00:00 27386 17 18.37 18.37 18.37 4.0 329.00	5.58312655087	18.37	4.00	Few_Showers(cloudy)	True	False	4.00
2011-03-05 18:00:00 27387 18 8.77 8.77 8.77 0.0 52.20	16.8043837523	8.77	0.00	Cloudy(cloudy)	True	False	0.00
