2011-03-17 13:00:00 43112 13 1039.90 1039.90 1039.90 1102.3 1170.30	88.8579629469	1039.90	1102.30	Sunny(sunny)	True	False	1102.30
2011-03-17 14:00:00 43113 14 1028.89 1028.89 1028.89 1009.9 1157.90	88.8579629469	1028.89	1009.90	Sunny(sunny)	True	False	1009.90
2011-03-17 15:00:00 43114 15 881.20 881.20 881.20 870.9 991.70	88.8579629469	881.20	870.90	Sunny(sunny)	True	False	870.90
2011-03-17 16:00:00 43115 16 607.88 607.88 607.88 632.5 684.10	88.8579629469	607.88	632.50	Mostly_Sunny(sunny)	False	False	632.50
2011-03-17 17:00:00 43116 17 236.30 236.30 236.30 302.6 349.00	67.7087831419	236.30	302.60	Partly_Cloudy(sunny)	True	False	302.60
2011-03-17 18:00:00 43117 18 59.04 59.04 59.04 59.7 87.20	67.7087831419	59.04	59.70	Partly_Cloudy(sunny)	True	False	59.70
2011-03-17 19:00:00 43118 19 0.74 0.74 0.74 0.0 1.10	67.7087831419	0.74	0.00	Mostly_Sunny(sunny)	False	False	0.00
2011-03-17 20:00:00 43119 20 0.00 0.00 0.00 0.0 0.00	67.7087831419	0.00	0.00	Mostly_Clear(clear)	False	False	0.00
2011-03-17 21:00:00 43120 21 0.00 0.00 0.00 0.0 0.00	67.7087831419	0.00	0.00	Mostly_Clear(clear)	False	False	0.00
2011-03-17 22:00:00 43121 22 0.00 0.00 0.00 0.0 0.00	67.7087831419	0.00	0.00	Partly_Cloudy(partly_cloudy)	True	False	0.00
2011-03-17 23:00:00 43122 23 0.00 0.00 0.00 0.0 0.00	67.7087831419	0.00	0.00	Partly_Cloudy(mostly_cloudy)	True	False	0.00
2011-03-18 00:00:00 43123 0 0.00 0.00 0.00 0.0 0.00	67.7087831419	0.00	0.00	Partly_Cloudy(mostly_cloudy)	True	False	0.00
2011-03-18 01:00:00 43124 1 0.00 0.00 0.00 0.0 0.00	67.7087831419	0.00	0.00	Partly_Cloudy(partly_cloudy)	True	False	0.00
2011-03-18 02:00:00 43125 2 0.00 0.00 0.00 0.0 0.00	67.7087831419	0.00	0.00	Partly_Cloudy(clear)	True	False	0.00
2011-03-18 03:00:00 43126 3 0.00 0.00 0.00 0.0 0.00	67.7087831419	0.00	0.00	Partly_Cloudy(clear)	True	False	0.00
2011-03-18 04:00:00 43127 4 0.00 0.00 0.00 0.0 0.00	67.7087831419	0.00	0.00	Partly_Cloudy(partly_cloudy)	True	False	0.00
2011-03-18 05:00:00 43128 5 0.00 0.00 0.00 0.0 0.00	67.7087831419	0.00	0.00	Partly_Cloudy(fair)	True	False	0.00
2011-03-18 06:00:00 43129 6 18.48 18.48 18.48 0.0 27.30	67.7087831419	18.48	0.00	Partly_Cloudy(fair)	True	False	0.00
2011-03-18 07:00:00 43130 7 163.99 163.99 163.99 35.7 242.20	67.7087831419	163.99	35.70	Partly_Cloudy(partly_cloudy)	True	False	35.70
2011-03-18 08:00:00 43131 8 411.60 411.60 411.60 251.6 607.90	67.7087831419	411.60	251.60	Partly_Cloudy(sunny)	True	False	251.60
2011-03-18 09:00:00 43132 9 600.31 600.31 600.31 464.4 886.60	67.7087831419	600.31	464.40	Partly_Cloudy(sunny)	True	False	464.40
2011-03-18 10:00:00 43133 10 734.66 734.66 734.66 780.7 1063.70	69.0666891493	734.66	780.70	Partly_Cloudy(sunny)	True	False	780.70
2011-03-18 11:00:00 43134 11 794.06 794.06 794.06 809.1 1149.70	69.0666891493	794.06	809.10	Partly_Cloudy(sunny)	True	False	809.10
2011-03-18 12:00:00 43135 12 819.20 819.20 819.20 1010.7 1186.10	69.0666891493	819.20	1010.70	Partly_Cloudy(sunny)	True	False	1010.70
2011-03-18 13:00:00 43136 13 808.29 808.29 808.29 987.7 1170.30	69.0666891493	808.29	987.70	Partly_Cloudy(fair)	True	False	987.70
2011-03-18 14:00:00 43137 14 799.72 799.72 799.72 982.1 1157.90	69.0666891493	799.72	982.10	Partly_Cloudy(partly_cloudy)	True	False	982.10
2011-03-18 15:00:00 43138 15 684.93 684.93 684.93 807.4 991.70	69.0666891493	684.93	807.40	Partly_Cloudy(sunny)	True	False	807.40
2011-03-18 16:00:00 43139 16 585.30 585.30 585.30 503.2 684.10	85.5576670077	585.30	503.20	Sunny(fair)	True	False	503.20
2011-03-18 17:00:00 43140 17 298.60 298.60 298.60 221.1 349.00	85.5576670077	298.60	221.10	Sunny(fair)	True	False	221.10
2011-03-18 18:00:00 43141 18 74.61 74.61 74.61 43.3 87.20	85.5576670077	74.61	43.30	Sunny(fair)	True	False	43.30
2011-03-18 19:00:00 43142 19 0.94 0.94 0.94 0.1 1.10	85.5576670077	0.94	0.10	Sunny(fair)	True	False	0.10
2011-03-18 20:00:00 43143 20 0.00 0.00 0.00 0.0 0.00	85.5576670077	0.00	0.00	Clear(fair)	True	False	0.00
2011-03-18 21:00:00 43144 21 0.00 0.00 0.00 0.0 0.00	85.5576670077	0.00	0.00	Clear(fair)	True	False	0.00
2011-03-18 22:00:00 43145 22 0.00 0.00 0.00 0.0 0.00	85.5576670077	0.00	0.00	Clear(fair)	True	False	0.00
2011-03-18 23:00:00 43146 23 0.00 0.00 0.00 0.0 0.00	85.5576670077	0.00	0.00	Clear(mostly_cloudy)	True	False	0.00
2011-03-19 00:00:00 43147 0 0.00 0.00 0.00 0.0 0.00	85.5576670077	0.00	0.00	Clear(cloudy)	True	False	0.00
2011-03-19 01:00:00 43148 1 0.00 0.00 0.00 0.0 0.00	67.7087831419	0.00	0.00	Partly_Cloudy(cloudy)	True	False	0.00
2011-03-19 02:00:00 43149 2 0.00 0.00 0.00 0.0 0.00	67.7087831419	0.00	0.00	Partly_Cloudy(cloudy)	True	False	0.00
2011-03-19 03:00:00 43150 3 0.00 0.00 0.00 0.0 0.00	67.7087831419	0.00	0.00	Partly_Cloudy(mostly_cloudy)	True	False	0.00
2011-03-19 04:00:00 43151 4 0.00 0.00 0.00 0.0 0.00	29.1659812469	0.00	0.00	Mostly_Cloudy(mostly_cloudy)	True	False	0.00
2011-03-19 05:00:00 43152 5 0.00 0.00 0.00 0.0 0.00	29.1659812469	0.00	0.00	Mostly_Cloudy(partly_cloudy)	True	False	0.00
2011-03-19 06:00:00 43153 6 7.96 7.96 7.96 0.0 27.30	29.1659812469	7.96	0.00	Mostly_Cloudy(partly_cloudy)	True	False	0.00
2011-03-19 07:00:00 43154 7 21.08 21.08 21.08 36.1 242.20	8.70541497539	21.08	36.10	Few_Showers(partly_cloudy)	True	False	36.10
2011-03-19 08:00:00 43155 8 52.92 52.92 52.92 313.9 607.90	8.70541497539	52.92	313.90	Few_Showers(sunny)	True	False	313.90
2011-03-19 09:00:00 43156 9 77.18 77.18 77.18 664.8 886.60	8.70541497539	77.18	664.80	Few_Showers(sunny)	True	False	664.80
2011-03-19 10:00:00 43157 10 43.67 43.67 43.67 924.7 1063.70	4.10541880491	43.67	924.70	Showers(fair)	True	False	924.70
2011-03-19 11:00:00 43158 11 47.20 47.20 47.20 1080.9 1149.70	4.10541880491	47.20	1080.90	Showers(sunny)	True	False	1080.90
2011-03-19 12:00:00 43159 12 48.69 48.69 48.69 1141.6 1186.10	4.10541880491	48.69	1141.60	Showers(partly_cloudy)	True	False	1141.60
2011-03-19 13:00:00 43160 13 48.05 48.05 48.05 1126.5 1170.30	4.10541880491	48.05	1126.50	Showers(partly_cloudy)	True	False	1126.50
