2011-02-18 22:00:00 12642 22 0.00 0.00 0.00 0.0 0.00	63.8808280132	0.00	0.00	Clear(fair)	True	False	0.00
2011-02-18 23:00:00 12643 23 0.00 0.00 0.00 0.0 0.00	63.8808280132	0.00	0.00	Clear(fair)	True	False	0.00
2011-02-19 00:00:00 12644 0 0.00 0.00 0.00 0.0 0.00	63.8808280132	0.00	0.00	Clear(fair)	True	False	0.00
2011-02-19 01:00:00 12645 1 0.00 0.00 0.00 0.0 0.00	63.8808280132	0.00	0.00	Clear(fair)	True	False	0.00
2011-02-19 02:00:00 12646 2 0.00 0.00 0.00 0.0 0.00	63.8808280132	0.00	0.00	Clear(clear)	True	False	0.00
2011-02-19 03:00:00 12647 3 0.00 0.00 0.00 0.0 0.00	63.8808280132	0.00	0.00	Clear(fair)	True	False	0.00
2011-02-19 04:00:00 12648 4 0.00 0.00 0.00 0.0 0.00	63.8808280132	0.00	0.00	Clear(fair)	True	False	0.00
2011-02-19 05:00:00 12649 5 0.00 0.00 0.00 0.0 0.00	63.8808280132	0.00	0.00	Clear(clear)	True	False	0.00
2011-02-19 06:00:00 12650 6 6.13 6.13 6.13 0.1 9.60	63.8808280132	6.13	0.10	Clear(fair)	True	False	0.10
2011-02-19 07:00:00 12651 7 128.27 128.27 128.27 132.9 200.80	63.8808280132	128.27	132.90	Sunny(fair)	True	False	132.90
2011-02-19 08:00:00 12652 8 356.07 356.07 356.07 486.6 557.40	63.8808280132	356.07	486.60	Sunny(partly_cloudy)	True	False	486.60
2011-02-19 09:00:00 12653 9 541.00 541.00 541.00 726.9 807.60	66.9886082219	541.00	726.90	Partly_Cloudy_/_Wind(partly_cloudy)	True	False	726.90
2011-02-19 10:00:00 12654 10 778.72 778.72 778.72 628.7 1054.10	73.8753099539	778.72	628.70	Partly_Cloudy_/_Wind(partly_cloudy)	True	False	628.70
2011-02-19 11:00:00 12655 11 842.62 842.62 842.62 614.6 1140.60	73.8753099539	842.62	614.60	Partly_Cloudy_/_Wind(cloudy_and_windy)	True	False	614.60
2011-02-19 12:00:00 12656 12 267.54 267.54 267.54 717.1 1129.20	23.6925236925	267.54	717.10	Mostly_Cloudy_/_Wind(cloudy_and_windy)	True	False	717.10
2011-02-19 13:00:00 12657 13 244.93 244.93 244.93 577.3 1033.80	23.6925236925	244.93	577.30	Mostly_Cloudy_/_Wind(cloudy_and_windy)	True	False	577.30
2011-02-19 14:00:00 12658 14 202.50 202.50 202.50 467.3 854.70	23.6925236925	202.50	467.30	Mostly_Cloudy_/_Wind(mostly_cloudy_and_windy)	True	False	467.30
2011-02-19 15:00:00 12659 15 147.94 147.94 147.94 203.6 624.40	23.6925236925	147.94	203.60	Mostly_Cloudy_/_Wind(mostly_cloudy)	True	False	203.60
2011-02-19 16:00:00 12660 16 50.89 50.89 50.89 64.1 275.90	18.4464317026	50.89	64.10	Mostly_Cloudy_/_Wind(mostly_cloudy_and_windy)	True	False	64.10
2011-02-19 17:00:00 12661 17 5.46 5.46 5.46 6.0 29.60	18.4464317026	5.46	6.00	Mostly_Cloudy_/_Wind(cloudy_and_windy)	True	False	6.00
2011-02-19 18:00:00 12662 18 0.00 0.00 0.00 0.0 0.00	18.4464317026	0.00	0.00	Mostly_Cloudy_/_Wind(cloudy)	True	False	0.00
2011-02-19 19:00:00 12663 19 0.00 0.00 0.00 0.0 0.00	18.4464317026	0.00	0.00	Mostly_Cloudy_/_Wind(cloudy_and_windy)	True	False	0.00
2011-02-19 20:00:00 12664 20 0.00 0.00 0.00 0.0 0.00	18.4464317026	0.00	0.00	Mostly_Cloudy_/_Wind(cloudy)	True	False	0.00
2011-02-19 21:00:00 12665 21 0.00 0.00 0.00 0.0 0.00	66.9886082219	0.00	0.00	Partly_Cloudy_/_Wind(cloudy)	True	False	0.00
2011-02-19 22:00:00 12666 22 0.00 0.00 0.00 0.0 0.00	66.9886082219	0.00	0.00	Partly_Cloudy_/_Wind(cloudy_and_windy)	True	False	0.00
2011-02-19 23:00:00 12667 23 0.00 0.00 0.00 0.0 0.00	66.9886082219	0.00	0.00	Partly_Cloudy_/_Wind(fair)	True	False	0.00
2011-02-20 00:00:00 12668 0 0.00 0.00 0.00 0.0 0.00	66.9886082219	0.00	0.00	Partly_Cloudy(cloudy_and_windy)	True	False	0.00
2011-02-20 01:00:00 12669 1 0.00 0.00 0.00 0.0 0.00	66.9886082219	0.00	0.00	Partly_Cloudy(mostly_cloudy_and_windy)	True	False	0.00
2011-02-20 02:00:00 12670 2 0.00 0.00 0.00 0.0 0.00	66.9886082219	0.00	0.00	Partly_Cloudy(mostly_cloudy_and_windy)	True	False	0.00
2011-02-20 03:00:00 12671 3 0.00 0.00 0.00 0.0 0.00	63.8808280132	0.00	0.00	Clear(fair)	True	False	0.00
2011-02-20 04:00:00 12672 4 0.00 0.00 0.00 0.0 0.00	63.8808280132	0.00	0.00	Clear(fair)	True	False	0.00
2011-02-20 05:00:00 12673 5 0.00 0.00 0.00 0.0 0.00	63.8808280132	0.00	0.00	Clear(fair)	True	False	0.00
2011-02-20 06:00:00 12674 6 6.13 6.13 6.13 1.4 9.60	63.8808280132	6.13	1.40	Clear(fair)	True	False	1.40
2011-02-20 07:00:00 12675 7 128.27 128.27 128.27 147.1 200.80	63.8808280132	128.27	147.10	Sunny(fair)	True	False	147.10
2011-02-20 08:00:00 12676 8 356.07 356.07 356.07 522.3 557.40	63.8808280132	356.07	522.30	Sunny(fair)	True	False	522.30
2011-02-20 09:00:00 12677 9 515.90 515.90 515.90 808.3 807.60	63.8808280132	515.90	808.30	Sunny(fair)	True	False	808.30
2011-02-20 10:00:00 12678 10 703.35 703.35 703.35 969.8 1054.10	66.7251667252	703.35	969.80	Sunny(fair)	True	False	969.80
2011-02-20 11:00:00 12679 11 761.07 761.07 761.07 1044.4 1140.60	66.7251667252	761.07	1044.40	Sunny(fair)	True	False	1044.40
2011-02-20 12:00:00 12680 12 753.46 753.46 753.46 1023.0 1129.20	66.7251667252	753.46	1023.00	Sunny(fair)	True	False	1023.00
2011-02-20 13:00:00 12681 13 689.80 689.80 689.80 998.1 1033.80	66.7251667252	689.80	998.10	Sunny(fair)	True	False	998.10
2011-02-20 14:00:00 12682 14 570.30 570.30 570.30 846.9 854.70	66.7251667252	570.30	846.90	Sunny(fair)	True	False	846.90
2011-02-20 15:00:00 12683 15 416.63 416.63 416.63 565.0 624.40	66.7251667252	416.63	565.00	Sunny(fair)	True	False	565.00
2011-02-20 16:00:00 12684 16 176.25 176.25 176.25 164.0 275.90	63.8808280132	176.25	164.00	Sunny(fair)	True	False	164.00
2011-02-20 17:00:00 12685 17 18.91 18.91 18.91 11.6 29.60	63.8808280132	18.91	11.60	Sunny(fair)	True	False	11.60
2011-02-20 18:00:00 12686 18 0.00 0.00 0.00 0.0 0.00	23.3279574993	0.00	0.00	Cloudy(fair)	True	False	0.00
2011-02-20 19:00:00 12687 19 0.00 0.00 0.00 0.0 0.00	23.3279574993	0.00	0.00	Cloudy(fair)	True	False	0.00
2011-02-20 20:00:00 12688 20 0.00 0.00 0.00 0.0 0.00	23.3279574993	0.00	0.00	Cloudy(mostly_cloudy)	True	False	0.00
2011-02-20 21:00:00 12689 21 0.00 0.00 0.00 0.0 0.00	0.368227248816	0.00	0.00	Snow_Shower(mostly_cloudy)	True	False	0.00
2011-02-20 22:00:00 12690 22 0.00 0.00 0.00 0.0 0.00	0.368227248816	0.00	0.00	Snow_Shower(cloudy)	True	False	0.00
