2011-02-20 06:00:00 14166 6 9.91 9.91 9.91 1.4 15.60	63.5471815634	9.91	1.40	Clear(fair)	True	False	1.40
2011-02-20 07:00:00 14167 7 153.91 153.91 153.91 147.1 242.20	63.5471815634	153.91	147.10	Sunny(fair)	True	False	147.10
2011-02-20 08:00:00 14168 8 386.30 386.30 386.30 522.3 607.90	63.5471815634	386.30	522.30	Sunny(fair)	True	False	522.30
2011-02-20 09:00:00 14169 9 563.41 563.41 563.41 808.3 886.60	63.5471815634	563.41	808.30	Mostly_Sunny(fair)	False	False	808.30
2011-02-20 10:00:00 14170 10 790.86 790.86 790.86 969.8 1063.70	74.3498303905	790.86	969.80	Partly_Cloudy(fair)	True	False	969.80
2011-02-20 11:00:00 14171 11 854.80 854.80 854.80 1044.4 1149.70	74.3498303905	854.80	1044.40	Partly_Cloudy(fair)	True	False	1044.40
2011-02-20 12:00:00 14172 12 850.26 850.26 850.26 1023.0 1143.60	74.3498303905	850.26	1023.00	Mostly_Sunny(fair)	False	False	1023.00
2011-02-20 13:00:00 14173 13 771.60 771.60 771.60 998.1 1037.80	74.3498303905	771.60	998.10	Mostly_Sunny(fair)	False	False	998.10
2011-02-20 14:00:00 14174 14 662.75 662.75 662.75 846.9 891.40	74.3498303905	662.75	846.90	Mostly_Sunny(fair)	False	False	846.90
2011-02-20 15:00:00 14175 15 477.47 477.47 477.47 565.0 642.20	74.3498303905	477.47	565.00	Partly_Cloudy(fair)	True	False	565.00
2011-02-20 16:00:00 14176 16 205.92 205.92 205.92 164.0 302.00	68.1848777204	205.92	164.00	Partly_Cloudy(fair)	True	False	164.00
2011-02-20 17:00:00 14177 17 21.00 21.00 21.00 11.6 30.80	68.1848777204	21.00	11.60	Partly_Cloudy(fair)	True	False	11.60
2011-02-20 18:00:00 14178 18 0.00 0.00 0.00 0.0 0.00	20.5391382811	0.00	0.00	Mostly_Cloudy(fair)	True	False	0.00
2011-02-20 19:00:00 14179 19 0.00 0.00 0.00 0.0 0.00	20.5391382811	0.00	0.00	Mostly_Cloudy(fair)	True	False	0.00
2011-02-20 20:00:00 14180 20 0.00 0.00 0.00 0.0 0.00	20.5391382811	0.00	0.00	Mostly_Cloudy(mostly_cloudy)	True	False	0.00
2011-02-20 21:00:00 14181 21 0.00 0.00 0.00 0.0 0.00	0.645596454037	0.00	0.00	Few_Snow_Showers(mostly_cloudy)	True	False	0.00
2011-02-20 22:00:00 14182 22 0.00 0.00 0.00 0.0 0.00	0.645596454037	0.00	0.00	Few_Snow_Showers(cloudy)	True	False	0.00
2011-02-20 23:00:00 14183 23 0.00 0.00 0.00 0.0 0.00	0.645596454037	0.00	0.00	Few_Snow_Showers(cloudy)	True	False	0.00
2011-02-21 00:00:00 14184 0 0.00 0.00 0.00 0.0 0.00	0.365312690267	0.00	0.00	Snow(cloudy)	True	False	0.00
2011-02-21 01:00:00 14185 1 0.00 0.00 0.00 0.0 0.00	0.365312690267	0.00	0.00	Snow(light_snow)	True	False	0.00
2011-02-21 02:00:00 14186 2 0.00 0.00 0.00 0.0 0.00	0.365312690267	0.00	0.00	Snow(light_snow)	True	False	0.00
2011-02-21 03:00:00 14187 3 0.00 0.00 0.00 0.0 0.00	9.53757225434	0.00	0.00	Wintry_Mix(snow)	True	False	0.00
2011-02-21 04:00:00 14188 4 0.00 0.00 0.00 0.0 0.00	9.53757225434	0.00	0.00	Wintry_Mix(snow)	True	False	0.00
2011-02-21 05:00:00 14189 5 0.00 0.00 0.00 0.0 0.00	9.53757225434	0.00	0.00	Wintry_Mix(light_snow)	True	False	0.00
2011-02-21 06:00:00 14190 6 1.49 1.49 1.49 0.0 15.60	9.53757225434	1.49	0.00	Rain(light_snow)	True	False	0.00
2011-02-21 07:00:00 14191 7 23.10 23.10 23.10 0.0 242.20	9.53757225434	23.10	0.00	Rain(light_snow)	True	False	0.00
2011-02-21 08:00:00 14192 8 57.98 57.98 57.98 1.3 607.90	9.53757225434	57.98	1.30	Rain(cloudy)	True	False	1.30
2011-02-21 09:00:00 14193 9 84.56 84.56 84.56 13.3 886.60	9.53757225434	84.56	13.30	Showers(light_snow)	True	False	13.30
2011-02-21 10:00:00 14194 10 104.18 104.18 104.18 29.3 1063.70	9.79385926764	104.18	29.30	Showers(cloudy)	True	False	29.30
2011-02-21 11:00:00 14195 11 112.60 112.60 112.60 43.0 1149.70	9.79385926764	112.60	43.00	Showers(cloudy)	True	False	43.00
2011-02-21 12:00:00 14196 12 74.72 74.72 74.72 47.2 1143.60	6.53379712325	74.72	47.20	Few_Showers(cloudy)	True	False	47.20
2011-02-21 13:00:00 14197 13 67.81 67.81 67.81 74.1 1037.80	6.53379712325	67.81	74.10	Few_Showers(cloudy)	True	False	74.10
2011-02-21 14:00:00 14198 14 58.24 58.24 58.24 101.9 891.40	6.53379712325	58.24	101.90	Few_Showers(mostly_cloudy)	True	False	101.90
2011-02-21 15:00:00 14199 15 156.43 156.43 156.43 84.0 642.20	24.3592214299	156.43	84.00	Cloudy(partly_cloudy)	True	False	84.00
2011-02-21 16:00:00 14200 16 68.25 68.25 68.25 40.1 302.00	22.6003572436	68.25	40.10	Cloudy(fair)	True	False	40.10
2011-02-21 17:00:00 14201 17 6.96 6.96 6.96 3.6 30.80	22.6003572436	6.96	3.60	Cloudy(fair)	True	False	3.60
2011-02-21 18:00:00 14202 18 0.00 0.00 0.00 0.0 0.00	0.645596454037	0.00	0.00	Few_Snow_Showers(fair)	True	False	0.00
2011-02-21 19:00:00 14203 19 0.00 0.00 0.00 0.0 0.00	0.645596454037	0.00	0.00	Few_Snow_Showers(fair)	True	False	0.00
2011-02-21 20:00:00 14204 20 0.00 0.00 0.00 0.0 0.00	0.645596454037	0.00	0.00	Few_Snow_Showers(fair)	True	False	0.00
2011-02-21 21:00:00 14205 21 0.00 0.00 0.00 0.0 0.00	0.645596454037	0.00	0.00	Few_Snow_Showers(cloudy)	True	False	0.00
2011-02-21 22:00:00 14206 22 0.00 0.00 0.00 0.0 0.00	0.645596454037	0.00	0.00	Few_Snow_Showers(cloudy)	True	False	0.00
2011-02-21 23:00:00 14207 23 0.00 0.00 0.00 0.0 0.00	0.645596454037	0.00	0.00	Few_Snow_Showers(cloudy)	True	False	0.00
2011-02-22 00:00:00 14208 0 0.00 0.00 0.00 0.0 0.00	0.645596454037	0.00	0.00	Few_Snow_Showers(cloudy)	True	False	0.00
2011-02-22 01:00:00 14209 1 0.00 0.00 0.00 0.0 0.00	0.645596454037	0.00	0.00	Few_Snow_Showers(cloudy)	True	False	0.00
2011-02-22 02:00:00 14210 2 0.00 0.00 0.00 0.0 0.00	0.645596454037	0.00	0.00	Few_Snow_Showers(cloudy)	True	False	0.00
2011-02-22 03:00:00 14211 3 0.00 0.00 0.00 0.0 0.00	0.645596454037	0.00	0.00	Flurries(cloudy)	False	False	0.00
2011-02-22 04:00:00 14212 4 0.00 0.00 0.00 0.0 0.00	0.645596454037	0.00	0.00	Flurries(cloudy)	False	False	0.00
2011-02-22 05:00:00 14213 5 0.00 0.00 0.00 0.0 0.00	0.645596454037	0.00	0.00	Flurries(mostly_cloudy)	False	False	0.00
2011-02-22 06:00:00 14214 6 3.20 3.20 3.20 0.4 15.60	20.5391382811	3.20	0.40	Mostly_Cloudy(cloudy)	True	False	0.40
