2011-02-16 15:00:00 9994 15 452.93 452.93 452.93 521.4 624.40	72.5380800567	452.93	521.40	Mostly_Sunny(sunny)	False	False	521.40
2011-02-16 16:00:00 9995 16 180.32 180.32 200.13 194.8 275.90	65.3587443946	200.13	194.80	Sunny(fair)	True	False	194.80
2011-02-16 17:00:00 9996 17 19.35 19.35 21.47 10.1 29.60	65.3587443946	21.47	10.10	Sunny(fair)	True	False	10.10
2011-02-16 18:00:00 9997 18 0.00 0.00 0.00 0.0 0.00	65.3587443946	0.00	0.00	Clear(mostly_cloudy)	True	False	0.00
2011-02-16 19:00:00 9998 19 0.00 0.00 0.00 0.0 0.00	65.3587443946	0.00	0.00	Clear(mostly_cloudy)	True	False	0.00
2011-02-16 20:00:00 9999 20 0.00 0.00 0.00 0.0 0.00	65.3587443946	0.00	0.00	Clear(cloudy)	True	False	0.00
2011-02-16 21:00:00 10000 21 0.00 0.00 0.00 0.0 0.00	65.3587443946	0.00	0.00	Clear(cloudy)	True	False	0.00
2011-02-16 22:00:00 10001 22 0.00 0.00 0.00 0.0 0.00	65.3587443946	0.00	0.00	Clear(cloudy)	True	False	0.00
2011-02-16 23:00:00 10002 23 0.00 0.00 0.00 0.0 0.00	65.3587443946	0.00	0.00	Clear(cloudy)	True	False	0.00
2011-02-17 00:00:00 10003 0 0.00 0.00 0.00 0.0 0.00	65.3587443946	0.00	0.00	Mostly_Clear(mostly_cloudy)	False	False	0.00
2011-02-17 01:00:00 10004 1 0.00 0.00 0.00 0.0 0.00	65.3587443946	0.00	0.00	Mostly_Clear(cloudy)	False	False	0.00
2011-02-17 02:00:00 10005 2 0.00 0.00 0.00 0.0 0.00	65.3587443946	0.00	0.00	Mostly_Clear(cloudy)	False	False	0.00
2011-02-17 03:00:00 10006 3 0.00 0.00 0.00 0.0 0.00	62.6201153107	0.00	0.00	Partly_Cloudy(partly_cloudy)	True	False	0.00
2011-02-17 04:00:00 10007 4 0.00 0.00 0.00 0.0 0.00	62.6201153107	0.00	0.00	Partly_Cloudy(mostly_cloudy)	True	False	0.00
2011-02-17 05:00:00 10008 5 0.00 0.00 0.00 0.0 0.00	62.6201153107	0.00	0.00	Partly_Cloudy(mostly_cloudy)	True	False	0.00
2011-02-17 06:00:00 10009 6 6.01 6.01 6.01 0.0 9.60	62.6201153107	6.01	0.00	Partly_Cloudy(cloudy)	True	False	0.00
2011-02-17 07:00:00 10010 7 125.74 125.74 125.74 20.5 200.80	62.6201153107	125.74	20.50	Partly_Cloudy(cloudy)	True	False	20.50
2011-02-17 08:00:00 10011 8 349.04 349.04 349.04 114.0 557.40	62.6201153107	349.04	114.00	Partly_Cloudy(cloudy)	True	False	114.00
2011-02-17 09:00:00 10012 9 148.97 148.97 148.97 225.1 807.60	18.4464317026	148.97	225.10	Mostly_Cloudy(cloudy)	True	False	225.10
2011-02-17 10:00:00 10013 10 273.40 273.40 273.40 628.5 1054.10	25.9368181387	273.40	628.50	Mostly_Cloudy(cloudy)	True	False	628.50
2011-02-17 11:00:00 10014 11 295.84 295.84 295.84 876.3 1140.60	25.9368181387	295.84	876.30	Mostly_Cloudy(mostly_cloudy)	True	False	876.30
2011-02-17 12:00:00 10015 12 292.88 292.88 292.88 971.7 1129.20	25.9368181387	292.88	971.70	Mostly_Cloudy(mostly_cloudy)	True	False	971.70
2011-02-17 13:00:00 10016 13 268.13 268.13 268.13 827.2 1033.80	25.9368181387	268.13	827.20	Mostly_Cloudy(fair)	True	False	827.20
2011-02-17 14:00:00 10017 14 221.68 221.68 221.68 599.8 854.70	25.9368181387	221.68	599.80	Mostly_Cloudy(fair)	True	False	599.80
2011-02-17 15:00:00 10018 15 161.95 161.95 161.95 447.7 624.40	25.9368181387	161.95	447.70	Mostly_Cloudy(fair)	True	False	447.70
2011-02-17 16:00:00 10019 16 50.89 50.89 50.89 111.5 275.90	18.4464317026	50.89	111.50	Mostly_Cloudy(fair)	True	False	111.50
2011-02-17 17:00:00 10020 17 5.46 5.46 5.46 5.1 29.60	18.4464317026	5.46	5.10	Mostly_Cloudy(fair)	True	False	5.10
2011-02-17 18:00:00 10021 18 0.00 0.00 0.00 0.0 0.00	18.4464317026	0.00	0.00	Mostly_Cloudy(fair)	True	False	0.00
2011-02-17 19:00:00 10022 19 0.00 0.00 0.00 0.0 0.00	18.4464317026	0.00	0.00	Mostly_Cloudy(fair)	True	False	0.00
2011-02-17 20:00:00 10023 20 0.00 0.00 0.00 0.0 0.00	18.4464317026	0.00	0.00	Mostly_Cloudy(fair)	True	False	0.00
2011-02-17 21:00:00 10024 21 0.00 0.00 0.00 0.0 0.00	18.4464317026	0.00	0.00	Mostly_Cloudy(fair)	True	False	0.00
2011-02-17 22:00:00 10025 22 0.00 0.00 0.00 0.0 0.00	18.4464317026	0.00	0.00	Mostly_Cloudy(fair)	True	False	0.00
2011-02-17 23:00:00 10026 23 0.00 0.00 0.00 0.0 0.00	18.4464317026	0.00	0.00	Mostly_Cloudy(fair)	True	False	0.00
2011-02-18 00:00:00 10027 0 0.00 0.00 0.00 0.0 0.00	23.3279574993	0.00	0.00	Cloudy(fair)	True	False	0.00
2011-02-18 01:00:00 10028 1 0.00 0.00 0.00 0.0 0.00	23.3279574993	0.00	0.00	Cloudy(fair)	True	False	0.00
2011-02-18 02:00:00 10029 2 0.00 0.00 0.00 0.0 0.00	23.3279574993	0.00	0.00	Cloudy(fair)	True	False	0.00
2011-02-18 03:00:00 10030 3 0.00 0.00 0.00 0.0 0.00	23.3279574993	0.00	0.00	Cloudy(fair)	True	False	0.00
2011-02-18 04:00:00 10031 4 0.00 0.00 0.00 0.0 0.00	23.3279574993	0.00	0.00	Cloudy(clear)	True	False	0.00
2011-02-18 05:00:00 10032 5 0.00 0.00 0.00 0.0 0.00	23.3279574993	0.00	0.00	Cloudy(fair)	True	False	0.00
2011-02-18 06:00:00 10033 6 2.24 2.24 2.24 0.0 9.60	23.3279574993	2.24	0.00	Cloudy(fair)	True	False	0.00
2011-02-18 07:00:00 10034 7 46.84 46.84 46.84 72.0 200.80	23.3279574993	46.84	72.00	Cloudy(fair)	True	False	72.00
2011-02-18 08:00:00 10035 8 130.03 130.03 130.03 144.1 557.40	23.3279574993	130.03	144.10	Cloudy(partly_cloudy)	True	False	144.10
2011-02-18 09:00:00 10036 9 188.40 188.40 188.40 100.6 807.60	23.3279574993	188.40	100.60	Cloudy(fair)	True	False	100.60
2011-02-18 10:00:00 10037 10 257.76 257.76 257.76 132.3 1054.10	24.4534726253	257.76	132.30	Cloudy(fair)	True	False	132.30
2011-02-18 11:00:00 10038 11 278.92 278.92 278.92 195.4 1140.60	24.4534726253	278.92	195.40	Cloudy(fair)	True	False	195.40
2011-02-18 12:00:00 10039 12 74.45 74.45 74.45 708.5 1129.20	6.59330234323	74.45	708.50	Few_Showers(fair)	True	False	708.50
2011-02-18 13:00:00 10040 13 68.16 68.16 68.16 894.7 1033.80	6.59330234323	68.16	894.70	Few_Showers(fair)	True	False	894.70
