2011-03-03 01:00:00 26535 1 0.00 0.00 0.00 0.0 0.00	87.4067002257	0.00	0.00	Clear(fair)	True	False	0.00
2011-03-03 02:00:00 26536 2 0.00 0.00 0.00 0.0 0.00	87.4067002257	0.00	0.00	Clear(fair)	True	False	0.00
2011-03-03 03:00:00 26537 3 0.00 0.00 0.00 0.0 0.00	87.4067002257	0.00	0.00	Clear(fair)	True	False	0.00
2011-03-03 04:00:00 26538 4 0.00 0.00 0.00 0.0 0.00	87.4067002257	0.00	0.00	Clear(fair)	True	False	0.00
2011-03-03 05:00:00 26539 5 0.00 0.00 0.00 0.0 0.00	87.4067002257	0.00	0.00	Clear(fair)	True	False	0.00
2011-03-03 06:00:00 26540 6 23.86 23.86 23.86 9.3 27.30	87.4067002257	23.86	9.30	Clear(fair)	True	False	9.30
2011-03-03 07:00:00 26541 7 211.70 211.70 211.70 226.7 242.20	87.4067002257	211.70	226.70	Sunny(fair)	True	False	226.70
2011-03-03 08:00:00 26542 8 531.35 531.35 531.35 605.9 607.90	87.4067002257	531.35	605.90	Sunny(fair)	True	False	605.90
2011-03-03 09:00:00 26543 9 774.95 774.95 774.95 914.7 886.60	87.4067002257	774.95	914.70	Sunny(fair)	True	False	914.70
2011-03-03 10:00:00 26544 10 1011.00 1011.00 1011.00 1099.4 1063.70	95.045201669	1011.00	1099.40	Sunny(fair)	True	False	1099.40
2011-03-03 11:00:00 26545 11 1092.73 1092.73 1092.73 1183.5 1149.70	95.045201669	1092.73	1183.50	Sunny(fair)	True	False	1183.50
2011-03-03 12:00:00 26546 12 1093.40 1093.40 1093.40 1174.4 1150.40	95.045201669	1093.40	1174.40	Sunny(fair)	True	False	1174.40
2011-03-03 13:00:00 26547 13 1095.11 1095.11 1095.11 1068.6 1152.20	95.045201669	1095.11	1068.60	Sunny(fair)	True	False	1068.60
2011-03-03 14:00:00 26548 14 1010.81 1010.81 1010.81 904.4 1063.50	95.045201669	1010.81	904.40	Sunny(fair)	True	False	904.40
2011-03-03 15:00:00 26549 15 865.96 865.96 865.96 640.6 911.10	95.045201669	865.96	640.60	Sunny(fair)	True	False	640.60
2011-03-03 16:00:00 26550 16 579.86 579.86 579.86 274.8 663.40	87.4067002257	579.86	274.80	Sunny(fair)	True	False	274.80
2011-03-03 17:00:00 26551 17 287.57 287.57 287.57 31.2 329.00	87.4067002257	287.57	31.20	Sunny(fair)	True	False	31.20
2011-03-03 18:00:00 26552 18 45.63 45.63 45.63 0.0 52.20	87.4067002257	45.63	0.00	Clear(fair)	True	False	0.00
2011-03-03 19:00:00 26553 19 0.09 0.09 0.09 0.0 0.10	87.4067002257	0.09	0.00	Clear(fair)	True	False	0.00
2011-03-03 20:00:00 26554 20 0.00 0.00 0.00 0.0 0.00	87.4067002257	0.00	0.00	Clear(fair)	True	False	0.00
2011-03-03 21:00:00 26555 21 0.00 0.00 0.00 0.0 0.00	87.4067002257	0.00	0.00	Mostly_Clear(fair)	False	False	0.00
2011-03-03 22:00:00 26556 22 0.00 0.00 0.00 0.0 0.00	87.4067002257	0.00	0.00	Mostly_Clear(fair)	False	False	0.00
2011-03-03 23:00:00 26557 23 0.00 0.00 0.00 0.0 0.00	87.4067002257	0.00	0.00	Mostly_Clear(fair)	False	False	0.00
2011-03-04 00:00:00 26558 0 0.00 0.00 0.00 0.0 0.00	71.3923098618	0.00	0.00	Partly_Cloudy(fair)	True	False	0.00
2011-03-04 01:00:00 26559 1 0.00 0.00 0.00 0.0 0.00	71.3923098618	0.00	0.00	Partly_Cloudy(fair)	True	False	0.00
2011-03-04 02:00:00 26560 2 0.00 0.00 0.00 0.0 0.00	71.3923098618	0.00	0.00	Partly_Cloudy(fair)	True	False	0.00
2011-03-04 03:00:00 26561 3 0.00 0.00 0.00 0.0 0.00	71.3923098618	0.00	0.00	Partly_Cloudy(fair)	True	False	0.00
2011-03-04 04:00:00 26562 4 0.00 0.00 0.00 0.0 0.00	71.3923098618	0.00	0.00	Partly_Cloudy(fair)	True	False	0.00
2011-03-04 05:00:00 26563 5 0.00 0.00 0.00 0.0 0.00	71.3923098618	0.00	0.00	Partly_Cloudy(fair)	True	False	0.00
2011-03-04 06:00:00 26564 6 19.49 19.49 19.49 8.8 27.30	71.3923098618	19.49	8.80	Partly_Cloudy(fair)	True	False	8.80
2011-03-04 07:00:00 26565 7 172.91 172.91 172.91 160.0 242.20	71.3923098618	172.91	160.00	Partly_Cloudy(fair)	True	False	160.00
2011-03-04 08:00:00 26566 8 433.99 433.99 433.99 410.0 607.90	71.3923098618	433.99	410.00	Partly_Cloudy(fair)	True	False	410.00
2011-03-04 09:00:00 26567 9 168.82 168.82 168.82 748.1 886.60	19.0409026798	168.82	748.10	Mostly_Cloudy(fair)	True	False	748.10
2011-03-04 10:00:00 26568 10 545.88 545.88 545.88 1019.2 1063.70	51.319215414	545.88	1019.20	Mostly_Cloudy(fair)	True	False	1019.20
2011-03-04 11:00:00 26569 11 590.02 590.02 590.02 964.7 1149.70	51.319215414	590.02	964.70	Mostly_Cloudy(fair)	True	False	964.70
2011-03-04 12:00:00 26570 12 590.38 590.38 590.38 1068.1 1150.40	51.319215414	590.38	1068.10	Mostly_Cloudy(fair)	True	False	1068.10
2011-03-04 13:00:00 26571 13 591.30 591.30 591.30 999.6 1152.20	51.319215414	591.30	999.60	Mostly_Cloudy(fair)	True	False	999.60
2011-03-04 14:00:00 26572 14 545.78 545.78 545.78 849.5 1063.50	51.319215414	545.78	849.50	Mostly_Cloudy(fair)	True	False	849.50
2011-03-04 15:00:00 26573 15 467.57 467.57 467.57 568.2 911.10	51.319215414	467.57	568.20	Mostly_Cloudy(fair)	True	False	568.20
2011-03-04 16:00:00 26574 16 126.32 126.32 126.32 216.4 663.40	19.0409026798	126.32	216.40	Mostly_Cloudy(fair)	True	False	216.40
2011-03-04 17:00:00 26575 17 62.64 62.64 62.64 17.4 329.00	19.0409026798	62.64	17.40	Mostly_Cloudy(fair)	True	False	17.40
2011-03-04 18:00:00 26576 18 8.77 8.77 8.77 0.0 52.20	16.8043837523	8.77	0.00	Cloudy(fair)	True	False	0.00
2011-03-04 19:00:00 26577 19 0.02 0.02 0.02 0.0 0.10	16.8043837523	0.02	0.00	Cloudy(fair)	True	False	0.00
2011-03-04 20:00:00 26578 20 0.00 0.00 0.00 0.0 0.00	16.8043837523	0.00	0.00	Cloudy(cloudy)	True	False	0.00
2011-03-04 21:00:00 26579 21 0.00 0.00 0.00 0.0 0.00	16.8043837523	0.00	0.00	Cloudy(cloudy)	True	False	0.00
2011-03-04 22:00:00 26580 22 0.00 0.00 0.00 0.0 0.00	16.8043837523	0.00	0.00	Cloudy(cloudy)	True	False	0.00
2011-03-04 23:00:00 26581 23 0.00 0.00 0.00 0.0 0.00	16.8043837523	0.00	0.00	Cloudy(cloudy)	True	False	0.00
