2011-02-11 14:00:00 4151 14 701.10 701.10 701.10 795.3 834.40	84.0248016778	701.10	795.30	Sunny(fair)	True	False	795.30
2011-02-11 15:00:00 4152 15 479.70 479.70 479.70 517.4 570.90	84.0248016778	479.70	517.40	Sunny(fair)	True	False	517.40
2011-02-11 16:00:00 4153 16 159.62 159.62 159.62 164.9 223.30	71.4836223507	159.62	164.90	Sunny(fair)	True	False	164.90
2011-02-11 17:00:00 4154 17 8.22 8.22 8.22 3.9 11.50	71.4836223507	8.22	3.90	Sunny(fair)	True	False	3.90
2011-02-11 18:00:00 4155 18 0.00 0.00 0.00 0.0 0.00	71.4836223507	0.00	0.00	Clear(fair)	True	False	0.00
2011-02-11 19:00:00 4156 19 0.00 0.00 0.00 0.0 0.00	71.4836223507	0.00	0.00	Mostly_Clear(fair)	False	False	0.00
2011-02-11 20:00:00 4157 20 0.00 0.00 0.00 0.0 0.00	71.4836223507	0.00	0.00	Clear(fair)	True	False	0.00
2011-02-11 21:00:00 4158 21 0.00 0.00 0.00 0.0 0.00	71.4836223507	0.00	0.00	Clear(fair)	True	False	0.00
2011-02-11 22:00:00 4159 22 0.00 0.00 0.00 0.0 0.00	71.4836223507	0.00	0.00	Clear(fair)	True	False	0.00
2011-02-11 23:00:00 4160 23 0.00 0.00 0.00 0.0 0.00	71.4836223507	0.00	0.00	Clear(fair)	True	False	0.00
2011-02-12 00:00:00 4161 0 0.00 0.00 0.00 0.0 0.00	49.7722914669	0.00	0.00	Partly_Cloudy(fair)	True	False	0.00
2011-02-12 01:00:00 4162 1 0.00 0.00 0.00 0.0 0.00	49.7722914669	0.00	0.00	Partly_Cloudy(fair)	True	False	0.00
2011-02-12 02:00:00 4163 2 0.00 0.00 0.00 0.0 0.00	49.7722914669	0.00	0.00	Partly_Cloudy(fair)	True	False	0.00
2011-02-12 03:00:00 4164 3 0.00 0.00 0.00 0.0 0.00	49.7722914669	0.00	0.00	Partly_Cloudy(fair)	True	False	0.00
2011-02-12 04:00:00 4165 4 0.00 0.00 0.00 0.0 0.00	49.7722914669	0.00	0.00	Partly_Cloudy(fair)	True	False	0.00
2011-02-12 05:00:00 4166 5 0.00 0.00 0.00 0.0 0.00	49.7722914669	0.00	0.00	Partly_Cloudy(mostly_cloudy)	True	False	0.00
2011-02-12 06:00:00 4167 6 1.29 1.29 1.29 0.0 2.60	49.7722914669	1.29	0.00	Partly_Cloudy(cloudy)	True	False	0.00
2011-02-12 07:00:00 4168 7 81.68 81.68 81.68 34.6 164.10	49.7722914669	81.68	34.60	Partly_Cloudy(cloudy)	True	False	34.60
2011-02-12 08:00:00 4169 8 253.84 253.84 253.84 147.9 510.00	49.7722914669	253.84	147.90	Partly_Cloudy(cloudy)	True	False	147.90
2011-02-12 09:00:00 4170 9 160.22 160.22 160.22 475.0 807.60	19.8387819077	160.22	475.00	Mostly_Cloudy(cloudy)	True	False	475.00
2011-02-12 10:00:00 4171 10 230.57 230.57 230.57 591.8 1001.50	23.0225311601	230.57	591.80	Mostly_Cloudy(mostly_cloudy)	True	False	591.80
2011-02-12 11:00:00 4172 11 252.49 252.49 252.49 626.2 1096.70	23.0225311601	252.49	626.20	Mostly_Cloudy(fair)	True	False	626.20
2011-02-12 12:00:00 4173 12 254.95 254.95 254.95 321.0 1107.40	23.0225311601	254.95	321.00	Mostly_Cloudy(cloudy)	True	False	321.00
2011-02-12 13:00:00 4174 13 231.22 231.22 231.22 583.7 1004.30	23.0225311601	231.22	583.70	Mostly_Cloudy(cloudy)	True	False	583.70
2011-02-12 14:00:00 4175 14 192.10 192.10 192.10 553.8 834.40	23.0225311601	192.10	553.80	Mostly_Cloudy(cloudy)	True	False	553.80
2011-02-12 15:00:00 4176 15 403.48 403.48 403.48 344.9 570.90	70.6735378715	403.48	344.90	Partly_Cloudy(mostly_cloudy)	True	False	344.90
2011-02-12 16:00:00 4177 16 111.14 111.14 111.14 84.1 223.30	49.7722914669	111.14	84.10	Partly_Cloudy(partly_cloudy)	True	False	84.10
2011-02-12 17:00:00 4178 17 5.72 5.72 5.72 7.0 11.50	49.7722914669	5.72	7.00	Partly_Cloudy(mostly_cloudy)	True	False	7.00
2011-02-12 18:00:00 4179 18 0.00 0.00 0.00 0.0 0.00	71.4836223507	0.00	0.00	Clear(fair)	True	False	0.00
2011-02-12 19:00:00 4180 19 0.00 0.00 0.00 0.0 0.00	71.4836223507	0.00	0.00	Clear(fair)	True	False	0.00
2011-02-12 20:00:00 4181 20 0.00 0.00 0.00 0.0 0.00	71.4836223507	0.00	0.00	Clear(fair)	True	False	0.00
2011-02-12 21:00:00 4182 21 0.00 0.00 0.00 0.0 0.00	71.4836223507	0.00	0.00	Clear(fair)	True	False	0.00
2011-02-12 22:00:00 4183 22 0.00 0.00 0.00 0.0 0.00	71.4836223507	0.00	0.00	Clear(fair)	True	False	0.00
2011-02-12 23:00:00 4184 23 0.00 0.00 0.00 0.0 0.00	71.4836223507	0.00	0.00	Clear(fair)	True	False	0.00
2011-02-13 00:00:00 4185 0 0.00 0.00 0.00 0.0 0.00	71.4836223507	0.00	0.00	Clear(fair)	True	False	0.00
2011-02-13 01:00:00 4186 1 0.00 0.00 0.00 0.0 0.00	71.4836223507	0.00	0.00	Clear(fair)	True	False	0.00
2011-02-13 02:00:00 4187 2 0.00 0.00 0.00 0.0 0.00	71.4836223507	0.00	0.00	Clear(fair)	True	False	0.00
2011-02-13 03:00:00 4188 3 0.00 0.00 0.00 0.0 0.00	19.8387819077	0.00	0.00	Mostly_Cloudy(partly_cloudy)	True	False	0.00
2011-02-13 04:00:00 4189 4 0.00 0.00 0.00 0.0 0.00	19.8387819077	0.00	0.00	Mostly_Cloudy(fair)	True	False	0.00
2011-02-13 05:00:00 4190 5 0.00 0.00 0.00 0.0 0.00	19.8387819077	0.00	0.00	Mostly_Cloudy(fair)	True	False	0.00
2011-02-13 06:00:00 4191 6 0.52 0.52 0.52 0.0 2.60	19.8387819077	0.52	0.00	Mostly_Cloudy(fair)	True	False	0.00
2011-02-13 07:00:00 4192 7 32.56 32.56 32.56 57.1 164.10	19.8387819077	32.56	57.10	Mostly_Cloudy(cloudy)	True	False	57.10
2011-02-13 08:00:00 4193 8 101.18 101.18 101.18 110.9 510.00	19.8387819077	101.18	110.90	Mostly_Cloudy(fair)	True	False	110.90
2011-02-13 09:00:00 4194 9 183.05 183.05 183.05 383.3 807.60	22.6659660186	183.05	383.30	Cloudy(fair)	True	False	383.30
2011-02-13 10:00:00 4195 10 227.00 227.00 227.00 268.3 1001.50	22.6659660186	227.00	268.30	Cloudy(mostly_cloudy)	True	False	268.30
2011-02-13 11:00:00 4196 11 248.58 248.58 248.58 719.6 1096.70	22.6659660186	248.58	719.60	Cloudy(mostly_cloudy)	True	False	719.60
2011-02-13 12:00:00 4197 12 251.00 251.00 251.00 749.3 1107.40	22.6659660186	251.00	749.30	Cloudy(partly_cloudy)	True	False	749.30
2011-02-13 13:00:00 4198 13 227.63 227.63 227.63 582.4 1004.30	22.6659660186	227.63	582.40	Cloudy(partly_cloudy)	True	False	582.40
