2011-02-10 09:00:00 2760 9 678.58 678.58 678.58 781.4 807.60	84.0248016778	678.58	781.40	Mostly_Sunny(fair)	False	False	781.40
2011-02-10 10:00:00 2761 10 841.51 841.51 841.51 985.8 1001.50	84.0248016778	841.51	985.80	Mostly_Sunny(fair)	False	False	985.80
2011-02-10 11:00:00 2762 11 921.50 921.50 921.50 1097.1 1096.70	84.0248016778	921.50	1097.10	Mostly_Sunny(fair)	False	False	1097.10
2011-02-10 12:00:00 2763 12 776.81 776.81 776.81 1106.0 1107.40	70.1468040485	776.81	1106.00	Partly_Cloudy(fair)	True	False	1106.00
2011-02-10 13:00:00 2764 13 704.48 704.48 704.48 996.2 1004.30	70.1468040485	704.48	996.20	Partly_Cloudy(fair)	True	False	996.20
2011-02-10 14:00:00 2765 14 585.30 585.30 585.30 818.8 834.40	70.1468040485	585.30	818.80	Partly_Cloudy(fair)	True	False	818.80
2011-02-10 15:00:00 2766 15 400.47 400.47 400.47 538.2 570.90	70.1468040485	400.47	538.20	Partly_Cloudy(fair)	True	False	538.20
2011-02-10 16:00:00 2767 16 111.14 111.14 111.14 168.6 223.30	49.7722914669	111.14	168.60	Partly_Cloudy(sunny)	True	False	168.60
2011-02-10 17:00:00 2768 17 5.72 5.72 5.72 3.9 11.50	49.7722914669	5.72	3.90	Partly_Cloudy(fair)	True	False	3.90
2011-02-10 18:00:00 2769 18 0.00 0.00 0.00 0.0 0.00	49.7722914669	0.00	0.00	Partly_Cloudy(fair)	True	False	0.00
2011-02-10 19:00:00 2770 19 0.00 0.00 0.00 0.0 0.00	49.7722914669	0.00	0.00	Partly_Cloudy(fair)	True	False	0.00
2011-02-10 20:00:00 2771 20 0.00 0.00 0.00 0.0 0.00	49.7722914669	0.00	0.00	Partly_Cloudy(fair)	True	False	0.00
2011-02-10 21:00:00 2772 21 0.00 0.00 0.00 0.0 0.00	49.7722914669	0.00	0.00	Partly_Cloudy(fair)	True	False	0.00
2011-02-10 22:00:00 2773 22 0.00 0.00 0.00 0.0 0.00	49.7722914669	0.00	0.00	Partly_Cloudy(fair)	True	False	0.00
2011-02-10 23:00:00 2774 23 0.00 0.00 0.00 0.0 0.00	49.7722914669	0.00	0.00	Partly_Cloudy(fair)	True	False	0.00
2011-02-11 00:00:00 2775 0 0.00 0.00 0.00 0.0 0.00	49.7722914669	0.00	0.00	Partly_Cloudy(fair)	True	False	0.00
2011-02-11 01:00:00 2776 1 0.00 0.00 0.00 0.0 0.00	49.7722914669	0.00	0.00	Partly_Cloudy(fair)	True	False	0.00
2011-02-11 02:00:00 2777 2 0.00 0.00 0.00 0.0 0.00	49.7722914669	0.00	0.00	Partly_Cloudy(fair)	True	False	0.00
2011-02-11 03:00:00 2778 3 0.00 0.00 0.00 0.0 0.00	71.4836223507	0.00	0.00	Clear(fair)	True	False	0.00
2011-02-11 04:00:00 2779 4 0.00 0.00 0.00 0.0 0.00	71.4836223507	0.00	0.00	Clear(fair)	True	False	0.00
2011-02-11 05:00:00 2780 5 0.00 0.00 0.00 0.0 0.00	71.4836223507	0.00	0.00	Clear(fair)	True	False	0.00
2011-02-11 06:00:00 2781 6 1.86 1.86 1.86 0.1 2.60	71.4836223507	1.86	0.10	Clear(fair)	True	False	0.10
2011-02-11 07:00:00 2782 7 117.30 117.30 117.30 128.4 164.10	71.4836223507	117.30	128.40	Sunny(fair)	True	False	128.40
2011-02-11 08:00:00 2783 8 364.57 364.57 364.57 398.7 510.00	71.4836223507	364.57	398.70	Sunny(fair)	True	False	398.70
2011-02-11 09:00:00 2784 9 577.30 577.30 577.30 765.2 807.60	71.4836223507	577.30	765.20	Mostly_Sunny(fair)	False	False	765.20
2011-02-11 10:00:00 2785 10 715.91 715.91 715.91 956.7 1001.50	71.4836223507	715.91	956.70	Mostly_Sunny(fair)	False	False	956.70
2011-02-11 11:00:00 2786 11 783.96 783.96 783.96 1053.3 1096.70	71.4836223507	783.96	1053.30	Mostly_Sunny(fair)	False	False	1053.30
2011-02-11 12:00:00 2787 12 776.81 776.81 776.81 1067.1 1107.40	70.1468040485	776.81	1067.10	Partly_Cloudy(fair)	True	False	1067.10
2011-02-11 13:00:00 2788 13 704.48 704.48 704.48 959.5 1004.30	70.1468040485	704.48	959.50	Partly_Cloudy(fair)	True	False	959.50
2011-02-11 14:00:00 2789 14 585.30 585.30 585.30 795.3 834.40	70.1468040485	585.30	795.30	Partly_Cloudy(fair)	True	False	795.30
2011-02-11 15:00:00 2790 15 400.47 400.47 400.47 517.4 570.90	70.1468040485	400.47	517.40	Partly_Cloudy(fair)	True	False	517.40
2011-02-11 16:00:00 2791 16 111.14 111.14 111.14 164.9 223.30	49.7722914669	111.14	164.90	Partly_Cloudy(fair)	True	False	164.90
2011-02-11 17:00:00 2792 17 5.72 5.72 5.72 3.9 11.50	49.7722914669	5.72	3.90	Partly_Cloudy(fair)	True	False	3.90
2011-02-11 18:00:00 2793 18 0.00 0.00 0.00 0.0 0.00	71.4836223507	0.00	0.00	Clear(fair)	True	False	0.00
2011-02-11 19:00:00 2794 19 0.00 0.00 0.00 0.0 0.00	71.4836223507	0.00	0.00	Clear(fair)	True	False	0.00
2011-02-11 20:00:00 2795 20 0.00 0.00 0.00 0.0 0.00	71.4836223507	0.00	0.00	Clear(fair)	True	False	0.00
2011-02-11 21:00:00 2796 21 0.00 0.00 0.00 0.0 0.00	71.4836223507	0.00	0.00	Mostly_Clear(fair)	False	False	0.00
2011-02-11 22:00:00 2797 22 0.00 0.00 0.00 0.0 0.00	71.4836223507	0.00	0.00	Mostly_Clear(fair)	False	False	0.00
2011-02-11 23:00:00 2798 23 0.00 0.00 0.00 0.0 0.00	71.4836223507	0.00	0.00	Mostly_Clear(fair)	False	False	0.00
2011-02-12 00:00:00 2799 0 0.00 0.00 0.00 0.0 0.00	71.4836223507	0.00	0.00	Mostly_Clear(fair)	False	False	0.00
2011-02-12 01:00:00 2800 1 0.00 0.00 0.00 0.0 0.00	71.4836223507	0.00	0.00	Mostly_Clear(fair)	False	False	0.00
2011-02-12 02:00:00 2801 2 0.00 0.00 0.00 0.0 0.00	71.4836223507	0.00	0.00	Mostly_Clear(fair)	False	False	0.00
2011-02-12 03:00:00 2802 3 0.00 0.00 0.00 0.0 0.00	49.7722914669	0.00	0.00	Partly_Cloudy(fair)	True	False	0.00
2011-02-12 04:00:00 2803 4 0.00 0.00 0.00 0.0 0.00	49.7722914669	0.00	0.00	Partly_Cloudy(fair)	True	False	0.00
2011-02-12 05:00:00 2804 5 0.00 0.00 0.00 0.0 0.00	49.7722914669	0.00	0.00	Partly_Cloudy(mostly_cloudy)	True	False	0.00
2011-02-12 06:00:00 2805 6 0.03 0.03 0.03 0.0 2.60	1.31253095592	0.03	0.00	Few_Snow_Showers(cloudy)	True	False	0.00
2011-02-12 07:00:00 2806 7 2.15 2.15 2.15 34.6 164.10	1.31253095592	2.15	34.60	Few_Snow_Showers(cloudy)	True	False	34.60
2011-02-12 08:00:00 2807 8 6.69 6.69 6.69 147.9 510.00	1.31253095592	6.69	147.90	Few_Snow_Showers(cloudy)	True	False	147.90
2011-02-12 09:00:00 2808 9 10.60 10.60 10.60 475.0 807.60	1.31253095592	10.60	475.00	Mostly_Sunny(cloudy)	False	False	475.00
