2011-03-04 19:00:00 28504 19 0.03 0.09 0.09 0.0 0.10	26.4076391176	0.09	0.00	Mostly_Cloudy(fair)	True	False	0.00
2011-03-04 20:00:00 28505 20 0.00 0.00 0.00 0.0 0.00	26.4076391176	0.00	0.00	Mostly_Cloudy(cloudy)	True	False	0.00
2011-03-04 21:00:00 28506 21 0.00 0.00 0.00 0.0 0.00	16.8043837523	0.00	0.00	Cloudy(cloudy)	True	False	0.00
2011-03-04 22:00:00 28507 22 0.00 0.00 0.00 0.0 0.00	16.8043837523	0.00	0.00	Cloudy(cloudy)	True	False	0.00
2011-03-04 23:00:00 28508 23 0.00 0.00 0.00 0.0 0.00	16.8043837523	0.00	0.00	Cloudy(cloudy)	True	False	0.00
2011-03-05 00:00:00 28509 0 0.00 0.00 0.00 0.0 0.00	16.8043837523	0.00	0.00	Cloudy(cloudy)	True	False	0.00
2011-03-05 01:00:00 28510 1 0.00 0.00 0.00 0.0 0.00	16.8043837523	0.00	0.00	Cloudy(cloudy)	True	False	0.00
2011-03-05 02:00:00 28511 2 0.00 0.00 0.00 0.0 0.00	16.8043837523	0.00	0.00	Cloudy(Unkown)	True	False	0.00
2011-03-05 03:00:00 28512 3 0.00 0.00 0.00 0.0 0.00	16.8043837523	0.00	0.00	Cloudy(Unkown)	True	False	0.00
2011-03-05 04:00:00 28513 4 0.00 0.00 0.00 0.0 0.00	16.8043837523	0.00	0.00	Cloudy(cloudy)	True	False	0.00
2011-03-05 05:00:00 28514 5 0.00 0.00 0.00 0.0 0.00	16.8043837523	0.00	0.00	Cloudy(light_rain)	True	False	0.00
2011-03-05 06:00:00 28515 6 4.59 4.59 4.59 0.0 27.30	16.8043837523	4.59	0.00	Cloudy(cloudy)	True	False	0.00
2011-03-05 07:00:00 28516 7 40.70 40.70 40.70 31.0 242.20	16.8043837523	40.70	31.00	Cloudy(cloudy)	True	False	31.00
2011-03-05 08:00:00 28517 8 102.15 102.15 102.15 253.4 607.90	16.8043837523	102.15	253.40	Cloudy(cloudy)	True	False	253.40
2011-03-05 09:00:00 28518 9 148.99 148.99 148.99 747.8 886.60	16.8043837523	148.99	747.80	Cloudy(cloudy)	True	False	747.80
2011-03-05 10:00:00 28519 10 214.30 214.30 214.30 974.6 1063.70	20.1466578923	214.30	974.60	Cloudy(mostly_cloudy)	True	False	974.60
2011-03-05 11:00:00 28520 11 231.63 231.63 231.63 880.7 1149.70	20.1466578923	231.63	880.70	Cloudy(partly_cloudy)	True	False	880.70
2011-03-05 12:00:00 28521 12 231.77 231.77 231.77 529.8 1150.40	20.1466578923	231.77	529.80	Cloudy(cloudy)	True	False	529.80
2011-03-05 13:00:00 28522 13 232.13 232.13 232.13 493.3 1152.20	20.1466578923	232.13	493.30	Cloudy(cloudy)	True	False	493.30
2011-03-05 14:00:00 28523 14 214.26 214.26 214.26 269.5 1063.50	20.1466578923	214.26	269.50	Cloudy(mostly_cloudy)	True	False	269.50
2011-03-05 15:00:00 28524 15 183.56 183.56 183.56 267.4 911.10	20.1466578923	183.56	267.40	Cloudy(cloudy)	True	False	267.40
2011-03-05 16:00:00 28525 16 111.48 111.48 111.48 73.6 663.40	16.8043837523	111.48	73.60	Cloudy(cloudy)	True	False	73.60
2011-03-05 17:00:00 28526 17 55.29 55.29 55.29 4.0 329.00	16.8043837523	55.29	4.00	Cloudy(cloudy)	True	False	4.00
2011-03-05 18:00:00 28527 18 8.77 8.77 8.77 0.0 52.20	16.8043837523	8.77	0.00	Cloudy(cloudy)	True	False	0.00
2011-03-05 19:00:00 28528 19 0.02 0.02 0.02 0.0 0.10	16.8043837523	0.02	0.00	Cloudy(cloudy)	True	False	0.00
2011-03-05 20:00:00 28529 20 0.00 0.00 0.00 0.0 0.00	16.8043837523	0.00	0.00	Cloudy(mostly_cloudy)	True	False	0.00
2011-03-05 21:00:00 28530 21 0.00 0.00 0.00 0.0 0.00	16.8043837523	0.00	0.00	Cloudy(mostly_cloudy)	True	False	0.00
2011-03-05 22:00:00 28531 22 0.00 0.00 0.00 0.0 0.00	16.8043837523	0.00	0.00	Cloudy(cloudy)	True	False	0.00
2011-03-05 23:00:00 28532 23 0.00 0.00 0.00 0.0 0.00	16.8043837523	0.00	0.00	Cloudy(cloudy)	True	False	0.00
2011-03-06 00:00:00 28533 0 0.00 0.00 0.00 0.0 0.00	16.8043837523	0.00	0.00	Cloudy(cloudy)	True	False	0.00
2011-03-06 01:00:00 28534 1 0.00 0.00 0.00 0.0 0.00	16.8043837523	0.00	0.00	Cloudy(partly_cloudy)	True	False	0.00
2011-03-06 02:00:00 28535 2 0.00 0.00 0.00 0.0 0.00	16.8043837523	0.00	0.00	Cloudy(cloudy)	True	False	0.00
2011-03-06 03:00:00 28536 3 0.00 0.00 0.00 0.0 0.00	16.8043837523	0.00	0.00	Cloudy(cloudy)	True	False	0.00
2011-03-06 04:00:00 28537 4 0.00 0.00 0.00 0.0 0.00	16.8043837523	0.00	0.00	Cloudy(partly_cloudy)	True	False	0.00
2011-03-06 05:00:00 28538 5 0.00 0.00 0.00 0.0 0.00	16.8043837523	0.00	0.00	Cloudy(cloudy)	True	False	0.00
2011-03-06 06:00:00 28539 6 4.59 4.59 4.59 0.0 27.30	16.8043837523	4.59	0.00	Cloudy(cloudy)	True	False	0.00
2011-03-06 07:00:00 28540 7 40.70 40.70 40.70 35.9 242.20	16.8043837523	40.70	35.90	Cloudy(cloudy)	True	False	35.90
2011-03-06 08:00:00 28541 8 102.15 102.15 102.15 70.3 607.90	16.8043837523	102.15	70.30	Cloudy(light_rain)	True	False	70.30
2011-03-06 09:00:00 28542 9 40.11 40.11 40.11 109.3 886.60	4.52377035697	40.11	109.30	Showers(rain)	True	False	109.30
2011-03-06 10:00:00 28543 10 90.61 90.61 90.61 90.4 1063.70	8.51877607789	90.61	90.40	Showers(rain)	True	False	90.40
2011-03-06 11:00:00 28544 11 97.94 97.94 97.94 85.1 1149.70	8.51877607789	97.94	85.10	Showers(light_rain)	True	False	85.10
2011-03-06 12:00:00 28545 12 98.00 98.00 98.00 184.0 1150.40	8.51877607789	98.00	184.00	Rain(light_rain)	True	False	184.00
2011-03-06 13:00:00 28546 13 98.15 98.15 98.15 163.5 1152.20	8.51877607789	98.15	163.50	Rain(light_rain)	True	False	163.50
2011-03-06 14:00:00 28547 14 90.60 90.60 90.60 97.1 1063.50	8.51877607789	90.60	97.10	Rain(cloudy)	True	False	97.10
2011-03-06 15:00:00 28548 15 77.61 77.61 77.61 57.2 911.10	8.51877607789	77.61	57.20	Rain(light_rain)	True	False	57.20
2011-03-06 16:00:00 28549 16 30.01 30.01 30.01 3.6 663.40	4.52377035697	30.01	3.60	Rain(rain)	True	False	3.60
2011-03-06 17:00:00 28550 17 14.88 14.88 14.88 0.0 329.00	4.52377035697	14.88	0.00	Rain(heavy_rain)	True	False	0.00
2011-03-06 18:00:00 28551 18 8.77 8.77 8.77 0.0 52.20	16.8043837523	8.77	0.00	Cloudy(rain)	True	False	0.00
