2011-02-22 23:00:00 17296 23 0.00 0.00 0.00 0.0 0.00	79.5032077644	0.00	0.00	Clear(fair)	True	False	0.00
2011-02-23 00:00:00 17297 0 0.00 0.00 0.00 0.0 0.00	79.5032077644	0.00	0.00	Clear(fair)	True	False	0.00
2011-02-23 01:00:00 17298 1 0.00 0.00 0.00 0.0 0.00	79.5032077644	0.00	0.00	Clear(fair)	True	False	0.00
2011-02-23 02:00:00 17299 2 0.00 0.00 0.00 0.0 0.00	79.5032077644	0.00	0.00	Clear(fair)	True	False	0.00
2011-02-23 03:00:00 17300 3 0.00 0.00 0.00 0.0 0.00	79.5032077644	0.00	0.00	Clear(fair)	True	False	0.00
2011-02-23 04:00:00 17301 4 0.00 0.00 0.00 0.0 0.00	79.5032077644	0.00	0.00	Clear(fair)	True	False	0.00
2011-02-23 05:00:00 17302 5 0.00 0.00 0.00 0.0 0.00	79.5032077644	0.00	0.00	Clear(fair)	True	False	0.00
2011-02-23 06:00:00 17303 6 14.15 14.15 14.15 3.2 17.80	79.5032077644	14.15	3.20	Clear(fair)	True	False	3.20
2011-02-23 07:00:00 17304 7 192.56 192.56 192.56 171.6 242.20	79.5032077644	192.56	171.60	Sunny(fair)	True	False	171.60
2011-02-23 08:00:00 17305 8 483.30 483.30 483.30 533.0 607.90	79.5032077644	483.30	533.00	Sunny(fair)	True	False	533.00
2011-02-23 09:00:00 17306 9 704.88 704.88 704.88 824.3 886.60	79.5032077644	704.88	824.30	Sunny(fair)	True	False	824.30
2011-02-23 10:00:00 17307 10 945.60 945.60 945.60 999.3 1063.70	88.8975397073	945.60	999.30	Sunny(fair)	True	False	999.30
2011-02-23 11:00:00 17308 11 1022.06 1022.06 1022.06 1082.7 1149.70	88.8975397073	1022.06	1082.70	Sunny(fair)	True	False	1082.70
2011-02-23 12:00:00 17309 12 1016.63 1016.63 1016.63 1086.2 1143.60	88.8975397073	1016.63	1086.20	Sunny(fair)	True	False	1086.20
2011-02-23 13:00:00 17310 13 922.58 922.58 922.58 983.5 1037.80	88.8975397073	922.58	983.50	Sunny(fair)	True	False	983.50
2011-02-23 14:00:00 17311 14 792.43 792.43 792.43 828.7 891.40	88.8975397073	792.43	828.70	Sunny(fair)	True	False	828.70
2011-02-23 15:00:00 17312 15 570.90 570.90 570.90 573.7 642.20	88.8975397073	570.90	573.70	Sunny(fair)	True	False	573.70
2011-02-23 16:00:00 17313 16 240.10 240.10 240.10 236.0 302.00	79.5032077644	240.10	236.00	Sunny(fair)	True	False	236.00
2011-02-23 17:00:00 17314 17 26.79 26.79 26.79 13.2 33.70	79.5032077644	26.79	13.20	Sunny(fair)	True	False	13.20
2011-02-23 18:00:00 17315 18 0.00 0.00 0.00 0.0 0.00	79.5032077644	0.00	0.00	Clear(fair)	True	False	0.00
2011-02-23 19:00:00 17316 19 0.00 0.00 0.00 0.0 0.00	79.5032077644	0.00	0.00	Clear(fair)	True	False	0.00
2011-02-23 20:00:00 17317 20 0.00 0.00 0.00 0.0 0.00	79.5032077644	0.00	0.00	Clear(fair)	True	False	0.00
2011-02-23 21:00:00 17318 21 0.00 0.00 0.00 0.0 0.00	79.5032077644	0.00	0.00	Clear(fair)	True	False	0.00
2011-02-23 22:00:00 17319 22 0.00 0.00 0.00 0.0 0.00	79.5032077644	0.00	0.00	Clear(fair)	True	False	0.00
2011-02-23 23:00:00 17320 23 0.00 0.00 0.00 0.0 0.00	79.5032077644	0.00	0.00	Clear(fair)	True	False	0.00
2011-02-24 00:00:00 17321 0 0.00 0.00 0.00 0.0 0.00	79.5032077644	0.00	0.00	Clear(fair)	True	False	0.00
2011-02-24 01:00:00 17322 1 0.00 0.00 0.00 0.0 0.00	79.5032077644	0.00	0.00	Clear(fair)	True	False	0.00
2011-02-24 02:00:00 17323 2 0.00 0.00 0.00 0.0 0.00	79.5032077644	0.00	0.00	Clear(fair)	True	False	0.00
2011-02-24 03:00:00 17324 3 0.00 0.00 0.00 0.0 0.00	79.5032077644	0.00	0.00	Clear(fair)	True	False	0.00
2011-02-24 04:00:00 17325 4 0.00 0.00 0.00 0.0 0.00	79.5032077644	0.00	0.00	Clear(fair)	True	False	0.00
2011-02-24 05:00:00 17326 5 0.00 0.00 0.00 0.0 0.00	79.5032077644	0.00	0.00	Clear(fair)	True	False	0.00
2011-02-24 06:00:00 17327 6 14.15 14.15 14.15 3.7 17.80	79.5032077644	14.15	3.70	Clear(fair)	True	False	3.70
2011-02-24 07:00:00 17328 7 192.56 192.56 192.56 158.1 242.20	79.5032077644	192.56	158.10	Sunny(fair)	True	False	158.10
2011-02-24 08:00:00 17329 8 483.30 483.30 483.30 379.0 607.90	79.5032077644	483.30	379.00	Sunny(fair)	True	False	379.00
2011-02-24 09:00:00 17330 9 704.88 704.88 704.88 312.4 886.60	79.5032077644	704.88	312.40	Sunny(cloudy)	True	False	312.40
2011-02-24 10:00:00 17331 10 945.60 945.60 945.60 509.4 1063.70	88.8975397073	945.60	509.40	Sunny(cloudy)	True	False	509.40
2011-02-24 11:00:00 17332 11 1022.06 1022.06 1022.06 445.0 1149.70	88.8975397073	1022.06	445.00	Sunny(fair)	True	False	445.00
2011-02-24 12:00:00 17333 12 1016.63 1016.63 1016.63 479.5 1143.60	88.8975397073	1016.63	479.50	Sunny(mostly_cloudy)	True	False	479.50
2011-02-24 13:00:00 17334 13 922.58 922.58 922.58 284.2 1037.80	88.8975397073	922.58	284.20	Sunny(cloudy)	True	False	284.20
2011-02-24 14:00:00 17335 14 792.43 792.43 792.43 344.9 891.40	88.8975397073	792.43	344.90	Sunny(mostly_cloudy)	True	False	344.90
2011-02-24 15:00:00 17336 15 62.90 62.90 62.90 250.5 642.20	9.79385926764	62.90	250.50	Showers(fair)	True	False	250.50
2011-02-24 16:00:00 17337 16 28.80 28.80 28.80 71.0 302.00	9.53757225434	28.80	71.00	Showers(mostly_cloudy)	True	False	71.00
2011-02-24 17:00:00 17338 17 3.21 3.21 3.21 9.5 33.70	9.53757225434	3.21	9.50	Showers(mostly_cloudy)	True	False	9.50
2011-02-24 18:00:00 17339 18 0.00 0.00 0.00 0.0 0.00	9.53757225434	0.00	0.00	Showers(fair)	True	False	0.00
2011-02-24 19:00:00 17340 19 0.00 0.00 0.00 0.0 0.00	9.53757225434	0.00	0.00	Showers(cloudy)	True	False	0.00
2011-02-24 20:00:00 17341 20 0.00 0.00 0.00 0.0 0.00	9.53757225434	0.00	0.00	Showers(cloudy)	True	False	0.00
2011-02-24 21:00:00 17342 21 0.00 0.00 0.00 0.0 0.00	9.53757225434	0.00	0.00	Showers(light_rain)	True	False	0.00
2011-02-24 22:00:00 17343 22 0.00 0.00 0.00 0.0 0.00	9.53757225434	0.00	0.00	Showers(light_rain)	True	False	0.00
2011-02-24 23:00:00 17344 23 0.00 0.00 0.00 0.0 0.00	9.53757225434	0.00	0.00	Showers(cloudy)	True	False	0.00
