2011-03-11 13:00:00 36293 13 610.24 1053.95 1053.95 735.1 1170.30	52.1436454708	1053.95	735.10	Mostly_Cloudy(mostly_cloudy)	True	False	735.10
2011-03-11 14:00:00 36294 14 784.00 680.45 680.45 791.6 1083.30	72.3714575833	680.45	791.60	Partly_Cloudy(fair)	True	False	791.60
2011-03-11 15:00:00 36295 15 671.17 582.53 582.53 408.3 927.40	72.3714575833	582.53	408.30	Partly_Cloudy(sunny)	True	False	408.30
2011-03-11 16:00:00 36296 16 484.49 429.70 429.70 94.2 684.10	70.8209525427	429.70	94.20	Partly_Cloudy(cloudy)	True	False	94.20
2011-03-11 17:00:00 36297 17 247.17 219.22 219.22 16.0 349.00	70.8209525427	219.22	16.00	Partly_Cloudy(cloudy)	True	False	16.00
2011-03-11 18:00:00 36298 18 47.66 42.27 42.27 0.0 67.30	70.8209525427	42.27	0.00	Partly_Cloudy(cloudy)	True	False	0.00
2011-03-11 19:00:00 36299 19 0.35 0.31 0.31 0.0 0.50	70.8209525427	0.31	0.00	Partly_Cloudy(cloudy)	True	False	0.00
2011-03-11 20:00:00 36300 20 0.00 0.00 0.00 0.0 0.00	70.8209525427	0.00	0.00	Partly_Cloudy(cloudy)	True	False	0.00
2011-03-11 21:00:00 36301 21 0.00 0.00 0.00 0.0 0.00	27.850087695	0.00	0.00	Mostly_Cloudy(cloudy)	True	False	0.00
2011-03-11 22:00:00 36302 22 0.00 0.00 0.00 0.0 0.00	27.850087695	0.00	0.00	Mostly_Cloudy(cloudy)	True	False	0.00
2011-03-11 23:00:00 36303 23 0.00 0.00 0.00 0.0 0.00	27.850087695	0.00	0.00	Mostly_Cloudy(partly_cloudy)	True	False	0.00
2011-03-12 00:00:00 36304 0 0.00 0.00 0.00 0.0 0.00	27.850087695	0.00	0.00	Mostly_Cloudy(partly_cloudy)	True	False	0.00
2011-03-12 01:00:00 36305 1 0.00 0.00 0.00 0.0 0.00	27.850087695	0.00	0.00	Mostly_Cloudy(mostly_cloudy)	True	False	0.00
2011-03-12 02:00:00 36306 2 0.00 0.00 0.00 0.0 0.00	70.8209525427	0.00	0.00	Partly_Cloudy(partly_cloudy)	True	False	0.00
2011-03-12 03:00:00 36307 3 0.00 0.00 0.00 0.0 0.00	70.8209525427	0.00	0.00	Mostly_Clear(mostly_cloudy)	False	False	0.00
2011-03-12 04:00:00 36308 4 0.00 0.00 0.00 0.0 0.00	70.8209525427	0.00	0.00	Mostly_Clear(cloudy)	False	False	0.00
2011-03-12 05:00:00 36309 5 0.00 0.00 0.00 0.0 0.00	70.8209525427	0.00	0.00	Mostly_Clear(cloudy)	False	False	0.00
2011-03-12 06:00:00 36310 6 23.77 23.77 23.77 0.6 27.30	87.0835870227	23.77	0.60	Clear(cloudy)	True	False	0.60
2011-03-12 07:00:00 36311 7 210.92 210.92 210.92 88.7 242.20	87.0835870227	210.92	88.70	Sunny(cloudy)	True	False	88.70
2011-03-12 08:00:00 36312 8 529.38 529.38 529.38 581.6 607.90	87.0835870227	529.38	581.60	Sunny(mostly_cloudy)	True	False	581.60
2011-03-12 09:00:00 36313 9 772.08 772.08 772.08 877.2 886.60	87.0835870227	772.08	877.20	Sunny(sunny)	True	False	877.20
2011-03-12 10:00:00 36314 10 957.95 957.95 957.95 1048.4 1063.70	90.0582273021	957.95	1048.40	Sunny(fair)	True	False	1048.40
2011-03-12 11:00:00 36315 11 1035.40 1035.40 1035.40 948.1 1149.70	90.0582273021	1035.40	948.10	Sunny(sunny)	True	False	948.10
2011-03-12 12:00:00 36316 12 1060.80 1060.80 1060.80 496.9 1177.90	90.0582273021	1060.80	496.90	Mostly_Sunny(sunny)	False	False	496.90
2011-03-12 13:00:00 36317 13 1053.95 1053.95 1053.95 517.8 1170.30	90.0582273021	1053.95	517.80	Mostly_Sunny(partly_cloudy)	False	False	517.80
2011-03-12 14:00:00 36318 14 975.60 975.60 975.60 696.9 1083.30	90.0582273021	975.60	696.90	Mostly_Sunny(mostly_cloudy)	False	False	696.90
2011-03-12 15:00:00 36319 15 671.17 671.17 671.17 487.9 927.40	72.3714575833	671.17	487.90	Partly_Cloudy(partly_cloudy)	True	False	487.90
2011-03-12 16:00:00 36320 16 484.49 484.49 484.49 292.2 684.10	70.8209525427	484.49	292.20	Partly_Cloudy(partly_cloudy)	True	False	292.20
2011-03-12 17:00:00 36321 17 247.17 247.17 247.17 40.1 349.00	70.8209525427	247.17	40.10	Partly_Cloudy(sunny)	True	False	40.10
2011-03-12 18:00:00 36322 18 47.66 47.66 47.66 0.0 67.30	70.8209525427	47.66	0.00	Mostly_Sunny(clear)	False	False	0.00
2011-03-12 19:00:00 36323 19 0.35 0.35 0.35 0.0 0.50	70.8209525427	0.35	0.00	Mostly_Clear(clear)	False	False	0.00
2011-03-12 20:00:00 36324 20 0.00 0.00 0.00 0.0 0.00	70.8209525427	0.00	0.00	Mostly_Clear(clear)	False	False	0.00
2011-03-12 21:00:00 36325 21 0.00 0.00 0.00 0.0 0.00	87.0835870227	0.00	0.00	Clear(clear)	True	False	0.00
2011-03-12 22:00:00 36326 22 0.00 0.00 0.00 0.0 0.00	87.0835870227	0.00	0.00	Clear(mostly_cloudy)	True	False	0.00
2011-03-12 23:00:00 36327 23 0.00 0.00 0.00 0.0 0.00	87.0835870227	0.00	0.00	Clear(partly_cloudy)	True	False	0.00
2011-03-13 00:00:00 36328 0 0.00 0.00 0.00 0.0 0.00	87.0835870227	0.00	0.00	Mostly_Clear(rain_shower)	False	False	0.00
2011-03-13 01:00:00 36329 1 0.00 0.00 0.00 0.0 0.00	87.0835870227	0.00	0.00	Mostly_Clear(clear)	False	False	0.00
2011-03-13 02:00:00 36330 2 0.00 0.00 0.00 0.0 0.00	87.0835870227	0.00	0.00	Mostly_Clear(Unkown)	False	False	0.00
2011-03-13 03:00:00 36331 3 0.00 0.00 0.00 0.0 0.00	87.0835870227	0.00	0.00	Clear(clear)	True	False	0.00
2011-03-13 04:00:00 36332 4 0.00 0.00 0.00 0.0 0.00	87.0835870227	0.00	0.00	Clear(partly_cloudy)	True	False	0.00
2011-03-13 05:00:00 36333 5 0.00 0.00 0.00 0.0 0.00	87.0835870227	0.00	0.00	Clear(clear)	True	False	0.00
2011-03-13 06:00:00 36334 6 23.77 23.77 23.77 0.0 27.30	87.0835870227	23.77	0.00	Clear(partly_cloudy)	True	False	0.00
2011-03-13 07:00:00 36335 7 210.92 210.92 210.92 11.6 242.20	87.0835870227	210.92	11.60	Sunny(cloudy)	True	False	11.60
2011-03-13 08:00:00 36336 8 529.38 529.38 529.38 94.6 607.90	87.0835870227	529.38	94.60	Sunny(cloudy)	True	False	94.60
2011-03-13 09:00:00 36337 9 641.65 641.65 641.65 119.7 886.60	72.3714575833	641.65	119.70	Partly_Cloudy(cloudy)	True	False	119.70
2011-03-13 10:00:00 36338 10 769.82 769.82 769.82 237.9 1063.70	72.3714575833	769.82	237.90	Partly_Cloudy(cloudy)	True	False	237.90
2011-03-13 11:00:00 36339 11 832.05 832.05 832.05 583.6 1149.70	72.3714575833	832.05	583.60	Partly_Cloudy(mostly_cloudy)	True	False	583.60
2011-03-13 12:00:00 36340 12 852.46 852.46 852.46 513.1 1177.90	72.3714575833	852.46	513.10	Partly_Cloudy(cloudy)	True	False	513.10
2011-03-13 13:00:00 36341 13 846.96 846.96 846.96 568.4 1170.30	72.3714575833	846.96	568.40	Partly_Cloudy(cloudy)	True	False	568.40
