2011-02-26 01:00:00 20852 1 0.00 0.00 0.00 0.0 0.00	90.0641552887	0.00	0.00	Clear(fair)	True	False	0.00
2011-02-26 02:00:00 20853 2 0.00 0.00 0.00 0.0 0.00	90.0641552887	0.00	0.00	Clear(fair)	True	False	0.00
2011-02-26 03:00:00 20854 3 0.00 0.00 0.00 0.0 0.00	69.0440984605	0.00	0.00	Partly_Cloudy(fair)	True	False	0.00
2011-02-26 04:00:00 20855 4 0.00 0.00 0.00 0.0 0.00	69.0440984605	0.00	0.00	Partly_Cloudy(fair)	True	False	0.00
2011-02-26 05:00:00 20856 5 0.00 0.00 0.00 0.0 0.00	69.0440984605	0.00	0.00	Partly_Cloudy(fair)	True	False	0.00
2011-02-26 06:00:00 20857 6 18.85 18.85 18.85 0.5 27.30	69.0440984605	18.85	0.50	Partly_Cloudy(fair)	True	False	0.50
2011-02-26 07:00:00 20858 7 167.22 167.22 167.22 59.4 242.20	69.0440984605	167.22	59.40	Partly_Cloudy(fair)	True	False	59.40
2011-02-26 08:00:00 20859 8 419.72 419.72 419.72 228.5 607.90	69.0440984605	419.72	228.50	Partly_Cloudy(fair)	True	False	228.50
2011-02-26 09:00:00 20860 9 201.41 201.41 201.41 504.3 886.60	22.7170742652	201.41	504.30	Mostly_Cloudy(sunny)	True	False	504.30
2011-02-26 10:00:00 20861 10 360.02 360.02 360.02 590.8 1063.70	33.8456360781	360.02	590.80	Mostly_Cloudy(fair)	True	False	590.80
2011-02-26 11:00:00 20862 11 389.12 389.12 389.12 1039.4 1149.70	33.8456360781	389.12	1039.40	Mostly_Cloudy(fair)	True	False	1039.40
2011-02-26 12:00:00 20863 12 387.06 387.06 387.06 1086.2 1143.60	33.8456360781	387.06	1086.20	Mostly_Cloudy(fair)	True	False	1086.20
2011-02-26 13:00:00 20864 13 351.25 351.25 351.25 968.1 1037.80	33.8456360781	351.25	968.10	Mostly_Cloudy(fair)	True	False	968.10
2011-02-26 14:00:00 20865 14 301.70 301.70 301.70 854.5 891.40	33.8456360781	301.70	854.50	Mostly_Cloudy(cloudy)	True	False	854.50
2011-02-26 15:00:00 20866 15 217.36 217.36 217.36 502.1 642.20	33.8456360781	217.36	502.10	Mostly_Cloudy(fair)	True	False	502.10
2011-02-26 16:00:00 20867 16 68.61 68.61 68.61 123.9 302.00	22.7170742652	68.61	123.90	Mostly_Cloudy(fair)	True	False	123.90
2011-02-26 17:00:00 20868 17 7.86 7.86 7.86 18.3 34.60	22.7170742652	7.86	18.30	Mostly_Cloudy(fair)	True	False	18.30
2011-02-26 18:00:00 20869 18 0.00 0.00 0.00 0.0 0.00	22.171758877	0.00	0.00	Cloudy(partly_cloudy)	True	False	0.00
2011-02-26 19:00:00 20870 19 0.00 0.00 0.00 0.0 0.00	22.171758877	0.00	0.00	Cloudy(mostly_cloudy)	True	False	0.00
2011-02-26 20:00:00 20871 20 0.00 0.00 0.00 0.0 0.00	22.171758877	0.00	0.00	Cloudy(cloudy)	True	False	0.00
2011-02-26 21:00:00 20872 21 0.00 0.00 0.00 0.0 0.00	22.171758877	0.00	0.00	Cloudy(fair)	True	False	0.00
2011-02-26 22:00:00 20873 22 0.00 0.00 0.00 0.0 0.00	22.171758877	0.00	0.00	Cloudy(mostly_cloudy)	True	False	0.00
2011-02-26 23:00:00 20874 23 0.00 0.00 0.00 0.0 0.00	22.171758877	0.00	0.00	Cloudy(cloudy)	True	False	0.00
2011-02-27 00:00:00 20875 0 0.00 0.00 0.00 0.0 0.00	1.10933533891	0.00	0.00	Snow_Shower(cloudy)	True	False	0.00
2011-02-27 01:00:00 20876 1 0.00 0.00 0.00 0.0 0.00	1.10933533891	0.00	0.00	Snow_Shower(cloudy)	True	False	0.00
2011-02-27 02:00:00 20877 2 0.00 0.00 0.00 0.0 0.00	1.10933533891	0.00	0.00	Snow_Shower(cloudy)	True	False	0.00
2011-02-27 03:00:00 20878 3 0.00 0.00 0.00 0.0 0.00	1.60911542141	0.00	0.00	Rain_/_Snow(cloudy)	True	False	0.00
2011-02-27 04:00:00 20879 4 0.00 0.00 0.00 0.0 0.00	1.60911542141	0.00	0.00	Rain_/_Snow(cloudy)	True	False	0.00
2011-02-27 05:00:00 20880 5 0.00 0.00 0.00 0.0 0.00	1.60911542141	0.00	0.00	Rain_/_Snow(cloudy)	True	False	0.00
2011-02-27 06:00:00 20881 6 0.44 0.44 0.44 2.5 27.30	1.60911542141	0.44	2.50	Rain_/_Snow_Showers(cloudy)	True	False	2.50
2011-02-27 07:00:00 20882 7 3.90 3.90 3.90 133.8 242.20	1.60911542141	3.90	133.80	Rain_/_Snow_Showers(fair)	True	False	133.80
2011-02-27 08:00:00 20883 8 9.78 9.78 9.78 486.6 607.90	1.60911542141	9.78	486.60	Rain_/_Snow_Showers(fair)	True	False	486.60
2011-02-27 09:00:00 20884 9 196.57 196.57 196.57 780.1 886.60	22.171758877	196.57	780.10	Cloudy(fair)	True	False	780.10
2011-02-27 10:00:00 20885 10 259.11 259.11 259.11 973.8 1063.70	24.3592214299	259.11	973.80	Cloudy(fair)	True	False	973.80
2011-02-27 11:00:00 20886 11 280.06 280.06 280.06 968.6 1149.70	24.3592214299	280.06	968.60	Cloudy(cloudy)	True	False	968.60
2011-02-27 12:00:00 20887 12 278.57 278.57 278.57 962.1 1143.60	24.3592214299	278.57	962.10	Cloudy(cloudy)	True	False	962.10
2011-02-27 13:00:00 20888 13 252.80 252.80 252.80 1005.1 1037.80	24.3592214299	252.80	1005.10	Cloudy(cloudy)	True	False	1005.10
