2011-03-23 18:00:00 50309 18 87.27 87.27 10.52 0.0 98.30	10.6988000403	10.52	0.00	Cloudy(light_rain)	True	False	0.00
2011-03-23 19:00:00 50310 19 0.00 0.00 0.63 0.0 5.90	10.6988000403	0.63	0.00	Cloudy(light_rain)	True	False	0.00
2011-03-23 20:00:00 50311 20 0.00 0.00 0.00 0.0 0.00	8.25214899713	0.00	0.00	Light_Rain(t-storm)	True	False	0.00
2011-03-23 21:00:00 50312 21 0.00 0.00 0.00 0.0 0.00	8.25214899713	0.00	0.00	Light_Rain(light_snow)	True	False	0.00
2011-03-23 22:00:00 50313 22 0.00 0.00 0.00 0.0 0.00	4.7619047619	0.00	0.00	Rain(light_snow)	True	False	0.00
2011-03-23 23:00:00 50314 23 0.00 0.00 0.00 0.0 0.00	8.25214899713	0.00	0.00	Light_Rain(cloudy)	True	False	0.00
2011-03-24 00:00:00 50315 0 0.00 0.00 0.00 0.0 0.00	8.25214899713	0.00	0.00	Rain_/_Snow(light_snow)	False	False	0.00
2011-03-24 01:00:00 50316 1 0.00 0.00 0.00 0.0 0.00	8.25214899713	0.00	0.00	Rain_/_Snow(cloudy)	False	False	0.00
2011-03-24 02:00:00 50317 2 0.00 0.00 0.00 0.0 0.00	8.25214899713	0.00	0.00	Rain_/_Snow(light_snow)	False	False	0.00
2011-03-24 03:00:00 50318 3 0.00 0.00 0.00 0.0 0.00	8.25214899713	0.00	0.00	Rain_/_Snow(light_snow)	False	False	0.00
2011-03-24 04:00:00 50319 4 0.00 0.00 0.00 0.0 0.00	8.25214899713	0.00	0.00	Rain_/_Snow_Showers(cloudy)	False	False	0.00
2011-03-24 05:00:00 50320 5 0.00 0.00 0.00 0.0 0.00	8.25214899713	0.00	0.00	Rain_/_Snow_Showers(cloudy)	False	False	0.00
2011-03-24 06:00:00 50321 6 2.25 2.25 2.25 0.0 27.30	8.25214899713	2.25	0.00	Rain_/_Snow_Showers(cloudy)	False	False	0.00
2011-03-24 07:00:00 50322 7 19.67 19.67 19.67 0.1 238.40	8.25214899713	19.67	0.10	Few_Snow_Showers(cloudy)	False	False	0.10
2011-03-24 08:00:00 50323 8 47.66 47.66 47.66 5.1 577.50	8.25214899713	47.66	5.10	Few_Snow_Showers(cloudy)	False	False	5.10
2011-03-24 09:00:00 50324 9 69.65 69.65 69.65 13.6 844.00	8.25214899713	69.65	13.60	Few_Snow_Showers(cloudy)	False	False	13.60
2011-03-24 10:00:00 50325 10 83.54 83.54 83.54 35.1 1012.30	8.25214899713	83.54	35.10	Rain_/_Snow_Showers(cloudy)	False	False	35.10
2011-03-24 11:00:00 50326 11 93.06 93.06 93.06 173.0 1127.70	8.25214899713	93.06	173.00	Rain_/_Snow_Showers(cloudy)	False	False	173.00
2011-03-24 12:00:00 50327 12 97.88 97.88 97.88 432.5 1186.10	8.25214899713	97.88	432.50	Rain_/_Snow_Showers(cloudy)	False	False	432.50
2011-03-24 13:00:00 50328 13 377.92 377.92 377.92 349.6 1170.30	32.2927985775	377.92	349.60	Mostly_Cloudy(cloudy)	True	False	349.60
2011-03-24 14:00:00 50329 14 373.92 373.92 373.92 350.9 1157.90	32.2927985775	373.92	350.90	Mostly_Cloudy(cloudy)	True	False	350.90
2011-03-24 15:00:00 50330 15 320.25 320.25 320.25 549.1 991.70	32.2927985775	320.25	549.10	Mostly_Cloudy(cloudy)	True	False	549.10
2011-03-24 16:00:00 50331 16 498.67 498.67 498.67 698.1 684.10	72.893982808	498.67	698.10	Partly_Cloudy(fair)	True	False	698.10
2011-03-24 17:00:00 50332 17 254.40 254.40 254.40 338.8 349.00	72.893982808	254.40	338.80	Partly_Cloudy(fair)	True	False	338.80
2011-03-24 18:00:00 50333 18 71.65 71.65 71.65 68.1 98.30	72.893982808	71.65	68.10	Partly_Cloudy(sunny)	True	False	68.10
2011-03-24 19:00:00 50334 19 5.04 5.04 5.04 0.6 5.90	85.36855904	5.04	0.60	Sunny(sunny)	True	False	0.60
2011-03-24 20:00:00 50335 20 0.00 0.00 0.00 0.0 0.00	85.36855904	0.00	0.00	Clear(clear)	True	False	0.00
2011-03-24 21:00:00 50336 21 0.00 0.00 0.00 0.0 0.00	85.36855904	0.00	0.00	Clear(clear)	True	False	0.00
2011-03-24 22:00:00 50337 22 0.00 0.00 0.00 0.0 0.00	85.36855904	0.00	0.00	Clear(clear)	True	False	0.00
2011-03-24 23:00:00 50338 23 0.00 0.00 0.00 0.0 0.00	85.36855904	0.00	0.00	Clear(clear)	True	False	0.00
2011-03-25 00:00:00 50339 0 0.00 0.00 0.00 0.0 0.00	85.36855904	0.00	0.00	Clear(clear)	True	False	0.00
2011-03-25 01:00:00 50340 1 0.00 0.00 0.00 0.0 0.00	85.36855904	0.00	0.00	Clear(clear)	True	False	0.00
2011-03-25 02:00:00 50341 2 0.00 0.00 0.00 0.0 0.00	85.36855904	0.00	0.00	Clear(fair)	True	False	0.00
2011-03-25 03:00:00 50342 3 0.00 0.00 0.00 0.0 0.00	85.36855904	0.00	0.00	Clear(clear)	True	False	0.00
2011-03-25 04:00:00 50343 4 0.00 0.00 0.00 0.0 0.00	85.36855904	0.00	0.00	Clear(clear)	True	False	0.00
2011-03-25 05:00:00 50344 5 0.00 0.00 0.00 0.0 0.00	85.36855904	0.00	0.00	Clear(clear)	True	False	0.00
2011-03-25 06:00:00 50345 6 23.31 23.31 23.31 0.0 27.30	85.36855904	23.31	0.00	Clear(clear)	True	False	0.00
2011-03-25 07:00:00 50346 7 203.52 203.52 203.52 72.9 238.40	85.36855904	203.52	72.90	Sunny(sunny)	True	False	72.90
2011-03-25 08:00:00 50347 8 493.00 493.00 493.00 368.1 577.50	85.36855904	493.00	368.10	Sunny(sunny)	True	False	368.10
2011-03-25 09:00:00 50348 9 720.51 720.51 720.51 718.8 844.00	85.36855904	720.51	718.80	Sunny(sunny)	True	False	718.80
2011-03-25 10:00:00 50349 10 898.75 898.75 898.75 973.9 1012.30	88.7824776093	898.75	973.90	Sunny(sunny)	True	False	973.90
2011-03-25 11:00:00 50350 11 1001.20 1001.20 1001.20 1125.4 1127.70	88.7824776093	1001.20	1125.40	Sunny(sunny)	True	False	1125.40
2011-03-25 12:00:00 50351 12 1053.05 1053.05 1053.05 1204.4 1186.10	88.7824776093	1053.05	1204.40	Sunny(sunny)	True	False	1204.40
2011-03-25 13:00:00 50352 13 1039.02 1039.02 1039.02 1123.8 1170.30	88.7824776093	1039.02	1123.80	Sunny(sunny)	True	False	1123.80
2011-03-25 14:00:00 50353 14 1028.01 1028.01 1028.01 974.1 1157.90	88.7824776093	1028.01	974.10	Sunny(sunny)	True	False	974.10
2011-03-25 15:00:00 50354 15 880.46 880.46 880.46 817.0 991.70	88.7824776093	880.46	817.00	Sunny(fair)	True	False	817.00
2011-03-25 16:00:00 50355 16 584.01 584.01 584.01 337.7 684.10	85.36855904	584.01	337.70	Sunny(partly_cloudy)	True	False	337.70
2011-03-25 17:00:00 50356 17 297.94 297.94 297.94 172.7 349.00	85.36855904	297.94	172.70	Sunny(partly_cloudy)	True	False	172.70
2011-03-25 18:00:00 50357 18 83.92 83.92 83.92 43.6 98.30	85.36855904	83.92	43.60	Sunny(partly_cloudy)	True	False	43.60
