2011-03-29 15:00:00 57134 15 874.63 874.63 874.63 963.9 991.70	88.1953183992	874.63	963.90	Sunny(Unkown)	True	False	963.90
2011-03-29 16:00:00 57135 16 606.20 606.20 630.95 714.2 715.40	84.7358121331	630.95	714.20	Sunny(Unkown)	True	False	714.20
2011-03-29 17:00:00 57136 17 332.59 332.59 346.17 376.8 392.50	84.7358121331	346.17	376.80	Sunny(sunny)	True	False	376.80
2011-03-29 18:00:00 57137 18 90.16 90.16 93.84 77.3 106.40	84.7358121331	93.84	77.30	Sunny(sunny)	True	False	77.30
2011-03-29 19:00:00 57138 19 6.02 6.02 6.26 1.0 7.10	84.7358121331	6.26	1.00	Sunny(sunny)	True	False	1.00
2011-03-29 20:00:00 57139 20 0.00 0.00 0.00 0.0 0.00	84.7358121331	0.00	0.00	Clear(clear)	True	False	0.00
2011-03-29 21:00:00 57140 21 0.00 0.00 0.00 0.0 0.00	84.7358121331	0.00	0.00	Clear(clear)	True	False	0.00
2011-03-29 22:00:00 57141 22 0.00 0.00 0.00 0.0 0.00	84.7358121331	0.00	0.00	Clear(clear)	True	False	0.00
2011-03-29 23:00:00 57142 23 0.00 0.00 0.00 0.0 0.00	84.7358121331	0.00	0.00	Clear(clear)	True	False	0.00
2011-03-30 00:00:00 57143 0 0.00 0.00 0.00 0.0 0.00	84.7358121331	0.00	0.00	Clear(clear)	True	False	0.00
2011-03-30 01:00:00 57144 1 0.00 0.00 0.00 0.0 0.00	84.7358121331	0.00	0.00	Clear(clear)	True	False	0.00
2011-03-30 02:00:00 57145 2 0.00 0.00 0.00 0.0 0.00	84.7358121331	0.00	0.00	Clear(fair)	True	False	0.00
2011-03-30 03:00:00 57146 3 0.00 0.00 0.00 0.0 0.00	84.7358121331	0.00	0.00	Clear(clear)	True	False	0.00
2011-03-30 04:00:00 57147 4 0.00 0.00 0.00 0.0 0.00	84.7358121331	0.00	0.00	Clear(clear)	True	False	0.00
2011-03-30 05:00:00 57148 5 0.00 0.00 0.00 0.0 0.00	84.7358121331	0.00	0.00	Clear(clear)	True	False	0.00
2011-03-30 06:00:00 57149 6 7.97 7.97 7.97 0.8 9.40	84.7358121331	7.97	0.80	Clear(clear)	True	False	0.80
2011-03-30 07:00:00 57150 7 123.97 123.97 123.97 112.1 146.30	84.7358121331	123.97	112.10	Mostly_Sunny(sunny)	False	False	112.10
2011-03-30 08:00:00 57151 8 369.02 369.02 369.02 374.5 435.50	84.7358121331	369.02	374.50	Mostly_Sunny(sunny)	False	False	374.50
2011-03-30 09:00:00 57152 9 667.46 667.46 667.46 635.6 787.70	84.7358121331	667.46	635.60	Mostly_Sunny(sunny)	False	False	635.60
2011-03-30 10:00:00 57153 10 855.17 855.17 855.17 861.2 1006.40	84.9727955782	855.17	861.20	Partly_Cloudy(fair)	True	False	861.20
2011-03-30 11:00:00 57154 11 973.87 973.87 973.87 936.0 1146.10	84.9727955782	973.87	936.00	Partly_Cloudy(partly_cloudy)	True	False	936.00
2011-03-30 12:00:00 57155 12 1028.60 1028.60 1028.60 924.7 1210.50	84.9727955782	1028.60	924.70	Partly_Cloudy(partly_cloudy)	True	False	924.70
2011-03-30 13:00:00 57156 13 431.40 431.40 431.40 717.4 1191.90	36.1943116033	431.40	717.40	Mostly_Cloudy(partly_cloudy)	True	False	717.40
2011-03-30 14:00:00 57157 14 419.09 419.09 419.09 679.1 1157.90	36.1943116033	419.09	679.10	Mostly_Cloudy(mostly_cloudy)	True	False	679.10
2011-03-30 15:00:00 57158 15 358.94 358.94 358.94 708.4 991.70	36.1943116033	358.94	708.40	Mostly_Cloudy(mostly_cloudy)	True	False	708.40
2011-03-30 16:00:00 57159 16 103.14 103.14 103.14 416.8 715.40	14.4177265501	103.14	416.80	Cloudy(partly_cloudy)	True	False	416.80
2011-03-30 17:00:00 57160 17 56.59 56.59 56.59 92.4 392.50	14.4177265501	56.59	92.40	Cloudy(partly_cloudy)	True	False	92.40
2011-03-30 18:00:00 57161 18 15.34 15.34 15.34 13.2 106.40	14.4177265501	15.34	13.20	Cloudy(mostly_cloudy)	True	False	13.20
2011-03-30 19:00:00 57162 19 0.76 0.76 0.76 0.0 7.10	10.6897976043	0.76	0.00	Showers(cloudy)	True	False	0.00
2011-03-30 20:00:00 57163 20 0.00 0.00 0.00 0.0 0.00	10.6897976043	0.00	0.00	Showers(cloudy)	True	False	0.00
2011-03-30 21:00:00 57164 21 0.00 0.00 0.00 0.0 0.00	10.6897976043	0.00	0.00	Showers(cloudy)	True	False	0.00
2011-03-30 22:00:00 57165 22 0.00 0.00 0.00 0.0 0.00	10.6897976043	0.00	0.00	Rain_/_Snow_Showers(cloudy)	False	False	0.00
2011-03-30 23:00:00 57166 23 0.00 0.00 0.00 0.0 0.00	10.6897976043	0.00	0.00	Rain_/_Snow_Showers(cloudy)	False	False	0.00
2011-03-31 00:00:00 57167 0 0.00 0.00 0.00 0.0 0.00	10.6897976043	0.00	0.00	Rain_/_Snow_Showers(light_rain)	False	False	0.00
2011-03-31 01:00:00 57168 1 0.00 0.00 0.00 0.0 0.00	14.4177265501	0.00	0.00	Cloudy(cloudy)	True	False	0.00
2011-03-31 02:00:00 57169 2 0.00 0.00 0.00 0.0 0.00	14.4177265501	0.00	0.00	Cloudy(cloudy)	True	False	0.00
2011-03-31 03:00:00 57170 3 0.00 0.00 0.00 0.0 0.00	14.4177265501	0.00	0.00	Cloudy(cloudy)	True	False	0.00
2011-03-31 04:00:00 57171 4 0.00 0.00 0.00 0.0 0.00	14.4177265501	0.00	0.00	Cloudy(cloudy)	True	False	0.00
2011-03-31 05:00:00 57172 5 0.00 0.00 0.00 0.0 0.00	14.4177265501	0.00	0.00	Cloudy(cloudy)	True	False	0.00
2011-03-31 06:00:00 57173 6 1.36 1.36 1.36 0.0 9.40	14.4177265501	1.36	0.00	Cloudy(light_rain)	True	False	0.00
2011-03-31 07:00:00 57174 7 57.08 57.08 57.08 13.8 146.30	39.0126291619	57.08	13.80	Mostly_Cloudy(light_rain)	True	False	13.80
2011-03-31 08:00:00 57175 8 169.90 169.90 169.90 77.6 435.50	39.0126291619	169.90	77.60	Mostly_Cloudy(cloudy)	True	False	77.60
2011-03-31 09:00:00 57176 9 307.30 307.30 307.30 90.9 787.70	39.0126291619	307.30	90.90	Mostly_Cloudy(light_rain)	True	False	90.90
2011-03-31 10:00:00 57177 10 364.26 364.26 364.26 104.0 1006.40	36.1943116033	364.26	104.00	Mostly_Cloudy(cloudy)	True	False	104.00
2011-03-31 11:00:00 57178 11 414.82 414.82 414.82 176.9 1146.10	36.1943116033	414.82	176.90	Mostly_Cloudy(light_rain)	True	False	176.90
2011-03-31 12:00:00 57179 12 438.13 438.13 438.13 161.2 1210.50	36.1943116033	438.13	161.20	Mostly_Cloudy(cloudy)	True	False	161.20
2011-03-31 13:00:00 57180 13 169.65 169.65 169.65 208.7 1191.90	14.233787691	169.65	208.70	Cloudy(cloudy)	True	False	208.70
2011-03-31 14:00:00 57181 14 164.81 164.81 164.81 180.2 1157.90	14.233787691	164.81	180.20	Cloudy(cloudy)	True	False	180.20
2011-03-31 15:00:00 57182 15 141.16 141.16 141.16 91.0 991.70	14.233787691	141.16	91.00	Cloudy(cloudy)	True	False	91.00
