2011-02-22 02:00:00 16286 2 0.00 0.00 0.00 0.0 0.00	0.365312690267	0.00	0.00	Snow(cloudy)	True	False	0.00
2011-02-22 03:00:00 16287 3 0.00 0.00 0.00 0.0 0.00	0.365312690267	0.00	0.00	Flurries(cloudy)	False	False	0.00
2011-02-22 04:00:00 16288 4 0.00 0.00 0.00 0.0 0.00	0.365312690267	0.00	0.00	Snow(cloudy)	True	False	0.00
2011-02-22 05:00:00 16289 5 0.00 0.00 0.00 0.0 0.00	0.365312690267	0.00	0.00	Snow(mostly_cloudy)	True	False	0.00
2011-02-22 06:00:00 16290 6 0.07 0.07 0.07 0.4 17.80	0.365312690267	0.07	0.40	Snow(cloudy)	True	False	0.40
2011-02-22 07:00:00 16291 7 55.99 55.99 55.99 59.7 242.20	23.1174203253	55.99	59.70	Cloudy(cloudy)	True	False	59.70
2011-02-22 08:00:00 16292 8 121.89 121.89 121.89 400.0 607.90	20.0507170339	121.89	400.00	Mostly_Cloudy(mostly_cloudy)	True	False	400.00
2011-02-22 09:00:00 16293 9 177.77 177.77 177.77 798.1 886.60	20.0507170339	177.77	798.10	Mostly_Sunny(fair)	False	False	798.10
2011-02-22 10:00:00 16294 10 213.28 213.28 213.28 1040.2 1063.70	20.0507170339	213.28	1040.20	Mostly_Sunny(fair)	False	False	1040.20
2011-02-22 11:00:00 16295 11 230.52 230.52 230.52 1132.7 1149.70	20.0507170339	230.52	1132.70	Mostly_Sunny(fair)	False	False	1132.70
2011-02-22 12:00:00 16296 12 1016.63 1016.63 1016.63 1136.1 1143.60	88.8975397073	1016.63	1136.10	Sunny(fair)	True	False	1136.10
2011-02-22 13:00:00 16297 13 922.58 922.58 922.58 1025.6 1037.80	88.8975397073	922.58	1025.60	Sunny(fair)	True	False	1025.60
2011-02-22 14:00:00 16298 14 792.43 792.43 792.43 859.0 891.40	88.8975397073	792.43	859.00	Sunny(fair)	True	False	859.00
2011-02-22 15:00:00 16299 15 570.90 570.90 570.90 593.7 642.20	88.8975397073	570.90	593.70	Sunny(fair)	True	False	593.70
2011-02-22 16:00:00 16300 16 240.10 240.10 240.10 239.6 302.00	79.5032077644	240.10	239.60	Sunny(fair)	True	False	239.60
2011-02-22 17:00:00 16301 17 26.79 26.79 26.79 11.7 33.70	79.5032077644	26.79	11.70	Sunny(fair)	True	False	11.70
2011-02-22 18:00:00 16302 18 0.00 0.00 0.00 0.0 0.00	79.5032077644	0.00	0.00	Clear(fair)	True	False	0.00
2011-02-22 19:00:00 16303 19 0.00 0.00 0.00 0.0 0.00	79.5032077644	0.00	0.00	Clear(fair)	True	False	0.00
2011-02-22 20:00:00 16304 20 0.00 0.00 0.00 0.0 0.00	79.5032077644	0.00	0.00	Clear(fair)	True	False	0.00
2011-02-22 21:00:00 16305 21 0.00 0.00 0.00 0.0 0.00	79.5032077644	0.00	0.00	Clear(fair)	True	False	0.00
2011-02-22 22:00:00 16306 22 0.00 0.00 0.00 0.0 0.00	79.5032077644	0.00	0.00	Clear(fair)	True	False	0.00
2011-02-22 23:00:00 16307 23 0.00 0.00 0.00 0.0 0.00	79.5032077644	0.00	0.00	Clear(fair)	True	False	0.00
2011-02-23 00:00:00 16308 0 0.00 0.00 0.00 0.0 0.00	79.5032077644	0.00	0.00	Clear(fair)	True	False	0.00
2011-02-23 01:00:00 16309 1 0.00 0.00 0.00 0.0 0.00	79.5032077644	0.00	0.00	Clear(fair)	True	False	0.00
2011-02-23 02:00:00 16310 2 0.00 0.00 0.00 0.0 0.00	79.5032077644	0.00	0.00	Clear(fair)	True	False	0.00
2011-02-23 03:00:00 16311 3 0.00 0.00 0.00 0.0 0.00	79.5032077644	0.00	0.00	Clear(fair)	True	False	0.00
2011-02-23 04:00:00 16312 4 0.00 0.00 0.00 0.0 0.00	79.5032077644	0.00	0.00	Clear(fair)	True	False	0.00
2011-02-23 05:00:00 16313 5 0.00 0.00 0.00 0.0 0.00	79.5032077644	0.00	0.00	Clear(fair)	True	False	0.00
2011-02-23 06:00:00 16314 6 14.15 14.15 14.15 3.2 17.80	79.5032077644	14.15	3.20	Clear(fair)	True	False	3.20
2011-02-23 07:00:00 16315 7 192.56 192.56 192.56 171.6 242.20	79.5032077644	192.56	171.60	Sunny(fair)	True	False	171.60
2011-02-23 08:00:00 16316 8 483.30 483.30 483.30 533.0 607.90	79.5032077644	483.30	533.00	Sunny(fair)	True	False	533.00
2011-02-23 09:00:00 16317 9 704.88 704.88 704.88 824.3 886.60	79.5032077644	704.88	824.30	Sunny(fair)	True	False	824.30
2011-02-23 10:00:00 16318 10 945.60 945.60 945.60 999.3 1063.70	88.8975397073	945.60	999.30	Sunny(fair)	True	False	999.30
2011-02-23 11:00:00 16319 11 1022.06 1022.06 1022.06 1082.7 1149.70	88.8975397073	1022.06	1082.70	Sunny(fair)	True	False	1082.70
2011-02-23 12:00:00 16320 12 1016.63 1016.63 1016.63 1086.2 1143.60	88.8975397073	1016.63	1086.20	Sunny(fair)	True	False	1086.20
2011-02-23 13:00:00 16321 13 922.58 922.58 922.58 983.5 1037.80	88.8975397073	922.58	983.50	Sunny(fair)	True	False	983.50
2011-02-23 14:00:00 16322 14 792.43 792.43 792.43 828.7 891.40	88.8975397073	792.43	828.70	Sunny(fair)	True	False	828.70
2011-02-23 15:00:00 16323 15 570.90 570.90 570.90 573.7 642.20	88.8975397073	570.90	573.70	Sunny(fair)	True	False	573.70
2011-02-23 16:00:00 16324 16 240.10 240.10 240.10 236.0 302.00	79.5032077644	240.10	236.00	Sunny(fair)	True	False	236.00
2011-02-23 17:00:00 16325 17 26.79 26.79 26.79 13.2 33.70	79.5032077644	26.79	13.20	Sunny(fair)	True	False	13.20
2011-02-23 18:00:00 16326 18 0.00 0.00 0.00 0.0 0.00	79.5032077644	0.00	0.00	Clear(fair)	True	False	0.00
2011-02-23 19:00:00 16327 19 0.00 0.00 0.00 0.0 0.00	79.5032077644	0.00	0.00	Clear(fair)	True	False	0.00
2011-02-23 20:00:00 16328 20 0.00 0.00 0.00 0.0 0.00	79.5032077644	0.00	0.00	Clear(fair)	True	False	0.00
2011-02-23 21:00:00 16329 21 0.00 0.00 0.00 0.0 0.00	79.5032077644	0.00	0.00	Clear(fair)	True	False	0.00
2011-02-23 22:00:00 16330 22 0.00 0.00 0.00 0.0 0.00	79.5032077644	0.00	0.00	Clear(fair)	True	False	0.00
2011-02-23 23:00:00 16331 23 0.00 0.00 0.00 0.0 0.00	79.5032077644	0.00	0.00	Clear(fair)	True	False	0.00
2011-02-24 00:00:00 16332 0 0.00 0.00 0.00 0.0 0.00	79.5032077644	0.00	0.00	Clear(fair)	True	False	0.00
2011-02-24 01:00:00 16333 1 0.00 0.00 0.00 0.0 0.00	79.5032077644	0.00	0.00	Clear(fair)	True	False	0.00
