2011-02-21 15:00:00 15775 15 555.62 555.62 10.33 84.0 642.20	1.60911542141	10.33	84.00	Light_Snow(partly_cloudy)	True	False	84.00
2011-02-21 16:00:00 15776 16 39.50 39.50 68.25 40.1 302.00	22.6003572436	68.25	40.10	Cloudy(fair)	True	False	40.10
2011-02-21 17:00:00 15777 17 4.28 4.28 7.39 3.6 32.70	22.6003572436	7.39	3.60	Flurries(fair)	False	False	3.60
2011-02-21 18:00:00 15778 18 0.00 0.00 0.00 0.0 0.00	22.6003572436	0.00	0.00	Cloudy(fair)	True	False	0.00
2011-02-21 19:00:00 15779 19 0.00 0.00 0.00 0.0 0.00	0.645596454037	0.00	0.00	Light_Snow(fair)	True	False	0.00
2011-02-21 20:00:00 15780 20 0.00 0.00 0.00 0.0 0.00	0.365312690267	0.00	0.00	Snow(fair)	True	False	0.00
2011-02-21 21:00:00 15781 21 0.00 0.00 0.00 0.0 0.00	22.6003572436	0.00	0.00	Cloudy(cloudy)	True	False	0.00
2011-02-21 22:00:00 15782 22 0.00 0.00 0.00 0.0 0.00	22.6003572436	0.00	0.00	Cloudy(cloudy)	True	False	0.00
2011-02-21 23:00:00 15783 23 0.00 0.00 0.00 0.0 0.00	22.6003572436	0.00	0.00	Cloudy(cloudy)	True	False	0.00
2011-02-22 00:00:00 15784 0 0.00 0.00 0.00 0.0 0.00	0.645596454037	0.00	0.00	Few_Snow_Showers(cloudy)	True	False	0.00
2011-02-22 01:00:00 15785 1 0.00 0.00 0.00 0.0 0.00	0.645596454037	0.00	0.00	Few_Snow_Showers(cloudy)	True	False	0.00
2011-02-22 02:00:00 15786 2 0.00 0.00 0.00 0.0 0.00	0.645596454037	0.00	0.00	Few_Snow_Showers(cloudy)	True	False	0.00
2011-02-22 03:00:00 15787 3 0.00 0.00 0.00 0.0 0.00	0.645596454037	0.00	0.00	Few_Snow_Showers(cloudy)	True	False	0.00
2011-02-22 04:00:00 15788 4 0.00 0.00 0.00 0.0 0.00	22.6003572436	0.00	0.00	Cloudy(cloudy)	True	False	0.00
2011-02-22 05:00:00 15789 5 0.00 0.00 0.00 0.0 0.00	22.6003572436	0.00	0.00	Cloudy(mostly_cloudy)	True	False	0.00
2011-02-22 06:00:00 15790 6 3.18 3.18 3.18 0.4 16.40	19.4054500413	3.18	0.40	Mostly_Cloudy(cloudy)	True	False	0.40
2011-02-22 07:00:00 15791 7 47.00 47.00 47.00 59.7 242.20	19.4054500413	47.00	59.70	Mostly_Cloudy(cloudy)	True	False	59.70
2011-02-22 08:00:00 15792 8 117.97 117.97 117.97 400.0 607.90	19.4054500413	117.97	400.00	Mostly_Cloudy(mostly_cloudy)	True	False	400.00
2011-02-22 09:00:00 15793 9 172.05 172.05 172.05 798.1 886.60	19.4054500413	172.05	798.10	Mostly_Sunny(fair)	False	False	798.10
2011-02-22 10:00:00 15794 10 206.42 206.42 206.42 1040.2 1063.70	19.4054500413	206.42	1040.20	Mostly_Sunny(fair)	False	False	1040.20
2011-02-22 11:00:00 15795 11 223.10 223.10 223.10 1132.7 1149.70	19.4054500413	223.10	1132.70	Mostly_Sunny(fair)	False	False	1132.70
2011-02-22 12:00:00 15796 12 989.43 989.43 989.43 1136.1 1143.60	86.5187552881	989.43	1136.10	Sunny(fair)	True	False	1136.10
2011-02-22 13:00:00 15797 13 897.89 897.89 897.89 1025.6 1037.80	86.5187552881	897.89	1025.60	Sunny(fair)	True	False	1025.60
2011-02-22 14:00:00 15798 14 771.23 771.23 771.23 859.0 891.40	86.5187552881	771.23	859.00	Sunny(fair)	True	False	859.00
2011-02-22 15:00:00 15799 15 555.62 555.62 555.62 593.7 642.20	86.5187552881	555.62	593.70	Sunny(fair)	True	False	593.70
2011-02-22 16:00:00 15800 16 210.57 210.57 210.57 239.6 302.00	69.7247706422	210.57	239.60	Sunny(fair)	True	False	239.60
2011-02-22 17:00:00 15801 17 22.80 22.80 22.80 11.7 32.70	69.7247706422	22.80	11.70	Sunny(fair)	True	False	11.70
2011-02-22 18:00:00 15802 18 0.00 0.00 0.00 0.0 0.00	69.7247706422	0.00	0.00	Clear(fair)	True	False	0.00
2011-02-22 19:00:00 15803 19 0.00 0.00 0.00 0.0 0.00	69.7247706422	0.00	0.00	Clear(fair)	True	False	0.00
2011-02-22 20:00:00 15804 20 0.00 0.00 0.00 0.0 0.00	69.7247706422	0.00	0.00	Clear(fair)	True	False	0.00
2011-02-22 21:00:00 15805 21 0.00 0.00 0.00 0.0 0.00	69.7247706422	0.00	0.00	Clear(fair)	True	False	0.00
2011-02-22 22:00:00 15806 22 0.00 0.00 0.00 0.0 0.00	69.7247706422	0.00	0.00	Clear(fair)	True	False	0.00
2011-02-22 23:00:00 15807 23 0.00 0.00 0.00 0.0 0.00	69.7247706422	0.00	0.00	Clear(fair)	True	False	0.00
2011-02-23 00:00:00 15808 0 0.00 0.00 0.00 0.0 0.00	69.7247706422	0.00	0.00	Clear(fair)	True	False	0.00
2011-02-23 01:00:00 15809 1 0.00 0.00 0.00 0.0 0.00	69.7247706422	0.00	0.00	Clear(fair)	True	False	0.00
2011-02-23 02:00:00 15810 2 0.00 0.00 0.00 0.0 0.00	69.7247706422	0.00	0.00	Clear(fair)	True	False	0.00
2011-02-23 03:00:00 15811 3 0.00 0.00 0.00 0.0 0.00	69.7247706422	0.00	0.00	Clear(fair)	True	False	0.00
2011-02-23 04:00:00 15812 4 0.00 0.00 0.00 0.0 0.00	69.7247706422	0.00	0.00	Clear(fair)	True	False	0.00
2011-02-23 05:00:00 15813 5 0.00 0.00 0.00 0.0 0.00	69.7247706422	0.00	0.00	Clear(fair)	True	False	0.00
2011-02-23 06:00:00 15814 6 11.43 11.43 11.43 3.2 16.40	69.7247706422	11.43	3.20	Clear(fair)	True	False	3.20
2011-02-23 07:00:00 15815 7 168.87 168.87 168.87 171.6 242.20	69.7247706422	168.87	171.60	Sunny(fair)	True	False	171.60
2011-02-23 08:00:00 15816 8 423.86 423.86 423.86 533.0 607.90	69.7247706422	423.86	533.00	Sunny(fair)	True	False	533.00
2011-02-23 09:00:00 15817 9 618.18 618.18 618.18 824.3 886.60	69.7247706422	618.18	824.30	Sunny(fair)	True	False	824.30
2011-02-23 10:00:00 15818 10 920.30 920.30 920.30 999.3 1063.70	86.5187552881	920.30	999.30	Sunny(fair)	True	False	999.30
2011-02-23 11:00:00 15819 11 994.71 994.71 994.71 1082.7 1149.70	86.5187552881	994.71	1082.70	Sunny(fair)	True	False	1082.70
2011-02-23 12:00:00 15820 12 989.43 989.43 989.43 1086.2 1143.60	86.5187552881	989.43	1086.20	Sunny(fair)	True	False	1086.20
2011-02-23 13:00:00 15821 13 897.89 897.89 897.89 983.5 1037.80	86.5187552881	897.89	983.50	Sunny(fair)	True	False	983.50
2011-02-23 14:00:00 15822 14 771.23 771.23 771.23 828.7 891.40	86.5187552881	771.23	828.70	Sunny(fair)	True	False	828.70
2011-02-23 15:00:00 15823 15 555.62 555.62 555.62 573.7 642.20	86.5187552881	555.62	573.70	Sunny(fair)	True	False	573.70
