2011-02-20 00:00:00 13886 0 0.00 0.00 0.00 0.0 0.00	68.1848777204	0.00	0.00	Partly_Cloudy/Wind(cloudy_and_windy)	True	False	0.00
2011-02-20 01:00:00 13887 1 0.00 0.00 0.00 0.0 0.00	68.1848777204	0.00	0.00	Partly_Cloudy/Wind(mostly_cloudy_and_windy)	True	False	0.00
2011-02-20 02:00:00 13888 2 0.00 0.00 0.00 0.0 0.00	68.1848777204	0.00	0.00	Partly_Cloudy/Wind(mostly_cloudy_and_windy)	True	False	0.00
2011-02-20 03:00:00 13889 3 0.00 0.00 0.00 0.0 0.00	68.1848777204	0.00	0.00	Partly_Cloudy(fair)	True	False	0.00
2011-02-20 04:00:00 13890 4 0.00 0.00 0.00 0.0 0.00	68.1848777204	0.00	0.00	Mostly_Clear(fair)	False	False	0.00
2011-02-20 05:00:00 13891 5 0.00 0.00 0.00 0.0 0.00	68.1848777204	0.00	0.00	Mostly_Clear(fair)	False	False	0.00
2011-02-20 06:00:00 13892 6 9.91 9.91 9.91 1.4 15.60	63.5471815634	9.91	1.40	Clear(fair)	True	False	1.40
2011-02-20 07:00:00 13893 7 153.91 153.91 153.91 147.1 242.20	63.5471815634	153.91	147.10	Sunny(fair)	True	False	147.10
2011-02-20 08:00:00 13894 8 386.30 386.30 386.30 522.3 607.90	63.5471815634	386.30	522.30	Sunny(fair)	True	False	522.30
2011-02-20 09:00:00 13895 9 563.41 563.41 563.41 808.3 886.60	63.5471815634	563.41	808.30	Sunny(fair)	True	False	808.30
2011-02-20 10:00:00 13896 10 693.04 693.04 693.04 969.8 1063.70	65.153899965	693.04	969.80	Sunny(fair)	True	False	969.80
2011-02-20 11:00:00 13897 11 749.07 749.07 749.07 1044.4 1149.70	65.153899965	749.07	1044.40	Sunny(fair)	True	False	1044.40
2011-02-20 12:00:00 13898 12 745.10 745.10 745.10 1023.0 1143.60	65.153899965	745.10	1023.00	Mostly_Sunny(fair)	False	False	1023.00
2011-02-20 13:00:00 13899 13 676.17 676.17 676.17 998.1 1037.80	65.153899965	676.17	998.10	Mostly_Sunny(fair)	False	False	998.10
2011-02-20 14:00:00 13900 14 580.78 580.78 580.78 846.9 891.40	65.153899965	580.78	846.90	Mostly_Sunny(fair)	False	False	846.90
2011-02-20 15:00:00 13901 15 165.06 165.06 165.06 565.0 642.20	25.7027357338	165.06	565.00	Mostly_Cloudy(fair)	True	False	565.00
2011-02-20 16:00:00 13902 16 62.03 62.03 62.03 164.0 302.00	20.5391382811	62.03	164.00	Mostly_Cloudy(fair)	True	False	164.00
2011-02-20 17:00:00 13903 17 6.33 6.33 6.33 11.6 30.80	20.5391382811	6.33	11.60	Mostly_Cloudy(fair)	True	False	11.60
2011-02-20 18:00:00 13904 18 0.00 0.00 0.00 0.0 0.00	22.6003572436	0.00	0.00	Cloudy(fair)	True	False	0.00
2011-02-20 19:00:00 13905 19 0.00 0.00 0.00 0.0 0.00	22.6003572436	0.00	0.00	Cloudy(fair)	True	False	0.00
2011-02-20 20:00:00 13906 20 0.00 0.00 0.00 0.0 0.00	22.6003572436	0.00	0.00	Cloudy(mostly_cloudy)	True	False	0.00
2011-02-20 21:00:00 13907 21 0.00 0.00 0.00 0.0 0.00	0.365312690267	0.00	0.00	Snow_Shower(mostly_cloudy)	True	False	0.00
2011-02-20 22:00:00 13908 22 0.00 0.00 0.00 0.0 0.00	0.365312690267	0.00	0.00	Snow_Shower(cloudy)	True	False	0.00
2011-02-20 23:00:00 13909 23 0.00 0.00 0.00 0.0 0.00	0.365312690267	0.00	0.00	Snow_Shower(cloudy)	True	False	0.00
2011-02-21 00:00:00 13910 0 0.00 0.00 0.00 0.0 0.00	0.645596454037	0.00	0.00	Light_Snow(cloudy)	True	False	0.00
2011-02-21 01:00:00 13911 1 0.00 0.00 0.00 0.0 0.00	0.645596454037	0.00	0.00	Light_Snow(light_snow)	True	False	0.00
2011-02-21 02:00:00 13912 2 0.00 0.00 0.00 0.0 0.00	0.645596454037	0.00	0.00	Light_Snow(light_snow)	True	False	0.00
2011-02-21 03:00:00 13913 3 0.00 0.00 0.00 0.0 0.00	9.53757225434	0.00	0.00	Wintry_Mix(snow)	True	False	0.00
2011-02-21 04:00:00 13914 4 0.00 0.00 0.00 0.0 0.00	9.53757225434	0.00	0.00	Wintry_Mix(snow)	True	False	0.00
2011-02-21 05:00:00 13915 5 0.00 0.00 0.00 0.0 0.00	9.53757225434	0.00	0.00	Wintry_Mix(light_snow)	True	False	0.00
2011-02-21 06:00:00 13916 6 1.49 1.49 1.49 0.0 15.60	9.53757225434	1.49	0.00	Rain(light_snow)	True	False	0.00
2011-02-21 07:00:00 13917 7 23.10 23.10 23.10 0.0 242.20	9.53757225434	23.10	0.00	Rain(light_snow)	True	False	0.00
2011-02-21 08:00:00 13918 8 57.98 57.98 57.98 1.3 607.90	9.53757225434	57.98	1.30	Rain(cloudy)	True	False	1.30
2011-02-21 09:00:00 13919 9 84.56 84.56 84.56 13.3 886.60	9.53757225434	84.56	13.30	Showers(light_snow)	True	False	13.30
2011-02-21 10:00:00 13920 10 104.18 104.18 104.18 29.3 1063.70	9.79385926764	104.18	29.30	Showers(cloudy)	True	False	29.30
2011-02-21 11:00:00 13921 11 112.60 112.60 112.60 43.0 1149.70	9.79385926764	112.60	43.00	Showers(cloudy)	True	False	43.00
2011-02-21 12:00:00 13922 12 74.72 74.72 74.72 47.2 1143.60	6.53379712325	74.72	47.20	Few_Showers(cloudy)	True	False	47.20
2011-02-21 13:00:00 13923 13 67.81 67.81 67.81 74.1 1037.80	6.53379712325	67.81	74.10	Few_Showers(cloudy)	True	False	74.10
2011-02-21 14:00:00 13924 14 58.24 58.24 58.24 101.9 891.40	6.53379712325	58.24	101.90	Few_Showers(mostly_cloudy)	True	False	101.90
2011-02-21 15:00:00 13925 15 156.43 156.43 156.43 84.0 642.20	24.3592214299	156.43	84.00	Cloudy(partly_cloudy)	True	False	84.00
2011-02-21 16:00:00 13926 16 68.25 68.25 68.25 40.1 302.00	22.6003572436	68.25	40.10	Cloudy(fair)	True	False	40.10
2011-02-21 17:00:00 13927 17 6.96 6.96 6.96 3.6 30.80	22.6003572436	6.96	3.60	Cloudy(fair)	True	False	3.60
2011-02-21 18:00:00 13928 18 0.00 0.00 0.00 0.0 0.00	0.645596454037	0.00	0.00	Few_Snow_Showers(fair)	True	False	0.00
2011-02-21 19:00:00 13929 19 0.00 0.00 0.00 0.0 0.00	0.645596454037	0.00	0.00	Few_Snow_Showers(fair)	True	False	0.00
2011-02-21 20:00:00 13930 20 0.00 0.00 0.00 0.0 0.00	0.645596454037	0.00	0.00	Few_Snow_Showers(fair)	True	False	0.00
2011-02-21 21:00:00 13931 21 0.00 0.00 0.00 0.0 0.00	0.645596454037	0.00	0.00	Few_Snow_Showers(cloudy)	True	False	0.00
2011-02-21 22:00:00 13932 22 0.00 0.00 0.00 0.0 0.00	0.645596454037	0.00	0.00	Few_Snow_Showers(cloudy)	True	False	0.00
2011-02-21 23:00:00 13933 23 0.00 0.00 0.00 0.0 0.00	0.645596454037	0.00	0.00	Few_Snow_Showers(cloudy)	True	False	0.00
