2011-02-14 12:00:00 7563 12 758.44 959.45 959.45 1023.3 1107.40	68.4883517253	959.45	1023.30	Partly_Cloudy(fair)	True	False	1023.30
2011-02-14 13:00:00 7564 13 687.83 870.13 870.13 894.0 1004.30	68.4883517253	870.13	894.00	Partly_Cloudy(fair)	True	False	894.00
2011-02-14 14:00:00 7565 14 571.47 722.92 722.92 654.7 834.40	68.4883517253	722.92	654.70	Partly_Cloudy(fair)	True	False	654.70
2011-02-14 15:00:00 7566 15 391.00 494.63 494.63 352.9 570.90	68.4883517253	494.63	352.90	Partly_Cloudy(partly_cloudy)	True	False	352.90
2011-02-14 16:00:00 7567 16 109.70 193.47 193.47 174.3 223.30	49.1267353336	193.47	174.30	Partly_Cloudy(fair)	True	False	174.30
2011-02-14 17:00:00 7568 17 14.54 25.65 25.65 5.9 29.60	49.1267353336	25.65	5.90	Partly_Cloudy(fair)	True	False	5.90
2011-02-14 18:00:00 7569 18 0.00 0.00 0.00 0.0 0.00	19.1848272089	0.00	0.00	Mostly_Cloudy(cloudy)	True	False	0.00
2011-02-14 19:00:00 7570 19 0.00 0.00 0.00 0.0 0.00	19.1848272089	0.00	0.00	Mostly_Cloudy(cloudy)	True	False	0.00
2011-02-14 20:00:00 7571 20 0.00 0.00 0.00 0.0 0.00	19.1848272089	0.00	0.00	Mostly_Cloudy(cloudy)	True	False	0.00
2011-02-14 21:00:00 7572 21 0.00 0.00 0.00 0.0 0.00	49.1267353336	0.00	0.00	Partly_Cloudy_/_Wind(cloudy_and_windy)	True	False	0.00
2011-02-14 22:00:00 7573 22 0.00 0.00 0.00 0.0 0.00	49.1267353336	0.00	0.00	Partly_Cloudy_/_Wind(cloudy_and_windy)	True	False	0.00
2011-02-14 23:00:00 7574 23 0.00 0.00 0.00 0.0 0.00	49.1267353336	0.00	0.00	Partly_Cloudy_/_Wind(cloudy)	True	False	0.00
2011-02-15 00:00:00 7575 0 0.00 0.00 0.00 0.0 0.00	49.1267353336	0.00	0.00	Partly_Cloudy_/_Wind(mostly_cloudy)	True	False	0.00
2011-02-15 01:00:00 7576 1 0.00 0.00 0.00 0.0 0.00	49.1267353336	0.00	0.00	Partly_Cloudy_/_Wind(cloudy)	True	False	0.00
2011-02-15 02:00:00 7577 2 0.00 0.00 0.00 0.0 0.00	49.1267353336	0.00	0.00	Partly_Cloudy_/_Wind(cloudy)	True	False	0.00
2011-02-15 03:00:00 7578 3 0.00 0.00 0.00 0.0 0.00	49.1267353336	0.00	0.00	Mostly_Clear(fair)	False	False	0.00
2011-02-15 04:00:00 7579 4 0.00 0.00 0.00 0.0 0.00	49.1267353336	0.00	0.00	Mostly_Clear(fair)	False	False	0.00
2011-02-15 05:00:00 7580 5 0.00 0.00 0.00 0.0 0.00	49.1267353336	0.00	0.00	Mostly_Clear(fair)	False	False	0.00
2011-02-15 06:00:00 7581 6 1.90 1.90 1.90 0.0 2.80	67.8571428571	1.90	0.00	Clear(fair)	True	False	0.00
2011-02-15 07:00:00 7582 7 111.35 111.35 111.35 119.3 164.10	67.8571428571	111.35	119.30	Sunny(fair)	True	False	119.30
2011-02-15 08:00:00 7583 8 346.07 346.07 346.07 492.5 510.00	67.8571428571	346.07	492.50	Sunny(fair)	True	False	492.50
2011-02-15 09:00:00 7584 9 548.01 548.01 548.01 815.0 807.60	67.8571428571	548.01	815.00	Sunny(fair)	True	False	815.00
2011-02-15 10:00:00 7585 10 867.70 867.70 867.70 1023.0 1001.50	86.6400399401	867.70	1023.00	Sunny(fair)	True	False	1023.00
2011-02-15 11:00:00 7586 11 950.18 950.18 950.18 1118.6 1096.70	86.6400399401	950.18	1118.60	Sunny(fair)	True	False	1118.60
2011-02-15 12:00:00 7587 12 959.45 959.45 959.45 1130.7 1107.40	86.6400399401	959.45	1130.70	Sunny(fair)	True	False	1130.70
