2011-02-17 02:00:00 10525 2 0.00 0.00 0.00 0.0 0.00	62.6201153107	0.00	0.00	Partly_Cloudy(cloudy)	True	False	0.00
2011-02-17 03:00:00 10526 3 0.00 0.00 0.00 0.0 0.00	62.6201153107	0.00	0.00	Partly_Cloudy(partly_cloudy)	True	False	0.00
2011-02-17 04:00:00 10527 4 0.00 0.00 0.00 0.0 0.00	62.6201153107	0.00	0.00	Partly_Cloudy(mostly_cloudy)	True	False	0.00
2011-02-17 05:00:00 10528 5 0.00 0.00 0.00 0.0 0.00	62.6201153107	0.00	0.00	Partly_Cloudy(mostly_cloudy)	True	False	0.00
2011-02-17 06:00:00 10529 6 6.01 6.01 6.01 0.0 9.60	62.6201153107	6.01	0.00	Partly_Cloudy(cloudy)	True	False	0.00
2011-02-17 07:00:00 10530 7 125.74 125.74 125.74 20.5 200.80	62.6201153107	125.74	20.50	Partly_Cloudy(cloudy)	True	False	20.50
2011-02-17 08:00:00 10531 8 349.04 349.04 349.04 114.0 557.40	62.6201153107	349.04	114.00	Partly_Cloudy(cloudy)	True	False	114.00
2011-02-17 09:00:00 10532 9 148.97 148.97 148.97 225.1 807.60	18.4464317026	148.97	225.10	Mostly_Cloudy(cloudy)	True	False	225.10
2011-02-17 10:00:00 10533 10 273.40 273.40 273.40 628.5 1054.10	25.9368181387	273.40	628.50	Mostly_Cloudy(cloudy)	True	False	628.50
2011-02-17 11:00:00 10534 11 295.84 295.84 295.84 876.3 1140.60	25.9368181387	295.84	876.30	Mostly_Cloudy(mostly_cloudy)	True	False	876.30
2011-02-17 12:00:00 10535 12 292.88 292.88 292.88 971.7 1129.20	25.9368181387	292.88	971.70	Mostly_Cloudy(mostly_cloudy)	True	False	971.70
2011-02-17 13:00:00 10536 13 268.13 268.13 268.13 827.2 1033.80	25.9368181387	268.13	827.20	Mostly_Cloudy(fair)	True	False	827.20
2011-02-17 14:00:00 10537 14 221.68 221.68 221.68 599.8 854.70	25.9368181387	221.68	599.80	Mostly_Cloudy(fair)	True	False	599.80
2011-02-17 15:00:00 10538 15 161.95 161.95 161.95 447.7 624.40	25.9368181387	161.95	447.70	Mostly_Cloudy(fair)	True	False	447.70
2011-02-17 16:00:00 10539 16 50.89 50.89 50.89 111.5 275.90	18.4464317026	50.89	111.50	Mostly_Cloudy(fair)	True	False	111.50
2011-02-17 17:00:00 10540 17 5.46 5.46 5.46 5.1 29.60	18.4464317026	5.46	5.10	Mostly_Cloudy(fair)	True	False	5.10
2011-02-17 18:00:00 10541 18 0.00 0.00 0.00 0.0 0.00	18.4464317026	0.00	0.00	Mostly_Cloudy(fair)	True	False	0.00
2011-02-17 19:00:00 10542 19 0.00 0.00 0.00 0.0 0.00	18.4464317026	0.00	0.00	Mostly_Cloudy(fair)	True	False	0.00
2011-02-17 20:00:00 10543 20 0.00 0.00 0.00 0.0 0.00	18.4464317026	0.00	0.00	Mostly_Cloudy(fair)	True	False	0.00
2011-02-17 21:00:00 10544 21 0.00 0.00 0.00 0.0 0.00	18.4464317026	0.00	0.00	Mostly_Cloudy(fair)	True	False	0.00
2011-02-17 22:00:00 10545 22 0.00 0.00 0.00 0.0 0.00	18.4464317026	0.00	0.00	Mostly_Cloudy(fair)	True	False	0.00
2011-02-17 23:00:00 10546 23 0.00 0.00 0.00 0.0 0.00	18.4464317026	0.00	0.00	Mostly_Cloudy(fair)	True	False	0.00
2011-02-18 00:00:00 10547 0 0.00 0.00 0.00 0.0 0.00	21.2982642579	0.00	0.00	Cloudy(fair)	True	False	0.00
2011-02-18 01:00:00 10548 1 0.00 0.00 0.00 0.0 0.00	21.2982642579	0.00	0.00	Cloudy(fair)	True	False	0.00
2011-02-18 02:00:00 10549 2 0.00 0.00 0.00 0.0 0.00	21.2982642579	0.00	0.00	Cloudy(fair)	True	False	0.00
2011-02-18 03:00:00 10550 3 0.00 0.00 0.00 0.0 0.00	21.2982642579	0.00	0.00	Cloudy(fair)	True	False	0.00
2011-02-18 04:00:00 10551 4 0.00 0.00 0.00 0.0 0.00	21.2982642579	0.00	0.00	Cloudy(clear)	True	False	0.00
2011-02-18 05:00:00 10552 5 0.00 0.00 0.00 0.0 0.00	21.2982642579	0.00	0.00	Cloudy(fair)	True	False	0.00
2011-02-18 06:00:00 10553 6 2.04 2.04 2.04 0.0 9.60	21.2982642579	2.04	0.00	Cloudy(fair)	True	False	0.00
2011-02-18 07:00:00 10554 7 42.77 42.77 42.77 72.0 200.80	21.2982642579	42.77	72.00	Cloudy(fair)	True	False	72.00
2011-02-18 08:00:00 10555 8 118.72 118.72 118.72 144.1 557.40	21.2982642579	118.72	144.10	Cloudy(partly_cloudy)	True	False	144.10
2011-02-18 09:00:00 10556 9 172.00 172.00 172.00 100.6 807.60	21.2982642579	172.00	100.60	Cloudy(fair)	True	False	100.60
2011-02-18 10:00:00 10557 10 240.40 240.40 240.40 132.3 1054.10	22.8061853714	240.40	132.30	Cloudy(fair)	True	False	132.30
2011-02-18 11:00:00 10558 11 260.13 260.13 260.13 195.4 1140.60	22.8061853714	260.13	195.40	Cloudy(fair)	True	False	195.40
2011-02-18 12:00:00 10559 12 292.88 292.88 292.88 708.5 1129.20	25.9368181387	292.88	708.50	Mostly_Cloudy(fair)	True	False	708.50
2011-02-18 13:00:00 10560 13 268.13 268.13 268.13 894.7 1033.80	25.9368181387	268.13	894.70	Mostly_Cloudy(fair)	True	False	894.70
2011-02-18 14:00:00 10561 14 221.68 221.68 221.68 738.0 854.70	25.9368181387	221.68	738.00	Mostly_Cloudy(fair)	True	False	738.00
2011-02-18 15:00:00 10562 15 464.53 464.53 464.53 498.3 624.40	74.39543432	464.53	498.30	Partly_Cloudy(fair)	True	False	498.30
2011-02-18 16:00:00 10563 16 172.77 172.77 172.77 191.4 275.90	62.6201153107	172.77	191.40	Partly_Cloudy(fair)	True	False	191.40
2011-02-18 17:00:00 10564 17 18.54 18.54 18.54 17.7 29.60	62.6201153107	18.54	17.70	Partly_Cloudy(fair)	True	False	17.70
2011-02-18 18:00:00 10565 18 0.00 0.00 0.00 0.0 0.00	62.6201153107	0.00	0.00	Partly_Cloudy(fair)	True	False	0.00
2011-02-18 19:00:00 10566 19 0.00 0.00 0.00 0.0 0.00	62.6201153107	0.00	0.00	Partly_Cloudy(light_rain)	True	False	0.00
2011-02-18 20:00:00 10567 20 0.00 0.00 0.00 0.0 0.00	62.6201153107	0.00	0.00	Partly_Cloudy(fair)	True	False	0.00
2011-02-18 21:00:00 10568 21 0.00 0.00 0.00 0.0 0.00	62.6201153107	0.00	0.00	Mostly_Clear(fair)	False	False	0.00
2011-02-18 22:00:00 10569 22 0.00 0.00 0.00 0.0 0.00	62.6201153107	0.00	0.00	Mostly_Clear(fair)	False	False	0.00
2011-02-18 23:00:00 10570 23 0.00 0.00 0.00 0.0 0.00	62.6201153107	0.00	0.00	Mostly_Clear(fair)	False	False	0.00
2011-02-19 00:00:00 10571 0 0.00 0.00 0.00 0.0 0.00	62.6201153107	0.00	0.00	Mostly_Clear(fair)	False	False	0.00
2011-02-19 01:00:00 10572 1 0.00 0.00 0.00 0.0 0.00	62.6201153107	0.00	0.00	Mostly_Clear(fair)	False	False	0.00
