2011-02-21 21:00:00 16066 21 0.00 0.00 0.00 0.0 0.00	0.645596454037	0.00	0.00	Light_Snow(cloudy)	True	False	0.00
2011-02-21 22:00:00 16067 22 0.00 0.00 0.00 0.0 0.00	0.365312690267	0.00	0.00	Snow(cloudy)	True	False	0.00
2011-02-21 23:00:00 16068 23 0.00 0.00 0.00 0.0 0.00	0.365312690267	0.00	0.00	Snow(cloudy)	True	False	0.00
2011-02-22 00:00:00 16069 0 0.00 0.00 0.00 0.0 0.00	0.365312690267	0.00	0.00	Snow(cloudy)	True	False	0.00
2011-02-22 01:00:00 16070 1 0.00 0.00 0.00 0.0 0.00	0.365312690267	0.00	0.00	Snow(cloudy)	True	False	0.00
2011-02-22 02:00:00 16071 2 0.00 0.00 0.00 0.0 0.00	0.365312690267	0.00	0.00	Snow(cloudy)	True	False	0.00
2011-02-22 03:00:00 16072 3 0.00 0.00 0.00 0.0 0.00	22.6003572436	0.00	0.00	Cloudy(cloudy)	True	False	0.00
2011-02-22 04:00:00 16073 4 0.00 0.00 0.00 0.0 0.00	22.6003572436	0.00	0.00	Cloudy(cloudy)	True	False	0.00
2011-02-22 05:00:00 16074 5 0.00 0.00 0.00 0.0 0.00	22.6003572436	0.00	0.00	Cloudy(mostly_cloudy)	True	False	0.00
2011-02-22 06:00:00 16075 6 3.18 3.18 3.18 0.4 16.40	19.4054500413	3.18	0.40	Mostly_Cloudy(cloudy)	True	False	0.40
2011-02-22 07:00:00 16076 7 47.00 47.00 47.00 59.7 242.20	19.4054500413	47.00	59.70	Mostly_Cloudy(cloudy)	True	False	59.70
2011-02-22 08:00:00 16077 8 117.97 117.97 117.97 400.0 607.90	19.4054500413	117.97	400.00	Mostly_Cloudy(mostly_cloudy)	True	False	400.00
2011-02-22 09:00:00 16078 9 172.05 172.05 172.05 798.1 886.60	19.4054500413	172.05	798.10	Mostly_Sunny(fair)	False	False	798.10
2011-02-22 10:00:00 16079 10 206.42 206.42 206.42 1040.2 1063.70	19.4054500413	206.42	1040.20	Mostly_Sunny(fair)	False	False	1040.20
2011-02-22 11:00:00 16080 11 223.10 223.10 223.10 1132.7 1149.70	19.4054500413	223.10	1132.70	Mostly_Sunny(fair)	False	False	1132.70
2011-02-22 12:00:00 16081 12 989.43 989.43 989.43 1136.1 1143.60	86.5187552881	989.43	1136.10	Sunny(fair)	True	False	1136.10
2011-02-22 13:00:00 16082 13 897.89 897.89 897.89 1025.6 1037.80	86.5187552881	897.89	1025.60	Sunny(fair)	True	False	1025.60
2011-02-22 14:00:00 16083 14 771.23 771.23 771.23 859.0 891.40	86.5187552881	771.23	859.00	Sunny(fair)	True	False	859.00
2011-02-22 15:00:00 16084 15 555.62 555.62 555.62 593.7 642.20	86.5187552881	555.62	593.70	Sunny(fair)	True	False	593.70
2011-02-22 16:00:00 16085 16 210.57 210.57 210.57 239.6 302.00	69.7247706422	210.57	239.60	Sunny(fair)	True	False	239.60
2011-02-22 17:00:00 16086 17 22.80 22.80 22.80 11.7 32.70	69.7247706422	22.80	11.70	Sunny(fair)	True	False	11.70
2011-02-22 18:00:00 16087 18 0.00 0.00 0.00 0.0 0.00	69.7247706422	0.00	0.00	Clear(fair)	True	False	0.00
2011-02-22 19:00:00 16088 19 0.00 0.00 0.00 0.0 0.00	69.7247706422	0.00	0.00	Clear(fair)	True	False	0.00
2011-02-22 20:00:00 16089 20 0.00 0.00 0.00 0.0 0.00	69.7247706422	0.00	0.00	Clear(fair)	True	False	0.00
2011-02-22 21:00:00 16090 21 0.00 0.00 0.00 0.0 0.00	69.7247706422	0.00	0.00	Clear(fair)	True	False	0.00
2011-02-22 22:00:00 16091 22 0.00 0.00 0.00 0.0 0.00	69.7247706422	0.00	0.00	Clear(fair)	True	False	0.00
2011-02-22 23:00:00 16092 23 0.00 0.00 0.00 0.0 0.00	69.7247706422	0.00	0.00	Clear(fair)	True	False	0.00
2011-02-23 00:00:00 16093 0 0.00 0.00 0.00 0.0 0.00	69.7247706422	0.00	0.00	Clear(fair)	True	False	0.00
2011-02-23 01:00:00 16094 1 0.00 0.00 0.00 0.0 0.00	69.7247706422	0.00	0.00	Clear(fair)	True	False	0.00
2011-02-23 02:00:00 16095 2 0.00 0.00 0.00 0.0 0.00	69.7247706422	0.00	0.00	Clear(fair)	True	False	0.00
2011-02-23 03:00:00 16096 3 0.00 0.00 0.00 0.0 0.00	69.7247706422	0.00	0.00	Clear(fair)	True	False	0.00
2011-02-23 04:00:00 16097 4 0.00 0.00 0.00 0.0 0.00	69.7247706422	0.00	0.00	Clear(fair)	True	False	0.00
2011-02-23 05:00:00 16098 5 0.00 0.00 0.00 0.0 0.00	69.7247706422	0.00	0.00	Clear(fair)	True	False	0.00
2011-02-23 06:00:00 16099 6 11.43 11.43 11.43 3.2 16.40	69.7247706422	11.43	3.20	Clear(fair)	True	False	3.20
2011-02-23 07:00:00 16100 7 168.87 168.87 168.87 171.6 242.20	69.7247706422	168.87	171.60	Sunny(fair)	True	False	171.60
2011-02-23 08:00:00 16101 8 423.86 423.86 423.86 533.0 607.90	69.7247706422	423.86	533.00	Sunny(fair)	True	False	533.00
2011-02-23 09:00:00 16102 9 618.18 618.18 618.18 824.3 886.60	69.7247706422	618.18	824.30	Sunny(fair)	True	False	824.30
2011-02-23 10:00:00 16103 10 920.30 920.30 920.30 999.3 1063.70	86.5187552881	920.30	999.30	Sunny(fair)	True	False	999.30
2011-02-23 11:00:00 16104 11 994.71 994.71 994.71 1082.7 1149.70	86.5187552881	994.71	1082.70	Sunny(fair)	True	False	1082.70
2011-02-23 12:00:00 16105 12 989.43 989.43 989.43 1086.2 1143.60	86.5187552881	989.43	1086.20	Sunny(fair)	True	False	1086.20
2011-02-23 13:00:00 16106 13 897.89 897.89 897.89 983.5 1037.80	86.5187552881	897.89	983.50	Sunny(fair)	True	False	983.50
2011-02-23 14:00:00 16107 14 771.23 771.23 771.23 828.7 891.40	86.5187552881	771.23	828.70	Sunny(fair)	True	False	828.70
2011-02-23 15:00:00 16108 15 555.62 555.62 555.62 573.7 642.20	86.5187552881	555.62	573.70	Sunny(fair)	True	False	573.70
2011-02-23 16:00:00 16109 16 210.57 210.57 210.57 236.0 302.00	69.7247706422	210.57	236.00	Sunny(fair)	True	False	236.00
2011-02-23 17:00:00 16110 17 22.80 22.80 22.80 13.2 32.70	69.7247706422	22.80	13.20	Sunny(fair)	True	False	13.20
2011-02-23 18:00:00 16111 18 0.00 0.00 0.00 0.0 0.00	69.7247706422	0.00	0.00	Clear(fair)	True	False	0.00
2011-02-23 19:00:00 16112 19 0.00 0.00 0.00 0.0 0.00	69.7247706422	0.00	0.00	Clear(fair)	True	False	0.00
2011-02-23 20:00:00 16113 20 0.00 0.00 0.00 0.0 0.00	69.7247706422	0.00	0.00	Clear(fair)	True	False	0.00
2011-02-23 21:00:00 16114 21 0.00 0.00 0.00 0.0 0.00	69.7247706422	0.00	0.00	Clear(fair)	True	False	0.00
