2011-03-18 02:00:00 43733 2 0.00 0.00 0.00 0.0 0.00	67.7087831419	0.00	0.00	Partly_Cloudy(clear)	True	False	0.00
2011-03-18 03:00:00 43734 3 0.00 0.00 0.00 0.0 0.00	67.7087831419	0.00	0.00	Partly_Cloudy(clear)	True	False	0.00
2011-03-18 04:00:00 43735 4 0.00 0.00 0.00 0.0 0.00	67.7087831419	0.00	0.00	Partly_Cloudy(partly_cloudy)	True	False	0.00
2011-03-18 05:00:00 43736 5 0.00 0.00 0.00 0.0 0.00	67.7087831419	0.00	0.00	Partly_Cloudy(fair)	True	False	0.00
2011-03-18 06:00:00 43737 6 18.48 18.48 18.48 0.0 27.30	67.7087831419	18.48	0.00	Partly_Cloudy(fair)	True	False	0.00
2011-03-18 07:00:00 43738 7 163.99 163.99 163.99 35.7 242.20	67.7087831419	163.99	35.70	Partly_Cloudy(partly_cloudy)	True	False	35.70
2011-03-18 08:00:00 43739 8 411.60 411.60 411.60 251.6 607.90	67.7087831419	411.60	251.60	Partly_Cloudy(sunny)	True	False	251.60
2011-03-18 09:00:00 43740 9 612.35 612.35 612.35 464.4 886.60	69.0666891493	612.35	464.40	Partly_Cloudy(sunny)	True	False	464.40
2011-03-18 10:00:00 43741 10 734.66 734.66 734.66 780.7 1063.70	69.0666891493	734.66	780.70	Partly_Cloudy(sunny)	True	False	780.70
2011-03-18 11:00:00 43742 11 794.06 794.06 794.06 809.1 1149.70	69.0666891493	794.06	809.10	Partly_Cloudy(sunny)	True	False	809.10
2011-03-18 12:00:00 43743 12 819.20 819.20 819.20 1010.7 1186.10	69.0666891493	819.20	1010.70	Partly_Cloudy(sunny)	True	False	1010.70
2011-03-18 13:00:00 43744 13 808.29 808.29 808.29 987.7 1170.30	69.0666891493	808.29	987.70	Partly_Cloudy(fair)	True	False	987.70
2011-03-18 14:00:00 43745 14 799.72 799.72 799.72 982.1 1157.90	69.0666891493	799.72	982.10	Partly_Cloudy(partly_cloudy)	True	False	982.10
2011-03-18 15:00:00 43746 15 855.69 855.69 855.69 807.4 991.70	86.2855678031	855.69	807.40	Sunny(sunny)	True	False	807.40
2011-03-18 16:00:00 43747 16 590.28 590.28 590.28 503.2 684.10	86.2855678031	590.28	503.20	Sunny(fair)	True	False	503.20
2011-03-18 17:00:00 43748 17 301.14 301.14 301.14 221.1 349.00	86.2855678031	301.14	221.10	Sunny(fair)	True	False	221.10
2011-03-18 18:00:00 43749 18 75.24 75.24 75.24 43.3 87.20	86.2855678031	75.24	43.30	Sunny(fair)	True	False	43.30
2011-03-18 19:00:00 43750 19 1.21 1.21 1.21 0.1 1.40	86.2855678031	1.21	0.10	Clear(fair)	True	False	0.10
2011-03-18 20:00:00 43751 20 0.00 0.00 0.00 0.0 0.00	86.2855678031	0.00	0.00	Clear(fair)	True	False	0.00
2011-03-18 21:00:00 43752 21 0.00 0.00 0.00 0.0 0.00	86.2855678031	0.00	0.00	Clear(fair)	True	False	0.00
2011-03-18 22:00:00 43753 22 0.00 0.00 0.00 0.0 0.00	86.2855678031	0.00	0.00	Clear(fair)	True	False	0.00
2011-03-18 23:00:00 43754 23 0.00 0.00 0.00 0.0 0.00	86.2855678031	0.00	0.00	Clear(mostly_cloudy)	True	False	0.00
2011-03-19 00:00:00 43755 0 0.00 0.00 0.00 0.0 0.00	67.7087831419	0.00	0.00	Partly_Cloudy(cloudy)	True	False	0.00
2011-03-19 01:00:00 43756 1 0.00 0.00 0.00 0.0 0.00	67.7087831419	0.00	0.00	Partly_Cloudy(cloudy)	True	False	0.00
2011-03-19 02:00:00 43757 2 0.00 0.00 0.00 0.0 0.00	67.7087831419	0.00	0.00	Partly_Cloudy(cloudy)	True	False	0.00
2011-03-19 03:00:00 43758 3 0.00 0.00 0.00 0.0 0.00	8.70541497539	0.00	0.00	Few_Showers(mostly_cloudy)	True	False	0.00
2011-03-19 04:00:00 43759 4 0.00 0.00 0.00 0.0 0.00	8.70541497539	0.00	0.00	Few_Showers(mostly_cloudy)	True	False	0.00
2011-03-19 05:00:00 43760 5 0.00 0.00 0.00 0.0 0.00	8.70541497539	0.00	0.00	Few_Showers(partly_cloudy)	True	False	0.00
2011-03-19 06:00:00 43761 6 2.38 2.38 2.38 0.0 27.30	8.70541497539	2.38	0.00	Few_Showers(partly_cloudy)	True	False	0.00
2011-03-19 07:00:00 43762 7 21.08 21.08 21.08 36.1 242.20	8.70541497539	21.08	36.10	Few_Showers(partly_cloudy)	True	False	36.10
2011-03-19 08:00:00 43763 8 52.92 52.92 52.92 313.9 607.90	8.70541497539	52.92	313.90	Few_Showers(sunny)	True	False	313.90
2011-03-19 09:00:00 43764 9 77.88 77.88 77.88 664.8 886.60	8.78407246005	77.88	664.80	Few_Showers(sunny)	True	False	664.80
2011-03-19 10:00:00 43765 10 93.44 93.44 93.44 924.7 1063.70	8.78407246005	93.44	924.70	Few_Showers(fair)	True	False	924.70
2011-03-19 11:00:00 43766 11 100.99 100.99 100.99 1080.9 1149.70	8.78407246005	100.99	1080.90	Few_Showers(sunny)	True	False	1080.90
2011-03-19 12:00:00 43767 12 160.51 160.51 160.51 1141.6 1186.10	13.5323182414	160.51	1141.60	Cloudy(partly_cloudy)	True	False	1141.60
2011-03-19 13:00:00 43768 13 158.37 158.37 158.37 1126.5 1170.30	13.5323182414	158.37	1126.50	Cloudy(partly_cloudy)	True	False	1126.50
2011-03-19 14:00:00 43769 14 156.69 156.69 156.69 1076.6 1157.90	13.5323182414	156.69	1076.60	Cloudy(fair)	True	False	1076.60
2011-03-19 15:00:00 43770 15 671.47 671.47 671.47 928.9 991.70	67.7087831419	671.47	928.90	Partly_Cloudy(fair)	True	False	928.90
2011-03-19 16:00:00 43771 16 463.20 463.20 463.20 680.8 684.10	67.7087831419	463.20	680.80	Partly_Cloudy(fair)	True	False	680.80
2011-03-19 17:00:00 43772 17 236.30 236.30 236.30 338.7 349.00	67.7087831419	236.30	338.70	Partly_Cloudy(sunny)	True	False	338.70
2011-03-19 18:00:00 43773 18 59.04 59.04 59.04 56.7 87.20	67.7087831419	59.04	56.70	Mostly_Sunny(sunny)	False	False	56.70
2011-03-19 19:00:00 43774 19 0.95 0.95 0.95 0.1 1.40	67.7087831419	0.95	0.10	Mostly_Clear(sunny)	False	False	0.10
2011-03-19 20:00:00 43775 20 0.00 0.00 0.00 0.0 0.00	67.7087831419	0.00	0.00	Mostly_Clear(clear)	False	False	0.00
2011-03-19 21:00:00 43776 21 0.00 0.00 0.00 0.0 0.00	86.2855678031	0.00	0.00	Clear(clear)	True	False	0.00
2011-03-19 22:00:00 43777 22 0.00 0.00 0.00 0.0 0.00	86.2855678031	0.00	0.00	Clear(clear)	True	False	0.00
2011-03-19 23:00:00 43778 23 0.00 0.00 0.00 0.0 0.00	86.2855678031	0.00	0.00	Clear(clear)	True	False	0.00
2011-03-20 00:00:00 43779 0 0.00 0.00 0.00 0.0 0.00	86.2855678031	0.00	0.00	Clear(clear)	True	False	0.00
