2011-02-09 01:00:00 1223 1 0.00 0.00 0.00 0.0 0.00	71.4836223507	0.00	0.00	Clear(fair)	True	False	0.00
2011-02-09 02:00:00 1224 2 0.00 0.00 0.00 0.0 0.00	71.4836223507	0.00	0.00	Clear(fair)	True	False	0.00
2011-02-09 03:00:00 1225 3 0.00 0.00 0.00 0.0 0.00	71.4836223507	0.00	0.00	Clear(fair)	True	False	0.00
2011-02-09 04:00:00 1226 4 0.00 0.00 0.00 0.0 0.00	71.4836223507	0.00	0.00	Clear(fair)	True	False	0.00
2011-02-09 05:00:00 1227 5 0.00 0.00 0.00 0.0 0.00	71.4836223507	0.00	0.00	Clear(fair)	True	False	0.00
2011-02-09 06:00:00 1228 6 1.86 1.86 1.86 0.0 2.60	71.4836223507	1.86	0.00	Clear(fair)	True	False	0.00
2011-02-09 07:00:00 1229 7 117.30 117.30 117.30 50.8 164.10	71.4836223507	117.30	50.80	Sunny(fair)	True	False	50.80
2011-02-09 08:00:00 1230 8 364.57 364.57 364.57 302.4 510.00	71.4836223507	364.57	302.40	Sunny(fair)	True	False	302.40
2011-02-09 09:00:00 1231 9 401.96 401.96 401.96 700.3 807.60	49.7722914669	401.96	700.30	Partly_Cloudy(fair)	True	False	700.30
2011-02-09 10:00:00 1232 10 702.52 702.52 702.52 706.8 1001.50	70.1468040485	702.52	706.80	Partly_Cloudy(fair)	True	False	706.80
2011-02-09 11:00:00 1233 11 769.30 769.30 769.30 841.1 1096.70	70.1468040485	769.30	841.10	Partly_Cloudy(fair)	True	False	841.10
2011-02-09 12:00:00 1234 12 268.75 268.75 268.75 917.0 1107.40	24.2689357622	268.75	917.00	Mostly_Cloudy(fair)	True	False	917.00
2011-02-09 13:00:00 1235 13 243.73 243.73 243.73 789.2 1004.30	24.2689357622	243.73	789.20	Mostly_Cloudy(fair)	True	False	789.20
2011-02-09 14:00:00 1236 14 202.50 202.50 202.50 444.2 834.40	24.2689357622	202.50	444.20	Mostly_Cloudy(Unkown)	True	False	444.20
2011-02-09 15:00:00 1237 15 400.47 400.47 400.47 190.3 570.90	70.1468040485	400.47	190.30	Partly_Cloudy(fair)	True	False	190.30
2011-02-09 16:00:00 1238 16 111.14 111.14 111.14 40.2 223.30	49.7722914669	111.14	40.20	Partly_Cloudy(fair)	True	False	40.20
2011-02-09 17:00:00 1239 17 5.72 5.72 5.72 0.2 11.50	49.7722914669	5.72	0.20	Partly_Cloudy(fair)	True	False	0.20
2011-02-09 18:00:00 1240 18 0.00 0.00 0.00 0.0 0.00	21.9435736677	0.00	0.00	Mostly_Cloudy(cloudy)	True	False	0.00
2011-02-09 19:00:00 1241 19 0.00 0.00 0.00 0.0 0.00	21.9435736677	0.00	0.00	Mostly_Cloudy(cloudy)	True	False	0.00
2011-02-09 20:00:00 1242 20 0.00 0.00 0.00 0.0 0.00	21.9435736677	0.00	0.00	Mostly_Cloudy(cloudy)	True	False	0.00
2011-02-09 21:00:00 1243 21 0.00 0.00 0.00 0.0 0.00	21.9435736677	0.00	0.00	Mostly_Cloudy(cloudy)	True	False	0.00
2011-02-09 22:00:00 1244 22 0.00 0.00 0.00 0.0 0.00	21.9435736677	0.00	0.00	Mostly_Cloudy(cloudy)	True	False	0.00
2011-02-09 23:00:00 1245 23 0.00 0.00 0.00 0.0 0.00	21.9435736677	0.00	0.00	Mostly_Cloudy(cloudy)	True	False	0.00
2011-02-10 00:00:00 1246 0 0.00 0.00 0.00 0.0 0.00	21.9435736677	0.00	0.00	Mostly_Cloudy(cloudy)	True	False	0.00
2011-02-10 01:00:00 1247 1 0.00 0.00 0.00 0.0 0.00	21.9435736677	0.00	0.00	Mostly_Cloudy(cloudy)	True	False	0.00
2011-02-10 02:00:00 1248 2 0.00 0.00 0.00 0.0 0.00	21.9435736677	0.00	0.00	Mostly_Cloudy(cloudy)	True	False	0.00
2011-02-10 03:00:00 1249 3 0.00 0.00 0.00 0.0 0.00	49.7722914669	0.00	0.00	Partly_Cloudy(partly_cloudy)	True	False	0.00
2011-02-10 04:00:00 1250 4 0.00 0.00 0.00 0.0 0.00	49.7722914669	0.00	0.00	Partly_Cloudy(fair)	True	False	0.00
2011-02-10 05:00:00 1251 5 0.00 0.00 0.00 0.0 0.00	49.7722914669	0.00	0.00	Partly_Cloudy(fair)	True	False	0.00
2011-02-10 06:00:00 1252 6 1.29 1.29 1.29 0.0 2.60	49.7722914669	1.29	0.00	Partly_Cloudy(fair)	True	False	0.00
2011-02-10 07:00:00 1253 7 81.68 81.68 81.68 56.5 164.10	49.7722914669	81.68	56.50	Partly_Cloudy(fair)	True	False	56.50
2011-02-10 08:00:00 1254 8 253.84 253.84 253.84 440.3 510.00	49.7722914669	253.84	440.30	Partly_Cloudy(fair)	True	False	440.30
2011-02-10 09:00:00 1255 9 401.96 401.96 401.96 781.4 807.60	49.7722914669	401.96	781.40	Partly_Cloudy(fair)	True	False	781.40
2011-02-10 10:00:00 1256 10 702.52 702.52 702.52 985.8 1001.50	70.1468040485	702.52	985.80	Partly_Cloudy(fair)	True	False	985.80
2011-02-10 11:00:00 1257 11 769.30 769.30 769.30 1097.1 1096.70	70.1468040485	769.30	1097.10	Partly_Cloudy(fair)	True	False	1097.10
2011-02-10 12:00:00 1258 12 776.81 776.81 776.81 1106.0 1107.40	70.1468040485	776.81	1106.00	Partly_Cloudy(fair)	True	False	1106.00
2011-02-10 13:00:00 1259 13 704.48 704.48 704.48 996.2 1004.30	70.1468040485	704.48	996.20	Partly_Cloudy(fair)	True	False	996.20
2011-02-10 14:00:00 1260 14 585.30 585.30 585.30 818.8 834.40	70.1468040485	585.30	818.80	Partly_Cloudy(fair)	True	False	818.80
2011-02-10 15:00:00 1261 15 400.47 400.47 400.47 538.2 570.90	70.1468040485	400.47	538.20	Partly_Cloudy(fair)	True	False	538.20
2011-02-10 16:00:00 1262 16 111.14 111.14 111.14 168.6 223.30	49.7722914669	111.14	168.60	Partly_Cloudy(sunny)	True	False	168.60
2011-02-10 17:00:00 1263 17 5.72 5.72 5.72 3.9 11.50	49.7722914669	5.72	3.90	Partly_Cloudy(fair)	True	False	3.90
2011-02-10 18:00:00 1264 18 0.00 0.00 0.00 0.0 0.00	49.7722914669	0.00	0.00	Mostly_Clear(fair)	False	False	0.00
2011-02-10 19:00:00 1265 19 0.00 0.00 0.00 0.0 0.00	49.7722914669	0.00	0.00	Mostly_Clear(fair)	False	False	0.00
2011-02-10 20:00:00 1266 20 0.00 0.00 0.00 0.0 0.00	49.7722914669	0.00	0.00	Mostly_Clear(fair)	False	False	0.00
2011-02-10 21:00:00 1267 21 0.00 0.00 0.00 0.0 0.00	49.7722914669	0.00	0.00	Mostly_Clear(fair)	False	False	0.00
2011-02-10 22:00:00 1268 22 0.00 0.00 0.00 0.0 0.00	49.7722914669	0.00	0.00	Mostly_Clear(fair)	False	False	0.00
2011-02-10 23:00:00 1269 23 0.00 0.00 0.00 0.0 0.00	49.7722914669	0.00	0.00	Mostly_Clear(fair)	False	False	0.00
2011-02-11 00:00:00 1270 0 0.00 0.00 0.00 0.0 0.00	49.7722914669	0.00	0.00	Mostly_Clear(fair)	False	False	0.00
2011-02-11 01:00:00 1271 1 0.00 0.00 0.00 0.0 0.00	49.7722914669	0.00	0.00	Mostly_Clear(fair)	False	False	0.00
