2011-02-25 21:00:00 20657 21 0.00 0.00 0.00 0.0 0.00	69.0440984605	0.00	0.00	Partly_Cloudy/Wind(cloudy_and_windy)	True	False	0.00
2011-02-25 22:00:00 20658 22 0.00 0.00 0.00 0.0 0.00	69.0440984605	0.00	0.00	Partly_Cloudy/Wind(mostly_cloudy)	True	False	0.00
2011-02-25 23:00:00 20659 23 0.00 0.00 0.00 0.0 0.00	69.0440984605	0.00	0.00	Mostly_Clear(fair)	False	False	0.00
2011-02-26 00:00:00 20660 0 0.00 0.00 0.00 0.0 0.00	90.0641552887	0.00	0.00	Clear(fair)	True	False	0.00
2011-02-26 01:00:00 20661 1 0.00 0.00 0.00 0.0 0.00	90.0641552887	0.00	0.00	Clear(fair)	True	False	0.00
2011-02-26 02:00:00 20662 2 0.00 0.00 0.00 0.0 0.00	90.0641552887	0.00	0.00	Clear(fair)	True	False	0.00
2011-02-26 03:00:00 20663 3 0.00 0.00 0.00 0.0 0.00	69.0440984605	0.00	0.00	Partly_Cloudy(fair)	True	False	0.00
2011-02-26 04:00:00 20664 4 0.00 0.00 0.00 0.0 0.00	69.0440984605	0.00	0.00	Partly_Cloudy(fair)	True	False	0.00
2011-02-26 05:00:00 20665 5 0.00 0.00 0.00 0.0 0.00	69.0440984605	0.00	0.00	Partly_Cloudy(fair)	True	False	0.00
2011-02-26 06:00:00 20666 6 18.85 18.85 18.85 0.5 27.30	69.0440984605	18.85	0.50	Partly_Cloudy(fair)	True	False	0.50
2011-02-26 07:00:00 20667 7 167.22 167.22 167.22 59.4 242.20	69.0440984605	167.22	59.40	Partly_Cloudy(fair)	True	False	59.40
2011-02-26 08:00:00 20668 8 419.72 419.72 419.72 228.5 607.90	69.0440984605	419.72	228.50	Partly_Cloudy(fair)	True	False	228.50
2011-02-26 09:00:00 20669 9 201.41 201.41 201.41 504.3 886.60	22.7170742652	201.41	504.30	Mostly_Cloudy(sunny)	True	False	504.30
2011-02-26 10:00:00 20670 10 360.02 360.02 360.02 590.8 1063.70	33.8456360781	360.02	590.80	Mostly_Cloudy(fair)	True	False	590.80
2011-02-26 11:00:00 20671 11 389.12 389.12 389.12 1039.4 1149.70	33.8456360781	389.12	1039.40	Mostly_Cloudy(fair)	True	False	1039.40
2011-02-26 12:00:00 20672 12 387.06 387.06 387.06 1086.2 1143.60	33.8456360781	387.06	1086.20	Mostly_Cloudy(fair)	True	False	1086.20
2011-02-26 13:00:00 20673 13 351.25 351.25 351.25 968.1 1037.80	33.8456360781	351.25	968.10	Mostly_Cloudy(fair)	True	False	968.10
2011-02-26 14:00:00 20674 14 301.70 301.70 301.70 854.5 891.40	33.8456360781	301.70	854.50	Mostly_Cloudy(cloudy)	True	False	854.50
2011-02-26 15:00:00 20675 15 217.36 217.36 217.36 502.1 642.20	33.8456360781	217.36	502.10	Mostly_Cloudy(fair)	True	False	502.10
2011-02-26 16:00:00 20676 16 68.61 68.61 68.61 123.9 302.00	22.7170742652	68.61	123.90	Mostly_Cloudy(fair)	True	False	123.90
2011-02-26 17:00:00 20677 17 7.86 7.86 7.86 18.3 34.60	22.7170742652	7.86	18.30	Mostly_Cloudy(fair)	True	False	18.30
2011-02-26 18:00:00 20678 18 0.00 0.00 0.00 0.0 0.00	22.6003572436	0.00	0.00	Cloudy(partly_cloudy)	True	False	0.00
2011-02-26 19:00:00 20679 19 0.00 0.00 0.00 0.0 0.00	22.6003572436	0.00	0.00	Cloudy(mostly_cloudy)	True	False	0.00
2011-02-26 20:00:00 20680 20 0.00 0.00 0.00 0.0 0.00	22.6003572436	0.00	0.00	Cloudy(cloudy)	True	False	0.00
2011-02-26 21:00:00 20681 21 0.00 0.00 0.00 0.0 0.00	22.6003572436	0.00	0.00	Cloudy(fair)	True	False	0.00
2011-02-26 22:00:00 20682 22 0.00 0.00 0.00 0.0 0.00	22.6003572436	0.00	0.00	Cloudy(mostly_cloudy)	True	False	0.00
2011-02-26 23:00:00 20683 23 0.00 0.00 0.00 0.0 0.00	22.6003572436	0.00	0.00	Cloudy(cloudy)	True	False	0.00
2011-02-27 00:00:00 20684 0 0.00 0.00 0.00 0.0 0.00	0.365312690267	0.00	0.00	Snow_Shower(cloudy)	True	False	0.00
2011-02-27 01:00:00 20685 1 0.00 0.00 0.00 0.0 0.00	0.365312690267	0.00	0.00	Snow_Shower(cloudy)	True	False	0.00
2011-02-27 02:00:00 20686 2 0.00 0.00 0.00 0.0 0.00	0.365312690267	0.00	0.00	Snow_Shower(cloudy)	True	False	0.00
2011-02-27 03:00:00 20687 3 0.00 0.00 0.00 0.0 0.00	0.774063271259	0.00	0.00	Rain_/_Snow(cloudy)	True	False	0.00
2011-02-27 04:00:00 20688 4 0.00 0.00 0.00 0.0 0.00	0.774063271259	0.00	0.00	Rain_/_Snow(cloudy)	True	False	0.00
2011-02-27 05:00:00 20689 5 0.00 0.00 0.00 0.0 0.00	0.774063271259	0.00	0.00	Rain_/_Snow(cloudy)	True	False	0.00
2011-02-27 06:00:00 20690 6 0.21 0.21 0.21 2.5 27.30	0.774063271259	0.21	2.50	Rain_/_Snow_Showers(cloudy)	True	False	2.50
2011-02-27 07:00:00 20691 7 1.87 1.87 1.87 133.8 242.20	0.774063271259	1.87	133.80	Rain_/_Snow_Showers(fair)	True	False	133.80
2011-02-27 08:00:00 20692 8 4.71 4.71 4.71 486.6 607.90	0.774063271259	4.71	486.60	Rain_/_Snow_Showers(fair)	True	False	486.60
2011-02-27 09:00:00 20693 9 200.37 200.37 200.37 780.1 886.60	22.6003572436	200.37	780.10	Cloudy(fair)	True	False	780.10
2011-02-27 10:00:00 20694 10 269.92 269.92 269.92 973.8 1063.70	25.3760055964	269.92	973.80	Cloudy(fair)	True	False	973.80
2011-02-27 11:00:00 20695 11 291.75 291.75 291.75 968.6 1149.70	25.3760055964	291.75	968.60	Cloudy(cloudy)	True	False	968.60
2011-02-27 12:00:00 20696 12 290.20 290.20 290.20 962.1 1143.60	25.3760055964	290.20	962.10	Cloudy(cloudy)	True	False	962.10
2011-02-27 13:00:00 20697 13 263.35 263.35 263.35 1005.1 1037.80	25.3760055964	263.35	1005.10	Cloudy(cloudy)	True	False	1005.10
2011-02-27 14:00:00 20698 14 226.20 226.20 226.20 845.0 891.40	25.3760055964	226.20	845.00	Cloudy(partly_cloudy)	True	False	845.00
2011-02-27 15:00:00 20699 15 162.96 162.96 162.96 564.5 642.20	25.3760055964	162.96	564.50	Cloudy(fair)	True	False	564.50
2011-02-27 16:00:00 20700 16 68.25 68.25 68.25 184.2 302.00	22.6003572436	68.25	184.20	Cloudy(fair)	True	False	184.20
2011-02-27 17:00:00 20701 17 7.82 7.82 7.82 27.9 34.60	22.6003572436	7.82	27.90	Cloudy(fair)	True	False	27.90
2011-02-27 18:00:00 20702 18 0.00 0.00 0.00 0.0 0.00	22.6003572436	0.00	0.00	Cloudy(fair)	True	False	0.00
2011-02-27 19:00:00 20703 19 0.00 0.00 0.00 0.0 0.00	22.6003572436	0.00	0.00	Cloudy(fair)	True	False	0.00
2011-02-27 20:00:00 20704 20 0.00 0.00 0.00 0.0 0.00	22.6003572436	0.00	0.00	Cloudy(fair)	True	False	0.00
2011-02-27 21:00:00 20705 21 0.00 0.00 0.00 0.0 0.00	22.6003572436	0.00	0.00	Cloudy(fair)	True	False	0.00
