2011-03-19 11:00:00 45343 11 1021.89 1021.89 1021.89 1080.9 1149.70	88.8831923438	1021.89	1080.90	Sunny(sunny)	True	False	1080.90
2011-03-19 12:00:00 45344 12 1054.24 1054.24 1054.24 1141.6 1186.10	88.8831923438	1054.24	1141.60	Sunny(partly_cloudy)	True	False	1141.60
2011-03-19 13:00:00 45345 13 1040.20 1040.20 1040.20 1126.5 1170.30	88.8831923438	1040.20	1126.50	Sunny(partly_cloudy)	True	False	1126.50
2011-03-19 14:00:00 45346 14 1029.18 1029.18 1029.18 1076.6 1157.90	88.8831923438	1029.18	1076.60	Sunny(fair)	True	False	1076.60
2011-03-19 15:00:00 45347 15 881.45 881.45 881.45 928.9 991.70	88.8831923438	881.45	928.90	Sunny(fair)	True	False	928.90
2011-03-19 16:00:00 45348 16 590.28 590.28 590.28 680.8 684.10	86.2855678031	590.28	680.80	Sunny(fair)	True	False	680.80
2011-03-19 17:00:00 45349 17 301.14 301.14 301.14 338.7 349.00	86.2855678031	301.14	338.70	Sunny(sunny)	True	False	338.70
2011-03-19 18:00:00 45350 18 75.24 75.24 75.24 56.7 87.20	86.2855678031	75.24	56.70	Sunny(sunny)	True	False	56.70
2011-03-19 19:00:00 45351 19 1.21 1.21 1.21 0.1 1.40	86.2855678031	1.21	0.10	Sunny(sunny)	True	False	0.10
2011-03-19 20:00:00 45352 20 0.00 0.00 0.00 0.0 0.00	86.2855678031	0.00	0.00	Clear(clear)	True	False	0.00
2011-03-19 21:00:00 45353 21 0.00 0.00 0.00 0.0 0.00	86.2855678031	0.00	0.00	Clear(clear)	True	False	0.00
2011-03-19 22:00:00 45354 22 0.00 0.00 0.00 0.0 0.00	86.2855678031	0.00	0.00	Clear(clear)	True	False	0.00
2011-03-19 23:00:00 45355 23 0.00 0.00 0.00 0.0 0.00	86.2855678031	0.00	0.00	Clear(clear)	True	False	0.00
2011-03-20 00:00:00 45356 0 0.00 0.00 0.00 0.0 0.00	86.2855678031	0.00	0.00	Clear(clear)	True	False	0.00
2011-03-20 01:00:00 45357 1 0.00 0.00 0.00 0.0 0.00	86.2855678031	0.00	0.00	Clear(clear)	True	False	0.00
2011-03-20 02:00:00 45358 2 0.00 0.00 0.00 0.0 0.00	86.2855678031	0.00	0.00	Clear(clear)	True	False	0.00
2011-03-20 03:00:00 45359 3 0.00 0.00 0.00 0.0 0.00	86.2855678031	0.00	0.00	Clear(clear)	True	False	0.00
2011-03-20 04:00:00 45360 4 0.00 0.00 0.00 0.0 0.00	86.2855678031	0.00	0.00	Clear(clear)	True	False	0.00
2011-03-20 05:00:00 45361 5 0.00 0.00 0.00 0.0 0.00	86.2855678031	0.00	0.00	Clear(clear)	True	False	0.00
2011-03-20 06:00:00 45362 6 23.56 23.56 23.56 0.0 27.30	86.2855678031	23.56	0.00	Clear(clear)	True	False	0.00
2011-03-20 07:00:00 45363 7 208.98 208.98 208.98 50.6 242.20	86.2855678031	208.98	50.60	Clear(sunny)	True	False	50.60
2011-03-20 08:00:00 45364 8 524.53 524.53 524.53 323.6 607.90	86.2855678031	524.53	323.60	Sunny(sunny)	True	False	323.60
2011-03-20 09:00:00 45365 9 765.01 765.01 765.01 671.9 886.60	86.2855678031	765.01	671.90	Sunny(sunny)	True	False	671.90
2011-03-20 10:00:00 45366 10 945.45 945.45 945.45 932.9 1063.70	88.8831923438	945.45	932.90	Sunny(sunny)	True	False	932.90
2011-03-20 11:00:00 45367 11 1021.89 1021.89 1021.89 1072.4 1149.70	88.8831923438	1021.89	1072.40	Sunny(sunny)	True	False	1072.40
2011-03-20 12:00:00 45368 12 1054.24 1054.24 1054.24 1138.6 1186.10	88.8831923438	1054.24	1138.60	Sunny(sunny)	True	False	1138.60
2011-03-20 13:00:00 45369 13 1040.20 1040.20 1040.20 1131.6 1170.30	88.8831923438	1040.20	1131.60	Sunny(sunny)	True	False	1131.60
2011-03-20 14:00:00 45370 14 1029.18 1029.18 1029.18 1051.8 1157.90	88.8831923438	1029.18	1051.80	Sunny(sunny)	True	False	1051.80
2011-03-20 15:00:00 45371 15 881.45 881.45 881.45 901.5 991.70	88.8831923438	881.45	901.50	Sunny(sunny)	True	False	901.50
2011-03-20 16:00:00 45372 16 590.28 590.28 590.28 617.9 684.10	86.2855678031	590.28	617.90	Sunny(sunny)	True	False	617.90
2011-03-20 17:00:00 45373 17 301.14 301.14 301.14 330.6 349.00	86.2855678031	301.14	330.60	Sunny(sunny)	True	False	330.60
2011-03-20 18:00:00 45374 18 75.24 75.24 75.24 51.5 87.20	86.2855678031	75.24	51.50	Sunny(sunny)	True	False	51.50
2011-03-20 19:00:00 45375 19 1.21 1.21 1.21 0.3 1.40	86.2855678031	1.21	0.30	Sunny(sunny)	True	False	0.30
2011-03-20 20:00:00 45376 20 0.00 0.00 0.00 0.0 0.00	86.2855678031	0.00	0.00	Clear(clear)	True	False	0.00
2011-03-20 21:00:00 45377 21 0.00 0.00 0.00 0.0 0.00	86.2855678031	0.00	0.00	Clear(fair)	True	False	0.00
2011-03-20 22:00:00 45378 22 0.00 0.00 0.00 0.0 0.00	67.7087831419	0.00	0.00	Partly_Cloudy(fair)	True	False	0.00
2011-03-20 23:00:00 45379 23 0.00 0.00 0.00 0.0 0.00	67.7087831419	0.00	0.00	Partly_Cloudy(fair)	True	False	0.00
2011-03-21 00:00:00 45380 0 0.00 0.00 0.00 0.0 0.00	67.7087831419	0.00	0.00	Partly_Cloudy(cloudy)	True	False	0.00
2011-03-21 01:00:00 45381 1 0.00 0.00 0.00 0.0 0.00	29.1659812469	0.00	0.00	Mostly_Cloudy(partly_cloudy)	True	False	0.00
2011-03-21 02:00:00 45382 2 0.00 0.00 0.00 0.0 0.00	29.1659812469	0.00	0.00	Mostly_Cloudy(partly_cloudy)	True	False	0.00
2011-03-21 03:00:00 45383 3 0.00 0.00 0.00 0.0 0.00	29.1659812469	0.00	0.00	Mostly_Cloudy(cloudy)	True	False	0.00
2011-03-21 04:00:00 45384 4 0.00 0.00 0.00 0.0 0.00	29.1659812469	0.00	0.00	Rain_/_Snow_Showers(cloudy)	False	False	0.00
2011-03-21 05:00:00 45385 5 0.00 0.00 0.00 0.0 0.00	29.1659812469	0.00	0.00	Rain_/_Snow_Showers(light_rain)	False	False	0.00
2011-03-21 06:00:00 45386 6 7.96 7.96 7.96 0.0 27.30	29.1659812469	7.96	0.00	Rain_/_Snow_Showers(light_snow)	False	False	0.00
2011-03-21 07:00:00 45387 7 70.64 70.64 70.64 0.0 242.20	29.1659812469	70.64	0.00	Rain_/_Snow_Showers(light_rain)	False	False	0.00
2011-03-21 08:00:00 45388 8 177.30 177.30 177.30 4.8 607.90	29.1659812469	177.30	4.80	Rain_/_Snow_Showers(light_snow)	False	False	4.80
2011-03-21 09:00:00 45389 9 258.59 258.59 258.59 18.8 886.60	29.1659812469	258.59	18.80	Rain_/_Snow_Showers(light_rain)	False	False	18.80
2011-03-21 10:00:00 45390 10 134.06 134.06 134.06 37.4 1063.70	12.6032878142	134.06	37.40	Cloudy(light_rain)	True	False	37.40
2011-03-21 11:00:00 45391 11 144.90 144.90 144.90 56.0 1149.70	12.6032878142	144.90	56.00	Cloudy(cloudy)	True	False	56.00
