2011-02-09 08:00:00 1553 8 364.57 364.57 364.57 302.4 510.00	71.4836223507	364.57	302.40	Sunny(fair)	True	False	302.40
2011-02-09 09:00:00 1554 9 401.96 401.96 401.96 700.3 807.60	49.7722914669	401.96	700.30	Partly_Cloudy(fair)	True	False	700.30
2011-02-09 10:00:00 1555 10 702.52 702.52 702.52 706.8 1001.50	70.1468040485	702.52	706.80	Partly_Cloudy(fair)	True	False	706.80
2011-02-09 11:00:00 1556 11 769.30 769.30 769.30 841.1 1096.70	70.1468040485	769.30	841.10	Partly_Cloudy(fair)	True	False	841.10
2011-02-09 12:00:00 1557 12 268.75 268.75 268.75 917.0 1107.40	24.2689357622	268.75	917.00	Mostly_Cloudy(fair)	True	False	917.00
2011-02-09 13:00:00 1558 13 243.73 243.73 243.73 789.2 1004.30	24.2689357622	243.73	789.20	Mostly_Cloudy(fair)	True	False	789.20
2011-02-09 14:00:00 1559 14 202.50 202.50 202.50 444.2 834.40	24.2689357622	202.50	444.20	Mostly_Cloudy(Unkown)	True	False	444.20
2011-02-09 15:00:00 1560 15 138.55 138.55 138.55 190.3 570.90	24.2689357622	138.55	190.30	Mostly_Cloudy(fair)	True	False	190.30
2011-02-09 16:00:00 1561 16 49.00 49.00 49.00 40.2 223.30	21.9435736677	49.00	40.20	Mostly_Cloudy(fair)	True	False	40.20
2011-02-09 17:00:00 1562 17 2.52 2.52 2.52 0.2 11.50	21.9435736677	2.52	0.20	Mostly_Cloudy(fair)	True	False	0.20
2011-02-09 18:00:00 1563 18 0.00 0.00 0.00 0.0 0.00	25.2173913043	0.00	0.00	Cloudy(cloudy)	True	False	0.00
2011-02-09 19:00:00 1564 19 0.00 0.00 0.00 0.0 0.00	25.2173913043	0.00	0.00	Cloudy(cloudy)	True	False	0.00
2011-02-09 20:00:00 1565 20 0.00 0.00 0.00 0.0 0.00	25.2173913043	0.00	0.00	Cloudy(cloudy)	True	False	0.00
2011-02-09 21:00:00 1566 21 0.00 0.00 0.00 0.0 0.00	25.2173913043	0.00	0.00	Cloudy(cloudy)	True	False	0.00
2011-02-09 22:00:00 1567 22 0.00 0.00 0.00 0.0 0.00	25.2173913043	0.00	0.00	Cloudy(cloudy)	True	False	0.00
2011-02-09 23:00:00 1568 23 0.00 0.00 0.00 0.0 0.00	25.2173913043	0.00	0.00	Cloudy(cloudy)	True	False	0.00
2011-02-10 00:00:00 1569 0 0.00 0.00 0.00 0.0 0.00	25.2173913043	0.00	0.00	Cloudy(cloudy)	True	False	0.00
2011-02-10 01:00:00 1570 1 0.00 0.00 0.00 0.0 0.00	25.2173913043	0.00	0.00	Cloudy(cloudy)	True	False	0.00
2011-02-10 02:00:00 1571 2 0.00 0.00 0.00 0.0 0.00	25.2173913043	0.00	0.00	Cloudy(cloudy)	True	False	0.00
2011-02-10 03:00:00 1572 3 0.00 0.00 0.00 0.0 0.00	21.9435736677	0.00	0.00	Mostly_Cloudy(partly_cloudy)	True	False	0.00
2011-02-10 04:00:00 1573 4 0.00 0.00 0.00 0.0 0.00	21.9435736677	0.00	0.00	Mostly_Cloudy(fair)	True	False	0.00
2011-02-10 05:00:00 1574 5 0.00 0.00 0.00 0.0 0.00	21.9435736677	0.00	0.00	Mostly_Cloudy(fair)	True	False	0.00
2011-02-10 06:00:00 1575 6 0.57 0.57 0.57 0.0 2.60	21.9435736677	0.57	0.00	Mostly_Cloudy(fair)	True	False	0.00
2011-02-10 07:00:00 1576 7 36.01 36.01 36.01 56.5 164.10	21.9435736677	36.01	56.50	Mostly_Cloudy(fair)	True	False	56.50
2011-02-10 08:00:00 1577 8 111.91 111.91 111.91 440.3 510.00	21.9435736677	111.91	440.30	Mostly_Cloudy(fair)	True	False	440.30
2011-02-10 09:00:00 1578 9 401.96 401.96 401.96 781.4 807.60	49.7722914669	401.96	781.40	Partly_Cloudy(fair)	True	False	781.40
2011-02-10 10:00:00 1579 10 702.52 702.52 702.52 985.8 1001.50	70.1468040485	702.52	985.80	Partly_Cloudy(fair)	True	False	985.80
2011-02-10 11:00:00 1580 11 769.30 769.30 769.30 1097.1 1096.70	70.1468040485	769.30	1097.10	Partly_Cloudy(fair)	True	False	1097.10
2011-02-10 12:00:00 1581 12 776.81 776.81 776.81 1106.0 1107.40	70.1468040485	776.81	1106.00	Partly_Cloudy(fair)	True	False	1106.00
2011-02-10 13:00:00 1582 13 704.48 704.48 704.48 996.2 1004.30	70.1468040485	704.48	996.20	Partly_Cloudy(fair)	True	False	996.20
2011-02-10 14:00:00 1583 14 585.30 585.30 585.30 818.8 834.40	70.1468040485	585.30	818.80	Partly_Cloudy(fair)	True	False	818.80
2011-02-10 15:00:00 1584 15 400.47 400.47 400.47 538.2 570.90	70.1468040485	400.47	538.20	Partly_Cloudy(fair)	True	False	538.20
2011-02-10 16:00:00 1585 16 111.14 111.14 111.14 168.6 223.30	49.7722914669	111.14	168.60	Partly_Cloudy(sunny)	True	False	168.60
2011-02-10 17:00:00 1586 17 5.72 5.72 5.72 3.9 11.50	49.7722914669	5.72	3.90	Partly_Cloudy(fair)	True	False	3.90
2011-02-10 18:00:00 1587 18 0.00 0.00 0.00 0.0 0.00	49.7722914669	0.00	0.00	Mostly_Clear(fair)	False	False	0.00
2011-02-10 19:00:00 1588 19 0.00 0.00 0.00 0.0 0.00	49.7722914669	0.00	0.00	Mostly_Clear(fair)	False	False	0.00
2011-02-10 20:00:00 1589 20 0.00 0.00 0.00 0.0 0.00	49.7722914669	0.00	0.00	Mostly_Clear(fair)	False	False	0.00
2011-02-10 21:00:00 1590 21 0.00 0.00 0.00 0.0 0.00	49.7722914669	0.00	0.00	Mostly_Clear(fair)	False	False	0.00
2011-02-10 22:00:00 1591 22 0.00 0.00 0.00 0.0 0.00	49.7722914669	0.00	0.00	Mostly_Clear(fair)	False	False	0.00
2011-02-10 23:00:00 1592 23 0.00 0.00 0.00 0.0 0.00	49.7722914669	0.00	0.00	Mostly_Clear(fair)	False	False	0.00
2011-02-11 00:00:00 1593 0 0.00 0.00 0.00 0.0 0.00	71.4836223507	0.00	0.00	Clear(fair)	True	False	0.00
2011-02-11 01:00:00 1594 1 0.00 0.00 0.00 0.0 0.00	71.4836223507	0.00	0.00	Clear(fair)	True	False	0.00
2011-02-11 02:00:00 1595 2 0.00 0.00 0.00 0.0 0.00	71.4836223507	0.00	0.00	Clear(fair)	True	False	0.00
2011-02-11 03:00:00 1596 3 0.00 0.00 0.00 0.0 0.00	71.4836223507	0.00	0.00	Mostly_Clear(fair)	False	False	0.00
2011-02-11 04:00:00 1597 4 0.00 0.00 0.00 0.0 0.00	71.4836223507	0.00	0.00	Mostly_Clear(fair)	False	False	0.00
2011-02-11 05:00:00 1598 5 0.00 0.00 0.00 0.0 0.00	71.4836223507	0.00	0.00	Mostly_Clear(fair)	False	False	0.00
2011-02-11 06:00:00 1599 6 1.86 1.86 1.86 0.1 2.60	71.4836223507	1.86	0.10	Mostly_Clear(fair)	False	False	0.10
2011-02-11 07:00:00 1600 7 117.30 117.30 117.30 128.4 164.10	71.4836223507	117.30	128.40	Mostly_Sunny(fair)	False	False	128.40
2011-02-11 08:00:00 1601 8 364.57 364.57 364.57 398.7 510.00	71.4836223507	364.57	398.70	Mostly_Sunny(fair)	False	False	398.70
