2011-03-20 00:00:00 45978 0 0.00 0.00 0.00 0.0 0.00	86.2385321101	0.00	0.00	Clear(clear)	True	False	0.00
2011-03-20 01:00:00 45979 1 0.00 0.00 0.00 0.0 0.00	86.2385321101	0.00	0.00	Clear(clear)	True	False	0.00
2011-03-20 02:00:00 45980 2 0.00 0.00 0.00 0.0 0.00	86.2385321101	0.00	0.00	Clear(clear)	True	False	0.00
2011-03-20 03:00:00 45981 3 0.00 0.00 0.00 0.0 0.00	86.2385321101	0.00	0.00	Clear(clear)	True	False	0.00
2011-03-20 04:00:00 45982 4 0.00 0.00 0.00 0.0 0.00	86.2385321101	0.00	0.00	Clear(clear)	True	False	0.00
2011-03-20 05:00:00 45983 5 0.00 0.00 0.00 0.0 0.00	86.2385321101	0.00	0.00	Clear(clear)	True	False	0.00
2011-03-20 06:00:00 45984 6 23.54 23.54 23.54 0.0 27.30	86.2385321101	23.54	0.00	Clear(clear)	True	False	0.00
2011-03-20 07:00:00 45985 7 208.87 208.87 208.87 50.6 242.20	86.2385321101	208.87	50.60	Clear(sunny)	True	False	50.60
2011-03-20 08:00:00 45986 8 524.24 524.24 524.24 323.6 607.90	86.2385321101	524.24	323.60	Sunny(sunny)	True	False	323.60
2011-03-20 09:00:00 45987 9 764.59 764.59 764.59 671.9 886.60	86.2385321101	764.59	671.90	Sunny(sunny)	True	False	671.90
2011-03-20 10:00:00 45988 10 943.27 943.27 943.27 932.9 1063.70	88.6781167222	943.27	932.90	Sunny(sunny)	True	False	932.90
2011-03-20 11:00:00 45989 11 1019.53 1019.53 1019.53 1072.4 1149.70	88.6781167222	1019.53	1072.40	Sunny(sunny)	True	False	1072.40
2011-03-20 12:00:00 45990 12 1051.81 1051.81 1051.81 1138.6 1186.10	88.6781167222	1051.81	1138.60	Sunny(sunny)	True	False	1138.60
2011-03-20 13:00:00 45991 13 1037.80 1037.80 1037.80 1131.6 1170.30	88.6781167222	1037.80	1131.60	Sunny(sunny)	True	False	1131.60
2011-03-20 14:00:00 45992 14 1026.80 1026.80 1026.80 1051.8 1157.90	88.6781167222	1026.80	1051.80	Sunny(sunny)	True	False	1051.80
2011-03-20 15:00:00 45993 15 879.42 879.42 879.42 901.5 991.70	88.6781167222	879.42	901.50	Sunny(sunny)	True	False	901.50
2011-03-20 16:00:00 45994 16 606.65 606.65 606.65 617.9 684.10	88.6781167222	606.65	617.90	Mostly_Sunny(sunny)	False	False	617.90
2011-03-20 17:00:00 45995 17 309.49 309.49 309.49 330.6 349.00	88.6781167222	309.49	330.60	Mostly_Sunny(sunny)	False	False	330.60
2011-03-20 18:00:00 45996 18 77.33 77.33 77.33 51.5 87.20	88.6781167222	77.33	51.50	Mostly_Sunny(sunny)	False	False	51.50
2011-03-20 19:00:00 45997 19 1.00 1.00 1.00 0.3 1.50	66.6666666667	1.00	0.30	Partly_Cloudy(sunny)	True	False	0.30
2011-03-20 20:00:00 45998 20 0.00 0.00 0.00 0.0 0.00	66.6666666667	0.00	0.00	Partly_Cloudy(clear)	True	False	0.00
2011-03-20 21:00:00 45999 21 0.00 0.00 0.00 0.0 0.00	66.6666666667	0.00	0.00	Partly_Cloudy(fair)	True	False	0.00
2011-03-20 22:00:00 46000 22 0.00 0.00 0.00 0.0 0.00	50.4398826979	0.00	0.00	Mostly_Cloudy(fair)	True	False	0.00
2011-03-20 23:00:00 46001 23 0.00 0.00 0.00 0.0 0.00	50.4398826979	0.00	0.00	Mostly_Cloudy(fair)	True	False	0.00
2011-03-21 00:00:00 46002 0 0.00 0.00 0.00 0.0 0.00	50.4398826979	0.00	0.00	Mostly_Cloudy(cloudy)	True	False	0.00
2011-03-21 01:00:00 46003 1 0.00 0.00 0.00 0.0 0.00	10.6988000403	0.00	0.00	Cloudy(partly_cloudy)	True	False	0.00
2011-03-21 02:00:00 46004 2 0.00 0.00 0.00 0.0 0.00	10.6988000403	0.00	0.00	Cloudy(partly_cloudy)	True	False	0.00
2011-03-21 03:00:00 46005 3 0.00 0.00 0.00 0.0 0.00	10.6988000403	0.00	0.00	Cloudy(cloudy)	True	False	0.00
2011-03-21 04:00:00 46006 4 0.00 0.00 0.00 0.0 0.00	10.6988000403	0.00	0.00	Snow_Shower(cloudy)	False	False	0.00
2011-03-21 05:00:00 46007 5 0.00 0.00 0.00 0.0 0.00	10.6988000403	0.00	0.00	Snow_Shower(light_rain)	False	False	0.00
2011-03-21 06:00:00 46008 6 2.92 2.92 2.92 0.0 27.30	10.6988000403	2.92	0.00	Snow_Shower(light_snow)	False	False	0.00
2011-03-21 07:00:00 46009 7 25.91 25.91 25.91 0.0 242.20	10.6988000403	25.91	0.00	Snow(light_rain)	False	False	0.00
2011-03-21 08:00:00 46010 8 65.04 65.04 65.04 4.8 607.90	10.6988000403	65.04	4.80	Snow(light_snow)	False	False	4.80
2011-03-21 09:00:00 46011 9 94.86 94.86 94.86 18.8 886.60	10.6988000403	94.86	18.80	Snow(light_rain)	False	False	18.80
2011-03-21 10:00:00 46012 10 93.44 93.44 93.44 37.4 1063.70	8.78407246005	93.44	37.40	Light_Rain(light_rain)	True	False	37.40
2011-03-21 11:00:00 46013 11 100.99 100.99 100.99 56.0 1149.70	8.78407246005	100.99	56.00	Light_Rain(cloudy)	True	False	56.00
2011-03-21 12:00:00 46014 12 104.19 104.19 104.19 101.1 1186.10	8.78407246005	104.19	101.10	Light_Rain(light_rain)	True	False	101.10
2011-03-21 13:00:00 46015 13 48.05 48.05 48.05 143.1 1170.30	4.10541880491	48.05	143.10	Rain(fog)	True	False	143.10
2011-03-21 14:00:00 46016 14 47.54 47.54 47.54 156.2 1157.90	4.10541880491	47.54	156.20	Rain(fog)	True	False	156.20
2011-03-21 15:00:00 46017 15 40.71 40.71 40.71 94.5 991.70	4.10541880491	40.71	94.50	Rain(cloudy)	True	False	94.50
2011-03-21 16:00:00 46018 16 30.95 30.95 30.95 107.7 684.10	4.52377035697	30.95	107.70	Showers(fog)	True	False	107.70
2011-03-21 17:00:00 46019 17 15.79 15.79 15.79 37.7 349.00	4.52377035697	15.79	37.70	Showers(fog)	True	False	37.70
2011-03-21 18:00:00 46020 18 3.94 3.94 3.94 1.1 87.20	4.52377035697	3.94	1.10	Showers(fog)	True	False	1.10
2011-03-21 19:00:00 46021 19 0.76 0.76 0.76 0.0 1.50	50.4398826979	0.76	0.00	Mostly_Cloudy(cloudy)	True	False	0.00
2011-03-21 20:00:00 46022 20 0.00 0.00 0.00 0.0 0.00	50.4398826979	0.00	0.00	Mostly_Cloudy(cloudy)	True	False	0.00
2011-03-21 21:00:00 46023 21 0.00 0.00 0.00 0.0 0.00	50.4398826979	0.00	0.00	Mostly_Cloudy(cloudy)	True	False	0.00
2011-03-21 22:00:00 46024 22 0.00 0.00 0.00 0.0 0.00	50.4398826979	0.00	0.00	Mostly_Cloudy(cloudy)	True	False	0.00
2011-03-21 23:00:00 46025 23 0.00 0.00 0.00 0.0 0.00	50.4398826979	0.00	0.00	Mostly_Cloudy(fog)	True	False	0.00
2011-03-22 00:00:00 46026 0 0.00 0.00 0.00 0.0 0.00	50.4398826979	0.00	0.00	Mostly_Cloudy(fog)	True	False	0.00
