2011-03-20 08:00:00 46369 8 524.24 524.24 524.24 323.6 607.90	86.2385321101	524.24	323.60	Sunny(sunny)	True	False	323.60
2011-03-20 09:00:00 46370 9 764.59 764.59 764.59 671.9 886.60	86.2385321101	764.59	671.90	Sunny(sunny)	True	False	671.90
2011-03-20 10:00:00 46371 10 943.27 943.27 943.27 932.9 1063.70	88.6781167222	943.27	932.90	Sunny(sunny)	True	False	932.90
2011-03-20 11:00:00 46372 11 1019.53 1019.53 1019.53 1072.4 1149.70	88.6781167222	1019.53	1072.40	Sunny(sunny)	True	False	1072.40
2011-03-20 12:00:00 46373 12 1051.81 1051.81 1051.81 1138.6 1186.10	88.6781167222	1051.81	1138.60	Sunny(sunny)	True	False	1138.60
2011-03-20 13:00:00 46374 13 1037.80 1037.80 1037.80 1131.6 1170.30	88.6781167222	1037.80	1131.60	Sunny(sunny)	True	False	1131.60
2011-03-20 14:00:00 46375 14 1026.80 1026.80 1026.80 1051.8 1157.90	88.6781167222	1026.80	1051.80	Sunny(sunny)	True	False	1051.80
2011-03-20 15:00:00 46376 15 879.42 879.42 879.42 901.5 991.70	88.6781167222	879.42	901.50	Sunny(sunny)	True	False	901.50
2011-03-20 16:00:00 46377 16 589.96 589.96 589.96 617.9 684.10	86.2385321101	589.96	617.90	Sunny(sunny)	True	False	617.90
2011-03-20 17:00:00 46378 17 300.97 300.97 300.97 330.6 349.00	86.2385321101	300.97	330.60	Sunny(sunny)	True	False	330.60
2011-03-20 18:00:00 46379 18 75.20 75.20 75.20 51.5 87.20	86.2385321101	75.20	51.50	Sunny(sunny)	True	False	51.50
2011-03-20 19:00:00 46380 19 1.00 1.00 1.00 0.3 1.50	66.6666666667	1.00	0.30	Partly_Cloudy(sunny)	True	False	0.30
2011-03-20 20:00:00 46381 20 0.00 0.00 0.00 0.0 0.00	66.6666666667	0.00	0.00	Partly_Cloudy(clear)	True	False	0.00
2011-03-20 21:00:00 46382 21 0.00 0.00 0.00 0.0 0.00	66.6666666667	0.00	0.00	Partly_Cloudy(fair)	True	False	0.00
2011-03-20 22:00:00 46383 22 0.00 0.00 0.00 0.0 0.00	50.4398826979	0.00	0.00	Mostly_Cloudy(fair)	True	False	0.00
2011-03-20 23:00:00 46384 23 0.00 0.00 0.00 0.0 0.00	50.4398826979	0.00	0.00	Mostly_Cloudy(fair)	True	False	0.00
2011-03-21 00:00:00 46385 0 0.00 0.00 0.00 0.0 0.00	50.4398826979	0.00	0.00	Mostly_Cloudy(cloudy)	True	False	0.00
2011-03-21 01:00:00 46386 1 0.00 0.00 0.00 0.0 0.00	10.6988000403	0.00	0.00	Cloudy(partly_cloudy)	True	False	0.00
2011-03-21 02:00:00 46387 2 0.00 0.00 0.00 0.0 0.00	10.6988000403	0.00	0.00	Cloudy(partly_cloudy)	True	False	0.00
2011-03-21 03:00:00 46388 3 0.00 0.00 0.00 0.0 0.00	10.6988000403	0.00	0.00	Cloudy(cloudy)	True	False	0.00
2011-03-21 04:00:00 46389 4 0.00 0.00 0.00 0.0 0.00	10.6988000403	0.00	0.00	Rain_/_Snow_Showers(cloudy)	False	False	0.00
2011-03-21 05:00:00 46390 5 0.00 0.00 0.00 0.0 0.00	10.6988000403	0.00	0.00	Rain_/_Snow_Showers(light_rain)	False	False	0.00
2011-03-21 06:00:00 46391 6 2.92 2.92 2.92 0.0 27.30	10.6988000403	2.92	0.00	Rain_/_Snow_Showers(light_snow)	False	False	0.00
2011-03-21 07:00:00 46392 7 10.96 10.96 10.96 0.0 242.20	4.52377035697	10.96	0.00	Rain(light_rain)	True	False	0.00
2011-03-21 08:00:00 46393 8 27.50 27.50 27.50 4.8 607.90	4.52377035697	27.50	4.80	Rain(light_snow)	True	False	4.80
2011-03-21 09:00:00 46394 9 40.11 40.11 40.11 18.8 886.60	4.52377035697	40.11	18.80	Rain(light_rain)	True	False	18.80
2011-03-21 10:00:00 46395 10 43.67 43.67 43.67 37.4 1063.70	4.10541880491	43.67	37.40	Rain(light_rain)	True	False	37.40
2011-03-21 11:00:00 46396 11 47.20 47.20 47.20 56.0 1149.70	4.10541880491	47.20	56.00	Rain(cloudy)	True	False	56.00
2011-03-21 12:00:00 46397 12 48.69 48.69 48.69 101.1 1186.10	4.10541880491	48.69	101.10	Rain(light_rain)	True	False	101.10
2011-03-21 13:00:00 46398 13 48.05 48.05 48.05 143.1 1170.30	4.10541880491	48.05	143.10	Showers(fog)	True	False	143.10
2011-03-21 14:00:00 46399 14 47.54 47.54 47.54 156.2 1157.90	4.10541880491	47.54	156.20	Showers(fog)	True	False	156.20
2011-03-21 15:00:00 46400 15 40.71 40.71 40.71 94.5 991.70	4.10541880491	40.71	94.50	Showers(cloudy)	True	False	94.50
2011-03-21 16:00:00 46401 16 73.19 73.19 73.19 107.7 684.10	10.6988000403	73.19	107.70	Cloudy(fog)	True	False	107.70
2011-03-21 17:00:00 46402 17 37.34 37.34 37.34 37.7 349.00	10.6988000403	37.34	37.70	Cloudy(fog)	True	False	37.70
2011-03-21 18:00:00 46403 18 9.33 9.33 9.33 1.1 87.20	10.6988000403	9.33	1.10	Cloudy(fog)	True	False	1.10
2011-03-21 19:00:00 46404 19 0.76 0.76 0.76 0.0 1.50	50.4398826979	0.76	0.00	Mostly_Cloudy(cloudy)	True	False	0.00
2011-03-21 20:00:00 46405 20 0.00 0.00 0.00 0.0 0.00	50.4398826979	0.00	0.00	Mostly_Cloudy(cloudy)	True	False	0.00
2011-03-21 21:00:00 46406 21 0.00 0.00 0.00 0.0 0.00	50.4398826979	0.00	0.00	Mostly_Cloudy(cloudy)	True	False	0.00
2011-03-21 22:00:00 46407 22 0.00 0.00 0.00 0.0 0.00	50.4398826979	0.00	0.00	Mostly_Cloudy(cloudy)	True	False	0.00
2011-03-21 23:00:00 46408 23 0.00 0.00 0.00 0.0 0.00	50.4398826979	0.00	0.00	Mostly_Cloudy(fog)	True	False	0.00
2011-03-22 00:00:00 46409 0 0.00 0.00 0.00 0.0 0.00	50.4398826979	0.00	0.00	Mostly_Cloudy(fog)	True	False	0.00
2011-03-22 01:00:00 46410 1 0.00 0.00 0.00 0.0 0.00	66.6666666667	0.00	0.00	Partly_Cloudy(fog)	True	False	0.00
2011-03-22 02:00:00 46411 2 0.00 0.00 0.00 0.0 0.00	66.6666666667	0.00	0.00	Partly_Cloudy(fog)	True	False	0.00
2011-03-22 03:00:00 46412 3 0.00 0.00 0.00 0.0 0.00	66.6666666667	0.00	0.00	Partly_Cloudy(fog)	True	False	0.00
2011-03-22 04:00:00 46413 4 0.00 0.00 0.00 0.0 0.00	66.6666666667	0.00	0.00	Partly_Cloudy(cloudy)	True	False	0.00
2011-03-22 05:00:00 46414 5 0.00 0.00 0.00 0.0 0.00	66.6666666667	0.00	0.00	Partly_Cloudy(cloudy)	True	False	0.00
2011-03-22 06:00:00 46415 6 18.20 18.20 18.20 0.0 27.30	66.6666666667	18.20	0.00	Partly_Cloudy(cloudy)	True	False	0.00
2011-03-22 07:00:00 46416 7 161.47 161.47 161.47 15.9 242.20	66.6666666667	161.47	15.90	Partly_Cloudy(cloudy)	True	False	15.90
2011-03-22 08:00:00 46417 8 405.27 405.27 405.27 69.3 607.90	66.6666666667	405.27	69.30	Partly_Cloudy(cloudy)	True	False	69.30
