2011-02-26 12:00:00 21377 12 834.20 1088.34 1088.34 1086.2 1143.60	72.9450856943	1088.34	1086.20	Partly_Cloudy(fair)	True	False	1086.20
2011-02-26 13:00:00 21378 13 757.02 985.71 985.71 968.1 1037.80	72.9450856943	985.71	968.10	Partly_Cloudy(fair)	True	False	968.10
2011-02-26 14:00:00 21379 14 650.23 846.66 846.66 854.5 891.40	72.9450856943	846.66	854.50	Partly_Cloudy(cloudy)	True	False	854.50
2011-02-26 15:00:00 21380 15 217.36 609.97 609.97 502.1 642.20	33.8456360781	609.97	502.10	Mostly_Cloudy(fair)	True	False	502.10
2011-02-26 16:00:00 21381 16 68.61 286.84 286.84 123.9 302.00	22.7170742652	286.84	123.90	Mostly_Cloudy(fair)	True	False	123.90
2011-02-26 17:00:00 21382 17 7.67 32.86 32.86 18.3 34.60	22.171758877	32.86	18.30	Cloudy(fair)	True	False	18.30
2011-02-26 18:00:00 21383 18 0.00 0.00 0.00 0.0 0.00	22.7170742652	0.00	0.00	Mostly_Cloudy(partly_cloudy)	True	False	0.00
2011-02-26 19:00:00 21384 19 0.00 0.00 0.00 0.0 0.00	22.7170742652	0.00	0.00	Mostly_Cloudy(mostly_cloudy)	True	False	0.00
2011-02-26 20:00:00 21385 20 0.00 0.00 0.00 0.0 0.00	22.7170742652	0.00	0.00	Mostly_Cloudy(cloudy)	True	False	0.00
2011-02-26 21:00:00 21386 21 0.00 0.00 0.00 0.0 0.00	1.60911542141	0.00	0.00	Few_Snow_Showers(fair)	True	False	0.00
2011-02-26 22:00:00 21387 22 0.00 0.00 0.00 0.0 0.00	1.60911542141	0.00	0.00	Few_Snow_Showers(mostly_cloudy)	True	False	0.00
2011-02-26 23:00:00 21388 23 0.00 0.00 0.00 0.0 0.00	1.60911542141	0.00	0.00	Few_Snow_Showers(cloudy)	True	False	0.00
2011-02-27 00:00:00 21389 0 0.00 0.00 0.00 0.0 0.00	1.60911542141	0.00	0.00	Few_Snow_Showers(cloudy)	True	False	0.00
2011-02-27 01:00:00 21390 1 0.00 0.00 0.00 0.0 0.00	1.60911542141	0.00	0.00	Few_Snow_Showers(cloudy)	True	False	0.00
2011-02-27 02:00:00 21391 2 0.00 0.00 0.00 0.0 0.00	1.60911542141	0.00	0.00	Few_Snow_Showers(cloudy)	True	False	0.00
2011-02-27 03:00:00 21392 3 0.00 0.00 0.00 0.0 0.00	22.171758877	0.00	0.00	Cloudy(cloudy)	True	False	0.00
2011-02-27 04:00:00 21393 4 0.00 0.00 0.00 0.0 0.00	22.171758877	0.00	0.00	Cloudy(cloudy)	True	False	0.00
2011-02-27 05:00:00 21394 5 0.00 0.00 0.00 0.0 0.00	22.171758877	0.00	0.00	Cloudy(cloudy)	True	False	0.00
2011-02-27 06:00:00 21395 6 6.05 6.05 6.05 2.5 27.30	22.171758877	6.05	2.50	Cloudy(cloudy)	True	False	2.50
2011-02-27 07:00:00 21396 7 53.70 53.70 53.70 133.8 242.20	22.171758877	53.70	133.80	Cloudy(fair)	True	False	133.80
2011-02-27 08:00:00 21397 8 134.78 134.78 134.78 486.6 607.90	22.171758877	134.78	486.60	Cloudy(fair)	True	False	486.60
2011-02-27 09:00:00 21398 9 196.57 196.57 196.57 780.1 886.60	22.171758877	196.57	780.10	Cloudy(fair)	True	False	780.10
2011-02-27 10:00:00 21399 10 259.11 259.11 259.11 973.8 1063.70	24.3592214299	259.11	973.80	Cloudy(fair)	True	False	973.80
2011-02-27 11:00:00 21400 11 280.06 280.06 280.06 968.6 1149.70	24.3592214299	280.06	968.60	Cloudy(cloudy)	True	False	968.60
2011-02-27 12:00:00 21401 12 387.06 387.06 387.06 962.1 1143.60	33.8456360781	387.06	962.10	Mostly_Cloudy(cloudy)	True	False	962.10
2011-02-27 13:00:00 21402 13 351.25 351.25 351.25 1005.1 1037.80	33.8456360781	351.25	1005.10	Mostly_Cloudy(cloudy)	True	False	1005.10
2011-02-27 14:00:00 21403 14 301.70 301.70 301.70 845.0 891.40	33.8456360781	301.70	845.00	Mostly_Cloudy(partly_cloudy)	True	False	845.00
2011-02-27 15:00:00 21404 15 217.36 217.36 217.36 564.5 642.20	33.8456360781	217.36	564.50	Mostly_Cloudy(fair)	True	False	564.50
2011-02-27 16:00:00 21405 16 68.61 68.61 68.61 184.2 302.00	22.7170742652	68.61	184.20	Mostly_Cloudy(fair)	True	False	184.20
2011-02-27 17:00:00 21406 17 7.86 7.86 7.86 27.9 34.60	22.7170742652	7.86	27.90	Mostly_Cloudy(fair)	True	False	27.90
2011-02-27 18:00:00 21407 18 0.00 0.00 0.00 0.0 0.00	69.0440984605	0.00	0.00	Partly_Cloudy(fair)	True	False	0.00
2011-02-27 19:00:00 21408 19 0.00 0.00 0.00 0.0 0.00	69.0440984605	0.00	0.00	Partly_Cloudy(fair)	True	False	0.00
2011-02-27 20:00:00 21409 20 0.00 0.00 0.00 0.0 0.00	69.0440984605	0.00	0.00	Partly_Cloudy(fair)	True	False	0.00
2011-02-27 21:00:00 21410 21 0.00 0.00 0.00 0.0 0.00	22.7170742652	0.00	0.00	Mostly_Cloudy(fair)	True	False	0.00
2011-02-27 22:00:00 21411 22 0.00 0.00 0.00 0.0 0.00	22.7170742652	0.00	0.00	Mostly_Cloudy(fair)	True	False	0.00
2011-02-27 23:00:00 21412 23 0.00 0.00 0.00 0.0 0.00	22.7170742652	0.00	0.00	Mostly_Cloudy(fair)	True	False	0.00
2011-02-28 00:00:00 21413 0 0.00 0.00 0.00 0.0 0.00	22.7170742652	0.00	0.00	Mostly_Cloudy(fair)	True	False	0.00
2011-02-28 01:00:00 21414 1 0.00 0.00 0.00 0.0 0.00	22.7170742652	0.00	0.00	Mostly_Cloudy(mostly_cloudy)	True	False	0.00
2011-02-28 02:00:00 21415 2 0.00 0.00 0.00 0.0 0.00	22.7170742652	0.00	0.00	Mostly_Cloudy(cloudy)	True	False	0.00
2011-02-28 03:00:00 21416 3 0.00 0.00 0.00 0.0 0.00	22.171758877	0.00	0.00	Cloudy(cloudy)	True	False	0.00
2011-02-28 04:00:00 21417 4 0.00 0.00 0.00 0.0 0.00	22.171758877	0.00	0.00	Cloudy(light_rain)	True	False	0.00
2011-02-28 05:00:00 21418 5 0.00 0.00 0.00 0.0 0.00	22.171758877	0.00	0.00	Cloudy(light_rain)	True	False	0.00
2011-02-28 06:00:00 21419 6 1.72 1.72 1.72 0.0 27.30	6.31142802081	1.72	0.00	Light_Rain(light_rain)	True	False	0.00
2011-02-28 07:00:00 21420 7 15.29 15.29 15.29 0.0 242.20	6.31142802081	15.29	0.00	Light_Rain(cloudy)	True	False	0.00
2011-02-28 08:00:00 21421 8 38.37 38.37 38.37 23.1 607.90	6.31142802081	38.37	23.10	Light_Rain(rain)	True	False	23.10
2011-02-28 09:00:00 21422 9 75.98 75.98 75.98 24.4 886.60	8.56942987058	75.98	24.40	Rain(light_rain)	True	False	24.40
2011-02-28 10:00:00 21423 10 104.18 104.18 104.18 127.7 1063.70	9.79385926764	104.18	127.70	Rain(rain)	True	False	127.70
2011-02-28 11:00:00 21424 11 112.60 112.60 112.60 194.4 1149.70	9.79385926764	112.60	194.40	Rain(light_rain)	True	False	194.40
2011-02-28 12:00:00 21425 12 112.00 112.00 112.00 181.6 1143.60	9.79385926764	112.00	181.60	Rain_/_Thunder(partly_cloudy)	True	False	181.60
