2011-03-22 12:00:00 48874 12 917.39 1045.63 917.39 966.9 1186.10	77.345493354	917.39	966.90	Partly_Cloudy(cloudy)	True	False	966.90
2011-03-22 13:00:00 48875 13 905.17 954.02 905.17 1173.6 1170.30	77.345493354	905.17	1173.60	Partly_Cloudy(mostly_cloudy)	True	False	1173.60
2011-03-22 14:00:00 48876 14 895.58 943.91 895.58 1005.2 1157.90	77.345493354	895.58	1005.20	Mostly_Sunny(mostly_cloudy)	False	False	1005.20
2011-03-22 15:00:00 48877 15 767.04 808.43 767.04 845.9 991.70	77.345493354	767.04	845.90	Mostly_Sunny(mostly_cloudy)	False	False	845.90
2011-03-22 16:00:00 48878 16 529.12 557.67 529.12 652.0 684.10	77.345493354	529.12	652.00	Mostly_Sunny(mostly_cloudy)	False	False	652.00
2011-03-22 17:00:00 48879 17 256.99 284.50 256.99 310.0 349.00	73.6374407583	256.99	310.00	Partly_Cloudy(sunny)	True	False	310.00
2011-03-22 18:00:00 48880 18 72.39 80.13 72.39 53.0 98.30	73.6374407583	72.39	53.00	Mostly_Sunny(fair)	False	False	53.00
2011-03-22 19:00:00 48881 19 1.55 1.71 1.55 0.0 2.10	73.6374407583	1.55	0.00	Partly_Cloudy(partly_cloudy)	True	False	0.00
2011-03-22 20:00:00 48882 20 0.00 0.00 0.00 0.0 0.00	73.6374407583	0.00	0.00	Partly_Cloudy(partly_cloudy)	True	False	0.00
2011-03-22 21:00:00 48883 21 0.00 0.00 0.00 0.0 0.00	73.6374407583	0.00	0.00	Partly_Cloudy(partly_cloudy)	True	False	0.00
2011-03-22 22:00:00 48884 22 0.00 0.00 0.00 0.0 0.00	10.6988000403	0.00	0.00	Cloudy(mostly_cloudy)	True	False	0.00
2011-03-22 23:00:00 48885 23 0.00 0.00 0.00 0.0 0.00	10.6988000403	0.00	0.00	Cloudy(cloudy)	True	False	0.00
2011-03-23 00:00:00 48886 0 0.00 0.00 0.00 0.0 0.00	10.6988000403	0.00	0.00	Cloudy(cloudy)	True	False	0.00
2011-03-23 01:00:00 48887 1 0.00 0.00 0.00 0.0 0.00	10.6988000403	0.00	0.00	Rain_/_Snow(cloudy)	False	False	0.00
2011-03-23 02:00:00 48888 2 0.00 0.00 0.00 0.0 0.00	10.6988000403	0.00	0.00	Rain_/_Snow(light_rain)	False	False	0.00
2011-03-23 03:00:00 48889 3 0.00 0.00 0.00 0.0 0.00	10.6988000403	0.00	0.00	Rain_/_Snow(light_snow)	False	False	0.00
2011-03-23 04:00:00 48890 4 0.00 0.00 0.00 0.0 0.00	4.7619047619	0.00	0.00	Rain(light_snow)	True	False	0.00
2011-03-23 05:00:00 48891 5 0.00 0.00 0.00 0.0 0.00	4.7619047619	0.00	0.00	Rain(light_snow)	True	False	0.00
2011-03-23 06:00:00 48892 6 1.30 1.30 1.30 0.0 27.30	4.7619047619	1.30	0.00	Rain(light_snow)	True	False	0.00
2011-03-23 07:00:00 48893 7 11.35 11.35 11.35 0.0 238.40	4.7619047619	11.35	0.00	Rain(light_snow)	True	False	0.00
2011-03-23 08:00:00 48894 8 27.50 27.50 27.50 0.0 577.50	4.7619047619	27.50	0.00	Rain(light_snow)	True	False	0.00
2011-03-23 09:00:00 48895 9 40.19 40.19 40.19 0.2 844.00	4.7619047619	40.19	0.20	Rain(light_snow)	True	False	0.20
2011-03-23 10:00:00 48896 10 49.08 49.08 49.08 0.6 1030.70	4.7619047619	49.08	0.60	Wintry_Mix(cloudy)	True	False	0.60
2011-03-23 11:00:00 48897 11 53.70 53.70 53.70 10.4 1127.70	4.7619047619	53.70	10.40	Wintry_Mix(light_rain)	True	False	10.40
2011-03-23 12:00:00 48898 12 56.48 56.48 56.48 17.9 1186.10	4.7619047619	56.48	17.90	Wintry_Mix(light_rain)	True	False	17.90
2011-03-23 13:00:00 48899 13 96.57 96.57 96.57 27.4 1170.30	8.25214899713	96.57	27.40	Light_Wintry_Mix(light_rain)	True	False	27.40
2011-03-23 14:00:00 48900 14 95.55 95.55 95.55 41.5 1157.90	8.25214899713	95.55	41.50	Light_Wintry_Mix(light_rain)	True	False	41.50
2011-03-23 15:00:00 48901 15 81.84 81.84 81.84 33.2 991.70	8.25214899713	81.84	33.20	Light_Wintry_Mix(cloudy)	True	False	33.20
2011-03-23 16:00:00 48902 16 56.45 56.45 56.45 15.0 684.10	8.25214899713	56.45	15.00	Rain_/_Snow_Showers(wintry_mix)	False	False	15.00
2011-03-23 17:00:00 48903 17 28.80 28.80 28.80 4.6 349.00	8.25214899713	28.80	4.60	Rain_/_Snow_Showers(light_rain)	False	False	4.60
2011-03-23 18:00:00 48904 18 8.11 8.11 8.11 0.0 98.30	8.25214899713	8.11	0.00	Rain_/_Snow_Showers(light_rain)	False	False	0.00
2011-03-23 19:00:00 48905 19 0.17 0.17 0.17 0.0 2.10	8.25214899713	0.17	0.00	Snow_Shower(light_rain)	False	False	0.00
2011-03-23 20:00:00 48906 20 0.00 0.00 0.00 0.0 0.00	8.25214899713	0.00	0.00	Snow_Shower(t-storm)	False	False	0.00
2011-03-23 21:00:00 48907 21 0.00 0.00 0.00 0.0 0.00	8.25214899713	0.00	0.00	Snow_Shower(light_snow)	False	False	0.00
2011-03-23 22:00:00 48908 22 0.00 0.00 0.00 0.0 0.00	31.7163093044	0.00	0.00	Mostly_Cloudy(light_snow)	True	False	0.00
2011-03-23 23:00:00 48909 23 0.00 0.00 0.00 0.0 0.00	31.7163093044	0.00	0.00	Mostly_Cloudy(cloudy)	True	False	0.00
2011-03-24 00:00:00 48910 0 0.00 0.00 0.00 0.0 0.00	31.7163093044	0.00	0.00	Mostly_Cloudy(light_snow)	True	False	0.00
