2011-02-23 04:00:00 17539 4 0.00 0.00 0.00 0.0 0.00	88.8975397073	0.00	0.00	Clear(fair)	True	False	0.00
2011-02-23 05:00:00 17540 5 0.00 0.00 0.00 0.0 0.00	88.8975397073	0.00	0.00	Clear(fair)	True	False	0.00
2011-02-23 06:00:00 17541 6 16.36 16.36 16.36 3.2 18.40	88.8975397073	16.36	3.20	Clear(fair)	True	False	3.20
2011-02-23 07:00:00 17542 7 215.31 215.31 215.31 171.6 242.20	88.8975397073	215.31	171.60	Sunny(fair)	True	False	171.60
2011-02-23 08:00:00 17543 8 540.41 540.41 540.41 533.0 607.90	88.8975397073	540.41	533.00	Sunny(fair)	True	False	533.00
2011-02-23 09:00:00 17544 9 788.17 788.17 788.17 824.3 886.60	88.8975397073	788.17	824.30	Sunny(fair)	True	False	824.30
2011-02-23 10:00:00 17545 10 1003.08 1003.08 1003.08 999.3 1063.70	94.3008408595	1003.08	999.30	Sunny(fair)	True	False	999.30
2011-02-23 11:00:00 17546 11 1084.18 1084.18 1084.18 1082.7 1149.70	94.3008408595	1084.18	1082.70	Sunny(fair)	True	False	1082.70
2011-02-23 12:00:00 17547 12 1078.42 1078.42 1078.42 1086.2 1143.60	94.3008408595	1078.42	1086.20	Sunny(fair)	True	False	1086.20
2011-02-23 13:00:00 17548 13 978.65 978.65 978.65 983.5 1037.80	94.3008408595	978.65	983.50	Sunny(fair)	True	False	983.50
2011-02-23 14:00:00 17549 14 840.60 840.60 840.60 828.7 891.40	94.3008408595	840.60	828.70	Sunny(fair)	True	False	828.70
2011-02-23 15:00:00 17550 15 605.60 605.60 605.60 573.7 642.20	94.3008408595	605.60	573.70	Sunny(fair)	True	False	573.70
2011-02-23 16:00:00 17551 16 268.47 268.47 268.47 236.0 302.00	88.8975397073	268.47	236.00	Sunny(fair)	True	False	236.00
2011-02-23 17:00:00 17552 17 30.76 30.76 30.76 13.2 34.60	88.8975397073	30.76	13.20	Sunny(fair)	True	False	13.20
2011-02-23 18:00:00 17553 18 0.00 0.00 0.00 0.0 0.00	88.8975397073	0.00	0.00	Clear(fair)	True	False	0.00
2011-02-23 19:00:00 17554 19 0.00 0.00 0.00 0.0 0.00	88.8975397073	0.00	0.00	Clear(fair)	True	False	0.00
2011-02-23 20:00:00 17555 20 0.00 0.00 0.00 0.0 0.00	88.8975397073	0.00	0.00	Clear(fair)	True	False	0.00
2011-02-23 21:00:00 17556 21 0.00 0.00 0.00 0.0 0.00	88.8975397073	0.00	0.00	Clear(fair)	True	False	0.00
2011-02-23 22:00:00 17557 22 0.00 0.00 0.00 0.0 0.00	88.8975397073	0.00	0.00	Clear(fair)	True	False	0.00
2011-02-23 23:00:00 17558 23 0.00 0.00 0.00 0.0 0.00	88.8975397073	0.00	0.00	Clear(fair)	True	False	0.00
2011-02-24 00:00:00 17559 0 0.00 0.00 0.00 0.0 0.00	88.8975397073	0.00	0.00	Clear(fair)	True	False	0.00
2011-02-24 01:00:00 17560 1 0.00 0.00 0.00 0.0 0.00	88.8975397073	0.00	0.00	Clear(fair)	True	False	0.00
2011-02-24 02:00:00 17561 2 0.00 0.00 0.00 0.0 0.00	88.8975397073	0.00	0.00	Clear(fair)	True	False	0.00
2011-02-24 03:00:00 17562 3 0.00 0.00 0.00 0.0 0.00	88.8975397073	0.00	0.00	Clear(fair)	True	False	0.00
2011-02-24 04:00:00 17563 4 0.00 0.00 0.00 0.0 0.00	88.8975397073	0.00	0.00	Clear(fair)	True	False	0.00
2011-02-24 05:00:00 17564 5 0.00 0.00 0.00 0.0 0.00	88.8975397073	0.00	0.00	Clear(fair)	True	False	0.00
2011-02-24 06:00:00 17565 6 16.36 16.36 16.36 3.7 18.40	88.8975397073	16.36	3.70	Clear(fair)	True	False	3.70
2011-02-24 07:00:00 17566 7 215.31 215.31 215.31 158.1 242.20	88.8975397073	215.31	158.10	Sunny(fair)	True	False	158.10
2011-02-24 08:00:00 17567 8 540.41 540.41 540.41 379.0 607.90	88.8975397073	540.41	379.00	Sunny(fair)	True	False	379.00
2011-02-24 09:00:00 17568 9 788.17 788.17 788.17 312.4 886.60	88.8975397073	788.17	312.40	Sunny(cloudy)	True	False	312.40
2011-02-24 10:00:00 17569 10 1003.08 1003.08 1003.08 509.4 1063.70	94.3008408595	1003.08	509.40	Sunny(cloudy)	True	False	509.40
2011-02-24 11:00:00 17570 11 1084.18 1084.18 1084.18 445.0 1149.70	94.3008408595	1084.18	445.00	Sunny(fair)	True	False	445.00
2011-02-24 12:00:00 17571 12 850.26 850.26 850.26 479.5 1143.60	74.3498303905	850.26	479.50	Partly_Cloudy(mostly_cloudy)	True	False	479.50
2011-02-24 13:00:00 17572 13 771.60 771.60 771.60 284.2 1037.80	74.3498303905	771.60	284.20	Partly_Cloudy(cloudy)	True	False	284.20
2011-02-24 14:00:00 17573 14 662.75 662.75 662.75 344.9 891.40	74.3498303905	662.75	344.90	Partly_Cloudy(mostly_cloudy)	True	False	344.90
2011-02-24 15:00:00 17574 15 62.90 62.90 62.90 250.5 642.20	9.79385926764	62.90	250.50	Showers(fair)	True	False	250.50
2011-02-24 16:00:00 17575 16 28.80 28.80 28.80 71.0 302.00	9.53757225434	28.80	71.00	Showers(mostly_cloudy)	True	False	71.00
2011-02-24 17:00:00 17576 17 3.30 3.30 3.30 9.5 34.60	9.53757225434	3.30	9.50	Showers(mostly_cloudy)	True	False	9.50
2011-02-24 18:00:00 17577 18 0.00 0.00 0.00 0.0 0.00	9.53757225434	0.00	0.00	Showers(fair)	True	False	0.00
2011-02-24 19:00:00 17578 19 0.00 0.00 0.00 0.0 0.00	9.53757225434	0.00	0.00	Showers(cloudy)	True	False	0.00
2011-02-24 20:00:00 17579 20 0.00 0.00 0.00 0.0 0.00	9.53757225434	0.00	0.00	Showers(cloudy)	True	False	0.00
2011-02-24 21:00:00 17580 21 0.00 0.00 0.00 0.0 0.00	9.53757225434	0.00	0.00	Showers(light_rain)	True	False	0.00
2011-02-24 22:00:00 17581 22 0.00 0.00 0.00 0.0 0.00	9.53757225434	0.00	0.00	Showers(light_rain)	True	False	0.00
2011-02-24 23:00:00 17582 23 0.00 0.00 0.00 0.0 0.00	9.53757225434	0.00	0.00	Showers(cloudy)	True	False	0.00
2011-02-25 00:00:00 17583 0 0.00 0.00 0.00 0.0 0.00	9.53757225434	0.00	0.00	Rain(light_rain)	True	False	0.00
2011-02-25 01:00:00 17584 1 0.00 0.00 0.00 0.0 0.00	9.53757225434	0.00	0.00	Rain(light_rain)	True	False	0.00
2011-02-25 02:00:00 17585 2 0.00 0.00 0.00 0.0 0.00	9.53757225434	0.00	0.00	Rain(light_rain)	True	False	0.00
2011-02-25 03:00:00 17586 3 0.00 0.00 0.00 0.0 0.00	9.53757225434	0.00	0.00	Rain(light_rain)	True	False	0.00
2011-02-25 04:00:00 17587 4 0.00 0.00 0.00 0.0 0.00	9.53757225434	0.00	0.00	Rain(rain)	True	False	0.00
