2011-03-21 15:00:00 47872 15 879.42 879.42 879.42 94.5 991.70	88.6781167222	879.42	94.50	Foggy(cloudy)	False	False	94.50
2011-03-21 16:00:00 47873 16 65.19 65.19 65.19 107.7 684.10	88.6781167222	65.19	107.70	Foggy(fog)	False	False	107.70
2011-03-21 17:00:00 47874 17 37.34 33.26 37.34 37.7 349.00	10.6988000403	37.34	37.70	Cloudy(fog)	True	False	37.70
2011-03-21 18:00:00 47875 18 10.52 9.37 10.52 1.1 98.30	10.6988000403	10.52	1.10	Cloudy(fog)	True	False	1.10
2011-03-21 19:00:00 47876 19 0.22 0.20 0.22 0.0 2.10	10.6988000403	0.22	0.00	Cloudy(cloudy)	True	False	0.00
2011-03-21 20:00:00 47877 20 0.00 0.00 0.00 0.0 0.00	10.6988000403	0.00	0.00	Cloudy(cloudy)	True	False	0.00
2011-03-21 21:00:00 47878 21 0.00 0.00 0.00 0.0 0.00	10.6988000403	0.00	0.00	Cloudy(cloudy)	True	False	0.00
2011-03-21 22:00:00 47879 22 0.00 0.00 0.00 0.0 0.00	10.6988000403	0.00	0.00	Cloudy(cloudy)	True	False	0.00
2011-03-21 23:00:00 47880 23 0.00 0.00 0.00 0.0 0.00	10.6988000403	0.00	0.00	Cloudy(fog)	True	False	0.00
2011-03-22 00:00:00 47881 0 0.00 0.00 0.00 0.0 0.00	10.6988000403	0.00	0.00	Cloudy(fog)	True	False	0.00
2011-03-22 01:00:00 47882 1 0.00 0.00 0.00 0.0 0.00	69.0666891493	0.00	0.00	Partly_Cloudy(fog)	True	False	0.00
2011-03-22 02:00:00 47883 2 0.00 0.00 0.00 0.0 0.00	69.0666891493	0.00	0.00	Partly_Cloudy(fog)	True	False	0.00
2011-03-22 03:00:00 47884 3 0.00 0.00 0.00 0.0 0.00	69.0666891493	0.00	0.00	Partly_Cloudy(fog)	True	False	0.00
2011-03-22 04:00:00 47885 4 0.00 0.00 0.00 0.0 0.00	69.0666891493	0.00	0.00	Partly_Cloudy(cloudy)	True	False	0.00
2011-03-22 05:00:00 47886 5 0.00 0.00 0.00 0.0 0.00	69.0666891493	0.00	0.00	Partly_Cloudy(cloudy)	True	False	0.00
2011-03-22 06:00:00 47887 6 18.86 18.86 18.86 0.0 27.30	69.0666891493	18.86	0.00	Partly_Cloudy(cloudy)	True	False	0.00
2011-03-22 07:00:00 47888 7 167.28 167.28 167.28 15.9 242.20	69.0666891493	167.28	15.90	Mostly_Sunny(cloudy)	False	False	15.90
2011-03-22 08:00:00 47889 8 419.86 419.86 419.86 69.3 607.90	69.0666891493	419.86	69.30	Mostly_Sunny(cloudy)	False	False	69.30
2011-03-22 09:00:00 47890 9 612.35 612.35 612.35 341.7 886.60	69.0666891493	612.35	341.70	Mostly_Sunny(cloudy)	False	False	341.70
2011-03-22 10:00:00 47891 10 943.27 943.27 943.27 813.5 1063.70	88.6781167222	943.27	813.50	Sunny(cloudy)	True	False	813.50
2011-03-22 11:00:00 47892 11 1019.53 1019.53 1019.53 627.9 1149.70	88.6781167222	1019.53	627.90	Sunny(cloudy)	True	False	627.90
2011-03-22 12:00:00 47893 12 1051.81 1051.81 1051.81 966.9 1186.10	88.6781167222	1051.81	966.90	Sunny(cloudy)	True	False	966.90
2011-03-22 13:00:00 47894 13 1037.80 1037.80 1037.80 1173.6 1170.30	88.6781167222	1037.80	1173.60	Mostly_Sunny(mostly_cloudy)	False	False	1173.60
2011-03-22 14:00:00 47895 14 1026.80 1026.80 1026.80 1005.2 1157.90	88.6781167222	1026.80	1005.20	Mostly_Sunny(mostly_cloudy)	False	False	1005.20
2011-03-22 15:00:00 47896 15 879.42 879.42 879.42 845.9 991.70	88.6781167222	879.42	845.90	Mostly_Sunny(mostly_cloudy)	False	False	845.90
2011-03-22 16:00:00 47897 16 472.49 472.49 472.49 652.0 684.10	69.0666891493	472.49	652.00	Partly_Cloudy(mostly_cloudy)	True	False	652.00
2011-03-22 17:00:00 47898 17 241.04 241.04 241.04 310.0 349.00	69.0666891493	241.04	310.00	Partly_Cloudy(sunny)	True	False	310.00
2011-03-22 18:00:00 47899 18 67.89 67.89 67.89 53.0 98.30	69.0666891493	67.89	53.00	Partly_Cloudy(fair)	True	False	53.00
2011-03-22 19:00:00 47900 19 0.65 0.65 0.65 0.0 2.10	30.7323493466	0.65	0.00	Mostly_Cloudy(partly_cloudy)	True	False	0.00
2011-03-22 20:00:00 47901 20 0.00 0.00 0.00 0.0 0.00	30.7323493466	0.00	0.00	Mostly_Cloudy(partly_cloudy)	True	False	0.00
2011-03-22 21:00:00 47902 21 0.00 0.00 0.00 0.0 0.00	30.7323493466	0.00	0.00	Mostly_Cloudy(partly_cloudy)	True	False	0.00
2011-03-22 22:00:00 47903 22 0.00 0.00 0.00 0.0 0.00	10.6988000403	0.00	0.00	Cloudy(mostly_cloudy)	True	False	0.00
2011-03-22 23:00:00 47904 23 0.00 0.00 0.00 0.0 0.00	10.6988000403	0.00	0.00	Cloudy(cloudy)	True	False	0.00
2011-03-23 00:00:00 47905 0 0.00 0.00 0.00 0.0 0.00	10.6988000403	0.00	0.00	Cloudy(cloudy)	True	False	0.00
2011-03-23 01:00:00 47906 1 0.00 0.00 0.00 0.0 0.00	10.6988000403	0.00	0.00	Cloudy(cloudy)	True	False	0.00
2011-03-23 02:00:00 47907 2 0.00 0.00 0.00 0.0 0.00	10.6988000403	0.00	0.00	Cloudy(light_rain)	True	False	0.00
2011-03-23 03:00:00 47908 3 0.00 0.00 0.00 0.0 0.00	10.6988000403	0.00	0.00	Cloudy(light_snow)	True	False	0.00
2011-03-23 04:00:00 47909 4 0.00 0.00 0.00 0.0 0.00	10.6988000403	0.00	0.00	Rain_/_Snow_Showers(light_snow)	False	False	0.00
2011-03-23 05:00:00 47910 5 0.00 0.00 0.00 0.0 0.00	10.6988000403	0.00	0.00	Rain_/_Snow_Showers(light_snow)	False	False	0.00
2011-03-23 06:00:00 47911 6 2.92 2.92 2.92 0.0 27.30	10.6988000403	2.92	0.00	Rain_/_Snow_Showers(light_snow)	False	False	0.00
2011-03-23 07:00:00 47912 7 25.91 25.91 25.91 0.0 242.20	10.6988000403	25.91	0.00	Rain_/_Snow_Showers(light_snow)	False	False	0.00
2011-03-23 08:00:00 47913 8 65.04 65.04 65.04 0.0 607.90	10.6988000403	65.04	0.00	Rain_/_Snow_Showers(light_snow)	False	False	0.00
2011-03-23 09:00:00 47914 9 94.86 94.86 94.86 0.2 886.60	10.6988000403	94.86	0.20	Rain_/_Snow_Showers(light_snow)	False	False	0.20
2011-03-23 10:00:00 47915 10 113.80 113.80 113.80 0.6 1063.70	10.6988000403	113.80	0.60	Rain_/_Snow_Showers(cloudy)	False	False	0.60
2011-03-23 11:00:00 47916 11 123.00 123.00 123.00 10.4 1149.70	10.6988000403	123.00	10.40	Rain_/_Snow_Showers(light_rain)	False	False	10.40
2011-03-23 12:00:00 47917 12 126.90 126.90 126.90 17.9 1186.10	10.6988000403	126.90	17.90	Rain_/_Snow_Showers(light_rain)	False	False	17.90
2011-03-23 13:00:00 47918 13 125.21 125.21 125.21 27.4 1170.30	10.6988000403	125.21	27.40	Rain_/_Snow(light_rain)	False	False	27.40
2011-03-23 14:00:00 47919 14 123.88 123.88 123.88 41.5 1157.90	10.6988000403	123.88	41.50	Rain_/_Snow(light_rain)	False	False	41.50
2011-03-23 15:00:00 47920 15 106.10 106.10 106.10 33.2 991.70	10.6988000403	106.10	33.20	Rain_/_Snow(cloudy)	False	False	33.20
