2011-02-27 06:00:00 22248 6 6.05 6.05 6.05 2.5 27.30	22.171758877	6.05	2.50	Cloudy(cloudy)	True	False	2.50
2011-02-27 07:00:00 22249 7 53.70 53.70 53.70 133.8 242.20	22.171758877	53.70	133.80	Cloudy(fair)	True	False	133.80
2011-02-27 08:00:00 22250 8 134.78 134.78 134.78 486.6 607.90	22.171758877	134.78	486.60	Cloudy(fair)	True	False	486.60
2011-02-27 09:00:00 22251 9 201.41 201.41 201.41 780.1 886.60	22.7170742652	201.41	780.10	Mostly_Cloudy(fair)	True	False	780.10
2011-02-27 10:00:00 22252 10 360.02 360.02 360.02 973.8 1063.70	33.8456360781	360.02	973.80	Mostly_Cloudy(fair)	True	False	973.80
2011-02-27 11:00:00 22253 11 389.12 389.12 389.12 968.6 1149.70	33.8456360781	389.12	968.60	Mostly_Cloudy(cloudy)	True	False	968.60
2011-02-27 12:00:00 22254 12 387.06 387.06 387.06 962.1 1143.60	33.8456360781	387.06	962.10	Mostly_Cloudy(cloudy)	True	False	962.10
2011-02-27 13:00:00 22255 13 351.25 351.25 351.25 1005.1 1037.80	33.8456360781	351.25	1005.10	Mostly_Cloudy(cloudy)	True	False	1005.10
2011-02-27 14:00:00 22256 14 301.70 301.70 301.70 845.0 891.40	33.8456360781	301.70	845.00	Mostly_Cloudy(partly_cloudy)	True	False	845.00
2011-02-27 15:00:00 22257 15 217.36 217.36 217.36 564.5 642.20	33.8456360781	217.36	564.50	Mostly_Cloudy(fair)	True	False	564.50
2011-02-27 16:00:00 22258 16 68.61 68.61 68.61 184.2 302.00	22.7170742652	68.61	184.20	Mostly_Cloudy(fair)	True	False	184.20
2011-02-27 17:00:00 22259 17 7.86 7.86 7.86 27.9 34.60	22.7170742652	7.86	27.90	Mostly_Cloudy(fair)	True	False	27.90
2011-02-27 18:00:00 22260 18 0.00 0.00 0.00 0.0 0.00	22.7170742652	0.00	0.00	Mostly_Cloudy(fair)	True	False	0.00
2011-02-27 19:00:00 22261 19 0.00 0.00 0.00 0.0 0.00	22.7170742652	0.00	0.00	Mostly_Cloudy(fair)	True	False	0.00
2011-02-27 20:00:00 22262 20 0.00 0.00 0.00 0.0 0.00	22.7170742652	0.00	0.00	Mostly_Cloudy(fair)	True	False	0.00
2011-02-27 21:00:00 22263 21 0.00 0.00 0.00 0.0 0.00	22.171758877	0.00	0.00	Cloudy(fair)	True	False	0.00
2011-02-27 22:00:00 22264 22 0.00 0.00 0.00 0.0 0.00	22.171758877	0.00	0.00	Cloudy(fair)	True	False	0.00
2011-02-27 23:00:00 22265 23 0.00 0.00 0.00 0.0 0.00	22.171758877	0.00	0.00	Cloudy(fair)	True	False	0.00
2011-02-28 00:00:00 22266 0 0.00 0.00 0.00 0.0 0.00	22.171758877	0.00	0.00	Cloudy(fair)	True	False	0.00
2011-02-28 01:00:00 22267 1 0.00 0.00 0.00 0.0 0.00	22.171758877	0.00	0.00	Cloudy(mostly_cloudy)	True	False	0.00
2011-02-28 02:00:00 22268 2 0.00 0.00 0.00 0.0 0.00	22.171758877	0.00	0.00	Cloudy(cloudy)	True	False	0.00
2011-02-28 03:00:00 22269 3 0.00 0.00 0.00 0.0 0.00	4.48905932777	0.00	0.00	Showers(cloudy)	True	False	0.00
2011-02-28 04:00:00 22270 4 0.00 0.00 0.00 0.0 0.00	4.48905932777	0.00	0.00	Showers(light_rain)	True	False	0.00
2011-02-28 05:00:00 22271 5 0.00 0.00 0.00 0.0 0.00	4.48905932777	0.00	0.00	Showers(light_rain)	True	False	0.00
2011-02-28 06:00:00 22272 6 1.23 1.23 1.23 0.0 27.30	4.48905932777	1.23	0.00	Rain(light_rain)	True	False	0.00
2011-02-28 07:00:00 22273 7 10.87 10.87 10.87 0.0 242.20	4.48905932777	10.87	0.00	Rain(cloudy)	True	False	0.00
2011-02-28 08:00:00 22274 8 27.29 27.29 27.29 23.1 607.90	4.48905932777	27.29	23.10	Rain(rain)	True	False	23.10
2011-02-28 09:00:00 22275 9 39.80 39.80 39.80 24.4 886.60	4.48905932777	39.80	24.40	Rain(light_rain)	True	False	24.40
2011-02-28 10:00:00 22276 10 91.15 91.15 91.15 127.7 1063.70	8.56942987058	91.15	127.70	Rain(rain)	True	False	127.70
2011-02-28 11:00:00 22277 11 98.52 98.52 98.52 194.4 1149.70	8.56942987058	98.52	194.40	Rain(light_rain)	True	False	194.40
2011-02-28 12:00:00 22278 12 98.00 98.00 98.00 181.6 1143.60	8.56942987058	98.00	181.60	Rain(partly_cloudy)	True	False	181.60
2011-02-28 13:00:00 22279 13 88.93 88.93 88.93 167.4 1037.80	8.56942987058	88.93	167.40	Rain(fair)	True	False	167.40
2011-02-28 14:00:00 22280 14 76.39 76.39 76.39 91.1 891.40	8.56942987058	76.39	91.10	Rain(fair)	True	False	91.10
2011-02-28 15:00:00 22281 15 55.03 55.03 55.03 83.2 642.20	8.56942987058	55.03	83.20	Rain(fair)	True	False	83.20
2011-02-28 16:00:00 22282 16 13.56 13.56 13.56 26.5 302.00	4.48905932777	13.56	26.50	Rain(cloudy)	True	False	26.50
2011-02-28 17:00:00 22283 17 1.55 1.55 1.55 1.7 34.60	4.48905932777	1.55	1.70	Rain(cloudy)	True	False	1.70
2011-02-28 18:00:00 22284 18 0.00 0.00 0.00 0.0 0.00	4.48905932777	0.00	0.00	Rain_/_Thunder(cloudy)	True	False	0.00
2011-02-28 19:00:00 22285 19 0.00 0.00 0.00 0.0 0.00	4.48905932777	0.00	0.00	Rain_/_Thunder(cloudy)	True	False	0.00
2011-02-28 20:00:00 22286 20 0.00 0.00 0.00 0.0 0.00	4.48905932777	0.00	0.00	Rain_/_Thunder(Unkown)	True	False	0.00
2011-02-28 21:00:00 22287 21 0.00 0.00 0.00 0.0 0.00	4.48905932777	0.00	0.00	Rain(cloudy)	True	False	0.00
2011-02-28 22:00:00 22288 22 0.00 0.00 0.00 0.0 0.00	4.48905932777	0.00	0.00	Rain(cloudy)	True	False	0.00
2011-02-28 23:00:00 22289 23 0.00 0.00 0.00 0.0 0.00	4.48905932777	0.00	0.00	Rain(mostly_cloudy)	True	False	0.00
2011-03-01 00:00:00 22290 0 0.00 0.00 0.00 0.0 0.00	4.48905932777	0.00	0.00	Showers(fair)	True	False	0.00
2011-03-01 01:00:00 22291 1 0.00 0.00 0.00 0.0 0.00	4.48905932777	0.00	0.00	Showers(fair)	True	False	0.00
2011-03-01 02:00:00 22292 2 0.00 0.00 0.00 0.0 0.00	4.48905932777	0.00	0.00	Showers(fair)	True	False	0.00
2011-03-01 03:00:00 22293 3 0.00 0.00 0.00 0.0 0.00	22.7170742652	0.00	0.00	Mostly_Cloudy(fair)	True	False	0.00
2011-03-01 04:00:00 22294 4 0.00 0.00 0.00 0.0 0.00	22.7170742652	0.00	0.00	Mostly_Cloudy(fair)	True	False	0.00
2011-03-01 05:00:00 22295 5 0.00 0.00 0.00 0.0 0.00	22.7170742652	0.00	0.00	Mostly_Cloudy(fair)	True	False	0.00
2011-03-01 06:00:00 22296 6 19.49 19.49 19.49 10.5 27.30	71.3923098618	19.49	10.50	Partly_Cloudy(fair)	True	False	10.50
