2011-03-05 22:00:00 29816 22 0.00 0.00 0.00 0.0 0.00	16.8028511822	0.00	0.00	Cloudy(cloudy)	True	False	0.00
2011-03-05 23:00:00 29817 23 0.00 0.00 0.00 0.0 0.00	16.8028511822	0.00	0.00	Cloudy(cloudy)	True	False	0.00
2011-03-06 00:00:00 29818 0 0.00 0.00 0.00 0.0 0.00	16.8028511822	0.00	0.00	Cloudy(cloudy)	True	False	0.00
2011-03-06 01:00:00 29819 1 0.00 0.00 0.00 0.0 0.00	16.8028511822	0.00	0.00	Cloudy(partly_cloudy)	True	False	0.00
2011-03-06 02:00:00 29820 2 0.00 0.00 0.00 0.0 0.00	16.8028511822	0.00	0.00	Cloudy(cloudy)	True	False	0.00
2011-03-06 03:00:00 29821 3 0.00 0.00 0.00 0.0 0.00	16.8028511822	0.00	0.00	Cloudy(cloudy)	True	False	0.00
2011-03-06 04:00:00 29822 4 0.00 0.00 0.00 0.0 0.00	5.58312655087	0.00	0.00	Few_Showers(partly_cloudy)	True	False	0.00
2011-03-06 05:00:00 29823 5 0.00 0.00 0.00 0.0 0.00	5.58312655087	0.00	0.00	Few_Showers(cloudy)	True	False	0.00
2011-03-06 06:00:00 29824 6 1.23 1.23 1.23 0.0 27.30	4.52377035697	1.23	0.00	Showers(cloudy)	True	False	0.00
2011-03-06 07:00:00 29825 7 10.96 10.96 10.96 35.9 242.20	4.52377035697	10.96	35.90	Showers(cloudy)	True	False	35.90
2011-03-06 08:00:00 29826 8 27.50 27.50 27.50 70.3 607.90	4.52377035697	27.50	70.30	Showers(light_rain)	True	False	70.30
2011-03-06 09:00:00 29827 9 40.11 40.11 40.11 109.3 886.60	4.52377035697	40.11	109.30	Rain(rain)	True	False	109.30
2011-03-06 10:00:00 29828 10 90.61 90.61 90.61 90.4 1063.70	8.51877607789	90.61	90.40	Rain(rain)	True	False	90.40
2011-03-06 11:00:00 29829 11 97.94 97.94 97.94 85.1 1149.70	8.51877607789	97.94	85.10	Rain(light_rain)	True	False	85.10
2011-03-06 12:00:00 29830 12 98.00 98.00 98.00 184.0 1150.40	8.51877607789	98.00	184.00	Rain(light_rain)	True	False	184.00
2011-03-06 13:00:00 29831 13 98.15 98.15 98.15 163.5 1152.20	8.51877607789	98.15	163.50	Rain(light_rain)	True	False	163.50
2011-03-06 14:00:00 29832 14 90.60 90.60 90.60 97.1 1063.50	8.51877607789	90.60	97.10	Rain(cloudy)	True	False	97.10
2011-03-06 15:00:00 29833 15 77.61 77.61 77.61 57.2 911.10	8.51877607789	77.61	57.20	Rain(light_rain)	True	False	57.20
2011-03-06 16:00:00 29834 16 30.01 30.01 30.01 3.6 663.40	4.52377035697	30.01	3.60	Rain(rain)	True	False	3.60
2011-03-06 17:00:00 29835 17 14.88 14.88 14.88 0.0 329.00	4.52377035697	14.88	0.00	Rain(heavy_rain)	True	False	0.00
2011-03-06 18:00:00 29836 18 2.36 2.36 2.36 0.0 52.20	4.52377035697	2.36	0.00	Rain(rain)	True	False	0.00
2011-03-06 19:00:00 29837 19 0.00 0.00 0.00 0.0 0.10	4.52377035697	0.00	0.00	Rain(rain)	True	False	0.00
2011-03-06 20:00:00 29838 20 0.00 0.00 0.00 0.0 0.00	4.52377035697	0.00	0.00	Rain(rain)	True	False	0.00
2011-03-06 21:00:00 29839 21 0.00 0.00 0.00 0.0 0.00	4.52377035697	0.00	0.00	Rain(light_rain)	True	False	0.00
2011-03-06 22:00:00 29840 22 0.00 0.00 0.00 0.0 0.00	4.52377035697	0.00	0.00	Rain(light_rain)	True	False	0.00
2011-03-06 23:00:00 29841 23 0.00 0.00 0.00 0.0 0.00	4.52377035697	0.00	0.00	Rain(light_rain)	True	False	0.00
2011-03-07 00:00:00 29842 0 0.00 0.00 0.00 0.0 0.00	4.52377035697	0.00	0.00	Showers(light_rain)	True	False	0.00
2011-03-07 01:00:00 29843 1 0.00 0.00 0.00 0.0 0.00	4.52377035697	0.00	0.00	Showers(light_rain)	True	False	0.00
2011-03-07 02:00:00 29844 2 0.00 0.00 0.00 0.0 0.00	4.52377035697	0.00	0.00	Showers(light_rain)	True	False	0.00
2011-03-07 03:00:00 29845 3 0.00 0.00 0.00 0.0 0.00	16.8028511822	0.00	0.00	Cloudy(light_rain)	True	False	0.00
2011-03-07 04:00:00 29846 4 0.00 0.00 0.00 0.0 0.00	16.8028511822	0.00	0.00	Cloudy(cloudy)	True	False	0.00
2011-03-07 05:00:00 29847 5 0.00 0.00 0.00 0.0 0.00	16.8028511822	0.00	0.00	Cloudy(cloudy)	True	False	0.00
2011-03-07 06:00:00 29848 6 7.21 7.21 7.21 1.8 27.30	26.4076391176	7.21	1.80	Mostly_Cloudy(cloudy)	True	False	1.80
2011-03-07 07:00:00 29849 7 63.96 63.96 63.96 222.2 242.20	26.4076391176	63.96	222.20	Mostly_Cloudy(cloudy)	True	False	222.20
2011-03-07 08:00:00 29850 8 160.53 160.53 160.53 611.2 607.90	26.4076391176	160.53	611.20	Mostly_Cloudy(fair_and_windy)	True	False	611.20
2011-03-07 09:00:00 29851 9 642.91 642.91 642.91 883.7 886.60	72.5139082058	642.91	883.70	Partly_Cloudy(fair_and_windy)	True	False	883.70
2011-03-07 10:00:00 29852 10 784.15 784.15 784.15 1077.1 1063.70	73.7188528444	784.15	1077.10	Partly_Cloudy(fair)	True	False	1077.10
2011-03-07 11:00:00 29853 11 847.55 847.55 847.55 1170.2 1149.70	73.7188528444	847.55	1170.20	Partly_Cloudy(fair)	True	False	1170.20
2011-03-07 12:00:00 29854 12 848.06 848.06 848.06 1173.4 1150.40	73.7188528444	848.06	1173.40	Partly_Cloudy(fair_and_windy)	True	False	1173.40
2011-03-07 13:00:00 29855 13 849.39 849.39 849.39 1067.9 1152.20	73.7188528444	849.39	1067.90	Partly_Cloudy(fair)	True	False	1067.90
2011-03-07 14:00:00 29856 14 784.00 784.00 784.00 913.8 1063.50	73.7188528444	784.00	913.80	Partly_Cloudy(fair)	True	False	913.80
2011-03-07 15:00:00 29857 15 835.20 835.20 835.20 653.0 911.10	91.6694106026	835.20	653.00	Sunny(fair)	True	False	653.00
2011-03-07 16:00:00 29858 16 589.48 589.48 589.48 307.0 663.40	88.8579629469	589.48	307.00	Sunny(fair)	True	False	307.00
2011-03-07 17:00:00 29859 17 292.34 292.34 292.34 32.2 329.00	88.8579629469	292.34	32.20	Sunny(fair)	True	False	32.20
2011-03-07 18:00:00 29860 18 46.38 46.38 46.38 0.0 52.20	88.8579629469	46.38	0.00	Clear(fair)	True	False	0.00
2011-03-07 19:00:00 29861 19 0.09 0.09 0.09 0.0 0.10	88.8579629469	0.09	0.00	Clear(fair)	True	False	0.00
2011-03-07 20:00:00 29862 20 0.00 0.00 0.00 0.0 0.00	88.8579629469	0.00	0.00	Clear(fair)	True	False	0.00
2011-03-07 21:00:00 29863 21 0.00 0.00 0.00 0.0 0.00	88.8579629469	0.00	0.00	Clear(fair)	True	False	0.00
2011-03-07 22:00:00 29864 22 0.00 0.00 0.00 0.0 0.00	88.8579629469	0.00	0.00	Clear(fair)	True	False	0.00
