2011-02-21 20:00:00 16019 20 0.00 0.00 0.00 0.0 0.00	22.6003572436	0.00	0.00	Cloudy(fair)	True	False	0.00
2011-02-21 21:00:00 16020 21 0.00 0.00 0.00 0.0 0.00	0.645596454037	0.00	0.00	Light_Snow(cloudy)	True	False	0.00
2011-02-21 22:00:00 16021 22 0.00 0.00 0.00 0.0 0.00	0.365312690267	0.00	0.00	Snow(cloudy)	True	False	0.00
2011-02-21 23:00:00 16022 23 0.00 0.00 0.00 0.0 0.00	0.365312690267	0.00	0.00	Snow(cloudy)	True	False	0.00
2011-02-22 00:00:00 16023 0 0.00 0.00 0.00 0.0 0.00	0.365312690267	0.00	0.00	Snow(cloudy)	True	False	0.00
2011-02-22 01:00:00 16024 1 0.00 0.00 0.00 0.0 0.00	0.365312690267	0.00	0.00	Snow(cloudy)	True	False	0.00
2011-02-22 02:00:00 16025 2 0.00 0.00 0.00 0.0 0.00	0.645596454037	0.00	0.00	Few_Snow_Showers(cloudy)	True	False	0.00
2011-02-22 03:00:00 16026 3 0.00 0.00 0.00 0.0 0.00	22.6003572436	0.00	0.00	Cloudy(cloudy)	True	False	0.00
2011-02-22 04:00:00 16027 4 0.00 0.00 0.00 0.0 0.00	22.6003572436	0.00	0.00	Cloudy(cloudy)	True	False	0.00
2011-02-22 05:00:00 16028 5 0.00 0.00 0.00 0.0 0.00	22.6003572436	0.00	0.00	Cloudy(mostly_cloudy)	True	False	0.00
2011-02-22 06:00:00 16029 6 3.18 3.18 3.18 0.4 16.40	19.4054500413	3.18	0.40	Mostly_Cloudy(cloudy)	True	False	0.40
2011-02-22 07:00:00 16030 7 47.00 47.00 47.00 59.7 242.20	19.4054500413	47.00	59.70	Mostly_Cloudy(cloudy)	True	False	59.70
2011-02-22 08:00:00 16031 8 117.97 117.97 117.97 400.0 607.90	19.4054500413	117.97	400.00	Mostly_Cloudy(mostly_cloudy)	True	False	400.00
2011-02-22 09:00:00 16032 9 172.05 172.05 172.05 798.1 886.60	19.4054500413	172.05	798.10	Mostly_Sunny(fair)	False	False	798.10
2011-02-22 10:00:00 16033 10 206.42 206.42 206.42 1040.2 1063.70	19.4054500413	206.42	1040.20	Mostly_Sunny(fair)	False	False	1040.20
2011-02-22 11:00:00 16034 11 223.10 223.10 223.10 1132.7 1149.70	19.4054500413	223.10	1132.70	Mostly_Sunny(fair)	False	False	1132.70
2011-02-22 12:00:00 16035 12 989.43 989.43 989.43 1136.1 1143.60	86.5187552881	989.43	1136.10	Sunny(fair)	True	False	1136.10
2011-02-22 13:00:00 16036 13 897.89 897.89 897.89 1025.6 1037.80	86.5187552881	897.89	1025.60	Sunny(fair)	True	False	1025.60
2011-02-22 14:00:00 16037 14 771.23 771.23 771.23 859.0 891.40	86.5187552881	771.23	859.00	Sunny(fair)	True	False	859.00
2011-02-22 15:00:00 16038 15 555.62 555.62 555.62 593.7 642.20	86.5187552881	555.62	593.70	Sunny(fair)	True	False	593.70
2011-02-22 16:00:00 16039 16 210.57 210.57 210.57 239.6 302.00	69.7247706422	210.57	239.60	Sunny(fair)	True	False	239.60
2011-02-22 17:00:00 16040 17 22.80 22.80 22.80 11.7 32.70	69.7247706422	22.80	11.70	Sunny(fair)	True	False	11.70
2011-02-22 18:00:00 16041 18 0.00 0.00 0.00 0.0 0.00	69.7247706422	0.00	0.00	Clear(fair)	True	False	0.00
2011-02-22 19:00:00 16042 19 0.00 0.00 0.00 0.0 0.00	69.7247706422	0.00	0.00	Clear(fair)	True	False	0.00
2011-02-22 20:00:00 16043 20 0.00 0.00 0.00 0.0 0.00	69.7247706422	0.00	0.00	Clear(fair)	True	False	0.00
2011-02-22 21:00:00 16044 21 0.00 0.00 0.00 0.0 0.00	69.7247706422	0.00	0.00	Clear(fair)	True	False	0.00
2011-02-22 22:00:00 16045 22 0.00 0.00 0.00 0.0 0.00	69.7247706422	0.00	0.00	Clear(fair)	True	False	0.00
2011-02-22 23:00:00 16046 23 0.00 0.00 0.00 0.0 0.00	69.7247706422	0.00	0.00	Clear(fair)	True	False	0.00
2011-02-23 00:00:00 16047 0 0.00 0.00 0.00 0.0 0.00	69.7247706422	0.00	0.00	Clear(fair)	True	False	0.00
2011-02-23 01:00:00 16048 1 0.00 0.00 0.00 0.0 0.00	69.7247706422	0.00	0.00	Clear(fair)	True	False	0.00
2011-02-23 02:00:00 16049 2 0.00 0.00 0.00 0.0 0.00	69.7247706422	0.00	0.00	Clear(fair)	True	False	0.00
2011-02-23 03:00:00 16050 3 0.00 0.00 0.00 0.0 0.00	69.7247706422	0.00	0.00	Clear(fair)	True	False	0.00
2011-02-23 04:00:00 16051 4 0.00 0.00 0.00 0.0 0.00	69.7247706422	0.00	0.00	Clear(fair)	True	False	0.00
2011-02-23 05:00:00 16052 5 0.00 0.00 0.00 0.0 0.00	69.7247706422	0.00	0.00	Clear(fair)	True	False	0.00
2011-02-23 06:00:00 16053 6 11.43 11.43 11.43 3.2 16.40	69.7247706422	11.43	3.20	Clear(fair)	True	False	3.20
2011-02-23 07:00:00 16054 7 168.87 168.87 168.87 171.6 242.20	69.7247706422	168.87	171.60	Sunny(fair)	True	False	171.60
2011-02-23 08:00:00 16055 8 423.86 423.86 423.86 533.0 607.90	69.7247706422	423.86	533.00	Sunny(fair)	True	False	533.00
2011-02-23 09:00:00 16056 9 618.18 618.18 618.18 824.3 886.60	69.7247706422	618.18	824.30	Sunny(fair)	True	False	824.30
2011-02-23 10:00:00 16057 10 920.30 920.30 920.30 999.3 1063.70	86.5187552881	920.30	999.30	Sunny(fair)	True	False	999.30
2011-02-23 11:00:00 16058 11 994.71 994.71 994.71 1082.7 1149.70	86.5187552881	994.71	1082.70	Sunny(fair)	True	False	1082.70
2011-02-23 12:00:00 16059 12 989.43 989.43 989.43 1086.2 1143.60	86.5187552881	989.43	1086.20	Sunny(fair)	True	False	1086.20
2011-02-23 13:00:00 16060 13 897.89 897.89 897.89 983.5 1037.80	86.5187552881	897.89	983.50	Sunny(fair)	True	False	983.50
2011-02-23 14:00:00 16061 14 771.23 771.23 771.23 828.7 891.40	86.5187552881	771.23	828.70	Sunny(fair)	True	False	828.70
2011-02-23 15:00:00 16062 15 555.62 555.62 555.62 573.7 642.20	86.5187552881	555.62	573.70	Sunny(fair)	True	False	573.70
2011-02-23 16:00:00 16063 16 210.57 210.57 210.57 236.0 302.00	69.7247706422	210.57	236.00	Sunny(fair)	True	False	236.00
2011-02-23 17:00:00 16064 17 22.80 22.80 22.80 13.2 32.70	69.7247706422	22.80	13.20	Sunny(fair)	True	False	13.20
2011-02-23 18:00:00 16065 18 0.00 0.00 0.00 0.0 0.00	69.7247706422	0.00	0.00	Clear(fair)	True	False	0.00
