2011-02-25 03:00:00 19780 3 0.00 0.00 0.00 0.0 0.00	6.53379712325	0.00	0.00	Light_Rain(light_rain)	True	False	0.00
2011-02-25 04:00:00 19781 4 0.00 0.00 0.00 0.0 0.00	6.53379712325	0.00	0.00	Light_Rain(rain)	True	False	0.00
2011-02-25 05:00:00 19782 5 0.00 0.00 0.00 0.0 0.00	6.53379712325	0.00	0.00	Light_Rain(rain)	True	False	0.00
2011-02-25 06:00:00 19783 6 1.78 1.78 1.78 0.0 27.30	6.53379712325	1.78	0.00	Light_Rain(light_rain)	True	False	0.00
2011-02-25 07:00:00 19784 7 15.82 15.82 15.82 0.0 242.20	6.53379712325	15.82	0.00	Light_Rain(light_rain)	True	False	0.00
2011-02-25 08:00:00 19785 8 39.72 39.72 39.72 0.0 607.90	6.53379712325	39.72	0.00	Light_Rain(rain)	True	False	0.00
2011-02-25 09:00:00 19786 9 84.56 84.56 84.56 12.4 886.60	9.53757225434	84.56	12.40	Rain(rain)	True	False	12.40
2011-02-25 10:00:00 19787 10 104.18 104.18 104.18 69.9 1063.70	9.79385926764	104.18	69.90	Rain(light_rain)	True	False	69.90
2011-02-25 11:00:00 19788 11 112.60 112.60 112.60 67.4 1149.70	9.79385926764	112.60	67.40	Rain(rain)	True	False	67.40
2011-02-25 12:00:00 19789 12 18.70 18.70 18.70 71.0 1143.60	1.63500467144	18.70	71.00	Showers_/_Wind(rain)	True	False	71.00
2011-02-25 13:00:00 19790 13 16.97 16.97 16.97 58.3 1037.80	1.63500467144	16.97	58.30	Showers_/_Wind(light_rain)	True	False	58.30
2011-02-25 14:00:00 19791 14 14.57 14.57 14.57 184.5 891.40	1.63500467144	14.57	184.50	Showers_/_Wind(fair)	True	False	184.50
2011-02-25 15:00:00 19792 15 162.96 162.96 162.96 52.0 642.20	25.3760055964	162.96	52.00	Cloudy_/_Wind(mostly_cloudy)	True	False	52.00
2011-02-25 16:00:00 19793 16 2.34 2.34 2.34 84.5 302.00	0.774063271259	2.34	84.50	Few_Showers_/_Wind(cloudy)	True	False	84.50
2011-02-25 17:00:00 19794 17 0.27 0.27 0.27 3.7 34.60	0.774063271259	0.27	3.70	Few_Showers_/_Wind(cloudy_and_windy)	True	False	3.70
2011-02-25 18:00:00 19795 18 0.00 0.00 0.00 0.0 0.00	22.7170742652	0.00	0.00	Mostly_Cloudy_/_Wind(cloudy)	True	False	0.00
2011-02-25 19:00:00 19796 19 0.00 0.00 0.00 0.0 0.00	22.7170742652	0.00	0.00	Mostly_Cloudy_/_Wind(cloudy)	True	False	0.00
2011-02-25 20:00:00 19797 20 0.00 0.00 0.00 0.0 0.00	22.7170742652	0.00	0.00	Mostly_Cloudy_/_Wind(mostly_cloudy)	True	False	0.00
2011-02-25 21:00:00 19798 21 0.00 0.00 0.00 0.0 0.00	22.7170742652	0.00	0.00	Mostly_Clear_/_Wind(cloudy_and_windy)	False	False	0.00
2011-02-25 22:00:00 19799 22 0.00 0.00 0.00 0.0 0.00	22.7170742652	0.00	0.00	Mostly_Clear_/_Wind(mostly_cloudy)	False	False	0.00
2011-02-25 23:00:00 19800 23 0.00 0.00 0.00 0.0 0.00	22.7170742652	0.00	0.00	Mostly_Clear_/_Wind(fair)	False	False	0.00
2011-02-26 00:00:00 19801 0 0.00 0.00 0.00 0.0 0.00	90.0641552887	0.00	0.00	Clear(fair)	True	False	0.00
2011-02-26 01:00:00 19802 1 0.00 0.00 0.00 0.0 0.00	90.0641552887	0.00	0.00	Clear(fair)	True	False	0.00
2011-02-26 02:00:00 19803 2 0.00 0.00 0.00 0.0 0.00	90.0641552887	0.00	0.00	Clear(fair)	True	False	0.00
2011-02-26 03:00:00 19804 3 0.00 0.00 0.00 0.0 0.00	90.0641552887	0.00	0.00	Clear(fair)	True	False	0.00
2011-02-26 04:00:00 19805 4 0.00 0.00 0.00 0.0 0.00	90.0641552887	0.00	0.00	Clear(fair)	True	False	0.00
2011-02-26 05:00:00 19806 5 0.00 0.00 0.00 0.0 0.00	90.0641552887	0.00	0.00	Clear(fair)	True	False	0.00
2011-02-26 06:00:00 19807 6 24.59 24.59 24.59 0.5 27.30	90.0641552887	24.59	0.50	Mostly_Clear(fair)	False	False	0.50
2011-02-26 07:00:00 19808 7 218.14 218.14 218.14 59.4 242.20	90.0641552887	218.14	59.40	Mostly_Sunny(fair)	False	False	59.40
2011-02-26 08:00:00 19809 8 547.50 547.50 547.50 228.5 607.90	90.0641552887	547.50	228.50	Mostly_Sunny(fair)	False	False	228.50
2011-02-26 09:00:00 19810 9 612.14 612.14 612.14 504.3 886.60	69.0440984605	612.14	504.30	Partly_Cloudy(sunny)	True	False	504.30
2011-02-26 10:00:00 19811 10 775.92 775.92 775.92 590.8 1063.70	72.9450856943	775.92	590.80	Partly_Cloudy(fair)	True	False	590.80
2011-02-26 11:00:00 19812 11 838.65 838.65 838.65 1039.4 1149.70	72.9450856943	838.65	1039.40	Partly_Cloudy(fair)	True	False	1039.40
2011-02-26 12:00:00 19813 12 834.20 834.20 834.20 1086.2 1143.60	72.9450856943	834.20	1086.20	Partly_Cloudy(fair)	True	False	1086.20
2011-02-26 13:00:00 19814 13 757.02 757.02 757.02 968.1 1037.80	72.9450856943	757.02	968.10	Partly_Cloudy(fair)	True	False	968.10
2011-02-26 14:00:00 19815 14 650.23 650.23 650.23 854.5 891.40	72.9450856943	650.23	854.50	Partly_Cloudy(cloudy)	True	False	854.50
2011-02-26 15:00:00 19816 15 217.36 217.36 217.36 502.1 642.20	33.8456360781	217.36	502.10	Mostly_Cloudy(fair)	True	False	502.10
2011-02-26 16:00:00 19817 16 68.61 68.61 68.61 123.9 302.00	22.7170742652	68.61	123.90	Mostly_Cloudy(fair)	True	False	123.90
2011-02-26 17:00:00 19818 17 7.86 7.86 7.86 18.3 34.60	22.7170742652	7.86	18.30	Mostly_Cloudy(fair)	True	False	18.30
2011-02-26 18:00:00 19819 18 0.00 0.00 0.00 0.0 0.00	0.774063271259	0.00	0.00	Few_Snow_Showers(partly_cloudy)	True	False	0.00
2011-02-26 19:00:00 19820 19 0.00 0.00 0.00 0.0 0.00	0.774063271259	0.00	0.00	Few_Snow_Showers(mostly_cloudy)	True	False	0.00
2011-02-26 20:00:00 19821 20 0.00 0.00 0.00 0.0 0.00	0.774063271259	0.00	0.00	Few_Snow_Showers(cloudy)	True	False	0.00
2011-02-26 21:00:00 19822 21 0.00 0.00 0.00 0.0 0.00	0.774063271259	0.00	0.00	Few_Snow_Showers(fair)	True	False	0.00
2011-02-26 22:00:00 19823 22 0.00 0.00 0.00 0.0 0.00	0.774063271259	0.00	0.00	Few_Snow_Showers(mostly_cloudy)	True	False	0.00
2011-02-26 23:00:00 19824 23 0.00 0.00 0.00 0.0 0.00	0.774063271259	0.00	0.00	Few_Snow_Showers(cloudy)	True	False	0.00
2011-02-27 00:00:00 19825 0 0.00 0.00 0.00 0.0 0.00	0.365312690267	0.00	0.00	Snow_Shower(cloudy)	True	False	0.00
2011-02-27 01:00:00 19826 1 0.00 0.00 0.00 0.0 0.00	0.365312690267	0.00	0.00	Snow_Shower(cloudy)	True	False	0.00
2011-02-27 02:00:00 19827 2 0.00 0.00 0.00 0.0 0.00	0.365312690267	0.00	0.00	Snow_Shower(cloudy)	True	False	0.00
2011-02-27 03:00:00 19828 3 0.00 0.00 0.00 0.0 0.00	0.774063271259	0.00	0.00	Light_Snow(cloudy)	True	False	0.00
