2011-03-20 10:00:00 46467 10 943.27 943.27 943.27 932.9 1063.70	88.6781167222	943.27	932.90	Sunny(sunny)	True	False	932.90
2011-03-20 11:00:00 46468 11 1019.53 1019.53 1019.53 1072.4 1149.70	88.6781167222	1019.53	1072.40	Sunny(sunny)	True	False	1072.40
2011-03-20 12:00:00 46469 12 1051.81 1051.81 1051.81 1138.6 1186.10	88.6781167222	1051.81	1138.60	Sunny(sunny)	True	False	1138.60
2011-03-20 13:00:00 46470 13 1037.80 1037.80 1037.80 1131.6 1170.30	88.6781167222	1037.80	1131.60	Sunny(sunny)	True	False	1131.60
2011-03-20 14:00:00 46471 14 1026.80 1026.80 1026.80 1051.8 1157.90	88.6781167222	1026.80	1051.80	Sunny(sunny)	True	False	1051.80
2011-03-20 15:00:00 46472 15 879.42 879.42 879.42 901.5 991.70	88.6781167222	879.42	901.50	Sunny(sunny)	True	False	901.50
2011-03-20 16:00:00 46473 16 589.96 589.96 589.96 617.9 684.10	86.2385321101	589.96	617.90	Sunny(sunny)	True	False	617.90
2011-03-20 17:00:00 46474 17 300.97 300.97 300.97 330.6 349.00	86.2385321101	300.97	330.60	Sunny(sunny)	True	False	330.60
2011-03-20 18:00:00 46475 18 75.20 75.20 75.20 51.5 87.20	86.2385321101	75.20	51.50	Sunny(sunny)	True	False	51.50
2011-03-20 19:00:00 46476 19 1.00 1.00 1.00 0.3 1.50	66.6666666667	1.00	0.30	Partly_Cloudy(sunny)	True	False	0.30
2011-03-20 20:00:00 46477 20 0.00 0.00 0.00 0.0 0.00	66.6666666667	0.00	0.00	Partly_Cloudy(clear)	True	False	0.00
2011-03-20 21:00:00 46478 21 0.00 0.00 0.00 0.0 0.00	66.6666666667	0.00	0.00	Partly_Cloudy(fair)	True	False	0.00
2011-03-20 22:00:00 46479 22 0.00 0.00 0.00 0.0 0.00	50.4398826979	0.00	0.00	Mostly_Cloudy(fair)	True	False	0.00
2011-03-20 23:00:00 46480 23 0.00 0.00 0.00 0.0 0.00	50.4398826979	0.00	0.00	Mostly_Cloudy(fair)	True	False	0.00
2011-03-21 00:00:00 46481 0 0.00 0.00 0.00 0.0 0.00	50.4398826979	0.00	0.00	Mostly_Cloudy(cloudy)	True	False	0.00
2011-03-21 01:00:00 46482 1 0.00 0.00 0.00 0.0 0.00	10.6988000403	0.00	0.00	Cloudy(partly_cloudy)	True	False	0.00
2011-03-21 02:00:00 46483 2 0.00 0.00 0.00 0.0 0.00	10.6988000403	0.00	0.00	Cloudy(partly_cloudy)	True	False	0.00
2011-03-21 03:00:00 46484 3 0.00 0.00 0.00 0.0 0.00	10.6988000403	0.00	0.00	Cloudy(cloudy)	True	False	0.00
2011-03-21 04:00:00 46485 4 0.00 0.00 0.00 0.0 0.00	10.6988000403	0.00	0.00	Rain_/_Snow_Showers(cloudy)	False	False	0.00
2011-03-21 05:00:00 46486 5 0.00 0.00 0.00 0.0 0.00	10.6988000403	0.00	0.00	Rain_/_Snow_Showers(light_rain)	False	False	0.00
2011-03-21 06:00:00 46487 6 2.92 2.92 2.92 0.0 27.30	10.6988000403	2.92	0.00	Rain_/_Snow_Showers(light_snow)	False	False	0.00
2011-03-21 07:00:00 46488 7 10.96 10.96 10.96 0.0 242.20	4.52377035697	10.96	0.00	Rain(light_rain)	True	False	0.00
2011-03-21 08:00:00 46489 8 27.50 27.50 27.50 4.8 607.90	4.52377035697	27.50	4.80	Rain(light_snow)	True	False	4.80
2011-03-21 09:00:00 46490 9 40.11 40.11 40.11 18.8 886.60	4.52377035697	40.11	18.80	Rain(light_rain)	True	False	18.80
2011-03-21 10:00:00 46491 10 43.67 43.67 43.67 37.4 1063.70	4.10541880491	43.67	37.40	Rain(light_rain)	True	False	37.40
2011-03-21 11:00:00 46492 11 47.20 47.20 47.20 56.0 1149.70	4.10541880491	47.20	56.00	Rain(cloudy)	True	False	56.00
2011-03-21 12:00:00 46493 12 48.69 48.69 48.69 101.1 1186.10	4.10541880491	48.69	101.10	Rain(light_rain)	True	False	101.10
2011-03-21 13:00:00 46494 13 48.05 48.05 48.05 143.1 1170.30	4.10541880491	48.05	143.10	Showers(fog)	True	False	143.10
2011-03-21 14:00:00 46495 14 47.54 47.54 47.54 156.2 1157.90	4.10541880491	47.54	156.20	Showers(fog)	True	False	156.20
2011-03-21 15:00:00 46496 15 40.71 40.71 40.71 94.5 991.70	4.10541880491	40.71	94.50	Showers(cloudy)	True	False	94.50
2011-03-21 16:00:00 46497 16 73.19 73.19 73.19 107.7 684.10	10.6988000403	73.19	107.70	Cloudy(fog)	True	False	107.70
2011-03-21 17:00:00 46498 17 37.34 37.34 37.34 37.7 349.00	10.6988000403	37.34	37.70	Cloudy(fog)	True	False	37.70
2011-03-21 18:00:00 46499 18 9.33 9.33 9.33 1.1 87.20	10.6988000403	9.33	1.10	Cloudy(fog)	True	False	1.10
2011-03-21 19:00:00 46500 19 0.76 0.76 0.76 0.0 1.50	50.4398826979	0.76	0.00	Mostly_Cloudy(cloudy)	True	False	0.00
2011-03-21 20:00:00 46501 20 0.00 0.00 0.00 0.0 0.00	50.4398826979	0.00	0.00	Mostly_Cloudy(cloudy)	True	False	0.00
2011-03-21 21:00:00 46502 21 0.00 0.00 0.00 0.0 0.00	50.4398826979	0.00	0.00	Mostly_Cloudy(cloudy)	True	False	0.00
2011-03-21 22:00:00 46503 22 0.00 0.00 0.00 0.0 0.00	50.4398826979	0.00	0.00	Mostly_Cloudy(cloudy)	True	False	0.00
2011-03-21 23:00:00 46504 23 0.00 0.00 0.00 0.0 0.00	50.4398826979	0.00	0.00	Mostly_Cloudy(fog)	True	False	0.00
2011-03-22 00:00:00 46505 0 0.00 0.00 0.00 0.0 0.00	50.4398826979	0.00	0.00	Mostly_Cloudy(fog)	True	False	0.00
2011-03-22 01:00:00 46506 1 0.00 0.00 0.00 0.0 0.00	66.6666666667	0.00	0.00	Partly_Cloudy(fog)	True	False	0.00
2011-03-22 02:00:00 46507 2 0.00 0.00 0.00 0.0 0.00	66.6666666667	0.00	0.00	Partly_Cloudy(fog)	True	False	0.00
2011-03-22 03:00:00 46508 3 0.00 0.00 0.00 0.0 0.00	66.6666666667	0.00	0.00	Partly_Cloudy(fog)	True	False	0.00
2011-03-22 04:00:00 46509 4 0.00 0.00 0.00 0.0 0.00	66.6666666667	0.00	0.00	Partly_Cloudy(cloudy)	True	False	0.00
2011-03-22 05:00:00 46510 5 0.00 0.00 0.00 0.0 0.00	66.6666666667	0.00	0.00	Partly_Cloudy(cloudy)	True	False	0.00
2011-03-22 06:00:00 46511 6 18.20 18.20 18.20 0.0 27.30	66.6666666667	18.20	0.00	Partly_Cloudy(cloudy)	True	False	0.00
2011-03-22 07:00:00 46512 7 161.47 161.47 161.47 15.9 242.20	66.6666666667	161.47	15.90	Partly_Cloudy(cloudy)	True	False	15.90
2011-03-22 08:00:00 46513 8 405.27 405.27 405.27 69.3 607.90	66.6666666667	405.27	69.30	Partly_Cloudy(cloudy)	True	False	69.30
2011-03-22 09:00:00 46514 9 591.07 591.07 591.07 341.7 886.60	66.6666666667	591.07	341.70	Partly_Cloudy(cloudy)	True	False	341.70
2011-03-22 10:00:00 46515 10 759.40 759.40 759.40 813.5 1063.70	71.3923098618	759.40	813.50	Partly_Cloudy(cloudy)	True	False	813.50
