# Deadline = 3600
# t	id	work	node	priority	submit	start	end	wait	run	total
12	task_201703022123_0003_m_000033	201703022123_0003	crypt08	NORMAL	7	7	8	0	1	1	JobSetup
12	task_201703022123_0001_m_000033	201703022123_0001	crypt03	NORMAL	7	7	8	0	1	1	JobSetup
12	task_201703022123_0002_m_000033	201703022123_0002	crypt06	NORMAL	7	7	8	0	1	1	JobSetup
20	task_201703022123_0001_m_000022	201703022123_0001	crypt14	NORMAL	4	10	18	6	8	14
20	task_201703022123_0001_m_000020	201703022123_0001	crypt14	NORMAL	4	10	18	6	8	14
20	task_201703022123_0001_m_000016	201703022123_0001	crypt02	NORMAL	4	10	17	6	7	13
20	task_201703022123_0001_m_000017	201703022123_0001	crypt02	NORMAL	4	10	17	6	7	13
20	task_201703022123_0001_m_000018	201703022123_0001	crypt04	NORMAL	4	10	17	6	7	13
26	task_201703022123_0001_m_000023	201703022123_0001	crypt14	NORMAL	4	10	23	6	13	19
26	task_201703022123_0001_m_000021	201703022123_0001	crypt04	NORMAL	4	10	22	6	12	18
32	task_201703022123_0001_m_000025	201703022123_0001	crypt02	NORMAL	4	17	29	13	12	25
32	task_201703022123_0001_m_000024	201703022123_0001	crypt02	NORMAL	4	17	29	13	12	25
32	task_201703022123_0001_m_000019	201703022123_0001	crypt14	NORMAL	4	10	28	6	18	24
36	task_201703022123_0001_m_000027	201703022123_0001	crypt04	NORMAL	4	17	34	13	17	30
40	task_201703022123_0001_m_000029	201703022123_0001	crypt04	NORMAL	4	23	39	19	16	35
40	task_201703022123_0001_m_000026	201703022123_0001	crypt14	NORMAL	4	18	37	14	19	33
46	task_201703022123_0001_m_000028	201703022123_0001	crypt14	NORMAL	4	18	42	14	24	38
46	task_201703022123_0001_m_000030	201703022123_0001	crypt14	NORMAL	4	23	42	19	19	38
46	task_201703022123_0001_m_000031	201703022123_0001	crypt14	NORMAL	4	28	42	24	14	38
46	task_201703022123_0001_m_000006	201703022123_0001	crypt07	NORMAL	4	10	45	6	35	41
46	task_201703022123_0001_m_000000	201703022123_0001	crypt07	NORMAL	4	10	44	6	34	40
46	task_201703022123_0001_m_000013	201703022123_0001	crypt04	NORMAL	4	10	44	6	34	40
46	task_201703022123_0001_m_000014	201703022123_0001	crypt02	NORMAL	4	10	43	6	33	39
46	task_201703022123_0001_m_000015	201703022123_0001	crypt04	NORMAL	4	10	44	6	34	40
50	task_201703022123_0002_m_000001	201703022123_0002	crypt06	NORMAL	4	8	46	4	38	42
50	task_201703022123_0001_m_000003	201703022123_0001	crypt03	NORMAL	4	8	46	4	38	42
50	task_201703022123_0001_m_000008	201703022123_0001	crypt08	NORMAL	4	8	47	4	39	43
50	task_201703022123_0001_m_000012	201703022123_0001	crypt02	NORMAL	4	10	48	6	38	44
52	task_201703022123_0001_m_000001	201703022123_0001	crypt07	NORMAL	4	10	50	6	40	46
52	task_201703022123_0001_m_000011	201703022123_0001	crypt07	NORMAL	4	10	50	6	40	46
54	task_201703022123_0002_m_000000	201703022123_0002	crypt06	NORMAL	4	8	51	4	43	47
54	task_201703022123_0002_m_000002	201703022123_0002	crypt06	NORMAL	4	8	51	4	43	47
54	task_201703022123_0002_m_000003	201703022123_0002	crypt06	NORMAL	4	8	51	4	43	47
54	task_201703022123_0001_m_000005	201703022123_0001	crypt03	NORMAL	4	8	52	4	44	48
54	task_201703022123_0001_m_000004	201703022123_0001	crypt03	NORMAL	4	8	52	4	44	48
54	task_201703022123_0001_m_000007	201703022123_0001	crypt08	NORMAL	4	8	52	4	44	48
54	task_201703022123_0001_m_000002	201703022123_0001	crypt03	NORMAL	4	8	51	4	43	47
54	task_201703022123_0001_m_000009	201703022123_0001	crypt08	NORMAL	4	8	52	4	44	48
54	task_201703022123_0001_m_000010	201703022123_0001	crypt08	NORMAL	4	8	52	4	44	48
62	task_201703022123_0002_m_000021	201703022123_0002	crypt02	NORMAL	4	48	60	44	12	56
64	task_201703022123_0001_r_000000	201703022123_0001	crypt08	NORMAL	4	52	63	48	11	59
64	task_201703022123_0002_m_000017	201703022123_0002	crypt06	NORMAL	4	46	62	42	16	58
64	task_201703022123_0002_m_000016	201703022123_0002	crypt07	NORMAL	4	45	61	41	16	57
64	task_201703022123_0002_m_000018	201703022123_0002	crypt03	NORMAL	4	46	63	42	17	59
66	task_201703022123_0001_r_000001	201703022123_0001	crypt08	NORMAL	63	63	64	0	1	1	JobSetup
66	task_201703022123_0002_m_000019	201703022123_0002	crypt08	NORMAL	4	47	64	43	17	60
66	201703022123_0001	201703022123_0001	['crypt02', 'crypt03', 'crypt04', 'crypt07', 'crypt08', 'crypt14']	NORMAL	1	8	64	7	56	63
70	task_201703022123_0002_m_000031	201703022123_0002	crypt08	NORMAL	4	52	69	48	17	65
70	task_201703022123_0002_m_000030	201703022123_0002	crypt03	NORMAL	4	52	68	48	16	64
70	task_201703022123_0002_m_000004	201703022123_0002	crypt02	NORMAL	4	29	66	25	37	62
70	task_201703022123_0002_m_000028	201703022123_0002	crypt08	NORMAL	4	52	69	48	17	65
70	task_201703022123_0002_m_000029	201703022123_0002	crypt08	NORMAL	4	52	69	48	17	65
70	task_201703022123_0002_m_000022	201703022123_0002	crypt07	NORMAL	4	50	66	46	16	62
70	task_201703022123_0002_m_000023	201703022123_0002	crypt03	NORMAL	4	52	68	48	16	64
70	task_201703022123_0002_m_000020	201703022123_0002	crypt07	NORMAL	4	50	66	46	16	62
70	task_201703022123_0002_m_000026	201703022123_0002	crypt03	NORMAL	4	52	68	48	16	64
70	task_201703022123_0002_m_000027	201703022123_0002	crypt06	NORMAL	4	51	68	47	17	64
70	task_201703022123_0002_m_000024	201703022123_0002	crypt06	NORMAL	4	51	68	47	17	64
70	task_201703022123_0002_m_000025	201703022123_0002	crypt06	NORMAL	4	51	68	47	17	64
74	task_201703022123_0002_m_000005	201703022123_0002	crypt02	NORMAL	4	29	71	25	42	67
78	task_201703022123_0002_m_000006	201703022123_0002	crypt04	NORMAL	4	34	75	30	41	71
84	task_201703022123_0002_m_000007	201703022123_0002	crypt14	NORMAL	4	37	80	33	43	76
84	task_201703022123_0002_m_000009	201703022123_0002	crypt04	NORMAL	4	39	80	35	41	76
84	task_201703022123_0003_m_000016	201703022123_0003	crypt08	NORMAL	4	69	81	65	12	77
86	task_201703022123_0002_m_000013	201703022123_0002	crypt02	NORMAL	4	43	83	39	40	79
86	task_201703022123_0003_m_000017	201703022123_0003	crypt02	NORMAL	4	71	83	67	12	79
88	task_201703022123_0002_m_000012	201703022123_0002	crypt04	NORMAL	4	44	86	40	42	82
88	task_201703022123_0002_m_000011	201703022123_0002	crypt14	NORMAL	4	42	86	38	44	82
88	task_201703022123_0002_m_000010	201703022123_0002	crypt14	NORMAL	4	42	86	38	44	82
88	task_201703022123_0002_m_000015	201703022123_0002	crypt07	NORMAL	4	44	86	40	42	82
88	task_201703022123_0002_m_000014	201703022123_0002	crypt04	NORMAL	4	44	86	40	42	82
88	task_201703022123_0002_m_000008	201703022123_0002	crypt14	NORMAL	4	42	86	38	44	82
96	task_201703022123_0003_m_000021	201703022123_0003	crypt08	NORMAL	4	81	93	77	12	89
96	task_201703022123_0002_r_000000	201703022123_0002	crypt07	NORMAL	4	86	94	82	8	90
96	task_201703022123_0003_m_000019	201703022123_0003	crypt04	NORMAL	4	75	94	71	19	90
98	task_201703022123_0003_m_000024	201703022123_0003	crypt02	NORMAL	4	83	95	79	12	91
98	task_201703022123_0003_m_000022	201703022123_0003	crypt02	NORMAL	4	83	95	79	12	91
98	task_201703022123_0002_r_000001	201703022123_0002	crypt07	NORMAL	94	94	95	0	1	1	JobSetup
98	task_201703022123_0003_m_000000	201703022123_0003	crypt02	NORMAL	4	60	97	56	37	93
98	task_201703022123_0003_m_000018	201703022123_0003	crypt14	NORMAL	4	80	97	76	17	93
98	201703022123_0002	201703022123_0002	['crypt02', 'crypt03', 'crypt04', 'crypt06', 'crypt07', 'crypt08', 'crypt14']	NORMAL	1	8	95	7	87	94
100	task_201703022123_0003_m_000029	201703022123_0003	crypt07	NORMAL	4	86	99	82	13	95
100	task_201703022123_0003_m_000028	201703022123_0003	crypt14	NORMAL	4	86	98	82	12	94
100	task_201703022123_0003_m_000025	201703022123_0003	crypt14	NORMAL	4	86	98	82	12	94
100	task_201703022123_0003_m_000027	201703022123_0003	crypt14	NORMAL	4	86	98	82	12	94
102	task_201703022123_0003_m_000026	201703022123_0003	crypt04	NORMAL	4	86	99	82	13	95
102	task_201703022123_0003_m_000020	201703022123_0003	crypt04	NORMAL	4	80	99	76	19	95
102	task_201703022123_0003_m_000023	201703022123_0003	crypt04	NORMAL	4	86	99	82	13	95
106	task_201703022123_0003_m_000030	201703022123_0003	crypt08	NORMAL	4	93	104	89	11	100
106	task_201703022123_0003_m_000031	201703022123_0003	crypt04	NORMAL	4	94	105	90	11	101
106	task_201703022123_0003_m_000001	201703022123_0003	crypt07	NORMAL	4	61	105	57	44	101
108	task_201703022123_0003_m_000003	201703022123_0003	crypt08	NORMAL	4	64	106	60	42	102
108	task_201703022123_0003_m_000002	201703022123_0003	crypt06	NORMAL	4	62	105	58	43	101
108	task_201703022123_0003_m_000007	201703022123_0003	crypt07	NORMAL	4	66	106	62	40	102
108	task_201703022123_0003_m_000005	201703022123_0003	crypt02	NORMAL	4	66	106	62	40	102
108	task_201703022123_0003_m_000009	201703022123_0003	crypt06	NORMAL	4	68	107	64	39	103
108	task_201703022123_0003_m_000008	201703022123_0003	crypt07	NORMAL	4	66	106	62	40	102
110	task_201703022123_0003_m_000006	201703022123_0003	crypt06	NORMAL	4	68	107	64	39	103
110	task_201703022123_0003_m_000010	201703022123_0003	crypt06	NORMAL	4	68	107	64	39	103
110	task_201703022123_0003_m_000013	201703022123_0003	crypt08	NORMAL	4	69	107	65	38	103
110	task_201703022123_0003_m_000015	201703022123_0003	crypt08	NORMAL	4	69	107	65	38	103
