2010-08-09 00:00:00 15095 0 0.00 0.00 0.00 0.0 0.00	89.4919502555	0.00	0.00	Mostly_Clear(fair)	False	False	0.00
2010-08-09 01:00:00 15144 1 0.00 0.00 0.00 0.0 0.00	89.4919502555	0.00	0.00	Clear(clear)	True	False	0.00
2010-08-09 02:00:00 15193 2 0.00 0.00 0.00 0.0 0.00	89.4919502555	0.00	0.00	Clear(clear)	True	False	0.00
2010-08-09 03:00:00 15242 3 0.00 0.00 0.00 0.0 0.00	89.4919502555	0.00	0.00	Clear(clear)	True	False	0.00
2010-08-09 04:00:00 15291 4 0.00 0.00 0.00 0.0 0.00	89.4919502555	0.00	0.00	Clear(clear)	True	False	0.00
2010-08-09 05:00:00 15340 5 0.00 0.00 0.00 0.0 0.00	89.4919502555	0.00	0.00	Clear(fair)	True	False	0.00
2010-08-09 06:00:00 15389 6 41.88 41.88 41.88 10.4 46.80	89.4919502555	41.88	10.40	Clear(sunny)	True	False	10.40
2010-08-09 07:00:00 15438 7 178.09 178.09 178.09 147.9 199.00	89.4919502555	178.09	147.90	Sunny(sunny)	True	False	147.90
2010-08-09 08:00:00 15487 8 413.36 413.36 413.36 380.3 461.90	89.4919502555	413.36	380.30	Sunny(sunny)	True	False	380.30
2010-08-09 09:00:00 15536 9 643.63 643.63 643.63 625.6 719.20	89.4919502555	643.63	625.60	Sunny(sunny)	True	False	625.60
2010-08-09 10:00:00 15585 10 845.30 845.30 845.30 809.2 911.90	92.6965230537	845.30	809.20	Sunny(sunny)	True	False	809.20
2010-08-09 11:00:00 15634 11 961.54 961.54 961.54 856.6 1037.30	92.6965230537	961.54	856.60	Sunny(fair)	True	False	856.60
2010-08-09 12:00:00 15683 12 985.24 985.24 985.24 625.9 1058.40	93.0878241589	985.24	625.90	Sunny(fair)	True	False	625.90
2010-08-09 13:00:00 15732 13 969.88 969.88 969.88 563.1 1041.90	93.0878241589	969.88	563.10	Sunny(mostly_cloudy)	True	False	563.10
2010-08-09 14:00:00 15781 14 959.55 959.55 959.55 713.1 1030.80	93.0878241589	959.55	713.10	Sunny(fair)	True	False	713.10
2010-08-09 15:00:00 15830 15 844.12 844.12 844.12 569.5 906.80	93.0878241589	844.12	569.50	Sunny(fair)	True	False	569.50
2010-08-09 16:00:00 15879 16 533.99 533.99 533.99 475.3 713.40	74.851665906	533.99	475.30	Partly_Cloudy(sunny)	True	False	475.30
2010-08-09 17:00:00 15928 17 328.00 328.00 328.00 286.3 438.20	74.851665906	328.00	286.30	Partly_Cloudy(partly_cloudy)	True	False	286.30
2010-08-09 18:00:00 15977 18 170.21 170.21 170.21 124.1 227.40	74.851665906	170.21	124.10	Partly_Cloudy(partly_cloudy)	True	False	124.10
2010-08-09 19:00:00 16026 19 55.24 55.24 55.24 16.7 73.80	74.851665906	55.24	16.70	Partly_Cloudy(partly_cloudy)	True	False	16.70
2010-08-09 20:00:00 16075 20 3.59 3.59 3.59 0.0 4.80	74.851665906	3.59	0.00	Partly_Cloudy(partly_cloudy)	True	False	0.00
2010-08-09 21:00:00 16124 21 0.00 0.00 0.00 0.0 0.00	74.851665906	0.00	0.00	Partly_Cloudy(mostly_cloudy)	True	False	0.00
2010-08-09 22:00:00 16173 22 0.00 0.00 0.00 0.0 0.00	74.851665906	0.00	0.00	Partly_Cloudy(partly_cloudy)	True	False	0.00
2010-08-09 23:00:00 16222 23 0.00 0.00 0.00 0.0 0.00	74.851665906	0.00	0.00	Partly_Cloudy(mostly_cloudy)	True	False	0.00
2010-08-10 00:00:00 16271 0 0.00 0.00 0.00 0.0 0.00	74.851665906	0.00	0.00	Partly_Cloudy(mostly_cloudy)	True	False	0.00
2010-08-10 01:00:00 16320 1 0.00 0.00 0.00 0.0 0.00	57.7590141488	0.00	0.00	Mostly_Cloudy(mostly_cloudy)	True	False	0.00
2010-08-10 02:00:00 16369 2 0.00 0.00 0.00 0.0 0.00	57.7590141488	0.00	0.00	Mostly_Cloudy(mostly_cloudy)	True	False	0.00
2010-08-10 03:00:00 16418 3 0.00 0.00 0.00 0.0 0.00	57.7590141488	0.00	0.00	Mostly_Cloudy(partly_cloudy)	True	False	0.00
2010-08-10 04:00:00 16467 4 0.00 0.00 0.00 0.0 0.00	22.0100502513	0.00	0.00	Isolated_T-Storms(mostly_cloudy)	True	False	0.00
2010-08-10 05:00:00 16516 5 0.00 0.00 0.00 0.0 0.00	22.0100502513	0.00	0.00	Isolated_T-Storms(partly_cloudy)	True	False	0.00
2010-08-10 06:00:00 16565 6 10.30 10.30 10.30 0.0 46.80	22.0100502513	10.30	0.00	Isolated_T-Storms(mostly_cloudy)	True	False	0.00
2010-08-10 07:00:00 16614 7 148.95 148.95 148.95 84.2 199.00	74.851665906	148.95	84.20	Partly_Cloudy(mostly_cloudy)	True	False	84.20
2010-08-10 08:00:00 16663 8 345.74 345.74 345.74 167.3 461.90	74.851665906	345.74	167.30	Partly_Cloudy(mostly_cloudy)	True	False	167.30
2010-08-10 09:00:00 16712 9 538.33 538.33 538.33 247.3 719.20	74.851665906	538.33	247.30	Partly_Cloudy(mostly_cloudy)	True	False	247.30
2010-08-10 10:00:00 16761 10 715.33 715.33 715.33 465.0 911.90	78.443927047	715.33	465.00	Partly_Cloudy(mostly_cloudy)	True	False	465.00
2010-08-10 11:00:00 16810 11 813.70 813.70 813.70 849.6 1037.30	78.443927047	813.70	849.60	Partly_Cloudy(partly_cloudy)	True	False	849.60
2010-08-10 12:00:00 16859 12 833.72 833.72 833.72 694.9 1058.40	78.7715041906	833.72	694.90	Partly_Cloudy(partly_cloudy)	True	False	694.90
2010-08-10 13:00:00 16908 13 820.72 820.72 820.72 379.3 1041.90	78.7715041906	820.72	379.30	Partly_Cloudy(partly_cloudy)	True	False	379.30
2010-08-10 14:00:00 16957 14 811.98 811.98 811.98 899.9 1030.80	78.7715041906	811.98	899.90	Partly_Cloudy(mostly_cloudy)	True	False	899.90
2010-08-10 15:00:00 17006 15 714.30 714.30 714.30 571.4 906.80	78.7715041906	714.30	571.40	Partly_Cloudy(partly_cloudy)	True	False	571.40
2010-08-10 16:00:00 17055 16 533.99 533.99 533.99 149.3 713.40	74.851665906	533.99	149.30	Partly_Cloudy(mostly_cloudy)	True	False	149.30
2010-08-10 17:00:00 17104 17 328.00 328.00 328.00 88.4 438.20	74.851665906	328.00	88.40	Partly_Cloudy(mostly_cloudy)	True	False	88.40
2010-08-10 18:00:00 17153 18 170.21 170.21 170.21 34.3 227.40	74.851665906	170.21	34.30	Partly_Cloudy(mostly_cloudy)	True	False	34.30
2010-08-10 19:00:00 17202 19 16.24 16.24 16.24 23.8 73.80	22.0100502513	16.24	23.80	Isolated_T-Storms(partly_cloudy)	True	False	23.80
2010-08-10 20:00:00 17251 20 1.06 1.06 1.06 0.0 4.80	22.0100502513	1.06	0.00	Isolated_T-Storms(fair)	True	False	0.00
2010-08-10 21:00:00 17300 21 0.00 0.00 0.00 0.0 0.00	22.0100502513	0.00	0.00	Isolated_T-Storms(fair)	True	False	0.00
2010-08-10 22:00:00 17349 22 0.00 0.00 0.00 0.0 0.00	74.851665906	0.00	0.00	Partly_Cloudy(clear)	True	False	0.00
2010-08-10 23:00:00 17398 23 0.00 0.00 0.00 0.0 0.00	74.851665906	0.00	0.00	Partly_Cloudy(clear)	True	False	0.00
2010-08-11 00:00:00 17447 0 0.00 0.00 0.00 0.0 0.00	74.851665906	0.00	0.00	Partly_Cloudy(fair)	True	False	0.00
2010-08-11 01:00:00 17496 1 0.00 0.00 0.00 0.0 0.00	74.851665906	0.00	0.00	Partly_Cloudy(fair)	True	False	0.00
2010-08-11 02:00:00 17545 2 0.00 0.00 0.00 0.0 0.00	74.851665906	0.00	0.00	Partly_Cloudy(partly_cloudy)	True	False	0.00
2010-08-11 03:00:00 17594 3 0.00 0.00 0.00 0.0 0.00	74.851665906	0.00	0.00	Partly_Cloudy(partly_cloudy)	True	False	0.00
2010-08-11 04:00:00 17643 4 0.00 0.00 0.00 0.0 0.00	74.851665906	0.00	0.00	Partly_Cloudy(mostly_cloudy)	True	False	0.00
2010-08-11 05:00:00 17692 5 0.00 0.00 0.00 0.0 0.00	74.851665906	0.00	0.00	Partly_Cloudy(partly_cloudy)	True	False	0.00
2010-08-11 06:00:00 17741 6 31.21 31.21 31.21 30.2 41.70	74.851665906	31.21	30.20	Partly_Cloudy(fair)	True	False	30.20
2010-08-11 07:00:00 17790 7 148.95 148.95 148.95 146.5 199.00	74.851665906	148.95	146.50	Partly_Cloudy(fog)	True	False	146.50
2010-08-11 08:00:00 17839 8 345.74 345.74 345.74 293.7 461.90	74.851665906	345.74	293.70	Partly_Cloudy(partly_cloudy)	True	False	293.70
2010-08-11 09:00:00 17888 9 538.33 538.33 538.33 572.7 719.20	74.851665906	538.33	572.70	Partly_Cloudy(mostly_cloudy)	True	False	572.70
2010-08-11 10:00:00 17937 10 718.32 718.32 718.32 809.3 911.90	78.7715041906	718.32	809.30	Partly_Cloudy(fair)	True	False	809.30
2010-08-11 11:00:00 17986 11 817.10 817.10 817.10 956.4 1037.30	78.7715041906	817.10	956.40	Partly_Cloudy(fair)	True	False	956.40
2010-08-11 12:00:00 18035 12 850.60 850.60 850.60 893.2 1053.10	80.7711517331	850.60	893.20	Partly_Cloudy(sunny)	True	False	893.20
2010-08-11 13:00:00 18084 13 834.04 834.04 834.04 989.5 1032.60	80.7711517331	834.04	989.50	Partly_Cloudy(sunny)	True	False	989.50
2010-08-11 14:00:00 18133 14 808.60 808.60 808.60 528.4 1001.10	80.7711517331	808.60	528.40	Partly_Cloudy(fair)	True	False	528.40
2010-08-11 15:00:00 18182 15 732.43 732.43 732.43 480.4 906.80	80.7711517331	732.43	480.40	Partly_Cloudy(fair)	True	False	480.40
2010-08-11 16:00:00 18231 16 148.80 148.80 148.80 363.5 713.40	20.8580556823	148.80	363.50	Isolated_T-Storms(partly_cloudy)	True	False	363.50
2010-08-11 17:00:00 18280 17 91.40 91.40 91.40 338.7 438.20	20.8580556823	91.40	338.70	Isolated_T-Storms(mostly_cloudy)	True	False	338.70
2010-08-11 18:00:00 18329 18 47.43 47.43 47.43 99.4 227.40	20.8580556823	47.43	99.40	Isolated_T-Storms(fair)	True	False	99.40
2010-08-11 19:00:00 18378 19 41.41 41.41 41.41 6.9 73.80	56.1051441492	41.41	6.90	Mostly_Cloudy(cloudy)	True	False	6.90
2010-08-11 20:00:00 18427 20 2.69 2.69 2.69 0.0 4.80	56.1051441492	2.69	0.00	Mostly_Cloudy(partly_cloudy)	True	False	0.00
2010-08-11 21:00:00 18476 21 0.00 0.00 0.00 0.0 0.00	56.1051441492	0.00	0.00	Mostly_Cloudy(cloudy)	True	False	0.00
2010-08-11 22:00:00 18525 22 0.00 0.00 0.00 0.0 0.00	56.1051441492	0.00	0.00	Mostly_Cloudy(mostly_cloudy)	True	False	0.00
2010-08-11 23:00:00 18574 23 0.00 0.00 0.00 0.0 0.00	56.1051441492	0.00	0.00	Mostly_Cloudy(mostly_cloudy)	True	False	0.00
2010-08-12 00:00:00 18623 0 0.00 0.00 0.00 0.0 0.00	56.1051441492	0.00	0.00	Mostly_Cloudy(mostly_cloudy)	True	False	0.00
2010-08-12 01:00:00 18672 1 0.00 0.00 0.00 0.0 0.00	56.1051441492	0.00	0.00	Mostly_Cloudy(cloudy)	True	False	0.00
2010-08-12 02:00:00 18721 2 0.00 0.00 0.00 0.0 0.00	56.1051441492	0.00	0.00	Mostly_Cloudy(mostly_cloudy)	True	False	0.00
2010-08-12 03:00:00 18770 3 0.00 0.00 0.00 0.0 0.00	56.1051441492	0.00	0.00	Mostly_Cloudy(cloudy)	True	False	0.00
2010-08-12 04:00:00 18819 4 0.00 0.00 0.00 0.0 0.00	56.1051441492	0.00	0.00	Mostly_Cloudy(cloudy)	True	False	0.00
2010-08-12 05:00:00 18868 5 0.00 0.00 0.00 0.0 0.00	56.1051441492	0.00	0.00	Mostly_Cloudy(mostly_cloudy)	True	False	0.00
2010-08-12 06:00:00 18917 6 23.40 23.40 23.40 7.7 41.70	56.1051441492	23.40	7.70	Mostly_Cloudy(mostly_cloudy)	True	False	7.70
2010-08-12 07:00:00 18966 7 111.65 111.65 111.65 63.6 199.00	56.1051441492	111.65	63.60	Mostly_Cloudy(mostly_cloudy)	True	False	63.60
2010-08-12 08:00:00 19015 8 257.02 257.02 257.02 98.7 458.10	56.1051441492	257.02	98.70	Mostly_Cloudy(mostly_cloudy)	True	False	98.70
2010-08-12 09:00:00 19064 9 397.00 397.00 397.00 116.3 707.60	56.1051441492	397.00	116.30	Mostly_Cloudy(light_rain)	True	False	116.30
2010-08-12 10:00:00 19113 10 239.03 239.03 239.03 150.6 911.90	26.2122818857	239.03	150.60	Few_Showers(mostly_cloudy)	True	False	150.60
2010-08-12 11:00:00 19162 11 271.90 271.90 271.90 210.1 1037.30	26.2122818857	271.90	210.10	Few_Showers(cloudy)	True	False	210.10
2010-08-12 12:00:00 19211 12 276.04 276.04 276.04 366.8 1053.10	26.2122818857	276.04	366.80	Few_Showers(mostly_cloudy)	True	False	366.80
2010-08-12 13:00:00 19260 13 270.67 270.67 270.67 224.1 1032.60	26.2122818857	270.67	224.10	Scattered_T-Storms(light_rain)	True	False	224.10
2010-08-12 14:00:00 19309 14 262.41 262.41 262.41 290.3 1001.10	26.2122818857	262.41	290.30	Scattered_T-Storms(light_rain)	True	False	290.30
2010-08-12 15:00:00 19358 15 237.69 237.69 237.69 198.5 906.80	26.2122818857	237.69	198.50	Scattered_T-Storms(cloudy)	True	False	198.50
2010-08-12 16:00:00 19407 16 146.17 146.17 146.17 144.5 699.50	20.8962048468	146.17	144.50	Scattered_T-Storms(light_rain)	True	False	144.50
2010-08-12 17:00:00 19456 17 91.40 91.40 91.40 77.8 437.40	20.8962048468	91.40	77.80	Scattered_T-Storms(light_rain)	True	False	77.80
2010-08-12 18:00:00 19505 18 47.52 47.52 47.52 33.5 227.40	20.8962048468	47.52	33.50	Scattered_T-Storms(mostly_cloudy)	True	False	33.50
2010-08-12 19:00:00 19554 19 14.40 14.40 14.40 1.5 68.90	20.8962048468	14.40	1.50	Scattered_T-Storms(mostly_cloudy)	True	False	1.50
2010-08-12 20:00:00 19603 20 0.10 0.10 0.10 0.0 0.50	20.8962048468	0.10	0.00	Scattered_T-Storms(light_rain)	True	False	0.00
2010-08-12 21:00:00 19652 21 0.00 0.00 0.00 0.0 0.00	20.8962048468	0.00	0.00	Scattered_T-Storms(cloudy)	True	False	0.00
2010-08-12 22:00:00 19701 22 0.00 0.00 0.00 0.0 0.00	8.53122251539	0.00	0.00	Showers(light_rain)	True	False	0.00
2010-08-12 23:00:00 19750 23 0.00 0.00 0.00 0.0 0.00	8.53122251539	0.00	0.00	Showers(cloudy)	True	False	0.00
2010-08-13 00:00:00 19799 0 0.00 0.00 0.00 0.0 0.00	8.53122251539	0.00	0.00	Showers(cloudy)	True	False	0.00
2010-08-13 01:00:00 19848 1 0.00 0.00 0.00 0.0 0.00	8.53122251539	0.00	0.00	Showers(cloudy)	True	False	0.00
2010-08-13 02:00:00 19897 2 0.00 0.00 0.00 0.0 0.00	8.53122251539	0.00	0.00	Showers(cloudy)	True	False	0.00
2010-08-13 03:00:00 19946 3 0.00 0.00 0.00 0.0 0.00	8.53122251539	0.00	0.00	Showers(cloudy)	True	False	0.00
2010-08-13 04:00:00 19995 4 0.00 0.00 0.00 0.0 0.00	20.8962048468	0.00	0.00	Few_Showers(cloudy)	True	False	0.00
2010-08-13 05:00:00 20044 5 0.00 0.00 0.00 0.0 0.00	20.8962048468	0.00	0.00	Few_Showers(cloudy)	True	False	0.00
2010-08-13 06:00:00 20093 6 8.71 8.71 8.71 0.0 41.70	20.8962048468	8.71	0.00	Few_Showers(cloudy)	True	False	0.00
2010-08-13 07:00:00 20142 7 41.58 41.58 41.58 12.4 199.00	20.8962048468	41.58	12.40	Few_Showers(cloudy)	True	False	12.40
2010-08-13 08:00:00 20191 8 92.65 92.65 92.65 105.2 443.40	20.8962048468	92.65	105.20	Few_Showers(cloudy)	True	False	105.20
2010-08-13 09:00:00 20240 9 147.23 147.23 147.23 275.6 704.60	20.8962048468	147.23	275.60	Few_Showers(cloudy)	True	False	275.60
2010-08-13 10:00:00 20289 10 567.26 567.26 567.26 517.7 911.90	62.206817966	567.26	517.70	Mostly_Cloudy(cloudy)	True	False	517.70
2010-08-13 11:00:00 20338 11 645.27 645.27 645.27 739.1 1037.30	62.206817966	645.27	739.10	Mostly_Cloudy(cloudy)	True	False	739.10
2010-08-13 12:00:00 20387 12 634.60 634.60 634.60 795.9 1053.10	60.260184218	634.60	795.90	Mostly_Cloudy(partly_cloudy)	True	False	795.90
2010-08-13 13:00:00 20436 13 622.25 622.25 622.25 1010.8 1032.60	60.260184218	622.25	1010.80	Mostly_Cloudy(partly_cloudy)	True	False	1010.80
2010-08-13 14:00:00 20485 14 603.26 603.26 603.26 1042.5 1001.10	60.260184218	603.26	1042.50	Mostly_Cloudy(partly_cloudy)	True	False	1042.50
2010-08-13 15:00:00 20534 15 546.44 546.44 546.44 895.7 906.80	60.260184218	546.44	895.70	Mostly_Cloudy(fair)	True	False	895.70
2010-08-13 16:00:00 20583 16 536.51 536.51 536.51 672.1 699.50	76.6995932597	536.51	672.10	Partly_Cloudy(fair)	True	False	672.10
2010-08-13 17:00:00 20632 17 335.48 335.48 335.48 398.3 437.40	76.6995932597	335.48	398.30	Partly_Cloudy(fair)	True	False	398.30
2010-08-13 18:00:00 20681 18 174.41 174.41 174.41 133.8 227.40	76.6995932597	174.41	133.80	Partly_Cloudy(sunny)	True	False	133.80
2010-08-13 19:00:00 20730 19 52.85 52.85 52.85 10.1 68.90	76.6995932597	52.85	10.10	Mostly_Sunny(sunny)	False	False	10.10
2010-08-13 20:00:00 20779 20 0.38 0.38 0.38 0.0 0.50	76.6995932597	0.38	0.00	Mostly_Clear(partly_cloudy)	False	False	0.00
2010-08-13 21:00:00 20828 21 0.00 0.00 0.00 0.0 0.00	76.6995932597	0.00	0.00	Mostly_Clear(fair)	False	False	0.00
2010-08-13 22:00:00 20877 22 0.00 0.00 0.00 0.0 0.00	89.3840476866	0.00	0.00	Clear(clear)	True	False	0.00
2010-08-13 23:00:00 20926 23 0.00 0.00 0.00 0.0 0.00	89.3840476866	0.00	0.00	Clear(clear)	True	False	0.00
2010-08-14 00:00:00 20975 0 0.00 0.00 0.00 0.0 0.00	89.3840476866	0.00	0.00	Clear(clear)	True	False	0.00
2010-08-14 01:00:00 21024 1 0.00 0.00 0.00 0.0 0.00	89.3840476866	0.00	0.00	Clear(mostly_cloudy)	True	False	0.00
2010-08-14 02:00:00 21073 2 0.00 0.00 0.00 0.0 0.00	76.6995932597	0.00	0.00	Mostly_Clear(cloudy)	False	False	0.00
2010-08-14 03:00:00 21122 3 0.00 0.00 0.00 0.0 0.00	76.6995932597	0.00	0.00	Mostly_Clear(cloudy)	False	False	0.00
2010-08-14 04:00:00 21171 4 0.00 0.00 0.00 0.0 0.00	89.3840476866	0.00	0.00	Clear(cloudy)	True	False	0.00
2010-08-14 05:00:00 21220 5 0.00 0.00 0.00 0.0 0.00	89.3840476866	0.00	0.00	Clear(cloudy)	True	False	0.00
2010-08-14 06:00:00 21269 6 35.04 35.04 35.04 0.0 39.20	89.3840476866	35.04	0.00	Clear(cloudy)	True	False	0.00
2010-08-14 07:00:00 21318 7 152.63 152.63 152.63 126.9 199.00	76.6995932597	152.63	126.90	Partly_Cloudy(mostly_cloudy)	True	False	126.90
2010-08-14 08:00:00 21367 8 340.09 340.09 340.09 426.7 443.40	76.6995932597	340.09	426.70	Partly_Cloudy(cloudy)	True	False	426.70
2010-08-14 09:00:00 21416 9 540.43 540.43 540.43 444.0 704.60	76.6995932597	540.43	444.00	Partly_Cloudy(cloudy)	True	False	444.00
2010-08-14 10:00:00 21465 10 699.42 699.42 699.42 628.0 911.90	76.6995932597	699.42	628.00	Mostly_Sunny(cloudy)	False	False	628.00
2010-08-14 11:00:00 21514 11 795.60 795.60 795.60 972.6 1037.30	76.6995932597	795.60	972.60	Mostly_Sunny(mostly_cloudy)	False	False	972.60
2010-08-14 12:00:00 21563 12 802.54 802.54 802.54 944.5 1053.10	76.2074616794	802.54	944.50	Mostly_Sunny(mostly_cloudy)	False	False	944.50
2010-08-14 13:00:00 21612 13 834.04 834.04 834.04 1042.2 1032.60	80.7711517331	834.04	1042.20	Partly_Cloudy(partly_cloudy)	True	False	1042.20
2010-08-14 14:00:00 21661 14 808.60 808.60 808.60 884.3 1001.10	80.7711517331	808.60	884.30	Partly_Cloudy(partly_cloudy)	True	False	884.30
2010-08-14 15:00:00 21710 15 732.43 732.43 732.43 786.5 906.80	80.7711517331	732.43	786.50	Partly_Cloudy(fair)	True	False	786.50
2010-08-14 16:00:00 21759 16 533.07 533.07 533.07 566.7 699.50	76.2074616794	533.07	566.70	Partly_Cloudy(mostly_cloudy)	True	False	566.70
2010-08-14 17:00:00 21808 17 333.33 333.33 333.33 371.4 437.40	76.2074616794	333.33	371.40	Partly_Cloudy(partly_cloudy)	True	False	371.40
2010-08-14 18:00:00 21857 18 173.30 173.30 173.30 110.0 227.40	76.2074616794	173.30	110.00	Partly_Cloudy(mostly_cloudy)	True	False	110.00
2010-08-14 19:00:00 21906 19 52.51 52.51 52.51 14.8 68.90	76.2074616794	52.51	14.80	Mostly_Sunny(fair)	False	False	14.80
2010-08-14 20:00:00 21955 20 0.38 0.38 0.38 0.0 0.50	76.2074616794	0.38	0.00	Mostly_Clear(mostly_cloudy)	False	False	0.00
2010-08-14 21:00:00 22004 21 0.00 0.00 0.00 0.0 0.00	76.2074616794	0.00	0.00	Mostly_Clear(cloudy)	False	False	0.00
2010-08-14 22:00:00 22053 22 0.00 0.00 0.00 0.0 0.00	76.2074616794	0.00	0.00	Mostly_Clear(cloudy)	False	False	0.00
2010-08-14 23:00:00 22102 23 0.00 0.00 0.00 0.0 0.00	93.0878241589	0.00	0.00	Mostly_Clear(clear)	False	False	0.00
2010-08-15 00:00:00 22151 0 0.00 0.00 0.00 0.0 0.00	89.6875890229	0.00	0.00	Mostly_Clear(fair)	False	False	0.00
2010-08-15 01:00:00 22200 1 0.00 0.00 0.00 0.0 0.00	93.0878241589	0.00	0.00	Mostly_Clear(mostly_cloudy)	False	False	0.00
2010-08-15 02:00:00 22249 2 0.00 0.00 0.00 0.0 0.00	88.3328338827	0.00	0.00	Mostly_Clear(partly_cloudy)	False	False	0.00
2010-08-15 03:00:00 22298 3 0.00 0.00 0.00 0.0 0.00	86.7335685929	0.00	0.00	Mostly_Clear(mostly_cloudy)	False	False	0.00
2010-08-15 04:00:00 22347 4 0.00 0.00 0.00 0.0 0.00	76.2074616794	0.00	0.00	Partly_Cloudy(mostly_cloudy)	True	False	0.00
2010-08-15 05:00:00 22396 5 0.00 0.00 0.00 0.0 0.00	76.2074616794	0.00	0.00	Partly_Cloudy(cloudy)	True	False	0.00
2010-08-15 06:00:00 22445 6 29.87 29.87 29.87 4.7 39.20	76.2074616794	29.87	4.70	Partly_Cloudy(cloudy)	True	False	4.70
2010-08-15 07:00:00 22494 7 31.49 31.49 31.49 175.7 199.00	15.8255897069	31.49	175.70	Few_Showers(cloudy)	True	False	175.70
2010-08-15 08:00:00 22543 8 70.17 70.17 70.17 191.6 443.40	15.8255897069	70.17	191.60	Few_Showers(cloudy)	True	False	191.60
2010-08-15 09:00:00 22592 9 111.51 111.51 111.51 144.2 704.60	15.8255897069	111.51	144.20	Few_Showers(cloudy)	True	False	144.20
2010-08-15 10:00:00 22641 10 587.61 587.61 587.61 176.0 911.90	64.4383249454	587.61	176.00	Mostly_Cloudy(cloudy)	True	False	176.00
2010-08-15 11:00:00 22690 11 668.42 668.42 668.42 311.7 1037.30	64.4383249454	668.42	311.70	Mostly_Cloudy(cloudy)	True	False	311.70
2010-08-15 12:00:00 22739 12 634.60 634.60 634.60 357.1 1053.10	60.260184218	634.60	357.10	Mostly_Cloudy(cloudy)	True	False	357.10
2010-08-15 13:00:00 22788 13 622.25 622.25 622.25 206.9 1032.60	60.260184218	622.25	206.90	Mostly_Cloudy(cloudy)	True	False	206.90
2010-08-15 14:00:00 22837 14 603.26 603.26 603.26 144.8 1001.10	60.260184218	603.26	144.80	Mostly_Cloudy(light_rain)	True	False	144.80
2010-08-15 15:00:00 22886 15 546.44 546.44 546.44 81.0 906.80	60.260184218	546.44	81.00	Mostly_Cloudy(cloudy)	True	False	81.00
2010-08-15 16:00:00 22935 16 110.70 110.70 110.70 78.9 699.50	15.8255897069	110.70	78.90	Isolated_T-Storms(light_rain)	True	False	78.90
2010-08-15 17:00:00 22984 17 69.22 69.22 69.22 63.5 437.40	15.8255897069	69.22	63.50	Isolated_T-Storms(cloudy)	True	False	63.50
2010-08-15 18:00:00 23033 18 35.99 35.99 35.99 18.7 227.40	15.8255897069	35.99	18.70	Isolated_T-Storms(rain)	True	False	18.70
2010-08-15 19:00:00 23082 19 10.90 10.90 10.90 1.4 68.90	15.8255897069	10.90	1.40	Isolated_T-Storms(cloudy)	True	False	1.40
2010-08-15 20:00:00 23131 20 0.08 0.08 0.08 0.0 0.50	15.8255897069	0.08	0.00	Isolated_T-Storms(cloudy)	True	False	0.00
2010-08-15 21:00:00 23180 21 0.00 0.00 0.00 0.0 0.00	15.8255897069	0.00	0.00	Isolated_T-Storms(cloudy)	True	False	0.00
2010-08-15 22:00:00 23229 22 0.00 0.00 0.00 0.0 0.00	15.8255897069	0.00	0.00	Scattered_T-Storms(light_rain)	True	False	0.00
2010-08-15 23:00:00 23278 23 0.00 0.00 0.00 0.0 0.00	15.8255897069	0.00	0.00	Scattered_T-Storms(cloudy)	True	False	0.00
