2010	7	1	0	7/1/2010 0:00	6	cloudy	59	59	52	78	10	30.12	0	7/1/2010 0:00	0.00
2010	7	1	1	7/1/2010 1:00	6	cloudy	59	59	52	78	10	30.12	5	7/1/2010 1:00	0.00
2010	7	1	2	7/1/2010 2:00	6	cloudy	61	61	50	67	10	30.13	5	7/1/2010 2:00	0.00
2010	7	1	3	7/1/2010 3:00	10	fair	56	56	49	77	10	30.13	0	7/1/2010 3:00	0.00
2010	7	1	4	7/1/2010 4:00	50	partly cloudy	53	53	50	89	10	30.14	0	7/1/2010 4:00	0.00
2010	7	1	5	7/1/2010 5:00	10	fair	51	51	49	92	10	30.15	0	7/1/2010 5:00	0.30
2010	7	1	6	7/1/2010 6:00	74	sunny	50	50	49	96	10	30.16	0	7/1/2010 6:00	31.20
2010	7	1	7	7/1/2010 7:00	74	sunny	55	55	51	86	10	30.17	0	7/1/2010 7:00	174.20
2010	7	1	8	7/1/2010 8:00	74	sunny	63	63	49	60	10	30.18	6	7/1/2010 8:00	404.90
2010	7	1	9	7/1/2010 9:00	74	sunny	67	67	48	51	10	30.18	6	7/1/2010 9:00	607.60
2010	7	1	10	7/1/2010 10:00	74	sunny	69	69	46	44	10	30.17	10	7/1/2010 10:00	746.70
2010	7	1	11	7/1/2010 11:00	74	sunny	72	72	46	40	10	30.16	13	7/1/2010 11:00	691.60
2010	7	1	12	7/1/2010 12:00	43	mostly cloudy	72	72	45	38	10	30.15	9	7/1/2010 12:00	800.50
2010	7	1	13	7/1/2010 13:00	10	fair	75	75	45	34	10	30.14	10	7/1/2010 13:00	780.30
2010	7	1	14	7/1/2010 14:00	50	partly cloudy	76	76	47	36	10	30.13	13	7/1/2010 14:00	676.30
2010	7	1	15	7/1/2010 15:00	10	fair	77	77	45	32	10	30.12	6	7/1/2010 15:00	458.20
2010	7	1	16	7/1/2010 16:00	43	mostly cloudy	74	74	44	34	10	30.12	13	7/1/2010 16:00	424.40
2010	7	1	17	7/1/2010 17:00	10	fair	76	76	43	31	10	30.12	12	7/1/2010 17:00	244.20
2010	7	1	18	7/1/2010 18:00	10	fair	75	75	42	31	10	30.12	15	7/1/2010 18:00	117.60
2010	7	1	19	7/1/2010 19:00	10	fair	74	74	43	33	10	30.13	9	7/1/2010 19:00	26.20
2010	7	1	20	7/1/2010 20:00	74	sunny	72	72	44	37	10	30.14	7	7/1/2010 20:00	1.70
2010	7	1	21	7/1/2010 21:00	3	clear	67	67	45	45	10	30.15	5	7/1/2010 21:00	0.00
2010	7	1	22	7/1/2010 22:00	3	clear	62	62	47	58	10	30.18	3	7/1/2010 22:00	0.00
2010	7	1	23	7/1/2010 23:00	3	clear	58	58	49	72	10	30.19	0	7/1/2010 23:00	0.00
2010	7	2	0	7/2/2010 0:00	3	clear	55	55	48	77	10	30.19	0	7/2/2010 0:00	0.00
2010	7	2	1	7/2/2010 1:00	3	clear	53	53	48	83	10	30.2	0	7/2/2010 1:00	0.00
2010	7	2	2	7/2/2010 2:00	3	clear	51	51	48	89	10	30.2	0	7/2/2010 2:00	0.00
2010	7	2	3	7/2/2010 3:00	3	clear	51	51	48	89	10	30.2	0	7/2/2010 3:00	0.00
2010	7	2	4	7/2/2010 4:00	3	clear	48	48	47	96	10	30.21	0	7/2/2010 4:00	0.00
2010	7	2	5	7/2/2010 5:00	74	sunny	47	47	45	93	10	30.21	0	7/2/2010 5:00	0.20
2010	7	2	6	7/2/2010 6:00	74	sunny	50	50	47	89	10	30.21	5	7/2/2010 6:00	33.80
2010	7	2	7	7/2/2010 7:00	74	sunny	53	53	51	93	10	30.22	0	7/2/2010 7:00	174.80
2010	7	2	8	7/2/2010 8:00	74	sunny	63	63	50	63	10	30.23	0	7/2/2010 8:00	402.70
2010	7	2	9	7/2/2010 9:00	74	sunny	69	69	48	47	10	30.24	7	7/2/2010 9:00	601.80
2010	7	2	10	7/2/2010 10:00	74	sunny	72	72	49	44	10	30.24	10	7/2/2010 10:00	709.20
2010	7	2	11	7/2/2010 11:00	74	sunny	74	74	47	38	10	30.24	12	7/2/2010 11:00	475.60
2010	7	2	12	7/2/2010 12:00	10	fair	76	76	45	33	10	30.22	9	7/2/2010 12:00	570.80
2010	7	2	13	7/2/2010 13:00	10	fair	77	77	44	31	10	30.21	7	7/2/2010 13:00	785.80
2010	7	2	14	7/2/2010 14:00	43	mostly cloudy	78	78	45	31	10	30.2	6	7/2/2010 14:00	716.50
2010	7	2	15	7/2/2010 15:00	43	mostly cloudy	78	78	45	31	10	30.18	6	7/2/2010 15:00	791.50
2010	7	2	16	7/2/2010 16:00	50	partly cloudy	77	77	48	36	10	30.17	0	7/2/2010 16:00	510.90
2010	7	2	17	7/2/2010 17:00	50	partly cloudy	82	81	48	30	10	30.16	9	7/2/2010 17:00	407.20
2010	7	2	18	7/2/2010 18:00	74	sunny	80	80	46	30	10	30.14	5	7/2/2010 18:00	159.10
2010	7	2	19	7/2/2010 19:00	74	sunny	79	79	48	34	10	30.15	5	7/2/2010 19:00	34.50
2010	7	2	20	7/2/2010 20:00	74	sunny	70	70	53	55	10	30.14	0	7/2/2010 20:00	1.90
2010	7	2	21	7/2/2010 21:00	3	clear	65	65	53	65	10	30.14	0	7/2/2010 21:00	0.00
2010	7	2	22	7/2/2010 22:00	3	clear	62	62	55	78	10	30.15	0	7/2/2010 22:00	0.00
2010	7	2	23	7/2/2010 23:00	3	clear	60	60	56	86	10	30.16	0	7/2/2010 23:00	0.00
2010	7	3	0	7/3/2010 0:00	3	clear	59	59	55	87	10	30.15	0	7/3/2010 0:00	0.00
2010	7	3	1	7/3/2010 1:00	3	clear	57	57	54	89	10	30.16	0	7/3/2010 1:00	0.00
2010	7	3	2	7/3/2010 2:00	3	clear	55	55	53	93	10	30.16	0	7/3/2010 2:00	0.00
2010	7	3	3	7/3/2010 3:00	3	clear	54	54	52	93	10	30.16	0	7/3/2010 3:00	0.00
2010	7	3	4	7/3/2010 4:00	3	clear	53	53	51	93	10	30.16	0	7/3/2010 4:00	0.00
2010	7	3	5	7/3/2010 5:00	74	sunny	52	52	51	97	10	30.17	0	7/3/2010 5:00	0.00
2010	7	3	6	7/3/2010 6:00	74	sunny	52	52	50	93	10	30.18	3	7/3/2010 6:00	36.90
2010	7	3	7	7/3/2010 7:00	74	sunny	55	55	52	89	10	30.19	0	7/3/2010 7:00	190.10
2010	7	3	8	7/3/2010 8:00	74	sunny	63	63	55	75	10	30.19	0	7/3/2010 8:00	385.40
2010	7	3	9	7/3/2010 9:00	74	sunny	71	71	56	59	10	30.19	0	7/3/2010 9:00	585.90
2010	7	3	10	7/3/2010 10:00	74	sunny	78	78	56	46	10	30.17	4	7/3/2010 10:00	735.80
2010	7	3	11	7/3/2010 11:00	74	sunny	79	79	51	38	10	30.15	5	7/3/2010 11:00	823.10
2010	7	3	12	7/3/2010 12:00	74	sunny	83	82	52	34	10	30.13	4	7/3/2010 12:00	857.90
2010	7	3	13	7/3/2010 13:00	74	sunny	84	82	50	31	10	30.11	4	7/3/2010 13:00	853.40
2010	7	3	14	7/3/2010 14:00	74	sunny	86	84	51	30	10	30.09	8	7/3/2010 14:00	806.00
2010	7	3	15	7/3/2010 15:00	74	sunny	86	84	55	35	10	30.07	0	7/3/2010 15:00	711.30
2010	7	3	16	7/3/2010 16:00	74	sunny	88	86	54	31	10	30.05	0	7/3/2010 16:00	563.30
2010	7	3	17	7/3/2010 17:00	74	sunny	89	87	52	28	10	30.04	6	7/3/2010 17:00	349.90
2010	7	3	18	7/3/2010 18:00	74	sunny	89	87	54	30	10	30.02	0	7/3/2010 18:00	142.10
2010	7	3	19	7/3/2010 19:00	74	sunny	87	85	55	33	10	30.01	0	7/3/2010 19:00	23.90
2010	7	3	20	7/3/2010 20:00	74	sunny	80	80	57	45	10	30.01	0	7/3/2010 20:00	1.70
2010	7	3	21	7/3/2010 21:00	3	clear	73	73	60	64	10	30.01	0	7/3/2010 21:00	0.00
2010	7	3	22	7/3/2010 22:00	3	clear	70	70	59	68	10	30.03	0	7/3/2010 22:00	0.00
2010	7	3	23	7/3/2010 23:00	3	clear	65	65	59	81	10	30.02	0	7/3/2010 23:00	0.00
2010	7	4	0	7/4/2010 0:00	3	clear	63	63	59	87	10	30.04	0	7/4/2010 0:00	0.00
2010	7	4	1	7/4/2010 1:00	3	clear	61	61	59	93	10	30.03	0	7/4/2010 1:00	0.00
2010	7	4	2	7/4/2010 2:00	3	clear	61	61	58	90	10	30.03	0	7/4/2010 2:00	0.00
2010	7	4	3	7/4/2010 3:00	3	clear	60	60	57	90	10	30.02	0	7/4/2010 3:00	0.00
2010	7	4	4	7/4/2010 4:00	3	clear	58	58	57	97	10	30.02	0	7/4/2010 4:00	0.00
2010	7	4	5	7/4/2010 5:00	74	sunny	58	58	56	93	10	30.03	0	7/4/2010 5:00	0.00
2010	7	4	6	7/4/2010 6:00	74	sunny	57	57	56	96	10	30.03	0	7/4/2010 6:00	24.50
2010	7	4	7	7/4/2010 7:00	74	sunny	61	61	58	90	10	30.04	0	7/4/2010 7:00	166.20
2010	7	4	8	7/4/2010 8:00	74	sunny	70	70	61	73	10	30.03	0	7/4/2010 8:00	384.90
2010	7	4	9	7/4/2010 9:00	74	sunny	79	79	57	47	10	30.03	3	7/4/2010 9:00	574.20
2010	7	4	10	7/4/2010 10:00	74	sunny	83	83	58	42	10	30.02	5	7/4/2010 10:00	710.80
2010	7	4	11	7/4/2010 11:00	74	sunny	87	86	59	39	10	30.01	5	7/4/2010 11:00	801.80
2010	7	4	12	7/4/2010 12:00	74	sunny	90	90	60	37	10	29.99	5	7/4/2010 12:00	849.90
2010	7	4	13	7/4/2010 13:00	74	sunny	91	90	59	34	10	29.98	3	7/4/2010 13:00	840.50
2010	7	4	14	7/4/2010 14:00	74	sunny	93	92	58	31	10	29.96	6	7/4/2010 14:00	775.20
2010	7	4	15	7/4/2010 15:00	74	sunny	95	94	57	28	10	29.94	5	7/4/2010 15:00	695.10
2010	7	4	16	7/4/2010 16:00	74	sunny	96	94	53	23	10	29.93	10	7/4/2010 16:00	555.80
2010	7	4	17	7/4/2010 17:00	74	sunny	95	93	54	25	10	29.92	4	7/4/2010 17:00	346.80
2010	7	4	18	7/4/2010 18:00	74	sunny	94	92	54	26	10	29.9	6	7/4/2010 18:00	149.80
2010	7	4	19	7/4/2010 19:00	74	sunny	93	91	56	29	10	29.9	0	7/4/2010 19:00	40.30
2010	7	4	20	7/4/2010 20:00	74	sunny	89	88	57	34	10	29.91	0	7/4/2010 20:00	4.90
2010	7	4	21	7/4/2010 21:00	3	clear	81	82	62	52	10	29.92	0	7/4/2010 21:00	0.00
2010	7	4	22	7/4/2010 22:00	3	clear	78	78	60	54	10	29.93	0	7/4/2010 22:00	0.00
2010	7	4	23	7/4/2010 23:00	10	fair	68	68	62	81	10	29.94	0	7/4/2010 23:00	0.00
2010	7	5	0	7/5/2010 0:00	10	fair	71	71	62	73	10	29.95	0	7/5/2010 0:00	0.00
2010	7	5	1	7/5/2010 1:00	10	fair	66	66	61	84	10	29.95	0	7/5/2010 1:00	0.00
2010	7	5	2	7/5/2010 2:00	3	clear	65	65	61	87	9	29.95	0	7/5/2010 2:00	0.00
2010	7	5	3	7/5/2010 3:00	3	clear	62	62	60	93	6	29.95	0	7/5/2010 3:00	0.00
2010	7	5	4	7/5/2010 4:00	3	clear	61	61	60	97	4	29.95	0	7/5/2010 4:00	0.00
2010	7	5	5	7/5/2010 5:00	74	sunny	61	61	59	93	5	29.96	0	7/5/2010 5:00	0.00
2010	7	5	6	7/5/2010 6:00	74	sunny	61	61	59	93	4	29.97	0	7/5/2010 6:00	46.20
2010	7	5	7	7/5/2010 7:00	74	sunny	65	65	61	87	7	29.98	3	7/5/2010 7:00	161.70
2010	7	5	8	7/5/2010 8:00	74	sunny	72	72	63	73	10	29.99	0	7/5/2010 8:00	352.80
2010	7	5	9	7/5/2010 9:00	74	sunny	81	82	64	56	10	29.99	0	7/5/2010 9:00	530.70
2010	7	5	10	7/5/2010 10:00	74	sunny	86	87	64	48	10	29.99	0	7/5/2010 10:00	678.20
2010	7	5	11	7/5/2010 11:00	74	sunny	87	89	65	48	10	29.98	3	7/5/2010 11:00	760.50
2010	7	5	12	7/5/2010 12:00	74	sunny	91	92	63	39	10	29.97	3	7/5/2010 12:00	817.30
2010	7	5	13	7/5/2010 13:00	74	sunny	93	94	63	37	10	29.96	6	7/5/2010 13:00	822.20
2010	7	5	14	7/5/2010 14:00	74	sunny	95	95	60	31	10	29.95	8	7/5/2010 14:00	770.80
2010	7	5	15	7/5/2010 15:00	74	sunny	96	97	63	33	10	29.94	3	7/5/2010 15:00	680.50
2010	7	5	16	7/5/2010 16:00	74	sunny	95	96	62	33	10	29.93	6	7/5/2010 16:00	532.10
2010	7	5	17	7/5/2010 17:00	74	sunny	96	96	61	31	10	29.93	0	7/5/2010 17:00	341.10
2010	7	5	18	7/5/2010 18:00	74	sunny	96	96	61	31	10	29.93	0	7/5/2010 18:00	141.10
2010	7	5	19	7/5/2010 19:00	74	sunny	92	95	66	42	10	29.93	0	7/5/2010 19:00	30.40
2010	7	5	20	7/5/2010 20:00	74	sunny	85	87	66	53	10	29.94	0	7/5/2010 20:00	2.00
2010	7	5	21	7/5/2010 21:00	3	clear	82	84	66	58	10	29.95	0	7/5/2010 21:00	0.00
2010	7	5	22	7/5/2010 22:00	3	clear	77	77	69	76	10	29.98	0	7/5/2010 22:00	0.00
2010	7	5	23	7/5/2010 23:00	3	clear	75	75	69	82	10	29.98	0	7/5/2010 23:00	0.00
2010	7	6	0	7/6/2010 0:00	3	clear	73	73	69	87	8	29.99	0	7/6/2010 0:00	0.00
2010	7	6	1	7/6/2010 1:00	3	clear	71	71	68	90	8	29.98	0	7/6/2010 1:00	0.00
2010	7	6	2	7/6/2010 2:00	3	clear	70	70	68	93	7	29.98	0	7/6/2010 2:00	0.00
2010	7	6	3	7/6/2010 3:00	3	clear	69	69	67	93	6	29.98	0	7/6/2010 3:00	0.00
2010	7	6	4	7/6/2010 4:00	3	clear	69	69	67	93	5	29.98	0	7/6/2010 4:00	0.00
2010	7	6	5	7/6/2010 5:00	74	sunny	67	67	66	97	4	29.99	0	7/6/2010 5:00	0.00
2010	7	6	6	7/6/2010 6:00	74	sunny	68	68	66	93	4	30	3	7/6/2010 6:00	27.70
2010	7	6	7	7/6/2010 7:00	74	sunny	71	71	67	87	7	30.01	0	7/6/2010 7:00	152.10
2010	7	6	8	7/6/2010 8:00	74	sunny	79	79	68	69	9	30.01	3	7/6/2010 8:00	341.20
2010	7	6	9	7/6/2010 9:00	74	sunny	87	92	70	57	9	30.02	0	7/6/2010 9:00	522.90
2010	7	6	10	7/6/2010 10:00	74	sunny	92	99	72	52	10	30.01	3	7/6/2010 10:00	665.80
2010	7	6	11	7/6/2010 11:00	74	sunny	97	101	67	37	10	30.01	5	7/6/2010 11:00	748.10
2010	7	6	12	7/6/2010 12:00	74	sunny	98	102	66	35	10	30	6	7/6/2010 12:00	685.80
2010	7	6	13	7/6/2010 13:00	74	sunny	100	104	66	33	10	29.99	5	7/6/2010 13:00	566.10
2010	7	6	14	7/6/2010 14:00	74	sunny	99	101	63	30	10	29.97	5	7/6/2010 14:00	714.40
2010	7	6	15	7/6/2010 15:00	10	fair	100	101	61	28	10	29.97	0	7/6/2010 15:00	499.20
2010	7	6	16	7/6/2010 16:00	74	sunny	102	102	58	23	10	29.96	5	7/6/2010 16:00	534.60
2010	7	6	17	7/6/2010 17:00	74	sunny	101	101	59	25	10	29.95	4	7/6/2010 17:00	334.50
2010	7	6	18	7/6/2010 18:00	74	sunny	100	102	63	29	10	29.94	3	7/6/2010 18:00	141.30
2010	7	6	19	7/6/2010 19:00	74	sunny	96	103	70	43	10	29.94	0	7/6/2010 19:00	43.90
2010	7	6	20	7/6/2010 20:00	74	sunny	89	94	70	53	9	29.94	0	7/6/2010 20:00	1.80
2010	7	6	21	7/6/2010 21:00	3	clear	87	93	71	59	9	29.95	0	7/6/2010 21:00	0.00
2010	7	6	22	7/6/2010 22:00	10	fair	83	88	72	69	9	29.97	0	7/6/2010 22:00	0.00
2010	7	6	23	7/6/2010 23:00	10	fair	82	87	72	71	9	29.97	0	7/6/2010 23:00	0.00
2010	7	7	0	7/7/2010 0:00	10	fair	79	79	72	79	8	29.96	0	7/7/2010 0:00	0.00
2010	7	7	1	7/7/2010 1:00	10	fair	78	78	71	79	8	29.96	0	7/7/2010 1:00	0.00
2010	7	7	2	7/7/2010 2:00	10	fair	77	77	71	82	8	29.97	0	7/7/2010 2:00	0.00
2010	7	7	3	7/7/2010 3:00	10	fair	76	76	72	87	7	29.97	3	7/7/2010 3:00	0.00
2010	7	7	4	7/7/2010 4:00	6	cloudy	78	78	71	79	9	29.97	5	7/7/2010 4:00	0.00
2010	7	7	5	7/7/2010 5:00	50	partly cloudy	77	77	71	82	8	29.98	3	7/7/2010 5:00	0.00
2010	7	7	6	7/7/2010 6:00	43	mostly cloudy	78	78	69	74	8	29.99	5	7/7/2010 6:00	41.10
2010	7	7	7	7/7/2010 7:00	50	partly cloudy	83	86	68	60	9	30	6	7/7/2010 7:00	155.30
2010	7	7	8	7/7/2010 8:00	10	fair	86	89	68	55	9	30.01	0	7/7/2010 8:00	350.20
2010	7	7	9	7/7/2010 9:00	74	sunny	89	91	66	46	10	30.02	7	7/7/2010 9:00	521.50
2010	7	7	10	7/7/2010 10:00	74	sunny	92	93	63	38	10	30.02	12	7/7/2010 10:00	656.00
2010	7	7	11	7/7/2010 11:00	74	sunny	95	96	63	34	10	30	8	7/7/2010 11:00	758.50
2010	7	7	12	7/7/2010 12:00	74	sunny	97	98	62	31	10	30	10	7/7/2010 12:00	803.80
2010	7	7	13	7/7/2010 13:00	74	sunny	98	99	61	29	10	29.99	9	7/7/2010 13:00	226.60
2010	7	7	14	7/7/2010 14:00	10	fair	99	100	62	30	10	29.98	5	7/7/2010 14:00	5.30
2010	7	7	15	7/7/2010 15:00	10	fair	101	102	61	27	10	29.97	6	7/7/2010 15:00	646.80
2010	7	7	16	7/7/2010 16:00	10	fair	100	101	60	27	9	29.96	5	7/7/2010 16:00	505.80
2010	7	7	17	7/7/2010 17:00	10	fair	100	100	59	26	9	29.96	8	7/7/2010 17:00	312.20
2010	7	7	18	7/7/2010 18:00	43	mostly cloudy	95	99	67	40	9	29.95	3	7/7/2010 18:00	141.80
2010	7	7	19	7/7/2010 19:00	10	fair	92	96	68	45	9	29.96	5	7/7/2010 19:00	41.00
2010	7	7	20	7/7/2010 20:00	74	sunny	90	94	68	48	9	29.96	3	7/7/2010 20:00	2.60
2010	7	7	21	7/7/2010 21:00	3	clear	86	91	70	59	8	29.97	0	7/7/2010 21:00	0.00
2010	7	7	22	7/7/2010 22:00	3	clear	81	85	71	72	9	29.99	0	7/7/2010 22:00	0.00
2010	7	7	23	7/7/2010 23:00	50	partly cloudy	77	77	71	82	8	29.99	0	7/7/2010 23:00	0.00
2010	7	8	0	7/8/2010 0:00	10	fair	76	76	71	85	7	30	0	7/8/2010 0:00	0.00
2010	7	8	1	7/8/2010 1:00	3	clear	75	75	71	87	6	30	0	7/8/2010 1:00	0.00
2010	7	8	2	7/8/2010 2:00	3	clear	74	74	71	91	6	30	0	7/8/2010 2:00	0.00
2010	7	8	3	7/8/2010 3:00	3	clear	72	72	70	93	4	30	0	7/8/2010 3:00	0.00
2010	7	8	4	7/8/2010 4:00	3	clear	71	71	70	96	4	30	0	7/8/2010 4:00	0.00
2010	7	8	5	7/8/2010 5:00	3	clear	71	71	69	93	3	30	0	7/8/2010 5:00	0.00
2010	7	8	6	7/8/2010 6:00	18	fog	70	70	69	97	2.5	30.01	3	7/8/2010 6:00	22.00
2010	7	8	7	7/8/2010 7:00	74	sunny	73	73	70	90	3	30.02	0	7/8/2010 7:00	75.00
2010	7	8	8	7/8/2010 8:00	6	cloudy	77	77	72	84	4	30.03	0	7/8/2010 8:00	120.00
2010	7	8	9	7/8/2010 9:00	10	fair	79	79	74	84	4	30.03	0	7/8/2010 9:00	246.00
2010	7	8	10	7/8/2010 10:00	6	cloudy	81	86	73	77	5	30.03	3	7/8/2010 10:00	296.50
2010	7	8	11	7/8/2010 11:00	50	partly cloudy	84	91	74	72	6	30.02	0	7/8/2010 11:00	195.10
2010	7	8	12	7/8/2010 12:00	50	partly cloudy	85	92	74	69	7	30.02	0	7/8/2010 12:00	313.90
2010	7	8	13	7/8/2010 13:00	29	light rain	77	77	76	96	1.3	30.02	0	7/8/2010 13:00	441.00
2010	7	8	14	7/8/2010 14:00	50	partly cloudy	81	88	77	88	6	30.01	0	7/8/2010 14:00	624.20
2010	7	8	15	7/8/2010 15:00	43	mostly cloudy	84	92	75	74	8	30	0	7/8/2010 15:00	622.40
2010	7	8	16	7/8/2010 16:00	43	mostly cloudy	84	91	74	72	9	29.99	3	7/8/2010 16:00	535.70
2010	7	8	17	7/8/2010 17:00	50	partly cloudy	89	94	69	52	10	29.97	8	7/8/2010 17:00	325.40
2010	7	8	18	7/8/2010 18:00	10	fair	88	91	67	49	10	29.96	6	7/8/2010 18:00	138.80
2010	7	8	19	7/8/2010 19:00	74	sunny	86	89	67	53	10	29.96	3	7/8/2010 19:00	24.10
2010	7	8	20	7/8/2010 20:00	10	fair	82	85	68	62	10	29.97	6	7/8/2010 20:00	1.20
2010	7	8	21	7/8/2010 21:00	3	clear	79	79	67	66	10	29.99	5	7/8/2010 21:00	0.00
2010	7	8	22	7/8/2010 22:00	3	clear	76	76	68	76	10	30.01	3	7/8/2010 22:00	0.00
2010	7	8	23	7/8/2010 23:00	3	clear	73	73	68	84	10	30.02	0	7/8/2010 23:00	0.00
2010	7	9	0	7/9/2010 0:00	10	fair	72	72	69	91	10	30.02	0	7/9/2010 0:00	0.00
2010	7	9	1	7/9/2010 1:00	50	partly cloudy	70	70	68	94	10	30.01	0	7/9/2010 1:00	0.00
2010	7	9	2	7/9/2010 2:00	43	mostly cloudy	71	71	69	93	10	30.01	0	7/9/2010 2:00	0.00
2010	7	9	3	7/9/2010 3:00	6	cloudy	71	71	69	93	10	30.01	0	7/9/2010 3:00	0.00
2010	7	9	4	7/9/2010 4:00	10	fair	70	70	69	97	7	30	0	7/9/2010 4:00	0.00
2010	7	9	5	7/9/2010 5:00	10	fair	69	69	68	96	8	29.99	0	7/9/2010 5:00	0.00
2010	7	9	6	7/9/2010 6:00	43	mostly cloudy	69	69	68	96	5	30	0	7/9/2010 6:00	28.40
2010	7	9	7	7/9/2010 7:00	6	cloudy	72	72	70	93	7	29.99	3	7/9/2010 7:00	139.40
2010	7	9	8	7/9/2010 8:00	29	light rain	75	75	72	90	6	29.99	0	7/9/2010 8:00	318.20
2010	7	9	9	7/9/2010 9:00	29	light rain	77	77	73	88	7	29.98	0	7/9/2010 9:00	475.70
2010	7	9	10	7/9/2010 10:00	43	mostly cloudy	78	78	73	84	10	29.97	5	7/9/2010 10:00	183.00
2010	7	9	11	7/9/2010 11:00	50	partly cloudy	83	88	71	67	10	29.96	3	7/9/2010 11:00	628.30
2010	7	9	12	7/9/2010 12:00	43	mostly cloudy	82	86	70	67	10	29.95	9	7/9/2010 12:00	661.50
2010	7	9	13	7/9/2010 13:00	50	partly cloudy	88	94	71	57	10	29.93	8	7/9/2010 13:00	880.70
2010	7	9	14	7/9/2010 14:00	50	partly cloudy	85	89	69	59	10	29.91	10	7/9/2010 14:00	670.80
2010	7	9	15	7/9/2010 15:00	29	light rain	77	77	73	89	3	29.91	5	7/9/2010 15:00	643.10
2010	7	9	16	7/9/2010 16:00	50	partly cloudy	85	93	75	72	10	29.86	6	7/9/2010 16:00	627.00
2010	7	9	17	7/9/2010 17:00	29	light rain	81	85	73	79	10	29.84	6	7/9/2010 17:00	336.70
2010	7	9	18	7/9/2010 18:00	43	mostly cloudy	84	92	75	74	10	29.8	3	7/9/2010 18:00	194.10
2010	7	9	19	7/9/2010 19:00	10	fair	83	86	69	63	10	29.81	7	7/9/2010 19:00	28.00
2010	7	9	20	7/9/2010 20:00	43	mostly cloudy	80	80	70	71	10	29.82	3	7/9/2010 20:00	0.20
2010	7	9	21	7/9/2010 21:00	43	mostly cloudy	79	79	70	74	10	29.84	7	7/9/2010 21:00	0.00
2010	7	9	22	7/9/2010 22:00	6	cloudy	78	78	70	76	10	29.85	3	7/9/2010 22:00	0.00
2010	7	9	23	7/9/2010 23:00	50	partly cloudy	76	76	71	85	10	29.85	0	7/9/2010 23:00	0.00
2010	7	10	0	7/10/2010 0:00	6	cloudy	75	75	71	87	10	29.84	3	7/10/2010 0:00	0.00
2010	7	10	1	7/10/2010 1:00	43	mostly cloudy	74	74	71	91	10	29.83	0	7/10/2010 1:00	0.00
2010	7	10	2	7/10/2010 2:00	50	partly cloudy	73	73	71	93	10	29.81	0	7/10/2010 2:00	0.00
2010	7	10	3	7/10/2010 3:00	50	partly cloudy	72	72	70	93	10	29.8	0	7/10/2010 3:00	0.00
2010	7	10	4	7/10/2010 4:00	6	cloudy	72	72	71	97	10	29.81	3	7/10/2010 4:00	0.00
2010	7	10	5	7/10/2010 5:00	6	cloudy	74	74	71	91	10	29.81	0	7/10/2010 5:00	0.00
2010	7	10	6	7/10/2010 6:00	6	cloudy	73	73	72	96	8	29.8	0	7/10/2010 6:00	69.50
2010	7	10	7	7/10/2010 7:00	6	cloudy	75	75	72	90	10	29.79	0	7/10/2010 7:00	182.80
2010	7	10	8	7/10/2010 8:00	6	cloudy	75	75	71	87	10	29.81	6	7/10/2010 8:00	173.90
2010	7	10	9	7/10/2010 9:00	6	cloudy	76	76	71	85	10	29.83	0	7/10/2010 9:00	247.30
2010	7	10	10	7/10/2010 10:00	54	rain	75	75	72	89	5	29.83	0	7/10/2010 10:00	188.20
2010	7	10	11	7/10/2010 11:00	29	light rain	72	72	70	94	6	29.84	9	7/10/2010 11:00	145.80
2010	7	10	12	7/10/2010 12:00	29	light rain	72	72	70	93	6	29.83	6	7/10/2010 12:00	203.50
2010	7	10	13	7/10/2010 13:00	10	fair	75	75	72	90	10	29.84	3	7/10/2010 13:00	242.70
2010	7	10	14	7/10/2010 14:00	6	cloudy	76	76	71	85	10	29.83	3	7/10/2010 14:00	269.30
2010	7	10	15	7/10/2010 15:00	10	fair	77	77	71	82	10	29.84	0	7/10/2010 15:00	233.60
2010	7	10	16	7/10/2010 16:00	50	partly cloudy	78	78	71	79	10	29.83	5	7/10/2010 16:00	321.80
2010	7	10	17	7/10/2010 17:00	43	mostly cloudy	80	80	69	69	10	29.83	6	7/10/2010 17:00	357.10
2010	7	10	18	7/10/2010 18:00	43	mostly cloudy	82	86	70	66	10	29.82	7	7/10/2010 18:00	211.20
2010	7	10	19	7/10/2010 19:00	50	partly cloudy	81	84	68	65	10	29.82	0	7/10/2010 19:00	49.30
2010	7	10	20	7/10/2010 20:00	10	fair	79	79	68	69	10	29.83	3	7/10/2010 20:00	0.80
2010	7	10	21	7/10/2010 21:00	10	fair	73	73	70	90	10	29.84	0	7/10/2010 21:00	0.00
2010	7	10	22	7/10/2010 22:00	10	fair	72	72	69	91	10	29.85	0	7/10/2010 22:00	0.00
2010	7	10	23	7/10/2010 23:00	50	partly cloudy	70	70	68	93	10	29.85	0	7/10/2010 23:00	0.00
2010	7	11	0	7/11/2010 0:00	10	fair	69	69	68	96	10	29.85	0	7/11/2010 0:00	0.00
2010	7	11	1	7/11/2010 1:00	50	partly cloudy	69	69	68	96	10	29.84	0	7/11/2010 1:00	0.00
2010	7	11	2	7/11/2010 2:00	43	mostly cloudy	68	68	67	96	10	29.84	0	7/11/2010 2:00	0.00
2010	7	11	3	7/11/2010 3:00	10	fair	67	67	66	97	10	29.83	5	7/11/2010 3:00	0.00
2010	7	11	4	7/11/2010 4:00	10	fair	67	67	66	97	8	29.83	0	7/11/2010 4:00	0.00
2010	7	11	5	7/11/2010 5:00	50	partly cloudy	66	66	65	96	10	29.83	0	7/11/2010 5:00	0.00
2010	7	11	6	7/11/2010 6:00	50	partly cloudy	66	66	65	96	9	29.83	0	7/11/2010 6:00	34.90
2010	7	11	7	7/11/2010 7:00	10	fair	69	69	67	93	10	29.85	5	7/11/2010 7:00	197.60
2010	7	11	8	7/11/2010 8:00	10	fair	74	74	68	82	10	29.85	6	7/11/2010 8:00	420.70
2010	7	11	9	7/11/2010 9:00	10	fair	78	78	69	74	10	29.87	3	7/11/2010 9:00	516.00
2010	7	11	10	7/11/2010 10:00	43	mostly cloudy	78	78	69	74	10	29.86	0	7/11/2010 10:00	629.80
2010	7	11	11	7/11/2010 11:00	10	fair	81	83	67	62	10	29.85	3	7/11/2010 11:00	741.70
2010	7	11	12	7/11/2010 12:00	50	partly cloudy	85	87	65	51	10	29.85	5	7/11/2010 12:00	836.20
2010	7	11	13	7/11/2010 13:00	10	fair	86	88	66	51	10	29.84	5	7/11/2010 13:00	400.60
2010	7	11	14	7/11/2010 14:00	10	fair	87	89	65	48	10	29.83	8	7/11/2010 14:00	311.10
2010	7	11	15	7/11/2010 15:00	10	fair	89	90	63	42	10	29.82	0	7/11/2010 15:00	206.10
2010	7	11	16	7/11/2010 16:00	10	fair	89	91	65	45	10	29.82	4	7/11/2010 16:00	445.30
2010	7	11	17	7/11/2010 17:00	74	sunny	89	90	64	43	10	29.81	3	7/11/2010 17:00	452.30
2010	7	11	18	7/11/2010 18:00	74	sunny	88	88	60	39	10	29.8	3	7/11/2010 18:00	219.80
2010	7	11	19	7/11/2010 19:00	74	sunny	88	87	59	37	10	29.81	0	7/11/2010 19:00	37.20
2010	7	11	20	7/11/2010 20:00	74	sunny	79	79	63	58	10	29.8	0	7/11/2010 20:00	1.70
2010	7	11	21	7/11/2010 21:00	3	clear	73	73	62	68	10	29.81	0	7/11/2010 21:00	0.00
2010	7	11	22	7/11/2010 22:00	3	clear	72	72	63	73	10	29.83	0	7/11/2010 22:00	0.00
2010	7	11	23	7/11/2010 23:00	3	clear	69	69	64	84	10	29.85	0	7/11/2010 23:00	0.00
2010	7	12	0	7/12/2010 0:00	3	clear	67	67	65	93	10	29.86	0	7/12/2010 0:00	0.00
2010	7	12	1	7/12/2010 1:00	3	clear	66	66	65	96	10	29.86	0	7/12/2010 1:00	0.00
2010	7	12	2	7/12/2010 2:00	3	clear	65	65	64	97	10	29.87	0	7/12/2010 2:00	0.00
2010	7	12	3	7/12/2010 3:00	3	clear	64	64	62	93	10	29.86	0	7/12/2010 3:00	0.00
2010	7	12	4	7/12/2010 4:00	18	fog	63	63	61	94	2	29.86	0	7/12/2010 4:00	0.00
2010	7	12	5	7/12/2010 5:00	10	fair	61	61	60	97	4	29.87	0	7/12/2010 5:00	0.00
2010	7	12	6	7/12/2010 6:00	74	sunny	60	60	59	96	10	29.88	0	7/12/2010 6:00	77.70
2010	7	12	7	7/12/2010 7:00	74	sunny	64	64	61	90	10	29.89	0	7/12/2010 7:00	186.00
2010	7	12	8	7/12/2010 8:00	74	sunny	67	67	63	87	10	29.9	0	7/12/2010 8:00	454.00
2010	7	12	9	7/12/2010 9:00	74	sunny	74	74	63	68	10	29.9	0	7/12/2010 9:00	518.00
2010	7	12	10	7/12/2010 10:00	50	partly cloudy	79	79	64	60	10	29.89	0	7/12/2010 10:00	597.20
2010	7	12	11	7/12/2010 11:00	43	mostly cloudy	83	85	65	54	10	29.9	0	7/12/2010 11:00	898.00
2010	7	12	12	7/12/2010 12:00	50	partly cloudy	88	88	62	42	10	29.9	6	7/12/2010 12:00	1031.20
2010	7	12	13	7/12/2010 13:00	10	fair	89	87	56	32	10	29.9	8	7/12/2010 13:00	927.10
2010	7	12	14	7/12/2010 14:00	74	sunny	90	89	58	34	10	29.88	5	7/12/2010 14:00	907.10
2010	7	12	15	7/12/2010 15:00	74	sunny	90	89	59	35	10	29.86	5	7/12/2010 15:00	485.20
2010	7	12	16	7/12/2010 16:00	50	partly cloudy	88	88	61	40	10	29.85	7	7/12/2010 16:00	399.80
2010	7	12	17	7/12/2010 17:00	43	mostly cloudy	87	87	62	43	10	29.84	7	7/12/2010 17:00	220.20
2010	7	12	18	7/12/2010 18:00	43	mostly cloudy	85	85	61	44	10	29.84	0	7/12/2010 18:00	71.70
2010	7	12	19	7/12/2010 19:00	43	mostly cloudy	84	87	67	56	10	29.86	8	7/12/2010 19:00	9.20
2010	7	12	20	7/12/2010 20:00	10	fair	82	85	68	62	10	29.89	7	7/12/2010 20:00	0.00
2010	7	12	21	7/12/2010 21:00	57	rain shower	80	80	68	65	4	29.89	10	7/12/2010 21:00	0.00
2010	7	12	22	7/12/2010 22:00	43	mostly cloudy	70	70	68	93	9	29.92	0	7/12/2010 22:00	0.00
2010	7	12	23	7/12/2010 23:00	57	rain shower	70	70	68	94	7	29.92	0	7/12/2010 23:00	0.00
2010	7	13	0	7/13/2010 0:00	29	light rain	70	70	68	93	5	29.94	5	7/13/2010 0:00	0.00
2010	7	13	1	7/13/2010 1:00	6	cloudy	69	69	68	96	5	29.92	0	7/13/2010 1:00	0.00
2010	7	13	2	7/13/2010 2:00	6	cloudy	69	69	68	96	6	29.93	0	7/13/2010 2:00	0.00
2010	7	13	3	7/13/2010 3:00	43	mostly cloudy	70	70	68	93	4	29.92	0	7/13/2010 3:00	0.00
2010	7	13	4	7/13/2010 4:00	57	rain shower	70	70	68	93	7	29.92	0	7/13/2010 4:00	0.00
2010	7	13	5	7/13/2010 5:00	43	mostly cloudy	69	69	68	96	4	29.92	0	7/13/2010 5:00	0.00
2010	7	13	6	7/13/2010 6:00	50	partly cloudy	69	69	68	96	3	29.92	0	7/13/2010 6:00	53.80
2010	7	13	7	7/13/2010 7:00	50	partly cloudy	71	71	69	93	4	29.91	0	7/13/2010 7:00	101.40
2010	7	13	8	7/13/2010 8:00	43	mostly cloudy	74	74	71	91	6	29.92	0	7/13/2010 8:00	173.70
2010	7	13	9	7/13/2010 9:00	6	cloudy	76	76	74	94	6	29.92	0	7/13/2010 9:00	209.40
2010	7	13	10	7/13/2010 10:00	43	mostly cloudy	79	79	74	84	10	29.9	0	7/13/2010 10:00	119.20
2010	7	13	11	7/13/2010 11:00	29	light rain	80	80	75	86	7	29.9	2	7/13/2010 11:00	32.10
2010	7	13	12	7/13/2010 12:00	21	heavy rain	73	73	72	94	0.8	29.89	5	7/13/2010 12:00	203.20
2010	7	13	13	7/13/2010 13:00	29	light rain	73	73	72	94	3	29.88	0	7/13/2010 13:00	902.30
2010	7	13	14	7/13/2010 14:00	50	partly cloudy	82	90	77	85	10	29.85	7	7/13/2010 14:00	669.20
2010	7	13	15	7/13/2010 15:00	43	mostly cloudy	82	89	75	79	10	29.85	7	7/13/2010 15:00	490.00
2010	7	13	16	7/13/2010 16:00	57	rain shower	82	89	76	82	7	29.85	8	7/13/2010 16:00	308.90
2010	7	13	17	7/13/2010 17:00	43	mostly cloudy	81	86	73	77	10	29.83	0	7/13/2010 17:00	274.50
2010	7	13	18	7/13/2010 18:00	50	partly cloudy	85	93	75	72	10	29.81	0	7/13/2010 18:00	225.80
2010	7	13	19	7/13/2010 19:00	50	partly cloudy	83	89	73	72	10	29.82	0	7/13/2010 19:00	39.80
2010	7	13	20	7/13/2010 20:00	50	partly cloudy	81	87	75	82	10	29.83	0	7/13/2010 20:00	0.00
2010	7	13	21	7/13/2010 21:00	43	mostly cloudy	77	77	75	94	10	29.84	0	7/13/2010 21:00	0.00
2010	7	13	22	7/13/2010 22:00	43	mostly cloudy	77	77	75	94	9	29.86	0	7/13/2010 22:00	0.00
2010	7	13	23	7/13/2010 23:00	21	heavy rain	75	75	75	100	2	29.87	6	7/13/2010 23:00	0.00
2010	7	14	0	7/14/2010 0:00	50	partly cloudy	75	75	75	100	5	29.85	0	7/14/2010 0:00	0.00
2010	7	14	1	7/14/2010 1:00	18	fog	74	74	74	100	1	29.86	0	7/14/2010 1:00	0.00
2010	7	14	2	7/14/2010 2:00	18	fog	73	73	73	100	2.5	29.85	0	7/14/2010 2:00	0.00
2010	7	14	3	7/14/2010 3:00	18	fog	74	74	74	100	2.5	29.85	0	7/14/2010 3:00	0.00
2010	7	14	4	7/14/2010 4:00	78	t-storm	73	73	73	100	3	29.84	0	7/14/2010 4:00	0.00
2010	7	14	5	7/14/2010 5:00	29	light rain	73	73	73	100	10	29.85	0	7/14/2010 5:00	0.00
2010	7	14	6	7/14/2010 6:00	29	light rain	73	73	73	100	2.5	29.85	0	7/14/2010 6:00	0.00
2010	7	14	7	7/14/2010 7:00	43	mostly cloudy	73	73	73	100	4	29.84	4	7/14/2010 7:00	69.30
2010	7	14	8	7/14/2010 8:00	29	light rain	75	75	73	94	7	29.86	3	7/14/2010 8:00	118.70
2010	7	14	9	7/14/2010 9:00	29	light rain	75	75	73	94	6	29.87	0	7/14/2010 9:00	272.10
2010	7	14	10	7/14/2010 10:00	21	heavy rain	73	73	72	94	0.8	29.87	0	7/14/2010 10:00	508.00
2010	7	14	11	7/14/2010 11:00	29	light rain	73	73	72	94	3	29.88	5	7/14/2010 11:00	635.20
2010	7	14	12	7/14/2010 12:00	29	light rain	74	74	72	93	10	29.89	6	7/14/2010 12:00	410.00
2010	7	14	13	7/14/2010 13:00	6	cloudy	73	73	73	100	10	29.89	8	7/14/2010 13:00	110.60
2010	7	14	14	7/14/2010 14:00	29	light rain	73	73	72	94	2.5	29.89	7	7/14/2010 14:00	219.00
2010	7	14	15	7/14/2010 15:00	6	cloudy	74	74	71	91	10	29.9	5	7/14/2010 15:00	61.90
2010	7	14	16	7/14/2010 16:00	57	rain shower	73	73	70	90	7	29.9	4	7/14/2010 16:00	122.20
2010	7	14	17	7/14/2010 17:00	57	rain shower	76	76	74	93	7	29.9	2	7/14/2010 17:00	161.60
2010	7	14	18	7/14/2010 18:00	43	mostly cloudy	77	77	73	88	10	29.89	7	7/14/2010 18:00	125.70
2010	7	14	19	7/14/2010 19:00	43	mostly cloudy	77	77	72	84	10	29.9	6	7/14/2010 19:00	51.30
2010	7	14	20	7/14/2010 20:00	43	mostly cloudy	77	77	72	84	10	29.91	3	7/14/2010 20:00	6.80
2010	7	14	21	7/14/2010 21:00	6	cloudy	76	76	72	87	10	29.93	3	7/14/2010 21:00	0.00
2010	7	14	22	7/14/2010 22:00	50	partly cloudy	73	73	72	96	8	29.95	0	7/14/2010 22:00	0.00
2010	7	14	23	7/14/2010 23:00	10	fair	72	72	71	97	9	29.95	3	7/14/2010 23:00	0.00
2010	7	15	0	7/15/2010 0:00	3	clear	71	71	70	96	8	29.96	0	7/15/2010 0:00	0.00
2010	7	15	1	7/15/2010 1:00	18	fog	70	70	69	97	0.8	29.96	0	7/15/2010 1:00	0.00
2010	7	15	2	7/15/2010 2:00	6	cloudy	71	71	70	96	7	29.97	0	7/15/2010 2:00	0.00
2010	7	15	3	7/15/2010 3:00	50	partly cloudy	72	72	70	94	7	29.97	3	7/15/2010 3:00	0.00
2010	7	15	4	7/15/2010 4:00	10	fair	71	71	70	96	8	29.97	5	7/15/2010 4:00	0.00
2010	7	15	5	7/15/2010 5:00	3	clear	71	71	69	93	10	29.97	0	7/15/2010 5:00	0.00
2010	7	15	6	7/15/2010 6:00	6	cloudy	71	71	69	93	10	29.99	0	7/15/2010 6:00	10.10
2010	7	15	7	7/15/2010 7:00	6	cloudy	73	73	70	90	10	30.02	5	7/15/2010 7:00	141.20
2010	7	15	8	7/15/2010 8:00	50	partly cloudy	75	75	69	82	10	30.02	8	7/15/2010 8:00	247.00
2010	7	15	9	7/15/2010 9:00	6	cloudy	77	77	69	76	10	30.03	5	7/15/2010 9:00	232.30
2010	7	15	10	7/15/2010 10:00	6	cloudy	78	78	69	74	10	30.04	5	7/15/2010 10:00	427.80
2010	7	15	11	7/15/2010 11:00	43	mostly cloudy	81	84	69	67	10	30.02	0	7/15/2010 11:00	590.30
2010	7	15	12	7/15/2010 12:00	10	fair	85	89	69	60	10	30.01	5	7/15/2010 12:00	575.10
2010	7	15	13	7/15/2010 13:00	10	fair	82	85	69	66	9	30.01	6	7/15/2010 13:00	499.90
2010	7	15	14	7/15/2010 14:00	43	mostly cloudy	83	87	70	64	9	30	3	7/15/2010 14:00	671.50
2010	7	15	15	7/15/2010 15:00	50	partly cloudy	86	89	68	54	10	29.99	4	7/15/2010 15:00	723.70
2010	7	15	16	7/15/2010 16:00	10	fair	89	93	68	49	9	29.98	7	7/15/2010 16:00	629.90
2010	7	15	17	7/15/2010 17:00	10	fair	90	95	69	50	10	29.98	0	7/15/2010 17:00	371.20
2010	7	15	18	7/15/2010 18:00	10	fair	86	91	71	61	10	29.98	7	7/15/2010 18:00	190.20
2010	7	15	19	7/15/2010 19:00	10	fair	85	90	71	63	10	29.97	3	7/15/2010 19:00	32.30
2010	7	15	20	7/15/2010 20:00	74	sunny	81	85	71	72	10	29.97	0	7/15/2010 20:00	0.00
2010	7	15	21	7/15/2010 21:00	3	clear	79	79	71	77	10	29.98	6	7/15/2010 21:00	0.00
2010	7	15	22	7/15/2010 22:00	3	clear	77	77	70	79	10	30	0	7/15/2010 22:00	0.00
2010	7	15	23	7/15/2010 23:00	10	fair	75	75	70	84	10	30.01	0	7/15/2010 23:00	0.00
2010	7	16	0	7/16/2010 0:00	3	clear	72	72	70	93	10	30.01	0	7/16/2010 0:00	0.00
2010	7	16	1	7/16/2010 1:00	50	partly cloudy	72	72	70	93	10	30.01	3	7/16/2010 1:00	0.00
2010	7	16	2	7/16/2010 2:00	6	cloudy	73	73	71	93	10	30	0	7/16/2010 2:00	0.00
2010	7	16	3	7/16/2010 3:00	6	cloudy	73	73	71	93	7	29.99	0	7/16/2010 3:00	0.00
2010	7	16	4	7/16/2010 4:00	6	cloudy	74	74	72	93	6	29.99	0	7/16/2010 4:00	0.00
2010	7	16	5	7/16/2010 5:00	6	cloudy	74	74	72	93	6	29.98	0	7/16/2010 5:00	0.00
2010	7	16	6	7/16/2010 6:00	6	cloudy	74	74	72	93	5	29.98	0	7/16/2010 6:00	14.20
2010	7	16	7	7/16/2010 7:00	10	fair	74	74	72	93	4	29.99	0	7/16/2010 7:00	146.10
2010	7	16	8	7/16/2010 8:00	6	cloudy	76	76	73	91	4	29.98	3	7/16/2010 8:00	374.50
2010	7	16	9	7/16/2010 9:00	6	cloudy	78	78	74	87	5	29.97	6	7/16/2010 9:00	634.10
2010	7	16	10	7/16/2010 10:00	10	fair	82	88	74	76	6	29.95	0	7/16/2010 10:00	820.40
2010	7	16	11	7/16/2010 11:00	74	sunny	86	95	75	70	6	29.94	0	7/16/2010 11:00	942.70
2010	7	16	12	7/16/2010 12:00	10	fair	88	98	75	65	7	29.92	5	7/16/2010 12:00	953.40
2010	7	16	13	7/16/2010 13:00	74	sunny	90	101	76	63	7	29.9	3	7/16/2010 13:00	638.10
2010	7	16	14	7/16/2010 14:00	50	partly cloudy	90	97	72	55	8	29.87	5	7/16/2010 14:00	952.40
2010	7	16	15	7/16/2010 15:00	74	sunny	92	99	72	52	9	29.85	0	7/16/2010 15:00	791.10
2010	7	16	16	7/16/2010 16:00	10	fair	92	99	71	50	9	29.83	3	7/16/2010 16:00	450.50
2010	7	16	17	7/16/2010 17:00	10	fair	92	97	69	47	10	29.83	4	7/16/2010 17:00	324.10
2010	7	16	18	7/16/2010 18:00	74	sunny	91	96	69	48	10	29.83	8	7/16/2010 18:00	147.20
2010	7	16	19	7/16/2010 19:00	10	fair	88	93	70	55	9	29.83	0	7/16/2010 19:00	13.10
2010	7	16	20	7/16/2010 20:00	50	partly cloudy	86	91	71	61	8	29.84	5	7/16/2010 20:00	1.00
2010	7	16	21	7/16/2010 21:00	50	partly cloudy	82	85	68	62	10	29.84	0	7/16/2010 21:00	0.00
2010	7	16	22	7/16/2010 22:00	50	partly cloudy	81	84	68	65	10	29.86	0	7/16/2010 22:00	0.00
2010	7	16	23	7/16/2010 23:00	50	partly cloudy	76	76	70	82	10	29.87	0	7/16/2010 23:00	0.00
2010	7	17	0	7/17/2010 0:00	50	partly cloudy	76	76	70	82	9	29.87	0	7/17/2010 0:00	0.00
2010	7	17	1	7/17/2010 1:00	43	mostly cloudy	73	73	70	90	8	29.87	0	7/17/2010 1:00	0.00
2010	7	17	2	7/17/2010 2:00	50	partly cloudy	72	72	70	93	7	29.88	0	7/17/2010 2:00	0.00
2010	7	17	3	7/17/2010 3:00	50	partly cloudy	72	72	70	93	6	29.89	0	7/17/2010 3:00	0.00
2010	7	17	4	7/17/2010 4:00	50	partly cloudy	71	71	69	93	5	29.89	0	7/17/2010 4:00	0.00
2010	7	17	5	7/17/2010 5:00	50	partly cloudy	70	70	69	97	4	29.9	0	7/17/2010 5:00	0.00
2010	7	17	6	7/17/2010 6:00	18	fog	69	69	69	100	1.8	29.91	0	7/17/2010 6:00	8.90
2010	7	17	7	7/17/2010 7:00	74	sunny	71	71	70	96	3	29.92	0	7/17/2010 7:00	180.80
2010	7	17	8	7/17/2010 8:00	74	sunny	76	76	71	85	6	29.93	0	7/17/2010 8:00	425.30
2010	7	17	9	7/17/2010 9:00	74	sunny	80	80	71	74	8	29.92	0	7/17/2010 9:00	661.60
2010	7	17	10	7/17/2010 10:00	74	sunny	83	86	68	60	10	29.92	0	7/17/2010 10:00	845.50
2010	7	17	11	7/17/2010 11:00	74	sunny	86	89	68	55	10	29.91	5	7/17/2010 11:00	957.90
2010	7	17	12	7/17/2010 12:00	74	sunny	87	90	67	51	10	29.91	5	7/17/2010 12:00	856.70
2010	7	17	13	7/17/2010 13:00	74	sunny	89	92	67	48	10	29.89	5	7/17/2010 13:00	969.20
2010	7	17	14	7/17/2010 14:00	74	sunny	90	91	64	42	10	29.88	6	7/17/2010 14:00	857.40
2010	7	17	15	7/17/2010 15:00	50	partly cloudy	89	91	65	45	10	29.86	3	7/17/2010 15:00	743.00
2010	7	17	16	7/17/2010 16:00	50	partly cloudy	90	92	66	45	10	29.84	0	7/17/2010 16:00	642.60
2010	7	17	17	7/17/2010 17:00	10	fair	88	91	67	49	10	29.84	5	7/17/2010 17:00	372.30
2010	7	17	18	7/17/2010 18:00	50	partly cloudy	86	89	67	53	10	29.83	5	7/17/2010 18:00	166.70
2010	7	17	19	7/17/2010 19:00	43	mostly cloudy	86	88	66	51	10	29.84	0	7/17/2010 19:00	62.10
2010	7	17	20	7/17/2010 20:00	10	fair	83	85	67	58	10	29.83	3	7/17/2010 20:00	1.40
2010	7	17	21	7/17/2010 21:00	3	clear	77	77	68	74	10	29.83	0	7/17/2010 21:00	0.00
2010	7	17	22	7/17/2010 22:00	3	clear	76	76	69	79	10	29.84	0	7/17/2010 22:00	0.00
2010	7	17	23	7/17/2010 23:00	3	clear	72	72	69	91	9	29.83	0	7/17/2010 23:00	0.00
2010	7	18	0	7/18/2010 0:00	3	clear	72	72	68	87	9	29.84	0	7/18/2010 0:00	0.00
2010	7	18	1	7/18/2010 1:00	3	clear	70	70	67	90	9	29.83	0	7/18/2010 1:00	0.00
2010	7	18	2	7/18/2010 2:00	50	partly cloudy	71	71	67	87	9	29.83	0	7/18/2010 2:00	0.00
2010	7	18	3	7/18/2010 3:00	3	clear	69	69	67	93	7	29.82	0	7/18/2010 3:00	0.00
2010	7	18	4	7/18/2010 4:00	10	fair	68	68	67	96	6	29.83	0	7/18/2010 4:00	0.00
2010	7	18	5	7/18/2010 5:00	10	fair	68	68	67	96	5	29.82	0	7/18/2010 5:00	0.00
2010	7	18	6	7/18/2010 6:00	18	fog	68	68	67	96	2.5	29.83	0	7/18/2010 6:00	24.20
2010	7	18	7	7/18/2010 7:00	74	sunny	70	70	69	97	4	29.84	0	7/18/2010 7:00	176.80
2010	7	18	8	7/18/2010 8:00	74	sunny	78	78	72	81	7	29.85	0	7/18/2010 8:00	422.50
2010	7	18	9	7/18/2010 9:00	74	sunny	82	86	70	67	9	29.86	4	7/18/2010 9:00	661.70
2010	7	18	10	7/18/2010 10:00	74	sunny	85	89	69	59	10	29.86	5	7/18/2010 10:00	861.50
2010	7	18	11	7/18/2010 11:00	10	fair	86	90	69	57	10	29.86	4	7/18/2010 11:00	832.10
2010	7	18	12	7/18/2010 12:00	50	partly cloudy	88	92	69	53	10	29.88	9	7/18/2010 12:00	1019.80
2010	7	18	13	7/18/2010 13:00	74	sunny	90	92	66	45	10	29.86	8	7/18/2010 13:00	974.10
2010	7	18	14	7/18/2010 14:00	10	fair	89	92	67	48	10	29.85	5	7/18/2010 14:00	767.60
2010	7	18	15	7/18/2010 15:00	74	sunny	89	91	65	45	10	29.84	6	7/18/2010 15:00	831.60
2010	7	18	16	7/18/2010 16:00	74	sunny	90	90	61	38	10	29.83	10	7/18/2010 16:00	566.30
2010	7	18	17	7/18/2010 17:00	74	sunny	90	90	62	39	10	29.83	3	7/18/2010 17:00	425.60
2010	7	18	18	7/18/2010 18:00	74	sunny	89	89	60	38	10	29.83	4	7/18/2010 18:00	195.50
2010	7	18	19	7/18/2010 19:00	74	sunny	87	89	65	48	10	29.84	0	7/18/2010 19:00	40.30
2010	7	18	20	7/18/2010 20:00	74	sunny	80	80	68	67	10	29.85	0	7/18/2010 20:00	0.50
2010	7	18	21	7/18/2010 21:00	3	clear	78	78	68	71	10	29.86	0	7/18/2010 21:00	0.00
2010	7	18	22	7/18/2010 22:00	3	clear	75	75	69	82	10	29.88	0	7/18/2010 22:00	0.00
2010	7	18	23	7/18/2010 23:00	50	partly cloudy	73	73	69	87	10	29.88	0	7/18/2010 23:00	0.00
2010	7	19	0	7/19/2010 0:00	50	partly cloudy	72	72	69	91	10	29.86	0	7/19/2010 0:00	0.00
2010	7	19	1	7/19/2010 1:00	50	partly cloudy	71	71	68	90	9	29.85	0	7/19/2010 1:00	0.00
2010	7	19	2	7/19/2010 2:00	43	mostly cloudy	70	70	68	93	8	29.86	0	7/19/2010 2:00	0.00
2010	7	19	3	7/19/2010 3:00	43	mostly cloudy	70	70	67	90	8	29.85	3	7/19/2010 3:00	0.00
2010	7	19	4	7/19/2010 4:00	10	fair	69	69	66	90	9	29.83	0	7/19/2010 4:00	0.00
2010	7	19	5	7/19/2010 5:00	50	partly cloudy	68	68	66	93	7	29.84	0	7/19/2010 5:00	0.00
2010	7	19	6	7/19/2010 6:00	50	partly cloudy	68	68	66	93	7	29.85	0	7/19/2010 6:00	31.80
2010	7	19	7	7/19/2010 7:00	50	partly cloudy	70	70	67	90	8	29.84	0	7/19/2010 7:00	168.50
2010	7	19	8	7/19/2010 8:00	78	t-storm	72	72	68	87	3	29.84	0	7/19/2010 8:00	328.20
2010	7	19	9	7/19/2010 9:00	43	mostly cloudy	75	75	69	82	9	29.85	0	7/19/2010 9:00	188.20
2010	7	19	10	7/19/2010 10:00	43	mostly cloudy	78	78	69	74	10	29.84	0	7/19/2010 10:00	345.00
2010	7	19	11	7/19/2010 11:00	50	partly cloudy	83	88	72	69	10	29.82	9	7/19/2010 11:00	931.20
2010	7	19	12	7/19/2010 12:00	10	fair	85	92	73	67	10	29.81	0	7/19/2010 12:00	877.20
2010	7	19	13	7/19/2010 13:00	10	fair	88	94	71	57	10	29.8	9	7/19/2010 13:00	984.80
2010	7	19	14	7/19/2010 14:00	50	partly cloudy	90	96	71	54	10	29.78	4	7/19/2010 14:00	968.80
2010	7	19	15	7/19/2010 15:00	43	mostly cloudy	89	96	72	57	10	29.77	5	7/19/2010 15:00	719.20
2010	7	19	16	7/19/2010 16:00	43	mostly cloudy	88	94	71	57	10	29.76	5	7/19/2010 16:00	516.30
2010	7	19	17	7/19/2010 17:00	10	fair	88	93	70	55	10	29.76	6	7/19/2010 17:00	232.30
2010	7	19	18	7/19/2010 18:00	43	mostly cloudy	88	94	71	57	10	29.77	3	7/19/2010 18:00	86.20
2010	7	19	19	7/19/2010 19:00	78	t-storm	82	88	73	74	1.8	29.78	8	7/19/2010 19:00	44.70
2010	7	19	20	7/19/2010 20:00	81	thunder in the vicinity	79	79	75	89	8	29.8	0	7/19/2010 20:00	5.20
2010	7	19	21	7/19/2010 21:00	24	heavy t-storm	73	73	72	94	1.8	29.86	9	7/19/2010 21:00	0.00
2010	7	19	22	7/19/2010 22:00	29	light rain	73	73	70	88	10	29.85	6	7/19/2010 22:00	0.00
2010	7	19	23	7/19/2010 23:00	10	fair	72	72	71	97	5	29.86	0	7/19/2010 23:00	0.00
2010	7	20	0	7/20/2010 0:00	18	fog	70	70	70	100	2	29.86	0	7/20/2010 0:00	0.00
2010	7	20	1	7/20/2010 1:00	3	clear	71	71	70	96	3	29.87	0	7/20/2010 1:00	0.00
2010	7	20	2	7/20/2010 2:00	50	partly cloudy	70	70	70	100	3	29.86	0	7/20/2010 2:00	0.00
2010	7	20	3	7/20/2010 3:00	18	fog	69	69	69	100	1.5	29.86	0	7/20/2010 3:00	0.00
2010	7	20	4	7/20/2010 4:00	18	fog	68	68	68	100	0.5	29.86	0	7/20/2010 4:00	0.00
2010	7	20	5	7/20/2010 5:00	18	fog	68	68	67	96	1.5	29.88	0	7/20/2010 5:00	0.00
2010	7	20	6	7/20/2010 6:00	43	mostly cloudy	68	68	68	100	3	29.9	0	7/20/2010 6:00	29.50
2010	7	20	7	7/20/2010 7:00	18	fog	69	69	69	100	2.5	29.9	0	7/20/2010 7:00	168.70
2010	7	20	8	7/20/2010 8:00	50	partly cloudy	72	72	71	97	9	29.92	0	7/20/2010 8:00	389.80
2010	7	20	9	7/20/2010 9:00	74	sunny	77	77	70	79	10	29.94	0	7/20/2010 9:00	489.40
2010	7	20	10	7/20/2010 10:00	10	fair	79	79	70	74	10	29.93	0	7/20/2010 10:00	781.80
2010	7	20	11	7/20/2010 11:00	50	partly cloudy	80	80	68	67	10	29.95	4	7/20/2010 11:00	614.10
2010	7	20	12	7/20/2010 12:00	50	partly cloudy	82	85	69	65	10	29.96	3	7/20/2010 12:00	401.20
2010	7	20	13	7/20/2010 13:00	43	mostly cloudy	81	84	70	69	10	29.97	0	7/20/2010 13:00	348.40
2010	7	20	14	7/20/2010 14:00	43	mostly cloudy	81	85	71	72	10	29.96	0	7/20/2010 14:00	619.60
2010	7	20	15	7/20/2010 15:00	50	partly cloudy	85	88	68	57	10	29.95	6	7/20/2010 15:00	632.30
2010	7	20	16	7/20/2010 16:00	50	partly cloudy	86	89	68	55	10	29.95	6	7/20/2010 16:00	698.70
2010	7	20	17	7/20/2010 17:00	10	fair	86	88	65	49	10	29.94	7	7/20/2010 17:00	420.20
2010	7	20	18	7/20/2010 18:00	74	sunny	84	86	66	55	10	29.92	3	7/20/2010 18:00	152.70
2010	7	20	19	7/20/2010 19:00	74	sunny	82	85	69	65	10	29.94	0	7/20/2010 19:00	56.00
2010	7	20	20	7/20/2010 20:00	50	partly cloudy	78	78	70	76	10	29.94	0	7/20/2010 20:00	0.60
2010	7	20	21	7/20/2010 21:00	50	partly cloudy	74	74	68	82	10	29.95	0	7/20/2010 21:00	0.00
2010	7	20	22	7/20/2010 22:00	50	partly cloudy	74	74	70	87	10	29.97	0	7/20/2010 22:00	0.00
2010	7	20	23	7/20/2010 23:00	50	partly cloudy	74	74	70	87	9	29.97	0	7/20/2010 23:00	0.00
2010	7	21	0	7/21/2010 0:00	50	partly cloudy	72	72	70	93	5	29.96	0	7/21/2010 0:00	0.00
2010	7	21	1	7/21/2010 1:00	50	partly cloudy	72	72	70	93	6	29.95	0	7/21/2010 1:00	0.00
2010	7	21	2	7/21/2010 2:00	50	partly cloudy	72	72	70	93	6	29.94	0	7/21/2010 2:00	0.00
2010	7	21	3	7/21/2010 3:00	50	partly cloudy	71	71	70	96	6	29.94	0	7/21/2010 3:00	0.00
2010	7	21	4	7/21/2010 4:00	50	partly cloudy	71	71	69	93	6	29.93	0	7/21/2010 4:00	0.00
2010	7	21	5	7/21/2010 5:00	18	fog	69	69	69	100	2.5	29.94	0	7/21/2010 5:00	0.00
2010	7	21	6	7/21/2010 6:00	43	mostly cloudy	69	69	68	96	3	29.94	3	7/21/2010 6:00	22.30
2010	7	21	7	7/21/2010 7:00	10	fair	70	70	69	97	5	29.94	0	7/21/2010 7:00	168.80
2010	7	21	8	7/21/2010 8:00	74	sunny	75	75	71	87	7	29.95	0	7/21/2010 8:00	416.80
2010	7	21	9	7/21/2010 9:00	74	sunny	80	80	73	79	10	29.95	3	7/21/2010 9:00	651.70
2010	7	21	10	7/21/2010 10:00	10	fair	83	88	72	69	10	29.94	4	7/21/2010 10:00	723.80
2010	7	21	11	7/21/2010 11:00	50	partly cloudy	86	93	73	65	10	29.93	0	7/21/2010 11:00	772.90
2010	7	21	12	7/21/2010 12:00	10	fair	88	95	72	59	10	29.92	3	7/21/2010 12:00	487.10
2010	7	21	13	7/21/2010 13:00	50	partly cloudy	88	96	73	61	10	29.9	0	7/21/2010 13:00	496.00
2010	7	21	14	7/21/2010 14:00	10	fair	88	96	73	61	10	29.88	6	7/21/2010 14:00	921.40
2010	7	21	15	7/21/2010 15:00	10	fair	90	98	73	57	10	29.86	3	7/21/2010 15:00	640.20
2010	7	21	16	7/21/2010 16:00	43	mostly cloudy	88	96	73	61	10	29.84	4	7/21/2010 16:00	498.20
2010	7	21	17	7/21/2010 17:00	10	fair	89	96	72	57	10	29.82	3	7/21/2010 17:00	366.70
2010	7	21	18	7/21/2010 18:00	81	thunder in the vicinity	88	94	72	58	10	29.81	5	7/21/2010 18:00	61.80
2010	7	21	19	7/21/2010 19:00	10	fair	73	73	71	93	10	29.81	3	7/21/2010 19:00	25.60
2010	7	21	20	7/21/2010 20:00	57	rain shower	71	71	71	100	7	29.81	3	7/21/2010 20:00	0.00
2010	7	21	21	7/21/2010 21:00	29	light rain	70	70	70	99	10	29.83	1	7/21/2010 21:00	0.00
2010	7	21	22	7/21/2010 22:00	10	fair	72	72	68	87	10	29.86	0	7/21/2010 22:00	0.00
2010	7	21	23	7/21/2010 23:00	10	fair	73	73	68	84	10	29.9	6	7/21/2010 23:00	0.00
2010	7	22	0	7/22/2010 0:00	50	partly cloudy	72	72	68	87	10	29.9	0	7/22/2010 0:00	0.00
2010	7	22	1	7/22/2010 1:00	50	partly cloudy	70	70	69	97	7	29.9	0	7/22/2010 1:00	0.00
2010	7	22	2	7/22/2010 2:00	18	fog	68	68	67	96	2.5	29.89	0	7/22/2010 2:00	0.00
2010	7	22	3	7/22/2010 3:00	3	clear	69	69	67	93	8	29.9	3	7/22/2010 3:00	0.00
2010	7	22	4	7/22/2010 4:00	3	clear	69	69	67	93	9	29.9	3	7/22/2010 4:00	0.00
2010	7	22	5	7/22/2010 5:00	3	clear	69	69	67	93	10	29.91	0	7/22/2010 5:00	0.00
2010	7	22	6	7/22/2010 6:00	74	sunny	66	66	65	96	4	29.93	0	7/22/2010 6:00	16.50
2010	7	22	7	7/22/2010 7:00	74	sunny	68	68	66	93	7	29.94	0	7/22/2010 7:00	184.70
2010	7	22	8	7/22/2010 8:00	74	sunny	74	74	68	82	10	29.96	3	7/22/2010 8:00	461.60
2010	7	22	9	7/22/2010 9:00	74	sunny	78	78	65	64	10	29.96	5	7/22/2010 9:00	713.00
2010	7	22	10	7/22/2010 10:00	74	sunny	79	79	64	60	10	29.97	9	7/22/2010 10:00	903.10
2010	7	22	11	7/22/2010 11:00	74	sunny	81	82	64	56	10	29.96	6	7/22/2010 11:00	1007.00
2010	7	22	12	7/22/2010 12:00	10	fair	82	83	64	54	10	29.96	8	7/22/2010 12:00	950.00
2010	7	22	13	7/22/2010 13:00	10	fair	85	86	64	49	10	29.96	8	7/22/2010 13:00	792.30
2010	7	22	14	7/22/2010 14:00	50	partly cloudy	85	85	62	46	10	29.95	3	7/22/2010 14:00	807.30
2010	7	22	15	7/22/2010 15:00	43	mostly cloudy	86	86	62	44	10	29.94	9	7/22/2010 15:00	705.30
2010	7	22	16	7/22/2010 16:00	50	partly cloudy	85	86	63	48	10	29.94	5	7/22/2010 16:00	588.60
2010	7	22	17	7/22/2010 17:00	50	partly cloudy	87	88	63	44	10	29.94	5	7/22/2010 17:00	405.30
2010	7	22	18	7/22/2010 18:00	10	fair	86	86	62	44	10	29.94	0	7/22/2010 18:00	161.40
2010	7	22	19	7/22/2010 19:00	50	partly cloudy	87	87	61	41	10	29.95	3	7/22/2010 19:00	27.50
2010	7	22	20	7/22/2010 20:00	10	fair	76	76	68	76	10	29.96	0	7/22/2010 20:00	0.60
2010	7	22	21	7/22/2010 21:00	10	fair	74	74	64	71	10	29.98	0	7/22/2010 21:00	0.00
2010	7	22	22	7/22/2010 22:00	50	partly cloudy	72	72	67	84	10	30	0	7/22/2010 22:00	0.00
2010	7	22	23	7/22/2010 23:00	50	partly cloudy	69	69	67	93	10	30	0	7/22/2010 23:00	0.00
2010	7	23	0	7/23/2010 0:00	50	partly cloudy	70	70	66	87	10	30.01	0	7/23/2010 0:00	0.00
2010	7	23	1	7/23/2010 1:00	50	partly cloudy	70	70	67	90	10	30.01	0	7/23/2010 1:00	0.00
2010	7	23	2	7/23/2010 2:00	50	partly cloudy	69	69	67	93	10	30.02	0	7/23/2010 2:00	0.00
2010	7	23	3	7/23/2010 3:00	50	partly cloudy	69	69	67	93	10	30.01	0	7/23/2010 3:00	0.00
2010	7	23	4	7/23/2010 4:00	43	mostly cloudy	68	68	66	93	10	30	0	7/23/2010 4:00	0.00
2010	7	23	5	7/23/2010 5:00	43	mostly cloudy	68	68	66	93	10	30.01	0	7/23/2010 5:00	0.00
2010	7	23	6	7/23/2010 6:00	43	mostly cloudy	68	68	66	93	10	30.01	0	7/23/2010 6:00	35.10
2010	7	23	7	7/23/2010 7:00	50	partly cloudy	70	70	66	87	10	30	0	7/23/2010 7:00	149.90
2010	7	23	8	7/23/2010 8:00	50	partly cloudy	73	73	66	79	10	30	0	7/23/2010 8:00	343.30
2010	7	23	9	7/23/2010 9:00	50	partly cloudy	77	77	67	71	10	30	0	7/23/2010 9:00	215.80
2010	7	23	10	7/23/2010 10:00	43	mostly cloudy	77	77	67	71	10	29.99	0	7/23/2010 10:00	186.00
2010	7	23	11	7/23/2010 11:00	43	mostly cloudy	76	76	69	79	10	29.98	3	7/23/2010 11:00	220.90
2010	7	23	12	7/23/2010 12:00	57	rain shower	76	76	71	87	7	29.98	2	7/23/2010 12:00	462.60
2010	7	23	13	7/23/2010 13:00	43	mostly cloudy	81	84	68	65	10	29.95	0	7/23/2010 13:00	463.50
2010	7	23	14	7/23/2010 14:00	43	mostly cloudy	81	84	70	69	10	29.93	5	7/23/2010 14:00	463.50
2010	7	23	15	7/23/2010 15:00	43	mostly cloudy	82	87	72	71	10	29.91	5	7/23/2010 15:00	479.40
2010	7	23	16	7/23/2010 16:00	50	partly cloudy	86	94	74	67	10	29.88	0	7/23/2010 16:00	418.70
2010	7	23	17	7/23/2010 17:00	74	sunny	90	101	76	63	10	29.86	0	7/23/2010 17:00	281.90
2010	7	23	18	7/23/2010 18:00	74	sunny	91	100	74	57	10	29.83	5	7/23/2010 18:00	134.00
2010	7	23	19	7/23/2010 19:00	74	sunny	89	98	74	61	10	29.84	0	7/23/2010 19:00	30.40
2010	7	23	20	7/23/2010 20:00	50	partly cloudy	87	95	74	65	9	29.83	5	7/23/2010 20:00	0.00
2010	7	23	21	7/23/2010 21:00	50	partly cloudy	84	91	74	72	9	29.84	3	7/23/2010 21:00	0.00
2010	7	23	22	7/23/2010 22:00	3	clear	83	89	74	74	8	29.86	3	7/23/2010 22:00	0.00
2010	7	23	23	7/23/2010 23:00	3	clear	79	79	75	88	7	29.85	0	7/23/2010 23:00	0.00
2010	7	24	0	7/24/2010 0:00	29	light rain	78	78	73	84	10	29.86	3	7/24/2010 0:00	0.00
2010	7	24	1	7/24/2010 1:00	50	partly cloudy	75	75	73	94	8	29.86	0	7/24/2010 1:00	0.00
2010	7	24	2	7/24/2010 2:00	3	clear	74	74	73	97	5	29.84	0	7/24/2010 2:00	0.00
2010	7	24	3	7/24/2010 3:00	3	clear	75	75	74	96	6	29.83	0	7/24/2010 3:00	0.00
2010	7	24	4	7/24/2010 4:00	43	mostly cloudy	75	75	74	96	6	29.82	0	7/24/2010 4:00	0.00
2010	7	24	5	7/24/2010 5:00	50	partly cloudy	75	75	73	94	6	29.82	0	7/24/2010 5:00	0.00
2010	7	24	6	7/24/2010 6:00	18	fog	73	73	72	96	2	29.84	0	7/24/2010 6:00	26.00
2010	7	24	7	7/24/2010 7:00	50	partly cloudy	76	76	74	94	5	29.85	0	7/24/2010 7:00	139.70
2010	7	24	8	7/24/2010 8:00	50	partly cloudy	81	86	74	79	10	29.86	3	7/24/2010 8:00	408.60
2010	7	24	9	7/24/2010 9:00	10	fair	84	90	72	67	10	29.87	6	7/24/2010 9:00	663.90
2010	7	24	10	7/24/2010 10:00	10	fair	86	92	72	63	10	29.87	4	7/24/2010 10:00	848.00
2010	7	24	11	7/24/2010 11:00	10	fair	88	96	73	61	10	29.88	7	7/24/2010 11:00	980.30
2010	7	24	12	7/24/2010 12:00	74	sunny	89	98	74	61	10	29.87	5	7/24/2010 12:00	877.60
2010	7	24	13	7/24/2010 13:00	74	sunny	90	99	74	59	10	29.87	6	7/24/2010 13:00	893.30
2010	7	24	14	7/24/2010 14:00	10	fair	92	101	73	54	10	29.87	4	7/24/2010 14:00	940.80
2010	7	24	15	7/24/2010 15:00	74	sunny	93	101	72	50	10	29.85	9	7/24/2010 15:00	800.40
2010	7	24	16	7/24/2010 16:00	74	sunny	93	101	72	50	10	29.83	6	7/24/2010 16:00	609.80
2010	7	24	17	7/24/2010 17:00	74	sunny	93	102	73	52	10	29.83	6	7/24/2010 17:00	401.90
2010	7	24	18	7/24/2010 18:00	50	partly cloudy	92	101	73	54	10	29.8	0	7/24/2010 18:00	163.60
2010	7	24	19	7/24/2010 19:00	10	fair	90	99	74	59	10	29.8	0	7/24/2010 19:00	29.60
2010	7	24	20	7/24/2010 20:00	74	sunny	87	95	74	65	10	29.81	3	7/24/2010 20:00	0.00
2010	7	24	21	7/24/2010 21:00	3	clear	81	87	76	85	9	29.81	0	7/24/2010 21:00	0.00
2010	7	24	22	7/24/2010 22:00	3	clear	80	80	76	87	8	29.8	0	7/24/2010 22:00	0.00
2010	7	24	23	7/24/2010 23:00	3	clear	80	80	76	87	7	29.78	0	7/24/2010 23:00	0.00
2010	7	25	0	7/25/2010 0:00	10	fair	82	89	76	82	9	29.79	0	7/25/2010 0:00	0.00
2010	7	25	1	7/25/2010 1:00	10	fair	80	80	76	87	9	29.79	3	7/25/2010 1:00	0.00
2010	7	25	2	7/25/2010 2:00	3	clear	76	76	74	94	10	29.78	0	7/25/2010 2:00	0.00
2010	7	25	3	7/25/2010 3:00	43	mostly cloudy	74	74	72	93	10	29.78	0	7/25/2010 3:00	0.00
2010	7	25	4	7/25/2010 4:00	3	clear	73	73	71	93	10	29.78	0	7/25/2010 4:00	0.00
2010	7	25	5	7/25/2010 5:00	3	clear	72	72	71	97	8	29.79	0	7/25/2010 5:00	0.00
2010	7	25	6	7/25/2010 6:00	74	sunny	72	72	71	97	7	29.8	0	7/25/2010 6:00	14.10
2010	7	25	7	7/25/2010 7:00	74	sunny	76	76	72	87	10	29.81	0	7/25/2010 7:00	151.50
2010	7	25	8	7/25/2010 8:00	74	sunny	79	79	73	82	10	29.83	3	7/25/2010 8:00	418.20
2010	7	25	9	7/25/2010 9:00	74	sunny	83	89	74	74	10	29.83	4	7/25/2010 9:00	644.70
2010	7	25	10	7/25/2010 10:00	50	partly cloudy	84	89	71	65	10	29.82	10	7/25/2010 10:00	778.00
2010	7	25	11	7/25/2010 11:00	10	fair	86	93	73	65	10	29.82	3	7/25/2010 11:00	981.80
2010	7	25	12	7/25/2010 12:00	10	fair	87	95	74	65	10	29.81	3	7/25/2010 12:00	919.70
2010	7	25	13	7/25/2010 13:00	10	fair	89	97	73	59	10	29.78	0	7/25/2010 13:00	983.80
2010	7	25	14	7/25/2010 14:00	10	fair	90	97	72	55	10	29.76	4	7/25/2010 14:00	255.20
2010	7	25	15	7/25/2010 15:00	29	light rain	81	85	73	79	3	29.8	6	7/25/2010 15:00	56.10
2010	7	25	16	7/25/2010 16:00	21	heavy rain	70	70	66	88	1.8	29.87	10	7/25/2010 16:00	38.60
2010	7	25	17	7/25/2010 17:00	29	light rain	67	67	66	96	5	29.85	6	7/25/2010 17:00	152.00
2010	7	25	18	7/25/2010 18:00	43	mostly cloudy	72	72	70	93	10	29.8	0	7/25/2010 18:00	213.60
2010	7	25	19	7/25/2010 19:00	74	sunny	75	75	70	84	10	29.84	3	7/25/2010 19:00	37.60
2010	7	25	20	7/25/2010 20:00	74	sunny	72	72	71	97	10	29.85	0	7/25/2010 20:00	2.70
2010	7	25	21	7/25/2010 21:00	3	clear	71	71	69	93	10	29.86	0	7/25/2010 21:00	0.00
2010	7	25	22	7/25/2010 22:00	3	clear	70	70	70	100	3	29.88	0	7/25/2010 22:00	0.00
2010	7	25	23	7/25/2010 23:00	10	fair	69	69	68	96	10	29.9	4	7/25/2010 23:00	0.00
2010	7	26	0	7/26/2010 0:00	3	clear	71	71	62	73	10	29.91	8	7/26/2010 0:00	0.00
2010	7	26	1	7/26/2010 1:00	3	clear	70	70	59	68	10	29.93	12	7/26/2010 1:00	0.00
2010	7	26	2	7/26/2010 2:00	3	clear	65	65	60	84	10	29.95	0	7/26/2010 2:00	0.00
2010	7	26	3	7/26/2010 3:00	3	clear	62	62	60	93	10	29.94	0	7/26/2010 3:00	0.00
2010	7	26	4	7/26/2010 4:00	3	clear	61	61	59	93	10	29.95	0	7/26/2010 4:00	0.00
2010	7	26	5	7/26/2010 5:00	3	clear	58	58	58	100	7	29.98	0	7/26/2010 5:00	0.00
2010	7	26	6	7/26/2010 6:00	74	sunny	58	58	58	100	9	30.01	7	7/26/2010 6:00	21.70
2010	7	26	7	7/26/2010 7:00	74	sunny	61	61	59	93	10	30.02	0	7/26/2010 7:00	182.60
2010	7	26	8	7/26/2010 8:00	74	sunny	68	68	62	81	10	30.03	0	7/26/2010 8:00	461.90
2010	7	26	9	7/26/2010 9:00	74	sunny	72	72	62	71	10	30.04	3	7/26/2010 9:00	719.20
2010	7	26	10	7/26/2010 10:00	74	sunny	76	76	60	58	10	30.04	5	7/26/2010 10:00	911.40
2010	7	26	11	7/26/2010 11:00	74	sunny	79	79	59	50	10	30.03	4	7/26/2010 11:00	1034.60
2010	7	26	12	7/26/2010 12:00	74	sunny	80	80	59	48	10	30.03	7	7/26/2010 12:00	1058.40
2010	7	26	13	7/26/2010 13:00	74	sunny	83	83	58	42	10	30.02	10	7/26/2010 13:00	1041.90
2010	7	26	14	7/26/2010 14:00	10	fair	84	83	54	35	10	30	8	7/26/2010 14:00	1030.80
2010	7	26	15	7/26/2010 15:00	74	sunny	85	84	55	36	10	29.99	9	7/26/2010 15:00	863.50
2010	7	26	16	7/26/2010 16:00	74	sunny	86	85	56	36	10	29.98	9	7/26/2010 16:00	651.50
2010	7	26	17	7/26/2010 17:00	10	fair	86	85	56	36	10	29.96	9	7/26/2010 17:00	421.80
2010	7	26	18	7/26/2010 18:00	74	sunny	86	85	57	37	10	29.95	8	7/26/2010 18:00	183.70
2010	7	26	19	7/26/2010 19:00	74	sunny	85	84	57	38	10	29.96	6	7/26/2010 19:00	29.60
2010	7	26	20	7/26/2010 20:00	74	sunny	81	81	59	47	10	29.97	0	7/26/2010 20:00	0.40
2010	7	26	21	7/26/2010 21:00	3	clear	71	71	61	70	10	29.99	0	7/26/2010 21:00	0.00
2010	7	26	22	7/26/2010 22:00	3	clear	69	69	62	78	10	30.02	0	7/26/2010 22:00	0.00
2010	7	26	23	7/26/2010 23:00	3	clear	66	66	62	87	10	30.04	0	7/26/2010 23:00	0.00
2010	7	27	0	7/27/2010 0:00	3	clear	64	64	62	93	10	30.05	0	7/27/2010 0:00	0.00
2010	7	27	1	7/27/2010 1:00	10	fair	62	62	61	96	10	30.05	0	7/27/2010 1:00	0.00
2010	7	27	2	7/27/2010 2:00	3	clear	61	61	60	97	10	30.06	0	7/27/2010 2:00	0.00
2010	7	27	3	7/27/2010 3:00	3	clear	61	61	59	93	10	30.06	3	7/27/2010 3:00	0.00
2010	7	27	4	7/27/2010 4:00	3	clear	59	59	58	96	10	30.07	0	7/27/2010 4:00	0.00
2010	7	27	5	7/27/2010 5:00	3	clear	58	58	57	97	9	30.07	0	7/27/2010 5:00	0.00
2010	7	27	6	7/27/2010 6:00	74	sunny	57	57	56	96	7	30.08	0	7/27/2010 6:00	21.20
2010	7	27	7	7/27/2010 7:00	74	sunny	59	59	58	96	10	30.1	0	7/27/2010 7:00	179.80
2010	7	27	8	7/27/2010 8:00	74	sunny	67	67	60	79	10	30.11	0	7/27/2010 8:00	458.10
2010	7	27	9	7/27/2010 9:00	74	sunny	74	74	61	64	10	30.1	0	7/27/2010 9:00	707.60
2010	7	27	10	7/27/2010 10:00	74	sunny	80	80	62	54	10	30.09	6	7/27/2010 10:00	863.60
2010	7	27	11	7/27/2010 11:00	74	sunny	83	83	61	47	10	30.08	5	7/27/2010 11:00	994.70
2010	7	27	12	7/27/2010 12:00	74	sunny	83	83	58	42	10	30.08	4	7/27/2010 12:00	1046.60
2010	7	27	13	7/27/2010 13:00	74	sunny	85	83	54	34	10	30.07	5	7/27/2010 13:00	981.90
2010	7	27	14	7/27/2010 14:00	10	fair	85	84	55	36	10	30.06	3	7/27/2010 14:00	943.40
2010	7	27	15	7/27/2010 15:00	10	fair	87	85	53	31	10	30.06	5	7/27/2010 15:00	889.80
2010	7	27	16	7/27/2010 16:00	10	fair	86	85	56	36	10	30.05	0	7/27/2010 16:00	713.40
2010	7	27	17	7/27/2010 17:00	74	sunny	85	84	55	36	10	30.03	3	7/27/2010 17:00	438.20
2010	7	27	18	7/27/2010 18:00	74	sunny	85	84	58	40	10	30.03	0	7/27/2010 18:00	182.10
2010	7	27	19	7/27/2010 19:00	74	sunny	85	85	60	43	10	30.03	0	7/27/2010 19:00	32.40
2010	7	27	20	7/27/2010 20:00	74	sunny	77	77	60	56	10	30.02	0	7/27/2010 20:00	0.40
2010	7	27	21	7/27/2010 21:00	3	clear	72	72	63	73	10	30.03	0	7/27/2010 21:00	0.00
2010	7	27	22	7/27/2010 22:00	3	clear	67	67	63	87	10	30.04	0	7/27/2010 22:00	0.00
2010	7	27	23	7/27/2010 23:00	3	clear	67	67	64	90	10	30.05	0	7/27/2010 23:00	0.00
2010	7	28	0	7/28/2010 0:00	3	clear	66	66	63	90	10	30.04	0	7/28/2010 0:00	0.00
2010	7	28	1	7/28/2010 1:00	3	clear	63	63	62	97	8	30.04	0	7/28/2010 1:00	0.00
2010	7	28	2	7/28/2010 2:00	3	clear	64	64	62	93	9	30.03	0	7/28/2010 2:00	0.00
2010	7	28	3	7/28/2010 3:00	3	clear	63	63	62	97	10	30.04	0	7/28/2010 3:00	0.00
2010	7	28	4	7/28/2010 4:00	3	clear	63	63	62	97	9	30.05	0	7/28/2010 4:00	0.00
2010	7	28	5	7/28/2010 5:00	3	clear	63	63	62	97	10	30.05	0	7/28/2010 5:00	0.00
2010	7	28	6	7/28/2010 6:00	10	fair	62	62	61	96	5	30.05	0	7/28/2010 6:00	41.70
2010	7	28	7	7/28/2010 7:00	43	mostly cloudy	64	64	63	96	9	30.05	0	7/28/2010 7:00	143.50
2010	7	28	8	7/28/2010 8:00	74	sunny	68	68	64	87	10	30.04	0	7/28/2010 8:00	367.50
2010	7	28	9	7/28/2010 9:00	6	cloudy	72	72	66	81	10	30.03	0	7/28/2010 9:00	485.20
2010	7	28	10	7/28/2010 10:00	43	mostly cloudy	77	77	68	74	10	30.02	0	7/28/2010 10:00	380.10
2010	7	28	11	7/28/2010 11:00	6	cloudy	80	80	70	71	10	30.01	3	7/28/2010 11:00	708.30
2010	7	28	12	7/28/2010 12:00	43	mostly cloudy	83	88	71	67	10	30	4	7/28/2010 12:00	655.10
2010	7	28	13	7/28/2010 13:00	43	mostly cloudy	83	88	71	67	10	29.99	4	7/28/2010 13:00	803.20
2010	7	28	14	7/28/2010 14:00	43	mostly cloudy	84	89	71	65	10	29.98	5	7/28/2010 14:00	612.70
2010	7	28	15	7/28/2010 15:00	10	fair	87	93	71	59	10	29.95	6	7/28/2010 15:00	520.70
2010	7	28	16	7/28/2010 16:00	10	fair	87	91	69	55	10	29.93	5	7/28/2010 16:00	566.60
2010	7	28	17	7/28/2010 17:00	43	mostly cloudy	87	91	69	55	10	29.92	3	7/28/2010 17:00	288.90
2010	7	28	18	7/28/2010 18:00	10	fair	87	90	67	51	10	29.91	3	7/28/2010 18:00	205.00
2010	7	28	19	7/28/2010 19:00	74	sunny	86	89	67	53	10	29.9	3	7/28/2010 19:00	43.30
2010	7	28	20	7/28/2010 20:00	74	sunny	83	85	66	56	10	29.91	0	7/28/2010 20:00	0.40
2010	7	28	21	7/28/2010 21:00	3	clear	76	76	68	76	10	29.91	0	7/28/2010 21:00	0.00
2010	7	28	22	7/28/2010 22:00	3	clear	73	73	69	87	10	29.91	0	7/28/2010 22:00	0.00
2010	7	28	23	7/28/2010 23:00	3	clear	73	73	69	87	10	29.89	0	7/28/2010 23:00	0.00
2010	7	29	0	7/29/2010 0:00	3	clear	71	71	68	90	8	29.88	0	7/29/2010 0:00	0.00
2010	7	29	1	7/29/2010 1:00	10	fair	71	71	69	93	7	29.88	0	7/29/2010 1:00	0.00
2010	7	29	2	7/29/2010 2:00	3	clear	70	70	68	93	5	29.86	0	7/29/2010 2:00	0.00
2010	7	29	3	7/29/2010 3:00	50	partly cloudy	70	70	68	93	6	29.86	0	7/29/2010 3:00	0.00
2010	7	29	4	7/29/2010 4:00	50	partly cloudy	69	69	68	96	4	29.84	0	7/29/2010 4:00	0.00
2010	7	29	5	7/29/2010 5:00	6	cloudy	70	70	69	97	4	29.84	0	7/29/2010 5:00	0.00
2010	7	29	6	7/29/2010 6:00	43	mostly cloudy	72	72	70	94	4	29.85	0	7/29/2010 6:00	11.40
2010	7	29	7	7/29/2010 7:00	78	t-storm	72	72	70	94	5	29.86	4	7/29/2010 7:00	30.80
2010	7	29	8	7/29/2010 8:00	43	mostly cloudy	73	73	72	96	4	29.86	0	7/29/2010 8:00	127.10
2010	7	29	9	7/29/2010 9:00	43	mostly cloudy	74	74	73	97	5	29.85	0	7/29/2010 9:00	339.70
2010	7	29	10	7/29/2010 10:00	43	mostly cloudy	78	78	74	87	9	29.86	0	7/29/2010 10:00	292.80
2010	7	29	11	7/29/2010 11:00	6	cloudy	79	79	75	88	7	29.85	4	7/29/2010 11:00	466.10
2010	7	29	12	7/29/2010 12:00	50	partly cloudy	81	86	74	79	8	29.86	3	7/29/2010 12:00	913.90
2010	7	29	13	7/29/2010 13:00	43	mostly cloudy	84	90	72	67	10	29.83	0	7/29/2010 13:00	973.90
2010	7	29	14	7/29/2010 14:00	81	thunder in the vicinity	86	93	73	66	10	29.81	3	7/29/2010 14:00	665.50
2010	7	29	15	7/29/2010 15:00	50	partly cloudy	82	88	74	76	10	29.81	0	7/29/2010 15:00	838.40
2010	7	29	16	7/29/2010 16:00	10	fair	87	94	73	63	10	29.8	3	7/29/2010 16:00	601.40
2010	7	29	17	7/29/2010 17:00	10	fair	87	88	64	46	10	29.79	7	7/29/2010 17:00	377.60
2010	7	29	18	7/29/2010 18:00	10	fair	87	87	61	41	10	29.81	7	7/29/2010 18:00	159.30
2010	7	29	19	7/29/2010 19:00	10	fair	84	83	58	41	10	29.82	6	7/29/2010 19:00	27.00
2010	7	29	20	7/29/2010 20:00	74	sunny	79	79	61	54	10	29.82	0	7/29/2010 20:00	0.30
2010	7	29	21	7/29/2010 21:00	3	clear	71	71	63	75	10	29.84	0	7/29/2010 21:00	0.00
2010	7	29	22	7/29/2010 22:00	3	clear	69	69	64	84	10	29.87	0	7/29/2010 22:00	0.00
2010	7	29	23	7/29/2010 23:00	3	clear	68	68	62	81	10	29.88	3	7/29/2010 23:00	0.00
2010	7	30	0	7/30/2010 0:00	3	clear	71	71	56	59	10	29.88	6	7/30/2010 0:00	0.00
2010	7	30	1	7/30/2010 1:00	3	clear	70	70	54	57	10	29.9	3	7/30/2010 1:00	0.00
2010	7	30	2	7/30/2010 2:00	3	clear	67	67	54	63	10	29.91	3	7/30/2010 2:00	0.00
2010	7	30	3	7/30/2010 3:00	3	clear	61	61	56	83	10	29.9	0	7/30/2010 3:00	0.00
2010	7	30	4	7/30/2010 4:00	3	clear	57	57	56	96	10	29.9	0	7/30/2010 4:00	0.00
2010	7	30	5	7/30/2010 5:00	3	clear	59	59	56	90	10	29.9	0	7/30/2010 5:00	0.00
2010	7	30	6	7/30/2010 6:00	74	sunny	58	58	56	93	10	29.92	0	7/30/2010 6:00	18.30
2010	7	30	7	7/30/2010 7:00	74	sunny	59	59	57	93	10	29.93	0	7/30/2010 7:00	166.20
2010	7	30	8	7/30/2010 8:00	74	sunny	67	67	58	73	10	29.94	3	7/30/2010 8:00	443.40
2010	7	30	9	7/30/2010 9:00	74	sunny	71	71	58	63	10	29.94	6	7/30/2010 9:00	704.60
2010	7	30	10	7/30/2010 10:00	74	sunny	75	75	56	51	10	29.94	6	7/30/2010 10:00	889.40
2010	7	30	11	7/30/2010 11:00	74	sunny	77	77	55	47	10	29.94	3	7/30/2010 11:00	1007.60
2010	7	30	12	7/30/2010 12:00	74	sunny	78	78	55	45	10	29.93	0	7/30/2010 12:00	839.90
2010	7	30	13	7/30/2010 13:00	74	sunny	81	81	54	39	10	29.92	6	7/30/2010 13:00	862.10
2010	7	30	14	7/30/2010 14:00	43	mostly cloudy	79	79	57	47	10	29.91	3	7/30/2010 14:00	811.10
2010	7	30	15	7/30/2010 15:00	50	partly cloudy	79	79	58	48	10	29.91	3	7/30/2010 15:00	556.50
2010	7	30	16	7/30/2010 16:00	43	mostly cloudy	79	79	58	48	10	29.89	0	7/30/2010 16:00	599.60
2010	7	30	17	7/30/2010 17:00	50	partly cloudy	82	82	56	41	10	29.88	3	7/30/2010 17:00	279.00
2010	7	30	18	7/30/2010 18:00	43	mostly cloudy	78	78	61	56	10	29.88	0	7/30/2010 18:00	183.30
2010	7	30	19	7/30/2010 19:00	50	partly cloudy	81	81	57	44	10	29.88	3	7/30/2010 19:00	55.20
2010	7	30	20	7/30/2010 20:00	10	fair	71	71	63	75	10	29.88	0	7/30/2010 20:00	0.20
2010	7	30	21	7/30/2010 21:00	3	clear	68	68	63	84	10	29.9	0	7/30/2010 21:00	0.00
2010	7	30	22	7/30/2010 22:00	10	fair	66	66	63	90	10	29.91	0	7/30/2010 22:00	0.00
2010	7	30	23	7/30/2010 23:00	3	clear	64	64	63	96	10	29.92	3	7/30/2010 23:00	0.00
2010	7	31	0	7/31/2010 0:00	43	mostly cloudy	63	63	62	97	10	29.92	3	7/31/2010 0:00	0.00
2010	7	31	1	7/31/2010 1:00	50	partly cloudy	62	62	61	96	9	29.94	0	7/31/2010 1:00	0.00
2010	7	31	2	7/31/2010 2:00	6	cloudy	64	64	60	87	10	29.93	0	7/31/2010 2:00	0.00
2010	7	31	3	7/31/2010 3:00	43	mostly cloudy	63	63	59	87	10	29.93	0	7/31/2010 3:00	0.00
2010	7	31	4	7/31/2010 4:00	10	fair	60	60	59	96	10	29.93	0	7/31/2010 4:00	0.00
2010	7	31	5	7/31/2010 5:00	50	partly cloudy	58	58	58	100	10	29.94	0	7/31/2010 5:00	0.00
2010	7	31	6	7/31/2010 6:00	43	mostly cloudy	59	59	57	93	10	29.95	0	7/31/2010 6:00	39.20
2010	7	31	7	7/31/2010 7:00	74	sunny	59	59	56	90	10	29.96	0	7/31/2010 7:00	199.00
2010	7	31	8	7/31/2010 8:00	10	fair	66	66	54	65	10	29.97	3	7/31/2010 8:00	346.70
2010	7	31	9	7/31/2010 9:00	50	partly cloudy	69	69	53	57	10	29.97	5	7/31/2010 9:00	678.80
2010	7	31	10	7/31/2010 10:00	10	fair	72	72	53	51	10	29.96	5	7/31/2010 10:00	832.90
2010	7	31	11	7/31/2010 11:00	43	mostly cloudy	75	75	53	46	10	29.97	3	7/31/2010 11:00	1037.30
2010	7	31	12	7/31/2010 12:00	74	sunny	77	77	54	45	10	29.95	4	7/31/2010 12:00	800.50
2010	7	31	13	7/31/2010 13:00	10	fair	79	79	56	45	10	29.94	0	7/31/2010 13:00	888.60
2010	7	31	14	7/31/2010 14:00	74	sunny	80	80	54	40	10	29.93	0	7/31/2010 14:00	748.30
2010	7	31	15	7/31/2010 15:00	74	sunny	81	81	54	39	10	29.92	6	7/31/2010 15:00	754.20
2010	7	31	16	7/31/2010 16:00	74	sunny	81	81	54	39	10	29.92	0	7/31/2010 16:00	515.10
2010	7	31	17	7/31/2010 17:00	74	sunny	83	82	56	39	10	29.9	5	7/31/2010 17:00	408.40
2010	7	31	18	7/31/2010 18:00	10	fair	81	81	54	39	10	29.9	6	7/31/2010 18:00	95.10
2010	7	31	19	7/31/2010 19:00	10	fair	80	80	56	43	10	29.9	0	7/31/2010 19:00	36.90
2010	7	31	20	7/31/2010 20:00	50	partly cloudy	72	72	64	76	10	29.9	0	7/31/2010 20:00	0.20
2010	7	31	21	7/31/2010 21:00	10	fair	73	73	56	55	10	29.92	3	7/31/2010 21:00	0.00
2010	7	31	22	7/31/2010 22:00	50	partly cloudy	70	70	53	55	10	29.94	5	7/31/2010 22:00	0.00
2010	7	31	23	7/31/2010 23:00	50	partly cloudy	68	68	55	63	10	29.96	3	7/31/2010 23:00	0.00
