2010-07-12 00:00:00 54071 0 0.00 0.00 0.00 0.0 0.00	80.6445788571	0.00	0.00	Mostly_Clear(clear)	False	False	0.00
2010-07-12 01:00:00 54120 1 0.00 0.00 0.00 0.0 0.00	77.1288743883	0.00	0.00	Clear(clear)	True	False	0.00
2010-07-12 02:00:00 54169 2 0.00 0.00 0.00 0.0 0.00	77.1288743883	0.00	0.00	Clear(clear)	True	False	0.00
2010-07-12 03:00:00 54218 3 0.00 0.00 0.00 0.0 0.00	77.1288743883	0.00	0.00	Clear(clear)	True	False	0.00
2010-07-12 04:00:00 54267 4 0.00 0.00 0.00 0.0 0.00	77.1288743883	0.00	0.00	Clear(fog)	True	False	0.00
2010-07-12 05:00:00 54316 5 0.23 0.23 0.23 0.0 0.30	77.1288743883	0.23	0.00	Clear(fair)	True	False	0.00
2010-07-12 06:00:00 54365 6 60.07 60.07 60.07 77.7 77.70	77.3125169209	60.07	77.70	Sunny(sunny)	True	False	77.70
2010-07-12 07:00:00 54414 7 160.35 160.35 160.35 186.0 207.40	77.3125169209	160.35	186.00	Sunny(sunny)	True	False	186.00
2010-07-12 08:00:00 54463 8 375.66 375.66 375.66 454.0 485.90	77.3125169209	375.66	454.00	Sunny(sunny)	True	False	454.00
2010-07-12 09:00:00 54512 9 576.06 576.06 576.06 518.0 745.10	77.3125169209	576.06	518.00	Sunny(sunny)	True	False	518.00
2010-07-12 10:00:00 54561 10 710.89 710.89 710.89 597.2 919.50	77.3125169209	710.89	597.20	Mostly_Sunny(partly_cloudy)	False	False	597.20
2010-07-12 11:00:00 54610 11 803.20 803.20 803.20 898.0 1038.90	77.3125169209	803.20	898.00	Mostly_Sunny(mostly_cloudy)	False	False	898.00
2010-07-12 12:00:00 54659 12 856.70 856.70 856.70 1031.2 1108.10	77.3125169209	856.70	1031.20	Mostly_Sunny(partly_cloudy)	False	False	1031.20
2010-07-12 13:00:00 54708 13 829.33 829.33 829.33 927.1 1107.70	74.8695559578	829.33	927.10	Partly_Cloudy(fair)	True	False	927.10
2010-07-12 14:00:00 54757 14 793.92 793.92 793.92 907.1 1060.40	74.8695559578	793.92	907.10	Partly_Cloudy(sunny)	True	False	907.10
2010-07-12 15:00:00 54806 15 703.10 703.10 703.10 485.2 939.10	74.8695559578	703.10	485.20	Partly_Cloudy(sunny)	True	False	485.20
2010-07-12 16:00:00 54855 16 458.70 458.70 458.70 399.8 758.90	60.4422604423	458.70	399.80	Mostly_Cloudy(partly_cloudy)	True	False	399.80
2010-07-12 17:00:00 54904 17 301.43 301.43 301.43 220.2 498.70	60.4422604423	301.43	220.20	Mostly_Cloudy(mostly_cloudy)	True	False	220.20
2010-07-12 18:00:00 54953 18 136.48 136.48 136.48 71.7 225.80	60.4422604423	136.48	71.70	Mostly_Cloudy(mostly_cloudy)	True	False	71.70
2010-07-12 19:00:00 55002 19 49.20 49.20 66.10 9.2 81.40	60.4422604423	66.10	9.20	Mostly_Cloudy(mostly_cloudy)	True	False	9.20
2010-07-12 20:00:00 55051 20 4.11 4.11 5.52 0.0 6.80	60.4422604423	5.52	0.00	Mostly_Cloudy(fair)	True	False	0.00
2010-07-12 21:00:00 55100 21 0.00 0.00 0.00 0.0 0.00	60.4422604423	0.00	0.00	Mostly_Cloudy(light_rain)	True	False	0.00
2010-07-12 22:00:00 55149 22 0.00 0.00 0.00 0.0 0.00	60.4422604423	0.00	0.00	Mostly_Cloudy(mostly_cloudy)	True	False	0.00
2010-07-12 23:00:00 55198 23 0.00 0.00 0.00 0.0 0.00	27.3693534101	0.00	0.00	Isolated_T-Storms(light_rain)	True	False	0.00
2010-07-13 00:00:00 55247 0 0.00 0.00 0.00 0.0 0.00	27.3693534101	0.00	0.00	Isolated_T-Storms(light_rain)	True	False	0.00
2010-07-13 01:00:00 55296 1 0.00 0.00 0.00 0.0 0.00	27.3693534101	0.00	0.00	Isolated_T-Storms(cloudy)	True	False	0.00
2010-07-13 02:00:00 55345 2 0.00 0.00 0.00 0.0 0.00	27.3693534101	0.00	0.00	Isolated_T-Storms(cloudy)	True	False	0.00
2010-07-13 03:00:00 55394 3 0.00 0.00 0.00 0.0 0.00	27.3693534101	0.00	0.00	Isolated_T-Storms(mostly_cloudy)	True	False	0.00
2010-07-13 04:00:00 55443 4 0.00 0.00 0.00 0.0 0.00	22.7933391087	0.00	0.00	Showers(mostly_cloudy)	True	False	0.00
2010-07-13 05:00:00 55492 5 0.07 0.07 0.07 0.0 0.30	22.7933391087	0.07	0.00	Showers(mostly_cloudy)	True	False	0.00
2010-07-13 06:00:00 55541 6 17.71 17.71 17.71 53.8 77.70	22.7933391087	17.71	53.80	Showers(partly_cloudy)	True	False	53.80
2010-07-13 07:00:00 55590 7 47.27 47.27 47.27 101.4 207.40	22.7933391087	47.27	101.40	Showers(partly_cloudy)	True	False	101.40
2010-07-13 08:00:00 55639 8 110.75 110.75 110.75 173.7 485.90	22.7933391087	110.75	173.70	Showers(mostly_cloudy)	True	False	173.70
2010-07-13 09:00:00 55688 9 169.83 169.83 169.83 209.4 745.10	22.7933391087	169.83	209.40	Showers(cloudy)	True	False	209.40
2010-07-13 10:00:00 55737 10 209.58 209.58 209.58 119.2 919.50	22.7933391087	209.58	119.20	Showers(mostly_cloudy)	True	False	119.20
2010-07-13 11:00:00 55786 11 236.80 236.80 236.80 32.1 1038.90	22.7933391087	236.80	32.10	Showers(heavy_rain)	True	False	32.10
2010-07-13 12:00:00 55835 12 252.57 252.57 252.57 203.2 1108.10	22.7933391087	252.57	203.20	Showers(heavy_rain)	True	False	203.20
2010-07-13 13:00:00 55884 13 230.09 230.09 230.09 902.3 1107.70	20.7721587819	230.09	902.30	Scattered_T-Storms(mostly_cloudy)	True	False	902.30
2010-07-13 14:00:00 55933 14 220.27 220.27 220.27 669.2 1060.40	20.7721587819	220.27	669.20	Scattered_T-Storms(partly_cloudy)	True	False	669.20
2010-07-13 15:00:00 55982 15 195.07 195.07 195.07 490.0 939.10	20.7721587819	195.07	490.00	Scattered_T-Storms(mostly_cloudy)	True	False	490.00
2010-07-13 16:00:00 56031 16 231.31 98.38 231.31 308.9 758.90	30.4792460397	231.31	308.90	Scattered_T-Storms(partly_cloudy)	True	False	308.90
2010-07-13 17:00:00 56080 17 152.00 15.41 152.00 274.5 498.70	30.4792460397	152.00	274.50	Scattered_T-Storms(mostly_cloudy)	True	False	274.50
2010-07-13 18:00:00 56129 18 68.82 41.41 68.82 225.8 225.80	30.4792460397	68.82	225.80	Scattered_T-Storms(partly_cloudy)	True	False	225.80
2010-07-13 19:00:00 56178 19 24.81 66.31 66.31 39.8 81.40	30.4792460397	66.31	39.80	Scattered_T-Storms(partly_cloudy)	True	False	39.80
2010-07-13 20:00:00 56227 20 2.07 4.29 4.29 0.0 6.80	30.4792460397	4.29	0.00	Scattered_T-Storms(partly_cloudy)	True	False	0.00
2010-07-13 21:00:00 56276 21 0.00 0.00 0.00 0.0 0.00	30.4792460397	0.00	0.00	Scattered_T-Storms(mostly_cloudy)	True	False	0.00
2010-07-13 22:00:00 56325 22 0.00 0.00 0.00 0.0 0.00	30.4792460397	0.00	0.00	Scattered_T-Storms(mostly_cloudy)	True	False	0.00
2010-07-13 23:00:00 56374 23 0.00 0.00 0.00 0.0 0.00	30.4792460397	0.00	0.00	Scattered_T-Storms(rain)	True	False	0.00
2010-07-14 00:00:00 56423 0 0.00 0.00 0.00 0.0 0.00	30.4792460397	0.00	0.00	Scattered_T-Storms(partly_cloudy)	True	False	0.00
2010-07-14 01:00:00 56472 1 0.00 0.00 0.00 0.0 0.00	30.4792460397	0.00	0.00	Scattered_T-Storms(fog)	True	False	0.00
2010-07-14 02:00:00 56521 2 0.00 0.00 0.00 0.0 0.00	30.4792460397	0.00	0.00	Scattered_T-Storms(fog)	True	False	0.00
2010-07-14 03:00:00 56570 3 0.00 0.00 0.00 0.0 0.00	30.4792460397	0.00	0.00	Scattered_T-Storms(fog)	True	False	0.00
2010-07-14 04:00:00 56619 4 0.00 0.00 0.00 0.0 0.00	30.4792460397	0.00	0.00	Scattered_T-Storms(fog)	True	False	0.00
2010-07-14 05:00:00 56668 5 0.09 0.09 0.09 0.0 0.30	30.4792460397	0.09	0.00	Scattered_T-Storms(light_rain)	True	False	0.00
2010-07-14 06:00:00 56717 6 21.27 21.27 21.27 0.0 77.70	27.3693534101	21.27	0.00	Scattered_T-Storms(light_rain)	True	False	0.00
2010-07-14 07:00:00 56766 7 47.27 47.27 47.27 69.3 207.40	22.7933391087	47.27	69.30	T-Showers(mostly_cloudy)	True	False	69.30
2010-07-14 08:00:00 56815 8 110.75 110.75 110.75 118.7 485.90	22.7933391087	110.75	118.70	T-Showers(light_rain)	True	False	118.70
2010-07-14 09:00:00 56864 9 169.83 169.83 169.83 272.1 745.10	22.7933391087	169.83	272.10	T-Showers(light_rain)	True	False	272.10
2010-07-14 10:00:00 56913 10 191.00 191.00 191.00 508.0 919.50	20.7721587819	191.00	508.00	T-Storms(rain)	True	False	508.00
2010-07-14 11:00:00 56962 11 236.80 236.80 236.80 635.2 1038.90	22.7933391087	236.80	635.20	Rain_/_Thunder(light_rain)	True	False	635.20
2010-07-14 12:00:00 57011 12 252.57 252.57 252.57 410.0 1108.10	22.7933391087	252.57	410.00	Rain_/_Thunder(light_rain)	True	False	410.00
2010-07-14 13:00:00 57060 13 230.09 230.09 230.09 110.6 1107.70	20.7721587819	230.09	110.60	Scattered_T-Storms(cloudy)	True	False	110.60
2010-07-14 14:00:00 57109 14 220.27 220.27 220.27 219.0 1060.40	20.7721587819	220.27	219.00	Scattered_T-Storms(light_rain)	True	False	219.00
2010-07-14 15:00:00 57158 15 195.07 195.07 195.07 61.9 939.10	20.7721587819	195.07	61.90	Scattered_T-Storms(cloudy)	True	False	61.90
2010-07-14 16:00:00 57207 16 207.71 419.27 419.27 122.2 758.90	27.3693534101	419.27	122.20	Scattered_T-Storms(cloudy)	True	False	122.20
2010-07-14 17:00:00 57256 17 136.49 304.91 304.91 161.6 498.70	27.3693534101	304.91	161.60	Scattered_T-Storms(mostly_cloudy)	True	False	161.60
2010-07-14 18:00:00 57305 18 61.80 83.55 83.55 125.7 225.80	27.3693534101	83.55	125.70	Scattered_T-Storms(mostly_cloudy)	True	False	125.70
2010-07-14 19:00:00 57354 19 22.28 8.13 8.13 51.3 81.40	27.3693534101	8.13	51.30	Scattered_T-Storms(mostly_cloudy)	True	False	51.30
2010-07-14 20:00:00 57403 20 1.86 1.40 1.40 6.8 6.80	27.3693534101	1.40	6.80	Scattered_T-Storms(mostly_cloudy)	True	False	6.80
2010-07-14 21:00:00 57452 21 0.00 0.00 0.00 0.0 0.00	27.3693534101	0.00	0.00	Scattered_T-Storms(cloudy)	True	False	0.00
2010-07-14 22:00:00 57501 22 0.00 0.00 0.00 0.0 0.00	27.3693534101	0.00	0.00	Isolated_T-Storms(partly_cloudy)	True	False	0.00
2010-07-14 23:00:00 57550 23 0.00 0.00 0.00 0.0 0.00	27.3693534101	0.00	0.00	Isolated_T-Storms(fair)	True	False	0.00
2010-07-15 00:00:00 57599 0 0.00 0.00 0.00 0.0 0.00	27.3693534101	0.00	0.00	Isolated_T-Storms(clear)	True	False	0.00
2010-07-15 01:00:00 57648 1 0.00 0.00 0.00 0.0 0.00	74.3959957648	0.00	0.00	Partly_Cloudy(fog)	True	False	0.00
2010-07-15 02:00:00 57697 2 0.00 0.00 0.00 0.0 0.00	74.3959957648	0.00	0.00	Partly_Cloudy(cloudy)	True	False	0.00
2010-07-15 03:00:00 57746 3 0.00 0.00 0.00 0.0 0.00	74.3959957648	0.00	0.00	Partly_Cloudy(partly_cloudy)	True	False	0.00
2010-07-15 04:00:00 57795 4 0.00 0.00 0.00 0.0 0.00	74.3959957648	0.00	0.00	Partly_Cloudy(fair)	True	False	0.00
2010-07-15 05:00:00 57844 5 0.22 0.22 0.22 0.0 0.30	74.3959957648	0.22	0.00	Partly_Cloudy(clear)	True	False	0.00
2010-07-15 06:00:00 57893 6 57.73 57.73 57.73 10.1 77.70	74.2951224532	57.73	10.10	Partly_Cloudy(cloudy)	True	False	10.10
2010-07-15 07:00:00 57942 7 154.09 154.09 154.09 141.2 207.40	74.2951224532	154.09	141.20	Partly_Cloudy(cloudy)	True	False	141.20
2010-07-15 08:00:00 57991 8 361.00 361.00 361.00 247.0 485.90	74.2951224532	361.00	247.00	Partly_Cloudy(partly_cloudy)	True	False	247.00
2010-07-15 09:00:00 58040 9 553.57 553.57 553.57 232.3 745.10	74.2951224532	553.57	232.30	Partly_Cloudy(cloudy)	True	False	232.30
2010-07-15 10:00:00 58089 10 693.88 693.88 693.88 427.8 919.50	75.4625033842	693.88	427.80	Partly_Cloudy(cloudy)	True	False	427.80
2010-07-15 11:00:00 58138 11 783.98 783.98 783.98 590.3 1038.90	75.4625033842	783.98	590.30	Partly_Cloudy(mostly_cloudy)	True	False	590.30
2010-07-15 12:00:00 58187 12 836.20 836.20 836.20 575.1 1108.10	75.4625033842	836.20	575.10	Partly_Cloudy(fair)	True	False	575.10
2010-07-15 13:00:00 58236 13 835.90 835.90 835.90 499.9 1107.70	75.4625033842	835.90	499.90	Partly_Cloudy(fair)	True	False	499.90
2010-07-15 14:00:00 58285 14 800.20 800.20 800.20 671.5 1060.40	75.4625033842	800.20	671.50	Partly_Cloudy(mostly_cloudy)	True	False	671.50
2010-07-15 15:00:00 58334 15 708.67 292.78 708.67 723.7 939.10	75.4625033842	708.67	723.70	Partly_Cloudy(partly_cloudy)	True	False	723.70
2010-07-15 16:00:00 58383 16 563.83 353.08 563.83 629.9 758.90	74.2951224532	563.83	629.90	Partly_Cloudy(fair)	True	False	629.90
2010-07-15 17:00:00 58432 17 370.51 283.36 370.51 371.2 498.70	74.2951224532	370.51	371.20	Partly_Cloudy(fair)	True	False	371.20
2010-07-15 18:00:00 58481 18 167.76 117.19 167.76 190.2 225.80	74.2951224532	167.76	190.20	Partly_Cloudy(fair)	True	False	190.20
2010-07-15 19:00:00 58530 19 60.48 36.74 60.48 32.3 81.40	74.2951224532	60.48	32.30	Mostly_Sunny(fair)	False	False	32.30
2010-07-15 20:00:00 58579 20 5.05 4.31 5.05 0.0 6.80	74.2951224532	5.05	0.00	Mostly_Sunny(sunny)	False	False	0.00
2010-07-15 21:00:00 58628 21 0.00 0.00 0.00 0.0 0.00	74.2951224532	0.00	0.00	Mostly_Clear(clear)	False	False	0.00
2010-07-15 22:00:00 58677 22 0.00 0.00 0.00 0.0 0.00	74.2951224532	0.00	0.00	Partly_Cloudy(clear)	True	False	0.00
2010-07-15 23:00:00 58726 23 0.00 0.00 0.00 0.0 0.00	74.2951224532	0.00	0.00	Partly_Cloudy(fair)	True	False	0.00
2010-07-16 00:00:00 58775 0 0.00 0.00 0.00 0.0 0.00	74.2951224532	0.00	0.00	Partly_Cloudy(clear)	True	False	0.00
2010-07-16 01:00:00 58824 1 0.00 0.00 0.00 0.0 0.00	79.1986282826	0.00	0.00	Clear(partly_cloudy)	True	False	0.00
2010-07-16 02:00:00 58873 2 0.00 0.00 0.00 0.0 0.00	79.1986282826	0.00	0.00	Clear(cloudy)	True	False	0.00
2010-07-16 03:00:00 58922 3 0.00 0.00 0.00 0.0 0.00	79.1986282826	0.00	0.00	Clear(cloudy)	True	False	0.00
2010-07-16 04:00:00 58971 4 0.00 0.00 0.00 0.0 0.00	79.1986282826	0.00	0.00	Clear(cloudy)	True	False	0.00
2010-07-16 05:00:00 59020 5 0.24 0.24 0.24 0.0 0.30	79.1986282826	0.24	0.00	Clear(cloudy)	True	False	0.00
2010-07-16 06:00:00 59069 6 61.56 61.56 61.56 14.2 77.70	79.2248208223	61.56	14.20	Sunny(cloudy)	True	False	14.20
2010-07-16 07:00:00 59118 7 164.31 164.31 164.31 146.1 207.40	79.2248208223	164.31	146.10	Sunny(fair)	True	False	146.10
2010-07-16 08:00:00 59167 8 384.95 384.95 384.95 374.5 485.90	79.2248208223	384.95	374.50	Sunny(cloudy)	True	False	374.50
2010-07-16 09:00:00 59216 9 590.30 590.30 590.30 634.1 745.10	79.2248208223	590.30	634.10	Sunny(cloudy)	True	False	634.10
2010-07-16 10:00:00 59265 10 728.47 728.47 728.47 820.4 919.50	79.2248208223	728.47	820.40	Mostly_Sunny(fair)	False	False	820.40
2010-07-16 11:00:00 59314 11 771.85 771.85 771.85 942.7 1038.90	74.2951224532	771.85	942.70	Mostly_Sunny(sunny)	False	False	942.70
2010-07-16 12:00:00 59363 12 823.26 823.26 823.26 953.4 1108.10	74.2951224532	823.26	953.40	Mostly_Sunny(fair)	False	False	953.40
2010-07-16 13:00:00 59412 13 947.56 947.56 947.56 638.1 1107.70	85.5431912486	947.56	638.10	Sunny(sunny)	True	False	638.10
2010-07-16 14:00:00 59461 14 907.10 907.10 907.10 952.4 1060.40	85.5431912486	907.10	952.40	Sunny(partly_cloudy)	True	False	952.40
2010-07-16 15:00:00 59510 15 803.34 803.34 803.34 791.1 939.10	85.5431912486	803.34	791.10	Sunny(sunny)	True	False	791.10
2010-07-16 16:00:00 59559 16 563.83 563.83 563.83 450.5 758.90	74.2951224532	563.83	450.50	Partly_Cloudy(fair)	True	False	450.50
2010-07-16 17:00:00 59608 17 370.51 370.51 370.51 324.1 498.70	74.2951224532	370.51	324.10	Partly_Cloudy(fair)	True	False	324.10
2010-07-16 18:00:00 59657 18 167.76 167.76 167.76 147.2 225.80	74.2951224532	167.76	147.20	Partly_Cloudy(sunny)	True	False	147.20
2010-07-16 19:00:00 59706 19 22.28 46.89 22.28 13.1 81.40	27.3693534101	22.28	13.10	Isolated_T-Storms(fair)	True	False	13.10
2010-07-16 20:00:00 59755 20 1.86 5.82 1.86 1.0 6.80	27.3693534101	1.86	1.00	Isolated_T-Storms(partly_cloudy)	True	False	1.00
2010-07-16 21:00:00 59804 21 0.00 0.00 0.00 0.0 0.00	27.3693534101	0.00	0.00	Isolated_T-Storms(partly_cloudy)	True	False	0.00
2010-07-16 22:00:00 59853 22 0.00 0.00 0.00 0.0 0.00	27.3693534101	0.00	0.00	Scattered_T-Storms(partly_cloudy)	True	False	0.00
2010-07-16 23:00:00 59902 23 0.00 0.00 0.00 0.0 0.00	27.3693534101	0.00	0.00	Scattered_T-Storms(partly_cloudy)	True	False	0.00
2010-07-17 00:00:00 59951 0 0.00 0.00 0.00 0.0 0.00	27.3693534101	0.00	0.00	Scattered_T-Storms(partly_cloudy)	True	False	0.00
2010-07-17 01:00:00 60000 1 0.00 0.00 0.00 0.0 0.00	58.4307808374	0.00	0.00	Mostly_Cloudy(mostly_cloudy)	True	False	0.00
2010-07-17 02:00:00 60049 2 0.00 0.00 0.00 0.0 0.00	58.4307808374	0.00	0.00	Mostly_Cloudy(partly_cloudy)	True	False	0.00
2010-07-17 03:00:00 60098 3 0.00 0.00 0.00 0.0 0.00	58.4307808374	0.00	0.00	Mostly_Cloudy(partly_cloudy)	True	False	0.00
2010-07-17 04:00:00 60147 4 0.00 0.00 0.00 0.0 0.00	74.2951224532	0.00	0.00	Partly_Cloudy(partly_cloudy)	True	False	0.00
2010-07-17 05:00:00 60196 5 0.22 0.22 0.22 0.0 0.30	74.2951224532	0.22	0.00	Partly_Cloudy(partly_cloudy)	True	False	0.00
2010-07-17 06:00:00 60245 6 57.36 57.36 57.36 8.9 77.70	73.8263950399	57.36	8.90	Partly_Cloudy(fog)	True	False	8.90
2010-07-17 07:00:00 60294 7 164.40 164.40 164.40 180.8 207.40	79.2665319087	164.40	180.80	Sunny(sunny)	True	False	180.80
2010-07-17 08:00:00 60343 8 385.16 385.16 385.16 425.3 485.90	79.2665319087	385.16	425.30	Sunny(sunny)	True	False	425.30
2010-07-17 09:00:00 60392 9 590.61 590.61 590.61 661.6 745.10	79.2665319087	590.61	661.60	Sunny(sunny)	True	False	661.60
2010-07-17 10:00:00 60441 10 786.57 786.57 786.57 845.5 919.50	85.5431912486	786.57	845.50	Sunny(sunny)	True	False	845.50
2010-07-17 11:00:00 60490 11 888.71 888.71 888.71 957.9 1038.90	85.5431912486	888.71	957.90	Sunny(sunny)	True	False	957.90
2010-07-17 12:00:00 60539 12 947.90 947.90 947.90 856.7 1108.10	85.5431912486	947.90	856.70	Sunny(sunny)	True	False	856.70
2010-07-17 13:00:00 60588 13 947.56 947.56 947.56 969.2 1107.70	85.5431912486	947.56	969.20	Sunny(sunny)	True	False	969.20
2010-07-17 14:00:00 60637 14 907.10 907.10 907.10 857.4 1060.40	85.5431912486	907.10	857.40	Sunny(sunny)	True	False	857.40
2010-07-17 15:00:00 60686 15 803.34 803.34 803.34 743.0 939.10	85.5431912486	803.34	743.00	Sunny(partly_cloudy)	True	False	743.00
2010-07-17 16:00:00 60735 16 649.19 649.19 649.19 642.6 758.90	85.5431912486	649.19	642.60	Mostly_Sunny(partly_cloudy)	False	False	642.60
2010-07-17 17:00:00 60784 17 426.60 426.60 426.60 372.3 498.70	85.5431912486	426.60	372.30	Mostly_Sunny(fair)	False	False	372.30
2010-07-17 18:00:00 60833 18 193.16 193.16 193.16 166.7 225.80	85.5431912486	193.16	166.70	Mostly_Sunny(partly_cloudy)	False	False	166.70
2010-07-17 19:00:00 60882 19 69.63 69.63 69.63 62.1 81.40	85.5431912486	69.63	62.10	Mostly_Sunny(mostly_cloudy)	False	False	62.10
2010-07-17 20:00:00 60931 20 5.02 5.02 5.02 1.4 6.80	73.8263950399	5.02	1.40	Partly_Cloudy(fair)	True	False	1.40
2010-07-17 21:00:00 60980 21 0.00 0.00 0.00 0.0 0.00	73.8263950399	0.00	0.00	Partly_Cloudy(clear)	True	False	0.00
2010-07-17 22:00:00 61029 22 0.00 0.00 0.00 0.0 0.00	73.8263950399	0.00	0.00	Partly_Cloudy(clear)	True	False	0.00
2010-07-17 23:00:00 61078 23 0.00 0.00 0.00 0.0 0.00	73.8263950399	0.00	0.00	Partly_Cloudy(clear)	True	False	0.00
2010-07-18 00:00:00 61127 0 0.00 0.00 0.00 0.0 0.00	73.8263950399	0.00	0.00	Partly_Cloudy(clear)	True	False	0.00
2010-07-18 01:00:00 61176 1 0.00 0.00 0.00 0.0 0.00	73.8263950399	0.00	0.00	Partly_Cloudy(clear)	True	False	0.00
2010-07-18 02:00:00 61225 2 0.00 0.00 0.00 0.0 0.00	73.8263950399	0.00	0.00	Partly_Cloudy(partly_cloudy)	True	False	0.00
2010-07-18 03:00:00 61274 3 0.00 0.00 0.00 0.0 0.00	73.8263950399	0.00	0.00	Partly_Cloudy(clear)	True	False	0.00
2010-07-18 04:00:00 61323 4 0.00 0.00 0.00 0.0 0.00	73.8263950399	0.00	0.00	Partly_Cloudy(fair)	True	False	0.00
2010-07-18 05:00:00 61372 5 0.15 0.15 0.15 0.0 0.20	73.8263950399	0.15	0.00	Partly_Cloudy(fair)	True	False	0.00
2010-07-18 06:00:00 61421 6 57.81 57.81 57.81 24.2 77.70	74.3959957648	57.81	24.20	Partly_Cloudy(fog)	True	False	24.20
2010-07-18 07:00:00 61470 7 154.30 154.30 154.30 176.8 207.40	74.3959957648	154.30	176.80	Partly_Cloudy(sunny)	True	False	176.80
2010-07-18 08:00:00 61519 8 361.49 361.49 361.49 422.5 485.90	74.3959957648	361.49	422.50	Partly_Cloudy(sunny)	True	False	422.50
2010-07-18 09:00:00 61568 9 554.32 554.32 554.32 661.7 745.10	74.3959957648	554.32	661.70	Partly_Cloudy(sunny)	True	False	661.70
2010-07-18 10:00:00 61617 10 736.84 736.84 736.84 861.5 919.50	80.1350048216	736.84	861.50	Mostly_Sunny(sunny)	False	False	861.50
2010-07-18 11:00:00 61666 11 832.52 832.52 832.52 832.1 1038.90	80.1350048216	832.52	832.10	Mostly_Sunny(fair)	False	False	832.10
2010-07-18 12:00:00 61715 12 887.98 887.98 887.98 1019.8 1108.10	80.1350048216	887.98	1019.80	Mostly_Sunny(partly_cloudy)	False	False	1019.80
2010-07-18 13:00:00 61764 13 824.08 824.08 824.08 974.1 1107.70	74.3959957648	824.08	974.10	Mostly_Sunny(sunny)	False	False	974.10
2010-07-18 14:00:00 61813 14 788.90 788.90 788.90 767.6 1060.40	74.3959957648	788.90	767.60	Mostly_Sunny(fair)	False	False	767.60
2010-07-18 15:00:00 61862 15 825.83 825.83 825.83 831.6 939.10	87.938972646	825.83	831.60	Mostly_Sunny(sunny)	False	False	831.60
2010-07-18 16:00:00 61911 16 667.37 667.37 667.37 566.3 758.90	87.938972646	667.37	566.30	Mostly_Sunny(sunny)	False	False	566.30
2010-07-18 17:00:00 61960 17 438.55 438.55 399.43 425.6 498.70	80.0943305419	399.43	425.60	Mostly_Sunny(sunny)	False	False	425.60
2010-07-18 18:00:00 62009 18 198.57 198.57 198.57 195.5 225.80	87.938972646	198.57	195.50	Mostly_Sunny(sunny)	False	False	195.50
2010-07-18 19:00:00 62058 19 65.23 65.23 71.58 40.3 81.40	80.1350048216	71.58	40.30	Sunny(sunny)	True	False	40.30
2010-07-18 20:00:00 62107 20 5.45 5.45 4.92 0.5 6.80	80.1350048216	4.92	0.50	Sunny(sunny)	True	False	0.50
2010-07-18 21:00:00 62156 21 0.00 0.00 0.00 0.0 0.00	80.1350048216	0.00	0.00	Clear(clear)	True	False	0.00
2010-07-18 22:00:00 62205 22 0.00 0.00 0.00 0.0 0.00	80.1350048216	0.00	0.00	Clear(clear)	True	False	0.00
2010-07-18 23:00:00 62254 23 0.00 0.00 0.00 0.0 0.00	80.1350048216	0.00	0.00	Clear(partly_cloudy)	True	False	0.00
