2010-07-12 00:00:00 52055 0 0.00 0.00 0.00 0.0 0.00	77.0634814119	0.00	0.00	Clear(clear)	True	False	0.00
2010-07-12 01:00:00 52104 1 0.00 0.00 0.00 0.0 0.00	77.0634814119	0.00	0.00	Clear(clear)	True	False	0.00
2010-07-12 02:00:00 52153 2 0.00 0.00 0.00 0.0 0.00	77.0634814119	0.00	0.00	Clear(clear)	True	False	0.00
2010-07-12 03:00:00 52202 3 0.00 0.00 0.00 0.0 0.00	77.0634814119	0.00	0.00	Clear(clear)	True	False	0.00
2010-07-12 04:00:00 52251 4 0.00 0.00 0.00 0.0 0.00	77.0634814119	0.00	0.00	Clear(fog)	True	False	0.00
2010-07-12 05:00:00 52300 5 0.23 0.23 0.23 0.0 0.30	77.0634814119	0.23	0.00	Clear(fair)	True	False	0.00
2010-07-12 06:00:00 52349 6 59.88 59.88 59.88 77.7 77.70	77.0634814119	59.88	77.70	Sunny(sunny)	True	False	77.70
2010-07-12 07:00:00 52398 7 159.83 159.83 159.83 186.0 207.40	77.0634814119	159.83	186.00	Sunny(sunny)	True	False	186.00
2010-07-12 08:00:00 52447 8 374.45 374.45 374.45 454.0 485.90	77.0634814119	374.45	454.00	Sunny(sunny)	True	False	454.00
2010-07-12 09:00:00 52496 9 574.20 574.20 574.20 518.0 745.10	77.0634814119	574.20	518.00	Sunny(sunny)	True	False	518.00
2010-07-12 10:00:00 52545 10 739.70 739.70 739.70 597.2 919.50	80.4459691252	739.70	597.20	Sunny(partly_cloudy)	True	False	597.20
2010-07-12 11:00:00 52594 11 835.75 835.75 835.75 898.0 1038.90	80.4459691252	835.75	898.00	Sunny(mostly_cloudy)	True	False	898.00
2010-07-12 12:00:00 52643 12 891.42 891.42 891.42 1031.2 1108.10	80.4459691252	891.42	1031.20	Sunny(partly_cloudy)	True	False	1031.20
2010-07-12 13:00:00 52692 13 891.10 891.10 891.10 927.1 1107.70	80.4459691252	891.10	927.10	Mostly_Sunny(fair)	False	False	927.10
2010-07-12 14:00:00 52741 14 853.05 853.05 853.05 907.1 1060.40	80.4459691252	853.05	907.10	Mostly_Sunny(sunny)	False	False	907.10
2010-07-12 15:00:00 52790 15 755.47 755.47 755.47 485.2 939.10	80.4459691252	755.47	485.20	Mostly_Sunny(sunny)	False	False	485.20
2010-07-12 16:00:00 52839 16 450.80 450.80 450.80 399.8 758.90	59.4021124104	450.80	399.80	Mostly_Cloudy(partly_cloudy)	True	False	399.80
2010-07-12 17:00:00 52888 17 296.24 296.24 296.24 220.2 498.70	59.4021124104	296.24	220.20	Mostly_Cloudy(mostly_cloudy)	True	False	220.20
2010-07-12 18:00:00 52937 18 134.13 134.13 134.13 71.7 225.80	59.4021124104	134.13	71.70	Mostly_Cloudy(mostly_cloudy)	True	False	71.70
2010-07-12 19:00:00 52986 19 60.09 60.09 60.09 9.2 81.40	73.8263950399	60.09	9.20	Partly_Cloudy(mostly_cloudy)	True	False	9.20
2010-07-12 20:00:00 53035 20 4.04 4.04 4.04 0.0 6.80	59.4021124104	4.04	0.00	Mostly_Cloudy(fair)	True	False	0.00
2010-07-12 21:00:00 53084 21 0.00 0.00 0.00 0.0 0.00	59.4021124104	0.00	0.00	Mostly_Cloudy(light_rain)	True	False	0.00
2010-07-12 22:00:00 53133 22 0.00 0.00 0.00 0.0 0.00	59.4021124104	0.00	0.00	Mostly_Cloudy(mostly_cloudy)	True	False	0.00
2010-07-12 23:00:00 53182 23 0.00 0.00 0.00 0.0 0.00	59.4021124104	0.00	0.00	Mostly_Cloudy(light_rain)	True	False	0.00
2010-07-13 00:00:00 53231 0 0.00 0.00 0.00 0.0 0.00	58.9373375686	0.00	0.00	Mostly_Cloudy(t-storm)	True	False	0.00
2010-07-13 01:00:00 53280 1 0.00 0.00 0.00 0.0 0.00	24.4288948343	0.00	0.00	Few_Showers(cloudy)	True	False	0.00
2010-07-13 02:00:00 53329 2 0.00 0.00 0.00 0.0 0.00	24.4288948343	0.00	0.00	Isolated_T-Storms(cloudy)	True	False	0.00
2010-07-13 03:00:00 53378 3 0.00 0.00 0.00 0.0 0.00	24.4288948343	0.00	0.00	Isolated_T-Storms(mostly_cloudy)	True	False	0.00
2010-07-13 04:00:00 53427 4 0.00 0.00 0.00 0.0 0.00	22.7933391087	0.00	0.00	Showers(mostly_cloudy)	True	False	0.00
2010-07-13 05:00:00 53476 5 0.07 0.07 0.07 0.0 0.30	22.7933391087	0.07	0.00	Showers(mostly_cloudy)	True	False	0.00
2010-07-13 06:00:00 53525 6 17.71 17.71 17.71 53.8 77.70	22.7933391087	17.71	53.80	Showers(partly_cloudy)	True	False	53.80
2010-07-13 07:00:00 53574 7 47.27 47.27 47.27 101.4 207.40	22.7933391087	47.27	101.40	Showers(partly_cloudy)	True	False	101.40
2010-07-13 08:00:00 53623 8 110.75 110.75 110.75 173.7 485.90	22.7933391087	110.75	173.70	Showers(mostly_cloudy)	True	False	173.70
2010-07-13 09:00:00 53672 9 169.83 169.83 169.83 209.4 745.10	22.7933391087	169.83	209.40	Showers(cloudy)	True	False	209.40
2010-07-13 10:00:00 53721 10 191.00 191.00 191.00 119.2 919.50	20.7721587819	191.00	119.20	Scattered_T-Storms(mostly_cloudy)	True	False	119.20
2010-07-13 11:00:00 53770 11 215.80 215.80 215.80 32.1 1038.90	20.7721587819	215.80	32.10	Scattered_T-Storms(heavy_rain)	True	False	32.10
2010-07-13 12:00:00 53819 12 230.18 230.18 230.18 203.2 1108.10	20.7721587819	230.18	203.20	Scattered_T-Storms(heavy_rain)	True	False	203.20
2010-07-13 13:00:00 53868 13 230.09 230.09 230.09 902.3 1107.70	20.7721587819	230.09	902.30	Scattered_T-Storms(mostly_cloudy)	True	False	902.30
2010-07-13 14:00:00 53917 14 220.27 220.27 220.27 669.2 1060.40	20.7721587819	220.27	669.20	Scattered_T-Storms(partly_cloudy)	True	False	669.20
2010-07-13 15:00:00 53966 15 195.07 195.07 195.07 490.0 939.10	20.7721587819	195.07	490.00	Scattered_T-Storms(mostly_cloudy)	True	False	490.00
2010-07-13 16:00:00 54015 16 185.39 185.39 185.39 308.9 758.90	24.4288948343	185.39	308.90	Scattered_T-Storms(partly_cloudy)	True	False	308.90
2010-07-13 17:00:00 54064 17 121.83 121.83 121.83 274.5 498.70	24.4288948343	121.83	274.50	Scattered_T-Storms(mostly_cloudy)	True	False	274.50
2010-07-13 18:00:00 54113 18 55.16 55.16 55.16 225.8 225.80	24.4288948343	55.16	225.80	Scattered_T-Storms(partly_cloudy)	True	False	225.80
2010-07-13 19:00:00 54162 19 30.38 30.38 30.38 39.8 81.40	37.323037323	30.38	39.80	Cloudy(partly_cloudy)	True	False	39.80
2010-07-13 20:00:00 54211 20 2.54 2.54 2.54 0.0 6.80	37.323037323	2.54	0.00	Cloudy(partly_cloudy)	True	False	0.00
2010-07-13 21:00:00 54260 21 0.00 0.00 0.00 0.0 0.00	37.323037323	0.00	0.00	Cloudy(mostly_cloudy)	True	False	0.00
2010-07-13 22:00:00 54309 22 0.00 0.00 0.00 0.0 0.00	37.323037323	0.00	0.00	Cloudy(mostly_cloudy)	True	False	0.00
2010-07-13 23:00:00 54358 23 0.00 0.00 0.00 0.0 0.00	37.323037323	0.00	0.00	Cloudy(rain)	True	False	0.00
2010-07-14 00:00:00 54407 0 0.00 0.00 0.00 0.0 0.00	27.3693534101	0.00	0.00	Scattered_T-Storms(partly_cloudy)	True	False	0.00
2010-07-14 01:00:00 54456 1 0.00 0.00 0.00 0.0 0.00	27.3693534101	0.00	0.00	Scattered_T-Storms(fog)	True	False	0.00
2010-07-14 02:00:00 54505 2 0.00 0.00 0.00 0.0 0.00	27.3693534101	0.00	0.00	Scattered_T-Storms(fog)	True	False	0.00
2010-07-14 03:00:00 54554 3 0.00 0.00 0.00 0.0 0.00	27.3693534101	0.00	0.00	Scattered_T-Storms(fog)	True	False	0.00
2010-07-14 04:00:00 54603 4 0.00 0.00 0.00 0.0 0.00	27.3693534101	0.00	0.00	Scattered_T-Storms(fog)	True	False	0.00
2010-07-14 05:00:00 54652 5 0.08 0.08 0.08 0.0 0.30	27.3693534101	0.08	0.00	Scattered_T-Storms(light_rain)	True	False	0.00
2010-07-14 06:00:00 54701 6 21.27 21.27 21.27 0.0 77.70	27.3693534101	21.27	0.00	Scattered_T-Storms(light_rain)	True	False	0.00
2010-07-14 07:00:00 54750 7 56.76 56.76 56.76 69.3 207.40	27.3693534101	56.76	69.30	Scattered_T-Storms(mostly_cloudy)	True	False	69.30
2010-07-14 08:00:00 54799 8 132.99 132.99 132.99 118.7 485.90	27.3693534101	132.99	118.70	Scattered_T-Storms(light_rain)	True	False	118.70
2010-07-14 09:00:00 54848 9 203.93 203.93 203.93 272.1 745.10	27.3693534101	203.93	272.10	Scattered_T-Storms(light_rain)	True	False	272.10
2010-07-14 10:00:00 54897 10 191.00 191.00 191.00 508.0 919.50	20.7721587819	191.00	508.00	T-Storms(rain)	True	False	508.00
2010-07-14 11:00:00 54946 11 215.80 215.80 215.80 635.2 1038.90	20.7721587819	215.80	635.20	T-Storms(light_rain)	True	False	635.20
2010-07-14 12:00:00 54995 12 230.18 230.18 230.18 410.0 1108.10	20.7721587819	230.18	410.00	T-Storms(light_rain)	True	False	410.00
2010-07-14 13:00:00 55044 13 230.09 230.09 230.09 110.6 1107.70	20.7721587819	230.09	110.60	Few_Showers(cloudy)	True	False	110.60
2010-07-14 14:00:00 55093 14 220.27 220.27 220.27 219.0 1060.40	20.7721587819	220.27	219.00	Few_Showers(light_rain)	True	False	219.00
2010-07-14 15:00:00 55142 15 195.07 195.07 195.07 61.9 939.10	20.7721587819	195.07	61.90	Few_Showers(cloudy)	True	False	61.90
2010-07-14 16:00:00 55191 16 207.71 207.71 207.71 122.2 758.90	27.3693534101	207.71	122.20	Isolated_T-Storms(cloudy)	True	False	122.20
2010-07-14 17:00:00 55240 17 136.49 136.49 136.49 161.6 498.70	27.3693534101	136.49	161.60	Isolated_T-Storms(mostly_cloudy)	True	False	161.60
2010-07-14 18:00:00 55289 18 61.80 61.80 61.80 125.7 225.80	27.3693534101	61.80	125.70	Isolated_T-Storms(mostly_cloudy)	True	False	125.70
2010-07-14 19:00:00 55338 19 49.20 49.20 49.20 51.3 81.40	60.4422604423	49.20	51.30	Mostly_Cloudy(mostly_cloudy)	True	False	51.30
2010-07-14 20:00:00 55387 20 4.11 4.11 4.11 6.8 6.80	60.4422604423	4.11	6.80	Mostly_Cloudy(mostly_cloudy)	True	False	6.80
2010-07-14 21:00:00 55436 21 0.00 0.00 0.00 0.0 0.00	60.4422604423	0.00	0.00	Mostly_Cloudy(cloudy)	True	False	0.00
2010-07-14 22:00:00 55485 22 0.00 0.00 0.00 0.0 0.00	77.3125169209	0.00	0.00	Clear(partly_cloudy)	True	False	0.00
2010-07-14 23:00:00 55534 23 0.00 0.00 0.00 0.0 0.00	27.3693534101	0.00	0.00	Isolated_T-Storms(fair)	True	False	0.00
2010-07-15 00:00:00 55583 0 0.00 0.00 0.00 0.0 0.00	30.4792460397	0.00	0.00	Isolated_T-Storms(clear)	True	False	0.00
2010-07-15 01:00:00 55632 1 0.00 0.00 0.00 0.0 0.00	74.3959957648	0.00	0.00	Partly_Cloudy(fog)	True	False	0.00
2010-07-15 02:00:00 55681 2 0.00 0.00 0.00 0.0 0.00	74.3959957648	0.00	0.00	Partly_Cloudy(cloudy)	True	False	0.00
2010-07-15 03:00:00 55730 3 0.00 0.00 0.00 0.0 0.00	74.3959957648	0.00	0.00	Partly_Cloudy(partly_cloudy)	True	False	0.00
2010-07-15 04:00:00 55779 4 0.00 0.00 0.00 0.0 0.00	74.3959957648	0.00	0.00	Mostly_Clear(fair)	False	False	0.00
2010-07-15 05:00:00 55828 5 0.22 0.22 0.22 0.0 0.30	74.3959957648	0.22	0.00	Mostly_Clear(clear)	False	False	0.00
2010-07-15 06:00:00 55877 6 57.81 57.81 57.81 10.1 77.70	74.3959957648	57.81	10.10	Mostly_Sunny(cloudy)	False	False	10.10
2010-07-15 07:00:00 55926 7 154.30 154.30 154.30 141.2 207.40	74.3959957648	154.30	141.20	Mostly_Sunny(cloudy)	False	False	141.20
2010-07-15 08:00:00 55975 8 361.49 361.49 361.49 247.0 485.90	74.3959957648	361.49	247.00	Mostly_Sunny(partly_cloudy)	False	False	247.00
2010-07-15 09:00:00 56024 9 554.32 554.32 554.32 232.3 745.10	74.3959957648	554.32	232.30	Mostly_Sunny(cloudy)	False	False	232.30
2010-07-15 10:00:00 56073 10 766.30 766.30 766.30 427.8 919.50	83.3387710712	766.30	427.80	Sunny(cloudy)	True	False	427.80
2010-07-15 11:00:00 56122 11 865.81 865.81 865.81 590.3 1038.90	83.3387710712	865.81	590.30	Sunny(mostly_cloudy)	True	False	590.30
2010-07-15 12:00:00 56171 12 923.48 923.48 923.48 575.1 1108.10	83.3387710712	923.48	575.10	Sunny(fair)	True	False	575.10
2010-07-15 13:00:00 56220 13 835.90 835.90 835.90 499.9 1107.70	75.4625033842	835.90	499.90	Partly_Cloudy(fair)	True	False	499.90
2010-07-15 14:00:00 56269 14 800.20 800.20 800.20 671.5 1060.40	75.4625033842	800.20	671.50	Partly_Cloudy(mostly_cloudy)	True	False	671.50
2010-07-15 15:00:00 56318 15 708.67 708.67 708.67 723.7 939.10	75.4625033842	708.67	723.70	Partly_Cloudy(partly_cloudy)	True	False	723.70
2010-07-15 16:00:00 56367 16 564.59 564.59 564.59 629.9 758.90	74.3959957648	564.59	629.90	Partly_Cloudy(fair)	True	False	629.90
2010-07-15 17:00:00 56416 17 371.01 371.01 371.01 371.2 498.70	74.3959957648	371.01	371.20	Partly_Cloudy(fair)	True	False	371.20
2010-07-15 18:00:00 56465 18 167.99 167.99 167.99 190.2 225.80	74.3959957648	167.99	190.20	Partly_Cloudy(fair)	True	False	190.20
2010-07-15 19:00:00 56514 19 60.56 60.56 60.56 32.3 81.40	74.3959957648	60.56	32.30	Partly_Cloudy(fair)	True	False	32.30
2010-07-15 20:00:00 56563 20 5.06 5.06 5.06 0.0 6.80	74.3959957648	5.06	0.00	Partly_Cloudy(sunny)	True	False	0.00
2010-07-15 21:00:00 56612 21 0.00 0.00 0.00 0.0 0.00	74.3959957648	0.00	0.00	Partly_Cloudy(clear)	True	False	0.00
2010-07-15 22:00:00 56661 22 0.00 0.00 0.00 0.0 0.00	74.3959957648	0.00	0.00	Mostly_Clear(clear)	False	False	0.00
2010-07-15 23:00:00 56710 23 0.00 0.00 0.00 0.0 0.00	74.3959957648	0.00	0.00	Mostly_Clear(fair)	False	False	0.00
2010-07-16 00:00:00 56759 0 0.00 0.00 0.00 0.0 0.00	74.3959957648	0.00	0.00	Mostly_Clear(clear)	False	False	0.00
2010-07-16 01:00:00 56808 1 0.00 0.00 0.00 0.0 0.00	79.1986282826	0.00	0.00	Clear(partly_cloudy)	True	False	0.00
2010-07-16 02:00:00 56857 2 0.00 0.00 0.00 0.0 0.00	79.1986282826	0.00	0.00	Clear(cloudy)	True	False	0.00
2010-07-16 03:00:00 56906 3 0.00 0.00 0.00 0.0 0.00	79.1986282826	0.00	0.00	Clear(cloudy)	True	False	0.00
2010-07-16 04:00:00 56955 4 0.00 0.00 0.00 0.0 0.00	79.1986282826	0.00	0.00	Clear(cloudy)	True	False	0.00
2010-07-16 05:00:00 57004 5 0.24 0.24 0.24 0.0 0.30	79.1986282826	0.24	0.00	Clear(cloudy)	True	False	0.00
2010-07-16 06:00:00 57053 6 61.54 61.54 61.54 14.2 77.70	79.1986282826	61.54	14.20	Sunny(cloudy)	True	False	14.20
2010-07-16 07:00:00 57102 7 154.30 154.30 154.30 146.1 207.40	74.3959957648	154.30	146.10	Partly_Cloudy(fair)	True	False	146.10
2010-07-16 08:00:00 57151 8 361.49 361.49 361.49 374.5 485.90	74.3959957648	361.49	374.50	Partly_Cloudy(cloudy)	True	False	374.50
2010-07-16 09:00:00 57200 9 554.32 554.32 554.32 634.1 745.10	74.3959957648	554.32	634.10	Partly_Cloudy(cloudy)	True	False	634.10
2010-07-16 10:00:00 57249 10 693.88 693.88 693.88 820.4 919.50	75.4625033842	693.88	820.40	Partly_Cloudy(fair)	True	False	820.40
2010-07-16 11:00:00 57298 11 783.98 783.98 783.98 942.7 1038.90	75.4625033842	783.98	942.70	Partly_Cloudy(sunny)	True	False	942.70
2010-07-16 12:00:00 57347 12 836.20 836.20 836.20 953.4 1108.10	75.4625033842	836.20	953.40	Partly_Cloudy(fair)	True	False	953.40
2010-07-16 13:00:00 57396 13 835.90 835.90 835.90 638.1 1107.70	75.4625033842	835.90	638.10	Mostly_Sunny(sunny)	False	False	638.10
2010-07-16 14:00:00 57445 14 800.20 800.20 800.20 952.4 1060.40	75.4625033842	800.20	952.40	Partly_Cloudy(partly_cloudy)	True	False	952.40
2010-07-16 15:00:00 57494 15 708.67 708.67 708.67 791.1 939.10	75.4625033842	708.67	791.10	Partly_Cloudy(sunny)	True	False	791.10
2010-07-16 16:00:00 57543 16 564.59 564.59 564.59 450.5 758.90	74.3959957648	564.59	450.50	Partly_Cloudy(fair)	True	False	450.50
2010-07-16 17:00:00 57592 17 371.01 371.01 371.01 324.1 498.70	74.3959957648	371.01	324.10	Partly_Cloudy(fair)	True	False	324.10
2010-07-16 18:00:00 57641 18 167.99 167.99 167.99 147.2 225.80	74.3959957648	167.99	147.20	Partly_Cloudy(sunny)	True	False	147.20
2010-07-16 19:00:00 57690 19 60.56 60.56 60.56 13.1 81.40	74.3959957648	60.56	13.10	Partly_Cloudy(fair)	True	False	13.10
2010-07-16 20:00:00 57739 20 5.06 5.06 5.06 1.0 6.80	74.3959957648	5.06	1.00	Partly_Cloudy(partly_cloudy)	True	False	1.00
2010-07-16 21:00:00 57788 21 0.00 0.00 0.00 0.0 0.00	74.3959957648	0.00	0.00	Partly_Cloudy(partly_cloudy)	True	False	0.00
2010-07-16 22:00:00 57837 22 0.00 0.00 0.00 0.0 0.00	74.3959957648	0.00	0.00	Partly_Cloudy(partly_cloudy)	True	False	0.00
2010-07-16 23:00:00 57886 23 0.00 0.00 0.00 0.0 0.00	74.3959957648	0.00	0.00	Partly_Cloudy(partly_cloudy)	True	False	0.00
2010-07-17 00:00:00 57935 0 0.00 0.00 0.00 0.0 0.00	74.2951224532	0.00	0.00	Partly_Cloudy(partly_cloudy)	True	False	0.00
2010-07-17 01:00:00 57984 1 0.00 0.00 0.00 0.0 0.00	57.7800829876	0.00	0.00	Mostly_Cloudy(mostly_cloudy)	True	False	0.00
2010-07-17 02:00:00 58033 2 0.00 0.00 0.00 0.0 0.00	57.7800829876	0.00	0.00	Mostly_Cloudy(partly_cloudy)	True	False	0.00
2010-07-17 03:00:00 58082 3 0.00 0.00 0.00 0.0 0.00	57.7800829876	0.00	0.00	Mostly_Cloudy(partly_cloudy)	True	False	0.00
2010-07-17 04:00:00 58131 4 0.00 0.00 0.00 0.0 0.00	57.7800829876	0.00	0.00	Mostly_Cloudy(partly_cloudy)	True	False	0.00
2010-07-17 05:00:00 58180 5 0.17 0.17 0.17 0.0 0.30	57.7800829876	0.17	0.00	Mostly_Cloudy(partly_cloudy)	True	False	0.00
2010-07-17 06:00:00 58229 6 44.90 44.90 44.90 8.9 77.70	57.7800829876	44.90	8.90	Mostly_Cloudy(fog)	True	False	8.90
2010-07-17 07:00:00 58278 7 119.84 119.84 119.84 180.8 207.40	57.7800829876	119.84	180.80	Mostly_Cloudy(sunny)	True	False	180.80
2010-07-17 08:00:00 58327 8 280.75 280.75 280.75 425.3 485.90	57.7800829876	280.75	425.30	Mostly_Cloudy(sunny)	True	False	425.30
2010-07-17 09:00:00 58376 9 430.52 430.52 430.52 661.6 745.10	57.7800829876	430.52	661.60	Mostly_Cloudy(sunny)	True	False	661.60
2010-07-17 10:00:00 58425 10 191.00 191.00 191.00 845.5 919.50	20.7721587819	191.00	845.50	Scattered_T-Storms(sunny)	True	False	845.50
2010-07-17 11:00:00 58474 11 215.80 215.80 215.80 957.9 1038.90	20.7721587819	215.80	957.90	Scattered_T-Storms(sunny)	True	False	957.90
2010-07-17 12:00:00 58523 12 230.18 230.18 230.18 856.7 1108.10	20.7721587819	230.18	856.70	Scattered_T-Storms(sunny)	True	False	856.70
2010-07-17 13:00:00 58572 13 230.09 230.09 230.09 969.2 1107.70	20.7721587819	230.09	969.20	Mostly_Sunny(sunny)	False	False	969.20
2010-07-17 14:00:00 58621 14 220.27 220.27 220.27 857.4 1060.40	20.7721587819	220.27	857.40	Mostly_Sunny(sunny)	False	False	857.40
2010-07-17 15:00:00 58670 15 195.07 195.07 195.07 743.0 939.10	20.7721587819	195.07	743.00	Mostly_Sunny(partly_cloudy)	False	False	743.00
2010-07-17 16:00:00 58719 16 646.81 646.81 646.81 642.6 758.90	85.2305398786	646.81	642.60	Mostly_Sunny(partly_cloudy)	False	False	642.60
2010-07-17 17:00:00 58768 17 425.04 425.04 425.04 372.3 498.70	85.2305398786	425.04	372.30	Mostly_Sunny(fair)	False	False	372.30
2010-07-17 18:00:00 58817 18 192.45 192.45 192.45 166.7 225.80	85.2305398786	192.45	166.70	Mostly_Sunny(partly_cloudy)	False	False	166.70
2010-07-17 19:00:00 58866 19 60.48 60.48 60.48 62.1 81.40	74.2951224532	60.48	62.10	Partly_Cloudy(mostly_cloudy)	True	False	62.10
2010-07-17 20:00:00 58915 20 5.05 5.05 5.05 1.4 6.80	74.2951224532	5.05	1.40	Partly_Cloudy(fair)	True	False	1.40
2010-07-17 21:00:00 58964 21 0.00 0.00 0.00 0.0 0.00	74.2951224532	0.00	0.00	Partly_Cloudy(clear)	True	False	0.00
2010-07-17 22:00:00 59013 22 0.00 0.00 0.00 0.0 0.00	74.2951224532	0.00	0.00	Partly_Cloudy(clear)	True	False	0.00
2010-07-17 23:00:00 59062 23 0.00 0.00 0.00 0.0 0.00	74.2951224532	0.00	0.00	Mostly_Clear(clear)	False	False	0.00
2010-07-18 00:00:00 59111 0 0.00 0.00 0.00 0.0 0.00	74.2951224532	0.00	0.00	Mostly_Clear(clear)	False	False	0.00
2010-07-18 01:00:00 59160 1 0.00 0.00 0.00 0.0 0.00	79.2248208223	0.00	0.00	Clear(clear)	True	False	0.00
2010-07-18 02:00:00 59209 2 0.00 0.00 0.00 0.0 0.00	79.2248208223	0.00	0.00	Clear(partly_cloudy)	True	False	0.00
2010-07-18 03:00:00 59258 3 0.00 0.00 0.00 0.0 0.00	79.2248208223	0.00	0.00	Clear(clear)	True	False	0.00
2010-07-18 04:00:00 59307 4 0.00 0.00 0.00 0.0 0.00	79.2248208223	0.00	0.00	Clear(fair)	True	False	0.00
2010-07-18 05:00:00 59356 5 0.24 0.24 0.24 0.0 0.30	79.2248208223	0.24	0.00	Clear(fair)	True	False	0.00
2010-07-18 06:00:00 59405 6 61.56 61.56 61.56 24.2 77.70	79.2248208223	61.56	24.20	Sunny(fog)	True	False	24.20
2010-07-18 07:00:00 59454 7 164.31 164.31 164.31 176.8 207.40	79.2248208223	164.31	176.80	Sunny(sunny)	True	False	176.80
2010-07-18 08:00:00 59503 8 384.95 384.95 384.95 422.5 485.90	79.2248208223	384.95	422.50	Sunny(sunny)	True	False	422.50
2010-07-18 09:00:00 59552 9 590.30 590.30 590.30 661.7 745.10	79.2248208223	590.30	661.70	Sunny(sunny)	True	False	661.70
2010-07-18 10:00:00 59601 10 786.57 786.57 786.57 861.5 919.50	85.5431912486	786.57	861.50	Sunny(sunny)	True	False	861.50
2010-07-18 11:00:00 59650 11 888.71 888.71 888.71 832.1 1038.90	85.5431912486	888.71	832.10	Sunny(fair)	True	False	832.10
2010-07-18 12:00:00 59699 12 947.90 947.90 947.90 1019.8 1108.10	85.5431912486	947.90	1019.80	Sunny(partly_cloudy)	True	False	1019.80
2010-07-18 13:00:00 59748 13 835.90 835.90 835.90 974.1 1107.70	75.4625033842	835.90	974.10	Partly_Cloudy(sunny)	True	False	974.10
2010-07-18 14:00:00 59797 14 800.20 800.20 800.20 767.6 1060.40	75.4625033842	800.20	767.60	Partly_Cloudy(fair)	True	False	767.60
2010-07-18 15:00:00 59846 15 708.67 708.67 708.67 831.6 939.10	75.4625033842	708.67	831.60	Partly_Cloudy(sunny)	True	False	831.60
2010-07-18 16:00:00 59895 16 563.83 563.83 563.83 566.3 758.90	74.2951224532	563.83	566.30	Partly_Cloudy(sunny)	True	False	566.30
2010-07-18 17:00:00 59944 17 370.51 370.51 370.51 425.6 498.70	74.2951224532	370.51	425.60	Partly_Cloudy(sunny)	True	False	425.60
2010-07-18 18:00:00 59993 18 167.76 167.76 167.76 195.5 225.80	74.2951224532	167.76	195.50	Partly_Cloudy(sunny)	True	False	195.50
2010-07-18 19:00:00 60042 19 60.48 60.48 60.48 40.3 81.40	74.2951224532	60.48	40.30	Partly_Cloudy(sunny)	True	False	40.30
2010-07-18 20:00:00 60091 20 5.05 5.05 5.05 0.5 6.80	74.2951224532	5.05	0.50	Partly_Cloudy(sunny)	True	False	0.50
2010-07-18 21:00:00 60140 21 0.00 0.00 0.00 0.0 0.00	74.2951224532	0.00	0.00	Partly_Cloudy(clear)	True	False	0.00
2010-07-18 22:00:00 60189 22 0.00 0.00 0.00 0.0 0.00	74.2951224532	0.00	0.00	Partly_Cloudy(clear)	True	False	0.00
2010-07-18 23:00:00 60238 23 0.00 0.00 0.00 0.0 0.00	74.2951224532	0.00	0.00	Partly_Cloudy(partly_cloudy)	True	False	0.00
