2011_03_01_0
0.00
0.00
0.00
0.00
0.00
0.00
10.50
86.90
414.60
872.10
1051.70
1133.50
1119.50
1001.70
862.80
609.40
269.80
22.20
0.00
0.00
0.00
0.00
0.00
0.00
0.00
0.00
0.00
0.00
0.00
0.00
8.30
187.10
517.90
813.00
978.20
1079.30
1098.60
987.90
279.60
438.90
252.50
29.60
0.00
0.00
0.00
0.00
0.00
0.00
0.00
0.00
0.00
0.00
0.00
0.00
9.30
226.70
605.90
914.70
1099.40
1183.50
1174.40
1068.60
904.40
640.60
274.80
31.20
0.00
0.00
0.00
0.00
0.00
0.00
0.00
0.00
0.00
0.00
0.00
0.00
8.80
160.00
410.00
748.10
1019.20
964.70
1068.10
999.60
849.50
568.20
216.40
17.40
0.00
0.00
0.00
0.00
0.00
0.00
0.00
0.00
0.00
0.00
0.00
0.00
0.00
31.00
253.40
747.80
974.60
880.70
529.80
493.30
269.50
267.40
73.60
4.00
0.00
0.00
0.00
0.00
0.00
0.00
0.00
0.00
0.00
0.00
0.00
0.00
0.00
35.90
70.30
109.30
90.40
85.10
184.00
163.50
97.10
57.20
3.60
0.00
0.00
0.00
0.00
0.00
0.00
0.00
0.00
0.00
0.00
0.00
0.00
0.00
1.80
222.20
611.20
883.70
1077.10
1170.20
1173.40
1067.90
913.80
653.00
307.00
32.20
0.00
0.00
0.00
0.00
0.00
0.00
0.00
0.00
0.00
0.00
0.00
0.00
19.40
254.20
609.50
881.80
1027.30
1129.50
1101.80
938.70
618.80
261.90
152.40
53.60
0.00
0.00
0.00
0.00
0.00
0.00
0.00
0.00
0.00
0.00
0.00
0.00
35.10
111.50
386.90
306.00
478.50
383.90
340.40
316.70
195.80
108.90
23.00
3.60
0.00
0.00
0.00
0.00
0.00
0.00
0.00
0.00
0.00
0.00
0.00
0.00
0.00
9.90
106.20
176.40
101.90
52.70
64.40
97.30
50.00
38.30
7.90
0.00
0.00
0.00
0.00
0.00
0.00
0.00
0.00
0.00
0.00
0.00
0.00
0.00
0.00
36.90
142.00
589.40
360.20
675.40
558.70
735.10
791.60
408.30
94.20
16.00
0.00
0.00
0.00
0.00
0.00
0.00
0.00
0.00
0.00
0.00
0.00
0.00
0.60
88.70
581.60
877.20
1048.40
948.10
496.90
517.80
696.90
487.90
292.20
40.10
0.00
0.00
0.00
0.00
0.00
0.00
0.00
0.00
0.00
0.00
0.00
0.00
0.00
11.60
94.60
119.70
237.90
583.60
513.10
568.40
436.30
346.60
148.40
112.30
30.70
0.00
0.00
0.00
0.00
0.00
0.00
0.00
0.00
0.00
0.00
0.00
26.40
124.30
79.00
285.00
428.00
698.80
207.60
334.40
313.00
287.80
118.10
31.60
0.00
0.00
0.00
0.00
0.00
0.00
0.00
0.00
0.00
0.00
0.00
0.00
0.00
50.20
272.50
628.00
869.30
1055.60
878.00
1092.10
706.00
423.70
312.80
170.00
33.10
0.00
0.00
0.00
0.00
0.00
0.00
0.00
0.00
0.00
0.00
0.00
0.00
0.00
11.20
73.80
166.50
329.70
441.00
537.10
776.90
803.00
444.70
256.10
31.40
0.00
0.00
0.00
0.00
0.00
0.00
0.00
0.00
0.00
0.00
0.00
0.00
46.90
304.70
624.00
884.50
1043.30
1108.30
1102.30
1009.90
870.90
632.50
302.60
59.70
0.00
0.00
0.00
0.00
0.00
0.00
0.00
0.00
0.00
0.00
0.00
0.00
35.70
251.60
464.40
780.70
809.10
1010.70
987.70
982.10
807.40
503.20
221.10
43.30
0.10
0.00
0.00
0.00
0.00
0.00
0.00
0.00
0.00
0.00
0.00
0.00
36.10
313.90
664.80
924.70
1080.90
1141.60
1126.50
1076.60
928.90
680.80
338.70
56.70
0.10
0.00
0.00
0.00
0.00
0.00
0.00
0.00
0.00
0.00
0.00
0.00
50.60
323.60
671.90
932.90
1072.40
1138.60
1131.60
1051.80
901.50
617.90
330.60
51.50
0.30
0.00
0.00
0.00
0.00
0.00
0.00
0.00
0.00
0.00
0.00
0.00
0.00
4.80
18.80
37.40
56.00
101.10
143.10
156.20
94.50
107.70
37.70
1.10
0.00
0.00
0.00
0.00
0.00
0.00
0.00
0.00
0.00
0.00
0.00
0.00
15.90
69.30
341.70
813.50
627.90
966.90
1173.60
1005.20
845.90
652.00
310.00
53.00
0.00
0.00
0.00
0.00
0.00
0.00
0.00
0.00
0.00
0.00
0.00
0.00
0.00
0.00
0.20
0.60
10.40
17.90
27.40
41.50
33.20
15.00
4.60
0.00
0.00
0.00
0.00
0.00
0.00
0.00
0.00
0.00
0.00
0.00
0.00
0.00
0.10
5.10
13.60
35.10
173.00
432.50
349.60
350.90
549.10
698.10
338.80
68.10
0.60
0.00
0.00
0.00
0.00
0.00
0.00
0.00
0.00
0.00
0.00
0.00
72.90
368.10
718.80
973.90
1125.40
1204.40
1123.80
974.10
817.00
337.70
172.70
43.60
0.00
0.00
0.00
0.00
0.00
0.00
0.00
0.00
0.00
0.00
0.00
0.00
75.20
376.90
733.60
1001.80
1159.10
1241.10
1229.90
1141.80
989.60
735.70
379.90
75.80
0.90
0.00
0.00
0.00
0.00
0.00
0.00
0.00
0.00
0.00
0.00
0.00
39.80
282.30
700.80
978.40
1144.50
1220.70
1209.30
1130.00
975.30
721.30
377.90
76.00
1.00
0.00
0.00
0.00
0.00
0.00
0.00
0.00
0.00
0.00
0.00
0.30
85.20
398.30
740.90
1001.50
1092.20
1156.20
1171.30
1047.70
929.50
714.70
375.10
76.30
1.10
0.00
0.00
0.00
0.00
0.00
0.00
0.00
0.00
0.00
0.00
0.40
84.60
395.10
734.90
989.30
1141.70
1215.40
1203.40
1116.10
963.90
714.20
376.80
77.30
1.00
0.00
0.00
0.00
0.00
0.00
0.00
0.00
0.00
0.00
0.00
0.80
112.10
374.50
635.60
861.20
936.00
924.70
717.40
679.10
708.40
416.80
92.40
13.20
0.00
0.00
0.00
0.00
0.00
0.00
0.00
0.00
0.00
0.00
0.00
0.00
13.80
77.60
90.90
104.00
176.90
161.20
208.70
180.20
91.00
31.90
58.50
11.50
0.00
0.00
0.00
0.00
0.00
