#Comment start: First line is date and next  lines are energy generation
2010_07_11_0
0
0
0
0
0
0
34.9
197.6
420.7
516
629.8
741.7
836.2
400.6
311.1
206.1
445.3
452.3
219.8
37.2
1.7
0
0
0
0
0
0
0
0
0
77.7
186
454
518
597.2
898
1031.2
927.1
907.1
485.2
399.8
220.2
71.7
9.2
0
0
0
0
0
0
0
0
0
0
53.8
101.4
173.7
209.4
119.2
32.1
203.2
902.3
669.2
490
308.9
274.5
225.8
39.8
0
0
0
0
0
0
0
0
0
0
0
69.3
118.7
272.1
508
635.2
410
110.6
219
61.9
122.2
161.6
125.7
51.3
6.8
0
0
0
0
0
0
0
0
0
10.1
141.2
247
232.3
427.8
590.3
575.1
499.9
671.5
723.7
629.9
371.2
190.2
32.3
0
0
0
0
0
0
0
0
0
0
14.2
146.1
374.5
634.1
820.4
942.7
953.4
638.1
952.4
791.1
450.5
324.1
147.2
13.1
1
0
0
0
0
0
0
0
0
0
8.9
180.8
425.3
661.6
845.5
957.9
856.7
969.2
857.4
743
642.6
372.3
166.7
62.1
1.4
0
0
0
0
0
0
0
0
0
24.2
176.8
422.5
661.7
861.5
832.1
1019.8
974.1
767.6
831.6
566.3
425.6
195.5
40.3
0.5
0
0
0
0
0
0
0
0
0
31.8
168.5
328.2
188.2
345
931.2
877.2
984.8
968.8
719.2
516.3
232.3
86.2
44.7
5.2
0
0
0
0
0
0
0
0
0
29.5
168.7
389.8
489.4
781.8
614.1
401.2
348.4
619.6
632.3
698.7
420.2
152.7
56
0.6
0
0
0
0
0
0
0
0
0
22.3
168.8
416.8
651.7
723.8
772.9
487.1
496
921.4
640.2
498.2
366.7
61.8
25.6
0
0
0
0
0
0
0
0
0
0
16.5
184.7
461.6
713
903.1
1007
950
792.3
807.3
705.3
588.6
405.3
161.4
27.5
0.6
0
0
0
0
0
0
0
0
0
35.1
149.9
343.3
215.8
186
220.9
462.6
463.5
463.5
479.4
418.7
281.9
134
30.4
0
0
0
0
0
0
0
0
0
0
26
139.7
408.6
663.9
848
980.3
877.6
893.3
940.8
800.4
609.8
401.9
163.6
29.6
0
0
0
0
0
0
0
0
0
0
14.1
151.5
418.2
644.7
778
981.8
919.7
983.8
255.2
56.1
38.6
152
213.6
37.6
2.7
0
0
0
0
0
0
0
0
0
21.7
182.6
461.9
719.2
911.4
1034.6
1058.4
1041.9
1030.8
863.5
651.5
421.8
183.7
29.6
0.4
0
0
0
0
0
0
0
0
0
21.2
179.8
458.1
707.6
863.6
994.7
1046.6
981.9
943.4
889.8
713.4
438.2
182.1
32.4
0.4
0
0
0
0
0
0
0
0
0
41.7
143.5
367.5
485.2
380.1
708.3
655.1
803.2
612.7
520.7
566.6
288.9
205
43.3
0.4
0
0
0
0
0
0
0
0
0
11.4
30.8
127.1
339.7
292.8
466.1
913.9
973.9
665.5
838.4
601.4
377.6
159.3
27
0.3
0
0
0
0
0
0
0
0
0
18.3
166.2
443.4
704.6
889.4
1007.6
839.9
862.1
811.1
556.5
599.6
279
183.3
55.2
0.2
0
0
0
0
0
0
0
0
0
39.2
199
346.7
678.8
832.9
1037.3
800.5
888.6
748.3
754.2
515.1
408.4
95.1
36.9
0.2
0
0
0
0
0
0
0
0
0
5.3
101.6
123.4
59.8
156
232
565.5
648.1
276.7
239.2
189.3
229.2
94.4
29.2
0
0
0
0
0
0
0
0
0
0
17.4
162.6
412.9
626.6
697
860.6
861.5
918.8
613.7
322.2
187
256.1
141.4
20.5
0
0
0
0
