2010-05-31 00:00:00 4823 0 0.00 0.00 0.00 0.0 0.00	84.7153465347	0.00	0.00	Clear(clear)	True	False	0.00
2010-05-31 01:00:00 4872 1 0.00 0.00 0.00 0.0 0.00	84.7153465347	0.00	0.00	Clear(clear)	True	False	0.00
2010-05-31 02:00:00 4921 2 0.00 0.00 0.00 0.0 0.00	84.7153465347	0.00	0.00	Clear(clear)	True	False	0.00
2010-05-31 03:00:00 4970 3 0.00 0.00 0.00 0.0 0.00	88.5203130824	0.00	0.00	Clear(clear)	True	False	0.00
2010-05-31 04:00:00 5019 4 0.00 0.00 0.00 0.0 0.00	88.5203130824	0.00	0.00	Clear(clear)	True	False	0.00
2010-05-31 05:00:00 5068 5 0.62 0.62 0.62 0.0 0.70	88.5203130824	0.62	0.00	Clear(sunny)	True	False	0.00
2010-05-31 06:00:00 5117 6 64.35 64.35 64.35 48.1 72.70	88.5203130824	64.35	48.10	Sunny(sunny)	True	False	48.10
2010-05-31 07:00:00 5166 7 237.50 237.50 237.50 228.2 268.30	88.5203130824	237.50	228.20	Sunny(sunny)	True	False	228.20
2010-05-31 08:00:00 5215 8 470.75 470.75 470.75 491.2 531.80	88.5203130824	470.75	491.20	Sunny(sunny)	True	False	491.20
2010-05-31 09:00:00 5264 9 681.61 681.61 681.61 720.4 770.00	88.5203130824	681.61	720.40	Sunny(sunny)	True	False	720.40
2010-05-31 10:00:00 5313 10 920.60 920.60 920.60 882.6 966.70	95.2310399111	920.60	882.60	Sunny(sunny)	True	False	882.60
2010-05-31 11:00:00 5362 11 1001.64 1001.64 1001.64 982.4 1051.80	95.2310399111	1001.64	982.40	Sunny(sunny)	True	False	982.40
2010-05-31 12:00:00 5411 12 1042.02 1042.02 1023.72 1030.3 1094.20	95.2310399111	1023.72	1030.30	Sunny(sunny)	True	False	1030.30
2010-05-31 13:00:00 5460 13 929.35 929.35 985.95 896.5 1079.90	86.0584518167	985.95	896.50	Partly_Cloudy(sunny)	True	False	896.50
2010-05-31 14:00:00 5509 14 871.60 871.60 945.97 887.0 1012.80	86.0584518167	945.97	887.00	Partly_Cloudy(fair)	True	False	887.00
2010-05-31 15:00:00 5558 15 768.67 768.67 841.04 846.8 893.20	86.0584518167	841.04	846.80	Partly_Cloudy(sunny)	True	False	846.80
2010-05-31 16:00:00 5607 16 565.57 565.57 594.48 538.5 716.10	78.9788933257	594.48	538.50	Partly_Cloudy(fair)	True	False	538.50
2010-05-31 17:00:00 5656 17 382.89 382.89 424.58 60.9 484.80	78.9788933257	424.58	60.90	Partly_Cloudy(fair)	True	False	60.90
2010-05-31 18:00:00 5705 18 154.56 154.56 185.53 213.0 195.70	78.9788933257	185.53	213.00	Partly_Cloudy(thunder)	True	False	213.00
2010-05-31 19:00:00 5754 19 39.65 39.65 37.75 42.8 50.20	78.9788933257	37.75	42.80	Partly_Cloudy(partly_cloudy)	True	False	42.80
2010-05-31 20:00:00 5803 20 0.30 0.30 0.30 0.3 2.40	12.6287505598	0.30	0.30	Isolated_T-Storms(sunny)	True	False	0.30
2010-05-31 21:00:00 5852 21 0.00 0.00 0.00 0.0 0.00	12.6287505598	0.00	0.00	Isolated_T-Storms(fair)	True	False	0.00
2010-05-31 22:00:00 5901 22 0.00 0.00 0.00 0.0 0.00	12.6287505598	0.00	0.00	Isolated_T-Storms(mostly_cloudy)	True	False	0.00
2010-05-31 23:00:00 5950 23 0.00 0.00 0.00 0.0 0.00	12.6287505598	0.00	0.00	Isolated_T-Storms(mostly_cloudy)	True	False	0.00
2010-06-01 00:00:00 5999 0 0.00 0.00 0.00 0.0 0.00	12.6287505598	0.00	0.00	Isolated_T-Storms(mostly_cloudy)	True	False	0.00
2010-06-01 01:00:00 6048 1 0.00 0.00 0.00 0.0 0.00	12.6287505598	0.00	0.00	Scattered_T-Storms(mostly_cloudy)	True	False	0.00
2010-06-01 02:00:00 6097 2 0.00 0.00 0.00 0.0 0.00	12.6287505598	0.00	0.00	Scattered_T-Storms(partly_cloudy)	True	False	0.00
2010-06-01 03:00:00 6146 3 0.00 0.00 0.00 0.0 0.00	12.6287505598	0.00	0.00	Scattered_T-Storms(fog)	True	False	0.00
2010-06-01 04:00:00 6195 4 0.00 0.00 0.00 0.0 0.00	12.6287505598	0.00	0.00	Few_Showers(mostly_cloudy)	True	False	0.00
2010-06-01 05:00:00 6244 5 0.09 0.09 0.09 0.0 0.70	12.6287505598	0.09	0.00	Few_Showers(sunny)	True	False	0.00
2010-06-01 06:00:00 6293 6 9.18 9.18 9.18 42.1 72.70	12.6287505598	9.18	42.10	Few_Showers(partly_cloudy)	True	False	42.10
2010-06-01 07:00:00 6342 7 161.93 161.93 161.93 235.5 268.30	60.3536794067	161.93	235.50	Mostly_Cloudy(fair)	True	False	235.50
2010-06-01 08:00:00 6391 8 320.96 320.96 320.96 435.7 531.80	60.3536794067	320.96	435.70	Mostly_Cloudy(fair)	True	False	435.70
2010-06-01 09:00:00 6440 9 464.72 464.72 464.72 669.2 770.00	60.3536794067	464.72	669.20	Mostly_Cloudy(mostly_cloudy)	True	False	669.20
2010-06-01 10:00:00 6489 10 120.21 120.21 120.21 813.4 952.40	12.6215390314	120.21	813.40	Isolated_T-Storms(mostly_cloudy)	True	False	813.40
2010-06-01 11:00:00 6538 11 132.75 132.75 132.75 833.3 1051.80	12.6215390314	132.75	833.30	Isolated_T-Storms(mostly_cloudy)	True	False	833.30
2010-06-01 12:00:00 6587 12 674.50 674.50 950.96 882.1 1094.20	61.6432096509	950.96	882.10	Mostly_Cloudy(partly_cloudy)	True	False	882.10
2010-06-01 13:00:00 6636 13 136.30 922.29 922.29 499.8 1079.90	12.6215390314	922.29	499.80	Scattered_T-Storms(mostly_cloudy)	True	False	499.80
2010-06-01 14:00:00 6685 14 127.83 802.40 802.40 490.2 1012.80	12.6215390314	802.40	490.20	Scattered_T-Storms(mostly_cloudy)	True	False	490.20
2010-06-01 15:00:00 6734 15 112.74 720.06 720.06 488.5 893.20	12.6215390314	720.06	488.50	Scattered_T-Storms(light_rain)	True	False	488.50
2010-06-01 16:00:00 6783 16 90.43 331.43 331.43 105.4 716.10	12.6287505598	331.43	105.40	Scattered_T-Storms(thunder)	True	False	105.40
2010-06-01 17:00:00 6832 17 52.99 203.09 203.09 265.4 419.60	12.6287505598	203.09	265.40	Scattered_T-Storms(thunder_in_the_vicinity)	True	False	265.40
2010-06-01 18:00:00 6881 18 27.05 117.15 117.15 15.0 214.20	12.6287505598	117.15	15.00	Scattered_T-Storms(t-storm)	True	False	15.00
2010-06-01 19:00:00 6930 19 6.54 7.62 7.62 27.4 51.80	12.6287505598	7.62	27.40	Scattered_T-Storms(mostly_cloudy)	True	False	27.40
2010-06-01 20:00:00 6979 20 0.30 1.52 1.52 0.0 2.40	12.6287505598	1.52	0.00	Scattered_T-Storms(cloudy)	True	False	0.00
2010-06-01 21:00:00 7028 21 0.00 0.00 0.00 0.0 0.00	12.6287505598	0.00	0.00	Scattered_T-Storms(partly_cloudy)	True	False	0.00
2010-06-01 22:00:00 7077 22 0.00 0.00 0.00 0.0 0.00	80.0223630265	0.00	0.00	Partly_Cloudy(mostly_cloudy)	True	False	0.00
2010-06-01 23:00:00 7126 23 0.00 0.00 0.00 0.0 0.00	80.0223630265	0.00	0.00	Partly_Cloudy(fair)	True	False	0.00
2010-06-02 00:00:00 7175 0 0.00 0.00 0.00 0.0 0.00	80.0223630265	0.00	0.00	Partly_Cloudy(fog)	True	False	0.00
2010-06-02 01:00:00 7224 1 0.00 0.00 0.00 0.0 0.00	92.6202012672	0.00	0.00	Clear(fog)	True	False	0.00
2010-06-02 02:00:00 7273 2 0.00 0.00 0.00 0.0 0.00	92.6202012672	0.00	0.00	Clear(light_rain)	True	False	0.00
2010-06-02 03:00:00 7322 3 0.00 0.00 0.00 0.0 0.00	92.6202012672	0.00	0.00	Clear(mostly_cloudy)	True	False	0.00
2010-06-02 04:00:00 7371 4 0.00 0.00 0.00 0.0 0.00	78.9788933257	0.00	0.00	Partly_Cloudy(cloudy)	True	False	0.00
2010-06-02 05:00:00 7420 5 1.42 1.42 1.42 0.0 1.80	78.9788933257	1.42	0.00	Partly_Cloudy(fog)	True	False	0.00
2010-06-02 06:00:00 7469 6 46.12 46.12 46.12 54.0 58.40	78.9788933257	46.12	54.00	Partly_Cloudy(fog)	True	False	54.00
2010-06-02 07:00:00 7518 7 248.50 248.50 248.50 244.2 268.30	92.6202012672	248.50	244.20	Sunny(fog)	True	False	244.20
2010-06-02 08:00:00 7567 8 420.01 420.01 420.01 507.0 531.80	78.9788933257	420.01	507.00	Mostly_Sunny(sunny)	False	False	507.00
2010-06-02 09:00:00 7616 9 608.14 608.14 608.14 737.0 770.00	78.9788933257	608.14	737.00	Mostly_Sunny(sunny)	False	False	737.00
2010-06-02 10:00:00 7665 10 908.30 908.30 908.30 915.8 952.40	95.3695926081	908.30	915.80	Mostly_Sunny(sunny)	False	False	915.80
2010-06-02 11:00:00 7714 11 1003.10 1003.10 1003.10 1017.0 1051.80	95.3695926081	1003.10	1017.00	Mostly_Sunny(sunny)	False	False	1017.00
2010-06-02 12:00:00 7763 12 1043.53 1043.53 1043.53 1052.9 1094.20	95.3695926081	1043.53	1052.90	Mostly_Sunny(sunny)	False	False	1052.90
2010-06-02 13:00:00 7812 13 1029.90 1029.90 1029.90 1034.5 1079.90	95.3695926081	1029.90	1034.50	Sunny(sunny)	True	False	1034.50
2010-06-02 14:00:00 7861 14 965.90 965.90 965.90 961.2 1012.80	95.3695926081	965.90	961.20	Sunny(sunny)	True	False	961.20
2010-06-02 15:00:00 7910 15 851.84 851.84 851.84 809.2 893.20	95.3695926081	851.84	809.20	Sunny(sunny)	True	False	809.20
2010-06-02 16:00:00 7959 16 682.94 682.94 682.94 611.2 716.10	95.3695926081	682.94	611.20	Mostly_Sunny(sunny)	False	False	611.20
2010-06-02 17:00:00 8008 17 400.17 400.17 400.17 293.6 419.60	95.3695926081	400.17	293.60	Mostly_Sunny(partly_cloudy)	False	False	293.60
2010-06-02 18:00:00 8057 18 204.28 204.28 204.28 162.1 214.20	95.3695926081	204.28	162.10	Mostly_Sunny(sunny)	False	False	162.10
2010-06-02 19:00:00 8106 19 42.02 42.02 42.02 36.3 53.20	78.9788933257	42.02	36.30	Mostly_Sunny(partly_cloudy)	False	False	36.30
2010-06-02 20:00:00 8155 20 1.90 1.90 1.90 0.1 2.40	78.9788933257	1.90	0.10	Mostly_Sunny(fair)	False	False	0.10
2010-06-02 21:00:00 8204 21 0.00 0.00 0.00 0.0 0.00	78.9788933257	0.00	0.00	Mostly_Clear(fair)	False	False	0.00
2010-06-02 22:00:00 8253 22 0.00 0.00 0.00 0.0 0.00	92.6202012672	0.00	0.00	Clear(clear)	True	False	0.00
2010-06-02 23:00:00 8302 23 0.00 0.00 0.00 0.0 0.00	92.6202012672	0.00	0.00	Clear(clear)	True	False	0.00
2010-06-03 00:00:00 8351 0 0.00 0.00 0.00 0.0 0.00	92.6202012672	0.00	0.00	Clear(clear)	True	False	0.00
2010-06-03 01:00:00 8400 1 0.00 0.00 0.00 0.0 0.00	78.9788933257	0.00	0.00	Partly_Cloudy(clear)	True	False	0.00
2010-06-03 02:00:00 8449 2 0.00 0.00 0.00 0.0 0.00	78.9788933257	0.00	0.00	Partly_Cloudy(fog)	True	False	0.00
2010-06-03 03:00:00 8498 3 0.00 0.00 0.00 0.0 0.00	79.0929834569	0.00	0.00	Partly_Cloudy(clear)	True	False	0.00
2010-06-03 04:00:00 8547 4 0.00 0.00 0.00 0.0 0.00	79.0929834569	0.00	0.00	Partly_Cloudy(clear)	True	False	0.00
2010-06-03 05:00:00 8596 5 1.42 1.42 1.42 0.0 1.80	79.0929834569	1.42	0.00	Partly_Cloudy(fog)	True	False	0.00
2010-06-03 06:00:00 8645 6 58.13 58.13 58.13 71.3 73.50	79.0929834569	58.13	71.30	Partly_Cloudy(fog)	True	False	71.30
2010-06-03 07:00:00 8694 7 212.21 212.21 212.21 225.3 268.30	79.0929834569	212.21	225.30	Partly_Cloudy(sunny)	True	False	225.30
2010-06-03 08:00:00 8743 8 420.62 420.62 420.62 463.7 531.80	79.0929834569	420.62	463.70	Partly_Cloudy(sunny)	True	False	463.70
2010-06-03 09:00:00 8792 9 609.02 609.02 609.02 597.5 770.00	79.0929834569	609.02	597.50	Partly_Cloudy(partly_cloudy)	True	False	597.50
2010-06-03 10:00:00 8841 10 819.62 819.62 819.62 764.4 952.40	86.0584518167	819.62	764.40	Partly_Cloudy(fair)	True	False	764.40
2010-06-03 11:00:00 8890 11 905.16 905.16 905.16 994.6 1051.80	86.0584518167	905.16	994.60	Partly_Cloudy(sunny)	True	False	994.60
2010-06-03 12:00:00 8939 12 941.65 941.65 941.65 869.2 1094.20	86.0584518167	941.65	869.20	Partly_Cloudy(fair)	True	False	869.20
2010-06-03 13:00:00 8988 13 136.38 136.38 136.38 742.2 1079.90	12.6287505598	136.38	742.20	Isolated_T-Storms(partly_cloudy)	True	False	742.20
2010-06-03 14:00:00 9037 14 127.90 127.90 957.72 988.4 1012.80	12.6287505598	957.72	988.40	Isolated_T-Storms(sunny)	True	False	988.40
2010-06-03 15:00:00 9086 15 112.80 112.80 709.53 836.5 893.20	12.6287505598	709.53	836.50	Isolated_T-Storms(partly_cloudy)	True	False	836.50
2010-06-03 16:00:00 9135 16 90.43 492.17 492.17 663.8 716.10	12.6287505598	492.17	663.80	Isolated_T-Storms(fair)	True	False	663.80
2010-06-03 17:00:00 9184 17 52.99 400.17 400.17 385.1 419.60	12.6287505598	400.17	385.10	Scattered_T-Storms(sunny)	True	False	385.10
2010-06-03 18:00:00 9233 18 27.05 200.60 200.60 154.7 214.20	12.6287505598	200.60	154.70	Scattered_T-Storms(sunny)	True	False	154.70
2010-06-03 19:00:00 9282 19 6.72 49.31 49.31 45.0 53.20	12.6287505598	49.31	45.00	Scattered_Strong_Storms(sunny)	True	False	45.00
2010-06-03 20:00:00 9331 20 0.30 2.20 2.20 0.2 2.40	12.6287505598	2.20	0.20	Scattered_Strong_Storms(partly_cloudy)	True	False	0.20
2010-06-03 21:00:00 9380 21 0.00 0.00 0.00 0.0 0.00	12.6287505598	0.00	0.00	Scattered_Strong_Storms(mostly_cloudy)	True	False	0.00
2010-06-03 22:00:00 9429 22 0.00 0.00 0.00 0.0 0.00	12.6287505598	0.00	0.00	Isolated_T-Storms(mostly_cloudy)	True	False	0.00
2010-06-03 23:00:00 9478 23 0.00 0.00 0.00 0.0 0.00	12.6287505598	0.00	0.00	Isolated_T-Storms(mostly_cloudy)	True	False	0.00
2010-06-04 00:00:00 9527 0 0.00 0.00 0.00 0.0 0.00	12.6287505598	0.00	0.00	Isolated_T-Storms(mostly_cloudy)	True	False	0.00
2010-06-04 01:00:00 9576 1 0.00 0.00 0.00 0.0 0.00	12.6287505598	0.00	0.00	Isolated_T-Storms(partly_cloudy)	True	False	0.00
2010-06-04 02:00:00 9625 2 0.00 0.00 0.00 0.0 0.00	12.6287505598	0.00	0.00	Isolated_T-Storms(mostly_cloudy)	True	False	0.00
2010-06-04 03:00:00 9674 3 0.00 0.00 0.00 0.0 0.00	12.6175253855	0.00	0.00	Scattered_T-Storms(fog)	True	False	0.00
2010-06-04 04:00:00 9723 4 0.00 0.00 0.00 0.0 0.00	12.6175253855	0.00	0.00	Few_Showers(fog)	True	False	0.00
2010-06-04 05:00:00 9772 5 0.23 0.23 0.23 0.0 1.80	12.6175253855	0.23	0.00	Few_Showers(fog)	True	False	0.00
2010-06-04 06:00:00 9821 6 9.27 9.27 9.27 55.2 73.50	12.6175253855	9.27	55.20	Few_Showers(sunny)	True	False	55.20
2010-06-04 07:00:00 9870 7 33.85 33.85 33.85 225.0 268.30	12.6175253855	33.85	225.00	Mostly_Sunny(sunny)	False	False	225.00
2010-06-04 08:00:00 9919 8 67.10 67.10 67.10 482.6 531.80	12.6175253855	67.10	482.60	Mostly_Sunny(sunny)	False	False	482.60
2010-06-04 09:00:00 9968 9 609.02 609.02 609.02 710.4 770.00	79.0929834569	609.02	710.40	Partly_Cloudy(sunny)	True	False	710.40
2010-06-04 10:00:00 10017 10 908.30 908.30 908.30 882.2 952.40	95.3695926081	908.30	882.20	Sunny(sunny)	True	False	882.20
2010-06-04 11:00:00 10066 11 1003.10 1003.10 1003.10 915.4 1051.80	95.3695926081	1003.10	915.40	Sunny(sunny)	True	False	915.40
2010-06-04 12:00:00 10115 12 1043.53 1043.53 1009.51 962.6 1094.20	95.3695926081	1009.51	962.60	Sunny(partly_cloudy)	True	False	962.60
2010-06-04 13:00:00 10164 13 1029.90 1029.90 1000.30 645.3 1079.90	92.6291474171	1000.30	645.30	Mostly_Sunny(partly_cloudy)	False	False	645.30
2010-06-04 14:00:00 10213 14 965.90 965.90 881.46 979.6 1012.80	87.0317550865	881.46	979.60	Mostly_Sunny(partly_cloudy)	False	False	979.60
2010-06-04 15:00:00 10262 15 851.84 851.84 785.77 713.0 893.20	87.9729482727	785.77	713.00	Mostly_Sunny(fair)	False	False	713.00
2010-06-04 16:00:00 10311 16 427.91 427.91 427.91 609.0 716.10	59.7555329197	427.91	609.00	Mostly_Sunny(partly_cloudy)	False	False	609.00
2010-06-04 17:00:00 10360 17 361.10 400.17 400.17 290.5 419.60	95.3695926081	400.17	290.50	Mostly_Sunny(fair)	False	False	290.50
2010-06-04 18:00:00 10409 18 204.28 170.99 170.99 123.1 214.20	79.8253470667	170.99	123.10	Mostly_Sunny(fair)	False	False	123.10
2010-06-04 19:00:00 10458 19 42.08 45.24 45.24 34.8 53.20	79.0929834569	45.24	34.80	Partly_Cloudy(sunny)	True	False	34.80
2010-06-04 20:00:00 10507 20 1.90 1.66 1.66 1.3 2.40	79.0929834569	1.66	1.30	Partly_Cloudy(mostly_cloudy)	True	False	1.30
2010-06-04 21:00:00 10556 21 0.00 0.00 0.00 0.0 0.00	79.0929834569	0.00	0.00	Partly_Cloudy(partly_cloudy)	True	False	0.00
2010-06-04 22:00:00 10605 22 0.00 0.00 0.00 0.0 0.00	12.6175253855	0.00	0.00	Isolated_T-Storms(partly_cloudy)	True	False	0.00
2010-06-04 23:00:00 10654 23 0.00 0.00 0.00 0.0 0.00	12.6175253855	0.00	0.00	Isolated_T-Storms(mostly_cloudy)	True	False	0.00
2010-06-05 00:00:00 10703 0 0.00 0.00 0.00 0.0 0.00	12.6175253855	0.00	0.00	Isolated_T-Storms(clear)	True	False	0.00
2010-06-05 01:00:00 10752 1 0.00 0.00 0.00 0.0 0.00	12.6175253855	0.00	0.00	Scattered_T-Storms(clear)	True	False	0.00
2010-06-05 02:00:00 10801 2 0.00 0.00 0.00 0.0 0.00	12.6175253855	0.00	0.00	Scattered_T-Storms(mostly_cloudy)	True	False	0.00
2010-06-05 03:00:00 10850 3 0.00 0.00 0.00 0.0 0.00	12.6175253855	0.00	0.00	Isolated_T-Storms(mostly_cloudy)	True	False	0.00
2010-06-05 04:00:00 10899 4 0.00 0.00 0.00 0.0 0.00	12.6175253855	0.00	0.00	Isolated_T-Storms(mostly_cloudy)	True	False	0.00
2010-06-05 05:00:00 10948 5 0.23 0.23 0.23 0.0 1.80	12.6175253855	0.23	0.00	Isolated_T-Storms(mostly_cloudy)	True	False	0.00
2010-06-05 06:00:00 10997 6 9.27 9.27 9.27 22.5 73.50	12.6175253855	9.27	22.50	Isolated_T-Storms(mostly_cloudy)	True	False	22.50
2010-06-05 07:00:00 11046 7 33.85 33.85 33.85 154.1 268.30	12.6175253855	33.85	154.10	Isolated_T-Storms(partly_cloudy)	True	False	154.10
2010-06-05 08:00:00 11095 8 67.10 67.10 67.10 353.6 531.80	12.6175253855	67.10	353.60	Isolated_T-Storms(partly_cloudy)	True	False	353.60
2010-06-05 09:00:00 11144 9 95.82 95.82 95.82 437.0 759.40	12.6175253855	95.82	437.00	Isolated_T-Storms(partly_cloudy)	True	False	437.00
2010-06-05 10:00:00 11193 10 117.33 117.33 117.33 809.6 929.60	12.6215390314	117.33	809.60	Scattered_T-Storms(mostly_cloudy)	True	False	809.60
2010-06-05 11:00:00 11242 11 132.75 132.75 132.75 815.5 1051.80	12.6215390314	132.75	815.50	Scattered_T-Storms(partly_cloudy)	True	False	815.50
2010-06-05 12:00:00 11291 12 138.10 629.66 629.66 969.1 1094.20	12.6215390314	629.66	969.10	Isolated_T-Storms(fair)	True	False	969.10
2010-06-05 13:00:00 11340 13 136.30 940.50 940.50 807.3 1079.90	12.6215390314	940.50	807.30	Isolated_T-Storms(partly_cloudy)	True	False	807.30
2010-06-05 14:00:00 11389 14 127.83 785.26 785.26 685.1 1012.80	12.6215390314	785.26	685.10	Isolated_T-Storms(partly_cloudy)	True	False	685.10
2010-06-05 15:00:00 11438 15 112.74 791.08 791.08 642.6 893.20	12.6215390314	791.08	642.60	Isolated_T-Storms(partly_cloudy)	True	False	642.60
2010-06-05 16:00:00 11487 16 90.35 535.33 535.33 552.1 716.10	12.6175253855	535.33	552.10	Isolated_T-Storms(sunny)	True	False	552.10
2010-06-05 17:00:00 11536 17 52.94 283.83 283.83 411.2 419.60	12.6175253855	283.83	411.20	Isolated_T-Storms(partly_cloudy)	True	False	411.20
2010-06-05 18:00:00 11585 18 27.03 154.10 154.10 156.7 214.20	12.6175253855	154.10	156.70	Isolated_T-Storms(sunny)	True	False	156.70
2010-06-05 19:00:00 11634 19 6.74 41.17 41.17 45.0 53.40	12.6175253855	41.17	45.00	Isolated_T-Storms(partly_cloudy)	True	False	45.00
2010-06-05 20:00:00 11683 20 0.35 2.66 2.66 0.7 2.80	12.6175253855	2.66	0.70	Isolated_T-Storms(mostly_cloudy)	True	False	0.70
2010-06-05 21:00:00 11732 21 0.00 0.00 0.00 0.0 0.00	12.6175253855	0.00	0.00	Isolated_T-Storms(mostly_cloudy)	True	False	0.00
2010-06-05 22:00:00 11781 22 0.00 0.00 0.00 0.0 0.00	12.6175253855	0.00	0.00	Scattered_T-Storms(mostly_cloudy)	True	False	0.00
2010-06-05 23:00:00 11830 23 0.00 0.00 0.00 0.0 0.00	12.6175253855	0.00	0.00	Scattered_T-Storms(mostly_cloudy)	True	False	0.00
2010-06-06 00:00:00 11879 0 0.00 0.00 0.00 0.0 0.00	12.6175253855	0.00	0.00	Scattered_T-Storms(mostly_cloudy)	True	False	0.00
2010-06-06 01:00:00 11928 1 0.00 0.00 0.00 0.0 0.00	12.6175253855	0.00	0.00	Isolated_T-Storms(mostly_cloudy)	True	False	0.00
2010-06-06 02:00:00 11977 2 0.00 0.00 0.00 0.0 0.00	12.6175253855	0.00	0.00	Isolated_T-Storms(cloudy)	True	False	0.00
2010-06-06 03:00:00 12026 3 0.00 0.00 0.00 0.0 0.00	12.0556872038	0.00	0.00	Isolated_T-Storms(partly_cloudy)	True	False	0.00
2010-06-06 04:00:00 12075 4 0.00 0.00 0.00 0.0 0.00	12.0556872038	0.00	0.00	Few_Showers(partly_cloudy)	True	False	0.00
2010-06-06 05:00:00 12124 5 0.22 0.22 0.22 0.0 1.80	12.0556872038	0.22	0.00	Few_Showers(sunny)	True	False	0.00
2010-06-06 06:00:00 12173 6 8.86 8.86 8.86 59.8 73.50	12.0556872038	8.86	59.80	Few_Showers(sunny)	True	False	59.80
2010-06-06 07:00:00 12222 7 29.96 29.96 29.96 153.2 248.50	12.0556872038	29.96	153.20	Scattered_T-Storms(mostly_cloudy)	True	False	153.20
2010-06-06 08:00:00 12271 8 64.11 64.11 64.11 364.9 531.80	12.0556872038	64.11	364.90	Scattered_T-Storms(mostly_cloudy)	True	False	364.90
2010-06-06 09:00:00 12320 9 91.55 91.55 91.55 629.6 759.40	12.0556872038	91.55	629.60	Scattered_T-Storms(partly_cloudy)	True	False	629.60
2010-06-06 10:00:00 12369 10 112.07 112.07 112.07 792.2 929.60	12.0556872038	112.07	792.20	Isolated_T-Storms(partly_cloudy)	True	False	792.20
2010-06-06 11:00:00 12418 11 126.80 126.80 126.80 812.8 1051.80	12.0556872038	126.80	812.80	Isolated_T-Storms(partly_cloudy)	True	False	812.80
2010-06-06 12:00:00 12467 12 131.91 907.17 907.17 875.5 1094.20	12.0556872038	907.17	875.50	Isolated_T-Storms(partly_cloudy)	True	False	875.50
2010-06-06 13:00:00 12516 13 130.19 920.28 920.28 708.8 1079.90	12.0556872038	920.28	708.80	Scattered_T-Storms(partly_cloudy)	True	False	708.80
2010-06-06 14:00:00 12565 14 122.10 782.66 782.66 515.1 1012.80	12.0556872038	782.66	515.10	Scattered_T-Storms_/_Wind(mostly_cloudy)	True	False	515.10
2010-06-06 15:00:00 12614 15 107.68 714.67 714.67 451.2 893.20	12.0556872038	714.67	451.20	Scattered_T-Storms_/_Wind(mostly_cloudy)	True	False	451.20
2010-06-06 16:00:00 12663 16 86.33 470.02 470.02 357.2 716.10	12.0556872038	470.02	357.20	Scattered_Strong_Storms(heavy_rain)	True	False	357.20
2010-06-06 17:00:00 12712 17 50.59 213.40 213.40 407.5 419.60	12.0556872038	213.40	407.50	Scattered_Strong_Storms_/_Wind(mostly_cloudy)	True	False	407.50
2010-06-06 18:00:00 12761 18 25.82 108.20 108.20 154.5 214.20	12.0556872038	108.20	154.50	Scattered_Strong_Storms(partly_cloudy)	True	False	154.50
2010-06-06 19:00:00 12810 19 6.44 26.64 26.64 39.1 53.40	12.0556872038	26.64	39.10	Strong_Storms_/_Wind(fair)	True	False	39.10
2010-06-06 20:00:00 12859 20 0.34 2.66 2.66 1.3 2.80	12.0556872038	2.66	1.30	Strong_Storms(partly_cloudy)	True	False	1.30
2010-06-06 21:00:00 12908 21 0.00 0.00 0.00 0.0 0.00	82.3879885605	0.00	0.00	Partly_Cloudy(clear)	True	False	0.00
2010-06-06 22:00:00 12957 22 0.00 0.00 0.00 0.0 0.00	40.7872219053	0.00	0.00	Cloudy(clear)	True	False	0.00
2010-06-06 23:00:00 13006 23 0.00 0.00 0.00 0.0 0.00	40.7872219053	0.00	0.00	Cloudy(clear)	True	False	0.00
