<?xml version="1.0" encoding="utf-8"  standalone="no"?>
<!DOCTYPE svg PUBLIC "-//W3C//DTD SVG 1.1//EN" 
 "http://www.w3.org/Graphics/SVG/1.1/DTD/svg11.dtd">
<svg 
 width="960" height="450" 
 viewBox="0 0 960 450"
 xmlns="http://www.w3.org/2000/svg"
 xmlns:xlink="http://www.w3.org/1999/xlink"
>

<title>Gnuplot</title>
<desc>Produced by GNUPLOT 4.6 patchlevel 4 </desc>

<g id="gnuplot_canvas">

<rect x="0" y="0" width="960" height="450" fill="none"/>
<defs>

	<circle id='gpDot' r='0.5' stroke-width='0.5'/>
	<path id='gpPt0' stroke-width='0.222' stroke='currentColor' d='M-1,0 h2 M0,-1 v2'/>
	<path id='gpPt1' stroke-width='0.222' stroke='currentColor' d='M-1,-1 L1,1 M1,-1 L-1,1'/>
	<path id='gpPt2' stroke-width='0.222' stroke='currentColor' d='M-1,0 L1,0 M0,-1 L0,1 M-1,-1 L1,1 M-1,1 L1,-1'/>
	<rect id='gpPt3' stroke-width='0.222' stroke='currentColor' x='-1' y='-1' width='2' height='2'/>
	<rect id='gpPt4' stroke-width='0.222' stroke='currentColor' fill='currentColor' x='-1' y='-1' width='2' height='2'/>
	<circle id='gpPt5' stroke-width='0.222' stroke='currentColor' cx='0' cy='0' r='1'/>
	<use xlink:href='#gpPt5' id='gpPt6' fill='currentColor' stroke='none'/>
	<path id='gpPt7' stroke-width='0.222' stroke='currentColor' d='M0,-1.33 L-1.33,0.67 L1.33,0.67 z'/>
	<use xlink:href='#gpPt7' id='gpPt8' fill='currentColor' stroke='none'/>
	<use xlink:href='#gpPt7' id='gpPt9' stroke='currentColor' transform='rotate(180)'/>
	<use xlink:href='#gpPt9' id='gpPt10' fill='currentColor' stroke='none'/>
	<use xlink:href='#gpPt3' id='gpPt11' stroke='currentColor' transform='rotate(45)'/>
	<use xlink:href='#gpPt11' id='gpPt12' fill='currentColor' stroke='none'/>
</defs>
<g style="fill:none; color:white; stroke:currentColor; stroke-width:1.00; stroke-linecap:butt; stroke-linejoin:miter">
</g>
<g style="fill:none; color:black; stroke:currentColor; stroke-width:1.00; stroke-linecap:butt; stroke-linejoin:miter">
	<path stroke='black'  d='M63.6,414.0 L72.6,414.0 M935.0,414.0 L926.0,414.0  h0.01'/>	<g transform="translate(55.3,418.5)" style="stroke:none; fill:black; font-family:Arial; font-size:12.00pt; text-anchor:end">
		<text> 0</text>
	</g>
	<path stroke='black'  d='M63.6,364.3 L72.6,364.3 M935.0,364.3 L926.0,364.3  h0.01'/>	<g transform="translate(55.3,368.8)" style="stroke:none; fill:black; font-family:Arial; font-size:12.00pt; text-anchor:end">
		<text> 2</text>
	</g>
	<path stroke='black'  d='M63.6,314.7 L72.6,314.7 M935.0,314.7 L926.0,314.7  h0.01'/>	<g transform="translate(55.3,319.2)" style="stroke:none; fill:black; font-family:Arial; font-size:12.00pt; text-anchor:end">
		<text> 4</text>
	</g>
	<path stroke='black'  d='M63.6,265.0 L72.6,265.0 M935.0,265.0 L926.0,265.0  h0.01'/>	<g transform="translate(55.3,269.5)" style="stroke:none; fill:black; font-family:Arial; font-size:12.00pt; text-anchor:end">
		<text> 6</text>
	</g>
	<path stroke='black'  d='M63.6,215.3 L72.6,215.3 M935.0,215.3 L926.0,215.3  h0.01'/>	<g transform="translate(55.3,219.8)" style="stroke:none; fill:black; font-family:Arial; font-size:12.00pt; text-anchor:end">
		<text> 8</text>
	</g>
	<path stroke='black'  d='M63.6,165.7 L72.6,165.7 M935.0,165.7 L926.0,165.7  h0.01'/>	<g transform="translate(55.3,170.2)" style="stroke:none; fill:black; font-family:Arial; font-size:12.00pt; text-anchor:end">
		<text> 10</text>
	</g>
	<path stroke='black'  d='M63.6,116.0 L72.6,116.0 M935.0,116.0 L926.0,116.0  h0.01'/>	<g transform="translate(55.3,120.5)" style="stroke:none; fill:black; font-family:Arial; font-size:12.00pt; text-anchor:end">
		<text> 12</text>
	</g>
	<path stroke='black'  d='M63.6,66.4 L72.6,66.4 M935.0,66.4 L926.0,66.4  h0.01'/>	<g transform="translate(55.3,70.9)" style="stroke:none; fill:black; font-family:Arial; font-size:12.00pt; text-anchor:end">
		<text> 14</text>
	</g>
	<path stroke='black'  d='M63.6,16.7 L72.6,16.7 M935.0,16.7 L926.0,16.7  h0.01'/>	<g transform="translate(55.3,21.2)" style="stroke:none; fill:black; font-family:Arial; font-size:12.00pt; text-anchor:end">
		<text> 16</text>
	</g>
	<path stroke='black'  d='M63.6,414.0 L63.6,405.0 M63.6,16.7 L63.6,25.7  h0.01'/>	<g transform="translate(63.6,436.5)" style="stroke:none; fill:black; font-family:Arial; font-size:12.00pt; text-anchor:middle">
		<text>Thu 00:00</text>
	</g>
	<path stroke='black'  d='M79.4,414.0 L79.4,409.5 M79.4,16.7 L79.4,21.2 M95.3,414.0 L95.3,409.5 M95.3,16.7 L95.3,21.2 
		M111.1,414.0 L111.1,409.5 M111.1,16.7 L111.1,21.2 M127.0,414.0 L127.0,409.5 M127.0,16.7 L127.0,21.2 
		M142.8,414.0 L142.8,405.0 M142.8,16.7 L142.8,25.7  h0.01'/>	<g transform="translate(142.8,436.5)" style="stroke:none; fill:black; font-family:Arial; font-size:12.00pt; text-anchor:middle">
		<text>Thu 00:10</text>
	</g>
	<path stroke='black'  d='M158.7,414.0 L158.7,409.5 M158.7,16.7 L158.7,21.2 M174.5,414.0 L174.5,409.5 M174.5,16.7 L174.5,21.2 
		M190.3,414.0 L190.3,409.5 M190.3,16.7 L190.3,21.2 M206.2,414.0 L206.2,409.5 M206.2,16.7 L206.2,21.2 
		M222.0,414.0 L222.0,405.0 M222.0,16.7 L222.0,25.7  h0.01'/>	<g transform="translate(222.0,436.5)" style="stroke:none; fill:black; font-family:Arial; font-size:12.00pt; text-anchor:middle">
		<text>Thu 00:20</text>
	</g>
	<path stroke='black'  d='M237.9,414.0 L237.9,409.5 M237.9,16.7 L237.9,21.2 M253.7,414.0 L253.7,409.5 M253.7,16.7 L253.7,21.2 
		M269.6,414.0 L269.6,409.5 M269.6,16.7 L269.6,21.2 M285.4,414.0 L285.4,409.5 M285.4,16.7 L285.4,21.2 
		M301.3,414.0 L301.3,405.0 M301.3,16.7 L301.3,25.7  h0.01'/>	<g transform="translate(301.3,436.5)" style="stroke:none; fill:black; font-family:Arial; font-size:12.00pt; text-anchor:middle">
		<text>Thu 00:30</text>
	</g>
	<path stroke='black'  d='M317.1,414.0 L317.1,409.5 M317.1,16.7 L317.1,21.2 M332.9,414.0 L332.9,409.5 M332.9,16.7 L332.9,21.2 
		M348.8,414.0 L348.8,409.5 M348.8,16.7 L348.8,21.2 M364.6,414.0 L364.6,409.5 M364.6,16.7 L364.6,21.2 
		M380.5,414.0 L380.5,405.0 M380.5,16.7 L380.5,25.7  h0.01'/>	<g transform="translate(380.5,436.5)" style="stroke:none; fill:black; font-family:Arial; font-size:12.00pt; text-anchor:middle">
		<text>Thu 00:40</text>
	</g>
	<path stroke='black'  d='M396.3,414.0 L396.3,409.5 M396.3,16.7 L396.3,21.2 M412.2,414.0 L412.2,409.5 M412.2,16.7 L412.2,21.2 
		M428.0,414.0 L428.0,409.5 M428.0,16.7 L428.0,21.2 M443.8,414.0 L443.8,409.5 M443.8,16.7 L443.8,21.2 
		M459.7,414.0 L459.7,405.0 M459.7,16.7 L459.7,25.7  h0.01'/>	<g transform="translate(459.7,436.5)" style="stroke:none; fill:black; font-family:Arial; font-size:12.00pt; text-anchor:middle">
		<text>Thu 00:50</text>
	</g>
	<path stroke='black'  d='M475.5,414.0 L475.5,409.5 M475.5,16.7 L475.5,21.2 M491.4,414.0 L491.4,409.5 M491.4,16.7 L491.4,21.2 
		M507.2,414.0 L507.2,409.5 M507.2,16.7 L507.2,21.2 M523.1,414.0 L523.1,409.5 M523.1,16.7 L523.1,21.2 
		M538.9,414.0 L538.9,405.0 M538.9,16.7 L538.9,25.7  h0.01'/>	<g transform="translate(538.9,436.5)" style="stroke:none; fill:black; font-family:Arial; font-size:12.00pt; text-anchor:middle">
		<text>Thu 01:00</text>
	</g>
	<path stroke='black'  d='M554.8,414.0 L554.8,409.5 M554.8,16.7 L554.8,21.2 M570.6,414.0 L570.6,409.5 M570.6,16.7 L570.6,21.2 
		M586.4,414.0 L586.4,409.5 M586.4,16.7 L586.4,21.2 M602.3,414.0 L602.3,409.5 M602.3,16.7 L602.3,21.2 
		M618.1,414.0 L618.1,405.0 M618.1,16.7 L618.1,25.7  h0.01'/>	<g transform="translate(618.1,436.5)" style="stroke:none; fill:black; font-family:Arial; font-size:12.00pt; text-anchor:middle">
		<text>Thu 01:10</text>
	</g>
	<path stroke='black'  d='M634.0,414.0 L634.0,409.5 M634.0,16.7 L634.0,21.2 M649.8,414.0 L649.8,409.5 M649.8,16.7 L649.8,21.2 
		M665.7,414.0 L665.7,409.5 M665.7,16.7 L665.7,21.2 M681.5,414.0 L681.5,409.5 M681.5,16.7 L681.5,21.2 
		M697.3,414.0 L697.3,405.0 M697.3,16.7 L697.3,25.7  h0.01'/>	<g transform="translate(697.3,436.5)" style="stroke:none; fill:black; font-family:Arial; font-size:12.00pt; text-anchor:middle">
		<text>Thu 01:20</text>
	</g>
	<path stroke='black'  d='M713.2,414.0 L713.2,409.5 M713.2,16.7 L713.2,21.2 M729.0,414.0 L729.0,409.5 M729.0,16.7 L729.0,21.2 
		M744.9,414.0 L744.9,409.5 M744.9,16.7 L744.9,21.2 M760.7,414.0 L760.7,409.5 M760.7,16.7 L760.7,21.2 
		M776.6,414.0 L776.6,405.0 M776.6,16.7 L776.6,25.7  h0.01'/>	<g transform="translate(776.6,436.5)" style="stroke:none; fill:black; font-family:Arial; font-size:12.00pt; text-anchor:middle">
		<text>Thu 01:30</text>
	</g>
	<path stroke='black'  d='M792.4,414.0 L792.4,409.5 M792.4,16.7 L792.4,21.2 M808.3,414.0 L808.3,409.5 M808.3,16.7 L808.3,21.2 
		M824.1,414.0 L824.1,409.5 M824.1,16.7 L824.1,21.2 M839.9,414.0 L839.9,409.5 M839.9,16.7 L839.9,21.2 
		M855.8,414.0 L855.8,405.0 M855.8,16.7 L855.8,25.7  h0.01'/>	<g transform="translate(855.8,436.5)" style="stroke:none; fill:black; font-family:Arial; font-size:12.00pt; text-anchor:middle">
		<text>Thu 01:40</text>
	</g>
	<path stroke='black'  d='M871.6,414.0 L871.6,409.5 M871.6,16.7 L871.6,21.2 M887.5,414.0 L887.5,409.5 M887.5,16.7 L887.5,21.2 
		M903.3,414.0 L903.3,409.5 M903.3,16.7 L903.3,21.2 M919.2,414.0 L919.2,409.5 M919.2,16.7 L919.2,21.2 
		M935.0,414.0 L935.0,405.0 M935.0,16.7 L935.0,25.7  h0.01'/>	<g transform="translate(935.0,436.5)" style="stroke:none; fill:black; font-family:Arial; font-size:12.00pt; text-anchor:middle">
		<text>Thu 01:50</text>
	</g>
	<path stroke='black'  d='M63.6,16.7 L63.6,414.0 L935.0,414.0 L935.0,16.7 L63.6,16.7 Z  h0.01'/>	<g transform="translate(17.6,215.4) rotate(270)" style="stroke:none; fill:black; font-family:Arial; font-size:12.00pt; text-anchor:middle">
		<text>Nodes</text>
	</g>
</g>
	<g id="gnuplot_plot_1" ><title>gnuplot_plot_1</title>
<g style="fill:none; color:white; stroke:black; stroke-width:2.00; stroke-linecap:butt; stroke-linejoin:miter">
</g>
<g style="fill:none; color:red; stroke:currentColor; stroke-width:2.00; stroke-linecap:butt; stroke-linejoin:miter">
	<g transform="translate(867.9,39.2)" style="stroke:none; fill:black; font-family:Arial; font-size:12.00pt; text-anchor:end">
		<text>Dec nodes</text>
	</g>
	<g style = 'stroke:none; shape-rendering:crispEdges'>
		<polygon fill = 'rgb(192, 192, 192)' points = '876.2,39.2 918.4,39.2 918.4,30.2 876.2,30.2 '/>
	</g>
	<path stroke='rgb(192, 192, 192)'  d='M876.2,39.2 L918.4,39.2 L918.4,30.2 L876.2,30.2 L876.2,39.2 Z  h0.01'/>	<g style = 'stroke:none; shape-rendering:crispEdges'>
		<polygon fill = 'rgb(192, 192, 192)' points = '63.6,414.0 63.6,414.0 63.6,240.2 69.9,240.2 76.3,240.2 82.6,240.2 88.9,240.2 95.3,240.2 101.6,240.2 108.0,240.2 114.3,240.2 120.6,240.2 127.0,240.2 133.3,240.2 139.6,240.2 146.0,240.2
152.3,240.2 158.7,240.2 165.0,240.2 171.3,240.2 177.7,240.2 184.0,240.2 190.3,240.2 196.7,240.2 203.0,240.2 209.4,240.2 215.7,240.2 222.0,240.2 228.4,240.2 234.7,240.2 241.0,240.2 247.4,240.2
253.7,240.2 260.1,240.2 266.4,240.2 272.7,240.2 279.1,240.2 285.4,240.2 291.7,240.2 298.1,240.2 304.4,240.2 310.8,240.2 317.1,240.2 323.4,240.2 329.8,240.2 336.1,240.2 342.4,240.2 348.8,240.2
355.1,240.2 361.5,240.2 367.8,240.2 374.1,240.2 380.5,240.2 386.8,240.2 393.1,240.2 399.5,240.2 405.8,240.2 412.2,240.2 418.5,240.2 424.8,240.2 431.2,240.2 437.5,240.2 443.8,240.2 450.2,240.2
456.5,240.2 462.9,240.2 469.2,240.2 475.5,240.2 481.9,240.2 488.2,240.2 494.5,240.2 504.1,240.2 510.4,240.2 516.7,240.2 523.1,240.2 529.4,240.2 535.7,240.2 542.1,240.2 548.4,240.2 554.8,240.2
561.1,240.2 567.4,240.2 573.8,240.2 580.1,240.2 586.4,240.2 592.8,240.2 599.1,240.2 605.5,240.2 611.8,240.2 618.1,240.2 624.5,240.2 630.8,240.2 637.1,240.2 643.5,240.2 649.8,240.2 656.2,240.2
662.5,240.2 668.8,240.2 675.2,240.2 681.5,240.2 687.8,240.2 694.2,240.2 700.5,240.2 706.9,240.2 713.2,240.2 719.5,240.2 725.9,240.2 732.2,240.2 738.5,240.2 744.9,240.2 751.2,240.2 757.6,240.2
763.9,240.2 770.2,240.2 776.6,240.2 782.9,240.2 789.2,240.2 795.6,240.2 801.9,240.2 808.3,240.2 814.6,240.2 820.9,240.2 827.3,240.2 833.6,240.2 839.9,240.2 846.3,240.2 852.6,240.2 859.0,240.2
865.3,240.2 871.6,240.2 878.0,240.2 884.3,414.0 '/>
	</g>
	<path stroke='rgb(192, 192, 192)'  d='M63.6,414.0 L63.6,240.2 L69.9,240.2 L76.3,240.2 L82.6,240.2 L88.9,240.2 L95.3,240.2 L101.6,240.2 
		L108.0,240.2 L114.3,240.2 L120.6,240.2 L127.0,240.2 L133.3,240.2 L139.6,240.2 L146.0,240.2 L152.3,240.2 
		L158.7,240.2 L165.0,240.2 L171.3,240.2 L177.7,240.2 L184.0,240.2 L190.3,240.2 L196.7,240.2 L203.0,240.2 
		L209.4,240.2 L215.7,240.2 L222.0,240.2 L228.4,240.2 L234.7,240.2 L241.0,240.2 L247.4,240.2 L253.7,240.2 
		L260.1,240.2 L266.4,240.2 L272.7,240.2 L279.1,240.2 L285.4,240.2 L291.7,240.2 L298.1,240.2 L304.4,240.2 
		L310.8,240.2 L317.1,240.2 L323.4,240.2 L329.8,240.2 L336.1,240.2 L342.4,240.2 L348.8,240.2 L355.1,240.2 
		L361.5,240.2 L367.8,240.2 L374.1,240.2 L380.5,240.2 L386.8,240.2 L393.1,240.2 L399.5,240.2 L405.8,240.2 
		L412.2,240.2 L418.5,240.2 L424.8,240.2 L431.2,240.2 L437.5,240.2 L443.8,240.2 L450.2,240.2 L456.5,240.2 
		L462.9,240.2 L469.2,240.2 L475.5,240.2 L481.9,240.2 L488.2,240.2 L494.5,240.2 L504.1,240.2 L510.4,240.2 
		L516.7,240.2 L523.1,240.2 L529.4,240.2 L535.7,240.2 L542.1,240.2 L548.4,240.2 L554.8,240.2 L561.1,240.2 
		L567.4,240.2 L573.8,240.2 L580.1,240.2 L586.4,240.2 L592.8,240.2 L599.1,240.2 L605.5,240.2 L611.8,240.2 
		L618.1,240.2 L624.5,240.2 L630.8,240.2 L637.1,240.2 L643.5,240.2 L649.8,240.2 L656.2,240.2 L662.5,240.2 
		L668.8,240.2 L675.2,240.2 L681.5,240.2 L687.8,240.2 L694.2,240.2 L700.5,240.2 L706.9,240.2 L713.2,240.2 
		L719.5,240.2 L725.9,240.2 L732.2,240.2 L738.5,240.2 L744.9,240.2 L751.2,240.2 L757.6,240.2 L763.9,240.2 
		L770.2,240.2 L776.6,240.2 L782.9,240.2 L789.2,240.2 L795.6,240.2 L801.9,240.2 L808.3,240.2 L814.6,240.2 
		L820.9,240.2 L827.3,240.2 L833.6,240.2 L839.9,240.2 L846.3,240.2 L852.6,240.2 L859.0,240.2 L865.3,240.2 
		L871.6,240.2 L878.0,240.2 L884.3,414.0  h0.01'/></g>
	</g>
	<g id="gnuplot_plot_2" ><title>gnuplot_plot_2</title>
<g style="fill:none; color:white; stroke:rgb(192, 192, 192); stroke-width:1.00; stroke-linecap:butt; stroke-linejoin:miter">
</g>
<g style="fill:none; color:green; stroke:currentColor; stroke-width:1.00; stroke-linecap:butt; stroke-linejoin:miter">
	<g transform="translate(867.9,57.2)" style="stroke:none; fill:black; font-family:Arial; font-size:12.00pt; text-anchor:end">
		<text>Up nodes</text>
	</g>
	<g style = 'stroke:none; shape-rendering:crispEdges'>
		<polygon fill = 'rgb(144, 144, 144)' points = '876.2,57.2 918.4,57.2 918.4,48.2 876.2,48.2 '/>
	</g>
	<path stroke='rgb(144, 144, 144)'  d='M876.2,57.2 L918.4,57.2 L918.4,48.2 L876.2,48.2 L876.2,57.2 Z  h0.01'/>	<g style = 'stroke:none; shape-rendering:crispEdges'>
		<polygon fill = 'rgb(144, 144, 144)' points = '63.6,414.0 63.6,414.0 63.6,240.2 69.9,240.2 76.3,240.2 82.6,240.2 88.9,240.2 95.3,240.2 101.6,240.2 108.0,240.2 114.3,240.2 120.6,240.2 127.0,240.2 133.3,240.2 139.6,240.2 146.0,240.2
152.3,240.2 158.7,240.2 165.0,240.2 171.3,240.2 177.7,240.2 184.0,240.2 190.3,240.2 196.7,240.2 203.0,240.2 209.4,240.2 215.7,240.2 222.0,240.2 228.4,240.2 234.7,240.2 241.0,240.2 247.4,240.2
253.7,240.2 260.1,240.2 266.4,240.2 272.7,240.2 279.1,240.2 285.4,240.2 291.7,240.2 298.1,240.2 304.4,240.2 310.8,240.2 317.1,240.2 323.4,240.2 329.8,240.2 336.1,240.2 342.4,240.2 348.8,240.2
355.1,240.2 361.5,240.2 367.8,240.2 374.1,240.2 380.5,240.2 386.8,240.2 393.1,240.2 399.5,240.2 405.8,240.2 412.2,240.2 418.5,240.2 424.8,240.2 431.2,240.2 437.5,240.2 443.8,240.2 450.2,240.2
456.5,240.2 462.9,240.2 469.2,240.2 475.5,240.2 481.9,240.2 488.2,240.2 494.5,240.2 504.1,240.2 510.4,240.2 516.7,240.2 523.1,240.2 529.4,240.2 535.7,240.2 542.1,240.2 548.4,240.2 554.8,240.2
561.1,240.2 567.4,240.2 573.8,240.2 580.1,240.2 586.4,240.2 592.8,240.2 599.1,240.2 605.5,240.2 611.8,240.2 618.1,240.2 624.5,240.2 630.8,240.2 637.1,240.2 643.5,240.2 649.8,240.2 656.2,240.2
662.5,240.2 668.8,240.2 675.2,240.2 681.5,240.2 687.8,240.2 694.2,240.2 700.5,240.2 706.9,240.2 713.2,240.2 719.5,240.2 725.9,240.2 732.2,240.2 738.5,240.2 744.9,240.2 751.2,240.2 757.6,240.2
763.9,240.2 770.2,240.2 776.6,240.2 782.9,240.2 789.2,240.2 795.6,240.2 801.9,240.2 808.3,240.2 814.6,240.2 820.9,240.2 827.3,240.2 833.6,240.2 839.9,240.2 846.3,240.2 852.6,240.2 859.0,240.2
865.3,240.2 871.6,240.2 878.0,240.2 884.3,414.0 '/>
	</g>
	<path stroke='rgb(144, 144, 144)'  d='M63.6,414.0 L63.6,240.2 L69.9,240.2 L76.3,240.2 L82.6,240.2 L88.9,240.2 L95.3,240.2 L101.6,240.2 
		L108.0,240.2 L114.3,240.2 L120.6,240.2 L127.0,240.2 L133.3,240.2 L139.6,240.2 L146.0,240.2 L152.3,240.2 
		L158.7,240.2 L165.0,240.2 L171.3,240.2 L177.7,240.2 L184.0,240.2 L190.3,240.2 L196.7,240.2 L203.0,240.2 
		L209.4,240.2 L215.7,240.2 L222.0,240.2 L228.4,240.2 L234.7,240.2 L241.0,240.2 L247.4,240.2 L253.7,240.2 
		L260.1,240.2 L266.4,240.2 L272.7,240.2 L279.1,240.2 L285.4,240.2 L291.7,240.2 L298.1,240.2 L304.4,240.2 
		L310.8,240.2 L317.1,240.2 L323.4,240.2 L329.8,240.2 L336.1,240.2 L342.4,240.2 L348.8,240.2 L355.1,240.2 
		L361.5,240.2 L367.8,240.2 L374.1,240.2 L380.5,240.2 L386.8,240.2 L393.1,240.2 L399.5,240.2 L405.8,240.2 
		L412.2,240.2 L418.5,240.2 L424.8,240.2 L431.2,240.2 L437.5,240.2 L443.8,240.2 L450.2,240.2 L456.5,240.2 
		L462.9,240.2 L469.2,240.2 L475.5,240.2 L481.9,240.2 L488.2,240.2 L494.5,240.2 L504.1,240.2 L510.4,240.2 
		L516.7,240.2 L523.1,240.2 L529.4,240.2 L535.7,240.2 L542.1,240.2 L548.4,240.2 L554.8,240.2 L561.1,240.2 
		L567.4,240.2 L573.8,240.2 L580.1,240.2 L586.4,240.2 L592.8,240.2 L599.1,240.2 L605.5,240.2 L611.8,240.2 
		L618.1,240.2 L624.5,240.2 L630.8,240.2 L637.1,240.2 L643.5,240.2 L649.8,240.2 L656.2,240.2 L662.5,240.2 
		L668.8,240.2 L675.2,240.2 L681.5,240.2 L687.8,240.2 L694.2,240.2 L700.5,240.2 L706.9,240.2 L713.2,240.2 
		L719.5,240.2 L725.9,240.2 L732.2,240.2 L738.5,240.2 L744.9,240.2 L751.2,240.2 L757.6,240.2 L763.9,240.2 
		L770.2,240.2 L776.6,240.2 L782.9,240.2 L789.2,240.2 L795.6,240.2 L801.9,240.2 L808.3,240.2 L814.6,240.2 
		L820.9,240.2 L827.3,240.2 L833.6,240.2 L839.9,240.2 L846.3,240.2 L852.6,240.2 L859.0,240.2 L865.3,240.2 
		L871.6,240.2 L878.0,240.2 L884.3,414.0  h0.01'/></g>
	</g>
	<g id="gnuplot_plot_3" ><title>gnuplot_plot_3</title>
<g style="fill:none; color:blue; stroke:currentColor; stroke-width:1.00; stroke-linecap:butt; stroke-linejoin:miter">
	<g transform="translate(867.9,75.2)" style="stroke:none; fill:black; font-family:Arial; font-size:12.00pt; text-anchor:end">
		<text>Run nodes</text>
	</g>
	<g style = 'stroke:none; shape-rendering:crispEdges'>
		<polygon fill = 'rgb( 64,  64,  64)' points = '876.2,75.2 918.4,75.2 918.4,66.2 876.2,66.2 '/>
	</g>
	<path stroke='rgb( 64,  64,  64)'  d='M876.2,75.2 L918.4,75.2 L918.4,66.2 L876.2,66.2 L876.2,75.2 Z  h0.01'/>	<g style = 'stroke:none; shape-rendering:crispEdges'>
		<polygon fill = 'rgb( 64,  64,  64)' points = '63.6,414.0 63.6,414.0 63.6,414.0 69.9,414.0 76.3,414.0 82.6,414.0 88.9,389.2 95.3,364.3 101.6,364.3 108.0,364.3 114.3,364.3 120.6,364.3 127.0,364.3 133.3,389.2 139.6,389.2 146.0,389.2
152.3,389.2 158.7,414.0 165.0,414.0 171.3,414.0 177.7,414.0 184.0,414.0 190.3,414.0 196.7,414.0 203.0,414.0 209.4,414.0 215.7,414.0 222.0,414.0 228.4,414.0 234.7,414.0 241.0,414.0 247.4,414.0
253.7,414.0 260.1,414.0 266.4,414.0 272.7,414.0 279.1,414.0 285.4,414.0 291.7,414.0 298.1,414.0 304.4,414.0 310.8,414.0 317.1,414.0 323.4,414.0 329.8,414.0 336.1,414.0 342.4,414.0 348.8,414.0
355.1,414.0 361.5,414.0 367.8,414.0 374.1,414.0 380.5,414.0 386.8,414.0 393.1,414.0 399.5,414.0 405.8,414.0 412.2,414.0 418.5,414.0 424.8,414.0 431.2,414.0 437.5,414.0 443.8,414.0 450.2,414.0
456.5,414.0 462.9,414.0 469.2,414.0 475.5,414.0 481.9,414.0 488.2,414.0 494.5,414.0 504.1,414.0 510.4,414.0 516.7,414.0 523.1,414.0 529.4,414.0 535.7,414.0 542.1,414.0 548.4,414.0 554.8,414.0
561.1,414.0 567.4,414.0 573.8,414.0 580.1,414.0 586.4,414.0 592.8,414.0 599.1,414.0 605.5,414.0 611.8,414.0 618.1,414.0 624.5,414.0 630.8,414.0 637.1,414.0 643.5,414.0 649.8,414.0 656.2,414.0
662.5,414.0 668.8,414.0 675.2,414.0 681.5,414.0 687.8,414.0 694.2,414.0 700.5,414.0 706.9,414.0 713.2,414.0 719.5,414.0 725.9,414.0 732.2,414.0 738.5,414.0 744.9,414.0 751.2,414.0 757.6,414.0
763.9,414.0 770.2,414.0 776.6,414.0 782.9,414.0 789.2,414.0 795.6,414.0 801.9,414.0 808.3,414.0 814.6,414.0 820.9,414.0 827.3,414.0 833.6,414.0 839.9,414.0 846.3,414.0 852.6,414.0 859.0,414.0
865.3,414.0 871.6,414.0 878.0,414.0 884.3,414.0 '/>
	</g>
	<path stroke='rgb( 64,  64,  64)'  d='M63.6,414.0 L69.9,414.0 L76.3,414.0 L82.6,414.0 L88.9,389.2 L95.3,364.3 L101.6,364.3 L108.0,364.3 
		L114.3,364.3 L120.6,364.3 L127.0,364.3 L133.3,389.2 L139.6,389.2 L146.0,389.2 L152.3,389.2 L158.7,414.0 
		L165.0,414.0 L171.3,414.0 L177.7,414.0 L184.0,414.0 L190.3,414.0 L196.7,414.0 L203.0,414.0 L209.4,414.0 
		L215.7,414.0 L222.0,414.0 L228.4,414.0 L234.7,414.0 L241.0,414.0 L247.4,414.0 L253.7,414.0 L260.1,414.0 
		L266.4,414.0 L272.7,414.0 L279.1,414.0 L285.4,414.0 L291.7,414.0 L298.1,414.0 L304.4,414.0 L310.8,414.0 
		L317.1,414.0 L323.4,414.0 L329.8,414.0 L336.1,414.0 L342.4,414.0 L348.8,414.0 L355.1,414.0 L361.5,414.0 
		L367.8,414.0 L374.1,414.0 L380.5,414.0 L386.8,414.0 L393.1,414.0 L399.5,414.0 L405.8,414.0 L412.2,414.0 
		L418.5,414.0 L424.8,414.0 L431.2,414.0 L437.5,414.0 L443.8,414.0 L450.2,414.0 L456.5,414.0 L462.9,414.0 
		L469.2,414.0 L475.5,414.0 L481.9,414.0 L488.2,414.0 L494.5,414.0 L504.1,414.0 L510.4,414.0 L516.7,414.0 
		L523.1,414.0 L529.4,414.0 L535.7,414.0 L542.1,414.0 L548.4,414.0 L554.8,414.0 L561.1,414.0 L567.4,414.0 
		L573.8,414.0 L580.1,414.0 L586.4,414.0 L592.8,414.0 L599.1,414.0 L605.5,414.0 L611.8,414.0 L618.1,414.0 
		L624.5,414.0 L630.8,414.0 L637.1,414.0 L643.5,414.0 L649.8,414.0 L656.2,414.0 L662.5,414.0 L668.8,414.0 
		L675.2,414.0 L681.5,414.0 L687.8,414.0 L694.2,414.0 L700.5,414.0 L706.9,414.0 L713.2,414.0 L719.5,414.0 
		L725.9,414.0 L732.2,414.0 L738.5,414.0 L744.9,414.0 L751.2,414.0 L757.6,414.0 L763.9,414.0 L770.2,414.0 
		L776.6,414.0 L782.9,414.0 L789.2,414.0 L795.6,414.0 L801.9,414.0 L808.3,414.0 L814.6,414.0 L820.9,414.0 
		L827.3,414.0 L833.6,414.0 L839.9,414.0 L846.3,414.0 L852.6,414.0 L859.0,414.0 L865.3,414.0 L871.6,414.0 
		L878.0,414.0 L884.3,414.0  h0.01'/></g>
	</g>
<g style="fill:none; color:black; stroke:currentColor; stroke-width:1.00; stroke-linecap:butt; stroke-linejoin:miter">
	<path stroke='black'  d='M63.6,16.7 L63.6,414.0 L935.0,414.0 L935.0,16.7 L63.6,16.7 Z  h0.01'/></g>
</g>
</svg>

