2010-07-01 02:00:00 41521 2 0.00 0.00 0.00 0.0 0.00	74.2258734314	0.00	0.00	Clear(cloudy)	True	False	0.00
2010-07-01 03:00:00 41522 3 0.00 0.00 0.00 0.0 0.00	74.2258734314	0.00	0.00	Clear(fair)	True	False	0.00
2010-07-01 04:00:00 41523 4 0.00 0.00 0.00 0.0 0.00	74.2258734314	0.00	0.00	Clear(partly_cloudy)	True	False	0.00
2010-07-01 05:00:00 41524 5 1.34 1.34 1.34 0.3 1.80	74.2258734314	1.34	0.30	Clear(fair)	True	False	0.30
2010-07-01 06:00:00 41525 6 57.67 57.67 57.67 31.2 77.70	74.2258734314	57.67	31.20	Sunny(sunny)	True	False	31.20
2010-07-01 07:00:00 41526 7 163.52 163.52 163.52 174.2 220.30	74.2258734314	163.52	174.20	Sunny(sunny)	True	False	174.20
2010-07-01 08:00:00 41527 8 360.66 360.66 360.66 404.9 485.90	74.2258734314	360.66	404.90	Sunny(sunny)	True	False	404.90
2010-07-01 09:00:00 41528 9 552.02 552.02 552.02 607.6 743.70	74.2258734314	552.02	607.60	Sunny(sunny)	True	False	607.60
2010-07-01 10:00:00 41529 10 716.19 716.19 716.19 746.7 929.60	77.0425205381	716.19	746.70	Sunny(sunny)	True	False	746.70
2010-07-01 11:00:00 41530 11 799.47 799.47 799.47 691.6 1037.70	77.0425205381	799.47	691.60	Sunny(sunny)	True	False	691.60
2010-07-01 12:00:00 41531 12 853.71 853.71 853.71 800.5 1108.10	77.0425205381	853.71	800.50	Sunny(mostly_cloudy)	True	False	800.50
2010-07-01 13:00:00 41532 13 853.40 853.40 853.40 780.3 1107.70	77.0425205381	853.40	780.30	Sunny(fair)	True	False	780.30
2010-07-01 14:00:00 41533 14 816.96 816.96 816.96 676.3 1060.40	77.0425205381	816.96	676.30	Sunny(partly_cloudy)	True	False	676.30
2010-07-01 15:00:00 41534 15 723.51 723.51 723.51 458.2 939.10	77.0425205381	723.51	458.20	Sunny(fair)	True	False	458.20
2010-07-01 16:00:00 41535 16 552.54 552.54 552.54 424.4 744.40	74.2258734314	552.54	424.40	Sunny(mostly_cloudy)	True	False	424.40
2010-07-01 17:00:00 41536 17 359.77 359.77 359.77 244.2 484.70	74.2258734314	359.77	244.20	Sunny(fair)	True	False	244.20
2010-07-01 18:00:00 41537 18 167.60 167.60 167.60 117.6 225.80	74.2258734314	167.60	117.60	Sunny(fair)	True	False	117.60
2010-07-01 19:00:00 41538 19 60.42 60.42 60.42 26.2 81.40	74.2258734314	60.42	26.20	Sunny(fair)	True	False	26.20
2010-07-01 20:00:00 41539 20 5.05 5.05 5.05 1.7 6.80	74.2258734314	5.05	1.70	Sunny(sunny)	True	False	1.70
2010-07-01 21:00:00 41540 21 0.00 0.00 0.00 0.0 0.00	74.2258734314	0.00	0.00	Clear(clear)	True	False	0.00
2010-07-01 22:00:00 41541 22 0.00 0.00 0.00 0.0 0.00	74.2258734314	0.00	0.00	Clear(clear)	True	False	0.00
2010-07-01 23:00:00 41542 23 0.00 0.00 0.00 0.0 0.00	74.2258734314	0.00	0.00	Clear(clear)	True	False	0.00
2010-07-02 00:00:00 41543 0 0.00 0.00 0.00 0.0 0.00	74.2258734314	0.00	0.00	Clear(clear)	True	False	0.00
2010-07-02 01:00:00 41544 1 0.00 0.00 0.00 0.0 0.00	74.2258734314	0.00	0.00	Clear(clear)	True	False	0.00
2010-07-02 02:00:00 41545 2 0.00 0.00 0.00 0.0 0.00	74.2258734314	0.00	0.00	Clear(clear)	True	False	0.00
2010-07-02 03:00:00 41546 3 0.00 0.00 0.00 0.0 0.00	74.2258734314	0.00	0.00	Clear(clear)	True	False	0.00
2010-07-02 04:00:00 41547 4 0.00 0.00 0.00 0.0 0.00	74.2258734314	0.00	0.00	Clear(clear)	True	False	0.00
2010-07-02 05:00:00 41548 5 1.34 1.34 1.34 0.2 1.80	74.2258734314	1.34	0.20	Clear(sunny)	True	False	0.20
2010-07-02 06:00:00 41549 6 57.67 57.67 57.67 33.8 77.70	74.2258734314	57.67	33.80	Sunny(sunny)	True	False	33.80
2010-07-02 07:00:00 41550 7 163.52 163.52 163.52 174.8 220.30	74.2258734314	163.52	174.80	Sunny(sunny)	True	False	174.80
2010-07-02 08:00:00 41551 8 360.66 360.66 360.66 402.7 485.90	74.2258734314	360.66	402.70	Sunny(sunny)	True	False	402.70
2010-07-02 09:00:00 41552 9 552.02 552.02 552.02 601.8 743.70	74.2258734314	552.02	601.80	Sunny(sunny)	True	False	601.80
2010-07-02 10:00:00 41553 10 716.19 716.19 716.19 709.2 929.60	77.0425205381	716.19	709.20	Sunny(sunny)	True	False	709.20
2010-07-02 11:00:00 41554 11 799.47 799.47 799.47 475.6 1037.70	77.0425205381	799.47	475.60	Sunny(sunny)	True	False	475.60
2010-07-02 12:00:00 41555 12 853.71 853.71 853.71 570.8 1108.10	77.0425205381	853.71	570.80	Sunny(fair)	True	False	570.80
2010-07-02 13:00:00 41556 13 853.40 853.40 853.40 785.8 1107.70	77.0425205381	853.40	785.80	Sunny(fair)	True	False	785.80
2010-07-02 14:00:00 41557 14 816.96 816.96 816.96 716.5 1060.40	77.0425205381	816.96	716.50	Sunny(mostly_cloudy)	True	False	716.50
2010-07-02 15:00:00 41558 15 723.51 723.51 723.51 791.5 939.10	77.0425205381	723.51	791.50	Sunny(mostly_cloudy)	True	False	791.50
2010-07-02 16:00:00 41559 16 552.54 552.54 552.54 510.9 744.40	74.2258734314	552.54	510.90	Sunny(partly_cloudy)	True	False	510.90
2010-07-02 17:00:00 41560 17 359.77 359.77 359.77 407.2 484.70	74.2258734314	359.77	407.20	Sunny(partly_cloudy)	True	False	407.20
2010-07-02 18:00:00 41561 18 167.60 167.60 167.60 159.1 225.80	74.2258734314	167.60	159.10	Sunny(sunny)	True	False	159.10
2010-07-02 19:00:00 41562 19 60.42 60.42 60.42 34.5 81.40	74.2258734314	60.42	34.50	Sunny(sunny)	True	False	34.50
2010-07-02 20:00:00 41563 20 5.05 5.05 5.05 1.9 6.80	74.2258734314	5.05	1.90	Sunny(sunny)	True	False	1.90
2010-07-02 21:00:00 41564 21 0.00 0.00 0.00 0.0 0.00	74.2258734314	0.00	0.00	Clear(clear)	True	False	0.00
2010-07-02 22:00:00 41565 22 0.00 0.00 0.00 0.0 0.00	74.2258734314	0.00	0.00	Clear(clear)	True	False	0.00
2010-07-02 23:00:00 41566 23 0.00 0.00 0.00 0.0 0.00	74.2258734314	0.00	0.00	Clear(clear)	True	False	0.00
2010-07-03 00:00:00 41567 0 0.00 0.00 0.00 0.0 0.00	74.2258734314	0.00	0.00	Clear(clear)	True	False	0.00
2010-07-03 01:00:00 41568 1 0.00 0.00 0.00 0.0 0.00	74.2258734314	0.00	0.00	Clear(clear)	True	False	0.00
2010-07-03 02:00:00 41569 2 0.00 0.00 0.00 0.0 0.00	72.5868725869	0.00	0.00	Partly_Cloudy(clear)	True	False	0.00
