2010-07-06 13:00:00 47940 13 883.39 883.39 883.39 566.1 1107.70	79.7498640566	883.39	566.10	Mostly_Sunny(sunny)	False	False	566.10
2010-07-06 14:00:00 47941 14 541.93 541.93 783.80 714.4 1060.40	73.9155035836	783.80	714.40	Partly_Cloudy(sunny)	True	False	714.40
2010-07-06 15:00:00 47942 15 479.94 479.94 694.14 499.2 939.10	73.9155035836	694.14	499.20	Mostly_Sunny(fair)	False	False	499.20
2010-07-06 16:00:00 47943 16 387.84 387.84 560.94 534.6 758.90	73.9155035836	560.94	534.60	Mostly_Sunny(sunny)	False	False	534.60
2010-07-06 17:00:00 47944 17 254.87 254.87 368.62 334.5 498.70	73.9155035836	368.62	334.50	Mostly_Sunny(sunny)	False	False	334.50
2010-07-06 18:00:00 47945 18 115.40 115.40 166.90 141.3 225.80	73.9155035836	166.90	141.30	Mostly_Sunny(sunny)	False	False	141.30
2010-07-06 19:00:00 47946 19 41.60 41.60 60.17 43.9 81.40	73.9155035836	60.17	43.90	Mostly_Sunny(sunny)	False	False	43.90
2010-07-06 20:00:00 47947 20 3.48 3.48 5.03 1.8 6.80	73.9155035836	5.03	1.80	Mostly_Sunny(sunny)	False	False	1.80
2010-07-06 21:00:00 47948 21 0.00 0.00 0.00 0.0 0.00	73.9155035836	0.00	0.00	Mostly_Clear(clear)	False	False	0.00
2010-07-06 22:00:00 47949 22 0.00 0.00 0.00 0.0 0.00	73.9155035836	0.00	0.00	Mostly_Clear(fair)	False	False	0.00
2010-07-06 23:00:00 47950 23 0.00 0.00 0.00 0.0 0.00	73.9155035836	0.00	0.00	Mostly_Clear(fair)	False	False	0.00
2010-07-07 00:00:00 47951 0 0.00 0.00 0.00 0.0 0.00	73.9155035836	0.00	0.00	Mostly_Clear(fair)	False	False	0.00
2010-07-07 01:00:00 47952 1 0.00 0.00 0.00 0.0 0.00	76.6988538941	0.00	0.00	Clear(fair)	True	False	0.00
2010-07-07 02:00:00 47953 2 0.00 0.00 0.00 0.0 0.00	76.6988538941	0.00	0.00	Clear(fair)	True	False	0.00
2010-07-07 03:00:00 47954 3 0.00 0.00 0.00 0.0 0.00	76.6988538941	0.00	0.00	Clear(fair)	True	False	0.00
2010-07-07 04:00:00 47955 4 0.00 0.00 0.00 0.0 0.00	76.6988538941	0.00	0.00	Clear(cloudy)	True	False	0.00
2010-07-07 05:00:00 47956 5 0.23 0.23 0.23 0.0 0.30	76.6988538941	0.23	0.00	Clear(partly_cloudy)	True	False	0.00
2010-07-07 06:00:00 47957 6 59.60 59.60 59.60 41.1 77.70	76.6988538941	59.60	41.10	Sunny(mostly_cloudy)	True	False	41.10
2010-07-07 07:00:00 47958 7 159.07 159.07 159.07 155.3 207.40	76.6988538941	159.07	155.30	Sunny(partly_cloudy)	True	False	155.30
2010-07-07 08:00:00 47959 8 372.68 372.68 372.68 350.2 485.90	76.6988538941	372.68	350.20	Sunny(fair)	True	False	350.20
2010-07-07 09:00:00 47960 9 571.48 571.48 571.48 521.5 745.10	76.6988538941	571.48	521.50	Sunny(sunny)	True	False	521.50
2010-07-07 10:00:00 47961 10 733.30 733.30 733.30 656.0 919.50	79.7498640566	733.30	656.00	Sunny(sunny)	True	False	656.00
2010-07-07 11:00:00 47962 11 828.52 828.52 828.52 758.5 1038.90	79.7498640566	828.52	758.50	Sunny(sunny)	True	False	758.50
2010-07-07 12:00:00 47963 12 883.71 883.71 883.71 803.8 1108.10	79.7498640566	883.71	803.80	Sunny(sunny)	True	False	803.80
2010-07-07 13:00:00 47964 13 883.39 883.39 883.39 226.6 1107.70	79.7498640566	883.39	226.60	Mostly_Sunny(sunny)	False	False	226.60
2010-07-07 14:00:00 47965 14 845.67 845.67 845.67 5.3 1060.40	79.7498640566	845.67	5.30	Mostly_Sunny(fair)	False	False	5.30
2010-07-07 15:00:00 47966 15 748.93 748.93 748.93 646.8 939.10	79.7498640566	748.93	646.80	Mostly_Sunny(fair)	False	False	646.80
2010-07-07 16:00:00 47967 16 559.50 559.50 559.50 505.8 758.90	73.7248504622	559.50	505.80	Partly_Cloudy(fair)	True	False	505.80
2010-07-07 17:00:00 47968 17 367.67 367.67 367.67 312.2 498.70	73.7248504622	367.67	312.20	Partly_Cloudy(fair)	True	False	312.20
2010-07-07 18:00:00 47969 18 166.47 166.47 166.47 141.8 225.80	73.7248504622	166.47	141.80	Partly_Cloudy(mostly_cloudy)	True	False	141.80
2010-07-07 19:00:00 47970 19 60.01 60.01 60.01 41.0 81.40	73.7248504622	60.01	41.00	Partly_Cloudy(fair)	True	False	41.00
2010-07-07 20:00:00 47971 20 5.01 5.01 5.01 2.6 6.80	73.7248504622	5.01	2.60	Partly_Cloudy(sunny)	True	False	2.60
2010-07-07 21:00:00 47972 21 0.00 0.00 0.00 0.0 0.00	73.7248504622	0.00	0.00	Partly_Cloudy(clear)	True	False	0.00
2010-07-07 22:00:00 47973 22 0.00 0.00 0.00 0.0 0.00	73.7248504622	0.00	0.00	Partly_Cloudy(clear)	True	False	0.00
2010-07-07 23:00:00 47974 23 0.00 0.00 0.00 0.0 0.00	73.7248504622	0.00	0.00	Partly_Cloudy(partly_cloudy)	True	False	0.00
2010-07-08 00:00:00 47975 0 0.00 0.00 0.00 0.0 0.00	73.7248504622	0.00	0.00	Partly_Cloudy(fair)	True	False	0.00
2010-07-08 01:00:00 47976 1 0.00 0.00 0.00 0.0 0.00	73.7248504622	0.00	0.00	Partly_Cloudy(clear)	True	False	0.00
2010-07-08 02:00:00 47977 2 0.00 0.00 0.00 0.0 0.00	73.7248504622	0.00	0.00	Partly_Cloudy(clear)	True	False	0.00
2010-07-08 03:00:00 47978 3 0.00 0.00 0.00 0.0 0.00	73.7248504622	0.00	0.00	Partly_Cloudy(clear)	True	False	0.00
2010-07-08 04:00:00 47979 4 0.00 0.00 0.00 0.0 0.00	73.7248504622	0.00	0.00	Partly_Cloudy(clear)	True	False	0.00
2010-07-08 05:00:00 47980 5 0.22 0.22 0.22 0.0 0.30	73.7248504622	0.22	0.00	Partly_Cloudy(clear)	True	False	0.00
2010-07-08 06:00:00 47981 6 57.28 57.28 57.28 22.0 77.70	73.7248504622	57.28	22.00	Partly_Cloudy(fog)	True	False	22.00
2010-07-08 07:00:00 47982 7 152.91 152.91 152.91 75.0 207.40	73.7248504622	152.91	75.00	Partly_Cloudy(sunny)	True	False	75.00
2010-07-08 08:00:00 47983 8 358.23 358.23 358.23 120.0 485.90	73.7248504622	358.23	120.00	Partly_Cloudy(cloudy)	True	False	120.00
2010-07-08 09:00:00 47984 9 549.32 549.32 549.32 246.0 745.10	73.7248504622	549.32	246.00	Partly_Cloudy(fair)	True	False	246.00
2010-07-08 10:00:00 47985 10 679.65 679.65 679.65 296.5 919.50	73.9155035836	679.65	296.50	Partly_Cloudy(cloudy)	True	False	296.50
2010-07-08 11:00:00 47986 11 767.91 767.91 767.91 195.1 1038.90	73.9155035836	767.91	195.10	Partly_Cloudy(partly_cloudy)	True	False	195.10
2010-07-08 12:00:00 47987 12 819.06 819.06 819.06 313.9 1108.10	73.9155035836	819.06	313.90	Partly_Cloudy(partly_cloudy)	True	False	313.90
2010-07-08 13:00:00 47988 13 883.39 883.39 883.39 441.0 1107.70	79.7498640566	883.39	441.00	Sunny(light_rain)	True	False	441.00
