2010-06-19 18:00:00 28193 18 162.33 162.33 172.06 131.3 214.20	75.7826086957	172.06	131.30	Sunny(partly_cloudy)	True	False	131.30
2010-06-19 19:00:00 28194 19 61.69 61.69 49.90 37.5 81.40	75.7826086957	49.90	37.50	Sunny(sunny)	True	False	37.50
2010-06-19 20:00:00 28195 20 5.08 5.08 4.11 1.5 6.70	75.7826086957	4.11	1.50	Sunny(sunny)	True	False	1.50
2010-06-19 21:00:00 28196 21 0.00 0.00 0.00 0.0 0.00	75.7826086957	0.00	0.00	Clear(clear)	True	False	0.00
2010-06-19 22:00:00 28197 22 0.00 0.00 0.00 0.0 0.00	75.5102040816	0.00	0.00	Partly_Cloudy(clear)	True	False	0.00
2010-06-19 23:00:00 28198 23 0.00 0.00 0.00 0.0 0.00	75.5102040816	0.00	0.00	Partly_Cloudy(clear)	True	False	0.00
2010-06-20 00:00:00 28199 0 0.00 0.00 0.00 0.0 0.00	75.5102040816	0.00	0.00	Partly_Cloudy(fair)	True	False	0.00
2010-06-20 01:00:00 28200 1 0.00 0.00 0.00 0.0 0.00	14.0947144821	0.00	0.00	Isolated_T-Storms(fair)	True	False	0.00
2010-06-20 02:00:00 28201 2 0.00 0.00 0.00 0.0 0.00	14.0947144821	0.00	0.00	Isolated_T-Storms(partly_cloudy)	True	False	0.00
2010-06-20 03:00:00 28202 3 0.00 0.00 0.00 0.0 0.00	14.0947144821	0.00	0.00	Isolated_T-Storms(fair)	True	False	0.00
2010-06-20 04:00:00 28203 4 0.00 0.00 0.00 0.0 0.00	14.0947144821	0.00	0.00	Isolated_T-Storms(fair)	True	False	0.00
2010-06-20 05:00:00 28204 5 0.25 0.25 0.25 0.0 1.80	14.0947144821	0.25	0.00	Isolated_T-Storms(partly_cloudy)	True	False	0.00
2010-06-20 06:00:00 28205 6 10.36 10.36 10.36 45.9 73.50	14.0947144821	10.36	45.90	Isolated_T-Storms(mostly_cloudy)	True	False	45.90
2010-06-20 07:00:00 28206 7 166.35 166.35 166.35 151.9 220.30	75.5102040816	166.35	151.90	Partly_Cloudy(mostly_cloudy)	True	False	151.90
2010-06-20 08:00:00 28207 8 339.27 339.27 339.27 226.3 449.30	75.5102040816	339.27	226.30	Partly_Cloudy(partly_cloudy)	True	False	226.30
2010-06-20 09:00:00 28208 9 521.02 521.02 521.02 305.8 690.00	75.5102040816	521.02	305.80	Partly_Cloudy(partly_cloudy)	True	False	305.80
2010-06-20 10:00:00 28209 10 746.70 746.70 746.70 514.9 929.60	80.3248709122	746.70	514.90	Sunny(partly_cloudy)	True	False	514.90
2010-06-20 11:00:00 28210 11 758.43 758.43 758.43 779.1 944.20	80.3248709122	758.43	779.10	Sunny(fair)	True	False	779.10
2010-06-20 12:00:00 28211 12 754.09 754.09 754.09 597.1 938.80	80.3248709122	754.09	597.10	Sunny(fair)	True	False	597.10
2010-06-20 13:00:00 28212 13 836.02 836.02 836.02 738.0 1040.80	80.3248709122	836.02	738.00	Sunny(sunny)	True	False	738.00
2010-06-20 14:00:00 28213 14 763.81 763.81 763.81 724.7 950.90	80.3248709122	763.81	724.70	Sunny(fair)	True	False	724.70
2010-06-20 15:00:00 28214 15 642.84 642.84 642.84 576.1 800.30	80.3248709122	642.84	576.10	Sunny(partly_cloudy)	True	False	576.10
2010-06-20 16:00:00 28215 16 575.21 575.21 575.21 540.6 716.10	80.3248709122	575.21	540.60	Mostly_Sunny(fair)	False	False	540.60
2010-06-20 17:00:00 28216 17 387.73 387.73 387.73 353.0 482.70	80.3248709122	387.73	353.00	Mostly_Sunny(fair)	False	False	353.00
2010-06-20 18:00:00 28217 18 172.06 172.06 172.06 142.6 214.20	80.3248709122	172.06	142.60	Mostly_Sunny(sunny)	False	False	142.60
2010-06-20 19:00:00 28218 19 61.69 61.69 61.69 37.0 81.40	75.7826086957	61.69	37.00	Sunny(sunny)	True	False	37.00
2010-06-20 20:00:00 28219 20 5.08 5.08 5.08 2.8 6.70	75.7826086957	5.08	2.80	Sunny(sunny)	True	False	2.80
2010-06-20 21:00:00 28220 21 0.00 0.00 0.00 0.0 0.00	75.7826086957	0.00	0.00	Clear(clear)	True	False	0.00
2010-06-20 22:00:00 28221 22 0.00 0.00 0.00 0.0 0.00	75.7826086957	0.00	0.00	Clear(clear)	True	False	0.00
2010-06-20 23:00:00 28222 23 0.00 0.00 0.00 0.0 0.00	75.7826086957	0.00	0.00	Clear(clear)	True	False	0.00
2010-06-21 00:00:00 28223 0 0.00 0.00 0.00 0.0 0.00	75.7826086957	0.00	0.00	Clear(clear)	True	False	0.00
2010-06-21 01:00:00 28224 1 0.00 0.00 0.00 0.0 0.00	75.7826086957	0.00	0.00	Clear(fair)	True	False	0.00
2010-06-21 02:00:00 28225 2 0.00 0.00 0.00 0.0 0.00	75.7826086957	0.00	0.00	Clear(clear)	True	False	0.00
2010-06-21 03:00:00 28226 3 0.00 0.00 0.00 0.0 0.00	75.7826086957	0.00	0.00	Clear(clear)	True	False	0.00
2010-06-21 04:00:00 28227 4 0.00 0.00 0.00 0.0 0.00	75.7826086957	0.00	0.00	Clear(clear)	True	False	0.00
2010-06-21 05:00:00 28228 5 1.36 1.36 1.36 0.0 1.80	75.7826086957	1.36	0.00	Clear(sunny)	True	False	0.00
2010-06-21 06:00:00 28229 6 55.70 55.70 55.70 35.2 73.50	75.7826086957	55.70	35.20	Sunny(sunny)	True	False	35.20
2010-06-21 07:00:00 28230 7 166.95 166.95 166.95 175.9 220.30	75.7826086957	166.95	175.90	Sunny(sunny)	True	False	175.90
2010-06-21 08:00:00 28231 8 340.49 340.49 340.49 390.0 449.30	75.7826086957	340.49	390.00	Sunny(sunny)	True	False	390.00
2010-06-21 09:00:00 28232 9 522.90 522.90 522.90 579.6 690.00	75.7826086957	522.90	579.60	Sunny(sunny)	True	False	579.60
2010-06-21 10:00:00 28233 10 704.48 704.48 704.48 694.0 929.60	75.7826086957	704.48	694.00	Mostly_Sunny(sunny)	False	False	694.00
2010-06-21 11:00:00 28234 11 715.54 715.54 715.54 806.3 944.20	75.7826086957	715.54	806.30	Mostly_Sunny(sunny)	False	False	806.30
2010-06-21 12:00:00 28235 12 711.45 711.45 711.45 710.9 938.80	75.7826086957	711.45	710.90	Mostly_Sunny(fair)	False	False	710.90
2010-06-21 13:00:00 28236 13 836.02 836.02 836.02 759.8 1040.80	80.3248709122	836.02	759.80	Sunny(partly_cloudy)	True	False	759.80
2010-06-21 14:00:00 28237 14 763.81 763.81 763.81 741.8 950.90	80.3248709122	763.81	741.80	Sunny(fair)	True	False	741.80
2010-06-21 15:00:00 28238 15 642.84 642.84 642.84 695.9 800.30	80.3248709122	642.84	695.90	Sunny(fair)	True	False	695.90
2010-06-21 16:00:00 28239 16 540.73 540.73 540.73 415.9 716.10	75.5102040816	540.73	415.90	Partly_Cloudy(fair)	True	False	415.90
2010-06-21 17:00:00 28240 17 364.49 364.49 364.49 352.2 482.70	75.5102040816	364.49	352.20	Partly_Cloudy(fair)	True	False	352.20
2010-06-21 18:00:00 28241 18 161.74 161.74 161.74 125.3 214.20	75.5102040816	161.74	125.30	Partly_Cloudy(sunny)	True	False	125.30
