2010-06-26 08:00:00 35935 8 354.49 354.49 354.49 376.4 485.90	72.9561101549	354.49	376.40	Sunny(sunny)	True	False	376.40
2010-06-26 09:00:00 35936 9 542.57 542.57 542.57 558.7 743.70	72.9561101549	542.57	558.70	Sunny(sunny)	True	False	558.70
2010-06-26 10:00:00 35937 10 678.20 678.20 678.20 702.7 929.60	72.9561101549	678.20	702.70	Mostly_Sunny(sunny)	False	False	702.70
2010-06-26 11:00:00 35938 11 755.39 755.39 755.39 765.0 1035.40	72.9561101549	755.39	765.00	Mostly_Sunny(sunny)	False	False	765.00
2010-06-26 12:00:00 35939 12 684.91 684.91 684.91 745.9 938.80	72.9561101549	684.91	745.90	Mostly_Sunny(sunny)	False	False	745.90
2010-06-26 13:00:00 35940 13 764.23 764.23 764.23 746.9 995.60	76.760930815	764.23	746.90	Partly_Cloudy(sunny)	True	False	746.90
2010-06-26 14:00:00 35941 14 735.60 735.60 735.60 778.4 958.30	76.760930815	735.60	778.40	Partly_Cloudy(sunny)	True	False	778.40
2010-06-26 15:00:00 35942 15 720.86 720.86 720.86 594.3 939.10	76.760930815	720.86	594.30	Partly_Cloudy(fair)	True	False	594.30
2010-06-26 16:00:00 35943 16 544.42 544.42 544.42 398.0 735.80	73.9900136178	544.42	398.00	Partly_Cloudy(partly_cloudy)	True	False	398.00
2010-06-26 17:00:00 35944 17 358.63 358.63 358.63 252.0 484.70	73.9900136178	358.63	252.00	Partly_Cloudy(partly_cloudy)	True	False	252.00
2010-06-26 18:00:00 35945 18 158.49 158.49 158.49 103.7 214.20	73.9900136178	158.49	103.70	Partly_Cloudy(partly_cloudy)	True	False	103.70
2010-06-26 19:00:00 35946 19 13.72 13.72 13.72 17.6 81.40	16.8553200247	13.72	17.60	Isolated_T-Storms(cloudy)	True	False	17.60
2010-06-26 20:00:00 35947 20 1.13 1.13 1.13 0.0 6.70	16.8553200247	1.13	0.00	Isolated_T-Storms(mostly_cloudy)	True	False	0.00
2010-06-26 21:00:00 35948 21 0.00 0.00 0.00 0.0 0.00	16.8553200247	0.00	0.00	Isolated_T-Storms(mostly_cloudy)	True	False	0.00
2010-06-26 22:00:00 35949 22 0.00 0.00 0.00 0.0 0.00	16.8553200247	0.00	0.00	Scattered_T-Storms(mostly_cloudy)	True	False	0.00
2010-06-26 23:00:00 35950 23 0.00 0.00 0.00 0.0 0.00	16.8553200247	0.00	0.00	Scattered_T-Storms(mostly_cloudy)	True	False	0.00
2010-06-27 00:00:00 35951 0 0.00 0.00 0.00 0.0 0.00	16.8553200247	0.00	0.00	Scattered_T-Storms(cloudy)	True	False	0.00
2010-06-27 01:00:00 35952 1 0.00 0.00 0.00 0.0 0.00	16.8553200247	0.00	0.00	Scattered_T-Storms(cloudy)	True	False	0.00
2010-06-27 02:00:00 35953 2 0.00 0.00 0.00 0.0 0.00	16.8553200247	0.00	0.00	Scattered_T-Storms(mostly_cloudy)	True	False	0.00
2010-06-27 03:00:00 35954 3 0.00 0.00 0.00 0.0 0.00	16.8553200247	0.00	0.00	Scattered_T-Storms(clear)	True	False	0.00
2010-06-27 04:00:00 35955 4 0.00 0.00 0.00 0.0 0.00	16.8553200247	0.00	0.00	Isolated_T-Storms(clear)	True	False	0.00
2010-06-27 05:00:00 35956 5 0.30 0.30 0.30 0.0 1.80	16.8553200247	0.30	0.00	Isolated_T-Storms(sunny)	True	False	0.00
2010-06-27 06:00:00 35957 6 12.39 12.39 12.39 41.9 73.50	16.8553200247	12.39	41.90	Isolated_T-Storms(sunny)	True	False	41.90
2010-06-27 07:00:00 35958 7 163.00 163.00 163.00 164.6 220.30	73.9900136178	163.00	164.60	Partly_Cloudy(sunny)	True	False	164.60
2010-06-27 08:00:00 35959 8 359.52 359.52 359.52 156.7 485.90	73.9900136178	359.52	156.70	Partly_Cloudy(partly_cloudy)	True	False	156.70
2010-06-27 09:00:00 35960 9 550.26 550.26 550.26 328.6 743.70	73.9900136178	550.26	328.60	Partly_Cloudy(mostly_cloudy)	True	False	328.60
2010-06-27 10:00:00 35961 10 159.00 159.00 159.00 557.1 929.60	17.104130809	159.00	557.10	Few_Showers(mostly_cloudy)	True	False	557.10
2010-06-27 11:00:00 35962 11 177.10 177.10 177.10 615.2 1035.40	17.104130809	177.10	615.20	Few_Showers(mostly_cloudy)	True	False	615.20
2010-06-27 12:00:00 35963 12 160.57 160.57 160.57 724.0 938.80	17.104130809	160.57	724.00	Few_Showers(fair)	True	False	724.00
2010-06-27 13:00:00 35964 13 764.23 764.23 764.23 729.9 995.60	76.760930815	764.23	729.90	Partly_Cloudy(fair)	True	False	729.90
2010-06-27 14:00:00 35965 14 735.60 735.60 735.60 664.1 958.30	76.760930815	735.60	664.10	Partly_Cloudy(mostly_cloudy)	True	False	664.10
2010-06-27 15:00:00 35966 15 720.86 720.86 720.86 679.1 939.10	76.760930815	720.86	679.10	Partly_Cloudy(fair)	True	False	679.10
2010-06-27 16:00:00 35967 16 124.02 124.02 124.02 519.5 735.80	16.8553200247	124.02	519.50	Isolated_T-Storms(fair)	True	False	519.50
2010-06-27 17:00:00 35968 17 81.70 81.70 81.70 320.6 484.70	16.8553200247	81.70	320.60	Isolated_T-Storms(fair)	True	False	320.60
2010-06-27 18:00:00 35969 18 36.10 36.10 36.10 145.0 214.20	16.8553200247	36.10	145.00	Isolated_T-Storms(sunny)	True	False	145.00
2010-06-27 19:00:00 35970 19 13.72 13.72 13.72 36.8 81.40	16.8553200247	13.72	36.80	Isolated_T-Storms(sunny)	True	False	36.80
2010-06-27 20:00:00 35971 20 1.13 1.13 1.13 1.0 6.70	16.8553200247	1.13	1.00	Isolated_T-Storms(sunny)	True	False	1.00
2010-06-27 21:00:00 35972 21 0.00 0.00 0.00 0.0 0.00	16.8553200247	0.00	0.00	Isolated_T-Storms(clear)	True	False	0.00
2010-06-27 22:00:00 35973 22 0.00 0.00 0.00 0.0 0.00	73.9900136178	0.00	0.00	Partly_Cloudy(clear)	True	False	0.00
2010-06-27 23:00:00 35974 23 0.00 0.00 0.00 0.0 0.00	73.9900136178	0.00	0.00	Partly_Cloudy(partly_cloudy)	True	False	0.00
2010-06-28 00:00:00 35975 0 0.00 0.00 0.00 0.0 0.00	73.9900136178	0.00	0.00	Partly_Cloudy(clear)	True	False	0.00
2010-06-28 01:00:00 35976 1 0.00 0.00 0.00 0.0 0.00	73.9900136178	0.00	0.00	Partly_Cloudy(partly_cloudy)	True	False	0.00
2010-06-28 02:00:00 35977 2 0.00 0.00 0.00 0.0 0.00	73.9900136178	0.00	0.00	Partly_Cloudy(clear)	True	False	0.00
2010-06-28 03:00:00 35978 3 0.00 0.00 0.00 0.0 0.00	73.9900136178	0.00	0.00	Partly_Cloudy(fair)	True	False	0.00
2010-06-28 04:00:00 35979 4 0.00 0.00 0.00 0.0 0.00	65.9705159705	0.00	0.00	Mostly_Cloudy(partly_cloudy)	True	False	0.00
2010-06-28 05:00:00 35980 5 1.19 1.19 1.19 0.0 1.80	65.9705159705	1.19	0.00	Mostly_Cloudy(sunny)	True	False	0.00
2010-06-28 06:00:00 35981 6 48.49 48.49 48.49 12.8 73.50	65.9705159705	48.49	12.80	Mostly_Cloudy(sunny)	True	False	12.80
2010-06-28 07:00:00 35982 7 163.00 163.00 163.00 155.5 220.30	73.9900136178	163.00	155.50	Partly_Cloudy(sunny)	True	False	155.50
2010-06-28 08:00:00 35983 8 359.52 359.52 359.52 352.6 485.90	73.9900136178	359.52	352.60	Partly_Cloudy(sunny)	True	False	352.60
