2010-05-28 04:00:00 1635 4 0.00 0.00 0.00 0.0 0.00	12.3697773879	0.00	0.00	Few_Showers(cloudy)	True	False	0.00
2010-05-28 05:00:00 1636 5 0.09 0.09 0.09 0.4 0.70	12.3697773879	0.09	0.40	Few_Showers(mostly_cloudy)	True	False	0.40
2010-05-28 06:00:00 1637 6 8.99 8.99 8.99 57.0 72.70	12.3697773879	8.99	57.00	Few_Showers(cloudy)	True	False	57.00
2010-05-28 07:00:00 1638 7 33.19 33.19 33.19 215.9 268.30	12.3697773879	33.19	215.90	Few_Showers(partly_cloudy)	True	False	215.90
2010-05-28 08:00:00 1639 8 67.71 67.71 67.71 486.7 547.40	12.3697773879	67.71	486.70	Few_Showers(fair)	True	False	486.70
2010-05-28 09:00:00 1640 9 101.31 101.31 101.31 568.1 819.00	12.3697773879	101.31	568.10	Few_Showers(fair)	True	False	568.10
2010-05-28 10:00:00 1641 10 123.71 123.71 123.71 698.5 1000.10	12.3697773879	123.71	698.50	Few_Showers(partly_cloudy)	True	False	698.50
2010-05-28 11:00:00 1642 11 134.97 134.97 134.97 830.7 1091.10	12.3697773879	134.97	830.70	Few_Showers(partly_cloudy)	True	False	830.70
2010-05-28 12:00:00 1643 12 139.75 139.75 139.75 853.9 1129.80	12.3697773879	139.75	853.90	Few_Showers(sunny)	True	False	853.90
2010-05-28 13:00:00 1644 13 133.58 133.58 133.58 762.7 1079.90	12.3697773879	133.58	762.70	Few_Showers(mostly_cloudy)	True	False	762.70
2010-05-28 14:00:00 1645 14 126.73 126.73 126.73 546.0 1024.50	12.3697773879	126.73	546.00	Few_Showers(cloudy)	True	False	546.00
2010-05-28 15:00:00 1646 15 112.80 112.80 112.80 367.4 911.90	12.3697773879	112.80	367.40	Few_Showers(mostly_cloudy)	True	False	367.40
2010-05-28 16:00:00 1647 16 94.59 94.59 94.59 108.6 716.10	13.2086791321	94.59	108.60	Showers(cloudy)	True	False	108.60
2010-05-28 17:00:00 1648 17 64.04 64.04 64.04 64.3 484.80	13.2086791321	64.04	64.30	Showers(cloudy)	True	False	64.30
2010-05-28 18:00:00 1649 18 25.85 25.85 25.85 161.3 195.70	13.2086791321	25.85	161.30	Showers(cloudy)	True	False	161.30
2010-05-28 19:00:00 1650 19 7.99 7.99 7.99 35.9 60.50	13.2086791321	7.99	35.90	Showers(cloudy)	True	False	35.90
2010-05-28 20:00:00 1651 20 0.18 0.18 0.18 0.1 1.40	13.2086791321	0.18	0.10	Showers(cloudy)	True	False	0.10
2010-05-28 21:00:00 1652 21 0.00 0.00 0.00 0.0 0.00	13.2086791321	0.00	0.00	Showers(cloudy)	True	False	0.00
2010-05-28 22:00:00 1653 22 0.00 0.00 0.00 0.0 0.00	13.2086791321	0.00	0.00	Showers(mostly_cloudy)	True	False	0.00
2010-05-28 23:00:00 1654 23 0.00 0.00 0.00 0.0 0.00	13.2086791321	0.00	0.00	Showers(cloudy)	True	False	0.00
2010-05-29 00:00:00 1655 0 0.00 0.00 0.00 0.0 0.00	13.2086791321	0.00	0.00	Showers(cloudy)	True	False	0.00
2010-05-29 01:00:00 1656 1 0.00 0.00 0.00 0.0 0.00	13.2086791321	0.00	0.00	T-Showers(cloudy)	True	False	0.00
2010-05-29 02:00:00 1657 2 0.00 0.00 0.00 0.0 0.00	13.2086791321	0.00	0.00	T-Showers(cloudy)	True	False	0.00
2010-05-29 03:00:00 1658 3 0.00 0.00 0.00 0.0 0.00	13.2086791321	0.00	0.00	T-Showers(cloudy)	True	False	0.00
2010-05-29 04:00:00 1659 4 0.00 0.00 0.00 0.0 0.00	13.2086791321	0.00	0.00	Showers(cloudy)	True	False	0.00
2010-05-29 05:00:00 1660 5 0.09 0.09 0.09 0.0 0.70	13.2086791321	0.09	0.00	Showers(cloudy)	True	False	0.00
2010-05-29 06:00:00 1661 6 9.60 9.60 9.60 0.0 72.70	13.2086791321	9.60	0.00	Showers(cloudy)	True	False	0.00
2010-05-29 07:00:00 1662 7 35.44 35.44 35.44 11.9 268.30	13.2086791321	35.44	11.90	Showers(light_rain)	True	False	11.90
2010-05-29 08:00:00 1663 8 72.30 72.30 72.30 52.6 547.40	13.2086791321	72.30	52.60	Showers(cloudy)	True	False	52.60
2010-05-29 09:00:00 1664 9 108.18 108.18 108.18 239.4 819.00	13.2086791321	108.18	239.40	Showers(cloudy)	True	False	239.40
2010-05-29 10:00:00 1665 10 132.10 132.10 132.10 598.2 1000.10	13.2086791321	132.10	598.20	Showers(cloudy)	True	False	598.20
2010-05-29 11:00:00 1666 11 144.12 144.12 144.12 805.2 1091.10	13.2086791321	144.12	805.20	Showers(cloudy)	True	False	805.20
2010-05-29 12:00:00 1667 12 149.23 149.23 149.23 899.1 1129.80	13.2086791321	149.23	899.10	Showers(cloudy)	True	False	899.10
2010-05-29 13:00:00 1668 13 133.58 133.58 133.58 630.3 1079.90	12.3697773879	133.58	630.30	Scattered_T-Storms(mostly_cloudy)	True	False	630.30
2010-05-29 14:00:00 1669 14 126.73 126.73 126.73 413.4 1024.50	12.3697773879	126.73	413.40	Scattered_T-Storms(cloudy)	True	False	413.40
2010-05-29 15:00:00 1670 15 112.80 112.80 112.80 658.7 911.90	12.3697773879	112.80	658.70	Scattered_T-Storms(cloudy)	True	False	658.70
2010-05-29 16:00:00 1671 16 88.58 88.58 88.58 530.7 716.10	12.3697773879	88.58	530.70	Scattered_T-Storms(fair)	True	False	530.70
2010-05-29 17:00:00 1672 17 59.97 59.97 59.97 345.7 484.80	12.3697773879	59.97	345.70	Scattered_T-Storms(partly_cloudy)	True	False	345.70
2010-05-29 18:00:00 1673 18 24.21 24.21 24.21 134.0 195.70	12.3697773879	24.21	134.00	Scattered_T-Storms(mostly_cloudy)	True	False	134.00
2010-05-29 19:00:00 1674 19 7.48 7.48 7.48 46.7 60.50	12.3697773879	7.48	46.70	Isolated_T-Storms(fair)	True	False	46.70
2010-05-29 20:00:00 1675 20 0.17 0.17 0.17 0.0 1.40	12.3697773879	0.17	0.00	Isolated_T-Storms(partly_cloudy)	True	False	0.00
2010-05-29 21:00:00 1676 21 0.00 0.00 0.00 0.0 0.00	12.3697773879	0.00	0.00	Isolated_T-Storms(fair)	True	False	0.00
2010-05-29 22:00:00 1677 22 0.00 0.00 0.00 0.0 0.00	61.6495851635	0.00	0.00	Mostly_Cloudy(light_rain)	True	False	0.00
2010-05-29 23:00:00 1678 23 0.00 0.00 0.00 0.0 0.00	61.6495851635	0.00	0.00	Mostly_Cloudy(cloudy)	True	False	0.00
2010-05-30 00:00:00 1679 0 0.00 0.00 0.00 0.0 0.00	61.6495851635	0.00	0.00	Mostly_Cloudy(partly_cloudy)	True	False	0.00
2010-05-30 01:00:00 1680 1 0.00 0.00 0.00 0.0 0.00	80.4696235557	0.00	0.00	Partly_Cloudy(fog)	True	False	0.00
2010-05-30 02:00:00 1681 2 0.00 0.00 0.00 0.0 0.00	80.4696235557	0.00	0.00	Partly_Cloudy(fog)	True	False	0.00
2010-05-30 03:00:00 1682 3 0.00 0.00 0.00 0.0 0.00	80.4696235557	0.00	0.00	Partly_Cloudy(fog)	True	False	0.00
2010-05-30 04:00:00 1683 4 0.00 0.00 0.00 0.0 0.00	61.6495851635	0.00	0.00	Mostly_Cloudy(fog)	True	False	0.00
