2010-06-25 14:00:00 35053 14 770.80 770.80 770.80 778.4 958.30	80.4341020557	770.80	778.40	Sunny(fair)	True	False	778.40
2010-06-25 15:00:00 35054 15 755.36 755.36 755.36 655.8 939.10	80.4341020557	755.36	655.80	Sunny(sunny)	True	False	655.80
2010-06-25 16:00:00 35055 16 536.81 536.81 536.81 465.9 735.80	72.9561101549	536.81	465.90	Sunny(fair)	True	False	465.90
2010-06-25 17:00:00 35056 17 353.62 353.62 353.62 327.8 484.70	72.9561101549	353.62	327.80	Sunny(fair)	True	False	327.80
2010-06-25 18:00:00 35057 18 156.27 156.27 156.27 138.8 214.20	72.9561101549	156.27	138.80	Sunny(sunny)	True	False	138.80
2010-06-25 19:00:00 35058 19 59.39 59.39 59.39 44.7 81.40	72.9561101549	59.39	44.70	Sunny(fair)	True	False	44.70
2010-06-25 20:00:00 35059 20 4.89 4.89 4.89 2.6 6.70	72.9561101549	4.89	2.60	Sunny(sunny)	True	False	2.60
2010-06-25 21:00:00 35060 21 0.00 0.00 0.00 0.0 0.00	72.9561101549	0.00	0.00	Clear(clear)	True	False	0.00
2010-06-25 22:00:00 35061 22 0.00 0.00 0.00 0.0 0.00	72.9561101549	0.00	0.00	Clear(mostly_cloudy)	True	False	0.00
2010-06-25 23:00:00 35062 23 0.00 0.00 0.00 0.0 0.00	72.9561101549	0.00	0.00	Clear(mostly_cloudy)	True	False	0.00
2010-06-26 00:00:00 35063 0 0.00 0.00 0.00 0.0 0.00	72.9561101549	0.00	0.00	Clear(clear)	True	False	0.00
2010-06-26 01:00:00 35064 1 0.00 0.00 0.00 0.0 0.00	72.9561101549	0.00	0.00	Clear(clear)	True	False	0.00
2010-06-26 02:00:00 35065 2 0.00 0.00 0.00 0.0 0.00	72.9561101549	0.00	0.00	Clear(clear)	True	False	0.00
2010-06-26 03:00:00 35066 3 0.00 0.00 0.00 0.0 0.00	72.9561101549	0.00	0.00	Clear(clear)	True	False	0.00
2010-06-26 04:00:00 35067 4 0.00 0.00 0.00 0.0 0.00	72.9561101549	0.00	0.00	Clear(fog)	True	False	0.00
2010-06-26 05:00:00 35068 5 1.31 1.31 1.31 0.0 1.80	72.9561101549	1.31	0.00	Clear(sunny)	True	False	0.00
2010-06-26 06:00:00 35069 6 53.62 53.62 53.62 42.1 73.50	72.9561101549	53.62	42.10	Sunny(sunny)	True	False	42.10
2010-06-26 07:00:00 35070 7 160.72 160.72 160.72 175.7 220.30	72.9561101549	160.72	175.70	Sunny(sunny)	True	False	175.70
2010-06-26 08:00:00 35071 8 354.49 354.49 354.49 376.4 485.90	72.9561101549	354.49	376.40	Sunny(sunny)	True	False	376.40
2010-06-26 09:00:00 35072 9 542.57 542.57 542.57 558.7 743.70	72.9561101549	542.57	558.70	Sunny(sunny)	True	False	558.70
2010-06-26 10:00:00 35073 10 747.72 747.72 747.72 702.7 929.60	80.4341020557	747.72	702.70	Sunny(sunny)	True	False	702.70
2010-06-26 11:00:00 35074 11 759.46 759.46 759.46 765.0 944.20	80.4341020557	759.46	765.00	Sunny(sunny)	True	False	765.00
2010-06-26 12:00:00 35075 12 755.12 755.12 755.12 745.9 938.80	80.4341020557	755.12	745.90	Sunny(sunny)	True	False	745.90
2010-06-26 13:00:00 35076 13 795.80 795.80 795.80 746.9 995.60	79.9316994777	795.80	746.90	Partly_Cloudy(sunny)	True	False	746.90
2010-06-26 14:00:00 35077 14 765.99 765.99 765.99 778.4 958.30	79.9316994777	765.99	778.40	Partly_Cloudy(sunny)	True	False	778.40
2010-06-26 15:00:00 35078 15 750.64 750.64 750.64 594.3 939.10	79.9316994777	750.64	594.30	Partly_Cloudy(fair)	True	False	594.30
2010-06-26 16:00:00 35079 16 546.31 546.31 546.31 398.0 735.80	74.2466854158	546.31	398.00	Partly_Cloudy(partly_cloudy)	True	False	398.00
2010-06-26 17:00:00 35080 17 359.87 359.87 359.87 252.0 484.70	74.2466854158	359.87	252.00	Partly_Cloudy(partly_cloudy)	True	False	252.00
2010-06-26 18:00:00 35081 18 159.04 159.04 159.04 103.7 214.20	74.2466854158	159.04	103.70	Partly_Cloudy(partly_cloudy)	True	False	103.70
2010-06-26 19:00:00 35082 19 13.72 13.72 13.72 17.6 81.40	16.8553200247	13.72	17.60	Scattered_T-Storms(cloudy)	True	False	17.60
2010-06-26 20:00:00 35083 20 1.13 1.13 1.13 0.0 6.70	16.8553200247	1.13	0.00	Scattered_T-Storms(mostly_cloudy)	True	False	0.00
2010-06-26 21:00:00 35084 21 0.00 0.00 0.00 0.0 0.00	16.8553200247	0.00	0.00	Scattered_T-Storms(mostly_cloudy)	True	False	0.00
2010-06-26 22:00:00 35085 22 0.00 0.00 0.00 0.0 0.00	16.8553200247	0.00	0.00	Scattered_T-Storms(mostly_cloudy)	True	False	0.00
2010-06-26 23:00:00 35086 23 0.00 0.00 0.00 0.0 0.00	16.8553200247	0.00	0.00	Scattered_T-Storms(mostly_cloudy)	True	False	0.00
2010-06-27 00:00:00 35087 0 0.00 0.00 0.00 0.0 0.00	16.8553200247	0.00	0.00	Scattered_T-Storms(cloudy)	True	False	0.00
2010-06-27 01:00:00 35088 1 0.00 0.00 0.00 0.0 0.00	16.8553200247	0.00	0.00	Isolated_T-Storms(cloudy)	True	False	0.00
2010-06-27 02:00:00 35089 2 0.00 0.00 0.00 0.0 0.00	16.8553200247	0.00	0.00	Isolated_T-Storms(mostly_cloudy)	True	False	0.00
2010-06-27 03:00:00 35090 3 0.00 0.00 0.00 0.0 0.00	16.8553200247	0.00	0.00	Isolated_T-Storms(clear)	True	False	0.00
2010-06-27 04:00:00 35091 4 0.00 0.00 0.00 0.0 0.00	65.6303786575	0.00	0.00	Mostly_Cloudy(clear)	True	False	0.00
2010-06-27 05:00:00 35092 5 1.18 1.18 1.18 0.0 1.80	65.6303786575	1.18	0.00	Mostly_Cloudy(sunny)	True	False	0.00
2010-06-27 06:00:00 35093 6 48.24 48.24 48.24 41.9 73.50	65.6303786575	48.24	41.90	Mostly_Cloudy(sunny)	True	False	41.90
2010-06-27 07:00:00 35094 7 144.58 144.58 144.58 164.6 220.30	65.6303786575	144.58	164.60	Mostly_Cloudy(sunny)	True	False	164.60
2010-06-27 08:00:00 35095 8 318.90 318.90 318.90 156.7 485.90	65.6303786575	318.90	156.70	Mostly_Cloudy(partly_cloudy)	True	False	156.70
2010-06-27 09:00:00 35096 9 488.09 488.09 488.09 328.6 743.70	65.6303786575	488.09	328.60	Mostly_Cloudy(mostly_cloudy)	True	False	328.60
2010-06-27 10:00:00 35097 10 743.05 743.05 743.05 557.1 929.60	79.9316994777	743.05	557.10	Partly_Cloudy(mostly_cloudy)	True	False	557.10
2010-06-27 11:00:00 35098 11 754.72 754.72 754.72 615.2 944.20	79.9316994777	754.72	615.20	Partly_Cloudy(mostly_cloudy)	True	False	615.20
2010-06-27 12:00:00 35099 12 622.20 622.20 622.20 724.0 938.80	66.2762219146	622.20	724.00	Mostly_Cloudy(fair)	True	False	724.00
2010-06-27 13:00:00 35100 13 170.29 170.29 170.29 729.9 995.60	17.104130809	170.29	729.90	Isolated_T-Storms(fair)	True	False	729.90
2010-06-27 14:00:00 35101 14 163.91 163.91 163.91 664.1 958.30	17.104130809	163.91	664.10	Isolated_T-Storms(mostly_cloudy)	True	False	664.10
