2010-06-25 16:00:00 35151 16 536.81 536.81 536.81 465.9 735.80	72.9561101549	536.81	465.90	Sunny(fair)	True	False	465.90
2010-06-25 17:00:00 35152 17 353.62 353.62 353.62 327.8 484.70	72.9561101549	353.62	327.80	Sunny(fair)	True	False	327.80
2010-06-25 18:00:00 35153 18 156.27 156.27 156.27 138.8 214.20	72.9561101549	156.27	138.80	Sunny(sunny)	True	False	138.80
2010-06-25 19:00:00 35154 19 59.39 59.39 59.39 44.7 81.40	72.9561101549	59.39	44.70	Sunny(fair)	True	False	44.70
2010-06-25 20:00:00 35155 20 4.89 4.89 4.89 2.6 6.70	72.9561101549	4.89	2.60	Sunny(sunny)	True	False	2.60
2010-06-25 21:00:00 35156 21 0.00 0.00 0.00 0.0 0.00	72.9561101549	0.00	0.00	Clear(clear)	True	False	0.00
2010-06-25 22:00:00 35157 22 0.00 0.00 0.00 0.0 0.00	72.9561101549	0.00	0.00	Clear(mostly_cloudy)	True	False	0.00
2010-06-25 23:00:00 35158 23 0.00 0.00 0.00 0.0 0.00	72.9561101549	0.00	0.00	Clear(mostly_cloudy)	True	False	0.00
2010-06-26 00:00:00 35159 0 0.00 0.00 0.00 0.0 0.00	72.9561101549	0.00	0.00	Clear(clear)	True	False	0.00
2010-06-26 01:00:00 35160 1 0.00 0.00 0.00 0.0 0.00	72.9561101549	0.00	0.00	Clear(clear)	True	False	0.00
2010-06-26 02:00:00 35161 2 0.00 0.00 0.00 0.0 0.00	72.9561101549	0.00	0.00	Clear(clear)	True	False	0.00
2010-06-26 03:00:00 35162 3 0.00 0.00 0.00 0.0 0.00	72.9561101549	0.00	0.00	Clear(clear)	True	False	0.00
2010-06-26 04:00:00 35163 4 0.00 0.00 0.00 0.0 0.00	72.9561101549	0.00	0.00	Mostly_Clear(fog)	False	False	0.00
2010-06-26 05:00:00 35164 5 1.31 1.31 1.31 0.0 1.80	72.9561101549	1.31	0.00	Mostly_Clear(sunny)	False	False	0.00
2010-06-26 06:00:00 35165 6 53.62 53.62 53.62 42.1 73.50	72.9561101549	53.62	42.10	Mostly_Sunny(sunny)	False	False	42.10
2010-06-26 07:00:00 35166 7 160.72 160.72 160.72 175.7 220.30	72.9561101549	160.72	175.70	Sunny(sunny)	True	False	175.70
2010-06-26 08:00:00 35167 8 354.49 354.49 354.49 376.4 485.90	72.9561101549	354.49	376.40	Sunny(sunny)	True	False	376.40
2010-06-26 09:00:00 35168 9 542.57 542.57 542.57 558.7 743.70	72.9561101549	542.57	558.70	Sunny(sunny)	True	False	558.70
2010-06-26 10:00:00 35169 10 747.72 747.72 747.72 702.7 929.60	80.4341020557	747.72	702.70	Sunny(sunny)	True	False	702.70
2010-06-26 11:00:00 35170 11 759.46 759.46 759.46 765.0 944.20	80.4341020557	759.46	765.00	Sunny(sunny)	True	False	765.00
2010-06-26 12:00:00 35171 12 755.12 755.12 755.12 745.9 938.80	80.4341020557	755.12	745.90	Sunny(sunny)	True	False	745.90
2010-06-26 13:00:00 35172 13 800.80 800.80 800.80 746.9 995.60	80.4341020557	800.80	746.90	Sunny(sunny)	True	False	746.90
2010-06-26 14:00:00 35173 14 770.80 770.80 770.80 778.4 958.30	80.4341020557	770.80	778.40	Sunny(sunny)	True	False	778.40
2010-06-26 15:00:00 35174 15 755.36 755.36 755.36 594.3 939.10	80.4341020557	755.36	594.30	Sunny(fair)	True	False	594.30
2010-06-26 16:00:00 35175 16 591.83 591.83 591.83 398.0 735.80	80.4341020557	591.83	398.00	Mostly_Sunny(partly_cloudy)	False	False	398.00
2010-06-26 17:00:00 35176 17 389.86 389.86 389.86 252.0 484.70	80.4341020557	389.86	252.00	Mostly_Sunny(partly_cloudy)	False	False	252.00
2010-06-26 18:00:00 35177 18 172.29 172.29 172.29 103.7 214.20	80.4341020557	172.29	103.70	Mostly_Sunny(partly_cloudy)	False	False	103.70
2010-06-26 19:00:00 35178 19 13.72 13.72 13.72 17.6 81.40	16.8553200247	13.72	17.60	Scattered_T-Storms(cloudy)	True	False	17.60
2010-06-26 20:00:00 35179 20 1.13 1.13 1.13 0.0 6.70	16.8553200247	1.13	0.00	Scattered_T-Storms(mostly_cloudy)	True	False	0.00
2010-06-26 21:00:00 35180 21 0.00 0.00 0.00 0.0 0.00	16.8553200247	0.00	0.00	Scattered_T-Storms(mostly_cloudy)	True	False	0.00
2010-06-26 22:00:00 35181 22 0.00 0.00 0.00 0.0 0.00	16.8553200247	0.00	0.00	Scattered_T-Storms(mostly_cloudy)	True	False	0.00
2010-06-26 23:00:00 35182 23 0.00 0.00 0.00 0.0 0.00	16.8553200247	0.00	0.00	Scattered_T-Storms(mostly_cloudy)	True	False	0.00
2010-06-27 00:00:00 35183 0 0.00 0.00 0.00 0.0 0.00	16.8553200247	0.00	0.00	Scattered_T-Storms(cloudy)	True	False	0.00
2010-06-27 01:00:00 35184 1 0.00 0.00 0.00 0.0 0.00	16.8553200247	0.00	0.00	Isolated_T-Storms(cloudy)	True	False	0.00
2010-06-27 02:00:00 35185 2 0.00 0.00 0.00 0.0 0.00	16.8553200247	0.00	0.00	Isolated_T-Storms(mostly_cloudy)	True	False	0.00
2010-06-27 03:00:00 35186 3 0.00 0.00 0.00 0.0 0.00	16.8553200247	0.00	0.00	Isolated_T-Storms(clear)	True	False	0.00
2010-06-27 04:00:00 35187 4 0.00 0.00 0.00 0.0 0.00	65.6303786575	0.00	0.00	Mostly_Cloudy(clear)	True	False	0.00
2010-06-27 05:00:00 35188 5 1.18 1.18 1.18 0.0 1.80	65.6303786575	1.18	0.00	Mostly_Cloudy(sunny)	True	False	0.00
2010-06-27 06:00:00 35189 6 48.24 48.24 48.24 41.9 73.50	65.6303786575	48.24	41.90	Mostly_Cloudy(sunny)	True	False	41.90
2010-06-27 07:00:00 35190 7 163.57 163.57 163.57 164.6 220.30	74.2466854158	163.57	164.60	Partly_Cloudy(sunny)	True	False	164.60
2010-06-27 08:00:00 35191 8 360.76 360.76 360.76 156.7 485.90	74.2466854158	360.76	156.70	Partly_Cloudy(partly_cloudy)	True	False	156.70
2010-06-27 09:00:00 35192 9 552.17 552.17 552.17 328.6 743.70	74.2466854158	552.17	328.60	Partly_Cloudy(mostly_cloudy)	True	False	328.60
2010-06-27 10:00:00 35193 10 616.10 616.10 616.10 557.1 929.60	66.2762219146	616.10	557.10	Mostly_Cloudy(mostly_cloudy)	True	False	557.10
2010-06-27 11:00:00 35194 11 625.78 625.78 625.78 615.2 944.20	66.2762219146	625.78	615.20	Mostly_Cloudy(mostly_cloudy)	True	False	615.20
2010-06-27 12:00:00 35195 12 622.20 622.20 622.20 724.0 938.80	66.2762219146	622.20	724.00	Mostly_Cloudy(fair)	True	False	724.00
2010-06-27 13:00:00 35196 13 170.29 170.29 170.29 729.9 995.60	17.104130809	170.29	729.90	Isolated_T-Storms(fair)	True	False	729.90
2010-06-27 14:00:00 35197 14 163.91 163.91 163.91 664.1 958.30	17.104130809	163.91	664.10	Isolated_T-Storms(mostly_cloudy)	True	False	664.10
2010-06-27 15:00:00 35198 15 160.62 160.62 160.62 679.1 939.10	17.104130809	160.62	679.10	Isolated_T-Storms(fair)	True	False	679.10
2010-06-27 16:00:00 35199 16 124.02 124.02 124.02 519.5 735.80	16.8553200247	124.02	519.50	Isolated_T-Storms(fair)	True	False	519.50
