2010-07-16 23:00:00 60190 23 0.00 0.00 0.00 0.0 0.00	27.3693534101	0.00	0.00	Scattered_T-Storms(partly_cloudy)	True	False	0.00
2010-07-17 00:00:00 60191 0 0.00 0.00 0.00 0.0 0.00	27.3693534101	0.00	0.00	Scattered_T-Storms(partly_cloudy)	True	False	0.00
2010-07-17 01:00:00 60192 1 0.00 0.00 0.00 0.0 0.00	58.4307808374	0.00	0.00	Mostly_Cloudy(mostly_cloudy)	True	False	0.00
2010-07-17 02:00:00 60193 2 0.00 0.00 0.00 0.0 0.00	58.4307808374	0.00	0.00	Mostly_Cloudy(partly_cloudy)	True	False	0.00
2010-07-17 03:00:00 60194 3 0.00 0.00 0.00 0.0 0.00	58.4307808374	0.00	0.00	Mostly_Cloudy(partly_cloudy)	True	False	0.00
2010-07-17 04:00:00 60195 4 0.00 0.00 0.00 0.0 0.00	74.2951224532	0.00	0.00	Partly_Cloudy(partly_cloudy)	True	False	0.00
2010-07-17 05:00:00 60196 5 0.22 0.22 0.22 0.0 0.30	74.2951224532	0.22	0.00	Partly_Cloudy(partly_cloudy)	True	False	0.00
2010-07-17 06:00:00 60197 6 57.73 57.73 57.73 8.9 77.70	74.2951224532	57.73	8.90	Partly_Cloudy(fog)	True	False	8.90
2010-07-17 07:00:00 60198 7 164.31 164.31 164.31 180.8 207.40	79.2248208223	164.31	180.80	Sunny(sunny)	True	False	180.80
2010-07-17 08:00:00 60199 8 384.95 384.95 384.95 425.3 485.90	79.2248208223	384.95	425.30	Sunny(sunny)	True	False	425.30
2010-07-17 09:00:00 60200 9 590.30 590.30 590.30 661.6 745.10	79.2248208223	590.30	661.60	Sunny(sunny)	True	False	661.60
2010-07-17 10:00:00 60201 10 786.57 786.57 786.57 845.5 919.50	85.5431912486	786.57	845.50	Sunny(sunny)	True	False	845.50
2010-07-17 11:00:00 60202 11 888.71 888.71 888.71 957.9 1038.90	85.5431912486	888.71	957.90	Sunny(sunny)	True	False	957.90
2010-07-17 12:00:00 60203 12 947.90 947.90 947.90 856.7 1108.10	85.5431912486	947.90	856.70	Sunny(sunny)	True	False	856.70
2010-07-17 13:00:00 60204 13 947.56 947.56 947.56 969.2 1107.70	85.5431912486	947.56	969.20	Mostly_Sunny(sunny)	False	False	969.20
2010-07-17 14:00:00 60205 14 907.10 907.10 907.10 857.4 1060.40	85.5431912486	907.10	857.40	Mostly_Sunny(sunny)	False	False	857.40
2010-07-17 15:00:00 60206 15 803.34 803.34 803.34 743.0 939.10	85.5431912486	803.34	743.00	Mostly_Sunny(partly_cloudy)	False	False	743.00
2010-07-17 16:00:00 60207 16 563.83 563.83 563.83 642.6 758.90	74.2951224532	563.83	642.60	Partly_Cloudy(partly_cloudy)	True	False	642.60
2010-07-17 17:00:00 60208 17 370.51 370.51 370.51 372.3 498.70	74.2951224532	370.51	372.30	Partly_Cloudy(fair)	True	False	372.30
2010-07-17 18:00:00 60209 18 167.76 167.76 167.76 166.7 225.80	74.2951224532	167.76	166.70	Partly_Cloudy(partly_cloudy)	True	False	166.70
2010-07-17 19:00:00 60210 19 60.48 60.48 60.48 62.1 81.40	74.2951224532	60.48	62.10	Partly_Cloudy(mostly_cloudy)	True	False	62.10
2010-07-17 20:00:00 60211 20 5.05 5.05 5.05 1.4 6.80	74.2951224532	5.05	1.40	Partly_Cloudy(fair)	True	False	1.40
2010-07-17 21:00:00 60212 21 0.00 0.00 0.00 0.0 0.00	74.2951224532	0.00	0.00	Partly_Cloudy(clear)	True	False	0.00
2010-07-17 22:00:00 60213 22 0.00 0.00 0.00 0.0 0.00	74.2951224532	0.00	0.00	Partly_Cloudy(clear)	True	False	0.00
2010-07-17 23:00:00 60214 23 0.00 0.00 0.00 0.0 0.00	74.2951224532	0.00	0.00	Partly_Cloudy(clear)	True	False	0.00
2010-07-18 00:00:00 60215 0 0.00 0.00 0.00 0.0 0.00	74.2951224532	0.00	0.00	Partly_Cloudy(clear)	True	False	0.00
2010-07-18 01:00:00 60216 1 0.00 0.00 0.00 0.0 0.00	27.3693534101	0.00	0.00	Isolated_T-Storms(clear)	True	False	0.00
2010-07-18 02:00:00 60217 2 0.00 0.00 0.00 0.0 0.00	27.3693534101	0.00	0.00	Isolated_T-Storms(partly_cloudy)	True	False	0.00
2010-07-18 03:00:00 60218 3 0.00 0.00 0.00 0.0 0.00	27.3693534101	0.00	0.00	Isolated_T-Storms(clear)	True	False	0.00
2010-07-18 04:00:00 60219 4 0.00 0.00 0.00 0.0 0.00	27.3693534101	0.00	0.00	Mostly_Clear(fair)	False	False	0.00
2010-07-18 05:00:00 60220 5 0.08 0.08 0.08 0.0 0.30	27.3693534101	0.08	0.00	Mostly_Clear(fair)	False	False	0.00
2010-07-18 06:00:00 60221 6 21.27 21.27 21.27 24.2 77.70	27.3693534101	21.27	24.20	Mostly_Sunny(fog)	False	False	24.20
2010-07-18 07:00:00 60222 7 154.09 154.09 154.09 176.8 207.40	74.2951224532	154.09	176.80	Partly_Cloudy(sunny)	True	False	176.80
2010-07-18 08:00:00 60223 8 361.00 361.00 361.00 422.5 485.90	74.2951224532	361.00	422.50	Partly_Cloudy(sunny)	True	False	422.50
2010-07-18 09:00:00 60224 9 553.57 553.57 553.57 661.7 745.10	74.2951224532	553.57	661.70	Partly_Cloudy(sunny)	True	False	661.70
2010-07-18 10:00:00 60225 10 693.88 693.88 693.88 861.5 919.50	75.4625033842	693.88	861.50	Partly_Cloudy(sunny)	True	False	861.50
2010-07-18 11:00:00 60226 11 783.98 783.98 783.98 832.1 1038.90	75.4625033842	783.98	832.10	Partly_Cloudy(fair)	True	False	832.10
2010-07-18 12:00:00 60227 12 836.20 836.20 836.20 1019.8 1108.10	75.4625033842	836.20	1019.80	Partly_Cloudy(partly_cloudy)	True	False	1019.80
2010-07-18 13:00:00 60228 13 835.90 835.90 835.90 974.1 1107.70	75.4625033842	835.90	974.10	Partly_Cloudy(sunny)	True	False	974.10
2010-07-18 14:00:00 60229 14 800.20 800.20 800.20 767.6 1060.40	75.4625033842	800.20	767.60	Partly_Cloudy(fair)	True	False	767.60
2010-07-18 15:00:00 60230 15 708.67 708.67 708.67 831.6 939.10	75.4625033842	708.67	831.60	Partly_Cloudy(sunny)	True	False	831.60
2010-07-18 16:00:00 60231 16 563.83 563.83 563.83 566.3 758.90	74.2951224532	563.83	566.30	Partly_Cloudy(sunny)	True	False	566.30
2010-07-18 17:00:00 60232 17 370.51 370.51 370.51 425.6 498.70	74.2951224532	370.51	425.60	Partly_Cloudy(sunny)	True	False	425.60
2010-07-18 18:00:00 60233 18 167.76 167.76 167.76 195.5 225.80	74.2951224532	167.76	195.50	Partly_Cloudy(sunny)	True	False	195.50
2010-07-18 19:00:00 60234 19 60.48 60.48 60.48 40.3 81.40	74.2951224532	60.48	40.30	Partly_Cloudy(sunny)	True	False	40.30
2010-07-18 20:00:00 60235 20 5.05 5.05 5.05 0.5 6.80	74.2951224532	5.05	0.50	Partly_Cloudy(sunny)	True	False	0.50
2010-07-18 21:00:00 60236 21 0.00 0.00 0.00 0.0 0.00	74.2951224532	0.00	0.00	Partly_Cloudy(clear)	True	False	0.00
2010-07-18 22:00:00 60237 22 0.00 0.00 0.00 0.0 0.00	74.2951224532	0.00	0.00	Partly_Cloudy(clear)	True	False	0.00
2010-07-18 23:00:00 60238 23 0.00 0.00 0.00 0.0 0.00	74.2951224532	0.00	0.00	Partly_Cloudy(partly_cloudy)	True	False	0.00
