2010-05-30 01:00:00 3840 1 0.00 0.00 0.00 0.0 0.00	12.6287505598	0.00	0.00	Few_Showers(fog)	True	False	0.00
2010-05-30 02:00:00 3841 2 0.00 0.00 0.00 0.0 0.00	12.6287505598	0.00	0.00	Few_Showers(fog)	True	False	0.00
2010-05-30 03:00:00 3842 3 0.00 0.00 0.00 0.0 0.00	12.6287505598	0.00	0.00	Few_Showers(fog)	True	False	0.00
2010-05-30 04:00:00 3843 4 0.00 0.00 0.00 0.0 0.00	80.0223630265	0.00	0.00	Partly_Cloudy(fog)	True	False	0.00
2010-05-30 05:00:00 3844 5 0.56 0.56 0.56 0.0 0.70	80.0223630265	0.56	0.00	Partly_Cloudy(sunny)	True	False	0.00
2010-05-30 06:00:00 3845 6 58.18 58.18 58.18 58.3 72.70	80.0223630265	58.18	58.30	Partly_Cloudy(fog)	True	False	58.30
2010-05-30 07:00:00 3846 7 214.70 214.70 214.70 248.5 268.30	80.0223630265	214.70	248.50	Partly_Cloudy(sunny)	True	False	248.50
2010-05-30 08:00:00 3847 8 425.56 425.56 425.56 531.8 531.80	80.0223630265	425.56	531.80	Partly_Cloudy(sunny)	True	False	531.80
2010-05-30 09:00:00 3848 9 616.17 616.17 616.17 720.1 770.00	80.0223630265	616.17	720.10	Partly_Cloudy(sunny)	True	False	720.10
2010-05-30 10:00:00 3849 10 919.07 919.07 919.07 928.4 966.70	95.0730647709	919.07	928.40	Sunny(sunny)	True	False	928.40
2010-05-30 11:00:00 3850 11 999.98 999.98 999.98 1051.8 1051.80	95.0730647709	999.98	1051.80	Sunny(sunny)	True	False	1051.80
2010-05-30 12:00:00 3851 12 1040.29 1040.29 1040.29 1094.2 1094.20	95.0730647709	1040.29	1094.20	Sunny(sunny)	True	False	1094.20
2010-05-30 13:00:00 3852 13 1026.69 1026.69 1026.69 1079.9 1079.90	95.0730647709	1026.69	1079.90	Mostly_Sunny(sunny)	False	False	1079.90
2010-05-30 14:00:00 3853 14 962.90 962.90 962.90 1012.8 1012.80	95.0730647709	962.90	1012.80	Mostly_Sunny(sunny)	False	False	1012.80
2010-05-30 15:00:00 3854 15 849.19 849.19 849.19 883.5 893.20	95.0730647709	849.19	883.50	Mostly_Sunny(sunny)	False	False	883.50
2010-05-30 16:00:00 3855 16 606.65 606.65 606.65 690.5 716.10	84.7153465347	606.65	690.50	Sunny(sunny)	True	False	690.50
2010-05-30 17:00:00 3856 17 410.70 410.70 410.70 419.6 484.80	84.7153465347	410.70	419.60	Sunny(sunny)	True	False	419.60
2010-05-30 18:00:00 3857 18 165.79 165.79 165.79 161.0 195.70	84.7153465347	165.79	161.00	Sunny(sunny)	True	False	161.00
2010-05-30 19:00:00 3858 19 51.25 51.25 51.25 26.7 60.50	84.7153465347	51.25	26.70	Sunny(sunny)	True	False	26.70
2010-05-30 20:00:00 3859 20 1.19 1.19 1.19 0.7 1.40	84.7153465347	1.19	0.70	Sunny(sunny)	True	False	0.70
2010-05-30 21:00:00 3860 21 0.00 0.00 0.00 0.0 0.00	84.7153465347	0.00	0.00	Clear(clear)	True	False	0.00
2010-05-30 22:00:00 3861 22 0.00 0.00 0.00 0.0 0.00	84.7153465347	0.00	0.00	Clear(fair)	True	False	0.00
2010-05-30 23:00:00 3862 23 0.00 0.00 0.00 0.0 0.00	84.7153465347	0.00	0.00	Clear(clear)	True	False	0.00
2010-05-31 00:00:00 3863 0 0.00 0.00 0.00 0.0 0.00	84.7153465347	0.00	0.00	Clear(clear)	True	False	0.00
2010-05-31 01:00:00 3864 1 0.00 0.00 0.00 0.0 0.00	84.7153465347	0.00	0.00	Clear(clear)	True	False	0.00
2010-05-31 02:00:00 3865 2 0.00 0.00 0.00 0.0 0.00	84.7153465347	0.00	0.00	Clear(clear)	True	False	0.00
2010-05-31 03:00:00 3866 3 0.00 0.00 0.00 0.0 0.00	84.7153465347	0.00	0.00	Clear(clear)	True	False	0.00
2010-05-31 04:00:00 3867 4 0.00 0.00 0.00 0.0 0.00	84.7153465347	0.00	0.00	Clear(clear)	True	False	0.00
2010-05-31 05:00:00 3868 5 0.59 0.59 0.59 0.0 0.70	84.7153465347	0.59	0.00	Clear(sunny)	True	False	0.00
2010-05-31 06:00:00 3869 6 61.59 61.59 61.59 48.1 72.70	84.7153465347	61.59	48.10	Sunny(sunny)	True	False	48.10
2010-05-31 07:00:00 3870 7 227.29 227.29 227.29 228.2 268.30	84.7153465347	227.29	228.20	Sunny(sunny)	True	False	228.20
2010-05-31 08:00:00 3871 8 450.52 450.52 450.52 491.2 531.80	84.7153465347	450.52	491.20	Sunny(sunny)	True	False	491.20
2010-05-31 09:00:00 3872 9 652.31 652.31 652.31 720.4 770.00	84.7153465347	652.31	720.40	Sunny(sunny)	True	False	720.40
2010-05-31 10:00:00 3873 10 919.07 919.07 919.07 882.6 966.70	95.0730647709	919.07	882.60	Sunny(sunny)	True	False	882.60
2010-05-31 11:00:00 3874 11 999.98 999.98 999.98 982.4 1051.80	95.0730647709	999.98	982.40	Sunny(sunny)	True	False	982.40
2010-05-31 12:00:00 3875 12 1040.29 1040.29 1040.29 1030.3 1094.20	95.0730647709	1040.29	1030.30	Sunny(sunny)	True	False	1030.30
2010-05-31 13:00:00 3876 13 1026.69 1026.69 1026.69 896.5 1079.90	95.0730647709	1026.69	896.50	Sunny(sunny)	True	False	896.50
2010-05-31 14:00:00 3877 14 962.90 962.90 962.90 887.0 1012.80	95.0730647709	962.90	887.00	Sunny(fair)	True	False	887.00
2010-05-31 15:00:00 3878 15 849.19 849.19 849.19 846.8 893.20	95.0730647709	849.19	846.80	Sunny(sunny)	True	False	846.80
2010-05-31 16:00:00 3879 16 680.82 680.82 680.82 538.5 716.10	95.0730647709	680.82	538.50	Mostly_Sunny(fair)	False	False	538.50
2010-05-31 17:00:00 3880 17 460.91 460.91 460.91 60.9 484.80	95.0730647709	460.91	60.90	Mostly_Sunny(fair)	False	False	60.90
2010-05-31 18:00:00 3881 18 186.06 186.06 186.06 213.0 195.70	95.0730647709	186.06	213.00	Mostly_Sunny(thunder)	False	False	213.00
2010-05-31 19:00:00 3882 19 48.41 48.41 48.41 42.8 60.50	80.0223630265	48.41	42.80	Partly_Cloudy(partly_cloudy)	True	False	42.80
2010-05-31 20:00:00 3883 20 1.12 1.12 1.12 0.3 1.40	80.0223630265	1.12	0.30	Partly_Cloudy(sunny)	True	False	0.30
2010-05-31 21:00:00 3884 21 0.00 0.00 0.00 0.0 0.00	80.0223630265	0.00	0.00	Partly_Cloudy(fair)	True	False	0.00
2010-05-31 22:00:00 3885 22 0.00 0.00 0.00 0.0 0.00	60.909555442	0.00	0.00	Mostly_Cloudy(mostly_cloudy)	True	False	0.00
2010-05-31 23:00:00 3886 23 0.00 0.00 0.00 0.0 0.00	60.909555442	0.00	0.00	Mostly_Cloudy(mostly_cloudy)	True	False	0.00
2010-06-01 00:00:00 3887 0 0.00 0.00 0.00 0.0 0.00	60.909555442	0.00	0.00	Mostly_Cloudy(mostly_cloudy)	True	False	0.00
2010-06-01 01:00:00 3888 1 0.00 0.00 0.00 0.0 0.00	60.909555442	0.00	0.00	Mostly_Cloudy(mostly_cloudy)	True	False	0.00
