2010-07-05 05:00:00 46372 5 0.23 0.23 0.23 0.0 0.30	76.7244856797	0.23	0.00	Clear(sunny)	True	False	0.00
2010-07-05 06:00:00 46373 6 59.61 59.61 59.61 46.2 77.70	76.7244856797	59.61	46.20	Sunny(sunny)	True	False	46.20
2010-07-05 07:00:00 46374 7 152.91 152.91 152.91 161.7 207.40	73.7248504622	152.91	161.70	Partly_Cloudy(sunny)	True	False	161.70
2010-07-05 08:00:00 46375 8 358.23 358.23 358.23 352.8 485.90	73.7248504622	358.23	352.80	Partly_Cloudy(sunny)	True	False	352.80
2010-07-05 09:00:00 46376 9 548.29 548.29 548.29 530.7 743.70	73.7248504622	548.29	530.70	Partly_Cloudy(sunny)	True	False	530.70
2010-07-05 10:00:00 46377 10 679.65 679.65 679.65 678.2 919.50	73.9155035836	679.65	678.20	Partly_Cloudy(sunny)	True	False	678.20
2010-07-05 11:00:00 46378 11 767.91 767.91 767.91 760.5 1038.90	73.9155035836	767.91	760.50	Partly_Cloudy(sunny)	True	False	760.50
2010-07-05 12:00:00 46379 12 819.06 819.06 819.06 817.3 1108.10	73.9155035836	819.06	817.30	Partly_Cloudy(sunny)	True	False	817.30
2010-07-05 13:00:00 46380 13 818.76 818.76 818.76 822.2 1107.70	73.9155035836	818.76	822.20	Mostly_Sunny(sunny)	False	False	822.20
2010-07-05 14:00:00 46381 14 783.80 783.80 783.80 770.8 1060.40	73.9155035836	783.80	770.80	Mostly_Sunny(sunny)	False	False	770.80
2010-07-05 15:00:00 46382 15 694.14 694.14 694.14 680.5 939.10	73.9155035836	694.14	680.50	Mostly_Sunny(sunny)	False	False	680.50
2010-07-05 16:00:00 46383 16 582.26 582.26 582.26 532.1 758.90	76.7244856797	582.26	532.10	Sunny(sunny)	True	False	532.10
2010-07-05 17:00:00 46384 17 382.63 382.63 382.63 341.1 498.70	76.7244856797	382.63	341.10	Sunny(sunny)	True	False	341.10
2010-07-05 18:00:00 46385 18 173.24 173.24 173.24 141.1 225.80	76.7244856797	173.24	141.10	Sunny(sunny)	True	False	141.10
2010-07-05 19:00:00 46386 19 62.45 62.45 62.45 30.4 81.40	76.7244856797	62.45	30.40	Sunny(sunny)	True	False	30.40
2010-07-05 20:00:00 46387 20 5.22 5.22 5.22 2.0 6.80	76.7244856797	5.22	2.00	Sunny(sunny)	True	False	2.00
2010-07-05 21:00:00 46388 21 0.00 0.00 0.00 0.0 0.00	76.7244856797	0.00	0.00	Clear(clear)	True	False	0.00
2010-07-05 22:00:00 46389 22 0.00 0.00 0.00 0.0 0.00	76.7244856797	0.00	0.00	Clear(clear)	True	False	0.00
2010-07-05 23:00:00 46390 23 0.00 0.00 0.00 0.0 0.00	76.7244856797	0.00	0.00	Clear(clear)	True	False	0.00
2010-07-06 00:00:00 46391 0 0.00 0.00 0.00 0.0 0.00	76.7244856797	0.00	0.00	Clear(clear)	True	False	0.00
2010-07-06 01:00:00 46392 1 0.00 0.00 0.00 0.0 0.00	76.7244856797	0.00	0.00	Clear(clear)	True	False	0.00
2010-07-06 02:00:00 46393 2 0.00 0.00 0.00 0.0 0.00	76.7244856797	0.00	0.00	Clear(clear)	True	False	0.00
2010-07-06 03:00:00 46394 3 0.00 0.00 0.00 0.0 0.00	76.7244856797	0.00	0.00	Clear(clear)	True	False	0.00
2010-07-06 04:00:00 46395 4 0.00 0.00 0.00 0.0 0.00	76.7244856797	0.00	0.00	Clear(clear)	True	False	0.00
2010-07-06 05:00:00 46396 5 0.23 0.23 0.23 0.0 0.30	76.7244856797	0.23	0.00	Clear(sunny)	True	False	0.00
2010-07-06 06:00:00 46397 6 59.61 59.61 59.61 27.7 77.70	76.7244856797	59.61	27.70	Sunny(sunny)	True	False	27.70
2010-07-06 07:00:00 46398 7 159.13 159.13 159.13 152.1 207.40	76.7244856797	159.13	152.10	Sunny(sunny)	True	False	152.10
2010-07-06 08:00:00 46399 8 372.80 372.80 372.80 341.2 485.90	76.7244856797	372.80	341.20	Sunny(sunny)	True	False	341.20
2010-07-06 09:00:00 46400 9 570.60 570.60 570.60 522.9 743.70	76.7244856797	570.60	522.90	Sunny(sunny)	True	False	522.90
2010-07-06 10:00:00 46401 10 733.30 733.30 733.30 665.8 919.50	79.7498640566	733.30	665.80	Sunny(sunny)	True	False	665.80
2010-07-06 11:00:00 46402 11 828.52 828.52 828.52 748.1 1038.90	79.7498640566	828.52	748.10	Sunny(sunny)	True	False	748.10
2010-07-06 12:00:00 46403 12 883.71 883.71 883.71 685.8 1108.10	79.7498640566	883.71	685.80	Sunny(sunny)	True	False	685.80
2010-07-06 13:00:00 46404 13 883.39 883.39 883.39 566.1 1107.70	79.7498640566	883.39	566.10	Sunny(sunny)	True	False	566.10
2010-07-06 14:00:00 46405 14 845.67 845.67 845.67 714.4 1060.40	79.7498640566	845.67	714.40	Sunny(sunny)	True	False	714.40
2010-07-06 15:00:00 46406 15 748.93 748.93 748.93 499.2 939.10	79.7498640566	748.93	499.20	Sunny(fair)	True	False	499.20
2010-07-06 16:00:00 46407 16 582.26 582.26 582.26 534.6 758.90	76.7244856797	582.26	534.60	Sunny(sunny)	True	False	534.60
2010-07-06 17:00:00 46408 17 382.63 382.63 382.63 334.5 498.70	76.7244856797	382.63	334.50	Sunny(sunny)	True	False	334.50
2010-07-06 18:00:00 46409 18 173.24 173.24 173.24 141.3 225.80	76.7244856797	173.24	141.30	Sunny(sunny)	True	False	141.30
2010-07-06 19:00:00 46410 19 60.01 60.01 60.01 43.9 81.40	73.7248504622	60.01	43.90	Partly_Cloudy(sunny)	True	False	43.90
2010-07-06 20:00:00 46411 20 5.01 5.01 5.01 1.8 6.80	73.7248504622	5.01	1.80	Partly_Cloudy(sunny)	True	False	1.80
2010-07-06 21:00:00 46412 21 0.00 0.00 0.00 0.0 0.00	73.7248504622	0.00	0.00	Partly_Cloudy(clear)	True	False	0.00
2010-07-06 22:00:00 46413 22 0.00 0.00 0.00 0.0 0.00	73.7248504622	0.00	0.00	Partly_Cloudy(fair)	True	False	0.00
2010-07-06 23:00:00 46414 23 0.00 0.00 0.00 0.0 0.00	73.7248504622	0.00	0.00	Partly_Cloudy(fair)	True	False	0.00
2010-07-07 00:00:00 46415 0 0.00 0.00 0.00 0.0 0.00	73.7248504622	0.00	0.00	Partly_Cloudy(fair)	True	False	0.00
2010-07-07 01:00:00 46416 1 0.00 0.00 0.00 0.0 0.00	73.7248504622	0.00	0.00	Partly_Cloudy(fair)	True	False	0.00
2010-07-07 02:00:00 46417 2 0.00 0.00 0.00 0.0 0.00	73.7248504622	0.00	0.00	Partly_Cloudy(fair)	True	False	0.00
2010-07-07 03:00:00 46418 3 0.00 0.00 0.00 0.0 0.00	73.7248504622	0.00	0.00	Partly_Cloudy(fair)	True	False	0.00
2010-07-07 04:00:00 46419 4 0.00 0.00 0.00 0.0 0.00	73.7248504622	0.00	0.00	Partly_Cloudy(cloudy)	True	False	0.00
2010-07-07 05:00:00 46420 5 0.22 0.22 0.22 0.0 0.30	73.7248504622	0.22	0.00	Partly_Cloudy(partly_cloudy)	True	False	0.00
