2010-06-19 20:00:00 28291 20 5.38 5.38 5.38 1.5 6.70	80.3248709122	5.38	1.50	Mostly_Sunny(sunny)	False	False	1.50
2010-06-19 21:00:00 28292 21 0.00 0.00 0.00 0.0 0.00	75.7826086957	0.00	0.00	Clear(clear)	True	False	0.00
2010-06-19 22:00:00 28293 22 0.00 0.00 0.00 0.0 0.00	75.7826086957	0.00	0.00	Clear(clear)	True	False	0.00
2010-06-19 23:00:00 28294 23 0.00 0.00 0.00 0.0 0.00	75.7826086957	0.00	0.00	Clear(clear)	True	False	0.00
2010-06-20 00:00:00 28295 0 0.00 0.00 0.00 0.0 0.00	75.7826086957	0.00	0.00	Clear(fair)	True	False	0.00
2010-06-20 01:00:00 28296 1 0.00 0.00 0.00 0.0 0.00	14.0947144821	0.00	0.00	Isolated_T-Storms(fair)	True	False	0.00
2010-06-20 02:00:00 28297 2 0.00 0.00 0.00 0.0 0.00	14.0947144821	0.00	0.00	Isolated_T-Storms(partly_cloudy)	True	False	0.00
2010-06-20 03:00:00 28298 3 0.00 0.00 0.00 0.0 0.00	14.0947144821	0.00	0.00	Isolated_T-Storms(fair)	True	False	0.00
2010-06-20 04:00:00 28299 4 0.00 0.00 0.00 0.0 0.00	65.672260203	0.00	0.00	Mostly_Cloudy(fair)	True	False	0.00
2010-06-20 05:00:00 28300 5 1.18 1.18 1.18 0.0 1.80	65.672260203	1.18	0.00	Mostly_Cloudy(partly_cloudy)	True	False	0.00
2010-06-20 06:00:00 28301 6 48.27 48.27 48.27 45.9 73.50	65.672260203	48.27	45.90	Mostly_Cloudy(mostly_cloudy)	True	False	45.90
2010-06-20 07:00:00 28302 7 166.35 166.35 166.35 151.9 220.30	75.5102040816	166.35	151.90	Partly_Cloudy(mostly_cloudy)	True	False	151.90
2010-06-20 08:00:00 28303 8 339.27 339.27 339.27 226.3 449.30	75.5102040816	339.27	226.30	Partly_Cloudy(partly_cloudy)	True	False	226.30
2010-06-20 09:00:00 28304 9 521.02 521.02 521.02 305.8 690.00	75.5102040816	521.02	305.80	Partly_Cloudy(partly_cloudy)	True	False	305.80
2010-06-20 10:00:00 28305 10 746.70 746.70 746.70 514.9 929.60	80.3248709122	746.70	514.90	Sunny(partly_cloudy)	True	False	514.90
2010-06-20 11:00:00 28306 11 758.43 758.43 758.43 779.1 944.20	80.3248709122	758.43	779.10	Sunny(fair)	True	False	779.10
2010-06-20 12:00:00 28307 12 754.09 754.09 754.09 597.1 938.80	80.3248709122	754.09	597.10	Sunny(fair)	True	False	597.10
2010-06-20 13:00:00 28308 13 836.02 836.02 836.02 738.0 1040.80	80.3248709122	836.02	738.00	Sunny(sunny)	True	False	738.00
2010-06-20 14:00:00 28309 14 763.81 763.81 763.81 724.7 950.90	80.3248709122	763.81	724.70	Sunny(fair)	True	False	724.70
2010-06-20 15:00:00 28310 15 642.84 642.84 642.84 576.1 800.30	80.3248709122	642.84	576.10	Sunny(partly_cloudy)	True	False	576.10
2010-06-20 16:00:00 28311 16 575.21 575.21 575.21 540.6 716.10	80.3248709122	575.21	540.60	Mostly_Sunny(fair)	False	False	540.60
2010-06-20 17:00:00 28312 17 387.73 387.73 387.73 353.0 482.70	80.3248709122	387.73	353.00	Mostly_Sunny(fair)	False	False	353.00
2010-06-20 18:00:00 28313 18 172.06 172.06 172.06 142.6 214.20	80.3248709122	172.06	142.60	Mostly_Sunny(sunny)	False	False	142.60
2010-06-20 19:00:00 28314 19 61.69 61.69 61.69 37.0 81.40	75.7826086957	61.69	37.00	Sunny(sunny)	True	False	37.00
2010-06-20 20:00:00 28315 20 5.08 5.08 5.08 2.8 6.70	75.7826086957	5.08	2.80	Sunny(sunny)	True	False	2.80
2010-06-20 21:00:00 28316 21 0.00 0.00 0.00 0.0 0.00	75.7826086957	0.00	0.00	Clear(clear)	True	False	0.00
2010-06-20 22:00:00 28317 22 0.00 0.00 0.00 0.0 0.00	75.7826086957	0.00	0.00	Clear(clear)	True	False	0.00
2010-06-20 23:00:00 28318 23 0.00 0.00 0.00 0.0 0.00	75.7826086957	0.00	0.00	Clear(clear)	True	False	0.00
2010-06-21 00:00:00 28319 0 0.00 0.00 0.00 0.0 0.00	75.7826086957	0.00	0.00	Clear(clear)	True	False	0.00
2010-06-21 01:00:00 28320 1 0.00 0.00 0.00 0.0 0.00	75.7826086957	0.00	0.00	Clear(fair)	True	False	0.00
2010-06-21 02:00:00 28321 2 0.00 0.00 0.00 0.0 0.00	75.7826086957	0.00	0.00	Clear(clear)	True	False	0.00
2010-06-21 03:00:00 28322 3 0.00 0.00 0.00 0.0 0.00	75.7826086957	0.00	0.00	Clear(clear)	True	False	0.00
2010-06-21 04:00:00 28323 4 0.00 0.00 0.00 0.0 0.00	75.7826086957	0.00	0.00	Clear(clear)	True	False	0.00
2010-06-21 05:00:00 28324 5 1.36 1.36 1.36 0.0 1.80	75.7826086957	1.36	0.00	Clear(sunny)	True	False	0.00
2010-06-21 06:00:00 28325 6 55.70 55.70 55.70 35.2 73.50	75.7826086957	55.70	35.20	Sunny(sunny)	True	False	35.20
2010-06-21 07:00:00 28326 7 166.95 166.95 166.95 175.9 220.30	75.7826086957	166.95	175.90	Sunny(sunny)	True	False	175.90
2010-06-21 08:00:00 28327 8 340.49 340.49 340.49 390.0 449.30	75.7826086957	340.49	390.00	Sunny(sunny)	True	False	390.00
2010-06-21 09:00:00 28328 9 522.90 522.90 522.90 579.6 690.00	75.7826086957	522.90	579.60	Sunny(sunny)	True	False	579.60
2010-06-21 10:00:00 28329 10 704.48 704.48 704.48 694.0 929.60	75.7826086957	704.48	694.00	Mostly_Sunny(sunny)	False	False	694.00
2010-06-21 11:00:00 28330 11 715.54 715.54 715.54 806.3 944.20	75.7826086957	715.54	806.30	Mostly_Sunny(sunny)	False	False	806.30
2010-06-21 12:00:00 28331 12 711.45 711.45 711.45 710.9 938.80	75.7826086957	711.45	710.90	Mostly_Sunny(fair)	False	False	710.90
2010-06-21 13:00:00 28332 13 836.02 836.02 836.02 759.8 1040.80	80.3248709122	836.02	759.80	Sunny(partly_cloudy)	True	False	759.80
2010-06-21 14:00:00 28333 14 763.81 763.81 763.81 741.8 950.90	80.3248709122	763.81	741.80	Sunny(fair)	True	False	741.80
2010-06-21 15:00:00 28334 15 642.84 642.84 642.84 695.9 800.30	80.3248709122	642.84	695.90	Sunny(fair)	True	False	695.90
2010-06-21 16:00:00 28335 16 540.73 540.73 540.73 415.9 716.10	75.5102040816	540.73	415.90	Partly_Cloudy(fair)	True	False	415.90
2010-06-21 17:00:00 28336 17 364.49 364.49 364.49 352.2 482.70	75.5102040816	364.49	352.20	Partly_Cloudy(fair)	True	False	352.20
2010-06-21 18:00:00 28337 18 161.74 161.74 161.74 125.3 214.20	75.5102040816	161.74	125.30	Partly_Cloudy(sunny)	True	False	125.30
2010-06-21 19:00:00 28338 19 61.47 61.47 61.47 37.2 81.40	75.5102040816	61.47	37.20	Partly_Cloudy(sunny)	True	False	37.20
2010-06-21 20:00:00 28339 20 5.06 5.06 5.06 2.3 6.70	75.5102040816	5.06	2.30	Partly_Cloudy(sunny)	True	False	2.30
