2010-06-22 08:00:00 31231 8 366.60 366.60 366.60 369.8 485.50	75.5102040816	366.60	369.80	Partly_Cloudy(partly_cloudy)	True	False	369.80
2010-06-22 09:00:00 31232 9 524.34 524.34 524.34 533.2 694.40	75.5102040816	524.34	533.20	Partly_Cloudy(partly_cloudy)	True	False	533.20
2010-06-22 10:00:00 31233 10 772.66 772.66 772.66 696.1 929.60	83.1179834781	772.66	696.10	Partly_Cloudy(sunny)	True	False	696.10
2010-06-22 11:00:00 31234 11 784.80 784.80 784.80 779.6 944.20	83.1179834781	784.80	779.60	Partly_Cloudy(sunny)	True	False	779.60
2010-06-22 12:00:00 31235 12 780.31 780.31 780.31 594.7 938.80	83.1179834781	780.31	594.70	Partly_Cloudy(fair)	True	False	594.70
2010-06-22 13:00:00 31236 13 653.42 653.42 653.42 638.4 995.60	65.6303786575	653.42	638.40	Mostly_Cloudy(sunny)	True	False	638.40
2010-06-22 14:00:00 31237 14 624.08 624.08 624.08 506.2 950.90	65.6303786575	624.08	506.20	Mostly_Cloudy(partly_cloudy)	True	False	506.20
2010-06-22 15:00:00 31238 15 519.46 519.46 519.46 226.5 791.50	65.6303786575	519.46	226.50	Mostly_Cloudy(mostly_cloudy)	True	False	226.50
2010-06-22 16:00:00 31239 16 87.55 87.55 87.55 225.0 681.80	12.8404669261	87.55	225.00	Isolated_T-Storms(mostly_cloudy)	True	False	225.00
2010-06-22 17:00:00 31240 17 61.98 61.98 61.98 148.2 482.70	12.8404669261	61.98	148.20	Isolated_T-Storms(mostly_cloudy)	True	False	148.20
2010-06-22 18:00:00 31241 18 27.50 27.50 27.50 31.6 214.20	12.8404669261	27.50	31.60	Isolated_T-Storms(sunny)	True	False	31.60
2010-06-22 19:00:00 31242 19 10.45 10.45 10.45 3.6 81.40	12.8404669261	10.45	3.60	Scattered_T-Storms(heavy_t-storm)	True	False	3.60
2010-06-22 20:00:00 31243 20 0.86 0.86 0.86 4.6 6.70	12.8404669261	0.86	4.60	Scattered_T-Storms(mostly_cloudy)	True	False	4.60
2010-06-22 21:00:00 31244 21 0.00 0.00 0.00 0.0 0.00	12.8404669261	0.00	0.00	Scattered_T-Storms(fog)	True	False	0.00
2010-06-22 22:00:00 31245 22 0.00 0.00 0.00 0.0 0.00	12.8404669261	0.00	0.00	T-Storms(fog)	True	False	0.00
2010-06-22 23:00:00 31246 23 0.00 0.00 0.00 0.0 0.00	12.8404669261	0.00	0.00	T-Storms(fog)	True	False	0.00
2010-06-23 00:00:00 31247 0 0.00 0.00 0.00 0.0 0.00	12.8404669261	0.00	0.00	T-Storms(fog)	True	False	0.00
2010-06-23 01:00:00 31248 1 0.00 0.00 0.00 0.0 0.00	14.6676608436	0.00	0.00	Showers(fog)	True	False	0.00
2010-06-23 02:00:00 31249 2 0.00 0.00 0.00 0.0 0.00	14.6676608436	0.00	0.00	Showers(fog)	True	False	0.00
2010-06-23 03:00:00 31250 3 0.00 0.00 0.00 0.0 0.00	14.6676608436	0.00	0.00	Showers(fog)	True	False	0.00
2010-06-23 04:00:00 31251 4 0.00 0.00 0.00 0.0 0.00	14.6676608436	0.00	0.00	Mostly_Clear(fog)	False	False	0.00
2010-06-23 05:00:00 31252 5 0.26 0.26 0.26 0.0 1.80	14.6676608436	0.26	0.00	Mostly_Clear(fair)	False	False	0.00
2010-06-23 06:00:00 31253 6 10.78 10.78 10.78 38.9 73.50	14.6676608436	10.78	38.90	Mostly_Sunny(fog)	False	False	38.90
2010-06-23 07:00:00 31254 7 165.89 165.89 165.89 177.7 220.30	75.3024193548	165.89	177.70	Sunny(sunny)	True	False	177.70
2010-06-23 08:00:00 31255 8 365.59 365.59 365.59 385.3 485.50	75.3024193548	365.59	385.30	Sunny(sunny)	True	False	385.30
2010-06-23 09:00:00 31256 9 522.90 522.90 522.90 538.4 694.40	75.3024193548	522.90	538.40	Sunny(sunny)	True	False	538.40
2010-06-23 10:00:00 31257 10 764.49 764.49 764.49 677.6 929.60	82.2389324296	764.49	677.60	Sunny(sunny)	True	False	677.60
2010-06-23 11:00:00 31258 11 776.50 776.50 776.50 608.3 944.20	82.2389324296	776.50	608.30	Sunny(fair)	True	False	608.30
2010-06-23 12:00:00 31259 12 772.06 772.06 772.06 781.6 938.80	82.2389324296	772.06	781.60	Sunny(fair)	True	False	781.60
2010-06-23 13:00:00 31260 13 818.77 818.77 818.77 852.3 995.60	82.2389324296	818.77	852.30	Mostly_Sunny(partly_cloudy)	False	False	852.30
2010-06-23 14:00:00 31261 14 782.01 782.01 782.01 689.7 950.90	82.2389324296	782.01	689.70	Mostly_Sunny(fair)	False	False	689.70
2010-06-23 15:00:00 31262 15 650.92 650.92 650.92 658.5 791.50	82.2389324296	650.92	658.50	Mostly_Sunny(partly_cloudy)	False	False	658.50
2010-06-23 16:00:00 31263 16 514.83 514.83 514.83 532.5 681.80	75.5102040816	514.83	532.50	Partly_Cloudy(partly_cloudy)	True	False	532.50
2010-06-23 17:00:00 31264 17 364.49 364.49 364.49 330.9 482.70	75.5102040816	364.49	330.90	Partly_Cloudy(sunny)	True	False	330.90
2010-06-23 18:00:00 31265 18 161.74 161.74 161.74 131.7 214.20	75.5102040816	161.74	131.70	Partly_Cloudy(fair)	True	False	131.70
2010-06-23 19:00:00 31266 19 61.47 61.47 61.47 31.2 81.40	75.5102040816	61.47	31.20	Partly_Cloudy(sunny)	True	False	31.20
2010-06-23 20:00:00 31267 20 5.06 5.06 5.06 1.0 6.70	75.5102040816	5.06	1.00	Partly_Cloudy(sunny)	True	False	1.00
2010-06-23 21:00:00 31268 21 0.00 0.00 0.00 0.0 0.00	75.5102040816	0.00	0.00	Partly_Cloudy(clear)	True	False	0.00
2010-06-23 22:00:00 31269 22 0.00 0.00 0.00 0.0 0.00	65.672260203	0.00	0.00	Mostly_Cloudy(clear)	True	False	0.00
2010-06-23 23:00:00 31270 23 0.00 0.00 0.00 0.0 0.00	65.672260203	0.00	0.00	Mostly_Cloudy(partly_cloudy)	True	False	0.00
2010-06-24 00:00:00 31271 0 0.00 0.00 0.00 0.0 0.00	65.672260203	0.00	0.00	Mostly_Cloudy(clear)	True	False	0.00
2010-06-24 01:00:00 31272 1 0.00 0.00 0.00 0.0 0.00	12.8404669261	0.00	0.00	Isolated_T-Storms(clear)	True	False	0.00
2010-06-24 02:00:00 31273 2 0.00 0.00 0.00 0.0 0.00	12.8404669261	0.00	0.00	Isolated_T-Storms(partly_cloudy)	True	False	0.00
2010-06-24 03:00:00 31274 3 0.00 0.00 0.00 0.0 0.00	12.8404669261	0.00	0.00	Isolated_T-Storms(mostly_cloudy)	True	False	0.00
2010-06-24 04:00:00 31275 4 0.00 0.00 0.00 0.0 0.00	12.8404669261	0.00	0.00	Isolated_T-Storms(mostly_cloudy)	True	False	0.00
2010-06-24 05:00:00 31276 5 0.23 0.23 0.23 0.0 1.80	12.8404669261	0.23	0.00	Isolated_T-Storms(partly_cloudy)	True	False	0.00
2010-06-24 06:00:00 31277 6 9.44 9.44 9.44 46.5 73.50	12.8404669261	9.44	46.50	Isolated_T-Storms(partly_cloudy)	True	False	46.50
2010-06-24 07:00:00 31278 7 28.29 28.29 28.29 152.6 220.30	12.8404669261	28.29	152.60	Isolated_T-Storms(partly_cloudy)	True	False	152.60
2010-06-24 08:00:00 31279 8 62.34 62.34 62.34 369.6 485.50	12.8404669261	62.34	369.60	Isolated_T-Storms(fair)	True	False	369.60
