2010-06-07 05:00:00 13444 5 1.54 1.54 1.54 0.7 1.80	85.7142857143	1.54	0.70	Clear(sunny)	True	False	0.70
2010-06-07 06:00:00 13445 6 63.00 63.00 63.00 45.9 73.50	85.7142857143	63.00	45.90	Sunny(sunny)	True	False	45.90
2010-06-07 07:00:00 13446 7 213.00 213.00 213.00 235.5 248.50	85.7142857143	213.00	235.50	Sunny(sunny)	True	False	235.50
2010-06-07 08:00:00 13447 8 455.83 455.83 455.83 526.3 531.80	85.7142857143	455.83	526.30	Sunny(sunny)	True	False	526.30
2010-06-07 09:00:00 13448 9 650.91 650.91 650.91 781.2 759.40	85.7142857143	650.91	781.20	Sunny(sunny)	True	False	781.20
2010-06-07 10:00:00 13449 10 883.80 883.80 883.80 967.4 929.60	95.0730647709	883.80	967.40	Sunny(sunny)	True	False	967.40
2010-06-07 11:00:00 13450 11 999.98 999.98 999.98 906.7 1051.80	95.0730647709	999.98	906.70	Sunny(sunny)	True	False	906.70
2010-06-07 12:00:00 13451 12 1040.29 1040.29 1040.29 864.9 1094.20	95.0730647709	1040.29	864.90	Sunny(partly_cloudy)	True	False	864.90
2010-06-07 13:00:00 13452 13 1026.69 1026.69 1026.69 563.7 1079.90	95.0730647709	1026.69	563.70	Sunny(mostly_cloudy)	True	False	563.70
2010-06-07 14:00:00 13453 14 962.90 962.90 962.90 638.8 1012.80	95.0730647709	962.90	638.80	Sunny(mostly_cloudy)	True	False	638.80
2010-06-07 15:00:00 13454 15 849.19 849.19 849.19 761.9 893.20	95.0730647709	849.19	761.90	Sunny(mostly_cloudy)	True	False	761.90
2010-06-07 16:00:00 13455 16 613.80 613.80 613.80 551.8 716.10	85.7142857143	613.80	551.80	Sunny(mostly_cloudy)	True	False	551.80
2010-06-07 17:00:00 13456 17 359.66 359.66 359.66 381.9 419.60	85.7142857143	359.66	381.90	Sunny(sunny)	True	False	381.90
2010-06-07 18:00:00 13457 18 183.60 183.60 183.60 182.0 214.20	85.7142857143	183.60	182.00	Sunny(mostly_cloudy)	True	False	182.00
2010-06-07 19:00:00 13458 19 45.77 45.77 45.77 35.4 53.40	85.7142857143	45.77	35.40	Sunny(sunny)	True	False	35.40
2010-06-07 20:00:00 13459 20 2.40 2.40 2.40 1.8 2.80	85.7142857143	2.40	1.80	Sunny(sunny)	True	False	1.80
2010-06-07 21:00:00 13460 21 0.00 0.00 0.00 0.0 0.00	85.7142857143	0.00	0.00	Clear(clear)	True	False	0.00
2010-06-07 22:00:00 13461 22 0.00 0.00 0.00 0.0 0.00	85.7142857143	0.00	0.00	Clear(clear)	True	False	0.00
2010-06-07 23:00:00 13462 23 0.00 0.00 0.00 0.0 0.00	85.7142857143	0.00	0.00	Clear(clear)	True	False	0.00
2010-06-08 00:00:00 13463 0 0.00 0.00 0.00 0.0 0.00	85.7142857143	0.00	0.00	Clear(partly_cloudy)	True	False	0.00
2010-06-08 01:00:00 13464 1 0.00 0.00 0.00 0.0 0.00	85.7142857143	0.00	0.00	Clear(mostly_cloudy)	True	False	0.00
2010-06-08 02:00:00 13465 2 0.00 0.00 0.00 0.0 0.00	85.7142857143	0.00	0.00	Clear(mostly_cloudy)	True	False	0.00
2010-06-08 03:00:00 13466 3 0.00 0.00 0.00 0.0 0.00	85.7142857143	0.00	0.00	Clear(partly_cloudy)	True	False	0.00
2010-06-08 04:00:00 13467 4 0.00 0.00 0.00 0.0 0.00	85.7142857143	0.00	0.00	Clear(fair)	True	False	0.00
2010-06-08 05:00:00 13468 5 1.54 1.54 1.54 1.8 1.80	85.7142857143	1.54	1.80	Clear(sunny)	True	False	1.80
2010-06-08 06:00:00 13469 6 63.00 63.00 63.00 49.6 73.50	85.7142857143	63.00	49.60	Sunny(sunny)	True	False	49.60
2010-06-08 07:00:00 13470 7 213.00 213.00 213.00 240.8 248.50	85.7142857143	213.00	240.80	Sunny(sunny)	True	False	240.80
2010-06-08 08:00:00 13471 8 455.83 455.83 455.83 530.1 531.80	85.7142857143	455.83	530.10	Sunny(sunny)	True	False	530.10
2010-06-08 09:00:00 13472 9 650.91 650.91 650.91 784.7 759.40	85.7142857143	650.91	784.70	Sunny(sunny)	True	False	784.70
2010-06-08 10:00:00 13473 10 883.80 883.80 883.80 932.0 929.60	95.0730647709	883.80	932.00	Sunny(sunny)	True	False	932.00
2010-06-08 11:00:00 13474 11 999.98 999.98 999.98 771.9 1051.80	95.0730647709	999.98	771.90	Sunny(sunny)	True	False	771.90
2010-06-08 12:00:00 13475 12 1040.29 1040.29 1040.29 884.3 1094.20	95.0730647709	1040.29	884.30	Sunny(fair)	True	False	884.30
2010-06-08 13:00:00 13476 13 1026.69 1026.69 1026.69 830.2 1079.90	95.0730647709	1026.69	830.20	Sunny(partly_cloudy)	True	False	830.20
2010-06-08 14:00:00 13477 14 962.90 962.90 962.90 705.1 1012.80	95.0730647709	962.90	705.10	Sunny(fair)	True	False	705.10
2010-06-08 15:00:00 13478 15 849.19 849.19 849.19 974.1 893.20	95.0730647709	849.19	974.10	Sunny(partly_cloudy)	True	False	974.10
2010-06-08 16:00:00 13479 16 613.80 613.80 613.80 682.8 716.10	85.7142857143	613.80	682.80	Sunny(sunny)	True	False	682.80
2010-06-08 17:00:00 13480 17 359.66 359.66 359.66 338.1 419.60	85.7142857143	359.66	338.10	Sunny(partly_cloudy)	True	False	338.10
2010-06-08 18:00:00 13481 18 183.60 183.60 183.60 171.7 214.20	85.7142857143	183.60	171.70	Sunny(sunny)	True	False	171.70
2010-06-08 19:00:00 13482 19 45.77 45.77 45.77 30.7 53.40	85.7142857143	45.77	30.70	Mostly_Sunny(mostly_cloudy)	False	False	30.70
2010-06-08 20:00:00 13483 20 2.40 2.40 2.40 0.4 2.80	85.7142857143	2.40	0.40	Mostly_Sunny(sunny)	False	False	0.40
2010-06-08 21:00:00 13484 21 0.00 0.00 0.00 0.0 0.00	85.7142857143	0.00	0.00	Mostly_Clear(fair)	False	False	0.00
2010-06-08 22:00:00 13485 22 0.00 0.00 0.00 0.0 0.00	85.7142857143	0.00	0.00	Clear(clear)	True	False	0.00
2010-06-08 23:00:00 13486 23 0.00 0.00 0.00 0.0 0.00	85.7142857143	0.00	0.00	Clear(fair)	True	False	0.00
2010-06-09 00:00:00 13487 0 0.00 0.00 0.00 0.0 0.00	85.7142857143	0.00	0.00	Clear(partly_cloudy)	True	False	0.00
2010-06-09 01:00:00 13488 1 0.00 0.00 0.00 0.0 0.00	85.7142857143	0.00	0.00	Clear(fair)	True	False	0.00
2010-06-09 02:00:00 13489 2 0.00 0.00 0.00 0.0 0.00	85.7142857143	0.00	0.00	Clear(partly_cloudy)	True	False	0.00
2010-06-09 03:00:00 13490 3 0.00 0.00 0.00 0.0 0.00	85.7142857143	0.00	0.00	Clear(mostly_cloudy)	True	False	0.00
2010-06-09 04:00:00 13491 4 0.00 0.00 0.00 0.0 0.00	78.9788933257	0.00	0.00	Partly_Cloudy(fair)	True	False	0.00
2010-06-09 05:00:00 13492 5 1.42 1.42 1.42 3.7 1.80	78.9788933257	1.42	3.70	Partly_Cloudy(sunny)	True	False	3.70
