2010-05-28 08:00:00 1831 8 67.71 67.71 67.71 486.7 547.40	12.3697773879	67.71	486.70	Few_Showers(fair)	True	False	486.70
2010-05-28 09:00:00 1832 9 504.91 504.91 504.91 568.1 819.00	61.6495851635	504.91	568.10	Mostly_Cloudy(fair)	True	False	568.10
2010-05-28 10:00:00 1833 10 448.62 448.62 448.62 698.5 1000.10	44.8574969021	448.62	698.50	Cloudy(partly_cloudy)	True	False	698.50
2010-05-28 11:00:00 1834 11 489.44 489.44 489.44 830.7 1091.10	44.8574969021	489.44	830.70	Cloudy(partly_cloudy)	True	False	830.70
2010-05-28 12:00:00 1835 12 506.80 506.80 506.80 853.9 1129.80	44.8574969021	506.80	853.90	Cloudy(sunny)	True	False	853.90
2010-05-28 13:00:00 1836 13 133.58 133.58 133.58 762.7 1079.90	12.3697773879	133.58	762.70	Few_Showers(mostly_cloudy)	True	False	762.70
2010-05-28 14:00:00 1837 14 126.73 126.73 126.73 546.0 1024.50	12.3697773879	126.73	546.00	Few_Showers(cloudy)	True	False	546.00
2010-05-28 15:00:00 1838 15 112.80 112.80 112.80 367.4 911.90	12.3697773879	112.80	367.40	Few_Showers(mostly_cloudy)	True	False	367.40
2010-05-28 16:00:00 1839 16 94.59 94.59 94.59 108.6 716.10	13.2086791321	94.59	108.60	Showers(cloudy)	True	False	108.60
2010-05-28 17:00:00 1840 17 64.04 64.04 64.04 64.3 484.80	13.2086791321	64.04	64.30	Showers(cloudy)	True	False	64.30
2010-05-28 18:00:00 1841 18 25.85 25.85 25.85 161.3 195.70	13.2086791321	25.85	161.30	Showers(cloudy)	True	False	161.30
2010-05-28 19:00:00 1842 19 7.99 7.99 7.99 35.9 60.50	13.2086791321	7.99	35.90	Showers(cloudy)	True	False	35.90
2010-05-28 20:00:00 1843 20 0.18 0.18 0.18 0.1 1.40	13.2086791321	0.18	0.10	Showers(cloudy)	True	False	0.10
2010-05-28 21:00:00 1844 21 0.00 0.00 0.00 0.0 0.00	13.2086791321	0.00	0.00	Showers(cloudy)	True	False	0.00
2010-05-28 22:00:00 1845 22 0.00 0.00 0.00 0.0 0.00	13.2086791321	0.00	0.00	Showers(mostly_cloudy)	True	False	0.00
2010-05-28 23:00:00 1846 23 0.00 0.00 0.00 0.0 0.00	13.2086791321	0.00	0.00	Showers(cloudy)	True	False	0.00
2010-05-29 00:00:00 1847 0 0.00 0.00 0.00 0.0 0.00	13.2086791321	0.00	0.00	Showers(cloudy)	True	False	0.00
2010-05-29 01:00:00 1848 1 0.00 0.00 0.00 0.0 0.00	13.2086791321	0.00	0.00	T-Showers(cloudy)	True	False	0.00
2010-05-29 02:00:00 1849 2 0.00 0.00 0.00 0.0 0.00	13.2086791321	0.00	0.00	T-Showers(cloudy)	True	False	0.00
2010-05-29 03:00:00 1850 3 0.00 0.00 0.00 0.0 0.00	13.2086791321	0.00	0.00	T-Showers(cloudy)	True	False	0.00
2010-05-29 04:00:00 1851 4 0.00 0.00 0.00 0.0 0.00	13.2086791321	0.00	0.00	Showers(cloudy)	True	False	0.00
2010-05-29 05:00:00 1852 5 0.09 0.09 0.09 0.0 0.70	13.2086791321	0.09	0.00	Showers(cloudy)	True	False	0.00
2010-05-29 06:00:00 1853 6 9.60 9.60 9.60 0.0 72.70	13.2086791321	9.60	0.00	Showers(cloudy)	True	False	0.00
2010-05-29 07:00:00 1854 7 35.44 35.44 35.44 11.9 268.30	13.2086791321	35.44	11.90	Showers(light_rain)	True	False	11.90
2010-05-29 08:00:00 1855 8 72.30 72.30 72.30 52.6 547.40	13.2086791321	72.30	52.60	Showers(cloudy)	True	False	52.60
2010-05-29 09:00:00 1856 9 108.18 108.18 108.18 239.4 819.00	13.2086791321	108.18	239.40	Showers(cloudy)	True	False	239.40
2010-05-29 10:00:00 1857 10 132.10 132.10 132.10 598.2 1000.10	13.2086791321	132.10	598.20	Showers(cloudy)	True	False	598.20
2010-05-29 11:00:00 1858 11 144.12 144.12 144.12 805.2 1091.10	13.2086791321	144.12	805.20	Showers(cloudy)	True	False	805.20
2010-05-29 12:00:00 1859 12 149.23 149.23 149.23 899.1 1129.80	13.2086791321	149.23	899.10	Showers(cloudy)	True	False	899.10
2010-05-29 13:00:00 1860 13 133.58 133.58 133.58 630.3 1079.90	12.3697773879	133.58	630.30	Scattered_T-Storms(mostly_cloudy)	True	False	630.30
2010-05-29 14:00:00 1861 14 126.73 126.73 126.73 413.4 1024.50	12.3697773879	126.73	413.40	Scattered_T-Storms(cloudy)	True	False	413.40
2010-05-29 15:00:00 1862 15 112.80 112.80 112.80 658.7 911.90	12.3697773879	112.80	658.70	Scattered_T-Storms(cloudy)	True	False	658.70
2010-05-29 16:00:00 1863 16 88.58 88.58 88.58 530.7 716.10	12.3697773879	88.58	530.70	Scattered_T-Storms(fair)	True	False	530.70
2010-05-29 17:00:00 1864 17 59.97 59.97 59.97 345.7 484.80	12.3697773879	59.97	345.70	Scattered_T-Storms(partly_cloudy)	True	False	345.70
2010-05-29 18:00:00 1865 18 24.21 24.21 24.21 134.0 195.70	12.3697773879	24.21	134.00	Scattered_T-Storms(mostly_cloudy)	True	False	134.00
2010-05-29 19:00:00 1866 19 7.48 7.48 7.48 46.7 60.50	12.3697773879	7.48	46.70	Isolated_T-Storms(fair)	True	False	46.70
2010-05-29 20:00:00 1867 20 0.17 0.17 0.17 0.0 1.40	12.3697773879	0.17	0.00	Isolated_T-Storms(partly_cloudy)	True	False	0.00
2010-05-29 21:00:00 1868 21 0.00 0.00 0.00 0.0 0.00	12.3697773879	0.00	0.00	Isolated_T-Storms(fair)	True	False	0.00
2010-05-29 22:00:00 1869 22 0.00 0.00 0.00 0.0 0.00	61.6495851635	0.00	0.00	Mostly_Cloudy(light_rain)	True	False	0.00
2010-05-29 23:00:00 1870 23 0.00 0.00 0.00 0.0 0.00	61.6495851635	0.00	0.00	Mostly_Cloudy(cloudy)	True	False	0.00
2010-05-30 00:00:00 1871 0 0.00 0.00 0.00 0.0 0.00	61.6495851635	0.00	0.00	Mostly_Cloudy(partly_cloudy)	True	False	0.00
2010-05-30 01:00:00 1872 1 0.00 0.00 0.00 0.0 0.00	80.4696235557	0.00	0.00	Partly_Cloudy(fog)	True	False	0.00
2010-05-30 02:00:00 1873 2 0.00 0.00 0.00 0.0 0.00	80.4696235557	0.00	0.00	Partly_Cloudy(fog)	True	False	0.00
2010-05-30 03:00:00 1874 3 0.00 0.00 0.00 0.0 0.00	80.4696235557	0.00	0.00	Partly_Cloudy(fog)	True	False	0.00
2010-05-30 04:00:00 1875 4 0.00 0.00 0.00 0.0 0.00	61.6495851635	0.00	0.00	Mostly_Cloudy(fog)	True	False	0.00
2010-05-30 05:00:00 1876 5 0.43 0.43 0.43 0.0 0.70	61.6495851635	0.43	0.00	Mostly_Cloudy(sunny)	True	False	0.00
2010-05-30 06:00:00 1877 6 44.82 44.82 44.82 58.3 72.70	61.6495851635	44.82	58.30	Mostly_Cloudy(fog)	True	False	58.30
2010-05-30 07:00:00 1878 7 165.41 165.41 165.41 248.5 268.30	61.6495851635	165.41	248.50	Mostly_Cloudy(sunny)	True	False	248.50
2010-05-30 08:00:00 1879 8 337.47 337.47 337.47 531.8 547.40	61.6495851635	337.47	531.80	Mostly_Cloudy(sunny)	True	False	531.80
