2010-07-21 04:00:00 65139 4 0.00 0.00 0.00 0.0 0.00	57.2691995307	0.00	0.00	Mostly_Cloudy(partly_cloudy)	True	False	0.00
2010-07-21 05:00:00 65140 5 0.00 0.00 0.00 0.0 0.00	57.2691995307	0.00	0.00	Mostly_Cloudy(fog)	True	False	0.00
2010-07-21 06:00:00 65141 6 44.50 44.50 44.50 22.3 77.70	57.2691995307	44.50	22.30	Mostly_Cloudy(mostly_cloudy)	True	False	22.30
2010-07-21 07:00:00 65142 7 53.23 53.23 53.23 168.8 207.40	25.6667335071	53.23	168.80	Isolated_T-Storms(fair)	True	False	168.80
2010-07-21 08:00:00 65143 8 124.71 124.71 124.71 416.8 485.90	25.6667335071	124.71	416.80	Isolated_T-Storms(sunny)	True	False	416.80
2010-07-21 09:00:00 65144 9 191.24 191.24 191.24 651.7 745.10	25.6667335071	191.24	651.70	Isolated_T-Storms(sunny)	True	False	651.70
2010-07-21 10:00:00 65145 10 189.90 189.90 189.90 723.8 919.50	20.6525839306	189.90	723.80	Scattered_T-Storms(fair)	True	False	723.80
2010-07-21 11:00:00 65146 11 214.56 214.56 214.56 772.9 1038.90	20.6525839306	214.56	772.90	Scattered_T-Storms(partly_cloudy)	True	False	772.90
2010-07-21 12:00:00 65147 12 228.85 228.85 228.85 487.1 1108.10	20.6525839306	228.85	487.10	Scattered_T-Storms(fair)	True	False	487.10
2010-07-21 13:00:00 65148 13 228.77 228.77 228.77 496.0 1107.70	20.6525839306	228.77	496.00	Scattered_T-Storms(partly_cloudy)	True	False	496.00
2010-07-21 14:00:00 65149 14 219.00 219.00 219.00 921.4 1060.40	20.6525839306	219.00	921.40	Scattered_T-Storms(fair)	True	False	921.40
2010-07-21 15:00:00 65150 15 193.95 193.95 193.95 640.2 939.10	20.6525839306	193.95	640.20	Scattered_T-Storms(fair)	True	False	640.20
2010-07-21 16:00:00 65151 16 194.78 194.78 194.78 498.2 758.90	25.6667335071	194.78	498.20	Scattered_T-Storms(mostly_cloudy)	True	False	498.20
2010-07-21 17:00:00 65152 17 128.00 128.00 128.00 366.7 498.70	25.6667335071	128.00	366.70	Scattered_T-Storms(fair)	True	False	366.70
2010-07-21 18:00:00 65153 18 58.37 58.37 58.37 61.8 227.40	25.6667335071	58.37	61.80	Scattered_T-Storms(t-storm)	True	False	61.80
2010-07-21 19:00:00 65154 19 18.94 18.94 18.94 25.6 73.80	25.6667335071	18.94	25.60	Isolated_T-Storms(fair)	True	False	25.60
2010-07-21 20:00:00 65155 20 1.75 1.75 1.75 0.0 6.80	25.6667335071	1.75	0.00	Isolated_T-Storms(partly_cloudy)	True	False	0.00
2010-07-21 21:00:00 65156 21 0.00 0.00 0.00 0.0 0.00	25.6667335071	0.00	0.00	Isolated_T-Storms(light_rain)	True	False	0.00
2010-07-21 22:00:00 65157 22 0.00 0.00 0.00 0.0 0.00	74.3959957648	0.00	0.00	Partly_Cloudy(fair)	True	False	0.00
2010-07-21 23:00:00 65158 23 0.00 0.00 0.00 0.0 0.00	74.3959957648	0.00	0.00	Partly_Cloudy(fair)	True	False	0.00
2010-07-22 00:00:00 65159 0 0.00 0.00 0.00 0.0 0.00	74.3959957648	0.00	0.00	Partly_Cloudy(partly_cloudy)	True	False	0.00
2010-07-22 01:00:00 65160 1 0.00 0.00 0.00 0.0 0.00	74.3959957648	0.00	0.00	Partly_Cloudy(partly_cloudy)	True	False	0.00
2010-07-22 02:00:00 65161 2 0.00 0.00 0.00 0.0 0.00	74.3959957648	0.00	0.00	Partly_Cloudy(fog)	True	False	0.00
2010-07-22 03:00:00 65162 3 0.00 0.00 0.00 0.0 0.00	74.3959957648	0.00	0.00	Partly_Cloudy(clear)	True	False	0.00
2010-07-22 04:00:00 65163 4 0.00 0.00 0.00 0.0 0.00	74.3959957648	0.00	0.00	Mostly_Clear(clear)	False	False	0.00
2010-07-22 05:00:00 65164 5 0.00 0.00 0.00 0.0 0.00	74.3959957648	0.00	0.00	Mostly_Clear(clear)	False	False	0.00
2010-07-22 06:00:00 65165 6 57.81 57.81 57.81 16.5 77.70	74.3959957648	57.81	16.50	Mostly_Sunny(sunny)	False	False	16.50
2010-07-22 07:00:00 65166 7 174.92 174.92 174.92 184.7 207.40	84.3383412225	174.92	184.70	Sunny(sunny)	True	False	184.70
2010-07-22 08:00:00 65167 8 409.80 409.80 409.80 461.6 485.90	84.3383412225	409.80	461.60	Sunny(sunny)	True	False	461.60
2010-07-22 09:00:00 65168 9 628.40 628.40 628.40 713.0 745.10	84.3383412225	628.40	713.00	Sunny(sunny)	True	False	713.00
2010-07-22 10:00:00 65169 10 775.49 775.49 775.49 903.1 919.50	84.3383412225	775.49	903.10	Mostly_Sunny(sunny)	False	False	903.10
2010-07-22 11:00:00 65170 11 876.19 876.19 876.19 1007.0 1038.90	84.3383412225	876.19	1007.00	Mostly_Sunny(sunny)	False	False	1007.00
2010-07-22 12:00:00 65171 12 934.55 934.55 934.55 950.0 1108.10	84.3383412225	934.55	950.00	Mostly_Sunny(fair)	False	False	950.00
2010-07-22 13:00:00 65172 13 934.22 934.22 934.22 792.3 1107.70	84.3383412225	934.22	792.30	Mostly_Sunny(fair)	False	False	792.30
2010-07-22 14:00:00 65173 14 894.32 894.32 894.32 807.3 1060.40	84.3383412225	894.32	807.30	Mostly_Sunny(partly_cloudy)	False	False	807.30
2010-07-22 15:00:00 65174 15 792.02 792.02 792.02 705.3 939.10	84.3383412225	792.02	705.30	Mostly_Sunny(mostly_cloudy)	False	False	705.30
2010-07-22 16:00:00 65175 16 564.59 564.59 564.59 588.6 758.90	74.3959957648	564.59	588.60	Partly_Cloudy(partly_cloudy)	True	False	588.60
2010-07-22 17:00:00 65176 17 371.01 371.01 371.01 405.3 498.70	74.3959957648	371.01	405.30	Partly_Cloudy(partly_cloudy)	True	False	405.30
2010-07-22 18:00:00 65177 18 169.18 169.18 169.18 161.4 227.40	74.3959957648	169.18	161.40	Partly_Cloudy(fair)	True	False	161.40
2010-07-22 19:00:00 65178 19 54.90 54.90 54.90 27.5 73.80	74.3959957648	54.90	27.50	Partly_Cloudy(partly_cloudy)	True	False	27.50
2010-07-22 20:00:00 65179 20 5.06 5.06 5.06 0.6 6.80	74.3959957648	5.06	0.60	Partly_Cloudy(fair)	True	False	0.60
2010-07-22 21:00:00 65180 21 0.00 0.00 0.00 0.0 0.00	74.3959957648	0.00	0.00	Partly_Cloudy(fair)	True	False	0.00
2010-07-22 22:00:00 65181 22 0.00 0.00 0.00 0.0 0.00	74.3959957648	0.00	0.00	Partly_Cloudy(partly_cloudy)	True	False	0.00
2010-07-22 23:00:00 65182 23 0.00 0.00 0.00 0.0 0.00	74.3959957648	0.00	0.00	Partly_Cloudy(partly_cloudy)	True	False	0.00
2010-07-23 00:00:00 65183 0 0.00 0.00 0.00 0.0 0.00	74.3959957648	0.00	0.00	Partly_Cloudy(partly_cloudy)	True	False	0.00
2010-07-23 01:00:00 65184 1 0.00 0.00 0.00 0.0 0.00	57.2691995307	0.00	0.00	Mostly_Cloudy(partly_cloudy)	True	False	0.00
2010-07-23 02:00:00 65185 2 0.00 0.00 0.00 0.0 0.00	57.2691995307	0.00	0.00	Mostly_Cloudy(partly_cloudy)	True	False	0.00
2010-07-23 03:00:00 65186 3 0.00 0.00 0.00 0.0 0.00	57.2691995307	0.00	0.00	Mostly_Cloudy(partly_cloudy)	True	False	0.00
2010-07-23 04:00:00 65187 4 0.00 0.00 0.00 0.0 0.00	57.2691995307	0.00	0.00	Mostly_Cloudy(mostly_cloudy)	True	False	0.00
