2010-07-25 18:00:00 70529 18 47.24 211.17 211.17 213.6 227.40	20.7721587819	211.17	213.60	Scattered_Strong_Storms(mostly_cloudy)	True	False	213.60
2010-07-25 19:00:00 70530 19 11.88 68.53 68.53 37.6 73.80	16.1022532613	68.53	37.60	Rain_/_Thunder(sunny)	True	False	37.60
2010-07-25 20:00:00 70531 20 1.09 6.31 6.31 2.7 6.80	16.1022532613	6.31	2.70	Rain_/_Thunder(sunny)	True	False	2.70
2010-07-25 21:00:00 70532 21 0.00 0.00 0.00 0.0 0.00	16.1022532613	0.00	0.00	Rain_/_Thunder(clear)	True	False	0.00
2010-07-25 22:00:00 70533 22 0.00 0.00 0.00 0.0 0.00	74.7967479675	0.00	0.00	Partly_Cloudy(clear)	True	False	0.00
2010-07-25 23:00:00 70534 23 0.00 0.00 0.00 0.0 0.00	74.7967479675	0.00	0.00	Partly_Cloudy(fair)	True	False	0.00
2010-07-26 00:00:00 70535 0 0.00 0.00 0.00 0.0 0.00	74.7967479675	0.00	0.00	Partly_Cloudy(clear)	True	False	0.00
2010-07-26 01:00:00 70536 1 0.00 0.00 0.00 0.0 0.00	74.7967479675	0.00	0.00	Mostly_Clear(clear)	False	False	0.00
2010-07-26 02:00:00 70537 2 0.00 0.00 0.00 0.0 0.00	74.7967479675	0.00	0.00	Mostly_Clear(clear)	False	False	0.00
2010-07-26 03:00:00 70538 3 0.00 0.00 0.00 0.0 0.00	74.7967479675	0.00	0.00	Mostly_Clear(clear)	False	False	0.00
2010-07-26 04:00:00 70539 4 0.00 0.00 0.00 0.0 0.00	88.4794578568	0.00	0.00	Clear(clear)	True	False	0.00
2010-07-26 05:00:00 70540 5 0.00 0.00 0.00 0.0 0.00	88.4794578568	0.00	0.00	Clear(clear)	True	False	0.00
2010-07-26 06:00:00 70541 6 68.75 68.75 68.75 21.7 77.70	88.4794578568	68.75	21.70	Sunny(sunny)	True	False	21.70
2010-07-26 07:00:00 70542 7 179.70 179.70 179.70 182.6 203.10	88.4794578568	179.70	182.60	Sunny(sunny)	True	False	182.60
2010-07-26 08:00:00 70543 8 417.80 417.80 417.80 461.9 472.20	88.4794578568	417.80	461.90	Sunny(sunny)	True	False	461.90
2010-07-26 09:00:00 70544 9 659.26 659.26 659.26 719.2 745.10	88.4794578568	659.26	719.20	Sunny(sunny)	True	False	719.20
2010-07-26 10:00:00 70545 10 853.86 853.86 853.86 911.4 919.50	92.8611844587	853.86	911.40	Sunny(sunny)	True	False	911.40
2010-07-26 11:00:00 70546 11 964.73 964.73 964.73 1034.6 1038.90	92.8611844587	964.73	1034.60	Sunny(sunny)	True	False	1034.60
2010-07-26 12:00:00 70547 12 1028.99 1028.99 1028.99 1058.4 1108.10	92.8611844587	1028.99	1058.40	Sunny(sunny)	True	False	1058.40
2010-07-26 13:00:00 70548 13 1028.62 1028.62 1028.62 1041.9 1107.70	92.8611844587	1028.62	1041.90	Sunny(sunny)	True	False	1041.90
2010-07-26 14:00:00 70549 14 984.70 984.70 984.70 1030.8 1060.40	92.8611844587	984.70	1030.80	Sunny(fair)	True	False	1030.80
2010-07-26 15:00:00 70550 15 872.06 872.06 872.06 863.5 939.10	92.8611844587	872.06	863.50	Sunny(sunny)	True	False	863.50
2010-07-26 16:00:00 70551 16 671.47 671.47 671.47 651.5 758.90	88.4794578568	671.47	651.50	Sunny(sunny)	True	False	651.50
2010-07-26 17:00:00 70552 17 441.25 441.25 441.25 421.8 498.70	88.4794578568	441.25	421.80	Sunny(fair)	True	False	421.80
2010-07-26 18:00:00 70553 18 201.20 201.20 201.20 183.7 227.40	88.4794578568	201.20	183.70	Sunny(sunny)	True	False	183.70
2010-07-26 19:00:00 70554 19 65.30 65.30 65.30 29.6 73.80	88.4794578568	65.30	29.60	Sunny(sunny)	True	False	29.60
2010-07-26 20:00:00 70555 20 6.02 6.02 6.02 0.4 6.80	88.4794578568	6.02	0.40	Sunny(sunny)	True	False	0.40
2010-07-26 21:00:00 70556 21 0.00 0.00 0.00 0.0 0.00	88.4794578568	0.00	0.00	Clear(clear)	True	False	0.00
2010-07-26 22:00:00 70557 22 0.00 0.00 0.00 0.0 0.00	88.4794578568	0.00	0.00	Clear(clear)	True	False	0.00
2010-07-26 23:00:00 70558 23 0.00 0.00 0.00 0.0 0.00	88.4794578568	0.00	0.00	Clear(clear)	True	False	0.00
2010-07-27 00:00:00 70559 0 0.00 0.00 0.00 0.0 0.00	88.4794578568	0.00	0.00	Clear(clear)	True	False	0.00
2010-07-27 01:00:00 70560 1 0.00 0.00 0.00 0.0 0.00	88.4794578568	0.00	0.00	Clear(fair)	True	False	0.00
2010-07-27 02:00:00 70561 2 0.00 0.00 0.00 0.0 0.00	88.4794578568	0.00	0.00	Clear(clear)	True	False	0.00
2010-07-27 03:00:00 70562 3 0.00 0.00 0.00 0.0 0.00	88.4794578568	0.00	0.00	Clear(clear)	True	False	0.00
2010-07-27 04:00:00 70563 4 0.00 0.00 0.00 0.0 0.00	88.4794578568	0.00	0.00	Clear(clear)	True	False	0.00
2010-07-27 05:00:00 70564 5 0.00 0.00 0.00 0.0 0.00	88.4794578568	0.00	0.00	Clear(clear)	True	False	0.00
2010-07-27 06:00:00 70565 6 68.75 68.75 68.75 21.2 77.70	88.4794578568	68.75	21.20	Sunny(sunny)	True	False	21.20
2010-07-27 07:00:00 70566 7 179.70 179.70 179.70 179.8 203.10	88.4794578568	179.70	179.80	Sunny(sunny)	True	False	179.80
2010-07-27 08:00:00 70567 8 417.80 417.80 417.80 458.1 472.20	88.4794578568	417.80	458.10	Sunny(sunny)	True	False	458.10
2010-07-27 09:00:00 70568 9 659.26 659.26 659.26 707.6 745.10	88.4794578568	659.26	707.60	Sunny(sunny)	True	False	707.60
2010-07-27 10:00:00 70569 10 853.86 853.86 853.86 863.6 919.50	92.8611844587	853.86	863.60	Sunny(sunny)	True	False	863.60
2010-07-27 11:00:00 70570 11 964.73 964.73 964.73 994.7 1038.90	92.8611844587	964.73	994.70	Sunny(sunny)	True	False	994.70
2010-07-27 12:00:00 70571 12 1028.99 1028.99 1028.99 1046.6 1108.10	92.8611844587	1028.99	1046.60	Sunny(sunny)	True	False	1046.60
2010-07-27 13:00:00 70572 13 843.31 843.31 843.31 981.9 1107.70	76.1316484346	843.31	981.90	Partly_Cloudy(sunny)	True	False	981.90
2010-07-27 14:00:00 70573 14 807.30 807.30 807.30 943.4 1060.40	76.1316484346	807.30	943.40	Partly_Cloudy(fair)	True	False	943.40
2010-07-27 15:00:00 70574 15 714.95 714.95 714.95 889.8 939.10	76.1316484346	714.95	889.80	Partly_Cloudy(fair)	True	False	889.80
2010-07-27 16:00:00 70575 16 671.47 671.47 671.47 713.4 758.90	88.4794578568	671.47	713.40	Sunny(fair)	True	False	713.40
2010-07-27 17:00:00 70576 17 441.25 441.25 441.25 438.2 498.70	88.4794578568	441.25	438.20	Sunny(sunny)	True	False	438.20
2010-07-27 18:00:00 70577 18 201.20 201.20 201.20 182.1 227.40	88.4794578568	201.20	182.10	Sunny(sunny)	True	False	182.10
