2010-06-16 11:00:00 24322 11 125.23 740.86 125.23 369.6 944.20	13.2630892896	125.23	369.60	Few_Showers(cloudy)	True	False	369.60
2010-06-16 12:00:00 24323 12 367.49 367.49 124.51 361.7 938.80	13.2630892896	124.51	361.70	Few_Showers(cloudy)	True	False	361.70
2010-06-16 13:00:00 24324 13 146.97 407.41 146.97 746.4 1040.80	14.1212252879	146.97	746.40	Showers(cloudy)	True	False	746.40
2010-06-16 14:00:00 24325 14 130.00 360.36 130.00 522.7 920.60	14.1212252879	130.00	522.70	Showers(cloudy)	True	False	522.70
2010-06-16 15:00:00 24326 15 113.01 313.27 113.01 667.9 800.30	14.1212252879	113.01	667.90	Showers(cloudy)	True	False	667.90
2010-06-16 16:00:00 24327 16 94.98 280.31 94.98 486.1 716.10	13.2630892896	94.98	486.10	Scattered_T-Storms(partly_cloudy)	True	False	486.10
2010-06-16 17:00:00 24328 17 56.55 166.91 56.55 211.4 426.40	13.2630892896	56.55	211.40	Scattered_T-Storms(cloudy)	True	False	211.40
2010-06-16 18:00:00 24329 18 28.41 83.85 28.41 51.7 214.20	13.2630892896	28.41	51.70	Scattered_T-Storms(cloudy)	True	False	51.70
2010-06-16 19:00:00 24330 19 7.08 20.90 7.08 7.8 53.40	13.2630892896	7.08	7.80	Scattered_T-Storms(cloudy)	True	False	7.80
2010-06-16 20:00:00 24331 20 0.46 1.37 0.46 0.0 3.50	13.2630892896	0.46	0.00	Scattered_T-Storms(cloudy)	True	False	0.00
2010-06-16 21:00:00 24332 21 0.00 0.00 0.00 0.0 0.00	13.2630892896	0.00	0.00	Scattered_T-Storms(cloudy)	True	False	0.00
2010-06-16 22:00:00 24333 22 0.00 0.00 0.00 0.0 0.00	13.2630892896	0.00	0.00	Isolated_T-Storms(cloudy)	True	False	0.00
2010-06-16 23:00:00 24334 23 0.00 0.00 0.00 0.0 0.00	13.2630892896	0.00	0.00	Isolated_T-Storms(cloudy)	True	False	0.00
2010-06-17 00:00:00 24335 0 0.00 0.00 0.00 0.0 0.00	13.2630892896	0.00	0.00	Isolated_T-Storms(cloudy)	True	False	0.00
2010-06-17 01:00:00 24336 1 0.00 0.00 0.00 0.0 0.00	64.6125116713	0.00	0.00	Mostly_Cloudy(t-storm)	True	False	0.00
2010-06-17 02:00:00 24337 2 0.00 0.00 0.00 0.0 0.00	64.6125116713	0.00	0.00	Mostly_Cloudy(cloudy)	True	False	0.00
2010-06-17 03:00:00 24338 3 0.00 0.00 0.00 0.0 0.00	64.6125116713	0.00	0.00	Mostly_Cloudy(fog)	True	False	0.00
2010-06-17 04:00:00 24339 4 0.00 0.00 0.00 0.0 0.00	77.6614142967	0.00	0.00	Partly_Cloudy(fog)	True	False	0.00
2010-06-17 05:00:00 24340 5 1.40 1.40 1.40 0.0 1.80	77.6614142967	1.40	0.00	Partly_Cloudy(sunny)	True	False	0.00
2010-06-17 06:00:00 24341 6 57.08 57.08 57.08 39.7 73.50	77.6614142967	57.08	39.70	Partly_Cloudy(sunny)	True	False	39.70
2010-06-17 07:00:00 24342 7 171.09 171.09 171.09 225.9 220.30	77.6614142967	171.09	225.90	Partly_Cloudy(sunny)	True	False	225.90
2010-06-17 08:00:00 24343 8 348.93 348.93 348.93 504.2 449.30	77.6614142967	348.93	504.20	Partly_Cloudy(sunny)	True	False	504.20
2010-06-17 09:00:00 24344 9 535.86 535.86 535.86 563.6 690.00	77.6614142967	535.86	563.60	Partly_Cloudy(partly_cloudy)	True	False	563.60
2010-06-17 10:00:00 24345 10 721.94 721.94 721.94 880.7 929.60	77.6614142967	721.94	880.70	Mostly_Sunny(partly_cloudy)	False	False	880.70
2010-06-17 11:00:00 24346 11 733.28 733.28 733.28 961.2 944.20	77.6614142967	733.28	961.20	Mostly_Sunny(partly_cloudy)	False	False	961.20
2010-06-17 12:00:00 24347 12 729.09 729.09 729.09 1024.1 938.80	77.6614142967	729.09	1024.10	Mostly_Sunny(cloudy)	False	False	1024.10
2010-06-17 13:00:00 24348 13 808.30 808.30 808.30 689.0 1040.80	77.6614142967	808.30	689.00	Mostly_Sunny(fair)	False	False	689.00
2010-06-17 14:00:00 24349 14 714.95 714.95 714.95 672.7 920.60	77.6614142967	714.95	672.70	Mostly_Sunny(mostly_cloudy)	False	False	672.70
2010-06-17 15:00:00 24350 15 621.52 621.52 621.52 652.4 800.30	77.6614142967	621.52	652.40	Mostly_Sunny(cloudy)	False	False	652.40
2010-06-17 16:00:00 24351 16 544.99 544.99 544.99 334.4 716.10	76.1049192929	544.99	334.40	Sunny(cloudy)	True	False	334.40
2010-06-17 17:00:00 24352 17 324.51 324.51 324.51 294.3 426.40	76.1049192929	324.51	294.30	Sunny(cloudy)	True	False	294.30
2010-06-17 18:00:00 24353 18 163.02 163.02 163.02 91.8 214.20	76.1049192929	163.02	91.80	Sunny(cloudy)	True	False	91.80
2010-06-17 19:00:00 24354 19 40.64 40.64 40.64 20.6 53.40	76.1049192929	40.64	20.60	Sunny(cloudy)	True	False	20.60
2010-06-17 20:00:00 24355 20 2.66 2.66 2.66 1.6 3.50	76.1049192929	2.66	1.60	Sunny(partly_cloudy)	True	False	1.60
2010-06-17 21:00:00 24356 21 0.00 0.00 0.00 0.0 0.00	76.1049192929	0.00	0.00	Clear(partly_cloudy)	True	False	0.00
2010-06-17 22:00:00 24357 22 0.00 0.00 0.00 0.0 0.00	76.1049192929	0.00	0.00	Clear(partly_cloudy)	True	False	0.00
2010-06-17 23:00:00 24358 23 0.00 0.00 0.00 0.0 0.00	76.1049192929	0.00	0.00	Clear(clear)	True	False	0.00
2010-06-18 00:00:00 24359 0 0.00 0.00 0.00 0.0 0.00	76.1049192929	0.00	0.00	Clear(clear)	True	False	0.00
2010-06-18 01:00:00 24360 1 0.00 0.00 0.00 0.0 0.00	76.1049192929	0.00	0.00	Clear(clear)	True	False	0.00
2010-06-18 02:00:00 24361 2 0.00 0.00 0.00 0.0 0.00	76.1049192929	0.00	0.00	Clear(clear)	True	False	0.00
2010-06-18 03:00:00 24362 3 0.00 0.00 0.00 0.0 0.00	76.1049192929	0.00	0.00	Clear(clear)	True	False	0.00
2010-06-18 04:00:00 24363 4 0.00 0.00 0.00 0.0 0.00	76.1049192929	0.00	0.00	Clear(clear)	True	False	0.00
2010-06-18 05:00:00 24364 5 1.37 1.37 1.37 0.3 1.80	76.1049192929	1.37	0.30	Clear(sunny)	True	False	0.30
2010-06-18 06:00:00 24365 6 55.94 55.94 55.94 41.8 73.50	76.1049192929	55.94	41.80	Sunny(sunny)	True	False	41.80
2010-06-18 07:00:00 24366 7 167.66 167.66 167.66 189.8 220.30	76.1049192929	167.66	189.80	Sunny(sunny)	True	False	189.80
2010-06-18 08:00:00 24367 8 341.94 341.94 341.94 401.6 449.30	76.1049192929	341.94	401.60	Sunny(sunny)	True	False	401.60
2010-06-18 09:00:00 24368 9 525.12 525.12 525.12 594.3 690.00	76.1049192929	525.12	594.30	Sunny(sunny)	True	False	594.30
2010-06-18 10:00:00 24369 10 729.40 729.40 729.40 733.0 929.60	78.4638554217	729.40	733.00	Sunny(sunny)	True	False	733.00
2010-06-18 11:00:00 24370 11 740.86 740.86 740.86 808.1 944.20	78.4638554217	740.86	808.10	Sunny(sunny)	True	False	808.10
