2010-06-05 19:00:00 11778 19 50.77 50.77 50.77 45.0 53.40	12.6175253855	50.77	45.00	Isolated_T-Storms(partly_cloudy)	True	False	45.00
2010-06-05 20:00:00 11779 20 2.36 2.36 2.36 0.7 2.80	12.6175253855	2.36	0.70	Isolated_T-Storms(mostly_cloudy)	True	False	0.70
2010-06-05 21:00:00 11780 21 0.00 0.00 0.00 0.0 0.00	12.6175253855	0.00	0.00	Isolated_T-Storms(mostly_cloudy)	True	False	0.00
2010-06-05 22:00:00 11781 22 0.00 0.00 0.00 0.0 0.00	12.6175253855	0.00	0.00	Scattered_T-Storms(mostly_cloudy)	True	False	0.00
2010-06-05 23:00:00 11782 23 0.00 0.00 0.00 0.0 0.00	12.6175253855	0.00	0.00	Scattered_T-Storms(mostly_cloudy)	True	False	0.00
2010-06-06 00:00:00 11783 0 0.00 0.00 0.00 0.0 0.00	12.6175253855	0.00	0.00	Scattered_T-Storms(mostly_cloudy)	True	False	0.00
2010-06-06 01:00:00 11784 1 0.00 0.00 0.00 0.0 0.00	12.6175253855	0.00	0.00	Isolated_T-Storms(mostly_cloudy)	True	False	0.00
2010-06-06 02:00:00 11785 2 0.00 0.00 0.00 0.0 0.00	12.6175253855	0.00	0.00	Isolated_T-Storms(cloudy)	True	False	0.00
2010-06-06 03:00:00 11786 3 0.00 0.00 0.00 0.0 0.00	12.6175253855	0.00	0.00	Isolated_T-Storms(partly_cloudy)	True	False	0.00
2010-06-06 04:00:00 11787 4 0.00 0.00 0.00 0.0 0.00	12.6175253855	0.00	0.00	Few_Showers(partly_cloudy)	True	False	0.00
2010-06-06 05:00:00 11788 5 0.23 0.23 0.23 0.0 1.80	12.6175253855	0.23	0.00	Few_Showers(sunny)	True	False	0.00
2010-06-06 06:00:00 11789 6 9.27 9.27 9.27 59.8 73.50	12.6175253855	9.27	59.80	Few_Showers(sunny)	True	False	59.80
2010-06-06 07:00:00 11790 7 33.85 33.85 33.85 153.2 268.30	12.6175253855	33.85	153.20	Scattered_T-Storms(mostly_cloudy)	True	False	153.20
2010-06-06 08:00:00 11791 8 67.10 67.10 67.10 364.9 531.80	12.6175253855	67.10	364.90	Scattered_T-Storms(mostly_cloudy)	True	False	364.90
2010-06-06 09:00:00 11792 9 95.82 95.82 95.82 629.6 759.40	12.6175253855	95.82	629.60	Scattered_T-Storms(partly_cloudy)	True	False	629.60
2010-06-06 10:00:00 11793 10 117.33 117.33 117.33 792.2 929.60	12.6215390314	117.33	792.20	Isolated_T-Storms(partly_cloudy)	True	False	792.20
2010-06-06 11:00:00 11794 11 132.75 132.75 132.75 812.8 1051.80	12.6215390314	132.75	812.80	Isolated_T-Storms(partly_cloudy)	True	False	812.80
2010-06-06 12:00:00 11795 12 138.10 138.10 138.10 875.5 1094.20	12.6215390314	138.10	875.50	Isolated_T-Storms(partly_cloudy)	True	False	875.50
2010-06-06 13:00:00 11796 13 136.30 136.30 136.30 708.8 1079.90	12.6215390314	136.30	708.80	Scattered_T-Storms(partly_cloudy)	True	False	708.80
2010-06-06 14:00:00 11797 14 127.83 127.83 127.83 515.1 1012.80	12.6215390314	127.83	515.10	Scattered_T-Storms(mostly_cloudy)	True	False	515.10
2010-06-06 15:00:00 11798 15 112.74 112.74 112.74 451.2 893.20	12.6215390314	112.74	451.20	Scattered_T-Storms(mostly_cloudy)	True	False	451.20
2010-06-06 16:00:00 11799 16 90.35 90.35 90.35 357.2 716.10	12.6175253855	90.35	357.20	Scattered_T-Storms_/_Wind(heavy_rain)	True	False	357.20
2010-06-06 17:00:00 11800 17 52.94 52.94 52.94 407.5 419.60	12.6175253855	52.94	407.50	Scattered_T-Storms_/_Wind(mostly_cloudy)	True	False	407.50
2010-06-06 18:00:00 11801 18 27.03 27.03 27.03 154.5 214.20	12.6175253855	27.03	154.50	Scattered_T-Storms_/_Wind(partly_cloudy)	True	False	154.50
2010-06-06 19:00:00 11802 19 6.74 6.74 6.74 39.1 53.40	12.6175253855	6.74	39.10	Isolated_T-Storms(fair)	True	False	39.10
2010-06-06 20:00:00 11803 20 0.35 0.35 0.35 1.3 2.80	12.6175253855	0.35	1.30	Isolated_T-Storms(partly_cloudy)	True	False	1.30
2010-06-06 21:00:00 11804 21 0.00 0.00 0.00 0.0 0.00	12.6175253855	0.00	0.00	Isolated_T-Storms(clear)	True	False	0.00
2010-06-06 22:00:00 11805 22 0.00 0.00 0.00 0.0 0.00	12.6175253855	0.00	0.00	Mostly_Clear(clear)	False	False	0.00
2010-06-06 23:00:00 11806 23 0.00 0.00 0.00 0.0 0.00	12.6175253855	0.00	0.00	Mostly_Clear(clear)	False	False	0.00
2010-06-07 00:00:00 11807 0 0.00 0.00 0.00 0.0 0.00	12.6175253855	0.00	0.00	Mostly_Clear(partly_cloudy)	False	False	0.00
2010-06-07 01:00:00 11808 1 0.00 0.00 0.00 0.0 0.00	86.412512219	0.00	0.00	Clear(fair)	True	False	0.00
2010-06-07 02:00:00 11809 2 0.00 0.00 0.00 0.0 0.00	86.412512219	0.00	0.00	Clear(clear)	True	False	0.00
2010-06-07 03:00:00 11810 3 0.00 0.00 0.00 0.0 0.00	86.412512219	0.00	0.00	Clear(clear)	True	False	0.00
2010-06-07 04:00:00 11811 4 0.00 0.00 0.00 0.0 0.00	86.412512219	0.00	0.00	Clear(clear)	True	False	0.00
2010-06-07 05:00:00 11812 5 1.56 1.56 1.56 0.7 1.80	86.412512219	1.56	0.70	Clear(sunny)	True	False	0.70
2010-06-07 06:00:00 11813 6 63.51 63.51 63.51 45.9 73.50	86.412512219	63.51	45.90	Sunny(sunny)	True	False	45.90
2010-06-07 07:00:00 11814 7 231.84 231.84 231.84 235.5 268.30	86.412512219	231.84	235.50	Sunny(sunny)	True	False	235.50
2010-06-07 08:00:00 11815 8 459.54 459.54 459.54 526.3 531.80	86.412512219	459.54	526.30	Sunny(sunny)	True	False	526.30
2010-06-07 09:00:00 11816 9 656.22 656.22 656.22 781.2 759.40	86.412512219	656.22	781.20	Sunny(sunny)	True	False	781.20
2010-06-07 10:00:00 11817 10 883.80 883.80 883.80 967.4 929.60	95.0730647709	883.80	967.40	Sunny(sunny)	True	False	967.40
2010-06-07 11:00:00 11818 11 999.98 999.98 999.98 906.7 1051.80	95.0730647709	999.98	906.70	Sunny(sunny)	True	False	906.70
2010-06-07 12:00:00 11819 12 1040.29 1040.29 1040.29 864.9 1094.20	95.0730647709	1040.29	864.90	Sunny(partly_cloudy)	True	False	864.90
2010-06-07 13:00:00 11820 13 1026.69 1026.69 1026.69 563.7 1079.90	95.0730647709	1026.69	563.70	Sunny(mostly_cloudy)	True	False	563.70
2010-06-07 14:00:00 11821 14 962.90 962.90 962.90 638.8 1012.80	95.0730647709	962.90	638.80	Sunny(mostly_cloudy)	True	False	638.80
2010-06-07 15:00:00 11822 15 849.19 849.19 849.19 761.9 893.20	95.0730647709	849.19	761.90	Sunny(mostly_cloudy)	True	False	761.90
2010-06-07 16:00:00 11823 16 618.80 618.80 618.80 551.8 716.10	86.412512219	618.80	551.80	Sunny(mostly_cloudy)	True	False	551.80
2010-06-07 17:00:00 11824 17 362.59 362.59 362.59 381.9 419.60	86.412512219	362.59	381.90	Sunny(sunny)	True	False	381.90
2010-06-07 18:00:00 11825 18 185.10 185.10 185.10 182.0 214.20	86.412512219	185.10	182.00	Sunny(mostly_cloudy)	True	False	182.00
2010-06-07 19:00:00 11826 19 46.14 46.14 46.14 35.4 53.40	86.412512219	46.14	35.40	Sunny(sunny)	True	False	35.40
