2010-07-09 10:00:00 51321 10 679.65 679.65 679.65 183.0 919.50	73.9155035836	679.65	183.00	Partly_Cloudy(mostly_cloudy)	True	False	183.00
2010-07-09 11:00:00 51322 11 206.76 206.76 335.56 628.3 1038.90	32.2991324029	335.56	628.30	Scattered_Showers(partly_cloudy)	True	False	628.30
2010-07-09 12:00:00 51323 12 357.91 220.54 357.91 661.5 1108.10	32.2991324029	357.91	661.50	Scattered_Showers(mostly_cloudy)	True	False	661.50
2010-07-09 13:00:00 51324 13 357.78 220.46 357.78 880.7 1107.70	32.2991324029	357.78	880.70	Isolated_T-Storms(partly_cloudy)	True	False	880.70
2010-07-09 14:00:00 51325 14 342.50 211.04 342.50 670.8 1060.40	32.2991324029	342.50	670.80	Isolated_T-Storms(partly_cloudy)	True	False	670.80
2010-07-09 15:00:00 51326 15 303.32 186.90 303.32 643.1 939.10	32.2991324029	303.32	643.10	Isolated_T-Storms(mostly_cloudy)	True	False	643.10
2010-07-09 16:00:00 51327 16 207.71 151.04 207.71 627.0 758.90	27.3693534101	207.71	627.00	Isolated_T-Storms(partly_cloudy)	True	False	627.00
2010-07-09 17:00:00 51328 17 136.49 99.25 136.49 336.7 498.70	27.3693534101	136.49	336.70	Isolated_T-Storms(partly_cloudy)	True	False	336.70
2010-07-09 18:00:00 51329 18 61.80 44.94 61.80 194.1 225.80	27.3693534101	61.80	194.10	Isolated_T-Storms(mostly_cloudy)	True	False	194.10
2010-07-09 19:00:00 51330 19 22.28 16.20 22.28 28.0 81.40	27.3693534101	22.28	28.00	Isolated_T-Storms(fair)	True	False	28.00
2010-07-09 20:00:00 51331 20 1.86 1.35 1.86 0.2 6.80	27.3693534101	1.86	0.20	Isolated_T-Storms(mostly_cloudy)	True	False	0.20
2010-07-09 21:00:00 51332 21 0.00 0.00 0.00 0.0 0.00	27.3693534101	0.00	0.00	Isolated_T-Storms(mostly_cloudy)	True	False	0.00
2010-07-09 22:00:00 51333 22 0.00 0.00 0.00 0.0 0.00	27.3693534101	0.00	0.00	Isolated_T-Storms(cloudy)	True	False	0.00
2010-07-09 23:00:00 51334 23 0.00 0.00 0.00 0.0 0.00	27.3693534101	0.00	0.00	Isolated_T-Storms(partly_cloudy)	True	False	0.00
2010-07-10 00:00:00 51335 0 0.00 0.00 0.00 0.0 0.00	27.3693534101	0.00	0.00	Isolated_T-Storms(cloudy)	True	False	0.00
2010-07-10 01:00:00 51336 1 0.00 0.00 0.00 0.0 0.00	27.3693534101	0.00	0.00	Isolated_T-Storms(mostly_cloudy)	True	False	0.00
2010-07-10 02:00:00 51337 2 0.00 0.00 0.00 0.0 0.00	27.3693534101	0.00	0.00	Isolated_T-Storms(partly_cloudy)	True	False	0.00
2010-07-10 03:00:00 51338 3 0.00 0.00 0.00 0.0 0.00	27.3693534101	0.00	0.00	Isolated_T-Storms(partly_cloudy)	True	False	0.00
2010-07-10 04:00:00 51339 4 0.00 0.00 0.00 0.0 0.00	58.2348163523	0.00	0.00	Mostly_Cloudy(cloudy)	True	False	0.00
2010-07-10 05:00:00 51340 5 0.17 0.17 0.17 0.0 0.30	58.2348163523	0.17	0.00	Mostly_Cloudy(cloudy)	True	False	0.00
2010-07-10 06:00:00 51341 6 45.25 45.25 45.25 69.5 77.70	58.2348163523	45.25	69.50	Mostly_Cloudy(cloudy)	True	False	69.50
2010-07-10 07:00:00 51342 7 56.76 56.76 56.76 182.8 207.40	27.3693534101	56.76	182.80	Few_Showers(cloudy)	True	False	182.80
2010-07-10 08:00:00 51343 8 132.99 132.99 132.99 173.9 485.90	27.3693534101	132.99	173.90	Few_Showers(cloudy)	True	False	173.90
2010-07-10 09:00:00 51344 9 203.93 203.93 203.93 247.3 745.10	27.3693534101	203.93	247.30	Few_Showers(cloudy)	True	False	247.30
2010-07-10 10:00:00 51345 10 209.58 209.58 209.58 188.2 919.50	22.7933391087	209.58	188.20	Showers(light_rain)	True	False	188.20
2010-07-10 11:00:00 51346 11 236.80 236.80 236.80 145.8 1038.90	22.7933391087	236.80	145.80	Showers(light_rain)	True	False	145.80
2010-07-10 12:00:00 51347 12 252.57 252.57 252.57 203.5 1108.10	22.7933391087	252.57	203.50	Showers(light_rain)	True	False	203.50
2010-07-10 13:00:00 51348 13 357.78 357.78 357.78 242.7 1107.70	32.2991324029	357.78	242.70	Scattered_T-Storms(fair)	True	False	242.70
2010-07-10 14:00:00 51349 14 342.50 342.50 342.50 269.3 1060.40	32.2991324029	342.50	269.30	Scattered_T-Storms(cloudy)	True	False	269.30
2010-07-10 15:00:00 51350 15 303.32 303.32 303.32 233.6 939.10	32.2991324029	303.32	233.60	Scattered_T-Storms(fair)	True	False	233.60
2010-07-10 16:00:00 51351 16 207.71 207.71 207.71 321.8 758.90	27.3693534101	207.71	321.80	T-Storms(partly_cloudy)	True	False	321.80
2010-07-10 17:00:00 51352 17 136.49 136.49 136.49 357.1 498.70	27.3693534101	136.49	357.10	T-Storms(mostly_cloudy)	True	False	357.10
2010-07-10 18:00:00 51353 18 61.80 61.80 61.80 211.2 225.80	27.3693534101	61.80	211.20	T-Storms(mostly_cloudy)	True	False	211.20
2010-07-10 19:00:00 51354 19 22.28 22.28 22.28 49.3 81.40	27.3693534101	22.28	49.30	Scattered_T-Storms(partly_cloudy)	True	False	49.30
2010-07-10 20:00:00 51355 20 1.86 1.86 1.86 0.8 6.80	27.3693534101	1.86	0.80	Scattered_T-Storms(fair)	True	False	0.80
2010-07-10 21:00:00 51356 21 0.00 0.00 0.00 0.0 0.00	27.3693534101	0.00	0.00	Scattered_T-Storms(fair)	True	False	0.00
2010-07-10 22:00:00 51357 22 0.00 0.00 0.00 0.0 0.00	27.3693534101	0.00	0.00	Scattered_T-Storms(fair)	True	False	0.00
2010-07-10 23:00:00 51358 23 0.00 0.00 0.00 0.0 0.00	27.3693534101	0.00	0.00	Scattered_T-Storms(partly_cloudy)	True	False	0.00
2010-07-11 00:00:00 51359 0 0.00 0.00 0.00 0.0 0.00	27.3693534101	0.00	0.00	Scattered_T-Storms(fair)	True	False	0.00
2010-07-11 01:00:00 51360 1 0.00 0.00 0.00 0.0 0.00	72.972972973	0.00	0.00	Partly_Cloudy(partly_cloudy)	True	False	0.00
2010-07-11 02:00:00 51361 2 0.00 0.00 0.00 0.0 0.00	72.972972973	0.00	0.00	Partly_Cloudy(mostly_cloudy)	True	False	0.00
2010-07-11 03:00:00 51362 3 0.00 0.00 0.00 0.0 0.00	72.972972973	0.00	0.00	Partly_Cloudy(fair)	True	False	0.00
2010-07-11 04:00:00 51363 4 0.00 0.00 0.00 0.0 0.00	72.972972973	0.00	0.00	Partly_Cloudy(fair)	True	False	0.00
2010-07-11 05:00:00 51364 5 0.22 0.22 0.22 0.0 0.30	72.972972973	0.22	0.00	Partly_Cloudy(partly_cloudy)	True	False	0.00
2010-07-11 06:00:00 51365 6 56.70 56.70 56.70 34.9 77.70	72.972972973	56.70	34.90	Partly_Cloudy(partly_cloudy)	True	False	34.90
2010-07-11 07:00:00 51366 7 151.35 151.35 151.35 197.6 207.40	72.972972973	151.35	197.60	Partly_Cloudy(fair)	True	False	197.60
2010-07-11 08:00:00 51367 8 354.58 354.58 354.58 420.7 485.90	72.972972973	354.58	420.70	Partly_Cloudy(fair)	True	False	420.70
2010-07-11 09:00:00 51368 9 543.72 543.72 543.72 516.0 745.10	72.972972973	543.72	516.00	Partly_Cloudy(fair)	True	False	516.00
2010-07-11 10:00:00 51369 10 735.80 735.80 735.80 629.8 919.50	80.0217509516	735.80	629.80	Sunny(mostly_cloudy)	True	False	629.80
