2010-05-29 00:00:00 2615 0 0.00 0.00 0.00 0.0 0.00	12.6215390314	0.00	0.00	Few_Showers(cloudy)	True	False	0.00
2010-05-29 01:00:00 2616 1 0.00 0.00 0.00 0.0 0.00	12.6215390314	0.00	0.00	Few_Showers(cloudy)	True	False	0.00
2010-05-29 02:00:00 2617 2 0.00 0.00 0.00 0.0 0.00	12.6215390314	0.00	0.00	Few_Showers(cloudy)	True	False	0.00
2010-05-29 03:00:00 2618 3 0.00 0.00 0.00 0.0 0.00	12.6215390314	0.00	0.00	Few_Showers(cloudy)	True	False	0.00
2010-05-29 04:00:00 2619 4 0.00 0.00 0.00 0.0 0.00	12.6215390314	0.00	0.00	Few_Showers(cloudy)	True	False	0.00
2010-05-29 05:00:00 2620 5 0.09 0.09 0.09 0.0 0.70	12.6215390314	0.09	0.00	Few_Showers(cloudy)	True	False	0.00
2010-05-29 06:00:00 2621 6 9.18 9.18 9.18 0.0 72.70	12.6215390314	9.18	0.00	Few_Showers(cloudy)	True	False	0.00
2010-05-29 07:00:00 2622 7 33.86 33.86 33.86 11.9 268.30	12.6215390314	33.86	11.90	Few_Showers(light_rain)	True	False	11.90
2010-05-29 08:00:00 2623 8 67.12 67.12 67.12 52.6 531.80	12.6215390314	67.12	52.60	Few_Showers(cloudy)	True	False	52.60
2010-05-29 09:00:00 2624 9 97.19 97.19 97.19 239.4 770.00	12.6215390314	97.19	239.40	Few_Showers(cloudy)	True	False	239.40
2010-05-29 10:00:00 2625 10 132.10 132.10 132.10 598.2 966.70	13.6650460329	132.10	598.20	Showers(cloudy)	True	False	598.20
2010-05-29 11:00:00 2626 11 143.73 143.73 143.73 805.2 1051.80	13.6650460329	143.73	805.20	Showers(cloudy)	True	False	805.20
2010-05-29 12:00:00 2627 12 149.52 149.52 149.52 899.1 1094.20	13.6650460329	149.52	899.10	Showers(cloudy)	True	False	899.10
2010-05-29 13:00:00 2628 13 136.30 136.30 136.30 630.3 1079.90	12.6215390314	136.30	630.30	Scattered_T-Storms(mostly_cloudy)	True	False	630.30
2010-05-29 14:00:00 2629 14 127.83 127.83 127.83 413.4 1012.80	12.6215390314	127.83	413.40	Scattered_T-Storms(cloudy)	True	False	413.40
2010-05-29 15:00:00 2630 15 112.74 112.74 112.74 658.7 893.20	12.6215390314	112.74	658.70	Scattered_T-Storms(cloudy)	True	False	658.70
2010-05-29 16:00:00 2631 16 90.38 90.38 90.38 530.7 716.10	12.6215390314	90.38	530.70	Scattered_T-Storms(fair)	True	False	530.70
2010-05-29 17:00:00 2632 17 61.19 61.19 61.19 345.7 484.80	12.6215390314	61.19	345.70	Scattered_T-Storms(partly_cloudy)	True	False	345.70
2010-05-29 18:00:00 2633 18 24.70 24.70 24.70 134.0 195.70	12.6215390314	24.70	134.00	Scattered_T-Storms(mostly_cloudy)	True	False	134.00
2010-05-29 19:00:00 2634 19 7.64 7.64 7.64 46.7 60.50	12.6215390314	7.64	46.70	Isolated_T-Storms(fair)	True	False	46.70
2010-05-29 20:00:00 2635 20 0.18 0.18 0.18 0.0 1.40	12.6215390314	0.18	0.00	Isolated_T-Storms(partly_cloudy)	True	False	0.00
2010-05-29 21:00:00 2636 21 0.00 0.00 0.00 0.0 0.00	12.6215390314	0.00	0.00	Isolated_T-Storms(fair)	True	False	0.00
2010-05-29 22:00:00 2637 22 0.00 0.00 0.00 0.0 0.00	12.6215390314	0.00	0.00	Few_Showers(light_rain)	True	False	0.00
2010-05-29 23:00:00 2638 23 0.00 0.00 0.00 0.0 0.00	12.6215390314	0.00	0.00	Few_Showers(cloudy)	True	False	0.00
2010-05-30 00:00:00 2639 0 0.00 0.00 0.00 0.0 0.00	12.6215390314	0.00	0.00	Few_Showers(partly_cloudy)	True	False	0.00
2010-05-30 01:00:00 2640 1 0.00 0.00 0.00 0.0 0.00	78.9788933257	0.00	0.00	Partly_Cloudy(fog)	True	False	0.00
2010-05-30 02:00:00 2641 2 0.00 0.00 0.00 0.0 0.00	78.9788933257	0.00	0.00	Partly_Cloudy(fog)	True	False	0.00
2010-05-30 03:00:00 2642 3 0.00 0.00 0.00 0.0 0.00	78.9788933257	0.00	0.00	Partly_Cloudy(fog)	True	False	0.00
2010-05-30 04:00:00 2643 4 0.00 0.00 0.00 0.0 0.00	78.9788933257	0.00	0.00	Partly_Cloudy(fog)	True	False	0.00
2010-05-30 05:00:00 2644 5 0.55 0.55 0.55 0.0 0.70	78.9788933257	0.55	0.00	Partly_Cloudy(sunny)	True	False	0.00
2010-05-30 06:00:00 2645 6 57.42 57.42 57.42 58.3 72.70	78.9788933257	57.42	58.30	Partly_Cloudy(fog)	True	False	58.30
2010-05-30 07:00:00 2646 7 211.90 211.90 211.90 248.5 268.30	78.9788933257	211.90	248.50	Partly_Cloudy(sunny)	True	False	248.50
2010-05-30 08:00:00 2647 8 420.01 420.01 420.01 531.8 531.80	78.9788933257	420.01	531.80	Partly_Cloudy(sunny)	True	False	531.80
2010-05-30 09:00:00 2648 9 608.14 608.14 608.14 720.1 770.00	78.9788933257	608.14	720.10	Partly_Cloudy(sunny)	True	False	720.10
2010-05-30 10:00:00 2649 10 919.07 919.07 919.07 928.4 966.70	95.0730647709	919.07	928.40	Sunny(sunny)	True	False	928.40
2010-05-30 11:00:00 2650 11 999.98 999.98 999.98 1051.8 1051.80	95.0730647709	999.98	1051.80	Sunny(sunny)	True	False	1051.80
2010-05-30 12:00:00 2651 12 1040.29 1040.29 1040.29 1094.2 1094.20	95.0730647709	1040.29	1094.20	Sunny(sunny)	True	False	1094.20
2010-05-30 13:00:00 2652 13 1026.69 1026.69 1026.69 1079.9 1079.90	95.0730647709	1026.69	1079.90	Sunny(sunny)	True	False	1079.90
2010-05-30 14:00:00 2653 14 962.90 962.90 962.90 1012.8 1012.80	95.0730647709	962.90	1012.80	Sunny(sunny)	True	False	1012.80
2010-05-30 15:00:00 2654 15 849.19 849.19 849.19 883.5 893.20	95.0730647709	849.19	883.50	Sunny(sunny)	True	False	883.50
2010-05-30 16:00:00 2655 16 565.57 565.57 565.57 690.5 716.10	78.9788933257	565.57	690.50	Partly_Cloudy(sunny)	True	False	690.50
2010-05-30 17:00:00 2656 17 382.89 382.89 382.89 419.6 484.80	78.9788933257	382.89	419.60	Partly_Cloudy(sunny)	True	False	419.60
2010-05-30 18:00:00 2657 18 154.56 154.56 154.56 161.0 195.70	78.9788933257	154.56	161.00	Partly_Cloudy(sunny)	True	False	161.00
2010-05-30 19:00:00 2658 19 52.28 52.28 52.28 26.7 60.50	86.412512219	52.28	26.70	Sunny(sunny)	True	False	26.70
2010-05-30 20:00:00 2659 20 1.21 1.21 1.21 0.7 1.40	86.412512219	1.21	0.70	Sunny(sunny)	True	False	0.70
2010-05-30 21:00:00 2660 21 0.00 0.00 0.00 0.0 0.00	86.412512219	0.00	0.00	Clear(clear)	True	False	0.00
2010-05-30 22:00:00 2661 22 0.00 0.00 0.00 0.0 0.00	86.412512219	0.00	0.00	Clear(fair)	True	False	0.00
2010-05-30 23:00:00 2662 23 0.00 0.00 0.00 0.0 0.00	86.412512219	0.00	0.00	Clear(clear)	True	False	0.00
2010-05-31 00:00:00 2663 0 0.00 0.00 0.00 0.0 0.00	86.412512219	0.00	0.00	Clear(clear)	True	False	0.00
