2010-06-18 12:00:00 26723 12 724.60 724.60 724.60 806.7 938.80	77.1837349398	724.60	806.70	Sunny(sunny)	True	False	806.70
2010-06-18 13:00:00 26724 13 803.33 803.33 803.33 850.3 1040.80	77.1837349398	803.33	850.30	Sunny(fair)	True	False	850.30
2010-06-18 14:00:00 26725 14 728.92 728.92 728.92 801.1 944.40	77.1837349398	728.92	801.10	Sunny(sunny)	True	False	801.10
2010-06-18 15:00:00 26726 15 617.70 617.70 617.70 709.1 800.30	77.1837349398	617.70	709.10	Sunny(sunny)	True	False	709.10
2010-06-18 16:00:00 26727 16 524.52 524.52 552.71 552.2 716.10	73.2471933912	552.71	552.20	Sunny(sunny)	True	False	552.20
2010-06-18 17:00:00 26728 17 353.56 353.56 372.57 345.2 482.70	73.2471933912	372.57	345.20	Sunny(sunny)	True	False	345.20
2010-06-18 18:00:00 26729 18 156.90 156.90 165.33 143.3 214.20	73.2471933912	165.33	143.30	Sunny(sunny)	True	False	143.30
2010-06-18 19:00:00 26730 19 50.54 50.54 53.26 28.7 69.00	73.2471933912	53.26	28.70	Sunny(sunny)	True	False	28.70
2010-06-18 20:00:00 26731 20 4.91 4.91 5.17 1.8 6.70	73.2471933912	5.17	1.80	Sunny(sunny)	True	False	1.80
2010-06-18 21:00:00 26732 21 0.00 0.00 0.00 0.0 0.00	73.2471933912	0.00	0.00	Clear(clear)	True	False	0.00
2010-06-18 22:00:00 26733 22 0.00 0.00 0.00 0.0 0.00	73.2471933912	0.00	0.00	Clear(clear)	True	False	0.00
2010-06-18 23:00:00 26734 23 0.00 0.00 0.00 0.0 0.00	73.2471933912	0.00	0.00	Clear(clear)	True	False	0.00
2010-06-19 00:00:00 26735 0 0.00 0.00 0.00 0.0 0.00	73.2471933912	0.00	0.00	Clear(clear)	True	False	0.00
2010-06-19 01:00:00 26736 1 0.00 0.00 0.00 0.0 0.00	73.2471933912	0.00	0.00	Clear(clear)	True	False	0.00
2010-06-19 02:00:00 26737 2 0.00 0.00 0.00 0.0 0.00	73.2471933912	0.00	0.00	Clear(clear)	True	False	0.00
2010-06-19 03:00:00 26738 3 0.00 0.00 0.00 0.0 0.00	73.2471933912	0.00	0.00	Clear(clear)	True	False	0.00
2010-06-19 04:00:00 26739 4 0.00 0.00 0.00 0.0 0.00	73.2471933912	0.00	0.00	Clear(clear)	True	False	0.00
2010-06-19 05:00:00 26740 5 1.32 1.32 1.32 0.4 1.80	73.2471933912	1.32	0.40	Clear(sunny)	True	False	0.40
2010-06-19 06:00:00 26741 6 53.84 53.84 53.84 42.0 73.50	73.2471933912	53.84	42.00	Sunny(sunny)	True	False	42.00
2010-06-19 07:00:00 26742 7 161.36 161.36 161.36 190.6 220.30	73.2471933912	161.36	190.60	Mostly_Sunny(sunny)	False	False	190.60
2010-06-19 08:00:00 26743 8 329.10 329.10 329.10 405.1 449.30	73.2471933912	329.10	405.10	Mostly_Sunny(sunny)	False	False	405.10
2010-06-19 09:00:00 26744 9 505.41 505.41 505.41 577.3 690.00	73.2471933912	505.41	577.30	Mostly_Sunny(sunny)	False	False	577.30
2010-06-19 10:00:00 26745 10 771.52 771.52 771.52 724.8 929.60	82.9944938585	771.52	724.80	Partly_Cloudy(sunny)	True	False	724.80
2010-06-19 11:00:00 26746 11 783.63 783.63 783.63 816.1 944.20	82.9944938585	783.63	816.10	Partly_Cloudy(sunny)	True	False	816.10
2010-06-19 12:00:00 26747 12 779.15 779.15 779.15 686.9 938.80	82.9944938585	779.15	686.90	Partly_Cloudy(fair)	True	False	686.90
2010-06-19 13:00:00 26748 13 863.81 863.81 863.81 778.8 1040.80	82.9944938585	863.81	778.80	Partly_Cloudy(fair)	True	False	778.80
2010-06-19 14:00:00 26749 14 783.80 783.80 783.80 695.9 944.40	82.9944938585	783.80	695.90	Partly_Cloudy(partly_cloudy)	True	False	695.90
2010-06-19 15:00:00 26750 15 664.20 664.20 664.20 668.2 800.30	82.9944938585	664.20	668.20	Partly_Cloudy(partly_cloudy)	True	False	668.20
2010-06-19 16:00:00 26751 16 537.59 537.59 537.59 397.4 716.10	75.0724637681	537.59	397.40	Partly_Cloudy(partly_cloudy)	True	False	397.40
2010-06-19 17:00:00 26752 17 362.37 362.37 362.37 298.5 482.70	75.0724637681	362.37	298.50	Partly_Cloudy(fair)	True	False	298.50
2010-06-19 18:00:00 26753 18 160.81 160.81 160.81 131.3 214.20	75.0724637681	160.81	131.30	Partly_Cloudy(partly_cloudy)	True	False	131.30
2010-06-19 19:00:00 26754 19 51.80 51.80 51.80 37.5 69.00	75.0724637681	51.80	37.50	Partly_Cloudy(sunny)	True	False	37.50
2010-06-19 20:00:00 26755 20 5.03 5.03 5.03 1.5 6.70	75.0724637681	5.03	1.50	Partly_Cloudy(sunny)	True	False	1.50
2010-06-19 21:00:00 26756 21 0.00 0.00 0.00 0.0 0.00	75.0724637681	0.00	0.00	Partly_Cloudy(clear)	True	False	0.00
2010-06-19 22:00:00 26757 22 0.00 0.00 0.00 0.0 0.00	75.0724637681	0.00	0.00	Partly_Cloudy(clear)	True	False	0.00
2010-06-19 23:00:00 26758 23 0.00 0.00 0.00 0.0 0.00	75.0724637681	0.00	0.00	Partly_Cloudy(clear)	True	False	0.00
2010-06-20 00:00:00 26759 0 0.00 0.00 0.00 0.0 0.00	75.0724637681	0.00	0.00	Partly_Cloudy(fair)	True	False	0.00
2010-06-20 01:00:00 26760 1 0.00 0.00 0.00 0.0 0.00	75.0724637681	0.00	0.00	Mostly_Clear(fair)	False	False	0.00
2010-06-20 02:00:00 26761 2 0.00 0.00 0.00 0.0 0.00	75.0724637681	0.00	0.00	Mostly_Clear(partly_cloudy)	False	False	0.00
2010-06-20 03:00:00 26762 3 0.00 0.00 0.00 0.0 0.00	75.0724637681	0.00	0.00	Mostly_Clear(fair)	False	False	0.00
2010-06-20 04:00:00 26763 4 0.00 0.00 0.00 0.0 0.00	75.0724637681	0.00	0.00	Partly_Cloudy(fair)	True	False	0.00
2010-06-20 05:00:00 26764 5 1.35 1.35 1.35 0.0 1.80	75.0724637681	1.35	0.00	Partly_Cloudy(partly_cloudy)	True	False	0.00
2010-06-20 06:00:00 26765 6 55.18 55.18 55.18 45.9 73.50	75.0724637681	55.18	45.90	Partly_Cloudy(mostly_cloudy)	True	False	45.90
2010-06-20 07:00:00 26766 7 165.38 165.38 165.38 151.9 220.30	75.0724637681	165.38	151.90	Partly_Cloudy(mostly_cloudy)	True	False	151.90
2010-06-20 08:00:00 26767 8 337.30 337.30 337.30 226.3 449.30	75.0724637681	337.30	226.30	Partly_Cloudy(partly_cloudy)	True	False	226.30
2010-06-20 09:00:00 26768 9 518.00 518.00 518.00 305.8 690.00	75.0724637681	518.00	305.80	Partly_Cloudy(partly_cloudy)	True	False	305.80
2010-06-20 10:00:00 26769 10 717.50 717.50 717.50 514.9 929.60	77.1837349398	717.50	514.90	Sunny(partly_cloudy)	True	False	514.90
2010-06-20 11:00:00 26770 11 728.77 728.77 728.77 779.1 944.20	77.1837349398	728.77	779.10	Sunny(fair)	True	False	779.10
2010-06-20 12:00:00 26771 12 779.15 779.15 779.15 597.1 938.80	82.9944938585	779.15	597.10	Partly_Cloudy(fair)	True	False	597.10
