2010-07-04 14:00:00 45637 14 841.11 841.11 841.11 775.2 1060.40	79.3196492242	841.11	775.20	Sunny(sunny)	True	False	775.20
2010-07-04 15:00:00 45638 15 744.89 744.89 744.89 695.1 939.10	79.3196492242	744.89	695.10	Sunny(sunny)	True	False	695.10
2010-07-04 16:00:00 45639 16 590.46 590.46 590.46 555.8 744.40	79.3196492242	590.46	555.80	Mostly_Sunny(sunny)	False	False	555.80
2010-07-04 17:00:00 45640 17 384.46 384.46 384.46 346.8 484.70	79.3196492242	384.46	346.80	Mostly_Sunny(sunny)	False	False	346.80
2010-07-04 18:00:00 45641 18 179.10 179.10 179.10 149.8 225.80	79.3196492242	179.10	149.80	Mostly_Sunny(sunny)	False	False	149.80
2010-07-04 19:00:00 45642 19 61.87 61.87 61.87 40.3 81.40	76.0090531875	61.87	40.30	Sunny(sunny)	True	False	40.30
2010-07-04 20:00:00 45643 20 5.17 5.17 5.17 4.9 6.80	76.0090531875	5.17	4.90	Sunny(sunny)	True	False	4.90
2010-07-04 21:00:00 45644 21 0.00 0.00 0.00 0.0 0.00	76.0090531875	0.00	0.00	Clear(clear)	True	False	0.00
2010-07-04 22:00:00 45645 22 0.00 0.00 0.00 0.0 0.00	76.0090531875	0.00	0.00	Clear(clear)	True	False	0.00
2010-07-04 23:00:00 45646 23 0.00 0.00 0.00 0.0 0.00	76.0090531875	0.00	0.00	Clear(fair)	True	False	0.00
2010-07-05 00:00:00 45647 0 0.00 0.00 0.00 0.0 0.00	76.0090531875	0.00	0.00	Clear(fair)	True	False	0.00
2010-07-05 01:00:00 45648 1 0.00 0.00 0.00 0.0 0.00	76.0090531875	0.00	0.00	Clear(fair)	True	False	0.00
2010-07-05 02:00:00 45649 2 0.00 0.00 0.00 0.0 0.00	76.0090531875	0.00	0.00	Clear(clear)	True	False	0.00
2010-07-05 03:00:00 45650 3 0.00 0.00 0.00 0.0 0.00	76.0090531875	0.00	0.00	Clear(clear)	True	False	0.00
2010-07-05 04:00:00 45651 4 0.00 0.00 0.00 0.0 0.00	76.0090531875	0.00	0.00	Clear(clear)	True	False	0.00
2010-07-05 05:00:00 45652 5 0.23 0.23 0.23 0.0 0.30	76.0090531875	0.23	0.00	Clear(sunny)	True	False	0.00
2010-07-05 06:00:00 45653 6 59.06 59.06 59.06 46.2 77.70	76.0090531875	59.06	46.20	Sunny(sunny)	True	False	46.20
2010-07-05 07:00:00 45654 7 167.45 167.45 167.45 161.7 220.30	76.0090531875	167.45	161.70	Mostly_Sunny(sunny)	False	False	161.70
2010-07-05 08:00:00 45655 8 369.33 369.33 369.33 352.8 485.90	76.0090531875	369.33	352.80	Mostly_Sunny(sunny)	False	False	352.80
2010-07-05 09:00:00 45656 9 565.28 565.28 565.28 530.7 743.70	76.0090531875	565.28	530.70	Mostly_Sunny(sunny)	False	False	530.70
2010-07-05 10:00:00 45657 10 663.74 663.74 663.74 678.2 909.60	72.9710210346	663.74	678.20	Partly_Cloudy(sunny)	True	False	678.20
2010-07-05 11:00:00 45658 11 757.22 757.22 757.22 760.5 1037.70	72.9710210346	757.22	760.50	Partly_Cloudy(sunny)	True	False	760.50
2010-07-05 12:00:00 45659 12 808.59 808.59 808.59 817.3 1108.10	72.9710210346	808.59	817.30	Partly_Cloudy(sunny)	True	False	817.30
2010-07-05 13:00:00 45660 13 878.62 878.62 878.62 822.2 1107.70	79.3196492242	878.62	822.20	Sunny(sunny)	True	False	822.20
2010-07-05 14:00:00 45661 14 841.11 841.11 841.11 770.8 1060.40	79.3196492242	841.11	770.80	Sunny(sunny)	True	False	770.80
2010-07-05 15:00:00 45662 15 744.89 744.89 744.89 680.5 939.10	79.3196492242	744.89	680.50	Sunny(sunny)	True	False	680.50
2010-07-05 16:00:00 45663 16 565.81 565.81 565.81 532.1 744.40	76.0090531875	565.81	532.10	Sunny(sunny)	True	False	532.10
2010-07-05 17:00:00 45664 17 368.42 368.42 368.42 341.1 484.70	76.0090531875	368.42	341.10	Sunny(sunny)	True	False	341.10
2010-07-05 18:00:00 45665 18 171.63 171.63 171.63 141.1 225.80	76.0090531875	171.63	141.10	Sunny(sunny)	True	False	141.10
2010-07-05 19:00:00 45666 19 61.87 61.87 61.87 30.4 81.40	76.0090531875	61.87	30.40	Sunny(sunny)	True	False	30.40
2010-07-05 20:00:00 45667 20 5.17 5.17 5.17 2.0 6.80	76.0090531875	5.17	2.00	Sunny(sunny)	True	False	2.00
2010-07-05 21:00:00 45668 21 0.00 0.00 0.00 0.0 0.00	76.0090531875	0.00	0.00	Clear(clear)	True	False	0.00
2010-07-05 22:00:00 45669 22 0.00 0.00 0.00 0.0 0.00	76.0090531875	0.00	0.00	Clear(clear)	True	False	0.00
2010-07-05 23:00:00 45670 23 0.00 0.00 0.00 0.0 0.00	76.0090531875	0.00	0.00	Clear(clear)	True	False	0.00
2010-07-06 00:00:00 45671 0 0.00 0.00 0.00 0.0 0.00	76.0090531875	0.00	0.00	Clear(clear)	True	False	0.00
2010-07-06 01:00:00 45672 1 0.00 0.00 0.00 0.0 0.00	76.0090531875	0.00	0.00	Clear(clear)	True	False	0.00
2010-07-06 02:00:00 45673 2 0.00 0.00 0.00 0.0 0.00	76.0090531875	0.00	0.00	Clear(clear)	True	False	0.00
2010-07-06 03:00:00 45674 3 0.00 0.00 0.00 0.0 0.00	76.0090531875	0.00	0.00	Clear(clear)	True	False	0.00
2010-07-06 04:00:00 45675 4 0.00 0.00 0.00 0.0 0.00	76.0090531875	0.00	0.00	Clear(clear)	True	False	0.00
2010-07-06 05:00:00 45676 5 0.23 0.23 0.23 0.0 0.30	76.0090531875	0.23	0.00	Clear(sunny)	True	False	0.00
2010-07-06 06:00:00 45677 6 59.06 59.06 59.06 27.7 77.70	76.0090531875	59.06	27.70	Sunny(sunny)	True	False	27.70
2010-07-06 07:00:00 45678 7 167.45 167.45 167.45 152.1 220.30	76.0090531875	167.45	152.10	Sunny(sunny)	True	False	152.10
2010-07-06 08:00:00 45679 8 369.33 369.33 369.33 341.2 485.90	76.0090531875	369.33	341.20	Sunny(sunny)	True	False	341.20
2010-07-06 09:00:00 45680 9 565.28 565.28 565.28 522.9 743.70	76.0090531875	565.28	522.90	Sunny(sunny)	True	False	522.90
2010-07-06 10:00:00 45681 10 721.49 721.49 721.49 665.8 909.60	79.3196492242	721.49	665.80	Sunny(sunny)	True	False	665.80
2010-07-06 11:00:00 45682 11 823.10 823.10 823.10 748.1 1037.70	79.3196492242	823.10	748.10	Sunny(sunny)	True	False	748.10
2010-07-06 12:00:00 45683 12 878.94 878.94 878.94 685.8 1108.10	79.3196492242	878.94	685.80	Sunny(sunny)	True	False	685.80
2010-07-06 13:00:00 45684 13 878.62 878.62 878.62 566.1 1107.70	79.3196492242	878.62	566.10	Sunny(sunny)	True	False	566.10
2010-07-06 14:00:00 45685 14 841.11 841.11 841.11 714.4 1060.40	79.3196492242	841.11	714.40	Sunny(sunny)	True	False	714.40
