2010-06-23 01:00:00 32064 1 0.00 0.00 0.00 0.0 0.00	14.2514213519	0.00	0.00	Few_Showers(fog)	True	False	0.00
2010-06-23 02:00:00 32065 2 0.00 0.00 0.00 0.0 0.00	14.2514213519	0.00	0.00	Few_Showers(fog)	True	False	0.00
2010-06-23 03:00:00 32066 3 0.00 0.00 0.00 0.0 0.00	14.2514213519	0.00	0.00	Few_Showers(fog)	True	False	0.00
2010-06-23 04:00:00 32067 4 0.00 0.00 0.00 0.0 0.00	75.1008064516	0.00	0.00	Clear(fog)	True	False	0.00
2010-06-23 05:00:00 32068 5 1.35 1.35 1.35 0.0 1.80	75.1008064516	1.35	0.00	Clear(fair)	True	False	0.00
2010-06-23 06:00:00 32069 6 55.20 55.20 55.20 38.9 73.50	75.1008064516	55.20	38.90	Sunny(fog)	True	False	38.90
2010-06-23 07:00:00 32070 7 165.45 165.45 165.45 177.7 220.30	75.1008064516	165.45	177.70	Sunny(sunny)	True	False	177.70
2010-06-23 08:00:00 32071 8 364.61 364.61 364.61 385.3 485.50	75.1008064516	364.61	385.30	Sunny(sunny)	True	False	385.30
2010-06-23 09:00:00 32072 9 521.50 521.50 521.50 538.4 694.40	75.1008064516	521.50	538.40	Sunny(sunny)	True	False	538.40
2010-06-23 10:00:00 32073 10 757.84 757.84 757.84 677.6 929.60	81.5227679041	757.84	677.60	Sunny(sunny)	True	False	677.60
2010-06-23 11:00:00 32074 11 769.74 769.74 769.74 608.3 944.20	81.5227679041	769.74	608.30	Sunny(fair)	True	False	608.30
2010-06-23 12:00:00 32075 12 765.34 765.34 765.34 781.6 938.80	81.5227679041	765.34	781.60	Sunny(fair)	True	False	781.60
2010-06-23 13:00:00 32076 13 820.64 820.64 820.64 852.3 995.60	82.427174256	820.64	852.30	Partly_Cloudy(partly_cloudy)	True	False	852.30
2010-06-23 14:00:00 32077 14 783.80 783.80 783.80 689.7 950.90	82.427174256	783.80	689.70	Partly_Cloudy(fair)	True	False	689.70
2010-06-23 15:00:00 32078 15 652.41 652.41 652.41 658.5 791.50	82.427174256	652.41	658.50	Partly_Cloudy(partly_cloudy)	True	False	658.50
2010-06-23 16:00:00 32079 16 514.83 514.83 514.83 532.5 681.80	75.5102040816	514.83	532.50	Partly_Cloudy(partly_cloudy)	True	False	532.50
2010-06-23 17:00:00 32080 17 364.49 364.49 364.49 330.9 482.70	75.5102040816	364.49	330.90	Partly_Cloudy(sunny)	True	False	330.90
2010-06-23 18:00:00 32081 18 161.74 161.74 161.74 131.7 214.20	75.5102040816	161.74	131.70	Partly_Cloudy(fair)	True	False	131.70
2010-06-23 19:00:00 32082 19 61.47 61.47 61.47 31.2 81.40	75.5102040816	61.47	31.20	Partly_Cloudy(sunny)	True	False	31.20
2010-06-23 20:00:00 32083 20 5.06 5.06 5.06 1.0 6.70	75.5102040816	5.06	1.00	Partly_Cloudy(sunny)	True	False	1.00
2010-06-23 21:00:00 32084 21 0.00 0.00 0.00 0.0 0.00	75.5102040816	0.00	0.00	Partly_Cloudy(clear)	True	False	0.00
2010-06-23 22:00:00 32085 22 0.00 0.00 0.00 0.0 0.00	75.5102040816	0.00	0.00	Partly_Cloudy(clear)	True	False	0.00
2010-06-23 23:00:00 32086 23 0.00 0.00 0.00 0.0 0.00	75.5102040816	0.00	0.00	Partly_Cloudy(partly_cloudy)	True	False	0.00
2010-06-24 00:00:00 32087 0 0.00 0.00 0.00 0.0 0.00	75.5102040816	0.00	0.00	Partly_Cloudy(clear)	True	False	0.00
2010-06-24 01:00:00 32088 1 0.00 0.00 0.00 0.0 0.00	14.2514213519	0.00	0.00	Isolated_T-Storms(clear)	True	False	0.00
2010-06-24 02:00:00 32089 2 0.00 0.00 0.00 0.0 0.00	14.2514213519	0.00	0.00	Isolated_T-Storms(partly_cloudy)	True	False	0.00
2010-06-24 03:00:00 32090 3 0.00 0.00 0.00 0.0 0.00	14.2514213519	0.00	0.00	Isolated_T-Storms(mostly_cloudy)	True	False	0.00
2010-06-24 04:00:00 32091 4 0.00 0.00 0.00 0.0 0.00	14.2514213519	0.00	0.00	Isolated_T-Storms(mostly_cloudy)	True	False	0.00
2010-06-24 05:00:00 32092 5 0.26 0.26 0.26 0.0 1.80	14.2514213519	0.26	0.00	Isolated_T-Storms(partly_cloudy)	True	False	0.00
2010-06-24 06:00:00 32093 6 10.47 10.47 10.47 46.5 73.50	14.2514213519	10.47	46.50	Isolated_T-Storms(partly_cloudy)	True	False	46.50
2010-06-24 07:00:00 32094 7 31.40 31.40 31.40 152.6 220.30	14.2514213519	31.40	152.60	Isolated_T-Storms(partly_cloudy)	True	False	152.60
2010-06-24 08:00:00 32095 8 69.19 69.19 69.19 369.6 485.50	14.2514213519	69.19	369.60	Isolated_T-Storms(fair)	True	False	369.60
2010-06-24 09:00:00 32096 9 98.96 98.96 98.96 574.6 694.40	14.2514213519	98.96	574.60	Isolated_T-Storms(fair)	True	False	574.60
2010-06-24 10:00:00 32097 10 132.48 132.48 132.48 662.9 929.60	14.2514213519	132.48	662.90	Isolated_T-Storms(sunny)	True	False	662.90
2010-06-24 11:00:00 32098 11 134.56 134.56 134.56 667.5 944.20	14.2514213519	134.56	667.50	Isolated_T-Storms(sunny)	True	False	667.50
2010-06-24 12:00:00 32099 12 133.79 133.79 133.79 405.8 938.80	14.2514213519	133.79	405.80	Isolated_T-Storms(fair)	True	False	405.80
2010-06-24 13:00:00 32100 13 141.89 141.89 141.89 736.7 995.60	14.2514213519	141.89	736.70	Scattered_T-Storms(partly_cloudy)	True	False	736.70
2010-06-24 14:00:00 32101 14 135.52 135.52 135.52 700.6 950.90	14.2514213519	135.52	700.60	Scattered_T-Storms(partly_cloudy)	True	False	700.60
2010-06-24 15:00:00 32102 15 112.80 112.80 112.80 128.9 791.50	14.2514213519	112.80	128.90	Scattered_T-Storms(fair)	True	False	128.90
2010-06-24 16:00:00 32103 16 97.17 97.17 97.17 332.4 681.80	14.2514213519	97.17	332.40	Scattered_T-Storms(fair)	True	False	332.40
2010-06-24 17:00:00 32104 17 68.79 68.79 68.79 329.8 482.70	14.2514213519	68.79	329.80	Scattered_T-Storms(partly_cloudy)	True	False	329.80
2010-06-24 18:00:00 32105 18 30.53 30.53 30.53 143.6 214.20	14.2514213519	30.53	143.60	Scattered_T-Storms(partly_cloudy)	True	False	143.60
2010-06-24 19:00:00 32106 19 11.60 11.60 11.60 28.7 81.40	14.2514213519	11.60	28.70	Isolated_T-Storms(sunny)	True	False	28.70
2010-06-24 20:00:00 32107 20 0.95 0.95 0.95 2.0 6.70	14.2514213519	0.95	2.00	Isolated_T-Storms(sunny)	True	False	2.00
2010-06-24 21:00:00 32108 21 0.00 0.00 0.00 0.0 0.00	14.2514213519	0.00	0.00	Isolated_T-Storms(clear)	True	False	0.00
2010-06-24 22:00:00 32109 22 0.00 0.00 0.00 0.0 0.00	75.1008064516	0.00	0.00	Clear(clear)	True	False	0.00
2010-06-24 23:00:00 32110 23 0.00 0.00 0.00 0.0 0.00	75.1008064516	0.00	0.00	Clear(clear)	True	False	0.00
2010-06-25 00:00:00 32111 0 0.00 0.00 0.00 0.0 0.00	75.1008064516	0.00	0.00	Clear(clear)	True	False	0.00
2010-06-25 01:00:00 32112 1 0.00 0.00 0.00 0.0 0.00	75.1008064516	0.00	0.00	Clear(clear)	True	False	0.00
