2010-05-28 13:00:00 2076 13 133.58 133.58 1010.96 762.7 1079.90	12.3697773879	1010.96	762.70	Few_Showers(mostly_cloudy)	True	False	762.70
2010-05-28 14:00:00 2077 14 723.57 723.57 723.57 546.0 1024.50	12.3697773879	723.57	546.00	Few_Showers(cloudy)	True	False	546.00
2010-05-28 15:00:00 2078 15 112.80 644.05 644.05 367.4 911.90	12.3697773879	644.05	367.40	Few_Showers(mostly_cloudy)	True	False	367.40
2010-05-28 16:00:00 2079 16 94.59 505.76 505.76 108.6 716.10	13.2086791321	505.76	108.60	Showers(cloudy)	True	False	108.60
2010-05-28 17:00:00 2080 17 64.04 342.40 342.40 64.3 484.80	13.2086791321	342.40	64.30	Showers(cloudy)	True	False	64.30
2010-05-28 18:00:00 2081 18 25.85 138.22 138.22 161.3 195.70	13.2086791321	138.22	161.30	Showers(cloudy)	True	False	161.30
2010-05-28 19:00:00 2082 19 7.99 42.73 42.73 35.9 60.50	13.2086791321	42.73	35.90	Showers(cloudy)	True	False	35.90
2010-05-28 20:00:00 2083 20 0.18 0.99 0.99 0.1 1.40	13.2086791321	0.99	0.10	Showers(cloudy)	True	False	0.10
2010-05-28 21:00:00 2084 21 0.00 0.00 0.00 0.0 0.00	13.2086791321	0.00	0.00	Showers(cloudy)	True	False	0.00
2010-05-28 22:00:00 2085 22 0.00 0.00 0.00 0.0 0.00	13.2086791321	0.00	0.00	Showers(mostly_cloudy)	True	False	0.00
2010-05-28 23:00:00 2086 23 0.00 0.00 0.00 0.0 0.00	13.2086791321	0.00	0.00	Showers(cloudy)	True	False	0.00
2010-05-29 00:00:00 2087 0 0.00 0.00 0.00 0.0 0.00	13.2086791321	0.00	0.00	Showers(cloudy)	True	False	0.00
2010-05-29 01:00:00 2088 1 0.00 0.00 0.00 0.0 0.00	13.2086791321	0.00	0.00	T-Showers(cloudy)	True	False	0.00
2010-05-29 02:00:00 2089 2 0.00 0.00 0.00 0.0 0.00	13.2086791321	0.00	0.00	T-Showers(cloudy)	True	False	0.00
2010-05-29 03:00:00 2090 3 0.00 0.00 0.00 0.0 0.00	13.2086791321	0.00	0.00	T-Showers(cloudy)	True	False	0.00
2010-05-29 04:00:00 2091 4 0.00 0.00 0.00 0.0 0.00	13.2086791321	0.00	0.00	Showers(cloudy)	True	False	0.00
2010-05-29 05:00:00 2092 5 0.09 0.09 0.09 0.0 0.70	13.2086791321	0.09	0.00	Showers(cloudy)	True	False	0.00
2010-05-29 06:00:00 2093 6 9.60 9.60 9.60 0.0 72.70	13.2086791321	9.60	0.00	Showers(cloudy)	True	False	0.00
2010-05-29 07:00:00 2094 7 35.44 35.44 35.44 11.9 268.30	13.2086791321	35.44	11.90	Showers(light_rain)	True	False	11.90
2010-05-29 08:00:00 2095 8 72.30 72.30 72.30 52.6 547.40	13.2086791321	72.30	52.60	Showers(cloudy)	True	False	52.60
2010-05-29 09:00:00 2096 9 108.18 108.18 108.18 239.4 819.00	13.2086791321	108.18	239.40	Showers(cloudy)	True	False	239.40
2010-05-29 10:00:00 2097 10 132.10 132.10 132.10 598.2 1000.10	13.2086791321	132.10	598.20	Showers(cloudy)	True	False	598.20
2010-05-29 11:00:00 2098 11 144.12 144.12 144.12 805.2 1091.10	13.2086791321	144.12	805.20	Showers(cloudy)	True	False	805.20
2010-05-29 12:00:00 2099 12 149.23 149.23 149.23 899.1 1129.80	13.2086791321	149.23	899.10	Showers(cloudy)	True	False	899.10
2010-05-29 13:00:00 2100 13 133.58 133.58 133.58 630.3 1079.90	12.3697773879	133.58	630.30	Scattered_T-Storms(mostly_cloudy)	True	False	630.30
2010-05-29 14:00:00 2101 14 126.73 126.73 126.73 413.4 1024.50	12.3697773879	126.73	413.40	Scattered_T-Storms(cloudy)	True	False	413.40
2010-05-29 15:00:00 2102 15 112.80 112.80 112.80 658.7 911.90	12.3697773879	112.80	658.70	Scattered_T-Storms(cloudy)	True	False	658.70
2010-05-29 16:00:00 2103 16 88.58 88.58 88.58 530.7 716.10	12.3697773879	88.58	530.70	Scattered_T-Storms(fair)	True	False	530.70
2010-05-29 17:00:00 2104 17 59.97 59.97 59.97 345.7 484.80	12.3697773879	59.97	345.70	Scattered_T-Storms(partly_cloudy)	True	False	345.70
2010-05-29 18:00:00 2105 18 24.21 24.21 24.21 134.0 195.70	12.3697773879	24.21	134.00	Scattered_T-Storms(mostly_cloudy)	True	False	134.00
2010-05-29 19:00:00 2106 19 7.48 7.48 7.48 46.7 60.50	12.3697773879	7.48	46.70	Isolated_T-Storms(fair)	True	False	46.70
2010-05-29 20:00:00 2107 20 0.17 0.17 0.17 0.0 1.40	12.3697773879	0.17	0.00	Isolated_T-Storms(partly_cloudy)	True	False	0.00
2010-05-29 21:00:00 2108 21 0.00 0.00 0.00 0.0 0.00	12.3697773879	0.00	0.00	Isolated_T-Storms(fair)	True	False	0.00
2010-05-29 22:00:00 2109 22 0.00 0.00 0.00 0.0 0.00	61.6495851635	0.00	0.00	Mostly_Cloudy(light_rain)	True	False	0.00
2010-05-29 23:00:00 2110 23 0.00 0.00 0.00 0.0 0.00	61.6495851635	0.00	0.00	Mostly_Cloudy(cloudy)	True	False	0.00
2010-05-30 00:00:00 2111 0 0.00 0.00 0.00 0.0 0.00	61.6495851635	0.00	0.00	Mostly_Cloudy(partly_cloudy)	True	False	0.00
2010-05-30 01:00:00 2112 1 0.00 0.00 0.00 0.0 0.00	80.4696235557	0.00	0.00	Partly_Cloudy(fog)	True	False	0.00
2010-05-30 02:00:00 2113 2 0.00 0.00 0.00 0.0 0.00	80.4696235557	0.00	0.00	Partly_Cloudy(fog)	True	False	0.00
2010-05-30 03:00:00 2114 3 0.00 0.00 0.00 0.0 0.00	80.4696235557	0.00	0.00	Partly_Cloudy(fog)	True	False	0.00
2010-05-30 04:00:00 2115 4 0.00 0.00 0.00 0.0 0.00	61.6495851635	0.00	0.00	Mostly_Cloudy(fog)	True	False	0.00
2010-05-30 05:00:00 2116 5 0.43 0.43 0.43 0.0 0.70	61.6495851635	0.43	0.00	Mostly_Cloudy(sunny)	True	False	0.00
2010-05-30 06:00:00 2117 6 44.82 44.82 44.82 58.3 72.70	61.6495851635	44.82	58.30	Mostly_Cloudy(fog)	True	False	58.30
2010-05-30 07:00:00 2118 7 165.41 165.41 165.41 248.5 268.30	61.6495851635	165.41	248.50	Mostly_Cloudy(sunny)	True	False	248.50
2010-05-30 08:00:00 2119 8 337.47 337.47 337.47 531.8 547.40	61.6495851635	337.47	531.80	Mostly_Cloudy(sunny)	True	False	531.80
2010-05-30 09:00:00 2120 9 504.91 504.91 504.91 720.1 819.00	61.6495851635	504.91	720.10	Mostly_Cloudy(sunny)	True	False	720.10
2010-05-30 10:00:00 2121 10 850.84 850.84 850.84 928.4 1000.10	85.0756466569	850.84	928.40	Partly_Cloudy(sunny)	True	False	928.40
2010-05-30 11:00:00 2122 11 928.26 928.26 928.26 1051.8 1091.10	85.0756466569	928.26	1051.80	Partly_Cloudy(sunny)	True	False	1051.80
2010-05-30 12:00:00 2123 12 1057.68 1057.68 1057.68 1094.2 1129.80	93.616398243	1057.68	1094.20	Sunny(sunny)	True	False	1094.20
2010-05-30 13:00:00 2124 13 1010.96 1010.96 1010.96 1079.9 1079.90	93.616398243	1010.96	1079.90	Sunny(sunny)	True	False	1079.90
