2010-06-26 06:00:00 35837 6 57.98 57.98 57.98 42.1 73.50	78.8833907057	57.98	42.10	Mostly_Sunny(sunny)	False	False	42.10
2010-06-26 07:00:00 35838 7 160.72 160.72 160.72 175.7 220.30	72.9561101549	160.72	175.70	Sunny(sunny)	True	False	175.70
2010-06-26 08:00:00 35839 8 354.49 354.49 354.49 376.4 485.90	72.9561101549	354.49	376.40	Sunny(sunny)	True	False	376.40
2010-06-26 09:00:00 35840 9 542.57 542.57 542.57 558.7 743.70	72.9561101549	542.57	558.70	Sunny(sunny)	True	False	558.70
2010-06-26 10:00:00 35841 10 678.20 678.20 678.20 702.7 929.60	72.9561101549	678.20	702.70	Mostly_Sunny(sunny)	False	False	702.70
2010-06-26 11:00:00 35842 11 755.39 755.39 755.39 765.0 1035.40	72.9561101549	755.39	765.00	Mostly_Sunny(sunny)	False	False	765.00
2010-06-26 12:00:00 35843 12 684.91 684.91 684.91 745.9 938.80	72.9561101549	684.91	745.90	Mostly_Sunny(sunny)	False	False	745.90
2010-06-26 13:00:00 35844 13 764.23 764.23 764.23 746.9 995.60	76.760930815	764.23	746.90	Partly_Cloudy(sunny)	True	False	746.90
2010-06-26 14:00:00 35845 14 735.60 735.60 735.60 778.4 958.30	76.760930815	735.60	778.40	Partly_Cloudy(sunny)	True	False	778.40
2010-06-26 15:00:00 35846 15 720.86 720.86 720.86 594.3 939.10	76.760930815	720.86	594.30	Partly_Cloudy(fair)	True	False	594.30
2010-06-26 16:00:00 35847 16 544.42 544.42 544.42 398.0 735.80	73.9900136178	544.42	398.00	Partly_Cloudy(partly_cloudy)	True	False	398.00
2010-06-26 17:00:00 35848 17 358.63 358.63 358.63 252.0 484.70	73.9900136178	358.63	252.00	Partly_Cloudy(partly_cloudy)	True	False	252.00
2010-06-26 18:00:00 35849 18 158.49 158.49 158.49 103.7 214.20	73.9900136178	158.49	103.70	Partly_Cloudy(partly_cloudy)	True	False	103.70
2010-06-26 19:00:00 35850 19 13.72 13.72 13.72 17.6 81.40	16.8553200247	13.72	17.60	Isolated_T-Storms(cloudy)	True	False	17.60
2010-06-26 20:00:00 35851 20 1.13 1.13 1.13 0.0 6.70	16.8553200247	1.13	0.00	Isolated_T-Storms(mostly_cloudy)	True	False	0.00
2010-06-26 21:00:00 35852 21 0.00 0.00 0.00 0.0 0.00	16.8553200247	0.00	0.00	Isolated_T-Storms(mostly_cloudy)	True	False	0.00
2010-06-26 22:00:00 35853 22 0.00 0.00 0.00 0.0 0.00	16.8553200247	0.00	0.00	Scattered_T-Storms(mostly_cloudy)	True	False	0.00
2010-06-26 23:00:00 35854 23 0.00 0.00 0.00 0.0 0.00	16.8553200247	0.00	0.00	Scattered_T-Storms(mostly_cloudy)	True	False	0.00
2010-06-27 00:00:00 35855 0 0.00 0.00 0.00 0.0 0.00	16.8553200247	0.00	0.00	Scattered_T-Storms(cloudy)	True	False	0.00
2010-06-27 01:00:00 35856 1 0.00 0.00 0.00 0.0 0.00	16.8553200247	0.00	0.00	Scattered_T-Storms(cloudy)	True	False	0.00
2010-06-27 02:00:00 35857 2 0.00 0.00 0.00 0.0 0.00	16.8553200247	0.00	0.00	Scattered_T-Storms(mostly_cloudy)	True	False	0.00
2010-06-27 03:00:00 35858 3 0.00 0.00 0.00 0.0 0.00	16.8553200247	0.00	0.00	Scattered_T-Storms(clear)	True	False	0.00
2010-06-27 04:00:00 35859 4 0.00 0.00 0.00 0.0 0.00	16.8553200247	0.00	0.00	Isolated_T-Storms(clear)	True	False	0.00
2010-06-27 05:00:00 35860 5 0.30 0.30 0.30 0.0 1.80	16.8553200247	0.30	0.00	Isolated_T-Storms(sunny)	True	False	0.00
2010-06-27 06:00:00 35861 6 12.39 12.39 12.39 41.9 73.50	16.8553200247	12.39	41.90	Isolated_T-Storms(sunny)	True	False	41.90
2010-06-27 07:00:00 35862 7 163.00 163.00 163.00 164.6 220.30	73.9900136178	163.00	164.60	Partly_Cloudy(sunny)	True	False	164.60
2010-06-27 08:00:00 35863 8 359.52 359.52 359.52 156.7 485.90	73.9900136178	359.52	156.70	Partly_Cloudy(partly_cloudy)	True	False	156.70
2010-06-27 09:00:00 35864 9 550.26 550.26 550.26 328.6 743.70	73.9900136178	550.26	328.60	Partly_Cloudy(mostly_cloudy)	True	False	328.60
2010-06-27 10:00:00 35865 10 159.00 159.00 159.00 557.1 929.60	17.104130809	159.00	557.10	Few_Showers(mostly_cloudy)	True	False	557.10
2010-06-27 11:00:00 35866 11 177.10 177.10 177.10 615.2 1035.40	17.104130809	177.10	615.20	Few_Showers(mostly_cloudy)	True	False	615.20
2010-06-27 12:00:00 35867 12 160.57 160.57 160.57 724.0 938.80	17.104130809	160.57	724.00	Few_Showers(fair)	True	False	724.00
2010-06-27 13:00:00 35868 13 764.23 764.23 764.23 729.9 995.60	76.760930815	764.23	729.90	Partly_Cloudy(fair)	True	False	729.90
2010-06-27 14:00:00 35869 14 735.60 735.60 735.60 664.1 958.30	76.760930815	735.60	664.10	Partly_Cloudy(mostly_cloudy)	True	False	664.10
2010-06-27 15:00:00 35870 15 720.86 720.86 720.86 679.1 939.10	76.760930815	720.86	679.10	Partly_Cloudy(fair)	True	False	679.10
2010-06-27 16:00:00 35871 16 124.02 124.02 124.02 519.5 735.80	16.8553200247	124.02	519.50	Isolated_T-Storms(fair)	True	False	519.50
2010-06-27 17:00:00 35872 17 81.70 81.70 81.70 320.6 484.70	16.8553200247	81.70	320.60	Isolated_T-Storms(fair)	True	False	320.60
2010-06-27 18:00:00 35873 18 36.10 36.10 36.10 145.0 214.20	16.8553200247	36.10	145.00	Isolated_T-Storms(sunny)	True	False	145.00
2010-06-27 19:00:00 35874 19 13.72 13.72 13.72 36.8 81.40	16.8553200247	13.72	36.80	Isolated_T-Storms(sunny)	True	False	36.80
2010-06-27 20:00:00 35875 20 1.13 1.13 1.13 1.0 6.70	16.8553200247	1.13	1.00	Isolated_T-Storms(sunny)	True	False	1.00
2010-06-27 21:00:00 35876 21 0.00 0.00 0.00 0.0 0.00	16.8553200247	0.00	0.00	Isolated_T-Storms(clear)	True	False	0.00
2010-06-27 22:00:00 35877 22 0.00 0.00 0.00 0.0 0.00	73.9900136178	0.00	0.00	Partly_Cloudy(clear)	True	False	0.00
2010-06-27 23:00:00 35878 23 0.00 0.00 0.00 0.0 0.00	73.9900136178	0.00	0.00	Partly_Cloudy(partly_cloudy)	True	False	0.00
2010-06-28 00:00:00 35879 0 0.00 0.00 0.00 0.0 0.00	73.9900136178	0.00	0.00	Partly_Cloudy(clear)	True	False	0.00
2010-06-28 01:00:00 35880 1 0.00 0.00 0.00 0.0 0.00	73.9900136178	0.00	0.00	Partly_Cloudy(partly_cloudy)	True	False	0.00
2010-06-28 02:00:00 35881 2 0.00 0.00 0.00 0.0 0.00	73.9900136178	0.00	0.00	Partly_Cloudy(clear)	True	False	0.00
2010-06-28 03:00:00 35882 3 0.00 0.00 0.00 0.0 0.00	73.9900136178	0.00	0.00	Partly_Cloudy(fair)	True	False	0.00
2010-06-28 04:00:00 35883 4 0.00 0.00 0.00 0.0 0.00	65.9705159705	0.00	0.00	Mostly_Cloudy(partly_cloudy)	True	False	0.00
2010-06-28 05:00:00 35884 5 1.19 1.19 1.19 0.0 1.80	65.9705159705	1.19	0.00	Mostly_Cloudy(sunny)	True	False	0.00
2010-06-28 06:00:00 35885 6 48.49 48.49 48.49 12.8 73.50	65.9705159705	48.49	12.80	Mostly_Cloudy(sunny)	True	False	12.80
