2010-07-10 03:00:00 52154 3 0.00 0.00 0.00 0.0 0.00	24.4288948343	0.00	0.00	Isolated_T-Storms(partly_cloudy)	True	False	0.00
2010-07-10 04:00:00 52155 4 0.00 0.00 0.00 0.0 0.00	59.4021124104	0.00	0.00	Mostly_Cloudy(cloudy)	True	False	0.00
2010-07-10 05:00:00 52156 5 0.18 0.18 0.18 0.0 0.30	59.4021124104	0.18	0.00	Mostly_Cloudy(cloudy)	True	False	0.00
2010-07-10 06:00:00 52157 6 46.16 46.16 46.16 69.5 77.70	59.4021124104	46.16	69.50	Mostly_Cloudy(cloudy)	True	False	69.50
2010-07-10 07:00:00 52158 7 50.67 50.67 50.67 182.8 207.40	24.4288948343	50.67	182.80	Scattered_T-Storms(cloudy)	True	False	182.80
2010-07-10 08:00:00 52159 8 118.70 118.70 118.70 173.9 485.90	24.4288948343	118.70	173.90	Scattered_T-Storms(cloudy)	True	False	173.90
2010-07-10 09:00:00 52160 9 182.02 182.02 182.02 247.3 745.10	24.4288948343	182.02	247.30	Scattered_T-Storms(cloudy)	True	False	247.30
2010-07-10 10:00:00 52161 10 209.58 209.58 209.58 188.2 919.50	22.7933391087	209.58	188.20	Showers(light_rain)	True	False	188.20
2010-07-10 11:00:00 52162 11 236.80 236.80 236.80 145.8 1038.90	22.7933391087	236.80	145.80	Showers(light_rain)	True	False	145.80
2010-07-10 12:00:00 52163 12 252.57 252.57 252.57 203.5 1108.10	22.7933391087	252.57	203.50	Showers(light_rain)	True	False	203.50
2010-07-10 13:00:00 52164 13 230.09 230.09 230.09 242.7 1107.70	20.7721587819	230.09	242.70	Scattered_T-Storms(fair)	True	False	242.70
2010-07-10 14:00:00 52165 14 220.27 220.27 220.27 269.3 1060.40	20.7721587819	220.27	269.30	Scattered_T-Storms(cloudy)	True	False	269.30
2010-07-10 15:00:00 52166 15 195.07 195.07 195.07 233.6 939.10	20.7721587819	195.07	233.60	Scattered_T-Storms(fair)	True	False	233.60
2010-07-10 16:00:00 52167 16 185.39 185.39 185.39 321.8 758.90	24.4288948343	185.39	321.80	Scattered_T-Storms(partly_cloudy)	True	False	321.80
2010-07-10 17:00:00 52168 17 121.83 121.83 121.83 357.1 498.70	24.4288948343	121.83	357.10	Scattered_T-Storms(mostly_cloudy)	True	False	357.10
2010-07-10 18:00:00 52169 18 55.16 55.16 55.16 211.2 225.80	24.4288948343	55.16	211.20	Scattered_T-Storms(mostly_cloudy)	True	False	211.20
2010-07-10 19:00:00 52170 19 19.89 19.89 19.89 49.3 81.40	24.4288948343	19.89	49.30	Scattered_T-Storms(partly_cloudy)	True	False	49.30
2010-07-10 20:00:00 52171 20 1.66 1.66 1.66 0.8 6.80	24.4288948343	1.66	0.80	Scattered_T-Storms(fair)	True	False	0.80
2010-07-10 21:00:00 52172 21 0.00 0.00 0.00 0.0 0.00	24.4288948343	0.00	0.00	Scattered_T-Storms(fair)	True	False	0.00
2010-07-10 22:00:00 52173 22 0.00 0.00 0.00 0.0 0.00	24.4288948343	0.00	0.00	Scattered_T-Storms(fair)	True	False	0.00
2010-07-10 23:00:00 52174 23 0.00 0.00 0.00 0.0 0.00	24.4288948343	0.00	0.00	Scattered_T-Storms(partly_cloudy)	True	False	0.00
2010-07-11 00:00:00 52175 0 0.00 0.00 0.00 0.0 0.00	24.4288948343	0.00	0.00	Scattered_T-Storms(fair)	True	False	0.00
2010-07-11 01:00:00 52176 1 0.00 0.00 0.00 0.0 0.00	73.8263950399	0.00	0.00	Partly_Cloudy(partly_cloudy)	True	False	0.00
2010-07-11 02:00:00 52177 2 0.00 0.00 0.00 0.0 0.00	73.8263950399	0.00	0.00	Partly_Cloudy(mostly_cloudy)	True	False	0.00
2010-07-11 03:00:00 52178 3 0.00 0.00 0.00 0.0 0.00	73.8263950399	0.00	0.00	Partly_Cloudy(fair)	True	False	0.00
2010-07-11 04:00:00 52179 4 0.00 0.00 0.00 0.0 0.00	73.8263950399	0.00	0.00	Partly_Cloudy(fair)	True	False	0.00
2010-07-11 05:00:00 52180 5 0.22 0.22 0.22 0.0 0.30	73.8263950399	0.22	0.00	Partly_Cloudy(partly_cloudy)	True	False	0.00
2010-07-11 06:00:00 52181 6 57.36 57.36 57.36 34.9 77.70	73.8263950399	57.36	34.90	Partly_Cloudy(partly_cloudy)	True	False	34.90
2010-07-11 07:00:00 52182 7 153.12 153.12 153.12 197.6 207.40	73.8263950399	153.12	197.60	Mostly_Sunny(fair)	False	False	197.60
2010-07-11 08:00:00 52183 8 358.72 358.72 358.72 420.7 485.90	73.8263950399	358.72	420.70	Mostly_Sunny(fair)	False	False	420.70
2010-07-11 09:00:00 52184 9 550.08 550.08 550.08 516.0 745.10	73.8263950399	550.08	516.00	Mostly_Sunny(fair)	False	False	516.00
2010-07-11 10:00:00 52185 10 678.83 678.83 678.83 629.8 919.50	73.8263950399	678.83	629.80	Mostly_Sunny(mostly_cloudy)	False	False	629.80
2010-07-11 11:00:00 52186 11 766.98 766.98 766.98 741.7 1038.90	73.8263950399	766.98	741.70	Mostly_Sunny(fair)	False	False	741.70
2010-07-11 12:00:00 52187 12 818.07 818.07 818.07 836.2 1108.10	73.8263950399	818.07	836.20	Mostly_Sunny(partly_cloudy)	False	False	836.20
2010-07-11 13:00:00 52188 13 817.77 817.77 817.77 400.6 1107.70	73.8263950399	817.77	400.60	Mostly_Sunny(fair)	False	False	400.60
2010-07-11 14:00:00 52189 14 782.86 782.86 782.86 311.1 1060.40	73.8263950399	782.86	311.10	Mostly_Sunny(fair)	False	False	311.10
2010-07-11 15:00:00 52190 15 693.30 693.30 693.30 206.1 939.10	73.8263950399	693.30	206.10	Mostly_Sunny(fair)	False	False	206.10
2010-07-11 16:00:00 52191 16 560.27 560.27 560.27 445.3 758.90	73.8263950399	560.27	445.30	Partly_Cloudy(fair)	True	False	445.30
2010-07-11 17:00:00 52192 17 368.17 368.17 368.17 452.3 498.70	73.8263950399	368.17	452.30	Partly_Cloudy(sunny)	True	False	452.30
2010-07-11 18:00:00 52193 18 166.70 166.70 166.70 219.8 225.80	73.8263950399	166.70	219.80	Partly_Cloudy(sunny)	True	False	219.80
2010-07-11 19:00:00 52194 19 62.73 62.73 62.73 37.2 81.40	77.0634814119	62.73	37.20	Sunny(sunny)	True	False	37.20
2010-07-11 20:00:00 52195 20 5.24 5.24 5.24 1.7 6.80	77.0634814119	5.24	1.70	Sunny(sunny)	True	False	1.70
2010-07-11 21:00:00 52196 21 0.00 0.00 0.00 0.0 0.00	77.0634814119	0.00	0.00	Clear(clear)	True	False	0.00
2010-07-11 22:00:00 52197 22 0.00 0.00 0.00 0.0 0.00	77.0634814119	0.00	0.00	Clear(clear)	True	False	0.00
2010-07-11 23:00:00 52198 23 0.00 0.00 0.00 0.0 0.00	77.0634814119	0.00	0.00	Clear(clear)	True	False	0.00
2010-07-12 00:00:00 52199 0 0.00 0.00 0.00 0.0 0.00	77.0634814119	0.00	0.00	Clear(clear)	True	False	0.00
2010-07-12 01:00:00 52200 1 0.00 0.00 0.00 0.0 0.00	77.0634814119	0.00	0.00	Clear(clear)	True	False	0.00
2010-07-12 02:00:00 52201 2 0.00 0.00 0.00 0.0 0.00	77.0634814119	0.00	0.00	Clear(clear)	True	False	0.00
2010-07-12 03:00:00 52202 3 0.00 0.00 0.00 0.0 0.00	77.0634814119	0.00	0.00	Clear(clear)	True	False	0.00
