2010-06-17 03:00:00 25106 3 0.00 0.00 0.00 0.0 0.00	13.0956956188	0.00	0.00	Isolated_T-Storms(fog)	True	False	0.00
2010-06-17 04:00:00 25107 4 0.00 0.00 0.00 0.0 0.00	75.5760368664	0.00	0.00	Partly_Cloudy(fog)	True	False	0.00
2010-06-17 05:00:00 25108 5 1.36 1.36 1.36 0.0 1.80	75.5760368664	1.36	0.00	Partly_Cloudy(sunny)	True	False	0.00
2010-06-17 06:00:00 25109 6 55.55 55.55 55.55 39.7 73.50	75.5760368664	55.55	39.70	Partly_Cloudy(sunny)	True	False	39.70
2010-06-17 07:00:00 25110 7 165.34 165.34 165.34 225.9 220.30	75.050077899	165.34	225.90	Sunny(sunny)	True	False	225.90
2010-06-17 08:00:00 25111 8 337.20 337.20 337.20 504.2 449.30	75.050077899	337.20	504.20	Sunny(sunny)	True	False	504.20
2010-06-17 09:00:00 25112 9 517.85 517.85 517.85 563.6 690.00	75.050077899	517.85	563.60	Sunny(partly_cloudy)	True	False	563.60
2010-06-17 10:00:00 25113 10 697.67 697.67 697.67 880.7 929.60	75.050077899	697.67	880.70	Mostly_Sunny(partly_cloudy)	False	False	880.70
2010-06-17 11:00:00 25114 11 708.62 708.62 708.62 961.2 944.20	75.050077899	708.62	961.20	Mostly_Sunny(partly_cloudy)	False	False	961.20
2010-06-17 12:00:00 25115 12 704.57 704.57 704.57 1024.1 938.80	75.050077899	704.57	1024.10	Mostly_Sunny(cloudy)	False	False	1024.10
2010-06-17 13:00:00 25116 13 781.12 781.12 781.12 689.0 1040.80	75.050077899	781.12	689.00	Mostly_Sunny(fair)	False	False	689.00
2010-06-17 14:00:00 25117 14 690.91 690.91 690.91 672.7 920.60	75.050077899	690.91	672.70	Mostly_Sunny(mostly_cloudy)	False	False	672.70
2010-06-17 15:00:00 25118 15 600.63 600.63 600.63 652.4 800.30	75.050077899	600.63	652.40	Mostly_Sunny(cloudy)	False	False	652.40
2010-06-17 16:00:00 25119 16 537.43 537.43 537.43 334.4 716.10	75.050077899	537.43	334.40	Sunny(cloudy)	True	False	334.40
2010-06-17 17:00:00 25120 17 362.27 362.27 362.27 294.3 482.70	75.050077899	362.27	294.30	Sunny(cloudy)	True	False	294.30
2010-06-17 18:00:00 25121 18 160.76 160.76 160.76 91.8 214.20	75.050077899	160.76	91.80	Sunny(cloudy)	True	False	91.80
2010-06-17 19:00:00 25122 19 51.78 51.78 51.78 20.6 69.00	75.050077899	51.78	20.60	Sunny(cloudy)	True	False	20.60
2010-06-17 20:00:00 25123 20 5.03 5.03 5.03 1.6 6.70	75.050077899	5.03	1.60	Sunny(partly_cloudy)	True	False	1.60
2010-06-17 21:00:00 25124 21 0.00 0.00 0.00 0.0 0.00	75.050077899	0.00	0.00	Clear(partly_cloudy)	True	False	0.00
2010-06-17 22:00:00 25125 22 0.00 0.00 0.00 0.0 0.00	75.050077899	0.00	0.00	Clear(partly_cloudy)	True	False	0.00
2010-06-17 23:00:00 25126 23 0.00 0.00 0.00 0.0 0.00	75.050077899	0.00	0.00	Clear(clear)	True	False	0.00
2010-06-18 00:00:00 25127 0 0.00 0.00 0.00 0.0 0.00	75.050077899	0.00	0.00	Clear(clear)	True	False	0.00
2010-06-18 01:00:00 25128 1 0.00 0.00 0.00 0.0 0.00	75.050077899	0.00	0.00	Clear(clear)	True	False	0.00
2010-06-18 02:00:00 25129 2 0.00 0.00 0.00 0.0 0.00	75.050077899	0.00	0.00	Clear(clear)	True	False	0.00
2010-06-18 03:00:00 25130 3 0.00 0.00 0.00 0.0 0.00	75.050077899	0.00	0.00	Clear(clear)	True	False	0.00
2010-06-18 04:00:00 25131 4 0.00 0.00 0.00 0.0 0.00	75.050077899	0.00	0.00	Clear(clear)	True	False	0.00
2010-06-18 05:00:00 25132 5 1.35 1.35 1.35 0.3 1.80	75.050077899	1.35	0.30	Clear(sunny)	True	False	0.30
2010-06-18 06:00:00 25133 6 55.16 55.16 55.16 41.8 73.50	75.050077899	55.16	41.80	Sunny(sunny)	True	False	41.80
2010-06-18 07:00:00 25134 7 165.34 165.34 165.34 189.8 220.30	75.050077899	165.34	189.80	Sunny(sunny)	True	False	189.80
2010-06-18 08:00:00 25135 8 337.20 337.20 337.20 401.6 449.30	75.050077899	337.20	401.60	Sunny(sunny)	True	False	401.60
2010-06-18 09:00:00 25136 9 517.85 517.85 517.85 594.3 690.00	75.050077899	517.85	594.30	Sunny(sunny)	True	False	594.30
2010-06-18 10:00:00 25137 10 729.40 729.40 729.40 733.0 929.60	78.4638554217	729.40	733.00	Sunny(sunny)	True	False	733.00
2010-06-18 11:00:00 25138 11 740.86 740.86 740.86 808.1 944.20	78.4638554217	740.86	808.10	Sunny(sunny)	True	False	808.10
2010-06-18 12:00:00 25139 12 736.62 736.62 736.62 806.7 938.80	78.4638554217	736.62	806.70	Sunny(sunny)	True	False	806.70
2010-06-18 13:00:00 25140 13 816.65 816.65 816.65 850.3 1040.80	78.4638554217	816.65	850.30	Sunny(fair)	True	False	850.30
2010-06-18 14:00:00 25141 14 722.34 722.34 722.34 801.1 920.60	78.4638554217	722.34	801.10	Sunny(sunny)	True	False	801.10
2010-06-18 15:00:00 25142 15 627.95 627.95 627.95 709.1 800.30	78.4638554217	627.95	709.10	Sunny(sunny)	True	False	709.10
2010-06-18 16:00:00 25143 16 537.43 537.43 537.43 552.2 716.10	75.050077899	537.43	552.20	Sunny(sunny)	True	False	552.20
2010-06-18 17:00:00 25144 17 362.27 362.27 362.27 345.2 482.70	75.050077899	362.27	345.20	Sunny(sunny)	True	False	345.20
2010-06-18 18:00:00 25145 18 160.76 160.76 160.76 143.3 214.20	75.050077899	160.76	143.30	Sunny(sunny)	True	False	143.30
2010-06-18 19:00:00 25146 19 51.78 51.78 51.78 28.7 69.00	75.050077899	51.78	28.70	Sunny(sunny)	True	False	28.70
2010-06-18 20:00:00 25147 20 5.03 5.03 5.03 1.8 6.70	75.050077899	5.03	1.80	Sunny(sunny)	True	False	1.80
2010-06-18 21:00:00 25148 21 0.00 0.00 0.00 0.0 0.00	75.050077899	0.00	0.00	Clear(clear)	True	False	0.00
2010-06-18 22:00:00 25149 22 0.00 0.00 0.00 0.0 0.00	75.050077899	0.00	0.00	Clear(clear)	True	False	0.00
2010-06-18 23:00:00 25150 23 0.00 0.00 0.00 0.0 0.00	75.050077899	0.00	0.00	Clear(clear)	True	False	0.00
2010-06-19 00:00:00 25151 0 0.00 0.00 0.00 0.0 0.00	75.050077899	0.00	0.00	Clear(clear)	True	False	0.00
2010-06-19 01:00:00 25152 1 0.00 0.00 0.00 0.0 0.00	75.050077899	0.00	0.00	Clear(clear)	True	False	0.00
2010-06-19 02:00:00 25153 2 0.00 0.00 0.00 0.0 0.00	75.050077899	0.00	0.00	Clear(clear)	True	False	0.00
2010-06-19 03:00:00 25154 3 0.00 0.00 0.00 0.0 0.00	75.050077899	0.00	0.00	Clear(clear)	True	False	0.00
