2010-06-08 16:00:00 15159 16 680.82 680.82 680.82 682.8 716.10	95.0730647709	680.82	682.80	Mostly_Sunny(sunny)	False	False	682.80
2010-06-08 17:00:00 15160 17 398.93 398.93 398.93 338.1 419.60	95.0730647709	398.93	338.10	Mostly_Sunny(partly_cloudy)	False	False	338.10
2010-06-08 18:00:00 15161 18 203.65 203.65 203.65 171.7 214.20	95.0730647709	203.65	171.70	Mostly_Sunny(sunny)	False	False	171.70
2010-06-08 19:00:00 15162 19 50.77 50.77 50.77 30.7 53.40	95.0730647709	50.77	30.70	Mostly_Sunny(mostly_cloudy)	False	False	30.70
2010-06-08 20:00:00 15163 20 2.66 2.66 2.66 0.4 2.80	95.0730647709	2.66	0.40	Mostly_Sunny(sunny)	False	False	0.40
2010-06-08 21:00:00 15164 21 0.00 0.00 0.00 0.0 0.00	95.0730647709	0.00	0.00	Mostly_Clear(fair)	False	False	0.00
2010-06-08 22:00:00 15165 22 0.00 0.00 0.00 0.0 0.00	78.9788933257	0.00	0.00	Partly_Cloudy(clear)	True	False	0.00
2010-06-08 23:00:00 15166 23 0.00 0.00 0.00 0.0 0.00	78.9788933257	0.00	0.00	Partly_Cloudy(fair)	True	False	0.00
2010-06-09 00:00:00 15167 0 0.00 0.00 0.00 0.0 0.00	78.9788933257	0.00	0.00	Partly_Cloudy(partly_cloudy)	True	False	0.00
2010-06-09 01:00:00 15168 1 0.00 0.00 0.00 0.0 0.00	78.9788933257	0.00	0.00	Partly_Cloudy(fair)	True	False	0.00
2010-06-09 02:00:00 15169 2 0.00 0.00 0.00 0.0 0.00	78.9788933257	0.00	0.00	Partly_Cloudy(partly_cloudy)	True	False	0.00
2010-06-09 03:00:00 15170 3 0.00 0.00 0.00 0.0 0.00	78.9788933257	0.00	0.00	Partly_Cloudy(mostly_cloudy)	True	False	0.00
2010-06-09 04:00:00 15171 4 0.00 0.00 0.00 0.0 0.00	78.9788933257	0.00	0.00	Partly_Cloudy(fair)	True	False	0.00
2010-06-09 05:00:00 15172 5 1.42 1.42 1.42 3.7 1.80	78.9788933257	1.42	3.70	Partly_Cloudy(sunny)	True	False	3.70
2010-06-09 06:00:00 15173 6 58.05 58.05 58.05 89.7 73.50	78.9788933257	58.05	89.70	Partly_Cloudy(fair)	True	False	89.70
2010-06-09 07:00:00 15174 7 161.36 161.36 161.36 188.7 248.50	64.9319381424	161.36	188.70	Mostly_Cloudy(partly_cloudy)	True	False	188.70
2010-06-09 08:00:00 15175 8 345.31 345.31 345.31 212.0 531.80	64.9319381424	345.31	212.00	Mostly_Cloudy(mostly_cloudy)	True	False	212.00
2010-06-09 09:00:00 15176 9 493.09 493.09 493.09 347.4 759.40	64.9319381424	493.09	347.40	Mostly_Cloudy(partly_cloudy)	True	False	347.40
2010-06-09 10:00:00 15177 10 118.62 118.62 118.62 319.6 929.60	12.7604407816	118.62	319.60	Showers(mostly_cloudy)	True	False	319.60
2010-06-09 11:00:00 15178 11 134.21 134.21 134.21 302.3 1051.80	12.7604407816	134.21	302.30	Showers(mostly_cloudy)	True	False	302.30
2010-06-09 12:00:00 15179 12 139.62 139.62 139.62 216.2 1094.20	12.7604407816	139.62	216.20	Showers(light_rain)	True	False	216.20
2010-06-09 13:00:00 15180 13 137.80 137.80 137.80 93.7 1079.90	12.7604407816	137.80	93.70	Rain(light_rain)	True	False	93.70
2010-06-09 14:00:00 15181 14 129.24 129.24 129.24 92.0 1012.80	12.7604407816	129.24	92.00	Rain(light_rain)	True	False	92.00
2010-06-09 15:00:00 15182 15 113.98 113.98 113.98 92.8 893.20	12.7604407816	113.98	92.80	Rain(light_rain)	True	False	92.80
2010-06-09 16:00:00 15183 16 101.76 101.76 101.76 70.3 716.10	14.2104130809	101.76	70.30	Rain(light_rain)	True	False	70.30
2010-06-09 17:00:00 15184 17 59.63 59.63 59.63 15.9 419.60	14.2104130809	59.63	15.90	Rain(light_rain)	True	False	15.90
2010-06-09 18:00:00 15185 18 30.44 30.44 30.44 6.2 214.20	14.2104130809	30.44	6.20	Rain(light_rain)	True	False	6.20
2010-06-09 19:00:00 15186 19 7.59 7.59 7.59 0.0 53.40	14.2104130809	7.59	0.00	Rain(light_rain)	True	False	0.00
2010-06-09 20:00:00 15187 20 0.40 0.40 0.40 0.0 2.80	14.2104130809	0.40	0.00	Rain(light_rain)	True	False	0.00
2010-06-09 21:00:00 15188 21 0.00 0.00 0.00 0.0 0.00	14.2104130809	0.00	0.00	Rain(light_rain)	True	False	0.00
2010-06-09 22:00:00 15189 22 0.00 0.00 0.00 0.0 0.00	14.2104130809	0.00	0.00	Showers(light_rain)	True	False	0.00
2010-06-09 23:00:00 15190 23 0.00 0.00 0.00 0.0 0.00	14.2104130809	0.00	0.00	Showers(light_rain)	True	False	0.00
2010-06-10 00:00:00 15191 0 0.00 0.00 0.00 0.0 0.00	14.2104130809	0.00	0.00	Showers(cloudy)	True	False	0.00
2010-06-10 01:00:00 15192 1 0.00 0.00 0.00 0.0 0.00	42.3436041083	0.00	0.00	Cloudy(cloudy)	True	False	0.00
2010-06-10 02:00:00 15193 2 0.00 0.00 0.00 0.0 0.00	42.3436041083	0.00	0.00	Cloudy(cloudy)	True	False	0.00
2010-06-10 03:00:00 15194 3 0.00 0.00 0.00 0.0 0.00	42.3436041083	0.00	0.00	Cloudy(cloudy)	True	False	0.00
2010-06-10 04:00:00 15195 4 0.00 0.00 0.00 0.0 0.00	42.3436041083	0.00	0.00	Cloudy(cloudy)	True	False	0.00
2010-06-10 05:00:00 15196 5 0.76 0.76 0.76 0.0 1.80	42.3436041083	0.76	0.00	Cloudy(cloudy)	True	False	0.00
2010-06-10 06:00:00 15197 6 31.12 31.12 31.12 2.5 73.50	42.3436041083	31.12	2.50	Cloudy(fog)	True	False	2.50
2010-06-10 07:00:00 15198 7 161.36 161.36 161.36 72.6 248.50	64.9319381424	161.36	72.60	Mostly_Cloudy(cloudy)	True	False	72.60
2010-06-10 08:00:00 15199 8 345.31 345.31 345.31 172.6 531.80	64.9319381424	345.31	172.60	Mostly_Cloudy(cloudy)	True	False	172.60
2010-06-10 09:00:00 15200 9 493.09 493.09 493.09 298.0 759.40	64.9319381424	493.09	298.00	Mostly_Cloudy(cloudy)	True	False	298.00
2010-06-10 10:00:00 15201 10 603.61 603.61 603.61 421.5 929.60	64.9319381424	603.61	421.50	Mostly_Sunny(cloudy)	False	False	421.50
2010-06-10 11:00:00 15202 11 682.95 682.95 682.95 802.2 1051.80	64.9319381424	682.95	802.20	Mostly_Sunny(cloudy)	False	False	802.20
2010-06-10 12:00:00 15203 12 710.49 710.49 710.49 756.0 1094.20	64.9319381424	710.49	756.00	Mostly_Sunny(cloudy)	False	False	756.00
2010-06-10 13:00:00 15204 13 854.13 854.13 854.13 1010.9 1079.90	79.0929834569	854.13	1010.90	Partly_Cloudy(partly_cloudy)	True	False	1010.90
2010-06-10 14:00:00 15205 14 801.05 801.05 801.05 676.7 1012.80	79.0929834569	801.05	676.70	Partly_Cloudy(fair)	True	False	676.70
2010-06-10 15:00:00 15206 15 706.46 706.46 706.46 356.6 893.20	79.0929834569	706.46	356.60	Partly_Cloudy(fair)	True	False	356.60
2010-06-10 16:00:00 15207 16 565.57 565.57 565.57 302.0 716.10	78.9788933257	565.57	302.00	Partly_Cloudy(cloudy)	True	False	302.00
