2010-07-18 20:00:00 62395 20 5.45 5.45 5.98 0.5 6.80	80.1350048216	5.98	0.50	Sunny(sunny)	True	False	0.50
2010-07-18 21:00:00 62396 21 0.00 0.00 0.00 0.0 0.00	80.1350048216	0.00	0.00	Clear(clear)	True	False	0.00
2010-07-18 22:00:00 62397 22 0.00 0.00 0.00 0.0 0.00	80.1350048216	0.00	0.00	Clear(clear)	True	False	0.00
2010-07-18 23:00:00 62398 23 0.00 0.00 0.00 0.0 0.00	80.1350048216	0.00	0.00	Clear(partly_cloudy)	True	False	0.00
2010-07-19 00:00:00 62399 0 0.00 0.00 0.00 0.0 0.00	80.1350048216	0.00	0.00	Clear(partly_cloudy)	True	False	0.00
2010-07-19 01:00:00 62400 1 0.00 0.00 0.00 0.0 0.00	80.1350048216	0.00	0.00	Mostly_Clear(partly_cloudy)	False	False	0.00
2010-07-19 02:00:00 62401 2 0.00 0.00 0.00 0.0 0.00	80.1350048216	0.00	0.00	Mostly_Clear(mostly_cloudy)	False	False	0.00
2010-07-19 03:00:00 62402 3 0.00 0.00 0.00 0.0 0.00	80.1350048216	0.00	0.00	Mostly_Clear(mostly_cloudy)	False	False	0.00
2010-07-19 04:00:00 62403 4 0.00 0.00 0.00 0.0 0.00	74.3959957648	0.00	0.00	Partly_Cloudy(fair)	True	False	0.00
2010-07-19 05:00:00 62404 5 0.07 0.07 0.07 0.0 0.10	74.3959957648	0.07	0.00	Partly_Cloudy(partly_cloudy)	True	False	0.00
2010-07-19 06:00:00 62405 6 57.81 57.81 57.81 31.8 77.70	74.3959957648	57.81	31.80	Partly_Cloudy(partly_cloudy)	True	False	31.80
2010-07-19 07:00:00 62406 7 154.30 154.30 154.30 168.5 207.40	74.3959957648	154.30	168.50	Partly_Cloudy(partly_cloudy)	True	False	168.50
2010-07-19 08:00:00 62407 8 361.49 361.49 361.49 328.2 485.90	74.3959957648	361.49	328.20	Partly_Cloudy(thunder)	True	False	328.20
2010-07-19 09:00:00 62408 9 554.32 554.32 554.32 188.2 745.10	74.3959957648	554.32	188.20	Partly_Cloudy(mostly_cloudy)	True	False	188.20
2010-07-19 10:00:00 62409 10 693.88 693.88 693.88 345.0 919.50	75.4625033842	693.88	345.00	Partly_Cloudy(mostly_cloudy)	True	False	345.00
2010-07-19 11:00:00 62410 11 783.98 783.98 783.98 931.2 1038.90	75.4625033842	783.98	931.20	Partly_Cloudy(partly_cloudy)	True	False	931.20
2010-07-19 12:00:00 62411 12 836.20 836.20 836.20 877.2 1108.10	75.4625033842	836.20	877.20	Partly_Cloudy(fair)	True	False	877.20
2010-07-19 13:00:00 62412 13 228.77 228.77 228.77 984.8 1107.70	20.6525839306	228.77	984.80	Scattered_T-Storms(fair)	True	False	984.80
2010-07-19 14:00:00 62413 14 219.00 219.00 219.00 968.8 1060.40	20.6525839306	219.00	968.80	Scattered_T-Storms(partly_cloudy)	True	False	968.80
2010-07-19 15:00:00 62414 15 193.95 193.95 193.95 719.2 939.10	20.6525839306	193.95	719.20	Scattered_T-Storms(mostly_cloudy)	True	False	719.20
2010-07-19 16:00:00 62415 16 194.78 194.78 194.78 516.3 758.90	25.6667335071	194.78	516.30	Scattered_T-Storms(mostly_cloudy)	True	False	516.30
2010-07-19 17:00:00 62416 17 128.00 128.00 128.00 232.3 498.70	25.6667335071	128.00	232.30	Scattered_T-Storms(fair)	True	False	232.30
2010-07-19 18:00:00 62417 18 57.96 57.96 57.96 86.2 225.80	25.6667335071	57.96	86.20	Scattered_T-Storms(mostly_cloudy)	True	False	86.20
2010-07-19 19:00:00 62418 19 20.89 20.89 20.89 44.7 81.40	25.6667335071	20.89	44.70	Isolated_T-Storms(t-storm)	True	False	44.70
2010-07-19 20:00:00 62419 20 1.75 1.75 1.75 5.2 6.80	25.6667335071	1.75	5.20	Isolated_T-Storms(partly_cloudy)	True	False	5.20
2010-07-19 21:00:00 62420 21 0.00 0.00 0.00 0.0 0.00	25.6667335071	0.00	0.00	Isolated_T-Storms(heavy_t-storm)	True	False	0.00
2010-07-19 22:00:00 62421 22 0.00 0.00 0.00 0.0 0.00	80.1350048216	0.00	0.00	Clear(fair)	True	False	0.00
2010-07-19 23:00:00 62422 23 0.00 0.00 0.00 0.0 0.00	80.1350048216	0.00	0.00	Clear(fair)	True	False	0.00
2010-07-20 00:00:00 62423 0 0.00 0.00 0.00 0.0 0.00	80.1350048216	0.00	0.00	Clear(fog)	True	False	0.00
2010-07-20 01:00:00 62424 1 0.00 0.00 0.00 0.0 0.00	80.1350048216	0.00	0.00	Clear(clear)	True	False	0.00
2010-07-20 02:00:00 62425 2 0.00 0.00 0.00 0.0 0.00	80.1350048216	0.00	0.00	Clear(partly_cloudy)	True	False	0.00
2010-07-20 03:00:00 62426 3 0.00 0.00 0.00 0.0 0.00	80.1350048216	0.00	0.00	Clear(fog)	True	False	0.00
2010-07-20 04:00:00 62427 4 0.00 0.00 0.00 0.0 0.00	74.3959957648	0.00	0.00	Partly_Cloudy(fog)	True	False	0.00
2010-07-20 05:00:00 62428 5 0.07 0.07 0.07 0.0 0.10	74.3959957648	0.07	0.00	Partly_Cloudy(fog)	True	False	0.00
2010-07-20 06:00:00 62429 6 57.81 57.81 57.81 29.5 77.70	74.3959957648	57.81	29.50	Partly_Cloudy(mostly_cloudy)	True	False	29.50
2010-07-20 07:00:00 62430 7 154.30 154.30 154.30 168.7 207.40	74.3959957648	154.30	168.70	Mostly_Sunny(fog)	False	False	168.70
2010-07-20 08:00:00 62431 8 361.49 361.49 361.49 389.8 485.90	74.3959957648	361.49	389.80	Mostly_Sunny(partly_cloudy)	False	False	389.80
2010-07-20 09:00:00 62432 9 554.32 554.32 554.32 489.4 745.10	74.3959957648	554.32	489.40	Mostly_Sunny(sunny)	False	False	489.40
2010-07-20 10:00:00 62433 10 693.88 693.88 693.88 781.8 919.50	75.4625033842	693.88	781.80	Partly_Cloudy(fair)	True	False	781.80
2010-07-20 11:00:00 62434 11 783.98 783.98 783.98 614.1 1038.90	75.4625033842	783.98	614.10	Partly_Cloudy(partly_cloudy)	True	False	614.10
2010-07-20 12:00:00 62435 12 836.20 836.20 836.20 401.2 1108.10	75.4625033842	836.20	401.20	Partly_Cloudy(partly_cloudy)	True	False	401.20
2010-07-20 13:00:00 62436 13 228.77 228.77 228.77 348.4 1107.70	20.6525839306	228.77	348.40	Isolated_T-Storms(mostly_cloudy)	True	False	348.40
2010-07-20 14:00:00 62437 14 219.00 219.00 219.00 619.6 1060.40	20.6525839306	219.00	619.60	Isolated_T-Storms(mostly_cloudy)	True	False	619.60
2010-07-20 15:00:00 62438 15 193.95 193.95 193.95 632.3 939.10	20.6525839306	193.95	632.30	Isolated_T-Storms(partly_cloudy)	True	False	632.30
2010-07-20 16:00:00 62439 16 194.78 194.78 194.78 698.7 758.90	25.6667335071	194.78	698.70	Scattered_T-Storms(partly_cloudy)	True	False	698.70
2010-07-20 17:00:00 62440 17 128.00 128.00 128.00 420.2 498.70	25.6667335071	128.00	420.20	Scattered_T-Storms(fair)	True	False	420.20
2010-07-20 18:00:00 62441 18 57.96 57.96 57.96 152.7 225.80	25.6667335071	57.96	152.70	Scattered_T-Storms(sunny)	True	False	152.70
2010-07-20 19:00:00 62442 19 47.03 47.03 47.03 56.0 81.40	57.7800829876	47.03	56.00	Mostly_Cloudy(sunny)	True	False	56.00
2010-07-20 20:00:00 62443 20 3.93 3.93 3.93 0.6 6.80	57.7800829876	3.93	0.60	Mostly_Cloudy(partly_cloudy)	True	False	0.60
