2010-07-11 12:00:00 53771 12 819.06 819.06 893.62 836.2 1108.10	73.9155035836	893.62	836.20	Partly_Cloudy(partly_cloudy)	True	False	836.20
2010-07-11 13:00:00 53772 13 818.76 818.76 835.90 400.6 1107.70	73.9155035836	835.90	400.60	Partly_Cloudy(fair)	True	False	400.60
2010-07-11 14:00:00 53773 14 783.80 783.80 800.20 311.1 1060.40	73.9155035836	800.20	311.10	Partly_Cloudy(fair)	True	False	311.10
2010-07-11 15:00:00 53774 15 694.14 694.14 708.67 206.1 939.10	73.9155035836	708.67	206.10	Partly_Cloudy(fair)	True	False	206.10
2010-07-11 16:00:00 53775 16 559.50 559.50 572.68 445.3 758.90	73.7248504622	572.68	445.30	Partly_Cloudy(fair)	True	False	445.30
2010-07-11 17:00:00 53776 17 367.67 367.67 376.33 452.3 498.70	73.7248504622	376.33	452.30	Partly_Cloudy(sunny)	True	False	452.30
2010-07-11 18:00:00 53777 18 166.47 166.47 170.39 219.8 225.80	73.7248504622	170.39	219.80	Partly_Cloudy(sunny)	True	False	219.80
2010-07-11 19:00:00 53778 19 60.01 60.01 61.43 37.2 81.40	73.7248504622	61.43	37.20	Partly_Cloudy(sunny)	True	False	37.20
2010-07-11 20:00:00 53779 20 5.01 5.01 5.13 1.7 6.80	73.7248504622	5.13	1.70	Partly_Cloudy(sunny)	True	False	1.70
2010-07-11 21:00:00 53780 21 0.00 0.00 0.00 0.0 0.00	73.7248504622	0.00	0.00	Partly_Cloudy(clear)	True	False	0.00
2010-07-11 22:00:00 53781 22 0.00 0.00 0.00 0.0 0.00	73.7248504622	0.00	0.00	Partly_Cloudy(clear)	True	False	0.00
2010-07-11 23:00:00 53782 23 0.00 0.00 0.00 0.0 0.00	73.7248504622	0.00	0.00	Partly_Cloudy(clear)	True	False	0.00
2010-07-12 00:00:00 53783 0 0.00 0.00 0.00 0.0 0.00	73.7248504622	0.00	0.00	Partly_Cloudy(clear)	True	False	0.00
2010-07-12 01:00:00 53784 1 0.00 0.00 0.00 0.0 0.00	77.1288743883	0.00	0.00	Clear(clear)	True	False	0.00
2010-07-12 02:00:00 53785 2 0.00 0.00 0.00 0.0 0.00	77.1288743883	0.00	0.00	Clear(clear)	True	False	0.00
2010-07-12 03:00:00 53786 3 0.00 0.00 0.00 0.0 0.00	77.1288743883	0.00	0.00	Clear(clear)	True	False	0.00
2010-07-12 04:00:00 53787 4 0.00 0.00 0.00 0.0 0.00	77.1288743883	0.00	0.00	Clear(fog)	True	False	0.00
2010-07-12 05:00:00 53788 5 0.23 0.23 0.23 0.0 0.30	77.1288743883	0.23	0.00	Clear(fair)	True	False	0.00
2010-07-12 06:00:00 53789 6 59.93 59.93 59.93 77.7 77.70	77.1288743883	59.93	77.70	Sunny(sunny)	True	False	77.70
2010-07-12 07:00:00 53790 7 159.97 159.97 159.97 186.0 207.40	77.1288743883	159.97	186.00	Sunny(sunny)	True	False	186.00
2010-07-12 08:00:00 53791 8 374.77 374.77 374.77 454.0 485.90	77.1288743883	374.77	454.00	Sunny(sunny)	True	False	454.00
2010-07-12 09:00:00 53792 9 574.69 574.69 574.69 518.0 745.10	77.1288743883	574.69	518.00	Sunny(sunny)	True	False	518.00
2010-07-12 10:00:00 53793 10 741.53 741.53 741.53 597.2 919.50	80.6445788571	741.53	597.20	Sunny(partly_cloudy)	True	False	597.20
2010-07-12 11:00:00 53794 11 837.82 837.82 837.82 898.0 1038.90	80.6445788571	837.82	898.00	Sunny(mostly_cloudy)	True	False	898.00
2010-07-12 12:00:00 53795 12 893.62 893.62 893.62 1031.2 1108.10	80.6445788571	893.62	1031.20	Sunny(partly_cloudy)	True	False	1031.20
2010-07-12 13:00:00 53796 13 893.30 893.30 893.30 927.1 1107.70	80.6445788571	893.30	927.10	Mostly_Sunny(fair)	False	False	927.10
2010-07-12 14:00:00 53797 14 855.16 855.16 855.16 907.1 1060.40	80.6445788571	855.16	907.10	Mostly_Sunny(sunny)	False	False	907.10
2010-07-12 15:00:00 53798 15 757.33 757.33 757.33 485.2 939.10	80.6445788571	757.33	485.20	Mostly_Sunny(sunny)	False	False	485.20
2010-07-12 16:00:00 53799 16 559.50 559.50 559.50 399.8 758.90	73.7248504622	559.50	399.80	Partly_Cloudy(partly_cloudy)	True	False	399.80
2010-07-12 17:00:00 53800 17 367.67 367.67 367.67 220.2 498.70	73.7248504622	367.67	220.20	Partly_Cloudy(mostly_cloudy)	True	False	220.20
2010-07-12 18:00:00 53801 18 166.47 166.47 166.47 71.7 225.80	73.7248504622	166.47	71.70	Partly_Cloudy(mostly_cloudy)	True	False	71.70
2010-07-12 19:00:00 53802 19 47.97 47.97 47.97 9.2 81.40	58.9373375686	47.97	9.20	Mostly_Cloudy(mostly_cloudy)	True	False	9.20
2010-07-12 20:00:00 53803 20 4.01 4.01 4.01 0.0 6.80	58.9373375686	4.01	0.00	Mostly_Cloudy(fair)	True	False	0.00
2010-07-12 21:00:00 53804 21 0.00 0.00 0.00 0.0 0.00	58.9373375686	0.00	0.00	Mostly_Cloudy(light_rain)	True	False	0.00
2010-07-12 22:00:00 53805 22 0.00 0.00 0.00 0.0 0.00	58.9373375686	0.00	0.00	Mostly_Cloudy(mostly_cloudy)	True	False	0.00
2010-07-12 23:00:00 53806 23 0.00 0.00 0.00 0.0 0.00	58.9373375686	0.00	0.00	Mostly_Cloudy(light_rain)	True	False	0.00
2010-07-13 00:00:00 53807 0 0.00 0.00 0.00 0.0 0.00	58.9373375686	0.00	0.00	Mostly_Cloudy(light_rain)	True	False	0.00
2010-07-13 01:00:00 53808 1 0.00 0.00 0.00 0.0 0.00	24.4288948343	0.00	0.00	Isolated_T-Storms(cloudy)	True	False	0.00
2010-07-13 02:00:00 53809 2 0.00 0.00 0.00 0.0 0.00	24.4288948343	0.00	0.00	Isolated_T-Storms(cloudy)	True	False	0.00
2010-07-13 03:00:00 53810 3 0.00 0.00 0.00 0.0 0.00	24.4288948343	0.00	0.00	Isolated_T-Storms(mostly_cloudy)	True	False	0.00
2010-07-13 04:00:00 53811 4 0.00 0.00 0.00 0.0 0.00	22.7933391087	0.00	0.00	Showers(mostly_cloudy)	True	False	0.00
2010-07-13 05:00:00 53812 5 0.07 0.07 0.07 0.0 0.30	22.7933391087	0.07	0.00	Showers(mostly_cloudy)	True	False	0.00
2010-07-13 06:00:00 53813 6 17.71 17.71 17.71 53.8 77.70	22.7933391087	17.71	53.80	Showers(partly_cloudy)	True	False	53.80
2010-07-13 07:00:00 53814 7 47.27 47.27 47.27 101.4 207.40	22.7933391087	47.27	101.40	Showers(partly_cloudy)	True	False	101.40
2010-07-13 08:00:00 53815 8 110.75 110.75 110.75 173.7 485.90	22.7933391087	110.75	173.70	Showers(mostly_cloudy)	True	False	173.70
2010-07-13 09:00:00 53816 9 169.83 169.83 169.83 209.4 745.10	22.7933391087	169.83	209.40	Showers(cloudy)	True	False	209.40
2010-07-13 10:00:00 53817 10 191.00 191.00 191.00 119.2 919.50	20.7721587819	191.00	119.20	Scattered_T-Storms(mostly_cloudy)	True	False	119.20
2010-07-13 11:00:00 53818 11 215.80 215.80 215.80 32.1 1038.90	20.7721587819	215.80	32.10	Scattered_T-Storms(heavy_rain)	True	False	32.10
2010-07-13 12:00:00 53819 12 230.18 230.18 230.18 203.2 1108.10	20.7721587819	230.18	203.20	Scattered_T-Storms(heavy_rain)	True	False	203.20
