2010-07-12 20:00:00 55339 20 4.11 5.52 5.52 0.0 6.80	60.4422604423	5.52	0.00	Mostly_Cloudy(fair)	True	False	0.00
2010-07-12 21:00:00 55340 21 0.00 0.00 0.00 0.0 0.00	60.4422604423	0.00	0.00	Mostly_Cloudy(light_rain)	True	False	0.00
2010-07-12 22:00:00 55341 22 0.00 0.00 0.00 0.0 0.00	27.3693534101	0.00	0.00	Isolated_T-Storms(mostly_cloudy)	True	False	0.00
2010-07-12 23:00:00 55342 23 0.00 0.00 0.00 0.0 0.00	27.3693534101	0.00	0.00	Isolated_T-Storms(light_rain)	True	False	0.00
2010-07-13 00:00:00 55343 0 0.00 0.00 0.00 0.0 0.00	27.3693534101	0.00	0.00	Isolated_T-Storms(light_rain)	True	False	0.00
2010-07-13 01:00:00 55344 1 0.00 0.00 0.00 0.0 0.00	27.3693534101	0.00	0.00	Isolated_T-Storms(cloudy)	True	False	0.00
2010-07-13 02:00:00 55345 2 0.00 0.00 0.00 0.0 0.00	27.3693534101	0.00	0.00	Isolated_T-Storms(cloudy)	True	False	0.00
2010-07-13 03:00:00 55346 3 0.00 0.00 0.00 0.0 0.00	27.3693534101	0.00	0.00	Isolated_T-Storms(mostly_cloudy)	True	False	0.00
2010-07-13 04:00:00 55347 4 0.00 0.00 0.00 0.0 0.00	22.7933391087	0.00	0.00	Showers(mostly_cloudy)	True	False	0.00
2010-07-13 05:00:00 55348 5 0.07 0.07 0.07 0.0 0.30	22.7933391087	0.07	0.00	Showers(mostly_cloudy)	True	False	0.00
2010-07-13 06:00:00 55349 6 17.71 17.71 17.71 53.8 77.70	22.7933391087	17.71	53.80	Showers(partly_cloudy)	True	False	53.80
2010-07-13 07:00:00 55350 7 47.27 47.27 47.27 101.4 207.40	22.7933391087	47.27	101.40	Showers(partly_cloudy)	True	False	101.40
2010-07-13 08:00:00 55351 8 110.75 110.75 110.75 173.7 485.90	22.7933391087	110.75	173.70	Showers(mostly_cloudy)	True	False	173.70
2010-07-13 09:00:00 55352 9 169.83 169.83 169.83 209.4 745.10	22.7933391087	169.83	209.40	Showers(cloudy)	True	False	209.40
2010-07-13 10:00:00 55353 10 209.58 209.58 209.58 119.2 919.50	22.7933391087	209.58	119.20	Showers(mostly_cloudy)	True	False	119.20
2010-07-13 11:00:00 55354 11 236.80 236.80 236.80 32.1 1038.90	22.7933391087	236.80	32.10	Showers(heavy_rain)	True	False	32.10
2010-07-13 12:00:00 55355 12 252.57 252.57 252.57 203.2 1108.10	22.7933391087	252.57	203.20	Showers(heavy_rain)	True	False	203.20
2010-07-13 13:00:00 55356 13 230.09 230.09 230.09 902.3 1107.70	20.7721587819	230.09	902.30	Scattered_T-Storms(mostly_cloudy)	True	False	902.30
2010-07-13 14:00:00 55357 14 220.27 220.27 220.27 669.2 1060.40	20.7721587819	220.27	669.20	Scattered_T-Storms(partly_cloudy)	True	False	669.20
2010-07-13 15:00:00 55358 15 195.07 195.07 195.07 490.0 939.10	20.7721587819	195.07	490.00	Scattered_T-Storms(mostly_cloudy)	True	False	490.00
2010-07-13 16:00:00 55359 16 207.71 207.71 207.71 308.9 758.90	27.3693534101	207.71	308.90	Scattered_T-Storms(partly_cloudy)	True	False	308.90
2010-07-13 17:00:00 55360 17 136.49 136.49 136.49 274.5 498.70	27.3693534101	136.49	274.50	Scattered_T-Storms(mostly_cloudy)	True	False	274.50
2010-07-13 18:00:00 55361 18 61.80 61.80 61.80 225.8 225.80	27.3693534101	61.80	225.80	Scattered_T-Storms(partly_cloudy)	True	False	225.80
2010-07-13 19:00:00 55362 19 22.28 22.28 22.28 39.8 81.40	27.3693534101	22.28	39.80	Scattered_T-Storms(partly_cloudy)	True	False	39.80
2010-07-13 20:00:00 55363 20 1.86 1.86 1.86 0.0 6.80	27.3693534101	1.86	0.00	Scattered_T-Storms(partly_cloudy)	True	False	0.00
2010-07-13 21:00:00 55364 21 0.00 0.00 0.00 0.0 0.00	27.3693534101	0.00	0.00	Scattered_T-Storms(mostly_cloudy)	True	False	0.00
2010-07-13 22:00:00 55365 22 0.00 0.00 0.00 0.0 0.00	27.3693534101	0.00	0.00	Scattered_T-Storms(mostly_cloudy)	True	False	0.00
2010-07-13 23:00:00 55366 23 0.00 0.00 0.00 0.0 0.00	27.3693534101	0.00	0.00	Scattered_T-Storms(rain)	True	False	0.00
2010-07-14 00:00:00 55367 0 0.00 0.00 0.00 0.0 0.00	27.3693534101	0.00	0.00	Scattered_T-Storms(partly_cloudy)	True	False	0.00
2010-07-14 01:00:00 55368 1 0.00 0.00 0.00 0.0 0.00	27.3693534101	0.00	0.00	Scattered_T-Storms(fog)	True	False	0.00
2010-07-14 02:00:00 55369 2 0.00 0.00 0.00 0.0 0.00	27.3693534101	0.00	0.00	Scattered_T-Storms(fog)	True	False	0.00
2010-07-14 03:00:00 55370 3 0.00 0.00 0.00 0.0 0.00	27.3693534101	0.00	0.00	Scattered_T-Storms(fog)	True	False	0.00
2010-07-14 04:00:00 55371 4 0.00 0.00 0.00 0.0 0.00	27.3693534101	0.00	0.00	Scattered_T-Storms(fog)	True	False	0.00
2010-07-14 05:00:00 55372 5 0.08 0.08 0.08 0.0 0.30	27.3693534101	0.08	0.00	Scattered_T-Storms(light_rain)	True	False	0.00
2010-07-14 06:00:00 55373 6 21.27 21.27 21.27 0.0 77.70	27.3693534101	21.27	0.00	Scattered_T-Storms(light_rain)	True	False	0.00
2010-07-14 07:00:00 55374 7 56.76 56.76 56.76 69.3 207.40	27.3693534101	56.76	69.30	Scattered_T-Storms(mostly_cloudy)	True	False	69.30
2010-07-14 08:00:00 55375 8 132.99 132.99 132.99 118.7 485.90	27.3693534101	132.99	118.70	Scattered_T-Storms(light_rain)	True	False	118.70
2010-07-14 09:00:00 55376 9 203.93 203.93 203.93 272.1 745.10	27.3693534101	203.93	272.10	Scattered_T-Storms(light_rain)	True	False	272.10
2010-07-14 10:00:00 55377 10 191.00 191.00 191.00 508.0 919.50	20.7721587819	191.00	508.00	Scattered_T-Storms(rain)	True	False	508.00
2010-07-14 11:00:00 55378 11 215.80 215.80 215.80 635.2 1038.90	20.7721587819	215.80	635.20	Scattered_T-Storms(light_rain)	True	False	635.20
2010-07-14 12:00:00 55379 12 230.18 230.18 230.18 410.0 1108.10	20.7721587819	230.18	410.00	Scattered_T-Storms(light_rain)	True	False	410.00
2010-07-14 13:00:00 55380 13 230.09 230.09 230.09 110.6 1107.70	20.7721587819	230.09	110.60	Few_Showers(cloudy)	True	False	110.60
2010-07-14 14:00:00 55381 14 220.27 220.27 220.27 219.0 1060.40	20.7721587819	220.27	219.00	Few_Showers(light_rain)	True	False	219.00
2010-07-14 15:00:00 55382 15 195.07 195.07 195.07 61.9 939.10	20.7721587819	195.07	61.90	Few_Showers(cloudy)	True	False	61.90
2010-07-14 16:00:00 55383 16 207.71 207.71 207.71 122.2 758.90	27.3693534101	207.71	122.20	Isolated_T-Storms(cloudy)	True	False	122.20
2010-07-14 17:00:00 55384 17 136.49 136.49 136.49 161.6 498.70	27.3693534101	136.49	161.60	Isolated_T-Storms(mostly_cloudy)	True	False	161.60
2010-07-14 18:00:00 55385 18 61.80 61.80 61.80 125.7 225.80	27.3693534101	61.80	125.70	Isolated_T-Storms(mostly_cloudy)	True	False	125.70
2010-07-14 19:00:00 55386 19 49.20 49.20 49.20 51.3 81.40	60.4422604423	49.20	51.30	Mostly_Cloudy(mostly_cloudy)	True	False	51.30
2010-07-14 20:00:00 55387 20 4.11 4.11 4.11 6.8 6.80	60.4422604423	4.11	6.80	Mostly_Cloudy(mostly_cloudy)	True	False	6.80
