2010-06-20 12:00:00 29075 12 780.31 765.34 765.34 597.1 938.80	83.1179834781	765.34	597.10	Partly_Cloudy(fair)	True	False	597.10
2010-06-20 13:00:00 29076 13 865.09 661.97 661.97 738.0 1040.80	83.1179834781	661.97	738.00	Partly_Cloudy(sunny)	True	False	738.00
2010-06-20 14:00:00 29077 14 790.37 604.80 604.80 724.7 950.90	83.1179834781	604.80	724.70	Partly_Cloudy(fair)	True	False	724.70
2010-06-20 15:00:00 29078 15 665.19 509.01 509.01 576.1 800.30	83.1179834781	509.01	576.10	Partly_Cloudy(partly_cloudy)	True	False	576.10
2010-06-20 16:00:00 29079 16 540.73 455.46 455.46 540.6 716.10	75.5102040816	455.46	540.60	Partly_Cloudy(fair)	True	False	540.60
2010-06-20 17:00:00 29080 17 364.49 307.01 307.01 353.0 482.70	75.5102040816	307.01	353.00	Partly_Cloudy(fair)	True	False	353.00
2010-06-20 18:00:00 29081 18 161.74 136.24 136.24 142.6 214.20	75.5102040816	136.24	142.60	Partly_Cloudy(sunny)	True	False	142.60
2010-06-20 19:00:00 29082 19 61.47 51.77 51.77 37.0 81.40	75.5102040816	51.77	37.00	Partly_Cloudy(sunny)	True	False	37.00
2010-06-20 20:00:00 29083 20 5.06 4.26 4.26 2.8 6.70	75.5102040816	4.26	2.80	Partly_Cloudy(sunny)	True	False	2.80
2010-06-20 21:00:00 29084 21 0.00 0.00 0.00 0.0 0.00	75.5102040816	0.00	0.00	Partly_Cloudy(clear)	True	False	0.00
2010-06-20 22:00:00 29085 22 0.00 0.00 0.00 0.0 0.00	76.4629948365	0.00	0.00	Clear(clear)	True	False	0.00
2010-06-20 23:00:00 29086 23 0.00 0.00 0.00 0.0 0.00	76.4629948365	0.00	0.00	Clear(clear)	True	False	0.00
2010-06-21 00:00:00 29087 0 0.00 0.00 0.00 0.0 0.00	76.4629948365	0.00	0.00	Clear(clear)	True	False	0.00
2010-06-21 01:00:00 29088 1 0.00 0.00 0.00 0.0 0.00	76.4629948365	0.00	0.00	Clear(fair)	True	False	0.00
2010-06-21 02:00:00 29089 2 0.00 0.00 0.00 0.0 0.00	76.4629948365	0.00	0.00	Clear(clear)	True	False	0.00
2010-06-21 03:00:00 29090 3 0.00 0.00 0.00 0.0 0.00	76.4629948365	0.00	0.00	Clear(clear)	True	False	0.00
2010-06-21 04:00:00 29091 4 0.00 0.00 0.00 0.0 0.00	76.4629948365	0.00	0.00	Clear(clear)	True	False	0.00
2010-06-21 05:00:00 29092 5 1.38 1.38 1.38 0.0 1.80	76.4629948365	1.38	0.00	Clear(sunny)	True	False	0.00
2010-06-21 06:00:00 29093 6 56.20 56.20 56.20 35.2 73.50	76.4629948365	56.20	35.20	Sunny(sunny)	True	False	35.20
2010-06-21 07:00:00 29094 7 168.45 168.45 168.45 175.9 220.30	76.4629948365	168.45	175.90	Sunny(sunny)	True	False	175.90
2010-06-21 08:00:00 29095 8 371.23 371.23 371.23 390.0 485.50	76.4629948365	371.23	390.00	Sunny(sunny)	True	False	390.00
2010-06-21 09:00:00 29096 9 530.96 530.96 530.96 579.6 694.40	76.4629948365	530.96	579.60	Sunny(sunny)	True	False	579.60
2010-06-21 10:00:00 29097 10 710.80 710.80 710.80 694.0 929.60	76.4629948365	710.80	694.00	Mostly_Sunny(sunny)	False	False	694.00
2010-06-21 11:00:00 29098 11 721.96 721.96 721.96 806.3 944.20	76.4629948365	721.96	806.30	Mostly_Sunny(sunny)	False	False	806.30
2010-06-21 12:00:00 29099 12 717.83 717.83 717.83 710.9 938.80	76.4629948365	717.83	710.90	Mostly_Sunny(fair)	False	False	710.90
2010-06-21 13:00:00 29100 13 795.83 795.83 795.83 759.8 1040.80	76.4629948365	795.83	759.80	Mostly_Sunny(partly_cloudy)	False	False	759.80
2010-06-21 14:00:00 29101 14 727.09 727.09 727.09 741.8 950.90	76.4629948365	727.09	741.80	Mostly_Sunny(fair)	False	False	741.80
2010-06-21 15:00:00 29102 15 611.93 611.93 611.93 695.9 800.30	76.4629948365	611.93	695.90	Mostly_Sunny(fair)	False	False	695.90
2010-06-21 16:00:00 29103 16 540.73 540.73 540.73 415.9 716.10	75.5102040816	540.73	415.90	Partly_Cloudy(fair)	True	False	415.90
2010-06-21 17:00:00 29104 17 364.49 364.49 364.49 352.2 482.70	75.5102040816	364.49	352.20	Partly_Cloudy(fair)	True	False	352.20
2010-06-21 18:00:00 29105 18 161.74 161.74 161.74 125.3 214.20	75.5102040816	161.74	125.30	Partly_Cloudy(sunny)	True	False	125.30
2010-06-21 19:00:00 29106 19 61.47 61.47 61.47 37.2 81.40	75.5102040816	61.47	37.20	Partly_Cloudy(sunny)	True	False	37.20
2010-06-21 20:00:00 29107 20 5.06 5.06 5.06 2.3 6.70	75.5102040816	5.06	2.30	Partly_Cloudy(sunny)	True	False	2.30
2010-06-21 21:00:00 29108 21 0.00 0.00 0.00 0.0 0.00	75.5102040816	0.00	0.00	Partly_Cloudy(clear)	True	False	0.00
2010-06-21 22:00:00 29109 22 0.00 0.00 0.00 0.0 0.00	75.5102040816	0.00	0.00	Partly_Cloudy(clear)	True	False	0.00
2010-06-21 23:00:00 29110 23 0.00 0.00 0.00 0.0 0.00	75.5102040816	0.00	0.00	Partly_Cloudy(clear)	True	False	0.00
2010-06-22 00:00:00 29111 0 0.00 0.00 0.00 0.0 0.00	75.5102040816	0.00	0.00	Partly_Cloudy(mostly_cloudy)	True	False	0.00
2010-06-22 01:00:00 29112 1 0.00 0.00 0.00 0.0 0.00	75.5102040816	0.00	0.00	Partly_Cloudy(clear)	True	False	0.00
2010-06-22 02:00:00 29113 2 0.00 0.00 0.00 0.0 0.00	75.5102040816	0.00	0.00	Partly_Cloudy(partly_cloudy)	True	False	0.00
2010-06-22 03:00:00 29114 3 0.00 0.00 0.00 0.0 0.00	75.5102040816	0.00	0.00	Partly_Cloudy(clear)	True	False	0.00
2010-06-22 04:00:00 29115 4 0.00 0.00 0.00 0.0 0.00	75.5102040816	0.00	0.00	Partly_Cloudy(partly_cloudy)	True	False	0.00
2010-06-22 05:00:00 29116 5 1.36 1.36 1.36 0.0 1.80	75.5102040816	1.36	0.00	Partly_Cloudy(partly_cloudy)	True	False	0.00
2010-06-22 06:00:00 29117 6 55.50 55.50 55.50 45.9 73.50	75.5102040816	55.50	45.90	Partly_Cloudy(partly_cloudy)	True	False	45.90
2010-06-22 07:00:00 29118 7 166.35 166.35 166.35 182.7 220.30	75.5102040816	166.35	182.70	Partly_Cloudy(sunny)	True	False	182.70
2010-06-22 08:00:00 29119 8 366.60 366.60 366.60 369.8 485.50	75.5102040816	366.60	369.80	Partly_Cloudy(partly_cloudy)	True	False	369.80
2010-06-22 09:00:00 29120 9 524.34 524.34 524.34 533.2 694.40	75.5102040816	524.34	533.20	Partly_Cloudy(partly_cloudy)	True	False	533.20
2010-06-22 10:00:00 29121 10 638.98 638.98 638.98 696.1 929.60	68.73668513	638.98	696.10	Mostly_Cloudy(sunny)	True	False	696.10
2010-06-22 11:00:00 29122 11 649.01 649.01 649.01 779.6 944.20	68.73668513	649.01	779.60	Mostly_Cloudy(sunny)	True	False	779.60
2010-06-22 12:00:00 29123 12 780.31 780.31 780.31 594.7 938.80	83.1179834781	780.31	594.70	Partly_Cloudy(fair)	True	False	594.70
