2010-06-27 05:00:00 36964 5 0.35 0.35 0.35 0.0 1.80	19.3496244176	0.35	0.00	Few_Showers(sunny)	True	False	0.00
2010-06-27 06:00:00 36965 6 14.22 14.22 14.22 41.9 73.50	19.3496244176	14.22	41.90	Few_Showers(sunny)	True	False	41.90
2010-06-27 07:00:00 36966 7 160.06 160.06 160.06 164.6 220.30	72.6556129383	160.06	164.60	Sunny(sunny)	True	False	164.60
2010-06-27 08:00:00 36967 8 353.03 353.03 353.03 156.7 485.90	72.6556129383	353.03	156.70	Sunny(partly_cloudy)	True	False	156.70
2010-06-27 09:00:00 36968 9 540.34 540.34 540.34 328.6 743.70	72.6556129383	540.34	328.60	Sunny(mostly_cloudy)	True	False	328.60
2010-06-27 10:00:00 36969 10 713.57 713.57 713.57 557.1 929.60	76.760930815	713.57	557.10	Partly_Cloudy(mostly_cloudy)	True	False	557.10
2010-06-27 11:00:00 36970 11 794.78 794.78 794.78 615.2 1035.40	76.760930815	794.78	615.20	Partly_Cloudy(mostly_cloudy)	True	False	615.20
2010-06-27 12:00:00 36971 12 807.29 807.29 807.29 724.0 1051.70	76.760930815	807.29	724.00	Partly_Cloudy(fair)	True	False	724.00
2010-06-27 13:00:00 36972 13 786.03 786.03 786.03 729.9 1024.00	76.760930815	786.03	729.90	Mostly_Sunny(fair)	False	False	729.90
2010-06-27 14:00:00 36973 14 735.60 735.60 735.60 664.1 958.30	76.760930815	735.60	664.10	Mostly_Sunny(mostly_cloudy)	False	False	664.10
2010-06-27 15:00:00 36974 15 720.86 720.86 720.86 679.1 939.10	76.760930815	720.86	679.10	Mostly_Sunny(fair)	False	False	679.10
2010-06-27 16:00:00 36975 16 142.37 142.37 142.37 519.5 735.80	19.3496244176	142.37	519.50	Isolated_T-Storms(fair)	True	False	519.50
2010-06-27 17:00:00 36976 17 93.79 93.79 93.79 320.6 484.70	19.3496244176	93.79	320.60	Isolated_T-Storms(fair)	True	False	320.60
2010-06-27 18:00:00 36977 18 42.53 42.53 42.53 145.0 219.80	19.3496244176	42.53	145.00	Isolated_T-Storms(sunny)	True	False	145.00
2010-06-27 19:00:00 36978 19 60.23 60.23 60.23 36.8 81.40	73.9900136178	60.23	36.80	Partly_Cloudy(sunny)	True	False	36.80
2010-06-27 20:00:00 36979 20 4.96 4.96 4.96 1.0 6.70	73.9900136178	4.96	1.00	Partly_Cloudy(sunny)	True	False	1.00
2010-06-27 21:00:00 36980 21 0.00 0.00 0.00 0.0 0.00	73.9900136178	0.00	0.00	Partly_Cloudy(clear)	True	False	0.00
2010-06-27 22:00:00 36981 22 0.00 0.00 0.00 0.0 0.00	73.9900136178	0.00	0.00	Partly_Cloudy(clear)	True	False	0.00
2010-06-27 23:00:00 36982 23 0.00 0.00 0.00 0.0 0.00	73.9900136178	0.00	0.00	Partly_Cloudy(partly_cloudy)	True	False	0.00
2010-06-28 00:00:00 36983 0 0.00 0.00 0.00 0.0 0.00	73.9900136178	0.00	0.00	Partly_Cloudy(clear)	True	False	0.00
2010-06-28 01:00:00 36984 1 0.00 0.00 0.00 0.0 0.00	73.9900136178	0.00	0.00	Partly_Cloudy(partly_cloudy)	True	False	0.00
2010-06-28 02:00:00 36985 2 0.00 0.00 0.00 0.0 0.00	73.9900136178	0.00	0.00	Partly_Cloudy(clear)	True	False	0.00
2010-06-28 03:00:00 36986 3 0.00 0.00 0.00 0.0 0.00	73.9900136178	0.00	0.00	Partly_Cloudy(fair)	True	False	0.00
2010-06-28 04:00:00 36987 4 0.00 0.00 0.00 0.0 0.00	73.9900136178	0.00	0.00	Partly_Cloudy(partly_cloudy)	True	False	0.00
2010-06-28 05:00:00 36988 5 1.33 1.33 1.33 0.0 1.80	73.9900136178	1.33	0.00	Partly_Cloudy(sunny)	True	False	0.00
2010-06-28 06:00:00 36989 6 54.38 54.38 54.38 12.8 73.50	73.9900136178	54.38	12.80	Partly_Cloudy(sunny)	True	False	12.80
2010-06-28 07:00:00 36990 7 163.00 163.00 163.00 155.5 220.30	73.9900136178	163.00	155.50	Partly_Cloudy(sunny)	True	False	155.50
2010-06-28 08:00:00 36991 8 359.52 359.52 359.52 352.6 485.90	73.9900136178	359.52	352.60	Partly_Cloudy(sunny)	True	False	352.60
2010-06-28 09:00:00 36992 9 550.26 550.26 550.26 541.9 743.70	73.9900136178	550.26	541.90	Partly_Cloudy(sunny)	True	False	541.90
2010-06-28 10:00:00 36993 10 713.57 713.57 713.57 694.4 929.60	76.760930815	713.57	694.40	Partly_Cloudy(fair)	True	False	694.40
2010-06-28 11:00:00 36994 11 794.78 794.78 794.78 700.2 1035.40	76.760930815	794.78	700.20	Partly_Cloudy(sunny)	True	False	700.20
2010-06-28 12:00:00 36995 12 807.29 807.29 807.29 432.4 1051.70	76.760930815	807.29	432.40	Partly_Cloudy(sunny)	True	False	432.40
2010-06-28 13:00:00 36996 13 198.14 198.14 198.14 739.9 1024.00	19.3496244176	198.14	739.90	Isolated_T-Storms(sunny)	True	False	739.90
2010-06-28 14:00:00 36997 14 185.43 185.43 185.43 763.0 958.30	19.3496244176	185.43	763.00	Isolated_T-Storms(fair)	True	False	763.00
2010-06-28 15:00:00 36998 15 181.71 181.71 181.71 602.0 939.10	19.3496244176	181.71	602.00	Isolated_T-Storms(partly_cloudy)	True	False	602.00
2010-06-28 16:00:00 36999 16 142.37 142.37 142.37 218.3 735.80	19.3496244176	142.37	218.30	Scattered_T-Storms(mostly_cloudy)	True	False	218.30
2010-06-28 17:00:00 37000 17 93.79 93.79 93.79 102.1 484.70	19.3496244176	93.79	102.10	Scattered_T-Storms(mostly_cloudy)	True	False	102.10
2010-06-28 18:00:00 37001 18 42.53 42.53 42.53 91.6 219.80	19.3496244176	42.53	91.60	Scattered_T-Storms(partly_cloudy)	True	False	91.60
2010-06-28 19:00:00 37002 19 15.75 15.75 15.75 45.4 81.40	19.3496244176	15.75	45.40	Scattered_T-Storms(sunny)	True	False	45.40
2010-06-28 20:00:00 37003 20 1.30 1.30 1.30 2.8 6.70	19.3496244176	1.30	2.80	Scattered_T-Storms(sunny)	True	False	2.80
2010-06-28 21:00:00 37004 21 0.00 0.00 0.00 0.0 0.00	19.3496244176	0.00	0.00	Scattered_T-Storms(fair)	True	False	0.00
2010-06-28 22:00:00 37005 22 0.00 0.00 0.00 0.0 0.00	19.3496244176	0.00	0.00	Scattered_T-Storms(clear)	True	False	0.00
2010-06-28 23:00:00 37006 23 0.00 0.00 0.00 0.0 0.00	19.3496244176	0.00	0.00	Scattered_T-Storms(fair)	True	False	0.00
2010-06-29 00:00:00 37007 0 0.00 0.00 0.00 0.0 0.00	19.3496244176	0.00	0.00	Scattered_T-Storms(partly_cloudy)	True	False	0.00
2010-06-29 01:00:00 37008 1 0.00 0.00 0.00 0.0 0.00	19.3496244176	0.00	0.00	Scattered_T-Storms(partly_cloudy)	True	False	0.00
2010-06-29 02:00:00 37009 2 0.00 0.00 0.00 0.0 0.00	19.3496244176	0.00	0.00	Scattered_T-Storms(partly_cloudy)	True	False	0.00
2010-06-29 03:00:00 37010 3 0.00 0.00 0.00 0.0 0.00	19.3496244176	0.00	0.00	Scattered_T-Storms(mostly_cloudy)	True	False	0.00
2010-06-29 04:00:00 37011 4 0.00 0.00 0.00 0.0 0.00	17.4447174447	0.00	0.00	Showers(cloudy)	True	False	0.00
2010-06-29 05:00:00 37012 5 0.35 0.35 0.35 0.0 1.80	19.3496244176	0.35	0.00	Few_Showers(partly_cloudy)	True	False	0.00
