2010-06-28 11:00:00 38434 11 788.75 788.75 788.75 700.2 1037.70	76.0090531875	788.75	700.20	Sunny(sunny)	True	False	700.20
2010-06-28 12:00:00 38435 12 835.34 835.34 741.56 432.4 1099.00	76.0090531875	741.56	432.40	Sunny(sunny)	True	False	432.40
2010-06-28 13:00:00 38436 13 205.11 205.11 747.43 739.9 1107.70	18.516833485	747.43	739.90	Isolated_T-Storms(sunny)	True	False	739.90
2010-06-28 14:00:00 38437 14 196.35 196.35 715.52 763.0 1060.40	18.516833485	715.52	763.00	Isolated_T-Storms(fair)	True	False	763.00
2010-06-28 15:00:00 38438 15 173.89 173.89 633.67 602.0 939.10	18.516833485	633.67	602.00	Isolated_T-Storms(partly_cloudy)	True	False	602.00
2010-06-28 16:00:00 38439 16 137.84 137.84 502.29 218.3 744.40	18.516833485	502.29	218.30	Scattered_T-Storms(mostly_cloudy)	True	False	218.30
2010-06-28 17:00:00 38440 17 89.75 89.75 327.06 102.1 484.70	18.516833485	327.06	102.10	Scattered_T-Storms(mostly_cloudy)	True	False	102.10
2010-06-28 18:00:00 38441 18 40.70 40.70 148.31 91.6 219.80	18.516833485	148.31	91.60	Scattered_T-Storms(partly_cloudy)	True	False	91.60
2010-06-28 19:00:00 38442 19 15.07 15.07 54.93 45.4 81.40	18.516833485	54.93	45.40	Scattered_T-Storms(sunny)	True	False	45.40
2010-06-28 20:00:00 38443 20 1.24 1.24 4.52 2.8 6.70	18.516833485	4.52	2.80	Scattered_T-Storms(sunny)	True	False	2.80
2010-06-28 21:00:00 38444 21 0.00 0.00 0.00 0.0 0.00	18.516833485	0.00	0.00	Scattered_T-Storms(fair)	True	False	0.00
2010-06-28 22:00:00 38445 22 0.00 0.00 0.00 0.0 0.00	18.516833485	0.00	0.00	Scattered_T-Storms(clear)	True	False	0.00
2010-06-28 23:00:00 38446 23 0.00 0.00 0.00 0.0 0.00	18.516833485	0.00	0.00	Scattered_T-Storms(fair)	True	False	0.00
2010-06-29 00:00:00 38447 0 0.00 0.00 0.00 0.0 0.00	18.516833485	0.00	0.00	Scattered_T-Storms(partly_cloudy)	True	False	0.00
2010-06-29 01:00:00 38448 1 0.00 0.00 0.00 0.0 0.00	18.516833485	0.00	0.00	Scattered_T-Storms(partly_cloudy)	True	False	0.00
2010-06-29 02:00:00 38449 2 0.00 0.00 0.00 0.0 0.00	18.516833485	0.00	0.00	Scattered_T-Storms(partly_cloudy)	True	False	0.00
2010-06-29 03:00:00 38450 3 0.00 0.00 0.00 0.0 0.00	18.516833485	0.00	0.00	Scattered_T-Storms(mostly_cloudy)	True	False	0.00
2010-06-29 04:00:00 38451 4 0.00 0.00 0.00 0.0 0.00	18.516833485	0.00	0.00	Few_Showers(cloudy)	True	False	0.00
2010-06-29 05:00:00 38452 5 0.33 0.33 0.33 0.0 1.80	18.516833485	0.33	0.00	Few_Showers(partly_cloudy)	True	False	0.00
2010-06-29 06:00:00 38453 6 14.39 14.39 14.39 59.2 77.70	18.516833485	14.39	59.20	Few_Showers(fog)	True	False	59.20
2010-06-29 07:00:00 38454 7 159.35 159.35 159.35 153.9 220.30	72.3352145671	159.35	153.90	Partly_Cloudy(mostly_cloudy)	True	False	153.90
2010-06-29 08:00:00 38455 8 351.48 351.48 351.48 352.8 485.90	72.3352145671	351.48	352.80	Partly_Cloudy(sunny)	True	False	352.80
2010-06-29 09:00:00 38456 9 537.96 537.96 537.96 567.7 743.70	72.3352145671	537.96	567.70	Partly_Cloudy(fair)	True	False	567.70
2010-06-29 10:00:00 38457 10 672.43 672.43 672.43 702.1 929.60	72.3352145671	672.43	702.10	Mostly_Sunny(sunny)	False	False	702.10
2010-06-29 11:00:00 38458 11 750.62 750.62 750.62 548.6 1037.70	72.3352145671	750.62	548.60	Mostly_Sunny(partly_cloudy)	False	False	548.60
2010-06-29 12:00:00 38459 12 794.96 794.96 794.96 812.2 1099.00	72.3352145671	794.96	812.20	Mostly_Sunny(partly_cloudy)	False	False	812.20
2010-06-29 13:00:00 38460 13 801.26 801.26 801.26 709.9 1107.70	72.3352145671	801.26	709.90	Mostly_Sunny(partly_cloudy)	False	False	709.90
2010-06-29 14:00:00 38461 14 767.04 767.04 767.04 524.3 1060.40	72.3352145671	767.04	524.30	Mostly_Sunny(partly_cloudy)	False	False	524.30
2010-06-29 15:00:00 38462 15 679.30 679.30 679.30 402.5 939.10	72.3352145671	679.30	402.50	Mostly_Sunny(partly_cloudy)	False	False	402.50
2010-06-29 16:00:00 38463 16 538.46 538.46 538.46 414.7 744.40	72.3352145671	538.46	414.70	Mostly_Sunny(partly_cloudy)	False	False	414.70
2010-06-29 17:00:00 38464 17 350.61 350.61 350.61 301.8 484.70	72.3352145671	350.61	301.80	Mostly_Sunny(partly_cloudy)	False	False	301.80
2010-06-29 18:00:00 38465 18 158.99 158.99 158.99 173.1 219.80	72.3352145671	158.99	173.10	Mostly_Sunny(partly_cloudy)	False	False	173.10
2010-06-29 19:00:00 38466 19 58.88 58.88 58.88 39.4 81.40	72.3352145671	58.88	39.40	Partly_Cloudy(fair)	True	False	39.40
2010-06-29 20:00:00 38467 20 4.85 4.85 4.85 7.0 6.70	72.3352145671	4.85	7.00	Partly_Cloudy(sunny)	True	False	7.00
2010-06-29 21:00:00 38468 21 0.00 0.00 0.00 0.0 0.00	72.3352145671	0.00	0.00	Partly_Cloudy(clear)	True	False	0.00
2010-06-29 22:00:00 38469 22 0.00 0.00 0.00 0.0 0.00	72.9561101549	0.00	0.00	Clear(fair)	True	False	0.00
2010-06-29 23:00:00 38470 23 0.00 0.00 0.00 0.0 0.00	72.9561101549	0.00	0.00	Clear(clear)	True	False	0.00
2010-06-30 00:00:00 38471 0 0.00 0.00 0.00 0.0 0.00	72.9561101549	0.00	0.00	Clear(clear)	True	False	0.00
2010-06-30 01:00:00 38472 1 0.00 0.00 0.00 0.0 0.00	72.9561101549	0.00	0.00	Clear(clear)	True	False	0.00
2010-06-30 02:00:00 38473 2 0.00 0.00 0.00 0.0 0.00	72.9561101549	0.00	0.00	Clear(clear)	True	False	0.00
2010-06-30 03:00:00 38474 3 0.00 0.00 0.00 0.0 0.00	72.9561101549	0.00	0.00	Clear(fair)	True	False	0.00
2010-06-30 04:00:00 38475 4 0.00 0.00 0.00 0.0 0.00	72.9561101549	0.00	0.00	Clear(clear)	True	False	0.00
2010-06-30 05:00:00 38476 5 1.31 1.31 1.31 0.1 1.80	72.9561101549	1.31	0.10	Clear(sunny)	True	False	0.10
2010-06-30 06:00:00 38477 6 56.69 56.69 56.69 33.4 77.70	72.9561101549	56.69	33.40	Sunny(sunny)	True	False	33.40
2010-06-30 07:00:00 38478 7 160.72 160.72 160.72 181.0 220.30	72.9561101549	160.72	181.00	Sunny(sunny)	True	False	181.00
2010-06-30 08:00:00 38479 8 354.49 354.49 354.49 414.9 485.90	72.9561101549	354.49	414.90	Sunny(sunny)	True	False	414.90
2010-06-30 09:00:00 38480 9 542.57 542.57 542.57 617.1 743.70	72.9561101549	542.57	617.10	Sunny(sunny)	True	False	617.10
2010-06-30 10:00:00 38481 10 706.58 706.58 706.58 768.1 929.60	76.0090531875	706.58	768.10	Sunny(sunny)	True	False	768.10
2010-06-30 11:00:00 38482 11 788.75 788.75 788.75 861.7 1037.70	76.0090531875	788.75	861.70	Sunny(sunny)	True	False	861.70
