2010-07-16 00:00:00 59063 0 0.00 0.00 0.00 0.0 0.00	74.2951224532	0.00	0.00	Partly_Cloudy(clear)	True	False	0.00
2010-07-16 01:00:00 59064 1 0.00 0.00 0.00 0.0 0.00	79.2248208223	0.00	0.00	Clear(partly_cloudy)	True	False	0.00
2010-07-16 02:00:00 59065 2 0.00 0.00 0.00 0.0 0.00	79.2248208223	0.00	0.00	Clear(cloudy)	True	False	0.00
2010-07-16 03:00:00 59066 3 0.00 0.00 0.00 0.0 0.00	79.2248208223	0.00	0.00	Clear(cloudy)	True	False	0.00
2010-07-16 04:00:00 59067 4 0.00 0.00 0.00 0.0 0.00	79.2248208223	0.00	0.00	Clear(cloudy)	True	False	0.00
2010-07-16 05:00:00 59068 5 0.24 0.24 0.24 0.0 0.30	79.2248208223	0.24	0.00	Clear(cloudy)	True	False	0.00
2010-07-16 06:00:00 59069 6 61.56 61.56 61.56 14.2 77.70	79.2248208223	61.56	14.20	Sunny(cloudy)	True	False	14.20
2010-07-16 07:00:00 59070 7 164.31 164.31 164.31 146.1 207.40	79.2248208223	164.31	146.10	Sunny(fair)	True	False	146.10
2010-07-16 08:00:00 59071 8 384.95 384.95 384.95 374.5 485.90	79.2248208223	384.95	374.50	Sunny(cloudy)	True	False	374.50
2010-07-16 09:00:00 59072 9 590.30 590.30 590.30 634.1 745.10	79.2248208223	590.30	634.10	Sunny(cloudy)	True	False	634.10
2010-07-16 10:00:00 59073 10 786.57 786.57 786.57 820.4 919.50	85.5431912486	786.57	820.40	Sunny(fair)	True	False	820.40
2010-07-16 11:00:00 59074 11 888.71 888.71 888.71 942.7 1038.90	85.5431912486	888.71	942.70	Sunny(sunny)	True	False	942.70
2010-07-16 12:00:00 59075 12 947.90 947.90 947.90 953.4 1108.10	85.5431912486	947.90	953.40	Sunny(fair)	True	False	953.40
2010-07-16 13:00:00 59076 13 947.56 947.56 947.56 638.1 1107.70	85.5431912486	947.56	638.10	Sunny(sunny)	True	False	638.10
2010-07-16 14:00:00 59077 14 907.10 907.10 907.10 952.4 1060.40	85.5431912486	907.10	952.40	Sunny(partly_cloudy)	True	False	952.40
2010-07-16 15:00:00 59078 15 803.34 803.34 803.34 791.1 939.10	85.5431912486	803.34	791.10	Sunny(sunny)	True	False	791.10
2010-07-16 16:00:00 59079 16 649.19 649.19 649.19 450.5 758.90	85.5431912486	649.19	450.50	Mostly_Sunny(fair)	False	False	450.50
2010-07-16 17:00:00 59080 17 426.60 426.60 426.60 324.1 498.70	85.5431912486	426.60	324.10	Mostly_Sunny(fair)	False	False	324.10
2010-07-16 18:00:00 59081 18 193.16 193.16 193.16 147.2 225.80	85.5431912486	193.16	147.20	Mostly_Sunny(sunny)	False	False	147.20
2010-07-16 19:00:00 59082 19 22.28 22.28 22.28 13.1 81.40	27.3693534101	22.28	13.10	Isolated_T-Storms(fair)	True	False	13.10
2010-07-16 20:00:00 59083 20 1.86 1.86 1.86 1.0 6.80	27.3693534101	1.86	1.00	Isolated_T-Storms(partly_cloudy)	True	False	1.00
2010-07-16 21:00:00 59084 21 0.00 0.00 0.00 0.0 0.00	27.3693534101	0.00	0.00	Isolated_T-Storms(partly_cloudy)	True	False	0.00
2010-07-16 22:00:00 59085 22 0.00 0.00 0.00 0.0 0.00	74.2951224532	0.00	0.00	Partly_Cloudy(partly_cloudy)	True	False	0.00
2010-07-16 23:00:00 59086 23 0.00 0.00 0.00 0.0 0.00	74.2951224532	0.00	0.00	Partly_Cloudy(partly_cloudy)	True	False	0.00
2010-07-17 00:00:00 59087 0 0.00 0.00 0.00 0.0 0.00	74.2951224532	0.00	0.00	Partly_Cloudy(partly_cloudy)	True	False	0.00
2010-07-17 01:00:00 59088 1 0.00 0.00 0.00 0.0 0.00	74.2951224532	0.00	0.00	Partly_Cloudy(mostly_cloudy)	True	False	0.00
2010-07-17 02:00:00 59089 2 0.00 0.00 0.00 0.0 0.00	74.2951224532	0.00	0.00	Partly_Cloudy(partly_cloudy)	True	False	0.00
2010-07-17 03:00:00 59090 3 0.00 0.00 0.00 0.0 0.00	74.2951224532	0.00	0.00	Partly_Cloudy(partly_cloudy)	True	False	0.00
2010-07-17 04:00:00 59091 4 0.00 0.00 0.00 0.0 0.00	74.2951224532	0.00	0.00	Partly_Cloudy(partly_cloudy)	True	False	0.00
2010-07-17 05:00:00 59092 5 0.22 0.22 0.22 0.0 0.30	74.2951224532	0.22	0.00	Partly_Cloudy(partly_cloudy)	True	False	0.00
2010-07-17 06:00:00 59093 6 57.73 57.73 57.73 8.9 77.70	74.2951224532	57.73	8.90	Partly_Cloudy(fog)	True	False	8.90
2010-07-17 07:00:00 59094 7 154.09 154.09 154.09 180.8 207.40	74.2951224532	154.09	180.80	Mostly_Sunny(sunny)	False	False	180.80
2010-07-17 08:00:00 59095 8 361.00 361.00 361.00 425.3 485.90	74.2951224532	361.00	425.30	Mostly_Sunny(sunny)	False	False	425.30
2010-07-17 09:00:00 59096 9 553.57 553.57 553.57 661.6 745.10	74.2951224532	553.57	661.60	Mostly_Sunny(sunny)	False	False	661.60
2010-07-17 10:00:00 59097 10 786.57 786.57 786.57 845.5 919.50	85.5431912486	786.57	845.50	Sunny(sunny)	True	False	845.50
2010-07-17 11:00:00 59098 11 888.71 888.71 888.71 957.9 1038.90	85.5431912486	888.71	957.90	Sunny(sunny)	True	False	957.90
2010-07-17 12:00:00 59099 12 947.90 947.90 947.90 856.7 1108.10	85.5431912486	947.90	856.70	Sunny(sunny)	True	False	856.70
2010-07-17 13:00:00 59100 13 947.56 947.56 947.56 969.2 1107.70	85.5431912486	947.56	969.20	Mostly_Sunny(sunny)	False	False	969.20
2010-07-17 14:00:00 59101 14 907.10 907.10 907.10 857.4 1060.40	85.5431912486	907.10	857.40	Mostly_Sunny(sunny)	False	False	857.40
2010-07-17 15:00:00 59102 15 803.34 803.34 803.34 743.0 939.10	85.5431912486	803.34	743.00	Mostly_Sunny(partly_cloudy)	False	False	743.00
2010-07-17 16:00:00 59103 16 649.19 649.19 649.19 642.6 758.90	85.5431912486	649.19	642.60	Mostly_Sunny(partly_cloudy)	False	False	642.60
2010-07-17 17:00:00 59104 17 426.60 426.60 426.60 372.3 498.70	85.5431912486	426.60	372.30	Mostly_Sunny(fair)	False	False	372.30
2010-07-17 18:00:00 59105 18 193.16 193.16 193.16 166.7 225.80	85.5431912486	193.16	166.70	Mostly_Sunny(partly_cloudy)	False	False	166.70
2010-07-17 19:00:00 59106 19 60.48 60.48 60.48 62.1 81.40	74.2951224532	60.48	62.10	Partly_Cloudy(mostly_cloudy)	True	False	62.10
2010-07-17 20:00:00 59107 20 5.05 5.05 5.05 1.4 6.80	74.2951224532	5.05	1.40	Partly_Cloudy(fair)	True	False	1.40
2010-07-17 21:00:00 59108 21 0.00 0.00 0.00 0.0 0.00	74.2951224532	0.00	0.00	Partly_Cloudy(clear)	True	False	0.00
2010-07-17 22:00:00 59109 22 0.00 0.00 0.00 0.0 0.00	74.2951224532	0.00	0.00	Mostly_Clear(clear)	False	False	0.00
2010-07-17 23:00:00 59110 23 0.00 0.00 0.00 0.0 0.00	74.2951224532	0.00	0.00	Mostly_Clear(clear)	False	False	0.00
2010-07-18 00:00:00 59111 0 0.00 0.00 0.00 0.0 0.00	74.2951224532	0.00	0.00	Mostly_Clear(clear)	False	False	0.00
