2010-06-07 06:00:00 13493 6 63.00 63.00 63.00 45.9 73.50	85.7142857143	63.00	45.90	Sunny(sunny)	True	False	45.90
2010-06-07 07:00:00 13494 7 213.00 213.00 213.00 235.5 248.50	85.7142857143	213.00	235.50	Sunny(sunny)	True	False	235.50
2010-06-07 08:00:00 13495 8 455.83 455.83 455.83 526.3 531.80	85.7142857143	455.83	526.30	Sunny(sunny)	True	False	526.30
2010-06-07 09:00:00 13496 9 650.91 650.91 650.91 781.2 759.40	85.7142857143	650.91	781.20	Sunny(sunny)	True	False	781.20
2010-06-07 10:00:00 13497 10 883.80 883.80 883.80 967.4 929.60	95.0730647709	883.80	967.40	Sunny(sunny)	True	False	967.40
2010-06-07 11:00:00 13498 11 999.98 999.98 999.98 906.7 1051.80	95.0730647709	999.98	906.70	Sunny(sunny)	True	False	906.70
2010-06-07 12:00:00 13499 12 1040.29 1040.29 1040.29 864.9 1094.20	95.0730647709	1040.29	864.90	Sunny(partly_cloudy)	True	False	864.90
2010-06-07 13:00:00 13500 13 1026.69 1026.69 1026.69 563.7 1079.90	95.0730647709	1026.69	563.70	Sunny(mostly_cloudy)	True	False	563.70
2010-06-07 14:00:00 13501 14 962.90 962.90 962.90 638.8 1012.80	95.0730647709	962.90	638.80	Sunny(mostly_cloudy)	True	False	638.80
2010-06-07 15:00:00 13502 15 849.19 849.19 849.19 761.9 893.20	95.0730647709	849.19	761.90	Sunny(mostly_cloudy)	True	False	761.90
2010-06-07 16:00:00 13503 16 613.80 613.80 613.80 551.8 716.10	85.7142857143	613.80	551.80	Sunny(mostly_cloudy)	True	False	551.80
2010-06-07 17:00:00 13504 17 359.66 359.66 359.66 381.9 419.60	85.7142857143	359.66	381.90	Sunny(sunny)	True	False	381.90
2010-06-07 18:00:00 13505 18 183.60 183.60 183.60 182.0 214.20	85.7142857143	183.60	182.00	Sunny(mostly_cloudy)	True	False	182.00
2010-06-07 19:00:00 13506 19 45.77 45.77 45.77 35.4 53.40	85.7142857143	45.77	35.40	Sunny(sunny)	True	False	35.40
2010-06-07 20:00:00 13507 20 2.40 2.40 2.40 1.8 2.80	85.7142857143	2.40	1.80	Sunny(sunny)	True	False	1.80
2010-06-07 21:00:00 13508 21 0.00 0.00 0.00 0.0 0.00	85.7142857143	0.00	0.00	Clear(clear)	True	False	0.00
2010-06-07 22:00:00 13509 22 0.00 0.00 0.00 0.0 0.00	85.7142857143	0.00	0.00	Clear(clear)	True	False	0.00
2010-06-07 23:00:00 13510 23 0.00 0.00 0.00 0.0 0.00	85.7142857143	0.00	0.00	Clear(clear)	True	False	0.00
2010-06-08 00:00:00 13511 0 0.00 0.00 0.00 0.0 0.00	85.7142857143	0.00	0.00	Clear(partly_cloudy)	True	False	0.00
2010-06-08 01:00:00 13512 1 0.00 0.00 0.00 0.0 0.00	85.7142857143	0.00	0.00	Clear(mostly_cloudy)	True	False	0.00
2010-06-08 02:00:00 13513 2 0.00 0.00 0.00 0.0 0.00	85.7142857143	0.00	0.00	Clear(mostly_cloudy)	True	False	0.00
2010-06-08 03:00:00 13514 3 0.00 0.00 0.00 0.0 0.00	85.7142857143	0.00	0.00	Clear(partly_cloudy)	True	False	0.00
2010-06-08 04:00:00 13515 4 0.00 0.00 0.00 0.0 0.00	85.7142857143	0.00	0.00	Clear(fair)	True	False	0.00
2010-06-08 05:00:00 13516 5 1.54 1.54 1.54 1.8 1.80	85.7142857143	1.54	1.80	Clear(sunny)	True	False	1.80
2010-06-08 06:00:00 13517 6 63.00 63.00 63.00 49.6 73.50	85.7142857143	63.00	49.60	Sunny(sunny)	True	False	49.60
2010-06-08 07:00:00 13518 7 213.00 213.00 213.00 240.8 248.50	85.7142857143	213.00	240.80	Sunny(sunny)	True	False	240.80
2010-06-08 08:00:00 13519 8 455.83 455.83 455.83 530.1 531.80	85.7142857143	455.83	530.10	Sunny(sunny)	True	False	530.10
2010-06-08 09:00:00 13520 9 650.91 650.91 650.91 784.7 759.40	85.7142857143	650.91	784.70	Sunny(sunny)	True	False	784.70
2010-06-08 10:00:00 13521 10 883.80 883.80 883.80 932.0 929.60	95.0730647709	883.80	932.00	Sunny(sunny)	True	False	932.00
2010-06-08 11:00:00 13522 11 999.98 999.98 999.98 771.9 1051.80	95.0730647709	999.98	771.90	Sunny(sunny)	True	False	771.90
2010-06-08 12:00:00 13523 12 1040.29 1040.29 1040.29 884.3 1094.20	95.0730647709	1040.29	884.30	Sunny(fair)	True	False	884.30
2010-06-08 13:00:00 13524 13 1026.69 1026.69 1026.69 830.2 1079.90	95.0730647709	1026.69	830.20	Sunny(partly_cloudy)	True	False	830.20
2010-06-08 14:00:00 13525 14 962.90 962.90 962.90 705.1 1012.80	95.0730647709	962.90	705.10	Sunny(fair)	True	False	705.10
2010-06-08 15:00:00 13526 15 849.19 849.19 849.19 974.1 893.20	95.0730647709	849.19	974.10	Sunny(partly_cloudy)	True	False	974.10
2010-06-08 16:00:00 13527 16 613.80 613.80 613.80 682.8 716.10	85.7142857143	613.80	682.80	Sunny(sunny)	True	False	682.80
2010-06-08 17:00:00 13528 17 359.66 359.66 359.66 338.1 419.60	85.7142857143	359.66	338.10	Sunny(partly_cloudy)	True	False	338.10
2010-06-08 18:00:00 13529 18 183.60 183.60 183.60 171.7 214.20	85.7142857143	183.60	171.70	Sunny(sunny)	True	False	171.70
2010-06-08 19:00:00 13530 19 45.77 45.77 45.77 30.7 53.40	85.7142857143	45.77	30.70	Mostly_Sunny(mostly_cloudy)	False	False	30.70
2010-06-08 20:00:00 13531 20 2.40 2.40 2.40 0.4 2.80	85.7142857143	2.40	0.40	Mostly_Sunny(sunny)	False	False	0.40
2010-06-08 21:00:00 13532 21 0.00 0.00 0.00 0.0 0.00	85.7142857143	0.00	0.00	Mostly_Clear(fair)	False	False	0.00
2010-06-08 22:00:00 13533 22 0.00 0.00 0.00 0.0 0.00	85.7142857143	0.00	0.00	Clear(clear)	True	False	0.00
2010-06-08 23:00:00 13534 23 0.00 0.00 0.00 0.0 0.00	85.7142857143	0.00	0.00	Clear(fair)	True	False	0.00
2010-06-09 00:00:00 13535 0 0.00 0.00 0.00 0.0 0.00	85.7142857143	0.00	0.00	Clear(partly_cloudy)	True	False	0.00
2010-06-09 01:00:00 13536 1 0.00 0.00 0.00 0.0 0.00	85.7142857143	0.00	0.00	Clear(fair)	True	False	0.00
2010-06-09 02:00:00 13537 2 0.00 0.00 0.00 0.0 0.00	85.7142857143	0.00	0.00	Clear(partly_cloudy)	True	False	0.00
2010-06-09 03:00:00 13538 3 0.00 0.00 0.00 0.0 0.00	85.7142857143	0.00	0.00	Clear(mostly_cloudy)	True	False	0.00
2010-06-09 04:00:00 13539 4 0.00 0.00 0.00 0.0 0.00	78.9788933257	0.00	0.00	Partly_Cloudy(fair)	True	False	0.00
2010-06-09 05:00:00 13540 5 1.42 1.42 1.42 3.7 1.80	78.9788933257	1.42	3.70	Partly_Cloudy(sunny)	True	False	3.70
2010-06-09 06:00:00 13541 6 58.05 58.05 58.05 89.7 73.50	78.9788933257	58.05	89.70	Partly_Cloudy(fair)	True	False	89.70
