2010-07-11 06:00:00 53477 6 57.28 57.28 57.28 34.9 77.70	73.7248504622	57.28	34.90	Partly_Cloudy(partly_cloudy)	True	False	34.90
2010-07-11 07:00:00 53478 7 152.91 152.91 152.91 197.6 207.40	73.7248504622	152.91	197.60	Partly_Cloudy(fair)	True	False	197.60
2010-07-11 08:00:00 53479 8 358.23 358.23 358.23 420.7 485.90	73.7248504622	358.23	420.70	Partly_Cloudy(fair)	True	False	420.70
2010-07-11 09:00:00 53480 9 549.32 549.32 549.32 516.0 745.10	73.7248504622	549.32	516.00	Partly_Cloudy(fair)	True	False	516.00
2010-07-11 10:00:00 53481 10 679.65 679.65 679.65 629.8 919.50	73.9155035836	679.65	629.80	Partly_Cloudy(mostly_cloudy)	True	False	629.80
2010-07-11 11:00:00 53482 11 767.91 767.91 767.91 741.7 1038.90	73.9155035836	767.91	741.70	Partly_Cloudy(fair)	True	False	741.70
2010-07-11 12:00:00 53483 12 819.06 819.06 819.06 836.2 1108.10	73.9155035836	819.06	836.20	Partly_Cloudy(partly_cloudy)	True	False	836.20
2010-07-11 13:00:00 53484 13 818.76 818.76 818.76 400.6 1107.70	73.9155035836	818.76	400.60	Partly_Cloudy(fair)	True	False	400.60
2010-07-11 14:00:00 53485 14 783.80 783.80 783.80 311.1 1060.40	73.9155035836	783.80	311.10	Partly_Cloudy(fair)	True	False	311.10
2010-07-11 15:00:00 53486 15 694.14 694.14 694.14 206.1 939.10	73.9155035836	694.14	206.10	Partly_Cloudy(fair)	True	False	206.10
2010-07-11 16:00:00 53487 16 559.50 559.50 559.50 445.3 758.90	73.7248504622	559.50	445.30	Partly_Cloudy(fair)	True	False	445.30
2010-07-11 17:00:00 53488 17 367.67 367.67 367.67 452.3 498.70	73.7248504622	367.67	452.30	Partly_Cloudy(sunny)	True	False	452.30
2010-07-11 18:00:00 53489 18 166.47 166.47 166.47 219.8 225.80	73.7248504622	166.47	219.80	Partly_Cloudy(sunny)	True	False	219.80
2010-07-11 19:00:00 53490 19 60.01 60.01 60.01 37.2 81.40	73.7248504622	60.01	37.20	Partly_Cloudy(sunny)	True	False	37.20
2010-07-11 20:00:00 53491 20 5.01 5.01 5.01 1.7 6.80	73.7248504622	5.01	1.70	Partly_Cloudy(sunny)	True	False	1.70
2010-07-11 21:00:00 53492 21 0.00 0.00 0.00 0.0 0.00	73.7248504622	0.00	0.00	Partly_Cloudy(clear)	True	False	0.00
2010-07-11 22:00:00 53493 22 0.00 0.00 0.00 0.0 0.00	73.7248504622	0.00	0.00	Partly_Cloudy(clear)	True	False	0.00
2010-07-11 23:00:00 53494 23 0.00 0.00 0.00 0.0 0.00	73.7248504622	0.00	0.00	Partly_Cloudy(clear)	True	False	0.00
2010-07-12 00:00:00 53495 0 0.00 0.00 0.00 0.0 0.00	73.7248504622	0.00	0.00	Partly_Cloudy(clear)	True	False	0.00
2010-07-12 01:00:00 53496 1 0.00 0.00 0.00 0.0 0.00	77.1288743883	0.00	0.00	Clear(clear)	True	False	0.00
2010-07-12 02:00:00 53497 2 0.00 0.00 0.00 0.0 0.00	77.1288743883	0.00	0.00	Clear(clear)	True	False	0.00
2010-07-12 03:00:00 53498 3 0.00 0.00 0.00 0.0 0.00	77.1288743883	0.00	0.00	Clear(clear)	True	False	0.00
2010-07-12 04:00:00 53499 4 0.00 0.00 0.00 0.0 0.00	77.1288743883	0.00	0.00	Clear(fog)	True	False	0.00
2010-07-12 05:00:00 53500 5 0.23 0.23 0.23 0.0 0.30	77.1288743883	0.23	0.00	Clear(fair)	True	False	0.00
2010-07-12 06:00:00 53501 6 59.93 59.93 59.93 77.7 77.70	77.1288743883	59.93	77.70	Sunny(sunny)	True	False	77.70
2010-07-12 07:00:00 53502 7 159.97 159.97 159.97 186.0 207.40	77.1288743883	159.97	186.00	Sunny(sunny)	True	False	186.00
2010-07-12 08:00:00 53503 8 374.77 374.77 374.77 454.0 485.90	77.1288743883	374.77	454.00	Sunny(sunny)	True	False	454.00
2010-07-12 09:00:00 53504 9 574.69 574.69 574.69 518.0 745.10	77.1288743883	574.69	518.00	Sunny(sunny)	True	False	518.00
2010-07-12 10:00:00 53505 10 741.53 741.53 741.53 597.2 919.50	80.6445788571	741.53	597.20	Sunny(partly_cloudy)	True	False	597.20
2010-07-12 11:00:00 53506 11 837.82 837.82 837.82 898.0 1038.90	80.6445788571	837.82	898.00	Sunny(mostly_cloudy)	True	False	898.00
2010-07-12 12:00:00 53507 12 893.62 893.62 893.62 1031.2 1108.10	80.6445788571	893.62	1031.20	Sunny(partly_cloudy)	True	False	1031.20
2010-07-12 13:00:00 53508 13 893.30 893.30 893.30 927.1 1107.70	80.6445788571	893.30	927.10	Mostly_Sunny(fair)	False	False	927.10
2010-07-12 14:00:00 53509 14 855.16 855.16 855.16 907.1 1060.40	80.6445788571	855.16	907.10	Mostly_Sunny(sunny)	False	False	907.10
2010-07-12 15:00:00 53510 15 757.33 757.33 757.33 485.2 939.10	80.6445788571	757.33	485.20	Mostly_Sunny(sunny)	False	False	485.20
2010-07-12 16:00:00 53511 16 559.50 559.50 559.50 399.8 758.90	73.7248504622	559.50	399.80	Partly_Cloudy(partly_cloudy)	True	False	399.80
2010-07-12 17:00:00 53512 17 367.67 367.67 367.67 220.2 498.70	73.7248504622	367.67	220.20	Partly_Cloudy(mostly_cloudy)	True	False	220.20
2010-07-12 18:00:00 53513 18 166.47 166.47 166.47 71.7 225.80	73.7248504622	166.47	71.70	Partly_Cloudy(mostly_cloudy)	True	False	71.70
2010-07-12 19:00:00 53514 19 47.97 47.97 47.97 9.2 81.40	58.9373375686	47.97	9.20	Mostly_Cloudy(mostly_cloudy)	True	False	9.20
2010-07-12 20:00:00 53515 20 4.01 4.01 4.01 0.0 6.80	58.9373375686	4.01	0.00	Mostly_Cloudy(fair)	True	False	0.00
2010-07-12 21:00:00 53516 21 0.00 0.00 0.00 0.0 0.00	58.9373375686	0.00	0.00	Mostly_Cloudy(light_rain)	True	False	0.00
2010-07-12 22:00:00 53517 22 0.00 0.00 0.00 0.0 0.00	58.9373375686	0.00	0.00	Mostly_Cloudy(mostly_cloudy)	True	False	0.00
2010-07-12 23:00:00 53518 23 0.00 0.00 0.00 0.0 0.00	58.9373375686	0.00	0.00	Mostly_Cloudy(light_rain)	True	False	0.00
2010-07-13 00:00:00 53519 0 0.00 0.00 0.00 0.0 0.00	58.9373375686	0.00	0.00	Mostly_Cloudy(light_rain)	True	False	0.00
2010-07-13 01:00:00 53520 1 0.00 0.00 0.00 0.0 0.00	24.4288948343	0.00	0.00	Isolated_T-Storms(cloudy)	True	False	0.00
2010-07-13 02:00:00 53521 2 0.00 0.00 0.00 0.0 0.00	24.4288948343	0.00	0.00	Isolated_T-Storms(cloudy)	True	False	0.00
2010-07-13 03:00:00 53522 3 0.00 0.00 0.00 0.0 0.00	24.4288948343	0.00	0.00	Isolated_T-Storms(mostly_cloudy)	True	False	0.00
2010-07-13 04:00:00 53523 4 0.00 0.00 0.00 0.0 0.00	22.7933391087	0.00	0.00	Showers(mostly_cloudy)	True	False	0.00
2010-07-13 05:00:00 53524 5 0.07 0.07 0.07 0.0 0.30	22.7933391087	0.07	0.00	Showers(mostly_cloudy)	True	False	0.00
2010-07-13 06:00:00 53525 6 17.71 17.71 17.71 53.8 77.70	22.7933391087	17.71	53.80	Showers(partly_cloudy)	True	False	53.80
