2010-06-21 12:00:00 30251 12 769.77 769.77 769.77 710.9 938.80	81.9946195234	769.77	710.90	Sunny(fair)	True	False	710.90
2010-06-21 13:00:00 30252 13 853.40 853.40 853.40 759.8 1040.80	81.9946195234	853.40	759.80	Sunny(partly_cloudy)	True	False	759.80
2010-06-21 14:00:00 30253 14 779.69 779.69 779.69 741.8 950.90	81.9946195234	779.69	741.80	Sunny(fair)	True	False	741.80
2010-06-21 15:00:00 30254 15 656.20 656.20 656.20 695.9 800.30	81.9946195234	656.20	695.90	Sunny(fair)	True	False	695.90
2010-06-21 16:00:00 30255 16 547.28 547.28 547.28 415.9 716.10	76.4256912442	547.28	415.90	Sunny(fair)	True	False	415.90
2010-06-21 17:00:00 30256 17 368.91 368.91 368.91 352.2 482.70	76.4256912442	368.91	352.20	Sunny(fair)	True	False	352.20
2010-06-21 18:00:00 30257 18 163.70 163.70 163.70 125.3 214.20	76.4256912442	163.70	125.30	Sunny(sunny)	True	False	125.30
2010-06-21 19:00:00 30258 19 61.52 61.52 61.52 37.2 81.40	75.5760368664	61.52	37.20	Partly_Cloudy(sunny)	True	False	37.20
2010-06-21 20:00:00 30259 20 5.06 5.06 5.06 2.3 6.70	75.5760368664	5.06	2.30	Partly_Cloudy(sunny)	True	False	2.30
2010-06-21 21:00:00 30260 21 0.00 0.00 0.00 0.0 0.00	75.5760368664	0.00	0.00	Partly_Cloudy(clear)	True	False	0.00
2010-06-21 22:00:00 30261 22 0.00 0.00 0.00 0.0 0.00	75.5760368664	0.00	0.00	Mostly_Clear(clear)	False	False	0.00
2010-06-21 23:00:00 30262 23 0.00 0.00 0.00 0.0 0.00	75.5760368664	0.00	0.00	Mostly_Clear(clear)	False	False	0.00
2010-06-22 00:00:00 30263 0 0.00 0.00 0.00 0.0 0.00	75.5760368664	0.00	0.00	Mostly_Clear(mostly_cloudy)	False	False	0.00
2010-06-22 01:00:00 30264 1 0.00 0.00 0.00 0.0 0.00	75.5760368664	0.00	0.00	Partly_Cloudy(clear)	True	False	0.00
2010-06-22 02:00:00 30265 2 0.00 0.00 0.00 0.0 0.00	75.5760368664	0.00	0.00	Partly_Cloudy(partly_cloudy)	True	False	0.00
2010-06-22 03:00:00 30266 3 0.00 0.00 0.00 0.0 0.00	75.5760368664	0.00	0.00	Partly_Cloudy(clear)	True	False	0.00
2010-06-22 04:00:00 30267 4 0.00 0.00 0.00 0.0 0.00	75.5760368664	0.00	0.00	Partly_Cloudy(partly_cloudy)	True	False	0.00
2010-06-22 05:00:00 30268 5 1.36 1.36 1.36 0.0 1.80	75.5760368664	1.36	0.00	Partly_Cloudy(partly_cloudy)	True	False	0.00
2010-06-22 06:00:00 30269 6 55.55 55.55 55.55 45.9 73.50	75.5760368664	55.55	45.90	Partly_Cloudy(partly_cloudy)	True	False	45.90
2010-06-22 07:00:00 30270 7 166.49 166.49 166.49 182.7 220.30	75.5760368664	166.49	182.70	Partly_Cloudy(sunny)	True	False	182.70
2010-06-22 08:00:00 30271 8 366.92 366.92 366.92 369.8 485.50	75.5760368664	366.92	369.80	Partly_Cloudy(partly_cloudy)	True	False	369.80
2010-06-22 09:00:00 30272 9 524.80 524.80 524.80 533.2 694.40	75.5760368664	524.80	533.20	Partly_Cloudy(partly_cloudy)	True	False	533.20
2010-06-22 10:00:00 30273 10 784.64 784.64 784.64 696.1 929.60	84.4058478071	784.64	696.10	Partly_Cloudy(sunny)	True	False	696.10
2010-06-22 11:00:00 30274 11 796.96 796.96 796.96 779.6 944.20	84.4058478071	796.96	779.60	Partly_Cloudy(sunny)	True	False	779.60
2010-06-22 12:00:00 30275 12 792.40 792.40 792.40 594.7 938.80	84.4058478071	792.40	594.70	Partly_Cloudy(fair)	True	False	594.70
2010-06-22 13:00:00 30276 13 715.41 715.41 715.41 638.4 1040.80	68.73668513	715.41	638.40	Mostly_Cloudy(sunny)	True	False	638.40
2010-06-22 14:00:00 30277 14 653.62 653.62 653.62 506.2 950.90	68.73668513	653.62	506.20	Mostly_Cloudy(partly_cloudy)	True	False	506.20
2010-06-22 15:00:00 30278 15 550.10 550.10 550.10 226.5 800.30	68.73668513	550.10	226.50	Mostly_Cloudy(mostly_cloudy)	True	False	226.50
2010-06-22 16:00:00 30279 16 91.95 91.95 91.95 225.0 716.10	12.8404669261	91.95	225.00	Isolated_T-Storms(mostly_cloudy)	True	False	225.00
2010-06-22 17:00:00 30280 17 61.98 61.98 61.98 148.2 482.70	12.8404669261	61.98	148.20	Isolated_T-Storms(mostly_cloudy)	True	False	148.20
2010-06-22 18:00:00 30281 18 27.50 27.50 27.50 31.6 214.20	12.8404669261	27.50	31.60	Isolated_T-Storms(sunny)	True	False	31.60
2010-06-22 19:00:00 30282 19 10.45 10.45 10.45 3.6 81.40	12.8404669261	10.45	3.60	Isolated_T-Storms(heavy_t-storm)	True	False	3.60
2010-06-22 20:00:00 30283 20 0.86 0.86 0.86 4.6 6.70	12.8404669261	0.86	4.60	Isolated_T-Storms(mostly_cloudy)	True	False	4.60
2010-06-22 21:00:00 30284 21 0.00 0.00 0.00 0.0 0.00	12.8404669261	0.00	0.00	Isolated_T-Storms(fog)	True	False	0.00
2010-06-22 22:00:00 30285 22 0.00 0.00 0.00 0.0 0.00	12.8404669261	0.00	0.00	Scattered_T-Storms(fog)	True	False	0.00
2010-06-22 23:00:00 30286 23 0.00 0.00 0.00 0.0 0.00	12.8404669261	0.00	0.00	Scattered_T-Storms(fog)	True	False	0.00
2010-06-23 00:00:00 30287 0 0.00 0.00 0.00 0.0 0.00	12.8404669261	0.00	0.00	Scattered_T-Storms(fog)	True	False	0.00
2010-06-23 01:00:00 30288 1 0.00 0.00 0.00 0.0 0.00	12.8404669261	0.00	0.00	Scattered_T-Storms(fog)	True	False	0.00
2010-06-23 02:00:00 30289 2 0.00 0.00 0.00 0.0 0.00	12.8404669261	0.00	0.00	Scattered_T-Storms(fog)	True	False	0.00
2010-06-23 03:00:00 30290 3 0.00 0.00 0.00 0.0 0.00	12.8404669261	0.00	0.00	Scattered_T-Storms(fog)	True	False	0.00
2010-06-23 04:00:00 30291 4 0.00 0.00 0.00 0.0 0.00	12.8404669261	0.00	0.00	Scattered_T-Storms(fog)	True	False	0.00
2010-06-23 05:00:00 30292 5 0.23 0.23 0.23 0.0 1.80	12.8404669261	0.23	0.00	Scattered_T-Storms(fair)	True	False	0.00
2010-06-23 06:00:00 30293 6 9.44 9.44 9.44 38.9 73.50	12.8404669261	9.44	38.90	Scattered_T-Storms(fog)	True	False	38.90
2010-06-23 07:00:00 30294 7 144.87 144.87 144.87 177.7 220.30	65.7589722106	144.87	177.70	Mostly_Cloudy(sunny)	True	False	177.70
2010-06-23 08:00:00 30295 8 319.26 319.26 319.26 385.3 485.50	65.7589722106	319.26	385.30	Mostly_Cloudy(sunny)	True	False	385.30
2010-06-23 09:00:00 30296 9 456.63 456.63 456.63 538.4 694.40	65.7589722106	456.63	538.40	Mostly_Cloudy(sunny)	True	False	538.40
2010-06-23 10:00:00 30297 10 119.36 119.36 119.36 677.6 929.60	12.8404669261	119.36	677.60	Scattered_T-Storms(sunny)	True	False	677.60
2010-06-23 11:00:00 30298 11 121.24 121.24 121.24 608.3 944.20	12.8404669261	121.24	608.30	Scattered_T-Storms(fair)	True	False	608.30
2010-06-23 12:00:00 30299 12 120.55 120.55 120.55 781.6 938.80	12.8404669261	120.55	781.60	Scattered_T-Storms(fair)	True	False	781.60
