2010-06-11 10:00:00 18393 10 517.57 517.57 725.45 689.2 929.60	55.6762874929	725.45	689.20	Mostly_Cloudy(partly_cloudy)	True	False	689.20
2010-06-11 11:00:00 18394 11 585.60 585.60 779.80 920.2 1051.80	55.6762874929	779.80	920.20	Mostly_Cloudy(mostly_cloudy)	True	False	920.20
2010-06-11 12:00:00 18395 12 609.21 609.21 811.23 789.5 1094.20	55.6762874929	811.23	789.50	Mostly_Cloudy(mostly_cloudy)	True	False	789.50
2010-06-11 13:00:00 18396 13 852.89 852.89 800.63 603.3 1079.90	78.9788933257	800.63	603.30	Partly_Cloudy(mostly_cloudy)	True	False	603.30
2010-06-11 14:00:00 18397 14 799.90 799.90 750.88 696.8 1012.80	78.9788933257	750.88	696.80	Partly_Cloudy(partly_cloudy)	True	False	696.80
2010-06-11 15:00:00 18398 15 697.78 697.78 655.02 541.1 883.50	78.9788933257	655.02	541.10	Partly_Cloudy(partly_cloudy)	True	False	541.10
2010-06-11 16:00:00 18399 16 541.20 541.20 530.91 587.1 716.10	75.5760368664	530.91	587.10	Partly_Cloudy(mostly_cloudy)	True	False	587.10
2010-06-11 17:00:00 18400 17 322.26 322.26 316.13 366.7 426.40	75.5760368664	316.13	366.70	Partly_Cloudy(mostly_cloudy)	True	False	366.70
2010-06-11 18:00:00 18401 18 161.88 161.88 158.81 176.0 214.20	75.5760368664	158.81	176.00	Partly_Cloudy(fair)	True	False	176.00
2010-06-11 19:00:00 18402 19 40.36 40.36 39.59 36.7 53.40	75.5760368664	39.59	36.70	Partly_Cloudy(fair)	True	False	36.70
2010-06-11 20:00:00 18403 20 2.65 2.65 2.59 0.4 3.50	75.5760368664	2.59	0.40	Partly_Cloudy(sunny)	True	False	0.40
2010-06-11 21:00:00 18404 21 0.00 0.00 0.00 0.0 0.00	75.5760368664	0.00	0.00	Partly_Cloudy(fair)	True	False	0.00
2010-06-11 22:00:00 18405 22 0.00 0.00 0.00 0.0 0.00	62.558356676	0.00	0.00	Mostly_Cloudy(clear)	True	False	0.00
2010-06-11 23:00:00 18406 23 0.00 0.00 0.00 0.0 0.00	62.558356676	0.00	0.00	Mostly_Cloudy(clear)	True	False	0.00
2010-06-12 00:00:00 18407 0 0.00 0.00 0.00 0.0 0.00	62.558356676	0.00	0.00	Mostly_Cloudy(clear)	True	False	0.00
2010-06-12 01:00:00 18408 1 0.00 0.00 0.00 0.0 0.00	62.558356676	0.00	0.00	Mostly_Cloudy(clear)	True	False	0.00
2010-06-12 02:00:00 18409 2 0.00 0.00 0.00 0.0 0.00	62.558356676	0.00	0.00	Mostly_Cloudy(fair)	True	False	0.00
2010-06-12 03:00:00 18410 3 0.00 0.00 0.00 0.0 0.00	62.558356676	0.00	0.00	Mostly_Cloudy(mostly_cloudy)	True	False	0.00
2010-06-12 04:00:00 18411 4 0.00 0.00 0.00 0.0 0.00	62.558356676	0.00	0.00	Mostly_Cloudy(cloudy)	True	False	0.00
2010-06-12 05:00:00 18412 5 1.13 1.13 1.13 0.0 1.80	62.558356676	1.13	0.00	Mostly_Cloudy(cloudy)	True	False	0.00
2010-06-12 06:00:00 18413 6 45.98 45.98 45.98 46.8 73.50	62.558356676	45.98	46.80	Mostly_Cloudy(cloudy)	True	False	46.80
2010-06-12 07:00:00 18414 7 155.46 155.46 155.46 216.7 248.50	62.558356676	155.46	216.70	Mostly_Cloudy(cloudy)	True	False	216.70
2010-06-12 08:00:00 18415 8 332.69 332.69 332.69 313.5 531.80	62.558356676	332.69	313.50	Mostly_Cloudy(cloudy)	True	False	313.50
2010-06-12 09:00:00 18416 9 450.48 450.48 450.48 193.5 720.10	62.558356676	450.48	193.50	Mostly_Cloudy(mostly_cloudy)	True	False	193.50
2010-06-12 10:00:00 18417 10 734.19 734.19 734.19 716.2 929.60	78.9788933257	734.19	716.20	Partly_Cloudy(partly_cloudy)	True	False	716.20
2010-06-12 11:00:00 18418 11 830.70 830.70 830.70 536.9 1051.80	78.9788933257	830.70	536.90	Partly_Cloudy(mostly_cloudy)	True	False	536.90
2010-06-12 12:00:00 18419 12 864.19 864.19 864.19 500.5 1094.20	78.9788933257	864.19	500.50	Partly_Cloudy(partly_cloudy)	True	False	500.50
2010-06-12 13:00:00 18420 13 852.89 852.89 852.89 882.0 1079.90	78.9788933257	852.89	882.00	Partly_Cloudy(mostly_cloudy)	True	False	882.00
2010-06-12 14:00:00 18421 14 799.90 799.90 799.90 686.9 1012.80	78.9788933257	799.90	686.90	Partly_Cloudy(partly_cloudy)	True	False	686.90
2010-06-12 15:00:00 18422 15 697.78 697.78 697.78 645.9 883.50	78.9788933257	697.78	645.90	Partly_Cloudy(partly_cloudy)	True	False	645.90
2010-06-12 16:00:00 18423 16 90.38 90.38 90.38 626.2 716.10	12.6215390314	90.38	626.20	Few_Showers(sunny)	True	False	626.20
2010-06-12 17:00:00 18424 17 53.82 53.82 53.82 410.0 426.40	12.6215390314	53.82	410.00	Few_Showers(fair)	True	False	410.00
2010-06-12 18:00:00 18425 18 27.04 27.04 27.04 160.5 214.20	12.6215390314	27.04	160.50	Few_Showers(fair)	True	False	160.50
2010-06-12 19:00:00 18426 19 6.74 6.74 6.74 42.1 53.40	12.6215390314	6.74	42.10	Scattered_T-Storms(sunny)	True	False	42.10
2010-06-12 20:00:00 18427 20 0.44 0.44 0.44 2.2 3.50	12.6215390314	0.44	2.20	Scattered_T-Storms(fair)	True	False	2.20
2010-06-12 21:00:00 18428 21 0.00 0.00 0.00 0.0 0.00	12.6215390314	0.00	0.00	Scattered_T-Storms(fair)	True	False	0.00
2010-06-12 22:00:00 18429 22 0.00 0.00 0.00 0.0 0.00	12.6215390314	0.00	0.00	Scattered_T-Storms(partly_cloudy)	True	False	0.00
2010-06-12 23:00:00 18430 23 0.00 0.00 0.00 0.0 0.00	12.6215390314	0.00	0.00	Scattered_T-Storms(clear)	True	False	0.00
2010-06-13 00:00:00 18431 0 0.00 0.00 0.00 0.0 0.00	12.6215390314	0.00	0.00	Scattered_T-Storms(clear)	True	False	0.00
2010-06-13 01:00:00 18432 1 0.00 0.00 0.00 0.0 0.00	12.6215390314	0.00	0.00	Scattered_T-Storms(clear)	True	False	0.00
2010-06-13 02:00:00 18433 2 0.00 0.00 0.00 0.0 0.00	12.6215390314	0.00	0.00	Scattered_T-Storms(mostly_cloudy)	True	False	0.00
2010-06-13 03:00:00 18434 3 0.00 0.00 0.00 0.0 0.00	12.6215390314	0.00	0.00	Scattered_T-Storms(clear)	True	False	0.00
2010-06-13 04:00:00 18435 4 0.00 0.00 0.00 0.0 0.00	12.6215390314	0.00	0.00	Scattered_T-Storms(fair)	True	False	0.00
2010-06-13 05:00:00 18436 5 0.23 0.23 0.23 0.0 1.80	12.6215390314	0.23	0.00	Scattered_T-Storms(cloudy)	True	False	0.00
2010-06-13 06:00:00 18437 6 9.28 9.28 9.28 14.8 73.50	12.6215390314	9.28	14.80	Scattered_T-Storms(partly_cloudy)	True	False	14.80
2010-06-13 07:00:00 18438 7 31.36 31.36 31.36 156.1 248.50	12.6215390314	31.36	156.10	Scattered_T-Storms(partly_cloudy)	True	False	156.10
2010-06-13 08:00:00 18439 8 67.12 67.12 67.12 333.0 531.80	12.6215390314	67.12	333.00	Scattered_T-Storms(partly_cloudy)	True	False	333.00
2010-06-13 09:00:00 18440 9 90.89 90.89 90.89 670.4 720.10	12.6215390314	90.89	670.40	Scattered_T-Storms(partly_cloudy)	True	False	670.40
2010-06-13 10:00:00 18441 10 478.22 478.22 478.22 814.2 929.60	51.443977335	478.22	814.20	Cloudy(sunny)	True	False	814.20
