2010-06-22 22:00:00 31917 22 0.00 0.00 0.00 0.0 0.00	12.8404669261	0.00	0.00	Scattered_T-Storms(fog)	True	False	0.00
2010-06-22 23:00:00 31918 23 0.00 0.00 0.00 0.0 0.00	12.8404669261	0.00	0.00	Isolated_T-Storms(fog)	True	False	0.00
2010-06-23 00:00:00 31919 0 0.00 0.00 0.00 0.0 0.00	12.8404669261	0.00	0.00	Isolated_T-Storms(fog)	True	False	0.00
2010-06-23 01:00:00 31920 1 0.00 0.00 0.00 0.0 0.00	12.8404669261	0.00	0.00	Few_Showers(fog)	True	False	0.00
2010-06-23 02:00:00 31921 2 0.00 0.00 0.00 0.0 0.00	12.8404669261	0.00	0.00	Few_Showers(fog)	True	False	0.00
2010-06-23 03:00:00 31922 3 0.00 0.00 0.00 0.0 0.00	12.8404669261	0.00	0.00	Few_Showers(fog)	True	False	0.00
2010-06-23 04:00:00 31923 4 0.00 0.00 0.00 0.0 0.00	75.3024193548	0.00	0.00	Clear(fog)	True	False	0.00
2010-06-23 05:00:00 31924 5 1.36 1.36 1.36 0.0 1.80	75.3024193548	1.36	0.00	Clear(fair)	True	False	0.00
2010-06-23 06:00:00 31925 6 55.35 55.35 55.35 38.9 73.50	75.3024193548	55.35	38.90	Sunny(fog)	True	False	38.90
2010-06-23 07:00:00 31926 7 165.89 165.89 165.89 177.7 220.30	75.3024193548	165.89	177.70	Sunny(sunny)	True	False	177.70
2010-06-23 08:00:00 31927 8 365.59 365.59 365.59 385.3 485.50	75.3024193548	365.59	385.30	Sunny(sunny)	True	False	385.30
2010-06-23 09:00:00 31928 9 522.90 522.90 522.90 538.4 694.40	75.3024193548	522.90	538.40	Sunny(sunny)	True	False	538.40
2010-06-23 10:00:00 31929 10 764.49 764.49 764.49 677.6 929.60	82.2389324296	764.49	677.60	Sunny(sunny)	True	False	677.60
2010-06-23 11:00:00 31930 11 776.50 776.50 776.50 608.3 944.20	82.2389324296	776.50	608.30	Sunny(fair)	True	False	608.30
2010-06-23 12:00:00 31931 12 772.06 772.06 772.06 781.6 938.80	82.2389324296	772.06	781.60	Sunny(fair)	True	False	781.60
2010-06-23 13:00:00 31932 13 827.52 827.52 827.52 852.3 995.60	83.1179834781	827.52	852.30	Partly_Cloudy(partly_cloudy)	True	False	852.30
2010-06-23 14:00:00 31933 14 790.37 790.37 790.37 689.7 950.90	83.1179834781	790.37	689.70	Partly_Cloudy(fair)	True	False	689.70
2010-06-23 15:00:00 31934 15 657.88 657.88 657.88 658.5 791.50	83.1179834781	657.88	658.50	Partly_Cloudy(partly_cloudy)	True	False	658.50
2010-06-23 16:00:00 31935 16 514.83 514.83 514.83 532.5 681.80	75.5102040816	514.83	532.50	Partly_Cloudy(partly_cloudy)	True	False	532.50
2010-06-23 17:00:00 31936 17 364.49 364.49 364.49 330.9 482.70	75.5102040816	364.49	330.90	Partly_Cloudy(sunny)	True	False	330.90
2010-06-23 18:00:00 31937 18 161.74 161.74 161.74 131.7 214.20	75.5102040816	161.74	131.70	Partly_Cloudy(fair)	True	False	131.70
2010-06-23 19:00:00 31938 19 61.47 61.47 61.47 31.2 81.40	75.5102040816	61.47	31.20	Partly_Cloudy(sunny)	True	False	31.20
2010-06-23 20:00:00 31939 20 5.06 5.06 5.06 1.0 6.70	75.5102040816	5.06	1.00	Partly_Cloudy(sunny)	True	False	1.00
2010-06-23 21:00:00 31940 21 0.00 0.00 0.00 0.0 0.00	75.5102040816	0.00	0.00	Partly_Cloudy(clear)	True	False	0.00
2010-06-23 22:00:00 31941 22 0.00 0.00 0.00 0.0 0.00	75.5102040816	0.00	0.00	Partly_Cloudy(clear)	True	False	0.00
2010-06-23 23:00:00 31942 23 0.00 0.00 0.00 0.0 0.00	75.5102040816	0.00	0.00	Partly_Cloudy(partly_cloudy)	True	False	0.00
2010-06-24 00:00:00 31943 0 0.00 0.00 0.00 0.0 0.00	75.5102040816	0.00	0.00	Partly_Cloudy(clear)	True	False	0.00
2010-06-24 01:00:00 31944 1 0.00 0.00 0.00 0.0 0.00	12.8404669261	0.00	0.00	Isolated_T-Storms(clear)	True	False	0.00
2010-06-24 02:00:00 31945 2 0.00 0.00 0.00 0.0 0.00	12.8404669261	0.00	0.00	Isolated_T-Storms(partly_cloudy)	True	False	0.00
2010-06-24 03:00:00 31946 3 0.00 0.00 0.00 0.0 0.00	12.8404669261	0.00	0.00	Isolated_T-Storms(mostly_cloudy)	True	False	0.00
2010-06-24 04:00:00 31947 4 0.00 0.00 0.00 0.0 0.00	12.8404669261	0.00	0.00	Isolated_T-Storms(mostly_cloudy)	True	False	0.00
2010-06-24 05:00:00 31948 5 0.23 0.23 0.23 0.0 1.80	12.8404669261	0.23	0.00	Isolated_T-Storms(partly_cloudy)	True	False	0.00
2010-06-24 06:00:00 31949 6 9.44 9.44 9.44 46.5 73.50	12.8404669261	9.44	46.50	Isolated_T-Storms(partly_cloudy)	True	False	46.50
2010-06-24 07:00:00 31950 7 28.29 28.29 28.29 152.6 220.30	12.8404669261	28.29	152.60	Isolated_T-Storms(partly_cloudy)	True	False	152.60
2010-06-24 08:00:00 31951 8 62.34 62.34 62.34 369.6 485.50	12.8404669261	62.34	369.60	Isolated_T-Storms(fair)	True	False	369.60
2010-06-24 09:00:00 31952 9 89.16 89.16 89.16 574.6 694.40	12.8404669261	89.16	574.60	Isolated_T-Storms(fair)	True	False	574.60
2010-06-24 10:00:00 31953 10 119.36 119.36 119.36 662.9 929.60	12.8404669261	119.36	662.90	Isolated_T-Storms(sunny)	True	False	662.90
2010-06-24 11:00:00 31954 11 121.24 121.24 121.24 667.5 944.20	12.8404669261	121.24	667.50	Isolated_T-Storms(sunny)	True	False	667.50
2010-06-24 12:00:00 31955 12 120.55 120.55 120.55 405.8 938.80	12.8404669261	120.55	405.80	Isolated_T-Storms(fair)	True	False	405.80
2010-06-24 13:00:00 31956 13 127.84 127.84 127.84 736.7 995.60	12.8404669261	127.84	736.70	Scattered_T-Storms(partly_cloudy)	True	False	736.70
2010-06-24 14:00:00 31957 14 122.10 122.10 122.10 700.6 950.90	12.8404669261	122.10	700.60	Scattered_T-Storms(partly_cloudy)	True	False	700.60
2010-06-24 15:00:00 31958 15 101.63 101.63 101.63 128.9 791.50	12.8404669261	101.63	128.90	Scattered_T-Storms(fair)	True	False	128.90
2010-06-24 16:00:00 31959 16 87.55 87.55 87.55 332.4 681.80	12.8404669261	87.55	332.40	Scattered_T-Storms(fair)	True	False	332.40
2010-06-24 17:00:00 31960 17 61.98 61.98 61.98 329.8 482.70	12.8404669261	61.98	329.80	Scattered_T-Storms(partly_cloudy)	True	False	329.80
2010-06-24 18:00:00 31961 18 27.50 27.50 27.50 143.6 214.20	12.8404669261	27.50	143.60	Scattered_T-Storms(partly_cloudy)	True	False	143.60
2010-06-24 19:00:00 31962 19 61.47 61.47 61.47 28.7 81.40	75.5102040816	61.47	28.70	Partly_Cloudy(sunny)	True	False	28.70
2010-06-24 20:00:00 31963 20 5.06 5.06 5.06 2.0 6.70	75.5102040816	5.06	2.00	Partly_Cloudy(sunny)	True	False	2.00
2010-06-24 21:00:00 31964 21 0.00 0.00 0.00 0.0 0.00	75.5102040816	0.00	0.00	Partly_Cloudy(clear)	True	False	0.00
2010-06-24 22:00:00 31965 22 0.00 0.00 0.00 0.0 0.00	75.3024193548	0.00	0.00	Clear(clear)	True	False	0.00
