2010-06-03 02:00:00 8593 2 0.00 0.00 0.00 0.0 0.00	79.0929834569	0.00	0.00	Partly_Cloudy(fog)	True	False	0.00
2010-06-03 03:00:00 8594 3 0.00 0.00 0.00 0.0 0.00	79.0929834569	0.00	0.00	Partly_Cloudy(clear)	True	False	0.00
2010-06-03 04:00:00 8595 4 0.00 0.00 0.00 0.0 0.00	79.0929834569	0.00	0.00	Partly_Cloudy(clear)	True	False	0.00
2010-06-03 05:00:00 8596 5 1.42 1.42 1.42 0.0 1.80	79.0929834569	1.42	0.00	Partly_Cloudy(fog)	True	False	0.00
2010-06-03 06:00:00 8597 6 58.13 58.13 58.13 71.3 73.50	79.0929834569	58.13	71.30	Partly_Cloudy(fog)	True	False	71.30
2010-06-03 07:00:00 8598 7 212.21 212.21 212.21 225.3 268.30	79.0929834569	212.21	225.30	Partly_Cloudy(sunny)	True	False	225.30
2010-06-03 08:00:00 8599 8 420.62 420.62 420.62 463.7 531.80	79.0929834569	420.62	463.70	Partly_Cloudy(sunny)	True	False	463.70
2010-06-03 09:00:00 8600 9 609.02 609.02 609.02 597.5 770.00	79.0929834569	609.02	597.50	Partly_Cloudy(partly_cloudy)	True	False	597.50
2010-06-03 10:00:00 8601 10 819.62 819.62 819.62 764.4 952.40	86.0584518167	819.62	764.40	Partly_Cloudy(fair)	True	False	764.40
2010-06-03 11:00:00 8602 11 905.16 905.16 905.16 994.6 1051.80	86.0584518167	905.16	994.60	Partly_Cloudy(sunny)	True	False	994.60
2010-06-03 12:00:00 8603 12 941.65 941.65 941.65 869.2 1094.20	86.0584518167	941.65	869.20	Partly_Cloudy(fair)	True	False	869.20
2010-06-03 13:00:00 8604 13 136.38 136.38 136.38 742.2 1079.90	12.6287505598	136.38	742.20	Isolated_T-Storms(partly_cloudy)	True	False	742.20
2010-06-03 14:00:00 8605 14 127.90 127.90 127.90 988.4 1012.80	12.6287505598	127.90	988.40	Isolated_T-Storms(sunny)	True	False	988.40
2010-06-03 15:00:00 8606 15 112.80 112.80 112.80 836.5 893.20	12.6287505598	112.80	836.50	Isolated_T-Storms(partly_cloudy)	True	False	836.50
2010-06-03 16:00:00 8607 16 90.43 90.43 90.43 663.8 716.10	12.6287505598	90.43	663.80	Isolated_T-Storms(fair)	True	False	663.80
2010-06-03 17:00:00 8608 17 52.99 52.99 52.99 385.1 419.60	12.6287505598	52.99	385.10	Isolated_T-Storms(sunny)	True	False	385.10
2010-06-03 18:00:00 8609 18 27.05 27.05 27.05 154.7 214.20	12.6287505598	27.05	154.70	Isolated_T-Storms(sunny)	True	False	154.70
2010-06-03 19:00:00 8610 19 6.72 6.72 6.72 45.0 53.20	12.6287505598	6.72	45.00	Scattered_T-Storms(sunny)	True	False	45.00
2010-06-03 20:00:00 8611 20 0.30 0.30 0.30 0.2 2.40	12.6287505598	0.30	0.20	Scattered_T-Storms(partly_cloudy)	True	False	0.20
2010-06-03 21:00:00 8612 21 0.00 0.00 0.00 0.0 0.00	12.6287505598	0.00	0.00	Scattered_T-Storms(mostly_cloudy)	True	False	0.00
2010-06-03 22:00:00 8613 22 0.00 0.00 0.00 0.0 0.00	12.6287505598	0.00	0.00	Scattered_T-Storms(mostly_cloudy)	True	False	0.00
2010-06-03 23:00:00 8614 23 0.00 0.00 0.00 0.0 0.00	12.6287505598	0.00	0.00	Scattered_T-Storms(mostly_cloudy)	True	False	0.00
2010-06-04 00:00:00 8615 0 0.00 0.00 0.00 0.0 0.00	12.6287505598	0.00	0.00	Scattered_T-Storms(mostly_cloudy)	True	False	0.00
2010-06-04 01:00:00 8616 1 0.00 0.00 0.00 0.0 0.00	18.5784129372	0.00	0.00	T-Showers(partly_cloudy)	True	False	0.00
2010-06-04 02:00:00 8617 2 0.00 0.00 0.00 0.0 0.00	18.5784129372	0.00	0.00	T-Showers(mostly_cloudy)	True	False	0.00
2010-06-04 03:00:00 8618 3 0.00 0.00 0.00 0.0 0.00	18.5784129372	0.00	0.00	T-Showers(fog)	True	False	0.00
2010-06-04 04:00:00 8619 4 0.00 0.00 0.00 0.0 0.00	12.6287505598	0.00	0.00	Scattered_T-Storms(fog)	True	False	0.00
2010-06-04 05:00:00 8620 5 0.23 0.23 0.23 0.0 1.80	12.6287505598	0.23	0.00	Scattered_T-Storms(fog)	True	False	0.00
2010-06-04 06:00:00 8621 6 9.28 9.28 9.28 55.2 73.50	12.6287505598	9.28	55.20	Scattered_T-Storms(sunny)	True	False	55.20
2010-06-04 07:00:00 8622 7 49.85 49.85 49.85 225.0 268.30	18.5784129372	49.85	225.00	Showers(sunny)	True	False	225.00
2010-06-04 08:00:00 8623 8 98.80 98.80 98.80 482.6 531.80	18.5784129372	98.80	482.60	Showers(sunny)	True	False	482.60
2010-06-04 09:00:00 8624 9 143.05 143.05 143.05 710.4 770.00	18.5784129372	143.05	710.40	Showers(sunny)	True	False	710.40
2010-06-04 10:00:00 8625 10 120.28 120.28 120.28 882.2 952.40	12.6287505598	120.28	882.20	Few_Showers(sunny)	True	False	882.20
2010-06-04 11:00:00 8626 11 132.83 132.83 132.83 915.4 1051.80	12.6287505598	132.83	915.40	Few_Showers(sunny)	True	False	915.40
2010-06-04 12:00:00 8627 12 138.18 138.18 138.18 962.6 1094.20	12.6287505598	138.18	962.60	Few_Showers(partly_cloudy)	True	False	962.60
2010-06-04 13:00:00 8628 13 136.38 136.38 136.38 645.3 1079.90	12.6287505598	136.38	645.30	Isolated_T-Storms(partly_cloudy)	True	False	645.30
2010-06-04 14:00:00 8629 14 127.90 127.90 127.90 979.6 1012.80	12.6287505598	127.90	979.60	Isolated_T-Storms(partly_cloudy)	True	False	979.60
2010-06-04 15:00:00 8630 15 112.80 112.80 112.80 713.0 893.20	12.6287505598	112.80	713.00	Isolated_T-Storms(fair)	True	False	713.00
2010-06-04 16:00:00 8631 16 90.43 90.43 90.43 609.0 716.10	12.6287505598	90.43	609.00	Isolated_T-Storms(partly_cloudy)	True	False	609.00
2010-06-04 17:00:00 8632 17 52.99 52.99 52.99 290.5 419.60	12.6287505598	52.99	290.50	Isolated_T-Storms(fair)	True	False	290.50
2010-06-04 18:00:00 8633 18 27.05 27.05 27.05 123.1 214.20	12.6287505598	27.05	123.10	Isolated_T-Storms(fair)	True	False	123.10
2010-06-04 19:00:00 8634 19 34.38 34.38 34.38 34.8 53.20	64.6258503401	34.38	34.80	Mostly_Cloudy(sunny)	True	False	34.80
2010-06-04 20:00:00 8635 20 1.55 1.55 1.55 1.3 2.40	64.6258503401	1.55	1.30	Mostly_Cloudy(mostly_cloudy)	True	False	1.30
2010-06-04 21:00:00 8636 21 0.00 0.00 0.00 0.0 0.00	64.6258503401	0.00	0.00	Mostly_Cloudy(partly_cloudy)	True	False	0.00
2010-06-04 22:00:00 8637 22 0.00 0.00 0.00 0.0 0.00	64.6258503401	0.00	0.00	Mostly_Cloudy(partly_cloudy)	True	False	0.00
2010-06-04 23:00:00 8638 23 0.00 0.00 0.00 0.0 0.00	64.6258503401	0.00	0.00	Mostly_Cloudy(mostly_cloudy)	True	False	0.00
2010-06-05 00:00:00 8639 0 0.00 0.00 0.00 0.0 0.00	64.6258503401	0.00	0.00	Mostly_Cloudy(clear)	True	False	0.00
2010-06-05 01:00:00 8640 1 0.00 0.00 0.00 0.0 0.00	12.6287505598	0.00	0.00	Isolated_T-Storms(clear)	True	False	0.00
2010-06-05 02:00:00 8641 2 0.00 0.00 0.00 0.0 0.00	12.6287505598	0.00	0.00	Isolated_T-Storms(mostly_cloudy)	True	False	0.00
