2010-07-15 23:00:00 59014 23 0.00 0.00 0.00 0.0 0.00	74.2951224532	0.00	0.00	Partly_Cloudy(fair)	True	False	0.00
2010-07-16 00:00:00 59015 0 0.00 0.00 0.00 0.0 0.00	74.2951224532	0.00	0.00	Partly_Cloudy(clear)	True	False	0.00
2010-07-16 01:00:00 59016 1 0.00 0.00 0.00 0.0 0.00	79.1986282826	0.00	0.00	Clear(partly_cloudy)	True	False	0.00
2010-07-16 02:00:00 59017 2 0.00 0.00 0.00 0.0 0.00	79.1986282826	0.00	0.00	Clear(cloudy)	True	False	0.00
2010-07-16 03:00:00 59018 3 0.00 0.00 0.00 0.0 0.00	79.1986282826	0.00	0.00	Clear(cloudy)	True	False	0.00
2010-07-16 04:00:00 59019 4 0.00 0.00 0.00 0.0 0.00	79.1986282826	0.00	0.00	Clear(cloudy)	True	False	0.00
2010-07-16 05:00:00 59020 5 0.24 0.24 0.24 0.0 0.30	79.1986282826	0.24	0.00	Clear(cloudy)	True	False	0.00
2010-07-16 06:00:00 59021 6 61.54 61.54 61.54 14.2 77.70	79.1986282826	61.54	14.20	Sunny(cloudy)	True	False	14.20
2010-07-16 07:00:00 59022 7 164.26 164.26 164.26 146.1 207.40	79.1986282826	164.26	146.10	Sunny(fair)	True	False	146.10
2010-07-16 08:00:00 59023 8 384.83 384.83 384.83 374.5 485.90	79.1986282826	384.83	374.50	Sunny(cloudy)	True	False	374.50
2010-07-16 09:00:00 59024 9 590.11 590.11 590.11 634.1 745.10	79.1986282826	590.11	634.10	Sunny(cloudy)	True	False	634.10
2010-07-16 10:00:00 59025 10 783.69 783.69 783.69 820.4 919.50	85.2305398786	783.69	820.40	Sunny(fair)	True	False	820.40
2010-07-16 11:00:00 59026 11 885.46 885.46 885.46 942.7 1038.90	85.2305398786	885.46	942.70	Sunny(sunny)	True	False	942.70
2010-07-16 12:00:00 59027 12 944.44 944.44 944.44 953.4 1108.10	85.2305398786	944.44	953.40	Sunny(fair)	True	False	953.40
2010-07-16 13:00:00 59028 13 944.10 944.10 944.10 638.1 1107.70	85.2305398786	944.10	638.10	Sunny(sunny)	True	False	638.10
2010-07-16 14:00:00 59029 14 903.78 903.78 903.78 952.4 1060.40	85.2305398786	903.78	952.40	Sunny(partly_cloudy)	True	False	952.40
2010-07-16 15:00:00 59030 15 800.40 800.40 800.40 791.1 939.10	85.2305398786	800.40	791.10	Sunny(sunny)	True	False	791.10
2010-07-16 16:00:00 59031 16 646.81 646.81 646.81 450.5 758.90	85.2305398786	646.81	450.50	Mostly_Sunny(fair)	False	False	450.50
2010-07-16 17:00:00 59032 17 425.04 425.04 425.04 324.1 498.70	85.2305398786	425.04	324.10	Mostly_Sunny(fair)	False	False	324.10
2010-07-16 18:00:00 59033 18 192.45 192.45 192.45 147.2 225.80	85.2305398786	192.45	147.20	Mostly_Sunny(sunny)	False	False	147.20
2010-07-16 19:00:00 59034 19 20.89 20.89 20.89 13.1 81.40	25.6667335071	20.89	13.10	Isolated_T-Storms(fair)	True	False	13.10
2010-07-16 20:00:00 59035 20 1.75 1.75 1.75 1.0 6.80	25.6667335071	1.75	1.00	Isolated_T-Storms(partly_cloudy)	True	False	1.00
2010-07-16 21:00:00 59036 21 0.00 0.00 0.00 0.0 0.00	25.6667335071	0.00	0.00	Isolated_T-Storms(partly_cloudy)	True	False	0.00
2010-07-16 22:00:00 59037 22 0.00 0.00 0.00 0.0 0.00	74.2951224532	0.00	0.00	Partly_Cloudy(partly_cloudy)	True	False	0.00
2010-07-16 23:00:00 59038 23 0.00 0.00 0.00 0.0 0.00	74.2951224532	0.00	0.00	Partly_Cloudy(partly_cloudy)	True	False	0.00
2010-07-17 00:00:00 59039 0 0.00 0.00 0.00 0.0 0.00	74.2951224532	0.00	0.00	Partly_Cloudy(partly_cloudy)	True	False	0.00
2010-07-17 01:00:00 59040 1 0.00 0.00 0.00 0.0 0.00	74.2951224532	0.00	0.00	Partly_Cloudy(mostly_cloudy)	True	False	0.00
2010-07-17 02:00:00 59041 2 0.00 0.00 0.00 0.0 0.00	74.2951224532	0.00	0.00	Partly_Cloudy(partly_cloudy)	True	False	0.00
2010-07-17 03:00:00 59042 3 0.00 0.00 0.00 0.0 0.00	74.2951224532	0.00	0.00	Partly_Cloudy(partly_cloudy)	True	False	0.00
2010-07-17 04:00:00 59043 4 0.00 0.00 0.00 0.0 0.00	74.2951224532	0.00	0.00	Partly_Cloudy(partly_cloudy)	True	False	0.00
2010-07-17 05:00:00 59044 5 0.22 0.22 0.22 0.0 0.30	74.2951224532	0.22	0.00	Partly_Cloudy(partly_cloudy)	True	False	0.00
2010-07-17 06:00:00 59045 6 57.73 57.73 57.73 8.9 77.70	74.2951224532	57.73	8.90	Partly_Cloudy(fog)	True	False	8.90
2010-07-17 07:00:00 59046 7 154.09 154.09 154.09 180.8 207.40	74.2951224532	154.09	180.80	Mostly_Sunny(sunny)	False	False	180.80
2010-07-17 08:00:00 59047 8 361.00 361.00 361.00 425.3 485.90	74.2951224532	361.00	425.30	Mostly_Sunny(sunny)	False	False	425.30
2010-07-17 09:00:00 59048 9 553.57 553.57 553.57 661.6 745.10	74.2951224532	553.57	661.60	Mostly_Sunny(sunny)	False	False	661.60
2010-07-17 10:00:00 59049 10 783.69 783.69 783.69 845.5 919.50	85.2305398786	783.69	845.50	Sunny(sunny)	True	False	845.50
2010-07-17 11:00:00 59050 11 885.46 885.46 885.46 957.9 1038.90	85.2305398786	885.46	957.90	Sunny(sunny)	True	False	957.90
2010-07-17 12:00:00 59051 12 944.44 944.44 944.44 856.7 1108.10	85.2305398786	944.44	856.70	Sunny(sunny)	True	False	856.70
2010-07-17 13:00:00 59052 13 944.10 944.10 944.10 969.2 1107.70	85.2305398786	944.10	969.20	Mostly_Sunny(sunny)	False	False	969.20
2010-07-17 14:00:00 59053 14 903.78 903.78 903.78 857.4 1060.40	85.2305398786	903.78	857.40	Mostly_Sunny(sunny)	False	False	857.40
2010-07-17 15:00:00 59054 15 800.40 800.40 800.40 743.0 939.10	85.2305398786	800.40	743.00	Mostly_Sunny(partly_cloudy)	False	False	743.00
2010-07-17 16:00:00 59055 16 646.81 646.81 646.81 642.6 758.90	85.2305398786	646.81	642.60	Mostly_Sunny(partly_cloudy)	False	False	642.60
2010-07-17 17:00:00 59056 17 425.04 425.04 425.04 372.3 498.70	85.2305398786	425.04	372.30	Mostly_Sunny(fair)	False	False	372.30
2010-07-17 18:00:00 59057 18 192.45 192.45 192.45 166.7 225.80	85.2305398786	192.45	166.70	Mostly_Sunny(partly_cloudy)	False	False	166.70
2010-07-17 19:00:00 59058 19 60.48 60.48 60.48 62.1 81.40	74.2951224532	60.48	62.10	Partly_Cloudy(mostly_cloudy)	True	False	62.10
2010-07-17 20:00:00 59059 20 5.05 5.05 5.05 1.4 6.80	74.2951224532	5.05	1.40	Partly_Cloudy(fair)	True	False	1.40
2010-07-17 21:00:00 59060 21 0.00 0.00 0.00 0.0 0.00	74.2951224532	0.00	0.00	Partly_Cloudy(clear)	True	False	0.00
2010-07-17 22:00:00 59061 22 0.00 0.00 0.00 0.0 0.00	74.2951224532	0.00	0.00	Partly_Cloudy(clear)	True	False	0.00
2010-07-17 23:00:00 59062 23 0.00 0.00 0.00 0.0 0.00	74.2951224532	0.00	0.00	Mostly_Clear(clear)	False	False	0.00
