2010-07-21 22:00:00 66021 22 0.00 0.00 0.00 0.0 0.00	25.6667335071	0.00	0.00	Scattered_T-Storms(fair)	True	False	0.00
2010-07-21 23:00:00 66022 23 0.00 0.00 0.00 0.0 0.00	25.6667335071	0.00	0.00	Scattered_T-Storms(fair)	True	False	0.00
2010-07-22 00:00:00 66023 0 0.00 0.00 0.00 0.0 0.00	25.6667335071	0.00	0.00	Scattered_T-Storms(partly_cloudy)	True	False	0.00
2010-07-22 01:00:00 66024 1 0.00 0.00 0.00 0.0 0.00	25.6667335071	0.00	0.00	Mostly_Clear(partly_cloudy)	False	False	0.00
2010-07-22 02:00:00 66025 2 0.00 0.00 0.00 0.0 0.00	25.6667335071	0.00	0.00	Mostly_Clear(fog)	False	False	0.00
2010-07-22 03:00:00 66026 3 0.00 0.00 0.00 0.0 0.00	25.6667335071	0.00	0.00	Mostly_Clear(clear)	False	False	0.00
2010-07-22 04:00:00 66027 4 0.00 0.00 0.00 0.0 0.00	84.3383412225	0.00	0.00	Clear(clear)	True	False	0.00
2010-07-22 05:00:00 66028 5 0.00 0.00 0.00 0.0 0.00	84.3383412225	0.00	0.00	Clear(clear)	True	False	0.00
2010-07-22 06:00:00 66029 6 65.53 65.53 65.53 16.5 77.70	84.3383412225	65.53	16.50	Sunny(sunny)	True	False	16.50
2010-07-22 07:00:00 66030 7 174.92 174.92 174.92 184.7 207.40	84.3383412225	174.92	184.70	Mostly_Sunny(sunny)	False	False	184.70
2010-07-22 08:00:00 66031 8 409.80 409.80 409.80 461.6 485.90	84.3383412225	409.80	461.60	Mostly_Sunny(sunny)	False	False	461.60
2010-07-22 09:00:00 66032 9 628.40 628.40 628.40 713.0 745.10	84.3383412225	628.40	713.00	Mostly_Sunny(sunny)	False	False	713.00
2010-07-22 10:00:00 66033 10 843.12 843.12 843.12 903.1 919.50	91.6931369718	843.12	903.10	Sunny(sunny)	True	False	903.10
2010-07-22 11:00:00 66034 11 952.60 952.60 952.60 1007.0 1038.90	91.6931369718	952.60	1007.00	Sunny(sunny)	True	False	1007.00
2010-07-22 12:00:00 66035 12 1016.05 1016.05 1016.05 950.0 1108.10	91.6931369718	1016.05	950.00	Sunny(fair)	True	False	950.00
2010-07-22 13:00:00 66036 13 1015.68 1015.68 1015.68 792.3 1107.70	91.6931369718	1015.68	792.30	Sunny(fair)	True	False	792.30
2010-07-22 14:00:00 66037 14 972.31 972.31 972.31 807.3 1060.40	91.6931369718	972.31	807.30	Sunny(partly_cloudy)	True	False	807.30
2010-07-22 15:00:00 66038 15 861.09 861.09 861.09 705.3 939.10	91.6931369718	861.09	705.30	Sunny(mostly_cloudy)	True	False	705.30
2010-07-22 16:00:00 66039 16 640.04 640.04 640.04 588.6 758.90	84.3383412225	640.04	588.60	Sunny(partly_cloudy)	True	False	588.60
2010-07-22 17:00:00 66040 17 420.60 420.60 420.60 405.3 498.70	84.3383412225	420.60	405.30	Sunny(partly_cloudy)	True	False	405.30
2010-07-22 18:00:00 66041 18 191.79 191.79 191.79 161.4 227.40	84.3383412225	191.79	161.40	Sunny(fair)	True	False	161.40
2010-07-22 19:00:00 66042 19 54.90 54.90 54.90 27.5 73.80	74.3959957648	54.90	27.50	Partly_Cloudy(partly_cloudy)	True	False	27.50
2010-07-22 20:00:00 66043 20 5.06 5.06 5.06 0.6 6.80	74.3959957648	5.06	0.60	Partly_Cloudy(fair)	True	False	0.60
2010-07-22 21:00:00 66044 21 0.00 0.00 0.00 0.0 0.00	74.3959957648	0.00	0.00	Partly_Cloudy(fair)	True	False	0.00
2010-07-22 22:00:00 66045 22 0.00 0.00 0.00 0.0 0.00	74.3959957648	0.00	0.00	Partly_Cloudy(partly_cloudy)	True	False	0.00
2010-07-22 23:00:00 66046 23 0.00 0.00 0.00 0.0 0.00	74.3959957648	0.00	0.00	Partly_Cloudy(partly_cloudy)	True	False	0.00
2010-07-23 00:00:00 66047 0 0.00 0.00 0.00 0.0 0.00	74.3959957648	0.00	0.00	Partly_Cloudy(partly_cloudy)	True	False	0.00
2010-07-23 01:00:00 66048 1 0.00 0.00 0.00 0.0 0.00	57.2691995307	0.00	0.00	Mostly_Cloudy(partly_cloudy)	True	False	0.00
2010-07-23 02:00:00 66049 2 0.00 0.00 0.00 0.0 0.00	57.2691995307	0.00	0.00	Mostly_Cloudy(partly_cloudy)	True	False	0.00
2010-07-23 03:00:00 66050 3 0.00 0.00 0.00 0.0 0.00	57.2691995307	0.00	0.00	Mostly_Cloudy(partly_cloudy)	True	False	0.00
2010-07-23 04:00:00 66051 4 0.00 0.00 0.00 0.0 0.00	57.2691995307	0.00	0.00	Mostly_Cloudy(mostly_cloudy)	True	False	0.00
2010-07-23 05:00:00 66052 5 0.00 0.00 0.00 0.0 0.00	57.2691995307	0.00	0.00	Mostly_Cloudy(mostly_cloudy)	True	False	0.00
2010-07-23 06:00:00 66053 6 44.50 44.50 44.50 35.1 77.70	57.2691995307	44.50	35.10	Mostly_Cloudy(mostly_cloudy)	True	False	35.10
2010-07-23 07:00:00 66054 7 118.78 118.78 118.78 149.9 207.40	57.2691995307	118.78	149.90	Mostly_Cloudy(partly_cloudy)	True	False	149.90
2010-07-23 08:00:00 66055 8 278.27 278.27 278.27 343.3 485.90	57.2691995307	278.27	343.30	Mostly_Cloudy(partly_cloudy)	True	False	343.30
2010-07-23 09:00:00 66056 9 426.71 426.71 426.71 215.8 745.10	57.2691995307	426.71	215.80	Mostly_Cloudy(partly_cloudy)	True	False	215.80
2010-07-23 10:00:00 66057 10 684.07 684.07 684.07 186.0 919.50	74.3959957648	684.07	186.00	Partly_Cloudy(mostly_cloudy)	True	False	186.00
2010-07-23 11:00:00 66058 11 772.90 772.90 772.90 220.9 1038.90	74.3959957648	772.90	220.90	Partly_Cloudy(mostly_cloudy)	True	False	220.90
2010-07-23 12:00:00 66059 12 824.38 824.38 824.38 462.6 1108.10	74.3959957648	824.38	462.60	Partly_Cloudy(light_rain)	True	False	462.60
2010-07-23 13:00:00 66060 13 228.77 228.77 228.77 463.5 1107.70	20.6525839306	228.77	463.50	Isolated_T-Storms(mostly_cloudy)	True	False	463.50
2010-07-23 14:00:00 66061 14 219.00 219.00 219.00 463.5 1060.40	20.6525839306	219.00	463.50	Isolated_T-Storms(mostly_cloudy)	True	False	463.50
2010-07-23 15:00:00 66062 15 193.95 193.95 193.95 479.4 939.10	20.6525839306	193.95	479.40	Isolated_T-Storms(mostly_cloudy)	True	False	479.40
2010-07-23 16:00:00 66063 16 194.78 194.78 194.78 418.7 758.90	25.6667335071	194.78	418.70	Scattered_T-Storms(partly_cloudy)	True	False	418.70
2010-07-23 17:00:00 66064 17 128.00 128.00 128.00 281.9 498.70	25.6667335071	128.00	281.90	Scattered_T-Storms(sunny)	True	False	281.90
2010-07-23 18:00:00 66065 18 58.37 58.37 58.37 134.0 227.40	25.6667335071	58.37	134.00	Scattered_T-Storms(sunny)	True	False	134.00
2010-07-23 19:00:00 66066 19 54.90 54.90 54.90 30.4 73.80	74.3959957648	54.90	30.40	Partly_Cloudy(sunny)	True	False	30.40
2010-07-23 20:00:00 66067 20 5.06 5.06 5.06 0.0 6.80	74.3959957648	5.06	0.00	Partly_Cloudy(partly_cloudy)	True	False	0.00
2010-07-23 21:00:00 66068 21 0.00 0.00 0.00 0.0 0.00	74.3959957648	0.00	0.00	Partly_Cloudy(partly_cloudy)	True	False	0.00
2010-07-23 22:00:00 66069 22 0.00 0.00 0.00 0.0 0.00	25.6667335071	0.00	0.00	Isolated_T-Storms(clear)	True	False	0.00
