2010-06-15 12:00:00 23195 12 724.60 724.60 724.60 1082.1 938.80	77.1837349398	724.60	1082.10	Sunny(sunny)	True	False	1082.10
2010-06-15 13:00:00 23196 13 803.33 803.33 803.33 1084.8 1040.80	77.1837349398	803.33	1084.80	Mostly_Sunny(sunny)	False	False	1084.80
2010-06-15 14:00:00 23197 14 710.55 710.55 710.55 1016.8 920.60	77.1837349398	710.55	1016.80	Mostly_Sunny(sunny)	False	False	1016.80
2010-06-15 15:00:00 23198 15 617.70 617.70 617.70 895.8 800.30	77.1837349398	617.70	895.80	Mostly_Sunny(sunny)	False	False	895.80
2010-06-15 16:00:00 23199 16 559.76 559.76 559.76 710.0 716.10	78.1684981685	559.76	710.00	Partly_Cloudy(fair)	True	False	710.00
2010-06-15 17:00:00 23200 17 333.31 333.31 333.31 448.1 426.40	78.1684981685	333.31	448.10	Partly_Cloudy(sunny)	True	False	448.10
2010-06-15 18:00:00 23201 18 167.44 167.44 167.44 184.4 214.20	78.1684981685	167.44	184.40	Partly_Cloudy(sunny)	True	False	184.40
2010-06-15 19:00:00 23202 19 34.51 34.51 34.51 44.0 53.40	64.6258503401	34.51	44.00	Mostly_Cloudy(sunny)	True	False	44.00
2010-06-15 20:00:00 23203 20 2.26 2.26 2.26 1.9 3.50	64.6258503401	2.26	1.90	Mostly_Cloudy(sunny)	True	False	1.90
2010-06-15 21:00:00 23204 21 0.00 0.00 0.00 0.0 0.00	64.6258503401	0.00	0.00	Mostly_Cloudy(clear)	True	False	0.00
2010-06-15 22:00:00 23205 22 0.00 0.00 0.00 0.0 0.00	78.1684981685	0.00	0.00	Partly_Cloudy(clear)	True	False	0.00
2010-06-15 23:00:00 23206 23 0.00 0.00 0.00 0.0 0.00	78.1684981685	0.00	0.00	Partly_Cloudy(clear)	True	False	0.00
2010-06-16 00:00:00 23207 0 0.00 0.00 0.00 0.0 0.00	78.1684981685	0.00	0.00	Partly_Cloudy(clear)	True	False	0.00
2010-06-16 01:00:00 23208 1 0.00 0.00 0.00 0.0 0.00	78.1684981685	0.00	0.00	Partly_Cloudy(clear)	True	False	0.00
2010-06-16 02:00:00 23209 2 0.00 0.00 0.00 0.0 0.00	78.1684981685	0.00	0.00	Partly_Cloudy(clear)	True	False	0.00
2010-06-16 03:00:00 23210 3 0.00 0.00 0.00 0.0 0.00	78.1684981685	0.00	0.00	Partly_Cloudy(mostly_cloudy)	True	False	0.00
2010-06-16 04:00:00 23211 4 0.00 0.00 0.00 0.0 0.00	46.2470794393	0.00	0.00	Cloudy(cloudy)	True	False	0.00
2010-06-16 05:00:00 23212 5 0.83 0.83 0.83 0.0 1.80	46.2470794393	0.83	0.00	Cloudy(cloudy)	True	False	0.00
2010-06-16 06:00:00 23213 6 33.99 33.99 33.99 25.3 73.50	46.2470794393	33.99	25.30	Cloudy(cloudy)	True	False	25.30
2010-06-16 07:00:00 23214 7 31.05 31.05 31.05 131.9 220.30	14.0947144821	31.05	131.90	Few_Showers(cloudy)	True	False	131.90
2010-06-16 08:00:00 23215 8 57.72 57.72 57.72 127.3 409.50	14.0947144821	57.72	127.30	Few_Showers(cloudy)	True	False	127.30
2010-06-16 09:00:00 23216 9 96.52 96.52 96.52 265.3 684.80	14.0947144821	96.52	265.30	Few_Showers(cloudy)	True	False	265.30
2010-06-16 10:00:00 23217 10 123.29 123.29 123.29 186.9 929.60	13.2630892896	123.29	186.90	Few_Showers(cloudy)	True	False	186.90
2010-06-16 11:00:00 23218 11 125.23 125.23 125.23 369.6 944.20	13.2630892896	125.23	369.60	Few_Showers(cloudy)	True	False	369.60
2010-06-16 12:00:00 23219 12 124.51 124.51 124.51 361.7 938.80	13.2630892896	124.51	361.70	Few_Showers(cloudy)	True	False	361.70
2010-06-16 13:00:00 23220 13 146.97 146.97 146.97 746.4 1040.80	14.1212252879	146.97	746.40	Showers(cloudy)	True	False	746.40
2010-06-16 14:00:00 23221 14 130.00 130.00 130.00 522.7 920.60	14.1212252879	130.00	522.70	Showers(cloudy)	True	False	522.70
2010-06-16 15:00:00 23222 15 113.01 113.01 113.01 667.9 800.30	14.1212252879	113.01	667.90	Showers(cloudy)	True	False	667.90
2010-06-16 16:00:00 23223 16 105.04 105.04 105.04 486.1 716.10	14.6676608436	105.04	486.10	T-Showers(partly_cloudy)	True	False	486.10
2010-06-16 17:00:00 23224 17 62.54 62.54 62.54 211.4 426.40	14.6676608436	62.54	211.40	T-Showers(cloudy)	True	False	211.40
2010-06-16 18:00:00 23225 18 31.42 31.42 31.42 51.7 214.20	14.6676608436	31.42	51.70	T-Showers(cloudy)	True	False	51.70
2010-06-16 19:00:00 23226 19 7.53 7.53 7.53 7.8 53.40	14.0947144821	7.53	7.80	Scattered_T-Storms(cloudy)	True	False	7.80
2010-06-16 20:00:00 23227 20 0.49 0.49 0.49 0.0 3.50	14.0947144821	0.49	0.00	Scattered_T-Storms(cloudy)	True	False	0.00
2010-06-16 21:00:00 23228 21 0.00 0.00 0.00 0.0 0.00	14.0947144821	0.00	0.00	Scattered_T-Storms(cloudy)	True	False	0.00
2010-06-16 22:00:00 23229 22 0.00 0.00 0.00 0.0 0.00	14.0947144821	0.00	0.00	Isolated_T-Storms(cloudy)	True	False	0.00
2010-06-16 23:00:00 23230 23 0.00 0.00 0.00 0.0 0.00	14.0947144821	0.00	0.00	Isolated_T-Storms(cloudy)	True	False	0.00
2010-06-17 00:00:00 23231 0 0.00 0.00 0.00 0.0 0.00	14.0947144821	0.00	0.00	Isolated_T-Storms(cloudy)	True	False	0.00
2010-06-17 01:00:00 23232 1 0.00 0.00 0.00 0.0 0.00	64.6258503401	0.00	0.00	Mostly_Cloudy(t-storm)	True	False	0.00
2010-06-17 02:00:00 23233 2 0.00 0.00 0.00 0.0 0.00	64.6258503401	0.00	0.00	Mostly_Cloudy(cloudy)	True	False	0.00
2010-06-17 03:00:00 23234 3 0.00 0.00 0.00 0.0 0.00	64.6258503401	0.00	0.00	Mostly_Cloudy(fog)	True	False	0.00
2010-06-17 04:00:00 23235 4 0.00 0.00 0.00 0.0 0.00	78.1684981685	0.00	0.00	Partly_Cloudy(fog)	True	False	0.00
2010-06-17 05:00:00 23236 5 1.41 1.41 1.41 0.0 1.80	78.1684981685	1.41	0.00	Partly_Cloudy(sunny)	True	False	0.00
2010-06-17 06:00:00 23237 6 57.45 57.45 57.45 39.7 73.50	78.1684981685	57.45	39.70	Partly_Cloudy(sunny)	True	False	39.70
2010-06-17 07:00:00 23238 7 172.21 172.21 172.21 225.9 220.30	78.1684981685	172.21	225.90	Partly_Cloudy(sunny)	True	False	225.90
2010-06-17 08:00:00 23239 8 320.10 320.10 320.10 504.2 409.50	78.1684981685	320.10	504.20	Partly_Cloudy(sunny)	True	False	504.20
2010-06-17 09:00:00 23240 9 535.30 535.30 535.30 563.6 684.80	78.1684981685	535.30	563.60	Partly_Cloudy(partly_cloudy)	True	False	563.60
2010-06-17 10:00:00 23241 10 726.65 726.65 726.65 880.7 929.60	78.1684981685	726.65	880.70	Mostly_Sunny(partly_cloudy)	False	False	880.70
2010-06-17 11:00:00 23242 11 738.07 738.07 738.07 961.2 944.20	78.1684981685	738.07	961.20	Mostly_Sunny(partly_cloudy)	False	False	961.20
2010-06-17 12:00:00 23243 12 724.60 724.60 724.60 1024.1 938.80	77.1837349398	724.60	1024.10	Sunny(cloudy)	True	False	1024.10
