2010-05-31 20:00:00 5947 20 0.30 0.30 2.29 0.3 2.40	12.6287505598	2.29	0.30	Isolated_T-Storms(sunny)	True	False	0.30
2010-05-31 21:00:00 5948 21 0.00 0.00 0.00 0.0 0.00	12.6287505598	0.00	0.00	Isolated_T-Storms(fair)	True	False	0.00
2010-05-31 22:00:00 5949 22 0.00 0.00 0.00 0.0 0.00	12.6287505598	0.00	0.00	Isolated_T-Storms(mostly_cloudy)	True	False	0.00
2010-05-31 23:00:00 5950 23 0.00 0.00 0.00 0.0 0.00	12.6287505598	0.00	0.00	Isolated_T-Storms(mostly_cloudy)	True	False	0.00
2010-06-01 00:00:00 5951 0 0.00 0.00 0.00 0.0 0.00	12.6287505598	0.00	0.00	Isolated_T-Storms(mostly_cloudy)	True	False	0.00
2010-06-01 01:00:00 5952 1 0.00 0.00 0.00 0.0 0.00	12.6287505598	0.00	0.00	Scattered_T-Storms(mostly_cloudy)	True	False	0.00
2010-06-01 02:00:00 5953 2 0.00 0.00 0.00 0.0 0.00	12.6287505598	0.00	0.00	Scattered_T-Storms(partly_cloudy)	True	False	0.00
2010-06-01 03:00:00 5954 3 0.00 0.00 0.00 0.0 0.00	12.6287505598	0.00	0.00	Scattered_T-Storms(fog)	True	False	0.00
2010-06-01 04:00:00 5955 4 0.00 0.00 0.00 0.0 0.00	12.6287505598	0.00	0.00	Few_Showers(mostly_cloudy)	True	False	0.00
2010-06-01 05:00:00 5956 5 0.09 0.09 0.09 0.0 0.70	12.6287505598	0.09	0.00	Few_Showers(sunny)	True	False	0.00
2010-06-01 06:00:00 5957 6 9.18 9.18 9.18 42.1 72.70	12.6287505598	9.18	42.10	Few_Showers(partly_cloudy)	True	False	42.10
2010-06-01 07:00:00 5958 7 33.88 33.88 33.88 235.5 268.30	12.6287505598	33.88	235.50	Few_Showers(fair)	True	False	235.50
2010-06-01 08:00:00 5959 8 67.16 67.16 67.16 435.7 531.80	12.6287505598	67.16	435.70	Few_Showers(fair)	True	False	435.70
2010-06-01 09:00:00 5960 9 97.24 97.24 97.24 669.2 770.00	12.6287505598	97.24	669.20	Few_Showers(mostly_cloudy)	True	False	669.20
2010-06-01 10:00:00 5961 10 122.01 122.01 122.01 813.4 966.70	12.6215390314	122.01	813.40	Scattered_T-Storms(mostly_cloudy)	True	False	813.40
2010-06-01 11:00:00 5962 11 132.75 132.75 132.75 833.3 1051.80	12.6215390314	132.75	833.30	Scattered_T-Storms(mostly_cloudy)	True	False	833.30
2010-06-01 12:00:00 5963 12 138.10 138.10 138.10 882.1 1094.20	12.6215390314	138.10	882.10	Scattered_T-Storms(partly_cloudy)	True	False	882.10
2010-06-01 13:00:00 5964 13 136.30 136.30 136.30 499.8 1079.90	12.6215390314	136.30	499.80	Scattered_T-Storms(mostly_cloudy)	True	False	499.80
2010-06-01 14:00:00 5965 14 127.83 127.83 127.83 490.2 1012.80	12.6215390314	127.83	490.20	Scattered_T-Storms(mostly_cloudy)	True	False	490.20
2010-06-01 15:00:00 5966 15 112.74 112.74 112.74 488.5 893.20	12.6215390314	112.74	488.50	Scattered_T-Storms(light_rain)	True	False	488.50
2010-06-01 16:00:00 5967 16 90.43 90.43 90.43 105.4 716.10	12.6287505598	90.43	105.40	T-Storms(thunder)	True	False	105.40
2010-06-01 17:00:00 5968 17 61.22 61.22 61.22 265.4 484.80	12.6287505598	61.22	265.40	T-Storms(thunder_in_the_vicinity)	True	False	265.40
2010-06-01 18:00:00 5969 18 24.71 24.71 24.71 15.0 195.70	12.6287505598	24.71	15.00	T-Storms(t-storm)	True	False	15.00
2010-06-01 19:00:00 5970 19 6.34 6.34 6.34 27.4 50.20	12.6287505598	6.34	27.40	Scattered_T-Storms(mostly_cloudy)	True	False	27.40
2010-06-01 20:00:00 5971 20 0.30 0.30 0.30 0.0 2.40	12.6287505598	0.30	0.00	Scattered_T-Storms(cloudy)	True	False	0.00
2010-06-01 21:00:00 5972 21 0.00 0.00 0.00 0.0 0.00	12.6287505598	0.00	0.00	Scattered_T-Storms(partly_cloudy)	True	False	0.00
2010-06-01 22:00:00 5973 22 0.00 0.00 0.00 0.0 0.00	78.9788933257	0.00	0.00	Partly_Cloudy(mostly_cloudy)	True	False	0.00
2010-06-01 23:00:00 5974 23 0.00 0.00 0.00 0.0 0.00	78.9788933257	0.00	0.00	Partly_Cloudy(fair)	True	False	0.00
2010-06-02 00:00:00 5975 0 0.00 0.00 0.00 0.0 0.00	78.9788933257	0.00	0.00	Partly_Cloudy(fog)	True	False	0.00
2010-06-02 01:00:00 5976 1 0.00 0.00 0.00 0.0 0.00	88.5203130824	0.00	0.00	Clear(fog)	True	False	0.00
2010-06-02 02:00:00 5977 2 0.00 0.00 0.00 0.0 0.00	88.5203130824	0.00	0.00	Clear(light_rain)	True	False	0.00
2010-06-02 03:00:00 5978 3 0.00 0.00 0.00 0.0 0.00	88.5203130824	0.00	0.00	Clear(mostly_cloudy)	True	False	0.00
2010-06-02 04:00:00 5979 4 0.00 0.00 0.00 0.0 0.00	88.5203130824	0.00	0.00	Mostly_Clear(cloudy)	False	False	0.00
2010-06-02 05:00:00 5980 5 0.62 0.62 0.62 0.0 0.70	88.5203130824	0.62	0.00	Mostly_Clear(fog)	False	False	0.00
2010-06-02 06:00:00 5981 6 64.35 64.35 64.35 54.0 72.70	88.5203130824	64.35	54.00	Mostly_Sunny(fog)	False	False	54.00
2010-06-02 07:00:00 5982 7 237.50 237.50 237.50 244.2 268.30	88.5203130824	237.50	244.20	Mostly_Sunny(fog)	False	False	244.20
2010-06-02 08:00:00 5983 8 470.75 470.75 470.75 507.0 531.80	88.5203130824	470.75	507.00	Mostly_Sunny(sunny)	False	False	507.00
2010-06-02 09:00:00 5984 9 681.61 681.61 681.61 737.0 770.00	88.5203130824	681.61	737.00	Mostly_Sunny(sunny)	False	False	737.00
2010-06-02 10:00:00 5985 10 920.60 920.60 920.60 915.8 966.70	95.2310399111	920.60	915.80	Sunny(sunny)	True	False	915.80
2010-06-02 11:00:00 5986 11 1001.64 1001.64 1001.64 1017.0 1051.80	95.2310399111	1001.64	1017.00	Sunny(sunny)	True	False	1017.00
2010-06-02 12:00:00 5987 12 1042.02 1042.02 1042.02 1052.9 1094.20	95.2310399111	1042.02	1052.90	Sunny(sunny)	True	False	1052.90
2010-06-02 13:00:00 5988 13 1028.40 1028.40 1028.40 1034.5 1079.90	95.2310399111	1028.40	1034.50	Sunny(sunny)	True	False	1034.50
2010-06-02 14:00:00 5989 14 964.50 964.50 964.50 961.2 1012.80	95.2310399111	964.50	961.20	Sunny(sunny)	True	False	961.20
2010-06-02 15:00:00 5990 15 850.60 850.60 850.60 809.2 893.20	95.2310399111	850.60	809.20	Sunny(sunny)	True	False	809.20
2010-06-02 16:00:00 5991 16 633.89 633.89 633.89 611.2 716.10	88.5203130824	633.89	611.20	Sunny(sunny)	True	False	611.20
2010-06-02 17:00:00 5992 17 429.15 429.15 429.15 293.6 484.80	88.5203130824	429.15	293.60	Sunny(partly_cloudy)	True	False	293.60
2010-06-02 18:00:00 5993 18 173.23 173.23 173.23 162.1 195.70	88.5203130824	173.23	162.10	Sunny(sunny)	True	False	162.10
2010-06-02 19:00:00 5994 19 44.44 44.44 44.44 36.3 50.20	88.5203130824	44.44	36.30	Sunny(partly_cloudy)	True	False	36.30
2010-06-02 20:00:00 5995 20 2.12 2.12 2.12 0.1 2.40	88.5203130824	2.12	0.10	Sunny(fair)	True	False	0.10
