2010-06-14 15:00:00 22166 15 489.38 693.23 693.23 444.1 883.50	55.3907586994	693.23	444.10	Mostly_Cloudy(cloudy)	True	False	444.10
2010-06-14 16:00:00 22167 16 522.21 359.95 359.95 412.2 716.10	72.92383821	359.95	412.20	Partly_Cloudy(mostly_cloudy)	True	False	412.20
2010-06-14 17:00:00 22168 17 310.95 214.33 214.33 211.2 426.40	72.92383821	214.33	211.20	Partly_Cloudy(partly_cloudy)	True	False	211.20
2010-06-14 18:00:00 22169 18 156.20 107.67 107.67 97.6 214.20	72.92383821	107.67	97.60	Partly_Cloudy(cloudy)	True	False	97.60
2010-06-14 19:00:00 22170 19 38.94 26.84 26.84 47.7 53.40	72.92383821	26.84	47.70	Partly_Cloudy(mostly_cloudy)	True	False	47.70
2010-06-14 20:00:00 22171 20 2.55 1.76 1.76 2.5 3.50	72.92383821	1.76	2.50	Partly_Cloudy(partly_cloudy)	True	False	2.50
2010-06-14 21:00:00 22172 21 0.00 0.00 0.00 0.0 0.00	72.92383821	0.00	0.00	Partly_Cloudy(clear)	True	False	0.00
2010-06-14 22:00:00 22173 22 0.00 0.00 0.00 0.0 0.00	12.6215390314	0.00	0.00	Few_Showers(clear)	True	False	0.00
2010-06-14 23:00:00 22174 23 0.00 0.00 0.00 0.0 0.00	12.6215390314	0.00	0.00	Few_Showers(clear)	True	False	0.00
2010-06-15 00:00:00 22175 0 0.00 0.00 0.00 0.0 0.00	12.6215390314	0.00	0.00	Few_Showers(clear)	True	False	0.00
2010-06-15 01:00:00 22176 1 0.00 0.00 0.00 0.0 0.00	72.92383821	0.00	0.00	Partly_Cloudy(clear)	True	False	0.00
2010-06-15 02:00:00 22177 2 0.00 0.00 0.00 0.0 0.00	72.92383821	0.00	0.00	Partly_Cloudy(fair)	True	False	0.00
2010-06-15 03:00:00 22178 3 0.00 0.00 0.00 0.0 0.00	72.92383821	0.00	0.00	Partly_Cloudy(clear)	True	False	0.00
2010-06-15 04:00:00 22179 4 0.00 0.00 0.00 0.0 0.00	62.6961770624	0.00	0.00	Mostly_Cloudy(clear)	True	False	0.00
2010-06-15 05:00:00 22180 5 1.13 1.13 1.13 0.0 1.80	62.6961770624	1.13	0.00	Mostly_Cloudy(fair)	True	False	0.00
2010-06-15 06:00:00 22181 6 46.08 46.08 46.08 45.9 73.50	62.6961770624	46.08	45.90	Mostly_Cloudy(partly_cloudy)	True	False	45.90
2010-06-15 07:00:00 22182 7 181.22 181.22 181.22 225.9 248.50	72.92383821	181.22	225.90	Partly_Cloudy(sunny)	True	False	225.90
2010-06-15 08:00:00 22183 8 387.81 387.81 387.81 505.2 531.80	72.92383821	387.81	505.20	Partly_Cloudy(fair)	True	False	505.20
2010-06-15 09:00:00 22184 9 525.12 525.12 525.12 755.8 720.10	72.92383821	525.12	755.80	Partly_Cloudy(sunny)	True	False	755.80
2010-06-15 10:00:00 22185 10 729.40 729.40 729.40 935.8 929.60	78.4638554217	729.40	935.80	Sunny(sunny)	True	False	935.80
2010-06-15 11:00:00 22186 11 825.28 825.28 825.28 1041.9 1051.80	78.4638554217	825.28	1041.90	Sunny(sunny)	True	False	1041.90
2010-06-15 12:00:00 22187 12 858.55 858.55 858.55 1082.1 1094.20	78.4638554217	858.55	1082.10	Sunny(sunny)	True	False	1082.10
2010-06-15 13:00:00 22188 13 847.33 847.33 847.33 1084.8 1079.90	78.4638554217	847.33	1084.80	Mostly_Sunny(sunny)	False	False	1084.80
2010-06-15 14:00:00 22189 14 794.68 794.68 794.68 1016.8 1012.80	78.4638554217	794.68	1016.80	Mostly_Sunny(sunny)	False	False	1016.80
2010-06-15 15:00:00 22190 15 693.23 693.23 693.23 895.8 883.50	78.4638554217	693.23	895.80	Mostly_Sunny(sunny)	False	False	895.80
2010-06-15 16:00:00 22191 16 522.21 522.21 522.21 710.0 716.10	72.92383821	522.21	710.00	Partly_Cloudy(fair)	True	False	710.00
2010-06-15 17:00:00 22192 17 310.95 310.95 310.95 448.1 426.40	72.92383821	310.95	448.10	Partly_Cloudy(sunny)	True	False	448.10
2010-06-15 18:00:00 22193 18 156.20 156.20 156.20 184.4 214.20	72.92383821	156.20	184.40	Partly_Cloudy(sunny)	True	False	184.40
2010-06-15 19:00:00 22194 19 38.94 38.94 38.94 44.0 53.40	72.92383821	38.94	44.00	Partly_Cloudy(sunny)	True	False	44.00
2010-06-15 20:00:00 22195 20 2.55 2.55 2.55 1.9 3.50	72.92383821	2.55	1.90	Partly_Cloudy(sunny)	True	False	1.90
2010-06-15 21:00:00 22196 21 0.00 0.00 0.00 0.0 0.00	72.92383821	0.00	0.00	Partly_Cloudy(clear)	True	False	0.00
2010-06-15 22:00:00 22197 22 0.00 0.00 0.00 0.0 0.00	62.6961770624	0.00	0.00	Mostly_Cloudy(clear)	True	False	0.00
2010-06-15 23:00:00 22198 23 0.00 0.00 0.00 0.0 0.00	62.6961770624	0.00	0.00	Mostly_Cloudy(clear)	True	False	0.00
2010-06-16 00:00:00 22199 0 0.00 0.00 0.00 0.0 0.00	62.6961770624	0.00	0.00	Mostly_Cloudy(clear)	True	False	0.00
2010-06-16 01:00:00 22200 1 0.00 0.00 0.00 0.0 0.00	62.6961770624	0.00	0.00	Mostly_Cloudy(clear)	True	False	0.00
2010-06-16 02:00:00 22201 2 0.00 0.00 0.00 0.0 0.00	62.6961770624	0.00	0.00	Mostly_Cloudy(clear)	True	False	0.00
2010-06-16 03:00:00 22202 3 0.00 0.00 0.00 0.0 0.00	62.6961770624	0.00	0.00	Mostly_Cloudy(mostly_cloudy)	True	False	0.00
2010-06-16 04:00:00 22203 4 0.00 0.00 0.00 0.0 0.00	12.6215390314	0.00	0.00	Few_Showers(cloudy)	True	False	0.00
2010-06-16 05:00:00 22204 5 0.23 0.23 0.23 0.0 1.80	12.6215390314	0.23	0.00	Few_Showers(cloudy)	True	False	0.00
2010-06-16 06:00:00 22205 6 9.28 9.28 9.28 25.3 73.50	12.6215390314	9.28	25.30	Few_Showers(cloudy)	True	False	25.30
2010-06-16 07:00:00 22206 7 35.31 35.31 35.31 131.9 248.50	14.2104130809	35.31	131.90	Showers(cloudy)	True	False	131.90
2010-06-16 08:00:00 22207 8 75.57 75.57 75.57 127.3 531.80	14.2104130809	75.57	127.30	Showers(cloudy)	True	False	127.30
2010-06-16 09:00:00 22208 9 102.33 102.33 102.33 265.3 720.10	14.2104130809	102.33	265.30	Showers(cloudy)	True	False	265.30
2010-06-16 10:00:00 22209 10 118.62 118.62 118.62 186.9 929.60	12.7604407816	118.62	186.90	Showers(cloudy)	True	False	186.90
2010-06-16 11:00:00 22210 11 134.21 134.21 134.21 369.6 1051.80	12.7604407816	134.21	369.60	Showers(cloudy)	True	False	369.60
2010-06-16 12:00:00 22211 12 139.62 139.62 139.62 361.7 1094.20	12.7604407816	139.62	361.70	Showers(cloudy)	True	False	361.70
2010-06-16 13:00:00 22212 13 137.80 137.80 137.80 746.4 1079.90	12.7604407816	137.80	746.40	T-Showers(cloudy)	True	False	746.40
2010-06-16 14:00:00 22213 14 129.24 129.24 129.24 522.7 1012.80	12.7604407816	129.24	522.70	T-Showers(cloudy)	True	False	522.70
2010-06-16 15:00:00 22214 15 112.74 112.74 112.74 667.9 883.50	12.7604407816	112.74	667.90	T-Showers(cloudy)	True	False	667.90
