2010-06-23 21:00:00 33044 21 0.00 0.00 0.00 0.0 0.00	75.1008064516	0.00	0.00	Clear(clear)	True	False	0.00
2010-06-23 22:00:00 33045 22 0.00 0.00 0.00 0.0 0.00	75.1008064516	0.00	0.00	Mostly_Clear(clear)	False	False	0.00
2010-06-23 23:00:00 33046 23 0.00 0.00 0.00 0.0 0.00	75.1008064516	0.00	0.00	Mostly_Clear(partly_cloudy)	False	False	0.00
2010-06-24 00:00:00 33047 0 0.00 0.00 0.00 0.0 0.00	75.1008064516	0.00	0.00	Mostly_Clear(clear)	False	False	0.00
2010-06-24 01:00:00 33048 1 0.00 0.00 0.00 0.0 0.00	75.5102040816	0.00	0.00	Partly_Cloudy(clear)	True	False	0.00
2010-06-24 02:00:00 33049 2 0.00 0.00 0.00 0.0 0.00	75.5102040816	0.00	0.00	Partly_Cloudy(partly_cloudy)	True	False	0.00
2010-06-24 03:00:00 33050 3 0.00 0.00 0.00 0.0 0.00	75.5102040816	0.00	0.00	Partly_Cloudy(mostly_cloudy)	True	False	0.00
2010-06-24 04:00:00 33051 4 0.00 0.00 0.00 0.0 0.00	14.2514213519	0.00	0.00	Isolated_T-Storms(mostly_cloudy)	True	False	0.00
2010-06-24 05:00:00 33052 5 0.26 0.26 0.26 0.0 1.80	14.2514213519	0.26	0.00	Isolated_T-Storms(partly_cloudy)	True	False	0.00
2010-06-24 06:00:00 33053 6 10.47 10.47 10.47 46.5 73.50	14.2514213519	10.47	46.50	Isolated_T-Storms(partly_cloudy)	True	False	46.50
2010-06-24 07:00:00 33054 7 166.35 166.35 166.35 152.6 220.30	75.5102040816	166.35	152.60	Partly_Cloudy(partly_cloudy)	True	False	152.60
2010-06-24 08:00:00 33055 8 366.60 366.60 366.60 369.6 485.50	75.5102040816	366.60	369.60	Partly_Cloudy(fair)	True	False	369.60
2010-06-24 09:00:00 33056 9 524.34 524.34 524.34 574.6 694.40	75.5102040816	524.34	574.60	Partly_Cloudy(fair)	True	False	574.60
2010-06-24 10:00:00 33057 10 132.48 132.48 132.48 662.9 929.60	14.2514213519	132.48	662.90	Isolated_T-Storms(sunny)	True	False	662.90
2010-06-24 11:00:00 33058 11 134.56 134.56 134.56 667.5 944.20	14.2514213519	134.56	667.50	Isolated_T-Storms(sunny)	True	False	667.50
2010-06-24 12:00:00 33059 12 133.79 133.79 133.79 405.8 938.80	14.2514213519	133.79	405.80	Isolated_T-Storms(fair)	True	False	405.80
2010-06-24 13:00:00 33060 13 141.89 141.89 141.89 736.7 995.60	14.2514213519	141.89	736.70	Scattered_Strong_Storms(partly_cloudy)	True	False	736.70
2010-06-24 14:00:00 33061 14 135.52 135.52 135.52 700.6 950.90	14.2514213519	135.52	700.60	Scattered_Strong_Storms(partly_cloudy)	True	False	700.60
2010-06-24 15:00:00 33062 15 112.80 112.80 112.80 128.9 791.50	14.2514213519	112.80	128.90	Scattered_Strong_Storms(fair)	True	False	128.90
2010-06-24 16:00:00 33063 16 97.17 97.17 97.17 332.4 681.80	14.2514213519	97.17	332.40	Scattered_Strong_Storms(fair)	True	False	332.40
2010-06-24 17:00:00 33064 17 68.79 68.79 68.79 329.8 482.70	14.2514213519	68.79	329.80	Scattered_Strong_Storms(partly_cloudy)	True	False	329.80
2010-06-24 18:00:00 33065 18 30.53 30.53 30.53 143.6 214.20	14.2514213519	30.53	143.60	Scattered_Strong_Storms(partly_cloudy)	True	False	143.60
2010-06-24 19:00:00 33066 19 11.60 11.60 11.60 28.7 81.40	14.2514213519	11.60	28.70	Isolated_T-Storms(sunny)	True	False	28.70
2010-06-24 20:00:00 33067 20 0.95 0.95 0.95 2.0 6.70	14.2514213519	0.95	2.00	Isolated_T-Storms(sunny)	True	False	2.00
2010-06-24 21:00:00 33068 21 0.00 0.00 0.00 0.0 0.00	14.2514213519	0.00	0.00	Isolated_T-Storms(clear)	True	False	0.00
2010-06-24 22:00:00 33069 22 0.00 0.00 0.00 0.0 0.00	75.1008064516	0.00	0.00	Clear(clear)	True	False	0.00
2010-06-24 23:00:00 33070 23 0.00 0.00 0.00 0.0 0.00	75.1008064516	0.00	0.00	Clear(clear)	True	False	0.00
2010-06-25 00:00:00 33071 0 0.00 0.00 0.00 0.0 0.00	75.1008064516	0.00	0.00	Clear(clear)	True	False	0.00
2010-06-25 01:00:00 33072 1 0.00 0.00 0.00 0.0 0.00	75.1008064516	0.00	0.00	Clear(clear)	True	False	0.00
2010-06-25 02:00:00 33073 2 0.00 0.00 0.00 0.0 0.00	75.1008064516	0.00	0.00	Clear(clear)	True	False	0.00
2010-06-25 03:00:00 33074 3 0.00 0.00 0.00 0.0 0.00	75.1008064516	0.00	0.00	Clear(clear)	True	False	0.00
2010-06-25 04:00:00 33075 4 0.00 0.00 0.00 0.0 0.00	75.1008064516	0.00	0.00	Clear(clear)	True	False	0.00
2010-06-25 05:00:00 33076 5 1.35 1.35 1.35 0.0 1.80	75.1008064516	1.35	0.00	Clear(sunny)	True	False	0.00
2010-06-25 06:00:00 33077 6 55.20 55.20 55.20 24.1 73.50	75.1008064516	55.20	24.10	Sunny(sunny)	True	False	24.10
2010-06-25 07:00:00 33078 7 165.45 165.45 165.45 175.0 220.30	75.1008064516	165.45	175.00	Sunny(sunny)	True	False	175.00
2010-06-25 08:00:00 33079 8 364.61 364.61 364.61 391.3 485.50	75.1008064516	364.61	391.30	Sunny(sunny)	True	False	391.30
2010-06-25 09:00:00 33080 9 521.50 521.50 521.50 557.1 694.40	75.1008064516	521.50	557.10	Sunny(sunny)	True	False	557.10
2010-06-25 10:00:00 33081 10 757.84 757.84 757.84 615.3 929.60	81.5227679041	757.84	615.30	Sunny(sunny)	True	False	615.30
2010-06-25 11:00:00 33082 11 769.74 769.74 769.74 712.8 944.20	81.5227679041	769.74	712.80	Sunny(sunny)	True	False	712.80
2010-06-25 12:00:00 33083 12 765.34 765.34 765.34 737.8 938.80	81.5227679041	765.34	737.80	Sunny(mostly_cloudy)	True	False	737.80
2010-06-25 13:00:00 33084 13 811.64 811.64 811.64 706.1 995.60	81.5227679041	811.64	706.10	Sunny(sunny)	True	False	706.10
2010-06-25 14:00:00 33085 14 775.20 775.20 775.20 778.4 950.90	81.5227679041	775.20	778.40	Sunny(fair)	True	False	778.40
2010-06-25 15:00:00 33086 15 645.25 645.25 645.25 655.8 791.50	81.5227679041	645.25	655.80	Sunny(sunny)	True	False	655.80
2010-06-25 16:00:00 33087 16 512.04 512.04 512.04 465.9 681.80	75.1008064516	512.04	465.90	Sunny(fair)	True	False	465.90
2010-06-25 17:00:00 33088 17 362.51 362.51 362.51 327.8 482.70	75.1008064516	362.51	327.80	Sunny(fair)	True	False	327.80
2010-06-25 18:00:00 33089 18 160.87 160.87 160.87 138.8 214.20	75.1008064516	160.87	138.80	Sunny(sunny)	True	False	138.80
2010-06-25 19:00:00 33090 19 61.13 61.13 61.13 44.7 81.40	75.1008064516	61.13	44.70	Sunny(fair)	True	False	44.70
2010-06-25 20:00:00 33091 20 5.03 5.03 5.03 2.6 6.70	75.1008064516	5.03	2.60	Sunny(sunny)	True	False	2.60
2010-06-25 21:00:00 33092 21 0.00 0.00 0.00 0.0 0.00	75.1008064516	0.00	0.00	Clear(clear)	True	False	0.00
