2010-07-07 08:00:00 48871 8 387.50 387.50 387.50 350.2 485.90	79.7498640566	387.50	350.20	Mostly_Sunny(fair)	False	False	350.20
2010-07-07 09:00:00 48872 9 537.01 537.01 537.01 521.5 745.10	79.7498640566	537.01	521.50	Mostly_Sunny(sunny)	False	False	521.50
2010-07-07 10:00:00 48873 10 733.30 733.30 733.30 656.0 919.50	79.7498640566	733.30	656.00	Mostly_Sunny(sunny)	False	False	656.00
2010-07-07 11:00:00 48874 11 828.52 828.52 828.52 758.5 1038.90	79.7498640566	828.52	758.50	Mostly_Sunny(sunny)	False	False	758.50
2010-07-07 12:00:00 48875 12 883.71 883.71 883.71 803.8 1108.10	79.7498640566	883.71	803.80	Mostly_Sunny(sunny)	False	False	803.80
2010-07-07 13:00:00 48876 13 883.39 883.39 883.39 226.6 1107.70	79.7498640566	883.39	226.60	Mostly_Sunny(sunny)	False	False	226.60
2010-07-07 14:00:00 48877 14 845.67 845.67 845.67 5.3 1060.40	79.7498640566	845.67	5.30	Mostly_Sunny(fair)	False	False	5.30
2010-07-07 15:00:00 48878 15 748.93 748.93 748.93 646.8 939.10	79.7498640566	748.93	646.80	Mostly_Sunny(fair)	False	False	646.80
2010-07-07 16:00:00 48879 16 560.27 560.27 560.27 505.8 758.90	73.8263950399	560.27	505.80	Partly_Cloudy(fair)	True	False	505.80
2010-07-07 17:00:00 48880 17 368.17 368.17 368.17 312.2 498.70	73.8263950399	368.17	312.20	Partly_Cloudy(fair)	True	False	312.20
2010-07-07 18:00:00 48881 18 166.70 166.70 166.70 141.8 225.80	73.8263950399	166.70	141.80	Partly_Cloudy(mostly_cloudy)	True	False	141.80
2010-07-07 19:00:00 48882 19 60.09 60.09 60.09 41.0 81.40	73.8263950399	60.09	41.00	Partly_Cloudy(fair)	True	False	41.00
2010-07-07 20:00:00 48883 20 5.02 5.02 5.02 2.6 6.80	73.8263950399	5.02	2.60	Partly_Cloudy(sunny)	True	False	2.60
2010-07-07 21:00:00 48884 21 0.00 0.00 0.00 0.0 0.00	73.8263950399	0.00	0.00	Partly_Cloudy(clear)	True	False	0.00
2010-07-07 22:00:00 48885 22 0.00 0.00 0.00 0.0 0.00	73.8263950399	0.00	0.00	Mostly_Clear(clear)	False	False	0.00
2010-07-07 23:00:00 48886 23 0.00 0.00 0.00 0.0 0.00	73.8263950399	0.00	0.00	Mostly_Clear(partly_cloudy)	False	False	0.00
2010-07-08 00:00:00 48887 0 0.00 0.00 0.00 0.0 0.00	73.8263950399	0.00	0.00	Mostly_Clear(fair)	False	False	0.00
2010-07-08 01:00:00 48888 1 0.00 0.00 0.00 0.0 0.00	73.8263950399	0.00	0.00	Partly_Cloudy(clear)	True	False	0.00
2010-07-08 02:00:00 48889 2 0.00 0.00 0.00 0.0 0.00	73.8263950399	0.00	0.00	Partly_Cloudy(clear)	True	False	0.00
2010-07-08 03:00:00 48890 3 0.00 0.00 0.00 0.0 0.00	73.8263950399	0.00	0.00	Partly_Cloudy(clear)	True	False	0.00
2010-07-08 04:00:00 48891 4 0.00 0.00 0.00 0.0 0.00	73.8263950399	0.00	0.00	Partly_Cloudy(clear)	True	False	0.00
2010-07-08 05:00:00 48892 5 0.22 0.22 0.22 0.0 0.30	73.8263950399	0.22	0.00	Partly_Cloudy(clear)	True	False	0.00
2010-07-08 06:00:00 48893 6 57.36 57.36 57.36 22.0 77.70	73.8263950399	57.36	22.00	Partly_Cloudy(fog)	True	False	22.00
2010-07-08 07:00:00 48894 7 153.12 153.12 153.12 75.0 207.40	73.8263950399	153.12	75.00	Partly_Cloudy(sunny)	True	False	75.00
2010-07-08 08:00:00 48895 8 358.72 358.72 358.72 120.0 485.90	73.8263950399	358.72	120.00	Partly_Cloudy(cloudy)	True	False	120.00
2010-07-08 09:00:00 48896 9 550.08 550.08 550.08 246.0 745.10	73.8263950399	550.08	246.00	Partly_Cloudy(fair)	True	False	246.00
2010-07-08 10:00:00 48897 10 296.99 296.99 296.99 296.5 919.50	32.2991324029	296.99	296.50	Isolated_T-Storms(cloudy)	True	False	296.50
2010-07-08 11:00:00 48898 11 335.56 335.56 335.56 195.1 1038.90	32.2991324029	335.56	195.10	Isolated_T-Storms(partly_cloudy)	True	False	195.10
2010-07-08 12:00:00 48899 12 357.91 357.91 357.91 313.9 1108.10	32.2991324029	357.91	313.90	Isolated_T-Storms(partly_cloudy)	True	False	313.90
2010-07-08 13:00:00 48900 13 818.76 818.76 818.76 441.0 1107.70	73.9155035836	818.76	441.00	Partly_Cloudy(light_rain)	True	False	441.00
2010-07-08 14:00:00 48901 14 783.80 783.80 783.80 624.2 1060.40	73.9155035836	783.80	624.20	Partly_Cloudy(partly_cloudy)	True	False	624.20
2010-07-08 15:00:00 48902 15 694.14 694.14 694.14 622.4 939.10	73.9155035836	694.14	622.40	Partly_Cloudy(mostly_cloudy)	True	False	622.40
2010-07-08 16:00:00 48903 16 560.27 560.27 560.27 535.7 758.90	73.8263950399	560.27	535.70	Partly_Cloudy(mostly_cloudy)	True	False	535.70
2010-07-08 17:00:00 48904 17 368.17 368.17 368.17 325.4 498.70	73.8263950399	368.17	325.40	Partly_Cloudy(partly_cloudy)	True	False	325.40
2010-07-08 18:00:00 48905 18 166.70 166.70 166.70 138.8 225.80	73.8263950399	166.70	138.80	Partly_Cloudy(fair)	True	False	138.80
2010-07-08 19:00:00 48906 19 60.09 60.09 60.09 24.1 81.40	73.8263950399	60.09	24.10	Partly_Cloudy(sunny)	True	False	24.10
2010-07-08 20:00:00 48907 20 5.02 5.02 5.02 1.2 6.80	73.8263950399	5.02	1.20	Partly_Cloudy(fair)	True	False	1.20
2010-07-08 21:00:00 48908 21 0.00 0.00 0.00 0.0 0.00	73.8263950399	0.00	0.00	Partly_Cloudy(clear)	True	False	0.00
2010-07-08 22:00:00 48909 22 0.00 0.00 0.00 0.0 0.00	73.8263950399	0.00	0.00	Partly_Cloudy(clear)	True	False	0.00
2010-07-08 23:00:00 48910 23 0.00 0.00 0.00 0.0 0.00	73.8263950399	0.00	0.00	Partly_Cloudy(clear)	True	False	0.00
2010-07-09 00:00:00 48911 0 0.00 0.00 0.00 0.0 0.00	73.8263950399	0.00	0.00	Partly_Cloudy(fair)	True	False	0.00
2010-07-09 01:00:00 48912 1 0.00 0.00 0.00 0.0 0.00	73.8263950399	0.00	0.00	Partly_Cloudy(partly_cloudy)	True	False	0.00
2010-07-09 02:00:00 48913 2 0.00 0.00 0.00 0.0 0.00	73.8263950399	0.00	0.00	Partly_Cloudy(mostly_cloudy)	True	False	0.00
2010-07-09 03:00:00 48914 3 0.00 0.00 0.00 0.0 0.00	73.8263950399	0.00	0.00	Partly_Cloudy(cloudy)	True	False	0.00
2010-07-09 04:00:00 48915 4 0.00 0.00 0.00 0.0 0.00	73.8263950399	0.00	0.00	Mostly_Clear(fair)	False	False	0.00
2010-07-09 05:00:00 48916 5 0.22 0.22 0.22 0.0 0.30	73.8263950399	0.22	0.00	Mostly_Clear(fair)	False	False	0.00
2010-07-09 06:00:00 48917 6 57.36 57.36 57.36 28.4 77.70	73.8263950399	57.36	28.40	Mostly_Sunny(mostly_cloudy)	False	False	28.40
2010-07-09 07:00:00 48918 7 153.12 153.12 153.12 139.4 207.40	73.8263950399	153.12	139.40	Mostly_Sunny(cloudy)	False	False	139.40
2010-07-09 08:00:00 48919 8 358.72 358.72 358.72 318.2 485.90	73.8263950399	358.72	318.20	Mostly_Sunny(light_rain)	False	False	318.20
