2010-07-11 00:00:00 53183 0 0.00 0.00 0.00 0.0 0.00	24.4288948343	0.00	0.00	Isolated_T-Storms(fair)	True	False	0.00
2010-07-11 01:00:00 53184 1 0.00 0.00 0.00 0.0 0.00	24.4288948343	0.00	0.00	Isolated_T-Storms(partly_cloudy)	True	False	0.00
2010-07-11 02:00:00 53185 2 0.00 0.00 0.00 0.0 0.00	24.4288948343	0.00	0.00	Isolated_T-Storms(mostly_cloudy)	True	False	0.00
2010-07-11 03:00:00 53186 3 0.00 0.00 0.00 0.0 0.00	24.4288948343	0.00	0.00	Isolated_T-Storms(fair)	True	False	0.00
2010-07-11 04:00:00 53187 4 0.00 0.00 0.00 0.0 0.00	73.7248504622	0.00	0.00	Partly_Cloudy(fair)	True	False	0.00
2010-07-11 05:00:00 53188 5 0.22 0.22 0.22 0.0 0.30	73.7248504622	0.22	0.00	Partly_Cloudy(partly_cloudy)	True	False	0.00
2010-07-11 06:00:00 53189 6 57.28 57.28 57.28 34.9 77.70	73.7248504622	57.28	34.90	Partly_Cloudy(partly_cloudy)	True	False	34.90
2010-07-11 07:00:00 53190 7 152.91 152.91 152.91 197.6 207.40	73.7248504622	152.91	197.60	Partly_Cloudy(fair)	True	False	197.60
2010-07-11 08:00:00 53191 8 358.23 358.23 358.23 420.7 485.90	73.7248504622	358.23	420.70	Partly_Cloudy(fair)	True	False	420.70
2010-07-11 09:00:00 53192 9 549.32 549.32 549.32 516.0 745.10	73.7248504622	549.32	516.00	Partly_Cloudy(fair)	True	False	516.00
2010-07-11 10:00:00 53193 10 677.90 677.90 677.90 629.8 919.50	73.7248504622	677.90	629.80	Mostly_Sunny(mostly_cloudy)	False	False	629.80
2010-07-11 11:00:00 53194 11 765.93 765.93 765.93 741.7 1038.90	73.7248504622	765.93	741.70	Mostly_Sunny(fair)	False	False	741.70
2010-07-11 12:00:00 53195 12 816.95 816.95 816.95 836.2 1108.10	73.7248504622	816.95	836.20	Mostly_Sunny(partly_cloudy)	False	False	836.20
2010-07-11 13:00:00 53196 13 816.65 816.65 816.65 400.6 1107.70	73.7248504622	816.65	400.60	Mostly_Sunny(fair)	False	False	400.60
2010-07-11 14:00:00 53197 14 781.78 781.78 781.78 311.1 1060.40	73.7248504622	781.78	311.10	Mostly_Sunny(fair)	False	False	311.10
2010-07-11 15:00:00 53198 15 692.35 692.35 692.35 206.1 939.10	73.7248504622	692.35	206.10	Mostly_Sunny(fair)	False	False	206.10
2010-07-11 16:00:00 53199 16 559.50 559.50 559.50 445.3 758.90	73.7248504622	559.50	445.30	Mostly_Sunny(fair)	False	False	445.30
2010-07-11 17:00:00 53200 17 367.67 367.67 367.67 452.3 498.70	73.7248504622	367.67	452.30	Mostly_Sunny(sunny)	False	False	452.30
2010-07-11 18:00:00 53201 18 166.47 166.47 166.47 219.8 225.80	73.7248504622	166.47	219.80	Mostly_Sunny(sunny)	False	False	219.80
2010-07-11 19:00:00 53202 19 62.78 62.78 62.78 37.2 81.40	77.1288743883	62.78	37.20	Sunny(sunny)	True	False	37.20
2010-07-11 20:00:00 53203 20 5.24 5.24 5.24 1.7 6.80	77.1288743883	5.24	1.70	Sunny(sunny)	True	False	1.70
2010-07-11 21:00:00 53204 21 0.00 0.00 0.00 0.0 0.00	77.1288743883	0.00	0.00	Clear(clear)	True	False	0.00
2010-07-11 22:00:00 53205 22 0.00 0.00 0.00 0.0 0.00	77.1288743883	0.00	0.00	Mostly_Clear(clear)	False	False	0.00
2010-07-11 23:00:00 53206 23 0.00 0.00 0.00 0.0 0.00	77.1288743883	0.00	0.00	Mostly_Clear(clear)	False	False	0.00
2010-07-12 00:00:00 53207 0 0.00 0.00 0.00 0.0 0.00	77.1288743883	0.00	0.00	Mostly_Clear(clear)	False	False	0.00
2010-07-12 01:00:00 53208 1 0.00 0.00 0.00 0.0 0.00	77.1288743883	0.00	0.00	Mostly_Clear(clear)	False	False	0.00
2010-07-12 02:00:00 53209 2 0.00 0.00 0.00 0.0 0.00	77.1288743883	0.00	0.00	Mostly_Clear(clear)	False	False	0.00
2010-07-12 03:00:00 53210 3 0.00 0.00 0.00 0.0 0.00	77.1288743883	0.00	0.00	Mostly_Clear(clear)	False	False	0.00
2010-07-12 04:00:00 53211 4 0.00 0.00 0.00 0.0 0.00	77.1288743883	0.00	0.00	Clear(fog)	True	False	0.00
2010-07-12 05:00:00 53212 5 0.23 0.23 0.23 0.0 0.30	77.1288743883	0.23	0.00	Clear(fair)	True	False	0.00
2010-07-12 06:00:00 53213 6 59.93 59.93 59.93 77.7 77.70	77.1288743883	59.93	77.70	Sunny(sunny)	True	False	77.70
2010-07-12 07:00:00 53214 7 159.97 159.97 159.97 186.0 207.40	77.1288743883	159.97	186.00	Sunny(sunny)	True	False	186.00
2010-07-12 08:00:00 53215 8 374.77 374.77 374.77 454.0 485.90	77.1288743883	374.77	454.00	Sunny(sunny)	True	False	454.00
2010-07-12 09:00:00 53216 9 574.69 574.69 574.69 518.0 745.10	77.1288743883	574.69	518.00	Sunny(sunny)	True	False	518.00
2010-07-12 10:00:00 53217 10 741.53 741.53 741.53 597.2 919.50	80.6445788571	741.53	597.20	Sunny(partly_cloudy)	True	False	597.20
2010-07-12 11:00:00 53218 11 837.82 837.82 837.82 898.0 1038.90	80.6445788571	837.82	898.00	Sunny(mostly_cloudy)	True	False	898.00
2010-07-12 12:00:00 53219 12 893.62 893.62 893.62 1031.2 1108.10	80.6445788571	893.62	1031.20	Sunny(partly_cloudy)	True	False	1031.20
2010-07-12 13:00:00 53220 13 893.30 893.30 893.30 927.1 1107.70	80.6445788571	893.30	927.10	Mostly_Sunny(fair)	False	False	927.10
2010-07-12 14:00:00 53221 14 855.16 855.16 855.16 907.1 1060.40	80.6445788571	855.16	907.10	Mostly_Sunny(sunny)	False	False	907.10
2010-07-12 15:00:00 53222 15 757.33 757.33 757.33 485.2 939.10	80.6445788571	757.33	485.20	Mostly_Sunny(sunny)	False	False	485.20
2010-07-12 16:00:00 53223 16 447.28 447.28 447.28 399.8 758.90	58.9373375686	447.28	399.80	Mostly_Cloudy(partly_cloudy)	True	False	399.80
2010-07-12 17:00:00 53224 17 293.92 293.92 293.92 220.2 498.70	58.9373375686	293.92	220.20	Mostly_Cloudy(mostly_cloudy)	True	False	220.20
2010-07-12 18:00:00 53225 18 133.08 133.08 133.08 71.7 225.80	58.9373375686	133.08	71.70	Mostly_Cloudy(mostly_cloudy)	True	False	71.70
2010-07-12 19:00:00 53226 19 47.97 47.97 47.97 9.2 81.40	58.9373375686	47.97	9.20	Mostly_Cloudy(mostly_cloudy)	True	False	9.20
2010-07-12 20:00:00 53227 20 4.01 4.01 4.01 0.0 6.80	58.9373375686	4.01	0.00	Mostly_Cloudy(fair)	True	False	0.00
2010-07-12 21:00:00 53228 21 0.00 0.00 0.00 0.0 0.00	58.9373375686	0.00	0.00	Mostly_Cloudy(light_rain)	True	False	0.00
2010-07-12 22:00:00 53229 22 0.00 0.00 0.00 0.0 0.00	58.9373375686	0.00	0.00	Mostly_Cloudy(mostly_cloudy)	True	False	0.00
2010-07-12 23:00:00 53230 23 0.00 0.00 0.00 0.0 0.00	58.9373375686	0.00	0.00	Mostly_Cloudy(light_rain)	True	False	0.00
2010-07-13 00:00:00 53231 0 0.00 0.00 0.00 0.0 0.00	58.9373375686	0.00	0.00	Mostly_Cloudy(t-storm)	True	False	0.00
