2010-06-02 06:00:00 7613 6 46.12 46.12 46.12 54.0 58.40	78.9788933257	46.12	54.00	Partly_Cloudy(fog)	True	False	54.00
2010-06-02 07:00:00 7614 7 248.09 248.09 248.09 244.2 268.30	78.9788933257	248.09	244.20	Mostly_Sunny(fog)	False	False	244.20
2010-06-02 08:00:00 7615 8 420.01 420.01 420.01 507.0 531.80	78.9788933257	420.01	507.00	Mostly_Sunny(sunny)	False	False	507.00
2010-06-02 09:00:00 7616 9 608.14 608.14 608.14 737.0 770.00	78.9788933257	608.14	737.00	Mostly_Sunny(sunny)	False	False	737.00
2010-06-02 10:00:00 7617 10 752.19 752.19 752.19 915.8 952.40	78.9788933257	752.19	915.80	Mostly_Sunny(sunny)	False	False	915.80
2010-06-02 11:00:00 7618 11 830.70 830.70 830.70 1017.0 1051.80	78.9788933257	830.70	1017.00	Mostly_Sunny(sunny)	False	False	1017.00
2010-06-02 12:00:00 7619 12 864.19 864.19 864.19 1052.9 1094.20	78.9788933257	864.19	1052.90	Mostly_Sunny(sunny)	False	False	1052.90
2010-06-02 13:00:00 7620 13 1029.90 1029.90 1029.90 1034.5 1079.90	95.3695926081	1029.90	1034.50	Sunny(sunny)	True	False	1034.50
2010-06-02 14:00:00 7621 14 965.90 965.90 965.90 961.2 1012.80	95.3695926081	965.90	961.20	Sunny(sunny)	True	False	961.20
2010-06-02 15:00:00 7622 15 851.84 851.84 851.84 809.2 893.20	95.3695926081	851.84	809.20	Sunny(sunny)	True	False	809.20
2010-06-02 16:00:00 7623 16 682.94 682.94 682.94 611.2 716.10	95.3695926081	682.94	611.20	Mostly_Sunny(sunny)	False	False	611.20
2010-06-02 17:00:00 7624 17 400.17 400.17 400.17 293.6 419.60	95.3695926081	400.17	293.60	Mostly_Sunny(partly_cloudy)	False	False	293.60
2010-06-02 18:00:00 7625 18 204.28 204.28 204.28 162.1 214.20	95.3695926081	204.28	162.10	Mostly_Sunny(sunny)	False	False	162.10
2010-06-02 19:00:00 7626 19 50.74 50.74 50.74 36.3 53.20	95.3695926081	50.74	36.30	Mostly_Sunny(partly_cloudy)	False	False	36.30
2010-06-02 20:00:00 7627 20 2.29 2.29 2.29 0.1 2.40	95.3695926081	2.29	0.10	Mostly_Sunny(fair)	False	False	0.10
2010-06-02 21:00:00 7628 21 0.00 0.00 0.00 0.0 0.00	95.3695926081	0.00	0.00	Mostly_Clear(fair)	False	False	0.00
2010-06-02 22:00:00 7629 22 0.00 0.00 0.00 0.0 0.00	78.9788933257	0.00	0.00	Partly_Cloudy(clear)	True	False	0.00
2010-06-02 23:00:00 7630 23 0.00 0.00 0.00 0.0 0.00	78.9788933257	0.00	0.00	Partly_Cloudy(clear)	True	False	0.00
2010-06-03 00:00:00 7631 0 0.00 0.00 0.00 0.0 0.00	78.9788933257	0.00	0.00	Partly_Cloudy(clear)	True	False	0.00
2010-06-03 01:00:00 7632 1 0.00 0.00 0.00 0.0 0.00	78.9788933257	0.00	0.00	Partly_Cloudy(clear)	True	False	0.00
2010-06-03 02:00:00 7633 2 0.00 0.00 0.00 0.0 0.00	78.9788933257	0.00	0.00	Partly_Cloudy(fog)	True	False	0.00
2010-06-03 03:00:00 7634 3 0.00 0.00 0.00 0.0 0.00	78.9788933257	0.00	0.00	Partly_Cloudy(clear)	True	False	0.00
2010-06-03 04:00:00 7635 4 0.00 0.00 0.00 0.0 0.00	78.9788933257	0.00	0.00	Partly_Cloudy(clear)	True	False	0.00
2010-06-03 05:00:00 7636 5 1.42 1.42 1.42 0.0 1.80	78.9788933257	1.42	0.00	Partly_Cloudy(fog)	True	False	0.00
2010-06-03 06:00:00 7637 6 46.12 46.12 46.12 71.3 58.40	78.9788933257	46.12	71.30	Partly_Cloudy(fog)	True	False	71.30
2010-06-03 07:00:00 7638 7 211.90 211.90 211.90 225.3 268.30	78.9788933257	211.90	225.30	Partly_Cloudy(sunny)	True	False	225.30
2010-06-03 08:00:00 7639 8 420.01 420.01 420.01 463.7 531.80	78.9788933257	420.01	463.70	Partly_Cloudy(sunny)	True	False	463.70
2010-06-03 09:00:00 7640 9 608.14 608.14 608.14 597.5 770.00	78.9788933257	608.14	597.50	Partly_Cloudy(partly_cloudy)	True	False	597.50
2010-06-03 10:00:00 7641 10 819.62 819.62 819.62 764.4 952.40	86.0584518167	819.62	764.40	Partly_Cloudy(fair)	True	False	764.40
2010-06-03 11:00:00 7642 11 905.16 905.16 905.16 994.6 1051.80	86.0584518167	905.16	994.60	Partly_Cloudy(sunny)	True	False	994.60
2010-06-03 12:00:00 7643 12 941.65 941.65 941.65 869.2 1094.20	86.0584518167	941.65	869.20	Partly_Cloudy(fair)	True	False	869.20
2010-06-03 13:00:00 7644 13 929.35 929.35 929.35 742.2 1079.90	86.0584518167	929.35	742.20	Partly_Cloudy(partly_cloudy)	True	False	742.20
2010-06-03 14:00:00 7645 14 871.60 871.60 871.60 988.4 1012.80	86.0584518167	871.60	988.40	Partly_Cloudy(sunny)	True	False	988.40
2010-06-03 15:00:00 7646 15 768.67 768.67 768.67 836.5 893.20	86.0584518167	768.67	836.50	Partly_Cloudy(partly_cloudy)	True	False	836.50
2010-06-03 16:00:00 7647 16 90.43 90.43 90.43 663.8 716.10	12.6287505598	90.43	663.80	Isolated_T-Storms(fair)	True	False	663.80
2010-06-03 17:00:00 7648 17 52.99 52.99 52.99 385.1 419.60	12.6287505598	52.99	385.10	Isolated_T-Storms(sunny)	True	False	385.10
2010-06-03 18:00:00 7649 18 27.05 27.05 27.05 154.7 214.20	12.6287505598	27.05	154.70	Isolated_T-Storms(sunny)	True	False	154.70
2010-06-03 19:00:00 7650 19 6.72 6.72 6.72 45.0 53.20	12.6287505598	6.72	45.00	Scattered_T-Storms(sunny)	True	False	45.00
2010-06-03 20:00:00 7651 20 0.30 0.30 0.30 0.2 2.40	12.6287505598	0.30	0.20	Scattered_T-Storms(partly_cloudy)	True	False	0.20
2010-06-03 21:00:00 7652 21 0.00 0.00 0.00 0.0 0.00	12.6287505598	0.00	0.00	Scattered_T-Storms(mostly_cloudy)	True	False	0.00
2010-06-03 22:00:00 7653 22 0.00 0.00 0.00 0.0 0.00	12.6287505598	0.00	0.00	Scattered_T-Storms(mostly_cloudy)	True	False	0.00
2010-06-03 23:00:00 7654 23 0.00 0.00 0.00 0.0 0.00	12.6287505598	0.00	0.00	Scattered_T-Storms(mostly_cloudy)	True	False	0.00
2010-06-04 00:00:00 7655 0 0.00 0.00 0.00 0.0 0.00	12.6287505598	0.00	0.00	Scattered_T-Storms(mostly_cloudy)	True	False	0.00
2010-06-04 01:00:00 7656 1 0.00 0.00 0.00 0.0 0.00	12.6287505598	0.00	0.00	Scattered_T-Storms(partly_cloudy)	True	False	0.00
2010-06-04 02:00:00 7657 2 0.00 0.00 0.00 0.0 0.00	12.6287505598	0.00	0.00	Scattered_T-Storms(mostly_cloudy)	True	False	0.00
2010-06-04 03:00:00 7658 3 0.00 0.00 0.00 0.0 0.00	12.6287505598	0.00	0.00	Scattered_T-Storms(fog)	True	False	0.00
2010-06-04 04:00:00 7659 4 0.00 0.00 0.00 0.0 0.00	16.4384864043	0.00	0.00	Showers(fog)	True	False	0.00
2010-06-04 05:00:00 7660 5 0.30 0.30 0.30 0.0 1.80	16.4384864043	0.30	0.00	Showers(fog)	True	False	0.00
2010-06-04 06:00:00 7661 6 9.60 9.60 9.60 55.2 58.40	16.4384864043	9.60	55.20	Showers(sunny)	True	False	55.20
