2010-06-16 07:00:00 24126 7 29.22 29.22 29.22 131.9 220.30	13.2630892896	29.22	131.90	Few_Showers(cloudy)	True	False	131.90
2010-06-16 08:00:00 24127 8 59.59 59.59 59.59 127.3 449.30	13.2630892896	59.59	127.30	Few_Showers(cloudy)	True	False	127.30
2010-06-16 09:00:00 24128 9 91.52 91.52 91.52 265.3 690.00	13.2630892896	91.52	265.30	Few_Showers(cloudy)	True	False	265.30
2010-06-16 10:00:00 24129 10 123.29 123.29 123.29 186.9 929.60	13.2630892896	123.29	186.90	Few_Showers(cloudy)	True	False	186.90
2010-06-16 11:00:00 24130 11 125.23 125.23 125.23 369.6 944.20	13.2630892896	125.23	369.60	Few_Showers(cloudy)	True	False	369.60
2010-06-16 12:00:00 24131 12 124.51 124.51 124.51 361.7 938.80	13.2630892896	124.51	361.70	Few_Showers(cloudy)	True	False	361.70
2010-06-16 13:00:00 24132 13 146.97 146.97 146.97 746.4 1040.80	14.1212252879	146.97	746.40	Showers(cloudy)	True	False	746.40
2010-06-16 14:00:00 24133 14 130.00 130.00 130.00 522.7 920.60	14.1212252879	130.00	522.70	Showers(cloudy)	True	False	522.70
2010-06-16 15:00:00 24134 15 113.01 113.01 113.01 667.9 800.30	14.1212252879	113.01	667.90	Showers(cloudy)	True	False	667.90
2010-06-16 16:00:00 24135 16 94.98 94.98 94.98 486.1 716.10	13.2630892896	94.98	486.10	Scattered_T-Storms(partly_cloudy)	True	False	486.10
2010-06-16 17:00:00 24136 17 56.55 56.55 56.55 211.4 426.40	13.2630892896	56.55	211.40	Scattered_T-Storms(cloudy)	True	False	211.40
2010-06-16 18:00:00 24137 18 28.41 28.41 28.41 51.7 214.20	13.2630892896	28.41	51.70	Scattered_T-Storms(cloudy)	True	False	51.70
2010-06-16 19:00:00 24138 19 7.08 7.08 7.08 7.8 53.40	13.2630892896	7.08	7.80	Scattered_T-Storms(cloudy)	True	False	7.80
2010-06-16 20:00:00 24139 20 0.46 0.46 0.46 0.0 3.50	13.2630892896	0.46	0.00	Scattered_T-Storms(cloudy)	True	False	0.00
2010-06-16 21:00:00 24140 21 0.00 0.00 0.00 0.0 0.00	13.2630892896	0.00	0.00	Scattered_T-Storms(cloudy)	True	False	0.00
2010-06-16 22:00:00 24141 22 0.00 0.00 0.00 0.0 0.00	13.2630892896	0.00	0.00	Isolated_T-Storms(cloudy)	True	False	0.00
2010-06-16 23:00:00 24142 23 0.00 0.00 0.00 0.0 0.00	13.2630892896	0.00	0.00	Isolated_T-Storms(cloudy)	True	False	0.00
2010-06-17 00:00:00 24143 0 0.00 0.00 0.00 0.0 0.00	13.2630892896	0.00	0.00	Isolated_T-Storms(cloudy)	True	False	0.00
2010-06-17 01:00:00 24144 1 0.00 0.00 0.00 0.0 0.00	64.6125116713	0.00	0.00	Mostly_Cloudy(t-storm)	True	False	0.00
2010-06-17 02:00:00 24145 2 0.00 0.00 0.00 0.0 0.00	64.6125116713	0.00	0.00	Mostly_Cloudy(cloudy)	True	False	0.00
2010-06-17 03:00:00 24146 3 0.00 0.00 0.00 0.0 0.00	64.6125116713	0.00	0.00	Mostly_Cloudy(fog)	True	False	0.00
2010-06-17 04:00:00 24147 4 0.00 0.00 0.00 0.0 0.00	77.6614142967	0.00	0.00	Partly_Cloudy(fog)	True	False	0.00
2010-06-17 05:00:00 24148 5 1.40 1.40 1.40 0.0 1.80	77.6614142967	1.40	0.00	Partly_Cloudy(sunny)	True	False	0.00
2010-06-17 06:00:00 24149 6 57.08 57.08 57.08 39.7 73.50	77.6614142967	57.08	39.70	Partly_Cloudy(sunny)	True	False	39.70
2010-06-17 07:00:00 24150 7 171.09 171.09 171.09 225.9 220.30	77.6614142967	171.09	225.90	Partly_Cloudy(sunny)	True	False	225.90
2010-06-17 08:00:00 24151 8 348.93 348.93 348.93 504.2 449.30	77.6614142967	348.93	504.20	Partly_Cloudy(sunny)	True	False	504.20
2010-06-17 09:00:00 24152 9 535.86 535.86 535.86 563.6 690.00	77.6614142967	535.86	563.60	Partly_Cloudy(partly_cloudy)	True	False	563.60
2010-06-17 10:00:00 24153 10 721.94 721.94 721.94 880.7 929.60	77.6614142967	721.94	880.70	Mostly_Sunny(partly_cloudy)	False	False	880.70
2010-06-17 11:00:00 24154 11 733.28 733.28 733.28 961.2 944.20	77.6614142967	733.28	961.20	Mostly_Sunny(partly_cloudy)	False	False	961.20
2010-06-17 12:00:00 24155 12 729.09 729.09 729.09 1024.1 938.80	77.6614142967	729.09	1024.10	Mostly_Sunny(cloudy)	False	False	1024.10
2010-06-17 13:00:00 24156 13 808.30 808.30 808.30 689.0 1040.80	77.6614142967	808.30	689.00	Mostly_Sunny(fair)	False	False	689.00
2010-06-17 14:00:00 24157 14 714.95 714.95 714.95 672.7 920.60	77.6614142967	714.95	672.70	Mostly_Sunny(mostly_cloudy)	False	False	672.70
2010-06-17 15:00:00 24158 15 621.52 621.52 621.52 652.4 800.30	77.6614142967	621.52	652.40	Mostly_Sunny(cloudy)	False	False	652.40
2010-06-17 16:00:00 24159 16 544.99 544.99 544.99 334.4 716.10	76.1049192929	544.99	334.40	Sunny(cloudy)	True	False	334.40
2010-06-17 17:00:00 24160 17 324.51 324.51 324.51 294.3 426.40	76.1049192929	324.51	294.30	Sunny(cloudy)	True	False	294.30
2010-06-17 18:00:00 24161 18 163.02 163.02 163.02 91.8 214.20	76.1049192929	163.02	91.80	Sunny(cloudy)	True	False	91.80
2010-06-17 19:00:00 24162 19 40.64 40.64 40.64 20.6 53.40	76.1049192929	40.64	20.60	Sunny(cloudy)	True	False	20.60
2010-06-17 20:00:00 24163 20 2.66 2.66 2.66 1.6 3.50	76.1049192929	2.66	1.60	Sunny(partly_cloudy)	True	False	1.60
2010-06-17 21:00:00 24164 21 0.00 0.00 0.00 0.0 0.00	76.1049192929	0.00	0.00	Clear(partly_cloudy)	True	False	0.00
2010-06-17 22:00:00 24165 22 0.00 0.00 0.00 0.0 0.00	76.1049192929	0.00	0.00	Clear(partly_cloudy)	True	False	0.00
2010-06-17 23:00:00 24166 23 0.00 0.00 0.00 0.0 0.00	76.1049192929	0.00	0.00	Clear(clear)	True	False	0.00
2010-06-18 00:00:00 24167 0 0.00 0.00 0.00 0.0 0.00	76.1049192929	0.00	0.00	Clear(clear)	True	False	0.00
2010-06-18 01:00:00 24168 1 0.00 0.00 0.00 0.0 0.00	76.1049192929	0.00	0.00	Clear(clear)	True	False	0.00
2010-06-18 02:00:00 24169 2 0.00 0.00 0.00 0.0 0.00	76.1049192929	0.00	0.00	Clear(clear)	True	False	0.00
2010-06-18 03:00:00 24170 3 0.00 0.00 0.00 0.0 0.00	76.1049192929	0.00	0.00	Clear(clear)	True	False	0.00
2010-06-18 04:00:00 24171 4 0.00 0.00 0.00 0.0 0.00	76.1049192929	0.00	0.00	Clear(clear)	True	False	0.00
2010-06-18 05:00:00 24172 5 1.37 1.37 1.37 0.3 1.80	76.1049192929	1.37	0.30	Clear(sunny)	True	False	0.30
2010-06-18 06:00:00 24173 6 55.94 55.94 55.94 41.8 73.50	76.1049192929	55.94	41.80	Sunny(sunny)	True	False	41.80
2010-06-18 07:00:00 24174 7 167.66 167.66 167.66 189.8 220.30	76.1049192929	167.66	189.80	Sunny(sunny)	True	False	189.80
