2010-07-08 02:00:00 49753 2 0.00 0.00 0.00 0.0 0.00	73.7248504622	0.00	0.00	Partly_Cloudy(clear)	True	False	0.00
2010-07-08 03:00:00 49754 3 0.00 0.00 0.00 0.0 0.00	73.7248504622	0.00	0.00	Partly_Cloudy(clear)	True	False	0.00
2010-07-08 04:00:00 49755 4 0.00 0.00 0.00 0.0 0.00	73.7248504622	0.00	0.00	Partly_Cloudy(clear)	True	False	0.00
2010-07-08 05:00:00 49756 5 0.22 0.22 0.22 0.0 0.30	73.7248504622	0.22	0.00	Partly_Cloudy(clear)	True	False	0.00
2010-07-08 06:00:00 49757 6 57.28 57.28 57.28 22.0 77.70	73.7248504622	57.28	22.00	Partly_Cloudy(fog)	True	False	22.00
2010-07-08 07:00:00 49758 7 152.91 152.91 152.91 75.0 207.40	73.7248504622	152.91	75.00	Partly_Cloudy(sunny)	True	False	75.00
2010-07-08 08:00:00 49759 8 358.23 358.23 358.23 120.0 485.90	73.7248504622	358.23	120.00	Partly_Cloudy(cloudy)	True	False	120.00
2010-07-08 09:00:00 49760 9 549.32 549.32 549.32 246.0 745.10	73.7248504622	549.32	246.00	Partly_Cloudy(fair)	True	False	246.00
2010-07-08 10:00:00 49761 10 679.65 679.65 679.65 296.5 919.50	73.9155035836	679.65	296.50	Partly_Cloudy(cloudy)	True	False	296.50
2010-07-08 11:00:00 49762 11 767.91 767.91 767.91 195.1 1038.90	73.9155035836	767.91	195.10	Partly_Cloudy(partly_cloudy)	True	False	195.10
2010-07-08 12:00:00 49763 12 819.06 819.06 819.06 313.9 1108.10	73.9155035836	819.06	313.90	Partly_Cloudy(partly_cloudy)	True	False	313.90
2010-07-08 13:00:00 49764 13 818.76 818.76 818.76 441.0 1107.70	73.9155035836	818.76	441.00	Partly_Cloudy(light_rain)	True	False	441.00
2010-07-08 14:00:00 49765 14 783.80 783.80 783.80 624.2 1060.40	73.9155035836	783.80	624.20	Partly_Cloudy(partly_cloudy)	True	False	624.20
2010-07-08 15:00:00 49766 15 694.14 694.14 694.14 622.4 939.10	73.9155035836	694.14	622.40	Partly_Cloudy(mostly_cloudy)	True	False	622.40
2010-07-08 16:00:00 49767 16 559.50 559.50 559.50 535.7 758.90	73.7248504622	559.50	535.70	Partly_Cloudy(mostly_cloudy)	True	False	535.70
2010-07-08 17:00:00 49768 17 367.67 367.67 367.67 325.4 498.70	73.7248504622	367.67	325.40	Partly_Cloudy(partly_cloudy)	True	False	325.40
2010-07-08 18:00:00 49769 18 166.47 166.47 166.47 138.8 225.80	73.7248504622	166.47	138.80	Partly_Cloudy(fair)	True	False	138.80
2010-07-08 19:00:00 49770 19 60.01 60.01 60.01 24.1 81.40	73.7248504622	60.01	24.10	Partly_Cloudy(sunny)	True	False	24.10
2010-07-08 20:00:00 49771 20 5.01 5.01 5.01 1.2 6.80	73.7248504622	5.01	1.20	Partly_Cloudy(fair)	True	False	1.20
2010-07-08 21:00:00 49772 21 0.00 0.00 0.00 0.0 0.00	73.7248504622	0.00	0.00	Partly_Cloudy(clear)	True	False	0.00
2010-07-08 22:00:00 49773 22 0.00 0.00 0.00 0.0 0.00	73.7248504622	0.00	0.00	Mostly_Clear(clear)	False	False	0.00
2010-07-08 23:00:00 49774 23 0.00 0.00 0.00 0.0 0.00	73.7248504622	0.00	0.00	Mostly_Clear(clear)	False	False	0.00
2010-07-09 00:00:00 49775 0 0.00 0.00 0.00 0.0 0.00	73.7248504622	0.00	0.00	Mostly_Clear(fair)	False	False	0.00
2010-07-09 01:00:00 49776 1 0.00 0.00 0.00 0.0 0.00	73.7248504622	0.00	0.00	Partly_Cloudy(partly_cloudy)	True	False	0.00
2010-07-09 02:00:00 49777 2 0.00 0.00 0.00 0.0 0.00	73.7248504622	0.00	0.00	Partly_Cloudy(mostly_cloudy)	True	False	0.00
2010-07-09 03:00:00 49778 3 0.00 0.00 0.00 0.0 0.00	73.7248504622	0.00	0.00	Partly_Cloudy(cloudy)	True	False	0.00
2010-07-09 04:00:00 49779 4 0.00 0.00 0.00 0.0 0.00	73.7248504622	0.00	0.00	Partly_Cloudy(fair)	True	False	0.00
2010-07-09 05:00:00 49780 5 0.22 0.22 0.22 0.0 0.30	73.7248504622	0.22	0.00	Partly_Cloudy(fair)	True	False	0.00
2010-07-09 06:00:00 49781 6 57.28 57.28 57.28 28.4 77.70	73.7248504622	57.28	28.40	Partly_Cloudy(mostly_cloudy)	True	False	28.40
2010-07-09 07:00:00 49782 7 152.91 152.91 152.91 139.4 207.40	73.7248504622	152.91	139.40	Partly_Cloudy(cloudy)	True	False	139.40
2010-07-09 08:00:00 49783 8 358.23 358.23 358.23 318.2 485.90	73.7248504622	358.23	318.20	Partly_Cloudy(light_rain)	True	False	318.20
2010-07-09 09:00:00 49784 9 549.32 549.32 549.32 475.7 745.10	73.7248504622	549.32	475.70	Partly_Cloudy(light_rain)	True	False	475.70
2010-07-09 10:00:00 49785 10 679.65 679.65 679.65 183.0 919.50	73.9155035836	679.65	183.00	Partly_Cloudy(mostly_cloudy)	True	False	183.00
2010-07-09 11:00:00 49786 11 767.91 767.91 767.91 628.3 1038.90	73.9155035836	767.91	628.30	Partly_Cloudy(partly_cloudy)	True	False	628.30
2010-07-09 12:00:00 49787 12 819.06 819.06 819.06 661.5 1108.10	73.9155035836	819.06	661.50	Partly_Cloudy(mostly_cloudy)	True	False	661.50
2010-07-09 13:00:00 49788 13 818.76 818.76 818.76 880.7 1107.70	73.9155035836	818.76	880.70	Partly_Cloudy(partly_cloudy)	True	False	880.70
2010-07-09 14:00:00 49789 14 783.80 783.80 783.80 670.8 1060.40	73.9155035836	783.80	670.80	Partly_Cloudy(partly_cloudy)	True	False	670.80
2010-07-09 15:00:00 49790 15 694.14 694.14 694.14 643.1 939.10	73.9155035836	694.14	643.10	Partly_Cloudy(mostly_cloudy)	True	False	643.10
2010-07-09 16:00:00 49791 16 559.50 559.50 559.50 627.0 758.90	73.7248504622	559.50	627.00	Partly_Cloudy(partly_cloudy)	True	False	627.00
2010-07-09 17:00:00 49792 17 367.67 367.67 367.67 336.7 498.70	73.7248504622	367.67	336.70	Partly_Cloudy(partly_cloudy)	True	False	336.70
2010-07-09 18:00:00 49793 18 166.47 166.47 166.47 194.1 225.80	73.7248504622	166.47	194.10	Partly_Cloudy(mostly_cloudy)	True	False	194.10
2010-07-09 19:00:00 49794 19 60.01 60.01 60.01 28.0 81.40	73.7248504622	60.01	28.00	Partly_Cloudy(fair)	True	False	28.00
2010-07-09 20:00:00 49795 20 5.01 5.01 5.01 0.2 6.80	73.7248504622	5.01	0.20	Partly_Cloudy(mostly_cloudy)	True	False	0.20
2010-07-09 21:00:00 49796 21 0.00 0.00 0.00 0.0 0.00	73.7248504622	0.00	0.00	Partly_Cloudy(mostly_cloudy)	True	False	0.00
2010-07-09 22:00:00 49797 22 0.00 0.00 0.00 0.0 0.00	59.4021124104	0.00	0.00	Mostly_Cloudy(cloudy)	True	False	0.00
2010-07-09 23:00:00 49798 23 0.00 0.00 0.00 0.0 0.00	59.4021124104	0.00	0.00	Mostly_Cloudy(partly_cloudy)	True	False	0.00
2010-07-10 00:00:00 49799 0 0.00 0.00 0.00 0.0 0.00	59.4021124104	0.00	0.00	Mostly_Cloudy(cloudy)	True	False	0.00
2010-07-10 01:00:00 49800 1 0.00 0.00 0.00 0.0 0.00	59.4021124104	0.00	0.00	Mostly_Cloudy(mostly_cloudy)	True	False	0.00
2010-07-10 02:00:00 49801 2 0.00 0.00 0.00 0.0 0.00	59.4021124104	0.00	0.00	Mostly_Cloudy(partly_cloudy)	True	False	0.00
