2010-06-03 14:00:00 9181 14 965.90 965.90 965.90 988.4 1012.80	12.6287505598	965.90	988.40	Isolated_T-Storms(sunny)	True	False	988.40
2010-06-03 15:00:00 9182 15 851.84 851.84 851.84 836.5 893.20	12.6287505598	851.84	836.50	Isolated_T-Storms(partly_cloudy)	True	False	836.50
2010-06-03 16:00:00 9183 16 90.43 682.94 682.94 663.8 716.10	12.6287505598	682.94	663.80	Scattered_T-Storms(fair)	True	False	663.80
2010-06-03 17:00:00 9184 17 52.99 400.17 400.17 385.1 419.60	12.6287505598	400.17	385.10	Scattered_T-Storms(sunny)	True	False	385.10
2010-06-03 18:00:00 9185 18 27.05 204.28 204.28 154.7 214.20	12.6287505598	204.28	154.70	Scattered_T-Storms(sunny)	True	False	154.70
2010-06-03 19:00:00 9186 19 6.72 50.74 50.74 45.0 53.20	12.6287505598	50.74	45.00	Isolated_T-Storms(sunny)	True	False	45.00
2010-06-03 20:00:00 9187 20 0.30 2.29 2.29 0.2 2.40	12.6287505598	2.29	0.20	Isolated_T-Storms(partly_cloudy)	True	False	0.20
2010-06-03 21:00:00 9188 21 0.00 0.00 0.00 0.0 0.00	12.6287505598	0.00	0.00	Isolated_T-Storms(mostly_cloudy)	True	False	0.00
2010-06-03 22:00:00 9189 22 0.00 0.00 0.00 0.0 0.00	12.6287505598	0.00	0.00	Scattered_T-Storms(mostly_cloudy)	True	False	0.00
2010-06-03 23:00:00 9190 23 0.00 0.00 0.00 0.0 0.00	12.6287505598	0.00	0.00	Scattered_T-Storms(mostly_cloudy)	True	False	0.00
2010-06-04 00:00:00 9191 0 0.00 0.00 0.00 0.0 0.00	12.6287505598	0.00	0.00	Scattered_T-Storms(mostly_cloudy)	True	False	0.00
2010-06-04 01:00:00 9192 1 0.00 0.00 0.00 0.0 0.00	12.6287505598	0.00	0.00	Scattered_T-Storms(partly_cloudy)	True	False	0.00
2010-06-04 02:00:00 9193 2 0.00 0.00 0.00 0.0 0.00	12.6287505598	0.00	0.00	Scattered_T-Storms(mostly_cloudy)	True	False	0.00
2010-06-04 03:00:00 9194 3 0.00 0.00 0.00 0.0 0.00	12.6287505598	0.00	0.00	Scattered_T-Storms(fog)	True	False	0.00
2010-06-04 04:00:00 9195 4 0.00 0.00 0.00 0.0 0.00	12.6287505598	0.00	0.00	Few_Showers(fog)	True	False	0.00
2010-06-04 05:00:00 9196 5 0.23 0.23 0.23 0.0 1.80	12.6287505598	0.23	0.00	Few_Showers(fog)	True	False	0.00
2010-06-04 06:00:00 9197 6 9.28 9.28 9.28 55.2 73.50	12.6287505598	9.28	55.20	Few_Showers(sunny)	True	False	55.20
2010-06-04 07:00:00 9198 7 212.21 212.21 212.21 225.0 268.30	79.0929834569	212.21	225.00	Partly_Cloudy(sunny)	True	False	225.00
2010-06-04 08:00:00 9199 8 420.62 420.62 420.62 482.6 531.80	79.0929834569	420.62	482.60	Partly_Cloudy(sunny)	True	False	482.60
2010-06-04 09:00:00 9200 9 609.02 609.02 609.02 710.4 770.00	79.0929834569	609.02	710.40	Partly_Cloudy(sunny)	True	False	710.40
2010-06-04 10:00:00 9201 10 908.30 908.30 908.30 882.2 952.40	95.3695926081	908.30	882.20	Sunny(sunny)	True	False	882.20
2010-06-04 11:00:00 9202 11 1003.10 1003.10 1003.10 915.4 1051.80	95.3695926081	1003.10	915.40	Sunny(sunny)	True	False	915.40
2010-06-04 12:00:00 9203 12 1043.53 1043.53 1043.53 962.6 1094.20	95.3695926081	1043.53	962.60	Sunny(partly_cloudy)	True	False	962.60
2010-06-04 13:00:00 9204 13 1029.90 1029.90 1029.90 645.3 1079.90	95.3695926081	1029.90	645.30	Sunny(partly_cloudy)	True	False	645.30
2010-06-04 14:00:00 9205 14 965.90 965.90 965.90 979.6 1012.80	95.3695926081	965.90	979.60	Sunny(partly_cloudy)	True	False	979.60
2010-06-04 15:00:00 9206 15 851.84 851.84 851.84 713.0 893.20	95.3695926081	851.84	713.00	Sunny(fair)	True	False	713.00
2010-06-04 16:00:00 9207 16 638.17 638.17 638.17 609.0 716.10	89.117778773	638.17	609.00	Sunny(partly_cloudy)	True	False	609.00
2010-06-04 17:00:00 9208 17 373.94 373.94 373.94 290.5 419.60	89.117778773	373.94	290.50	Sunny(fair)	True	False	290.50
2010-06-04 18:00:00 9209 18 190.89 190.89 190.89 123.1 214.20	89.117778773	190.89	123.10	Sunny(fair)	True	False	123.10
2010-06-04 19:00:00 9210 19 47.41 47.41 47.41 34.8 53.20	89.117778773	47.41	34.80	Mostly_Sunny(sunny)	False	False	34.80
2010-06-04 20:00:00 9211 20 2.14 2.14 2.14 1.3 2.40	89.117778773	2.14	1.30	Mostly_Sunny(mostly_cloudy)	False	False	1.30
2010-06-04 21:00:00 9212 21 0.00 0.00 0.00 0.0 0.00	89.117778773	0.00	0.00	Mostly_Clear(partly_cloudy)	False	False	0.00
2010-06-04 22:00:00 9213 22 0.00 0.00 0.00 0.0 0.00	79.0929834569	0.00	0.00	Partly_Cloudy(partly_cloudy)	True	False	0.00
2010-06-04 23:00:00 9214 23 0.00 0.00 0.00 0.0 0.00	79.0929834569	0.00	0.00	Partly_Cloudy(mostly_cloudy)	True	False	0.00
2010-06-05 00:00:00 9215 0 0.00 0.00 0.00 0.0 0.00	79.0929834569	0.00	0.00	Partly_Cloudy(clear)	True	False	0.00
2010-06-05 01:00:00 9216 1 0.00 0.00 0.00 0.0 0.00	12.6287505598	0.00	0.00	Isolated_T-Storms(clear)	True	False	0.00
2010-06-05 02:00:00 9217 2 0.00 0.00 0.00 0.0 0.00	12.6287505598	0.00	0.00	Isolated_T-Storms(mostly_cloudy)	True	False	0.00
2010-06-05 03:00:00 9218 3 0.00 0.00 0.00 0.0 0.00	12.6287505598	0.00	0.00	Isolated_T-Storms(mostly_cloudy)	True	False	0.00
2010-06-05 04:00:00 9219 4 0.00 0.00 0.00 0.0 0.00	12.6287505598	0.00	0.00	Scattered_T-Storms(mostly_cloudy)	True	False	0.00
2010-06-05 05:00:00 9220 5 0.23 0.23 0.23 0.0 1.80	12.6287505598	0.23	0.00	Scattered_T-Storms(mostly_cloudy)	True	False	0.00
2010-06-05 06:00:00 9221 6 9.28 9.28 9.28 22.5 73.50	12.6287505598	9.28	22.50	Scattered_T-Storms(mostly_cloudy)	True	False	22.50
2010-06-05 07:00:00 9222 7 33.88 33.88 33.88 154.1 268.30	12.6287505598	33.88	154.10	Isolated_T-Storms(partly_cloudy)	True	False	154.10
2010-06-05 08:00:00 9223 8 67.16 67.16 67.16 353.6 531.80	12.6287505598	67.16	353.60	Isolated_T-Storms(partly_cloudy)	True	False	353.60
2010-06-05 09:00:00 9224 9 97.24 97.24 97.24 437.0 770.00	12.6287505598	97.24	437.00	Isolated_T-Storms(partly_cloudy)	True	False	437.00
2010-06-05 10:00:00 9225 10 120.28 120.28 120.28 809.6 952.40	12.6287505598	120.28	809.60	Scattered_T-Storms(mostly_cloudy)	True	False	809.60
2010-06-05 11:00:00 9226 11 132.83 132.83 132.83 815.5 1051.80	12.6287505598	132.83	815.50	Scattered_T-Storms(partly_cloudy)	True	False	815.50
2010-06-05 12:00:00 9227 12 138.18 138.18 138.18 969.1 1094.20	12.6287505598	138.18	969.10	Scattered_T-Storms(fair)	True	False	969.10
2010-06-05 13:00:00 9228 13 136.38 136.38 136.38 807.3 1079.90	12.6287505598	136.38	807.30	Scattered_T-Storms(partly_cloudy)	True	False	807.30
2010-06-05 14:00:00 9229 14 127.90 127.90 127.90 685.1 1012.80	12.6287505598	127.90	685.10	Isolated_T-Storms(partly_cloudy)	True	False	685.10
