2010-07-09 15:00:00 51566 15 751.48 751.48 751.48 643.1 939.10	32.2991324029	751.48	643.10	Isolated_T-Storms(mostly_cloudy)	True	False	643.10
2010-07-09 16:00:00 51567 16 519.70 519.70 519.70 627.0 758.90	27.3693534101	519.70	627.00	Isolated_T-Storms(partly_cloudy)	True	False	627.00
2010-07-09 17:00:00 51568 17 136.49 341.51 341.51 336.7 498.70	27.3693534101	341.51	336.70	Isolated_T-Storms(partly_cloudy)	True	False	336.70
2010-07-09 18:00:00 51569 18 61.80 154.63 154.63 194.1 225.80	27.3693534101	154.63	194.10	Isolated_T-Storms(mostly_cloudy)	True	False	194.10
2010-07-09 19:00:00 51570 19 22.28 55.74 55.74 28.0 81.40	27.3693534101	55.74	28.00	Isolated_T-Storms(fair)	True	False	28.00
2010-07-09 20:00:00 51571 20 1.86 4.66 4.66 0.2 6.80	27.3693534101	4.66	0.20	Isolated_T-Storms(mostly_cloudy)	True	False	0.20
2010-07-09 21:00:00 51572 21 0.00 0.00 0.00 0.0 0.00	27.3693534101	0.00	0.00	Isolated_T-Storms(mostly_cloudy)	True	False	0.00
2010-07-09 22:00:00 51573 22 0.00 0.00 0.00 0.0 0.00	27.3693534101	0.00	0.00	Isolated_T-Storms(cloudy)	True	False	0.00
2010-07-09 23:00:00 51574 23 0.00 0.00 0.00 0.0 0.00	27.3693534101	0.00	0.00	Isolated_T-Storms(partly_cloudy)	True	False	0.00
2010-07-10 00:00:00 51575 0 0.00 0.00 0.00 0.0 0.00	27.3693534101	0.00	0.00	Isolated_T-Storms(cloudy)	True	False	0.00
2010-07-10 01:00:00 51576 1 0.00 0.00 0.00 0.0 0.00	27.3693534101	0.00	0.00	Isolated_T-Storms(mostly_cloudy)	True	False	0.00
2010-07-10 02:00:00 51577 2 0.00 0.00 0.00 0.0 0.00	27.3693534101	0.00	0.00	Isolated_T-Storms(partly_cloudy)	True	False	0.00
2010-07-10 03:00:00 51578 3 0.00 0.00 0.00 0.0 0.00	27.3693534101	0.00	0.00	Isolated_T-Storms(partly_cloudy)	True	False	0.00
2010-07-10 04:00:00 51579 4 0.00 0.00 0.00 0.0 0.00	58.2348163523	0.00	0.00	Mostly_Cloudy(cloudy)	True	False	0.00
2010-07-10 05:00:00 51580 5 0.17 0.17 0.17 0.0 0.30	58.2348163523	0.17	0.00	Mostly_Cloudy(cloudy)	True	False	0.00
2010-07-10 06:00:00 51581 6 45.25 45.25 45.25 69.5 77.70	58.2348163523	45.25	69.50	Mostly_Cloudy(cloudy)	True	False	69.50
2010-07-10 07:00:00 51582 7 56.76 56.76 56.76 182.8 207.40	27.3693534101	56.76	182.80	Few_Showers(cloudy)	True	False	182.80
2010-07-10 08:00:00 51583 8 132.99 132.99 132.99 173.9 485.90	27.3693534101	132.99	173.90	Few_Showers(cloudy)	True	False	173.90
2010-07-10 09:00:00 51584 9 203.93 203.93 203.93 247.3 745.10	27.3693534101	203.93	247.30	Few_Showers(cloudy)	True	False	247.30
2010-07-10 10:00:00 51585 10 209.58 209.58 209.58 188.2 919.50	22.7933391087	209.58	188.20	Showers(light_rain)	True	False	188.20
2010-07-10 11:00:00 51586 11 236.80 236.80 236.80 145.8 1038.90	22.7933391087	236.80	145.80	Showers(light_rain)	True	False	145.80
2010-07-10 12:00:00 51587 12 252.57 252.57 252.57 203.5 1108.10	22.7933391087	252.57	203.50	Showers(light_rain)	True	False	203.50
2010-07-10 13:00:00 51588 13 357.78 357.78 357.78 242.7 1107.70	32.2991324029	357.78	242.70	Scattered_T-Storms(fair)	True	False	242.70
2010-07-10 14:00:00 51589 14 342.50 342.50 342.50 269.3 1060.40	32.2991324029	342.50	269.30	Scattered_T-Storms(cloudy)	True	False	269.30
2010-07-10 15:00:00 51590 15 303.32 303.32 303.32 233.6 939.10	32.2991324029	303.32	233.60	Scattered_T-Storms(fair)	True	False	233.60
2010-07-10 16:00:00 51591 16 207.71 207.71 207.71 321.8 758.90	27.3693534101	207.71	321.80	T-Storms(partly_cloudy)	True	False	321.80
2010-07-10 17:00:00 51592 17 136.49 136.49 136.49 357.1 498.70	27.3693534101	136.49	357.10	T-Storms(mostly_cloudy)	True	False	357.10
2010-07-10 18:00:00 51593 18 61.80 61.80 61.80 211.2 225.80	27.3693534101	61.80	211.20	T-Storms(mostly_cloudy)	True	False	211.20
2010-07-10 19:00:00 51594 19 22.28 22.28 22.28 49.3 81.40	27.3693534101	22.28	49.30	Scattered_T-Storms(partly_cloudy)	True	False	49.30
2010-07-10 20:00:00 51595 20 1.86 1.86 1.86 0.8 6.80	27.3693534101	1.86	0.80	Scattered_T-Storms(fair)	True	False	0.80
2010-07-10 21:00:00 51596 21 0.00 0.00 0.00 0.0 0.00	27.3693534101	0.00	0.00	Scattered_T-Storms(fair)	True	False	0.00
2010-07-10 22:00:00 51597 22 0.00 0.00 0.00 0.0 0.00	27.3693534101	0.00	0.00	Scattered_T-Storms(fair)	True	False	0.00
2010-07-10 23:00:00 51598 23 0.00 0.00 0.00 0.0 0.00	27.3693534101	0.00	0.00	Scattered_T-Storms(partly_cloudy)	True	False	0.00
2010-07-11 00:00:00 51599 0 0.00 0.00 0.00 0.0 0.00	27.3693534101	0.00	0.00	Scattered_T-Storms(fair)	True	False	0.00
2010-07-11 01:00:00 51600 1 0.00 0.00 0.00 0.0 0.00	72.972972973	0.00	0.00	Partly_Cloudy(partly_cloudy)	True	False	0.00
2010-07-11 02:00:00 51601 2 0.00 0.00 0.00 0.0 0.00	72.972972973	0.00	0.00	Partly_Cloudy(mostly_cloudy)	True	False	0.00
2010-07-11 03:00:00 51602 3 0.00 0.00 0.00 0.0 0.00	72.972972973	0.00	0.00	Partly_Cloudy(fair)	True	False	0.00
2010-07-11 04:00:00 51603 4 0.00 0.00 0.00 0.0 0.00	72.972972973	0.00	0.00	Partly_Cloudy(fair)	True	False	0.00
2010-07-11 05:00:00 51604 5 0.22 0.22 0.22 0.0 0.30	72.972972973	0.22	0.00	Partly_Cloudy(partly_cloudy)	True	False	0.00
2010-07-11 06:00:00 51605 6 56.70 56.70 56.70 34.9 77.70	72.972972973	56.70	34.90	Partly_Cloudy(partly_cloudy)	True	False	34.90
2010-07-11 07:00:00 51606 7 151.35 151.35 151.35 197.6 207.40	72.972972973	151.35	197.60	Partly_Cloudy(fair)	True	False	197.60
2010-07-11 08:00:00 51607 8 354.58 354.58 354.58 420.7 485.90	72.972972973	354.58	420.70	Partly_Cloudy(fair)	True	False	420.70
2010-07-11 09:00:00 51608 9 543.72 543.72 543.72 516.0 745.10	72.972972973	543.72	516.00	Partly_Cloudy(fair)	True	False	516.00
2010-07-11 10:00:00 51609 10 735.80 735.80 735.80 629.8 919.50	80.0217509516	735.80	629.80	Sunny(mostly_cloudy)	True	False	629.80
2010-07-11 11:00:00 51610 11 831.35 831.35 831.35 741.7 1038.90	80.0217509516	831.35	741.70	Sunny(fair)	True	False	741.70
2010-07-11 12:00:00 51611 12 886.72 886.72 886.72 836.2 1108.10	80.0217509516	886.72	836.20	Sunny(partly_cloudy)	True	False	836.20
2010-07-11 13:00:00 51612 13 886.40 886.40 886.40 400.6 1107.70	80.0217509516	886.40	400.60	Mostly_Sunny(fair)	False	False	400.60
2010-07-11 14:00:00 51613 14 848.55 848.55 848.55 311.1 1060.40	80.0217509516	848.55	311.10	Mostly_Sunny(fair)	False	False	311.10
2010-07-11 15:00:00 51614 15 751.48 751.48 751.48 206.1 939.10	80.0217509516	751.48	206.10	Mostly_Sunny(fair)	False	False	206.10
