2010-06-04 17:00:00 10504 17 400.17 400.17 400.17 290.5 419.60	95.3695926081	400.17	290.50	Mostly_Sunny(fair)	False	False	290.50
2010-06-04 18:00:00 10505 18 169.42 148.30 148.30 123.1 214.20	79.0929834569	148.30	123.10	Partly_Cloudy(fair)	True	False	123.10
2010-06-04 19:00:00 10506 19 42.08 36.83 36.83 34.8 53.20	79.0929834569	36.83	34.80	Partly_Cloudy(sunny)	True	False	34.80
2010-06-04 20:00:00 10507 20 1.90 1.66 1.66 1.3 2.40	79.0929834569	1.66	1.30	Partly_Cloudy(mostly_cloudy)	True	False	1.30
2010-06-04 21:00:00 10508 21 0.00 0.00 0.00 0.0 0.00	79.0929834569	0.00	0.00	Partly_Cloudy(partly_cloudy)	True	False	0.00
2010-06-04 22:00:00 10509 22 0.00 0.00 0.00 0.0 0.00	12.6175253855	0.00	0.00	Isolated_T-Storms(partly_cloudy)	True	False	0.00
2010-06-04 23:00:00 10510 23 0.00 0.00 0.00 0.0 0.00	12.6175253855	0.00	0.00	Isolated_T-Storms(mostly_cloudy)	True	False	0.00
2010-06-05 00:00:00 10511 0 0.00 0.00 0.00 0.0 0.00	12.6175253855	0.00	0.00	Isolated_T-Storms(clear)	True	False	0.00
2010-06-05 01:00:00 10512 1 0.00 0.00 0.00 0.0 0.00	12.6175253855	0.00	0.00	Scattered_T-Storms(clear)	True	False	0.00
2010-06-05 02:00:00 10513 2 0.00 0.00 0.00 0.0 0.00	12.6175253855	0.00	0.00	Scattered_T-Storms(mostly_cloudy)	True	False	0.00
2010-06-05 03:00:00 10514 3 0.00 0.00 0.00 0.0 0.00	12.6175253855	0.00	0.00	Scattered_T-Storms(mostly_cloudy)	True	False	0.00
2010-06-05 04:00:00 10515 4 0.00 0.00 0.00 0.0 0.00	12.6175253855	0.00	0.00	Isolated_T-Storms(mostly_cloudy)	True	False	0.00
2010-06-05 05:00:00 10516 5 0.23 0.23 0.23 0.0 1.80	12.6175253855	0.23	0.00	Isolated_T-Storms(mostly_cloudy)	True	False	0.00
2010-06-05 06:00:00 10517 6 9.27 9.27 9.27 22.5 73.50	12.6175253855	9.27	22.50	Isolated_T-Storms(mostly_cloudy)	True	False	22.50
2010-06-05 07:00:00 10518 7 33.85 33.85 33.85 154.1 268.30	12.6175253855	33.85	154.10	Isolated_T-Storms(partly_cloudy)	True	False	154.10
2010-06-05 08:00:00 10519 8 67.10 67.10 67.10 353.6 531.80	12.6175253855	67.10	353.60	Isolated_T-Storms(partly_cloudy)	True	False	353.60
2010-06-05 09:00:00 10520 9 97.15 97.15 97.15 437.0 770.00	12.6175253855	97.15	437.00	Isolated_T-Storms(partly_cloudy)	True	False	437.00
2010-06-05 10:00:00 10521 10 120.21 120.21 120.21 809.6 952.40	12.6215390314	120.21	809.60	Scattered_T-Storms(mostly_cloudy)	True	False	809.60
2010-06-05 11:00:00 10522 11 132.75 132.75 132.75 815.5 1051.80	12.6215390314	132.75	815.50	Scattered_T-Storms(partly_cloudy)	True	False	815.50
2010-06-05 12:00:00 10523 12 138.10 138.10 138.10 969.1 1094.20	12.6215390314	138.10	969.10	Scattered_T-Storms(fair)	True	False	969.10
2010-06-05 13:00:00 10524 13 136.30 136.30 136.30 807.3 1079.90	12.6215390314	136.30	807.30	Isolated_T-Storms(partly_cloudy)	True	False	807.30
2010-06-05 14:00:00 10525 14 127.83 127.83 127.83 685.1 1012.80	12.6215390314	127.83	685.10	Isolated_T-Storms(partly_cloudy)	True	False	685.10
2010-06-05 15:00:00 10526 15 112.74 112.74 112.74 642.6 893.20	12.6215390314	112.74	642.60	Isolated_T-Storms(partly_cloudy)	True	False	642.60
2010-06-05 16:00:00 10527 16 90.35 90.35 90.35 552.1 716.10	12.6175253855	90.35	552.10	Isolated_T-Storms(sunny)	True	False	552.10
2010-06-05 17:00:00 10528 17 52.94 52.94 52.94 411.2 419.60	12.6175253855	52.94	411.20	Isolated_T-Storms(partly_cloudy)	True	False	411.20
2010-06-05 18:00:00 10529 18 27.03 27.03 27.03 156.7 214.20	12.6175253855	27.03	156.70	Isolated_T-Storms(sunny)	True	False	156.70
2010-06-05 19:00:00 10530 19 6.71 6.71 6.71 45.0 53.20	12.6175253855	6.71	45.00	Isolated_T-Storms(partly_cloudy)	True	False	45.00
2010-06-05 20:00:00 10531 20 0.30 0.30 0.30 0.7 2.40	12.6175253855	0.30	0.70	Isolated_T-Storms(mostly_cloudy)	True	False	0.70
2010-06-05 21:00:00 10532 21 0.00 0.00 0.00 0.0 0.00	12.6175253855	0.00	0.00	Isolated_T-Storms(mostly_cloudy)	True	False	0.00
2010-06-05 22:00:00 10533 22 0.00 0.00 0.00 0.0 0.00	12.6175253855	0.00	0.00	Isolated_T-Storms(mostly_cloudy)	True	False	0.00
2010-06-05 23:00:00 10534 23 0.00 0.00 0.00 0.0 0.00	12.6175253855	0.00	0.00	Isolated_T-Storms(mostly_cloudy)	True	False	0.00
2010-06-06 00:00:00 10535 0 0.00 0.00 0.00 0.0 0.00	12.6175253855	0.00	0.00	Isolated_T-Storms(mostly_cloudy)	True	False	0.00
2010-06-06 01:00:00 10536 1 0.00 0.00 0.00 0.0 0.00	12.6175253855	0.00	0.00	Few_Showers(mostly_cloudy)	True	False	0.00
2010-06-06 02:00:00 10537 2 0.00 0.00 0.00 0.0 0.00	12.6175253855	0.00	0.00	Few_Showers(cloudy)	True	False	0.00
2010-06-06 03:00:00 10538 3 0.00 0.00 0.00 0.0 0.00	12.6175253855	0.00	0.00	Few_Showers(partly_cloudy)	True	False	0.00
2010-06-06 04:00:00 10539 4 0.00 0.00 0.00 0.0 0.00	12.6175253855	0.00	0.00	Few_Showers(partly_cloudy)	True	False	0.00
2010-06-06 05:00:00 10540 5 0.23 0.23 0.23 0.0 1.80	12.6175253855	0.23	0.00	Few_Showers(sunny)	True	False	0.00
2010-06-06 06:00:00 10541 6 9.27 9.27 9.27 59.8 73.50	12.6175253855	9.27	59.80	Few_Showers(sunny)	True	False	59.80
2010-06-06 07:00:00 10542 7 44.10 44.10 44.10 153.2 268.30	16.4384864043	44.10	153.20	Showers(mostly_cloudy)	True	False	153.20
2010-06-06 08:00:00 10543 8 87.42 87.42 87.42 364.9 531.80	16.4384864043	87.42	364.90	Showers(mostly_cloudy)	True	False	364.90
2010-06-06 09:00:00 10544 9 126.58 126.58 126.58 629.6 770.00	16.4384864043	126.58	629.60	Showers(partly_cloudy)	True	False	629.60
2010-06-06 10:00:00 10545 10 610.10 610.10 610.10 792.2 952.40	64.0592188156	610.10	792.20	Mostly_Cloudy(partly_cloudy)	True	False	792.20
2010-06-06 11:00:00 10546 11 673.77 673.77 673.77 812.8 1051.80	64.0592188156	673.77	812.80	Mostly_Cloudy(partly_cloudy)	True	False	812.80
2010-06-06 12:00:00 10547 12 700.94 700.94 700.94 875.5 1094.20	64.0592188156	700.94	875.50	Mostly_Cloudy(partly_cloudy)	True	False	875.50
2010-06-06 13:00:00 10548 13 136.30 136.30 136.30 708.8 1079.90	12.6215390314	136.30	708.80	Scattered_T-Storms(partly_cloudy)	True	False	708.80
2010-06-06 14:00:00 10549 14 127.83 127.83 127.83 515.1 1012.80	12.6215390314	127.83	515.10	Scattered_T-Storms(mostly_cloudy)	True	False	515.10
2010-06-06 15:00:00 10550 15 112.74 112.74 112.74 451.2 893.20	12.6215390314	112.74	451.20	Scattered_T-Storms(mostly_cloudy)	True	False	451.20
2010-06-06 16:00:00 10551 16 462.79 462.79 462.79 357.2 716.10	64.6258503401	462.79	357.20	Mostly_Cloudy(heavy_rain)	True	False	357.20
2010-06-06 17:00:00 10552 17 271.17 271.17 271.17 407.5 419.60	64.6258503401	271.17	407.50	Mostly_Cloudy(mostly_cloudy)	True	False	407.50
