2010-05-28 03:00:00 1586 3 0.00 0.00 0.00 0.0 0.00	13.2086791321	0.00	0.00	Showers(mostly_cloudy)	True	False	0.00
2010-05-28 04:00:00 1587 4 0.00 0.00 0.00 0.0 0.00	12.3697773879	0.00	0.00	Few_Showers(cloudy)	True	False	0.00
2010-05-28 05:00:00 1588 5 0.09 0.09 0.09 0.4 0.70	12.3697773879	0.09	0.40	Few_Showers(mostly_cloudy)	True	False	0.40
2010-05-28 06:00:00 1589 6 8.99 8.99 8.99 57.0 72.70	12.3697773879	8.99	57.00	Few_Showers(cloudy)	True	False	57.00
2010-05-28 07:00:00 1590 7 33.19 33.19 33.19 215.9 268.30	12.3697773879	33.19	215.90	Few_Showers(partly_cloudy)	True	False	215.90
2010-05-28 08:00:00 1591 8 67.71 67.71 67.71 486.7 547.40	12.3697773879	67.71	486.70	Few_Showers(fair)	True	False	486.70
2010-05-28 09:00:00 1592 9 101.31 101.31 101.31 568.1 819.00	12.3697773879	101.31	568.10	Few_Showers(fair)	True	False	568.10
2010-05-28 10:00:00 1593 10 123.71 123.71 123.71 698.5 1000.10	12.3697773879	123.71	698.50	Few_Showers(partly_cloudy)	True	False	698.50
2010-05-28 11:00:00 1594 11 134.97 134.97 134.97 830.7 1091.10	12.3697773879	134.97	830.70	Few_Showers(partly_cloudy)	True	False	830.70
2010-05-28 12:00:00 1595 12 139.75 139.75 139.75 853.9 1129.80	12.3697773879	139.75	853.90	Few_Showers(sunny)	True	False	853.90
2010-05-28 13:00:00 1596 13 133.58 133.58 133.58 762.7 1079.90	12.3697773879	133.58	762.70	Few_Showers(mostly_cloudy)	True	False	762.70
2010-05-28 14:00:00 1597 14 126.73 126.73 126.73 546.0 1024.50	12.3697773879	126.73	546.00	Few_Showers(cloudy)	True	False	546.00
2010-05-28 15:00:00 1598 15 112.80 112.80 112.80 367.4 911.90	12.3697773879	112.80	367.40	Few_Showers(mostly_cloudy)	True	False	367.40
2010-05-28 16:00:00 1599 16 88.58 88.58 88.58 108.6 716.10	12.3697773879	88.58	108.60	Few_Showers(cloudy)	True	False	108.60
2010-05-28 17:00:00 1600 17 59.97 59.97 59.97 64.3 484.80	12.3697773879	59.97	64.30	Few_Showers(cloudy)	True	False	64.30
2010-05-28 18:00:00 1601 18 24.21 24.21 24.21 161.3 195.70	12.3697773879	24.21	161.30	Few_Showers(cloudy)	True	False	161.30
2010-05-28 19:00:00 1602 19 37.30 37.30 37.30 35.9 60.50	61.6495851635	37.30	35.90	Mostly_Cloudy(cloudy)	True	False	35.90
2010-05-28 20:00:00 1603 20 0.86 0.86 0.86 0.1 1.40	61.6495851635	0.86	0.10	Mostly_Cloudy(cloudy)	True	False	0.10
2010-05-28 21:00:00 1604 21 0.00 0.00 0.00 0.0 0.00	61.6495851635	0.00	0.00	Mostly_Cloudy(cloudy)	True	False	0.00
2010-05-28 22:00:00 1605 22 0.00 0.00 0.00 0.0 0.00	80.4696235557	0.00	0.00	Partly_Cloudy(mostly_cloudy)	True	False	0.00
2010-05-28 23:00:00 1606 23 0.00 0.00 0.00 0.0 0.00	80.4696235557	0.00	0.00	Partly_Cloudy(cloudy)	True	False	0.00
2010-05-29 00:00:00 1607 0 0.00 0.00 0.00 0.0 0.00	80.4696235557	0.00	0.00	Partly_Cloudy(cloudy)	True	False	0.00
2010-05-29 01:00:00 1608 1 0.00 0.00 0.00 0.0 0.00	80.4696235557	0.00	0.00	Partly_Cloudy(cloudy)	True	False	0.00
2010-05-29 02:00:00 1609 2 0.00 0.00 0.00 0.0 0.00	80.4696235557	0.00	0.00	Partly_Cloudy(cloudy)	True	False	0.00
2010-05-29 03:00:00 1610 3 0.00 0.00 0.00 0.0 0.00	80.4696235557	0.00	0.00	Partly_Cloudy(cloudy)	True	False	0.00
2010-05-29 04:00:00 1611 4 0.00 0.00 0.00 0.0 0.00	80.4696235557	0.00	0.00	Partly_Cloudy(cloudy)	True	False	0.00
2010-05-29 05:00:00 1612 5 0.56 0.56 0.56 0.0 0.70	80.4696235557	0.56	0.00	Partly_Cloudy(cloudy)	True	False	0.00
2010-05-29 06:00:00 1613 6 58.50 58.50 58.50 0.0 72.70	80.4696235557	58.50	0.00	Partly_Cloudy(cloudy)	True	False	0.00
2010-05-29 07:00:00 1614 7 215.90 215.90 215.90 11.9 268.30	80.4696235557	215.90	11.90	Partly_Cloudy(light_rain)	True	False	11.90
2010-05-29 08:00:00 1615 8 440.49 440.49 440.49 52.6 547.40	80.4696235557	440.49	52.60	Partly_Cloudy(cloudy)	True	False	52.60
2010-05-29 09:00:00 1616 9 659.05 659.05 659.05 239.4 819.00	80.4696235557	659.05	239.40	Partly_Cloudy(cloudy)	True	False	239.40
2010-05-29 10:00:00 1617 10 649.38 649.38 649.38 598.2 1000.10	64.9319381424	649.38	598.20	Mostly_Cloudy(cloudy)	True	False	598.20
2010-05-29 11:00:00 1618 11 708.47 708.47 708.47 805.2 1091.10	64.9319381424	708.47	805.20	Mostly_Cloudy(cloudy)	True	False	805.20
2010-05-29 12:00:00 1619 12 733.60 733.60 733.60 899.1 1129.80	64.9319381424	733.60	899.10	Mostly_Cloudy(cloudy)	True	False	899.10
2010-05-29 13:00:00 1620 13 918.73 918.73 918.73 630.3 1079.90	85.0756466569	918.73	630.30	Partly_Cloudy(mostly_cloudy)	True	False	630.30
2010-05-29 14:00:00 1621 14 871.60 871.60 871.60 413.4 1024.50	85.0756466569	871.60	413.40	Partly_Cloudy(cloudy)	True	False	413.40
2010-05-29 15:00:00 1622 15 775.80 775.80 775.80 658.7 911.90	85.0756466569	775.80	658.70	Partly_Cloudy(cloudy)	True	False	658.70
2010-05-29 16:00:00 1623 16 576.24 576.24 576.24 530.7 716.10	80.4696235557	576.24	530.70	Partly_Cloudy(fair)	True	False	530.70
2010-05-29 17:00:00 1624 17 390.12 390.12 390.12 345.7 484.80	80.4696235557	390.12	345.70	Partly_Cloudy(partly_cloudy)	True	False	345.70
2010-05-29 18:00:00 1625 18 157.48 157.48 157.48 134.0 195.70	80.4696235557	157.48	134.00	Partly_Cloudy(mostly_cloudy)	True	False	134.00
2010-05-29 19:00:00 1626 19 7.48 7.48 7.48 46.7 60.50	12.3697773879	7.48	46.70	Isolated_T-Storms(fair)	True	False	46.70
2010-05-29 20:00:00 1627 20 0.17 0.17 0.17 0.0 1.40	12.3697773879	0.17	0.00	Isolated_T-Storms(partly_cloudy)	True	False	0.00
2010-05-29 21:00:00 1628 21 0.00 0.00 0.00 0.0 0.00	12.3697773879	0.00	0.00	Isolated_T-Storms(fair)	True	False	0.00
2010-05-29 22:00:00 1629 22 0.00 0.00 0.00 0.0 0.00	80.4696235557	0.00	0.00	Partly_Cloudy(light_rain)	True	False	0.00
2010-05-29 23:00:00 1630 23 0.00 0.00 0.00 0.0 0.00	80.4696235557	0.00	0.00	Partly_Cloudy(cloudy)	True	False	0.00
2010-05-30 00:00:00 1631 0 0.00 0.00 0.00 0.0 0.00	80.4696235557	0.00	0.00	Partly_Cloudy(partly_cloudy)	True	False	0.00
2010-05-30 01:00:00 1632 1 0.00 0.00 0.00 0.0 0.00	80.4696235557	0.00	0.00	Partly_Cloudy(fog)	True	False	0.00
2010-05-30 02:00:00 1633 2 0.00 0.00 0.00 0.0 0.00	80.4696235557	0.00	0.00	Partly_Cloudy(fog)	True	False	0.00
2010-05-30 03:00:00 1634 3 0.00 0.00 0.00 0.0 0.00	80.4696235557	0.00	0.00	Partly_Cloudy(fog)	True	False	0.00
