2010-06-16 03:00:00 23930 3 0.00 0.00 0.00 0.0 0.00	77.6614142967	0.00	0.00	Partly_Cloudy(mostly_cloudy)	True	False	0.00
2010-06-16 04:00:00 23931 4 0.00 0.00 0.00 0.0 0.00	64.6125116713	0.00	0.00	Mostly_Cloudy(cloudy)	True	False	0.00
2010-06-16 05:00:00 23932 5 1.16 1.16 1.16 0.0 1.80	64.6125116713	1.16	0.00	Mostly_Cloudy(cloudy)	True	False	0.00
2010-06-16 06:00:00 23933 6 47.49 47.49 47.49 25.3 73.50	64.6125116713	47.49	25.30	Mostly_Cloudy(cloudy)	True	False	25.30
2010-06-16 07:00:00 23934 7 29.22 29.22 29.22 131.9 220.30	13.2630892896	29.22	131.90	Few_Showers(cloudy)	True	False	131.90
2010-06-16 08:00:00 23935 8 59.59 59.59 59.59 127.3 449.30	13.2630892896	59.59	127.30	Few_Showers(cloudy)	True	False	127.30
2010-06-16 09:00:00 23936 9 91.52 91.52 91.52 265.3 690.00	13.2630892896	91.52	265.30	Few_Showers(cloudy)	True	False	265.30
2010-06-16 10:00:00 23937 10 123.29 123.29 123.29 186.9 929.60	13.2630892896	123.29	186.90	Few_Showers(cloudy)	True	False	186.90
2010-06-16 11:00:00 23938 11 125.23 125.23 125.23 369.6 944.20	13.2630892896	125.23	369.60	Few_Showers(cloudy)	True	False	369.60
2010-06-16 12:00:00 23939 12 124.51 124.51 124.51 361.7 938.80	13.2630892896	124.51	361.70	Few_Showers(cloudy)	True	False	361.70
2010-06-16 13:00:00 23940 13 146.97 146.97 146.97 746.4 1040.80	14.1212252879	146.97	746.40	Showers(cloudy)	True	False	746.40
2010-06-16 14:00:00 23941 14 130.00 130.00 130.00 522.7 920.60	14.1212252879	130.00	522.70	Showers(cloudy)	True	False	522.70
2010-06-16 15:00:00 23942 15 113.01 113.01 113.01 667.9 800.30	14.1212252879	113.01	667.90	Showers(cloudy)	True	False	667.90
2010-06-16 16:00:00 23943 16 94.98 94.98 94.98 486.1 716.10	13.2630892896	94.98	486.10	Scattered_T-Storms(partly_cloudy)	True	False	486.10
2010-06-16 17:00:00 23944 17 56.55 56.55 56.55 211.4 426.40	13.2630892896	56.55	211.40	Scattered_T-Storms(cloudy)	True	False	211.40
2010-06-16 18:00:00 23945 18 28.41 28.41 28.41 51.7 214.20	13.2630892896	28.41	51.70	Scattered_T-Storms(cloudy)	True	False	51.70
2010-06-16 19:00:00 23946 19 7.08 7.08 7.08 7.8 53.40	13.2630892896	7.08	7.80	Scattered_T-Storms(cloudy)	True	False	7.80
2010-06-16 20:00:00 23947 20 0.46 0.46 0.46 0.0 3.50	13.2630892896	0.46	0.00	Scattered_T-Storms(cloudy)	True	False	0.00
2010-06-16 21:00:00 23948 21 0.00 0.00 0.00 0.0 0.00	13.2630892896	0.00	0.00	Scattered_T-Storms(cloudy)	True	False	0.00
2010-06-16 22:00:00 23949 22 0.00 0.00 0.00 0.0 0.00	13.2630892896	0.00	0.00	Isolated_T-Storms(cloudy)	True	False	0.00
2010-06-16 23:00:00 23950 23 0.00 0.00 0.00 0.0 0.00	13.2630892896	0.00	0.00	Isolated_T-Storms(cloudy)	True	False	0.00
2010-06-17 00:00:00 23951 0 0.00 0.00 0.00 0.0 0.00	13.2630892896	0.00	0.00	Isolated_T-Storms(cloudy)	True	False	0.00
2010-06-17 01:00:00 23952 1 0.00 0.00 0.00 0.0 0.00	64.6125116713	0.00	0.00	Mostly_Cloudy(t-storm)	True	False	0.00
2010-06-17 02:00:00 23953 2 0.00 0.00 0.00 0.0 0.00	64.6125116713	0.00	0.00	Mostly_Cloudy(cloudy)	True	False	0.00
2010-06-17 03:00:00 23954 3 0.00 0.00 0.00 0.0 0.00	64.6125116713	0.00	0.00	Mostly_Cloudy(fog)	True	False	0.00
2010-06-17 04:00:00 23955 4 0.00 0.00 0.00 0.0 0.00	77.6614142967	0.00	0.00	Partly_Cloudy(fog)	True	False	0.00
2010-06-17 05:00:00 23956 5 1.40 1.40 1.40 0.0 1.80	77.6614142967	1.40	0.00	Partly_Cloudy(sunny)	True	False	0.00
2010-06-17 06:00:00 23957 6 57.08 57.08 57.08 39.7 73.50	77.6614142967	57.08	39.70	Partly_Cloudy(sunny)	True	False	39.70
2010-06-17 07:00:00 23958 7 171.09 171.09 171.09 225.9 220.30	77.6614142967	171.09	225.90	Mostly_Sunny(sunny)	False	False	225.90
2010-06-17 08:00:00 23959 8 348.93 348.93 348.93 504.2 449.30	77.6614142967	348.93	504.20	Mostly_Sunny(sunny)	False	False	504.20
2010-06-17 09:00:00 23960 9 535.86 535.86 535.86 563.6 690.00	77.6614142967	535.86	563.60	Mostly_Sunny(partly_cloudy)	False	False	563.60
2010-06-17 10:00:00 23961 10 729.40 729.40 729.40 880.7 929.60	78.4638554217	729.40	880.70	Sunny(partly_cloudy)	True	False	880.70
2010-06-17 11:00:00 23962 11 740.86 740.86 740.86 961.2 944.20	78.4638554217	740.86	961.20	Sunny(partly_cloudy)	True	False	961.20
2010-06-17 12:00:00 23963 12 736.62 736.62 736.62 1024.1 938.80	78.4638554217	736.62	1024.10	Sunny(cloudy)	True	False	1024.10
2010-06-17 13:00:00 23964 13 816.65 816.65 816.65 689.0 1040.80	78.4638554217	816.65	689.00	Sunny(fair)	True	False	689.00
2010-06-17 14:00:00 23965 14 722.34 722.34 722.34 672.7 920.60	78.4638554217	722.34	672.70	Sunny(mostly_cloudy)	True	False	672.70
2010-06-17 15:00:00 23966 15 627.95 627.95 627.95 652.4 800.30	78.4638554217	627.95	652.40	Sunny(cloudy)	True	False	652.40
2010-06-17 16:00:00 23967 16 544.99 544.99 544.99 334.4 716.10	76.1049192929	544.99	334.40	Sunny(cloudy)	True	False	334.40
2010-06-17 17:00:00 23968 17 324.51 324.51 324.51 294.3 426.40	76.1049192929	324.51	294.30	Sunny(cloudy)	True	False	294.30
2010-06-17 18:00:00 23969 18 163.02 163.02 163.02 91.8 214.20	76.1049192929	163.02	91.80	Sunny(cloudy)	True	False	91.80
2010-06-17 19:00:00 23970 19 40.64 40.64 40.64 20.6 53.40	76.1049192929	40.64	20.60	Sunny(cloudy)	True	False	20.60
2010-06-17 20:00:00 23971 20 2.66 2.66 2.66 1.6 3.50	76.1049192929	2.66	1.60	Sunny(partly_cloudy)	True	False	1.60
2010-06-17 21:00:00 23972 21 0.00 0.00 0.00 0.0 0.00	76.1049192929	0.00	0.00	Clear(partly_cloudy)	True	False	0.00
2010-06-17 22:00:00 23973 22 0.00 0.00 0.00 0.0 0.00	76.1049192929	0.00	0.00	Clear(partly_cloudy)	True	False	0.00
2010-06-17 23:00:00 23974 23 0.00 0.00 0.00 0.0 0.00	76.1049192929	0.00	0.00	Clear(clear)	True	False	0.00
2010-06-18 00:00:00 23975 0 0.00 0.00 0.00 0.0 0.00	76.1049192929	0.00	0.00	Clear(clear)	True	False	0.00
2010-06-18 01:00:00 23976 1 0.00 0.00 0.00 0.0 0.00	76.1049192929	0.00	0.00	Clear(clear)	True	False	0.00
2010-06-18 02:00:00 23977 2 0.00 0.00 0.00 0.0 0.00	76.1049192929	0.00	0.00	Clear(clear)	True	False	0.00
2010-06-18 03:00:00 23978 3 0.00 0.00 0.00 0.0 0.00	76.1049192929	0.00	0.00	Clear(clear)	True	False	0.00
