2010-07-12 09:00:00 54800 9 550.08 550.08 550.08 518.0 745.10	73.8263950399	550.08	518.00	Partly_Cloudy(sunny)	True	False	518.00
2010-07-12 10:00:00 54801 10 746.70 746.70 746.70 597.2 919.50	81.207177814	746.70	597.20	Sunny(partly_cloudy)	True	False	597.20
2010-07-12 11:00:00 54802 11 843.66 843.66 843.66 898.0 1038.90	81.207177814	843.66	898.00	Sunny(mostly_cloudy)	True	False	898.00
2010-07-12 12:00:00 54803 12 899.86 899.86 899.86 1031.2 1108.10	81.207177814	899.86	1031.20	Sunny(partly_cloudy)	True	False	1031.20
2010-07-12 13:00:00 54804 13 829.33 829.33 829.33 927.1 1107.70	74.8695559578	829.33	927.10	Partly_Cloudy(fair)	True	False	927.10
2010-07-12 14:00:00 54805 14 793.92 793.92 793.92 907.1 1060.40	74.8695559578	793.92	907.10	Partly_Cloudy(sunny)	True	False	907.10
2010-07-12 15:00:00 54806 15 703.10 703.10 703.10 485.2 939.10	74.8695559578	703.10	485.20	Partly_Cloudy(sunny)	True	False	485.20
2010-07-12 16:00:00 54807 16 458.70 458.70 458.70 399.8 758.90	60.4422604423	458.70	399.80	Mostly_Cloudy(partly_cloudy)	True	False	399.80
2010-07-12 17:00:00 54808 17 301.43 301.43 301.43 220.2 498.70	60.4422604423	301.43	220.20	Mostly_Cloudy(mostly_cloudy)	True	False	220.20
2010-07-12 18:00:00 54809 18 136.48 136.48 136.48 71.7 225.80	60.4422604423	136.48	71.70	Mostly_Cloudy(mostly_cloudy)	True	False	71.70
2010-07-12 19:00:00 54810 19 49.20 49.20 49.20 9.2 81.40	60.4422604423	49.20	9.20	Mostly_Cloudy(mostly_cloudy)	True	False	9.20
2010-07-12 20:00:00 54811 20 4.11 4.11 4.11 0.0 6.80	60.4422604423	4.11	0.00	Mostly_Cloudy(fair)	True	False	0.00
2010-07-12 21:00:00 54812 21 0.00 0.00 0.00 0.0 0.00	60.4422604423	0.00	0.00	Mostly_Cloudy(light_rain)	True	False	0.00
2010-07-12 22:00:00 54813 22 0.00 0.00 0.00 0.0 0.00	60.4422604423	0.00	0.00	Mostly_Cloudy(mostly_cloudy)	True	False	0.00
2010-07-12 23:00:00 54814 23 0.00 0.00 0.00 0.0 0.00	60.4422604423	0.00	0.00	Mostly_Cloudy(light_rain)	True	False	0.00
2010-07-13 00:00:00 54815 0 0.00 0.00 0.00 0.0 0.00	60.4422604423	0.00	0.00	Mostly_Cloudy(light_rain)	True	False	0.00
2010-07-13 01:00:00 54816 1 0.00 0.00 0.00 0.0 0.00	37.323037323	0.00	0.00	Cloudy(cloudy)	True	False	0.00
2010-07-13 02:00:00 54817 2 0.00 0.00 0.00 0.0 0.00	37.323037323	0.00	0.00	Cloudy(cloudy)	True	False	0.00
2010-07-13 03:00:00 54818 3 0.00 0.00 0.00 0.0 0.00	37.323037323	0.00	0.00	Cloudy(mostly_cloudy)	True	False	0.00
2010-07-13 04:00:00 54819 4 0.00 0.00 0.00 0.0 0.00	27.3693534101	0.00	0.00	Isolated_T-Storms(mostly_cloudy)	True	False	0.00
2010-07-13 05:00:00 54820 5 0.08 0.08 0.08 0.0 0.30	27.3693534101	0.08	0.00	Isolated_T-Storms(mostly_cloudy)	True	False	0.00
2010-07-13 06:00:00 54821 6 21.27 21.27 21.27 53.8 77.70	27.3693534101	21.27	53.80	Isolated_T-Storms(partly_cloudy)	True	False	53.80
2010-07-13 07:00:00 54822 7 56.76 56.76 56.76 101.4 207.40	27.3693534101	56.76	101.40	Isolated_T-Storms(partly_cloudy)	True	False	101.40
2010-07-13 08:00:00 54823 8 132.99 132.99 132.99 173.7 485.90	27.3693534101	132.99	173.70	Isolated_T-Storms(mostly_cloudy)	True	False	173.70
2010-07-13 09:00:00 54824 9 203.93 203.93 203.93 209.4 745.10	27.3693534101	203.93	209.40	Isolated_T-Storms(cloudy)	True	False	209.40
2010-07-13 10:00:00 54825 10 191.00 191.00 191.00 119.2 919.50	20.7721587819	191.00	119.20	Scattered_T-Storms(mostly_cloudy)	True	False	119.20
2010-07-13 11:00:00 54826 11 215.80 215.80 215.80 32.1 1038.90	20.7721587819	215.80	32.10	Scattered_T-Storms(heavy_rain)	True	False	32.10
2010-07-13 12:00:00 54827 12 230.18 230.18 230.18 203.2 1108.10	20.7721587819	230.18	203.20	Scattered_T-Storms(heavy_rain)	True	False	203.20
2010-07-13 13:00:00 54828 13 230.09 230.09 230.09 902.3 1107.70	20.7721587819	230.09	902.30	Scattered_T-Storms(mostly_cloudy)	True	False	902.30
2010-07-13 14:00:00 54829 14 220.27 220.27 220.27 669.2 1060.40	20.7721587819	220.27	669.20	Scattered_T-Storms(partly_cloudy)	True	False	669.20
2010-07-13 15:00:00 54830 15 195.07 195.07 195.07 490.0 939.10	20.7721587819	195.07	490.00	Scattered_T-Storms(mostly_cloudy)	True	False	490.00
2010-07-13 16:00:00 54831 16 207.71 207.71 207.71 308.9 758.90	27.3693534101	207.71	308.90	Scattered_T-Storms(partly_cloudy)	True	False	308.90
2010-07-13 17:00:00 54832 17 136.49 136.49 136.49 274.5 498.70	27.3693534101	136.49	274.50	Scattered_T-Storms(mostly_cloudy)	True	False	274.50
2010-07-13 18:00:00 54833 18 61.80 61.80 61.80 225.8 225.80	27.3693534101	61.80	225.80	Scattered_T-Storms(partly_cloudy)	True	False	225.80
2010-07-13 19:00:00 54834 19 22.28 22.28 22.28 39.8 81.40	27.3693534101	22.28	39.80	Scattered_T-Storms(partly_cloudy)	True	False	39.80
2010-07-13 20:00:00 54835 20 1.86 1.86 1.86 0.0 6.80	27.3693534101	1.86	0.00	Scattered_T-Storms(partly_cloudy)	True	False	0.00
2010-07-13 21:00:00 54836 21 0.00 0.00 0.00 0.0 0.00	27.3693534101	0.00	0.00	Scattered_T-Storms(mostly_cloudy)	True	False	0.00
2010-07-13 22:00:00 54837 22 0.00 0.00 0.00 0.0 0.00	27.3693534101	0.00	0.00	Scattered_T-Storms(mostly_cloudy)	True	False	0.00
2010-07-13 23:00:00 54838 23 0.00 0.00 0.00 0.0 0.00	27.3693534101	0.00	0.00	Scattered_T-Storms(rain)	True	False	0.00
2010-07-14 00:00:00 54839 0 0.00 0.00 0.00 0.0 0.00	27.3693534101	0.00	0.00	Scattered_T-Storms(partly_cloudy)	True	False	0.00
2010-07-14 01:00:00 54840 1 0.00 0.00 0.00 0.0 0.00	27.3693534101	0.00	0.00	Scattered_T-Storms(fog)	True	False	0.00
2010-07-14 02:00:00 54841 2 0.00 0.00 0.00 0.0 0.00	27.3693534101	0.00	0.00	Scattered_T-Storms(fog)	True	False	0.00
2010-07-14 03:00:00 54842 3 0.00 0.00 0.00 0.0 0.00	27.3693534101	0.00	0.00	Scattered_T-Storms(fog)	True	False	0.00
2010-07-14 04:00:00 54843 4 0.00 0.00 0.00 0.0 0.00	27.3693534101	0.00	0.00	Scattered_T-Storms(fog)	True	False	0.00
2010-07-14 05:00:00 54844 5 0.08 0.08 0.08 0.0 0.30	27.3693534101	0.08	0.00	Scattered_T-Storms(light_rain)	True	False	0.00
2010-07-14 06:00:00 54845 6 21.27 21.27 21.27 0.0 77.70	27.3693534101	21.27	0.00	Scattered_T-Storms(light_rain)	True	False	0.00
2010-07-14 07:00:00 54846 7 56.76 56.76 56.76 69.3 207.40	27.3693534101	56.76	69.30	Scattered_T-Storms(mostly_cloudy)	True	False	69.30
2010-07-14 08:00:00 54847 8 132.99 132.99 132.99 118.7 485.90	27.3693534101	132.99	118.70	Scattered_T-Storms(light_rain)	True	False	118.70
2010-07-14 09:00:00 54848 9 203.93 203.93 203.93 272.1 745.10	27.3693534101	203.93	272.10	Scattered_T-Storms(light_rain)	True	False	272.10
