2010-07-17 21:00:00 61268 21 0.00 0.00 0.00 0.0 0.00	73.8263950399	0.00	0.00	Partly_Cloudy(clear)	True	False	0.00
2010-07-17 22:00:00 61269 22 0.00 0.00 0.00 0.0 0.00	73.8263950399	0.00	0.00	Partly_Cloudy(clear)	True	False	0.00
2010-07-17 23:00:00 61270 23 0.00 0.00 0.00 0.0 0.00	73.8263950399	0.00	0.00	Partly_Cloudy(clear)	True	False	0.00
2010-07-18 00:00:00 61271 0 0.00 0.00 0.00 0.0 0.00	73.8263950399	0.00	0.00	Partly_Cloudy(clear)	True	False	0.00
2010-07-18 01:00:00 61272 1 0.00 0.00 0.00 0.0 0.00	73.8263950399	0.00	0.00	Partly_Cloudy(clear)	True	False	0.00
2010-07-18 02:00:00 61273 2 0.00 0.00 0.00 0.0 0.00	73.8263950399	0.00	0.00	Partly_Cloudy(partly_cloudy)	True	False	0.00
2010-07-18 03:00:00 61274 3 0.00 0.00 0.00 0.0 0.00	73.8263950399	0.00	0.00	Partly_Cloudy(clear)	True	False	0.00
2010-07-18 04:00:00 61275 4 0.00 0.00 0.00 0.0 0.00	73.8263950399	0.00	0.00	Partly_Cloudy(fair)	True	False	0.00
2010-07-18 05:00:00 61276 5 0.15 0.15 0.15 0.0 0.20	73.8263950399	0.15	0.00	Partly_Cloudy(fair)	True	False	0.00
2010-07-18 06:00:00 61277 6 57.36 57.36 57.36 24.2 77.70	73.8263950399	57.36	24.20	Partly_Cloudy(fog)	True	False	24.20
2010-07-18 07:00:00 61278 7 153.12 153.12 153.12 176.8 207.40	73.8263950399	153.12	176.80	Partly_Cloudy(sunny)	True	False	176.80
2010-07-18 08:00:00 61279 8 358.72 358.72 358.72 422.5 485.90	73.8263950399	358.72	422.50	Partly_Cloudy(sunny)	True	False	422.50
2010-07-18 09:00:00 61280 9 550.08 550.08 550.08 661.7 745.10	73.8263950399	550.08	661.70	Partly_Cloudy(sunny)	True	False	661.70
2010-07-18 10:00:00 61281 10 693.88 693.88 693.88 861.5 919.50	75.4625033842	693.88	861.50	Partly_Cloudy(sunny)	True	False	861.50
2010-07-18 11:00:00 61282 11 783.98 783.98 783.98 832.1 1038.90	75.4625033842	783.98	832.10	Partly_Cloudy(fair)	True	False	832.10
2010-07-18 12:00:00 61283 12 836.20 836.20 836.20 1019.8 1108.10	75.4625033842	836.20	1019.80	Partly_Cloudy(partly_cloudy)	True	False	1019.80
2010-07-18 13:00:00 61284 13 835.90 835.90 835.90 974.1 1107.70	75.4625033842	835.90	974.10	Partly_Cloudy(sunny)	True	False	974.10
2010-07-18 14:00:00 61285 14 800.20 800.20 800.20 767.6 1060.40	75.4625033842	800.20	767.60	Partly_Cloudy(fair)	True	False	767.60
2010-07-18 15:00:00 61286 15 708.67 708.67 708.67 831.6 939.10	75.4625033842	708.67	831.60	Partly_Cloudy(sunny)	True	False	831.60
2010-07-18 16:00:00 61287 16 560.27 560.27 560.27 566.3 758.90	73.8263950399	560.27	566.30	Partly_Cloudy(sunny)	True	False	566.30
2010-07-18 17:00:00 61288 17 368.17 368.17 368.17 425.6 498.70	73.8263950399	368.17	425.60	Partly_Cloudy(sunny)	True	False	425.60
2010-07-18 18:00:00 61289 18 166.70 166.70 166.70 195.5 225.80	73.8263950399	166.70	195.50	Partly_Cloudy(sunny)	True	False	195.50
2010-07-18 19:00:00 61290 19 60.09 60.09 60.09 40.3 81.40	73.8263950399	60.09	40.30	Mostly_Sunny(sunny)	False	False	40.30
2010-07-18 20:00:00 61291 20 5.02 5.02 5.02 0.5 6.80	73.8263950399	5.02	0.50	Mostly_Sunny(sunny)	False	False	0.50
2010-07-18 21:00:00 61292 21 0.00 0.00 0.00 0.0 0.00	73.8263950399	0.00	0.00	Mostly_Clear(clear)	False	False	0.00
2010-07-18 22:00:00 61293 22 0.00 0.00 0.00 0.0 0.00	79.2665319087	0.00	0.00	Clear(clear)	True	False	0.00
2010-07-18 23:00:00 61294 23 0.00 0.00 0.00 0.0 0.00	79.2665319087	0.00	0.00	Clear(partly_cloudy)	True	False	0.00
2010-07-19 00:00:00 61295 0 0.00 0.00 0.00 0.0 0.00	79.2665319087	0.00	0.00	Clear(partly_cloudy)	True	False	0.00
2010-07-19 01:00:00 61296 1 0.00 0.00 0.00 0.0 0.00	79.2665319087	0.00	0.00	Clear(partly_cloudy)	True	False	0.00
2010-07-19 02:00:00 61297 2 0.00 0.00 0.00 0.0 0.00	79.2665319087	0.00	0.00	Clear(mostly_cloudy)	True	False	0.00
2010-07-19 03:00:00 61298 3 0.00 0.00 0.00 0.0 0.00	79.2665319087	0.00	0.00	Clear(mostly_cloudy)	True	False	0.00
2010-07-19 04:00:00 61299 4 0.00 0.00 0.00 0.0 0.00	73.8263950399	0.00	0.00	Partly_Cloudy(fair)	True	False	0.00
2010-07-19 05:00:00 61300 5 0.15 0.15 0.15 0.0 0.20	73.8263950399	0.15	0.00	Partly_Cloudy(partly_cloudy)	True	False	0.00
2010-07-19 06:00:00 61301 6 57.36 57.36 57.36 31.8 77.70	73.8263950399	57.36	31.80	Partly_Cloudy(partly_cloudy)	True	False	31.80
2010-07-19 07:00:00 61302 7 153.12 153.12 153.12 168.5 207.40	73.8263950399	153.12	168.50	Partly_Cloudy(partly_cloudy)	True	False	168.50
2010-07-19 08:00:00 61303 8 358.72 358.72 358.72 328.2 485.90	73.8263950399	358.72	328.20	Partly_Cloudy(thunder)	True	False	328.20
2010-07-19 09:00:00 61304 9 550.08 550.08 550.08 188.2 745.10	73.8263950399	550.08	188.20	Partly_Cloudy(mostly_cloudy)	True	False	188.20
2010-07-19 10:00:00 61305 10 191.00 191.00 191.00 345.0 919.50	20.7721587819	191.00	345.00	Isolated_T-Storms(mostly_cloudy)	True	False	345.00
2010-07-19 11:00:00 61306 11 215.80 215.80 215.80 931.2 1038.90	20.7721587819	215.80	931.20	Isolated_T-Storms(partly_cloudy)	True	False	931.20
2010-07-19 12:00:00 61307 12 230.18 230.18 230.18 877.2 1108.10	20.7721587819	230.18	877.20	Isolated_T-Storms(fair)	True	False	877.20
2010-07-19 13:00:00 61308 13 230.09 230.09 230.09 984.8 1107.70	20.7721587819	230.09	984.80	Scattered_T-Storms(fair)	True	False	984.80
2010-07-19 14:00:00 61309 14 220.27 220.27 220.27 968.8 1060.40	20.7721587819	220.27	968.80	Scattered_T-Storms(partly_cloudy)	True	False	968.80
2010-07-19 15:00:00 61310 15 195.07 195.07 195.07 719.2 939.10	20.7721587819	195.07	719.20	Scattered_T-Storms(mostly_cloudy)	True	False	719.20
2010-07-19 16:00:00 61311 16 207.71 207.71 207.71 516.3 758.90	27.3693534101	207.71	516.30	Scattered_T-Storms(mostly_cloudy)	True	False	516.30
2010-07-19 17:00:00 61312 17 136.49 136.49 136.49 232.3 498.70	27.3693534101	136.49	232.30	Scattered_T-Storms(fair)	True	False	232.30
2010-07-19 18:00:00 61313 18 61.80 61.80 61.80 86.2 225.80	27.3693534101	61.80	86.20	Scattered_T-Storms(mostly_cloudy)	True	False	86.20
2010-07-19 19:00:00 61314 19 47.56 47.56 47.56 44.7 81.40	58.4307808374	47.56	44.70	Mostly_Cloudy(t-storm)	True	False	44.70
2010-07-19 20:00:00 61315 20 1.86 1.86 1.86 5.2 6.80	27.3693534101	1.86	5.20	Scattered_T-Storms(partly_cloudy)	True	False	5.20
2010-07-19 21:00:00 61316 21 0.00 0.00 0.00 0.0 0.00	27.3693534101	0.00	0.00	Scattered_T-Storms(heavy_t-storm)	True	False	0.00
