2010-06-04 16:00:00 10455 16 682.94 682.94 682.94 609.0 716.10	95.3695926081	682.94	609.00	Mostly_Sunny(partly_cloudy)	False	False	609.00
2010-06-04 17:00:00 10456 17 356.84 356.84 356.84 290.5 419.60	95.3695926081	356.84	290.50	Mostly_Sunny(fair)	False	False	290.50
2010-06-04 18:00:00 10457 18 204.28 182.16 182.16 123.1 214.20	85.0439882698	182.16	123.10	Mostly_Sunny(fair)	False	False	123.10
2010-06-04 19:00:00 10458 19 42.08 45.24 45.24 34.8 53.20	79.0929834569	45.24	34.80	Partly_Cloudy(sunny)	True	False	34.80
2010-06-04 20:00:00 10459 20 1.90 2.04 2.04 1.3 2.40	79.0929834569	2.04	1.30	Partly_Cloudy(mostly_cloudy)	True	False	1.30
2010-06-04 21:00:00 10460 21 0.00 0.00 0.00 0.0 0.00	79.0929834569	0.00	0.00	Partly_Cloudy(partly_cloudy)	True	False	0.00
2010-06-04 22:00:00 10461 22 0.00 0.00 0.00 0.0 0.00	12.6175253855	0.00	0.00	Isolated_T-Storms(partly_cloudy)	True	False	0.00
2010-06-04 23:00:00 10462 23 0.00 0.00 0.00 0.0 0.00	12.6175253855	0.00	0.00	Isolated_T-Storms(mostly_cloudy)	True	False	0.00
2010-06-05 00:00:00 10463 0 0.00 0.00 0.00 0.0 0.00	12.6175253855	0.00	0.00	Isolated_T-Storms(clear)	True	False	0.00
2010-06-05 01:00:00 10464 1 0.00 0.00 0.00 0.0 0.00	12.6175253855	0.00	0.00	Scattered_T-Storms(clear)	True	False	0.00
2010-06-05 02:00:00 10465 2 0.00 0.00 0.00 0.0 0.00	12.6175253855	0.00	0.00	Scattered_T-Storms(mostly_cloudy)	True	False	0.00
2010-06-05 03:00:00 10466 3 0.00 0.00 0.00 0.0 0.00	12.6175253855	0.00	0.00	Scattered_T-Storms(mostly_cloudy)	True	False	0.00
2010-06-05 04:00:00 10467 4 0.00 0.00 0.00 0.0 0.00	12.6175253855	0.00	0.00	Isolated_T-Storms(mostly_cloudy)	True	False	0.00
2010-06-05 05:00:00 10468 5 0.23 0.23 0.23 0.0 1.80	12.6175253855	0.23	0.00	Isolated_T-Storms(mostly_cloudy)	True	False	0.00
2010-06-05 06:00:00 10469 6 9.27 9.27 9.27 22.5 73.50	12.6175253855	9.27	22.50	Isolated_T-Storms(mostly_cloudy)	True	False	22.50
2010-06-05 07:00:00 10470 7 33.85 33.85 33.85 154.1 268.30	12.6175253855	33.85	154.10	Isolated_T-Storms(partly_cloudy)	True	False	154.10
2010-06-05 08:00:00 10471 8 67.10 67.10 67.10 353.6 531.80	12.6175253855	67.10	353.60	Isolated_T-Storms(partly_cloudy)	True	False	353.60
2010-06-05 09:00:00 10472 9 97.15 97.15 97.15 437.0 770.00	12.6175253855	97.15	437.00	Isolated_T-Storms(partly_cloudy)	True	False	437.00
2010-06-05 10:00:00 10473 10 120.21 120.21 120.21 809.6 952.40	12.6215390314	120.21	809.60	Scattered_T-Storms(mostly_cloudy)	True	False	809.60
2010-06-05 11:00:00 10474 11 132.75 132.75 132.75 815.5 1051.80	12.6215390314	132.75	815.50	Scattered_T-Storms(partly_cloudy)	True	False	815.50
2010-06-05 12:00:00 10475 12 138.10 138.10 138.10 969.1 1094.20	12.6215390314	138.10	969.10	Scattered_T-Storms(fair)	True	False	969.10
2010-06-05 13:00:00 10476 13 136.30 136.30 136.30 807.3 1079.90	12.6215390314	136.30	807.30	Scattered_T-Storms(partly_cloudy)	True	False	807.30
2010-06-05 14:00:00 10477 14 127.83 127.83 127.83 685.1 1012.80	12.6215390314	127.83	685.10	Scattered_T-Storms(partly_cloudy)	True	False	685.10
2010-06-05 15:00:00 10478 15 112.74 112.74 112.74 642.6 893.20	12.6215390314	112.74	642.60	Scattered_T-Storms(partly_cloudy)	True	False	642.60
2010-06-05 16:00:00 10479 16 90.35 90.35 90.35 552.1 716.10	12.6175253855	90.35	552.10	Scattered_T-Storms(sunny)	True	False	552.10
2010-06-05 17:00:00 10480 17 52.94 52.94 52.94 411.2 419.60	12.6175253855	52.94	411.20	Scattered_T-Storms(partly_cloudy)	True	False	411.20
2010-06-05 18:00:00 10481 18 27.03 27.03 27.03 156.7 214.20	12.6175253855	27.03	156.70	Scattered_T-Storms(sunny)	True	False	156.70
2010-06-05 19:00:00 10482 19 6.71 6.71 6.71 45.0 53.20	12.6175253855	6.71	45.00	Isolated_T-Storms(partly_cloudy)	True	False	45.00
2010-06-05 20:00:00 10483 20 0.30 0.30 0.30 0.7 2.40	12.6175253855	0.30	0.70	Isolated_T-Storms(mostly_cloudy)	True	False	0.70
2010-06-05 21:00:00 10484 21 0.00 0.00 0.00 0.0 0.00	12.6175253855	0.00	0.00	Isolated_T-Storms(mostly_cloudy)	True	False	0.00
2010-06-05 22:00:00 10485 22 0.00 0.00 0.00 0.0 0.00	12.6175253855	0.00	0.00	Isolated_T-Storms(mostly_cloudy)	True	False	0.00
2010-06-05 23:00:00 10486 23 0.00 0.00 0.00 0.0 0.00	12.6175253855	0.00	0.00	Isolated_T-Storms(mostly_cloudy)	True	False	0.00
2010-06-06 00:00:00 10487 0 0.00 0.00 0.00 0.0 0.00	12.6175253855	0.00	0.00	Isolated_T-Storms(mostly_cloudy)	True	False	0.00
2010-06-06 01:00:00 10488 1 0.00 0.00 0.00 0.0 0.00	12.6175253855	0.00	0.00	Few_Showers(mostly_cloudy)	True	False	0.00
2010-06-06 02:00:00 10489 2 0.00 0.00 0.00 0.0 0.00	12.6175253855	0.00	0.00	Few_Showers(cloudy)	True	False	0.00
2010-06-06 03:00:00 10490 3 0.00 0.00 0.00 0.0 0.00	12.6175253855	0.00	0.00	Few_Showers(partly_cloudy)	True	False	0.00
2010-06-06 04:00:00 10491 4 0.00 0.00 0.00 0.0 0.00	12.6175253855	0.00	0.00	Few_Showers(partly_cloudy)	True	False	0.00
2010-06-06 05:00:00 10492 5 0.23 0.23 0.23 0.0 1.80	12.6175253855	0.23	0.00	Few_Showers(sunny)	True	False	0.00
2010-06-06 06:00:00 10493 6 9.27 9.27 9.27 59.8 73.50	12.6175253855	9.27	59.80	Few_Showers(sunny)	True	False	59.80
2010-06-06 07:00:00 10494 7 44.10 44.10 44.10 153.2 268.30	16.4384864043	44.10	153.20	Showers(mostly_cloudy)	True	False	153.20
2010-06-06 08:00:00 10495 8 87.42 87.42 87.42 364.9 531.80	16.4384864043	87.42	364.90	Showers(mostly_cloudy)	True	False	364.90
2010-06-06 09:00:00 10496 9 126.58 126.58 126.58 629.6 770.00	16.4384864043	126.58	629.60	Showers(partly_cloudy)	True	False	629.60
2010-06-06 10:00:00 10497 10 610.10 610.10 610.10 792.2 952.40	64.0592188156	610.10	792.20	Mostly_Cloudy(partly_cloudy)	True	False	792.20
2010-06-06 11:00:00 10498 11 673.77 673.77 673.77 812.8 1051.80	64.0592188156	673.77	812.80	Mostly_Cloudy(partly_cloudy)	True	False	812.80
2010-06-06 12:00:00 10499 12 700.94 700.94 700.94 875.5 1094.20	64.0592188156	700.94	875.50	Mostly_Cloudy(partly_cloudy)	True	False	875.50
2010-06-06 13:00:00 10500 13 136.30 136.30 136.30 708.8 1079.90	12.6215390314	136.30	708.80	Scattered_T-Storms(partly_cloudy)	True	False	708.80
2010-06-06 14:00:00 10501 14 127.83 127.83 127.83 515.1 1012.80	12.6215390314	127.83	515.10	Scattered_T-Storms(mostly_cloudy)	True	False	515.10
2010-06-06 15:00:00 10502 15 112.74 112.74 112.74 451.2 893.20	12.6215390314	112.74	451.20	Scattered_T-Storms(mostly_cloudy)	True	False	451.20
2010-06-06 16:00:00 10503 16 462.79 462.79 462.79 357.2 716.10	64.6258503401	462.79	357.20	Mostly_Cloudy(heavy_rain)	True	False	357.20
