2010-07-05 00:00:00 46127 0 0.00 0.00 0.00 0.0 0.00	76.7244856797	0.00	0.00	Clear(fair)	True	False	0.00
2010-07-05 01:00:00 46128 1 0.00 0.00 0.00 0.0 0.00	76.7244856797	0.00	0.00	Mostly_Clear(fair)	False	False	0.00
2010-07-05 02:00:00 46129 2 0.00 0.00 0.00 0.0 0.00	76.7244856797	0.00	0.00	Clear(clear)	True	False	0.00
2010-07-05 03:00:00 46130 3 0.00 0.00 0.00 0.0 0.00	76.7244856797	0.00	0.00	Clear(clear)	True	False	0.00
2010-07-05 04:00:00 46131 4 0.00 0.00 0.00 0.0 0.00	76.7244856797	0.00	0.00	Clear(clear)	True	False	0.00
2010-07-05 05:00:00 46132 5 0.23 0.23 0.23 0.0 0.30	76.7244856797	0.23	0.00	Clear(sunny)	True	False	0.00
2010-07-05 06:00:00 46133 6 59.61 59.61 59.61 46.2 77.70	76.7244856797	59.61	46.20	Sunny(sunny)	True	False	46.20
2010-07-05 07:00:00 46134 7 159.13 159.13 159.13 161.7 207.40	76.7244856797	159.13	161.70	Mostly_Sunny(sunny)	False	False	161.70
2010-07-05 08:00:00 46135 8 372.80 372.80 372.80 352.8 485.90	76.7244856797	372.80	352.80	Mostly_Sunny(sunny)	False	False	352.80
2010-07-05 09:00:00 46136 9 570.60 570.60 570.60 530.7 743.70	76.7244856797	570.60	530.70	Mostly_Sunny(sunny)	False	False	530.70
2010-07-05 10:00:00 46137 10 679.65 679.65 679.65 678.2 919.50	73.9155035836	679.65	678.20	Partly_Cloudy(sunny)	True	False	678.20
2010-07-05 11:00:00 46138 11 767.91 767.91 767.91 760.5 1038.90	73.9155035836	767.91	760.50	Partly_Cloudy(sunny)	True	False	760.50
2010-07-05 12:00:00 46139 12 819.06 819.06 819.06 817.3 1108.10	73.9155035836	819.06	817.30	Partly_Cloudy(sunny)	True	False	817.30
2010-07-05 13:00:00 46140 13 883.39 883.39 883.39 822.2 1107.70	79.7498640566	883.39	822.20	Sunny(sunny)	True	False	822.20
2010-07-05 14:00:00 46141 14 845.67 845.67 845.67 770.8 1060.40	79.7498640566	845.67	770.80	Sunny(sunny)	True	False	770.80
2010-07-05 15:00:00 46142 15 748.93 748.93 748.93 680.5 939.10	79.7498640566	748.93	680.50	Sunny(sunny)	True	False	680.50
2010-07-05 16:00:00 46143 16 582.26 582.26 582.26 532.1 758.90	76.7244856797	582.26	532.10	Sunny(sunny)	True	False	532.10
2010-07-05 17:00:00 46144 17 382.63 382.63 382.63 341.1 498.70	76.7244856797	382.63	341.10	Sunny(sunny)	True	False	341.10
2010-07-05 18:00:00 46145 18 173.24 173.24 173.24 141.1 225.80	76.7244856797	173.24	141.10	Sunny(sunny)	True	False	141.10
2010-07-05 19:00:00 46146 19 62.45 62.45 62.45 30.4 81.40	76.7244856797	62.45	30.40	Sunny(sunny)	True	False	30.40
2010-07-05 20:00:00 46147 20 5.22 5.22 5.22 2.0 6.80	76.7244856797	5.22	2.00	Sunny(sunny)	True	False	2.00
2010-07-05 21:00:00 46148 21 0.00 0.00 0.00 0.0 0.00	76.7244856797	0.00	0.00	Clear(clear)	True	False	0.00
2010-07-05 22:00:00 46149 22 0.00 0.00 0.00 0.0 0.00	76.7244856797	0.00	0.00	Clear(clear)	True	False	0.00
2010-07-05 23:00:00 46150 23 0.00 0.00 0.00 0.0 0.00	76.7244856797	0.00	0.00	Clear(clear)	True	False	0.00
2010-07-06 00:00:00 46151 0 0.00 0.00 0.00 0.0 0.00	76.7244856797	0.00	0.00	Clear(clear)	True	False	0.00
2010-07-06 01:00:00 46152 1 0.00 0.00 0.00 0.0 0.00	76.7244856797	0.00	0.00	Clear(clear)	True	False	0.00
2010-07-06 02:00:00 46153 2 0.00 0.00 0.00 0.0 0.00	76.7244856797	0.00	0.00	Clear(clear)	True	False	0.00
2010-07-06 03:00:00 46154 3 0.00 0.00 0.00 0.0 0.00	76.7244856797	0.00	0.00	Clear(clear)	True	False	0.00
2010-07-06 04:00:00 46155 4 0.00 0.00 0.00 0.0 0.00	76.7244856797	0.00	0.00	Clear(clear)	True	False	0.00
2010-07-06 05:00:00 46156 5 0.23 0.23 0.23 0.0 0.30	76.7244856797	0.23	0.00	Clear(sunny)	True	False	0.00
2010-07-06 06:00:00 46157 6 59.61 59.61 59.61 27.7 77.70	76.7244856797	59.61	27.70	Sunny(sunny)	True	False	27.70
2010-07-06 07:00:00 46158 7 159.13 159.13 159.13 152.1 207.40	76.7244856797	159.13	152.10	Sunny(sunny)	True	False	152.10
2010-07-06 08:00:00 46159 8 372.80 372.80 372.80 341.2 485.90	76.7244856797	372.80	341.20	Sunny(sunny)	True	False	341.20
2010-07-06 09:00:00 46160 9 570.60 570.60 570.60 522.9 743.70	76.7244856797	570.60	522.90	Sunny(sunny)	True	False	522.90
2010-07-06 10:00:00 46161 10 733.30 733.30 733.30 665.8 919.50	79.7498640566	733.30	665.80	Sunny(sunny)	True	False	665.80
2010-07-06 11:00:00 46162 11 828.52 828.52 828.52 748.1 1038.90	79.7498640566	828.52	748.10	Sunny(sunny)	True	False	748.10
2010-07-06 12:00:00 46163 12 883.71 883.71 883.71 685.8 1108.10	79.7498640566	883.71	685.80	Sunny(sunny)	True	False	685.80
2010-07-06 13:00:00 46164 13 883.39 883.39 883.39 566.1 1107.70	79.7498640566	883.39	566.10	Sunny(sunny)	True	False	566.10
2010-07-06 14:00:00 46165 14 845.67 845.67 845.67 714.4 1060.40	79.7498640566	845.67	714.40	Sunny(sunny)	True	False	714.40
2010-07-06 15:00:00 46166 15 748.93 748.93 748.93 499.2 939.10	79.7498640566	748.93	499.20	Sunny(fair)	True	False	499.20
2010-07-06 16:00:00 46167 16 582.26 582.26 582.26 534.6 758.90	76.7244856797	582.26	534.60	Sunny(sunny)	True	False	534.60
2010-07-06 17:00:00 46168 17 382.63 382.63 382.63 334.5 498.70	76.7244856797	382.63	334.50	Sunny(sunny)	True	False	334.50
2010-07-06 18:00:00 46169 18 173.24 173.24 173.24 141.3 225.80	76.7244856797	173.24	141.30	Sunny(sunny)	True	False	141.30
2010-07-06 19:00:00 46170 19 62.45 62.45 62.45 43.9 81.40	76.7244856797	62.45	43.90	Sunny(sunny)	True	False	43.90
2010-07-06 20:00:00 46171 20 5.22 5.22 5.22 1.8 6.80	76.7244856797	5.22	1.80	Sunny(sunny)	True	False	1.80
2010-07-06 21:00:00 46172 21 0.00 0.00 0.00 0.0 0.00	76.7244856797	0.00	0.00	Clear(clear)	True	False	0.00
2010-07-06 22:00:00 46173 22 0.00 0.00 0.00 0.0 0.00	76.7244856797	0.00	0.00	Clear(fair)	True	False	0.00
2010-07-06 23:00:00 46174 23 0.00 0.00 0.00 0.0 0.00	76.7244856797	0.00	0.00	Clear(fair)	True	False	0.00
2010-07-07 00:00:00 46175 0 0.00 0.00 0.00 0.0 0.00	73.7248504622	0.00	0.00	Partly_Cloudy(fair)	True	False	0.00
