2010-06-28 22:00:00 38973 22 0.00 0.00 0.00 0.0 0.00	72.3352145671	0.00	0.00	Partly_Cloudy(clear)	True	False	0.00
2010-06-28 23:00:00 38974 23 0.00 0.00 0.00 0.0 0.00	63.2590005373	0.00	0.00	Mostly_Cloudy(fair)	True	False	0.00
2010-06-29 00:00:00 38975 0 0.00 0.00 0.00 0.0 0.00	63.2590005373	0.00	0.00	Mostly_Cloudy(partly_cloudy)	True	False	0.00
2010-06-29 01:00:00 38976 1 0.00 0.00 0.00 0.0 0.00	18.516833485	0.00	0.00	Isolated_T-Storms(partly_cloudy)	True	False	0.00
2010-06-29 02:00:00 38977 2 0.00 0.00 0.00 0.0 0.00	18.516833485	0.00	0.00	Isolated_T-Storms(partly_cloudy)	True	False	0.00
2010-06-29 03:00:00 38978 3 0.00 0.00 0.00 0.0 0.00	18.516833485	0.00	0.00	Isolated_T-Storms(mostly_cloudy)	True	False	0.00
2010-06-29 04:00:00 38979 4 0.00 0.00 0.00 0.0 0.00	72.3352145671	0.00	0.00	Partly_Cloudy(cloudy)	True	False	0.00
2010-06-29 05:00:00 38980 5 1.30 1.30 1.30 0.0 1.80	72.3352145671	1.30	0.00	Partly_Cloudy(partly_cloudy)	True	False	0.00
2010-06-29 06:00:00 38981 6 56.20 56.20 56.20 59.2 77.70	72.3352145671	56.20	59.20	Partly_Cloudy(fog)	True	False	59.20
2010-06-29 07:00:00 38982 7 159.35 159.35 159.35 153.9 220.30	72.3352145671	159.35	153.90	Partly_Cloudy(mostly_cloudy)	True	False	153.90
2010-06-29 08:00:00 38983 8 351.48 351.48 351.48 352.8 485.90	72.3352145671	351.48	352.80	Partly_Cloudy(sunny)	True	False	352.80
2010-06-29 09:00:00 38984 9 537.96 537.96 537.96 567.7 743.70	72.3352145671	537.96	567.70	Partly_Cloudy(fair)	True	False	567.70
2010-06-29 10:00:00 38985 10 677.42 677.42 677.42 702.1 929.60	72.8726992387	677.42	702.10	Partly_Cloudy(sunny)	True	False	702.10
2010-06-29 11:00:00 38986 11 756.20 756.20 756.20 548.6 1037.70	72.8726992387	756.20	548.60	Partly_Cloudy(partly_cloudy)	True	False	548.60
2010-06-29 12:00:00 38987 12 800.87 800.87 800.87 812.2 1099.00	72.8726992387	800.87	812.20	Partly_Cloudy(partly_cloudy)	True	False	812.20
2010-06-29 13:00:00 38988 13 807.21 807.21 807.21 709.9 1107.70	72.8726992387	807.21	709.90	Mostly_Sunny(partly_cloudy)	False	False	709.90
2010-06-29 14:00:00 38989 14 772.74 772.74 772.74 524.3 1060.40	72.8726992387	772.74	524.30	Mostly_Sunny(partly_cloudy)	False	False	524.30
2010-06-29 15:00:00 38990 15 684.35 684.35 684.35 402.5 939.10	72.8726992387	684.35	402.50	Mostly_Sunny(partly_cloudy)	False	False	402.50
2010-06-29 16:00:00 38991 16 543.09 543.09 543.09 414.7 744.40	72.9561101549	543.09	414.70	Sunny(partly_cloudy)	True	False	414.70
2010-06-29 17:00:00 38992 17 353.62 353.62 353.62 301.8 484.70	72.9561101549	353.62	301.80	Sunny(partly_cloudy)	True	False	301.80
2010-06-29 18:00:00 38993 18 160.36 160.36 160.36 173.1 219.80	72.9561101549	160.36	173.10	Sunny(partly_cloudy)	True	False	173.10
2010-06-29 19:00:00 38994 19 59.39 59.39 59.39 39.4 81.40	72.9561101549	59.39	39.40	Sunny(fair)	True	False	39.40
2010-06-29 20:00:00 38995 20 4.89 4.89 4.89 7.0 6.70	72.9561101549	4.89	7.00	Sunny(sunny)	True	False	7.00
2010-06-29 21:00:00 38996 21 0.00 0.00 0.00 0.0 0.00	72.9561101549	0.00	0.00	Clear(clear)	True	False	0.00
2010-06-29 22:00:00 38997 22 0.00 0.00 0.00 0.0 0.00	72.9561101549	0.00	0.00	Clear(fair)	True	False	0.00
2010-06-29 23:00:00 38998 23 0.00 0.00 0.00 0.0 0.00	72.9561101549	0.00	0.00	Clear(clear)	True	False	0.00
2010-06-30 00:00:00 38999 0 0.00 0.00 0.00 0.0 0.00	72.9561101549	0.00	0.00	Clear(clear)	True	False	0.00
2010-06-30 01:00:00 39000 1 0.00 0.00 0.00 0.0 0.00	72.9561101549	0.00	0.00	Clear(clear)	True	False	0.00
2010-06-30 02:00:00 39001 2 0.00 0.00 0.00 0.0 0.00	72.9561101549	0.00	0.00	Clear(clear)	True	False	0.00
2010-06-30 03:00:00 39002 3 0.00 0.00 0.00 0.0 0.00	72.9561101549	0.00	0.00	Clear(fair)	True	False	0.00
2010-06-30 04:00:00 39003 4 0.00 0.00 0.00 0.0 0.00	72.9561101549	0.00	0.00	Clear(clear)	True	False	0.00
2010-06-30 05:00:00 39004 5 1.31 1.31 1.31 0.1 1.80	72.9561101549	1.31	0.10	Clear(sunny)	True	False	0.10
2010-06-30 06:00:00 39005 6 56.69 56.69 56.69 33.4 77.70	72.9561101549	56.69	33.40	Sunny(sunny)	True	False	33.40
2010-06-30 07:00:00 39006 7 160.72 160.72 160.72 181.0 220.30	72.9561101549	160.72	181.00	Sunny(sunny)	True	False	181.00
2010-06-30 08:00:00 39007 8 354.49 354.49 354.49 414.9 485.90	72.9561101549	354.49	414.90	Sunny(sunny)	True	False	414.90
2010-06-30 09:00:00 39008 9 542.57 542.57 542.57 617.1 743.70	72.9561101549	542.57	617.10	Sunny(sunny)	True	False	617.10
2010-06-30 10:00:00 39009 10 706.58 706.58 706.58 768.1 929.60	76.0090531875	706.58	768.10	Sunny(sunny)	True	False	768.10
2010-06-30 11:00:00 39010 11 788.75 788.75 788.75 861.7 1037.70	76.0090531875	788.75	861.70	Sunny(sunny)	True	False	861.70
2010-06-30 12:00:00 39011 12 835.34 835.34 835.34 906.5 1099.00	76.0090531875	835.34	906.50	Sunny(sunny)	True	False	906.50
2010-06-30 13:00:00 39012 13 841.95 841.95 841.95 909.6 1107.70	76.0090531875	841.95	909.60	Mostly_Sunny(sunny)	False	False	909.60
2010-06-30 14:00:00 39013 14 806.00 806.00 806.00 870.8 1060.40	76.0090531875	806.00	870.80	Mostly_Sunny(sunny)	False	False	870.80
2010-06-30 15:00:00 39014 15 713.80 713.80 713.80 774.3 939.10	76.0090531875	713.80	774.30	Mostly_Sunny(sunny)	False	False	774.30
2010-06-30 16:00:00 39015 16 565.81 565.81 565.81 611.2 744.40	76.0090531875	565.81	611.20	Mostly_Sunny(sunny)	False	False	611.20
2010-06-30 17:00:00 39016 17 368.42 368.42 368.42 380.9 484.70	76.0090531875	368.42	380.90	Mostly_Sunny(sunny)	False	False	380.90
2010-06-30 18:00:00 39017 18 167.07 167.07 167.07 155.4 219.80	76.0090531875	167.07	155.40	Mostly_Sunny(fair)	False	False	155.40
2010-06-30 19:00:00 39018 19 59.39 59.39 59.39 29.4 81.40	72.9561101549	59.39	29.40	Sunny(fair)	True	False	29.40
2010-06-30 20:00:00 39019 20 4.89 4.89 4.89 2.2 6.70	72.9561101549	4.89	2.20	Sunny(sunny)	True	False	2.20
2010-06-30 21:00:00 39020 21 0.00 0.00 0.00 0.0 0.00	72.9561101549	0.00	0.00	Clear(fair)	True	False	0.00
2010-06-30 22:00:00 39021 22 0.00 0.00 0.00 0.0 0.00	72.9561101549	0.00	0.00	Clear(clear)	True	False	0.00
