2010-07-02 00:00:00 42599 0 0.00 0.00 0.00 0.0 0.00	74.2258734314	0.00	0.00	Clear(clear)	True	False	0.00
2010-07-02 01:00:00 42600 1 0.00 0.00 0.00 0.0 0.00	74.2258734314	0.00	0.00	Clear(clear)	True	False	0.00
2010-07-02 02:00:00 42601 2 0.00 0.00 0.00 0.0 0.00	74.2258734314	0.00	0.00	Clear(clear)	True	False	0.00
2010-07-02 03:00:00 42602 3 0.00 0.00 0.00 0.0 0.00	74.2258734314	0.00	0.00	Clear(clear)	True	False	0.00
2010-07-02 04:00:00 42603 4 0.00 0.00 0.00 0.0 0.00	74.2258734314	0.00	0.00	Clear(clear)	True	False	0.00
2010-07-02 05:00:00 42604 5 1.26 1.26 1.26 0.2 1.70	74.2258734314	1.26	0.20	Clear(sunny)	True	False	0.20
2010-07-02 06:00:00 42605 6 57.67 57.67 57.67 33.8 77.70	74.2258734314	57.67	33.80	Sunny(sunny)	True	False	33.80
2010-07-02 07:00:00 42606 7 163.52 163.52 163.52 174.8 220.30	74.2258734314	163.52	174.80	Sunny(sunny)	True	False	174.80
2010-07-02 08:00:00 42607 8 360.66 360.66 360.66 402.7 485.90	74.2258734314	360.66	402.70	Sunny(sunny)	True	False	402.70
2010-07-02 09:00:00 42608 9 552.02 552.02 552.02 601.8 743.70	74.2258734314	552.02	601.80	Sunny(sunny)	True	False	601.80
2010-07-02 10:00:00 42609 10 716.52 716.52 716.52 709.2 929.60	77.0786313984	716.52	709.20	Sunny(sunny)	True	False	709.20
2010-07-02 11:00:00 42610 11 799.84 799.84 799.84 475.6 1037.70	77.0786313984	799.84	475.60	Sunny(sunny)	True	False	475.60
2010-07-02 12:00:00 42611 12 854.11 854.11 854.11 570.8 1108.10	77.0786313984	854.11	570.80	Sunny(fair)	True	False	570.80
2010-07-02 13:00:00 42612 13 853.80 853.80 853.80 785.8 1107.70	77.0786313984	853.80	785.80	Sunny(fair)	True	False	785.80
2010-07-02 14:00:00 42613 14 817.34 817.34 817.34 716.5 1060.40	77.0786313984	817.34	716.50	Sunny(mostly_cloudy)	True	False	716.50
2010-07-02 15:00:00 42614 15 723.85 723.85 723.85 791.5 939.10	77.0786313984	723.85	791.50	Sunny(mostly_cloudy)	True	False	791.50
2010-07-02 16:00:00 42615 16 552.54 552.54 552.54 510.9 744.40	74.2258734314	552.54	510.90	Sunny(partly_cloudy)	True	False	510.90
2010-07-02 17:00:00 42616 17 359.77 359.77 359.77 407.2 484.70	74.2258734314	359.77	407.20	Sunny(partly_cloudy)	True	False	407.20
2010-07-02 18:00:00 42617 18 167.60 167.60 167.60 159.1 225.80	74.2258734314	167.60	159.10	Sunny(sunny)	True	False	159.10
2010-07-02 19:00:00 42618 19 60.42 60.42 60.42 34.5 81.40	74.2258734314	60.42	34.50	Sunny(sunny)	True	False	34.50
2010-07-02 20:00:00 42619 20 5.05 5.05 5.05 1.9 6.80	74.2258734314	5.05	1.90	Sunny(sunny)	True	False	1.90
2010-07-02 21:00:00 42620 21 0.00 0.00 0.00 0.0 0.00	74.2258734314	0.00	0.00	Clear(clear)	True	False	0.00
2010-07-02 22:00:00 42621 22 0.00 0.00 0.00 0.0 0.00	74.2258734314	0.00	0.00	Clear(clear)	True	False	0.00
2010-07-02 23:00:00 42622 23 0.00 0.00 0.00 0.0 0.00	74.2258734314	0.00	0.00	Clear(clear)	True	False	0.00
2010-07-03 00:00:00 42623 0 0.00 0.00 0.00 0.0 0.00	74.2258734314	0.00	0.00	Clear(clear)	True	False	0.00
2010-07-03 01:00:00 42624 1 0.00 0.00 0.00 0.0 0.00	72.3352145671	0.00	0.00	Partly_Cloudy(clear)	True	False	0.00
2010-07-03 02:00:00 42625 2 0.00 0.00 0.00 0.0 0.00	72.3352145671	0.00	0.00	Partly_Cloudy(clear)	True	False	0.00
2010-07-03 03:00:00 42626 3 0.00 0.00 0.00 0.0 0.00	72.3352145671	0.00	0.00	Partly_Cloudy(clear)	True	False	0.00
2010-07-03 04:00:00 42627 4 0.00 0.00 0.00 0.0 0.00	74.2258734314	0.00	0.00	Clear(clear)	True	False	0.00
2010-07-03 05:00:00 42628 5 1.26 1.26 1.26 0.0 1.70	74.2258734314	1.26	0.00	Clear(sunny)	True	False	0.00
2010-07-03 06:00:00 42629 6 57.67 57.67 57.67 36.9 77.70	74.2258734314	57.67	36.90	Sunny(sunny)	True	False	36.90
2010-07-03 07:00:00 42630 7 163.52 163.52 163.52 190.1 220.30	74.2258734314	163.52	190.10	Sunny(sunny)	True	False	190.10
2010-07-03 08:00:00 42631 8 360.66 360.66 360.66 385.4 485.90	74.2258734314	360.66	385.40	Sunny(sunny)	True	False	385.40
2010-07-03 09:00:00 42632 9 552.02 552.02 552.02 585.9 743.70	74.2258734314	552.02	585.90	Sunny(sunny)	True	False	585.90
2010-07-03 10:00:00 42633 10 677.42 677.42 677.42 735.8 929.60	72.8726992387	677.42	735.80	Partly_Cloudy(sunny)	True	False	735.80
2010-07-03 11:00:00 42634 11 756.20 756.20 756.20 823.1 1037.70	72.8726992387	756.20	823.10	Partly_Cloudy(sunny)	True	False	823.10
2010-07-03 12:00:00 42635 12 807.50 807.50 807.50 857.9 1108.10	72.8726992387	807.50	857.90	Partly_Cloudy(sunny)	True	False	857.90
2010-07-03 13:00:00 42636 13 807.21 807.21 807.21 853.4 1107.70	72.8726992387	807.21	853.40	Partly_Cloudy(sunny)	True	False	853.40
2010-07-03 14:00:00 42637 14 772.74 772.74 772.74 806.0 1060.40	72.8726992387	772.74	806.00	Partly_Cloudy(sunny)	True	False	806.00
2010-07-03 15:00:00 42638 15 684.35 684.35 684.35 711.3 939.10	72.8726992387	684.35	711.30	Partly_Cloudy(sunny)	True	False	711.30
2010-07-03 16:00:00 42639 16 538.46 538.46 538.46 563.3 744.40	72.3352145671	538.46	563.30	Partly_Cloudy(sunny)	True	False	563.30
2010-07-03 17:00:00 42640 17 350.61 350.61 350.61 349.9 484.70	72.3352145671	350.61	349.90	Partly_Cloudy(sunny)	True	False	349.90
2010-07-03 18:00:00 42641 18 163.33 163.33 163.33 142.1 225.80	72.3352145671	163.33	142.10	Partly_Cloudy(sunny)	True	False	142.10
2010-07-03 19:00:00 42642 19 58.88 58.88 58.88 23.9 81.40	72.3352145671	58.88	23.90	Mostly_Sunny(sunny)	False	False	23.90
2010-07-03 20:00:00 42643 20 4.92 4.92 4.92 1.7 6.80	72.3352145671	4.92	1.70	Mostly_Sunny(sunny)	False	False	1.70
2010-07-03 21:00:00 42644 21 0.00 0.00 0.00 0.0 0.00	72.3352145671	0.00	0.00	Mostly_Clear(clear)	False	False	0.00
2010-07-03 22:00:00 42645 22 0.00 0.00 0.00 0.0 0.00	74.2258734314	0.00	0.00	Clear(clear)	True	False	0.00
2010-07-03 23:00:00 42646 23 0.00 0.00 0.00 0.0 0.00	74.2258734314	0.00	0.00	Clear(clear)	True	False	0.00
2010-07-04 00:00:00 42647 0 0.00 0.00 0.00 0.0 0.00	74.2258734314	0.00	0.00	Clear(clear)	True	False	0.00
