2010-06-14 21:00:00 22460 21 0.00 0.00 0.00 0.0 0.00	42.3436041083	0.00	0.00	Cloudy(clear)	True	False	0.00
2010-06-14 22:00:00 22461 22 0.00 0.00 0.00 0.0 0.00	42.3436041083	0.00	0.00	Cloudy(clear)	True	False	0.00
2010-06-14 23:00:00 22462 23 0.00 0.00 0.00 0.0 0.00	42.3436041083	0.00	0.00	Cloudy(clear)	True	False	0.00
2010-06-15 00:00:00 22463 0 0.00 0.00 0.00 0.0 0.00	42.3436041083	0.00	0.00	Cloudy(clear)	True	False	0.00
2010-06-15 01:00:00 22464 1 0.00 0.00 0.00 0.0 0.00	72.92383821	0.00	0.00	Partly_Cloudy(clear)	True	False	0.00
2010-06-15 02:00:00 22465 2 0.00 0.00 0.00 0.0 0.00	72.92383821	0.00	0.00	Partly_Cloudy(fair)	True	False	0.00
2010-06-15 03:00:00 22466 3 0.00 0.00 0.00 0.0 0.00	72.92383821	0.00	0.00	Partly_Cloudy(clear)	True	False	0.00
2010-06-15 04:00:00 22467 4 0.00 0.00 0.00 0.0 0.00	72.92383821	0.00	0.00	Partly_Cloudy(clear)	True	False	0.00
2010-06-15 05:00:00 22468 5 1.31 1.31 1.31 0.0 1.80	72.92383821	1.31	0.00	Partly_Cloudy(fair)	True	False	0.00
2010-06-15 06:00:00 22469 6 53.60 53.60 53.60 45.9 73.50	72.92383821	53.60	45.90	Partly_Cloudy(partly_cloudy)	True	False	45.90
2010-06-15 07:00:00 22470 7 181.22 181.22 181.22 225.9 248.50	72.92383821	181.22	225.90	Partly_Cloudy(sunny)	True	False	225.90
2010-06-15 08:00:00 22471 8 387.81 387.81 387.81 505.2 531.80	72.92383821	387.81	505.20	Partly_Cloudy(fair)	True	False	505.20
2010-06-15 09:00:00 22472 9 525.12 525.12 525.12 755.8 720.10	72.92383821	525.12	755.80	Partly_Cloudy(sunny)	True	False	755.80
2010-06-15 10:00:00 22473 10 710.75 710.75 710.75 935.8 929.60	76.4572722128	710.75	935.80	Partly_Cloudy(sunny)	True	False	935.80
2010-06-15 11:00:00 22474 11 804.18 804.18 804.18 1041.9 1051.80	76.4572722128	804.18	1041.90	Partly_Cloudy(sunny)	True	False	1041.90
2010-06-15 12:00:00 22475 12 836.60 836.60 836.60 1082.1 1094.20	76.4572722128	836.60	1082.10	Partly_Cloudy(sunny)	True	False	1082.10
2010-06-15 13:00:00 22476 13 847.33 847.33 847.33 1084.8 1079.90	78.4638554217	847.33	1084.80	Sunny(sunny)	True	False	1084.80
2010-06-15 14:00:00 22477 14 794.68 794.68 794.68 1016.8 1012.80	78.4638554217	794.68	1016.80	Sunny(sunny)	True	False	1016.80
2010-06-15 15:00:00 22478 15 693.23 693.23 693.23 895.8 883.50	78.4638554217	693.23	895.80	Sunny(sunny)	True	False	895.80
2010-06-15 16:00:00 22479 16 543.65 543.65 543.65 710.0 716.10	75.9184792542	543.65	710.00	Sunny(fair)	True	False	710.00
2010-06-15 17:00:00 22480 17 323.72 323.72 323.72 448.1 426.40	75.9184792542	323.72	448.10	Sunny(sunny)	True	False	448.10
2010-06-15 18:00:00 22481 18 162.62 162.62 162.62 184.4 214.20	75.9184792542	162.62	184.40	Sunny(sunny)	True	False	184.40
2010-06-15 19:00:00 22482 19 40.54 40.54 40.54 44.0 53.40	75.9184792542	40.54	44.00	Mostly_Sunny(sunny)	False	False	44.00
2010-06-15 20:00:00 22483 20 2.66 2.66 2.66 1.9 3.50	75.9184792542	2.66	1.90	Mostly_Sunny(sunny)	False	False	1.90
2010-06-15 21:00:00 22484 21 0.00 0.00 0.00 0.0 0.00	75.9184792542	0.00	0.00	Mostly_Clear(clear)	False	False	0.00
2010-06-15 22:00:00 22485 22 0.00 0.00 0.00 0.0 0.00	72.92383821	0.00	0.00	Partly_Cloudy(clear)	True	False	0.00
2010-06-15 23:00:00 22486 23 0.00 0.00 0.00 0.0 0.00	72.92383821	0.00	0.00	Partly_Cloudy(clear)	True	False	0.00
2010-06-16 00:00:00 22487 0 0.00 0.00 0.00 0.0 0.00	72.92383821	0.00	0.00	Partly_Cloudy(clear)	True	False	0.00
2010-06-16 01:00:00 22488 1 0.00 0.00 0.00 0.0 0.00	62.6961770624	0.00	0.00	Mostly_Cloudy(clear)	True	False	0.00
2010-06-16 02:00:00 22489 2 0.00 0.00 0.00 0.0 0.00	62.6961770624	0.00	0.00	Mostly_Cloudy(clear)	True	False	0.00
2010-06-16 03:00:00 22490 3 0.00 0.00 0.00 0.0 0.00	62.6961770624	0.00	0.00	Mostly_Cloudy(mostly_cloudy)	True	False	0.00
2010-06-16 04:00:00 22491 4 0.00 0.00 0.00 0.0 0.00	42.3436041083	0.00	0.00	Cloudy(cloudy)	True	False	0.00
2010-06-16 05:00:00 22492 5 0.76 0.76 0.76 0.0 1.80	42.3436041083	0.76	0.00	Cloudy(cloudy)	True	False	0.00
2010-06-16 06:00:00 22493 6 31.12 31.12 31.12 25.3 73.50	42.3436041083	31.12	25.30	Cloudy(cloudy)	True	False	25.30
2010-06-16 07:00:00 22494 7 105.22 105.22 105.22 131.9 248.50	42.3436041083	105.22	131.90	Cloudy(cloudy)	True	False	131.90
2010-06-16 08:00:00 22495 8 225.18 225.18 225.18 127.3 531.80	42.3436041083	225.18	127.30	Cloudy(cloudy)	True	False	127.30
2010-06-16 09:00:00 22496 9 304.92 304.92 304.92 265.3 720.10	42.3436041083	304.92	265.30	Cloudy(cloudy)	True	False	265.30
2010-06-16 10:00:00 22497 10 117.33 117.33 117.33 186.9 929.60	12.6215390314	117.33	186.90	Few_Showers(cloudy)	True	False	186.90
2010-06-16 11:00:00 22498 11 132.75 132.75 132.75 369.6 1051.80	12.6215390314	132.75	369.60	Few_Showers(cloudy)	True	False	369.60
2010-06-16 12:00:00 22499 12 138.10 138.10 138.10 361.7 1094.20	12.6215390314	138.10	361.70	Few_Showers(cloudy)	True	False	361.70
2010-06-16 13:00:00 22500 13 137.80 137.80 137.80 746.4 1079.90	12.7604407816	137.80	746.40	Showers(cloudy)	True	False	746.40
2010-06-16 14:00:00 22501 14 129.24 129.24 129.24 522.7 1012.80	12.7604407816	129.24	522.70	Showers(cloudy)	True	False	522.70
2010-06-16 15:00:00 22502 15 112.74 112.74 112.74 667.9 883.50	12.7604407816	112.74	667.90	Showers(cloudy)	True	False	667.90
2010-06-16 16:00:00 22503 16 101.76 101.76 101.76 486.1 716.10	14.2104130809	101.76	486.10	Showers(partly_cloudy)	True	False	486.10
2010-06-16 17:00:00 22504 17 60.59 60.59 60.59 211.4 426.40	14.2104130809	60.59	211.40	Showers(cloudy)	True	False	211.40
2010-06-16 18:00:00 22505 18 30.44 30.44 30.44 51.7 214.20	14.2104130809	30.44	51.70	Showers(cloudy)	True	False	51.70
2010-06-16 19:00:00 22506 19 22.61 22.61 22.61 7.8 53.40	42.3436041083	22.61	7.80	Cloudy(cloudy)	True	False	7.80
2010-06-16 20:00:00 22507 20 1.48 1.48 1.48 0.0 3.50	42.3436041083	1.48	0.00	Cloudy(cloudy)	True	False	0.00
2010-06-16 21:00:00 22508 21 0.00 0.00 0.00 0.0 0.00	42.3436041083	0.00	0.00	Cloudy(cloudy)	True	False	0.00
