2010-06-18 23:00:00 27262 23 0.00 0.00 0.00 0.0 0.00	73.2471933912	0.00	0.00	Clear(clear)	True	False	0.00
2010-06-19 00:00:00 27263 0 0.00 0.00 0.00 0.0 0.00	73.2471933912	0.00	0.00	Clear(clear)	True	False	0.00
2010-06-19 01:00:00 27264 1 0.00 0.00 0.00 0.0 0.00	73.2471933912	0.00	0.00	Clear(clear)	True	False	0.00
2010-06-19 02:00:00 27265 2 0.00 0.00 0.00 0.0 0.00	73.2471933912	0.00	0.00	Clear(clear)	True	False	0.00
2010-06-19 03:00:00 27266 3 0.00 0.00 0.00 0.0 0.00	73.2471933912	0.00	0.00	Clear(clear)	True	False	0.00
2010-06-19 04:00:00 27267 4 0.00 0.00 0.00 0.0 0.00	73.2471933912	0.00	0.00	Clear(clear)	True	False	0.00
2010-06-19 05:00:00 27268 5 1.32 1.32 1.32 0.4 1.80	73.2471933912	1.32	0.40	Clear(sunny)	True	False	0.40
2010-06-19 06:00:00 27269 6 53.84 53.84 53.84 42.0 73.50	73.2471933912	53.84	42.00	Sunny(sunny)	True	False	42.00
2010-06-19 07:00:00 27270 7 161.36 161.36 161.36 190.6 220.30	73.2471933912	161.36	190.60	Sunny(sunny)	True	False	190.60
2010-06-19 08:00:00 27271 8 329.10 329.10 329.10 405.1 449.30	73.2471933912	329.10	405.10	Sunny(sunny)	True	False	405.10
2010-06-19 09:00:00 27272 9 505.41 505.41 505.41 577.3 690.00	73.2471933912	505.41	577.30	Sunny(sunny)	True	False	577.30
2010-06-19 10:00:00 27273 10 717.50 717.50 717.50 724.8 929.60	77.1837349398	717.50	724.80	Sunny(sunny)	True	False	724.80
2010-06-19 11:00:00 27274 11 728.77 728.77 728.77 816.1 944.20	77.1837349398	728.77	816.10	Sunny(sunny)	True	False	816.10
2010-06-19 12:00:00 27275 12 724.60 724.60 724.60 686.9 938.80	77.1837349398	724.60	686.90	Sunny(fair)	True	False	686.90
2010-06-19 13:00:00 27276 13 803.33 803.33 803.33 778.8 1040.80	77.1837349398	803.33	778.80	Sunny(fair)	True	False	778.80
2010-06-19 14:00:00 27277 14 728.92 728.92 728.92 695.9 944.40	77.1837349398	728.92	695.90	Sunny(partly_cloudy)	True	False	695.90
2010-06-19 15:00:00 27278 15 617.70 617.70 617.70 668.2 800.30	77.1837349398	617.70	668.20	Sunny(partly_cloudy)	True	False	668.20
2010-06-19 16:00:00 27279 16 552.71 552.71 552.71 397.4 716.10	77.1837349398	552.71	397.40	Mostly_Sunny(partly_cloudy)	False	False	397.40
2010-06-19 17:00:00 27280 17 372.57 372.57 372.57 298.5 482.70	77.1837349398	372.57	298.50	Mostly_Sunny(fair)	False	False	298.50
2010-06-19 18:00:00 27281 18 165.33 165.33 165.33 131.3 214.20	77.1837349398	165.33	131.30	Mostly_Sunny(partly_cloudy)	False	False	131.30
2010-06-19 19:00:00 27282 19 51.80 51.80 51.80 37.5 69.00	75.0724637681	51.80	37.50	Partly_Cloudy(sunny)	True	False	37.50
2010-06-19 20:00:00 27283 20 5.03 5.03 5.03 1.5 6.70	75.0724637681	5.03	1.50	Partly_Cloudy(sunny)	True	False	1.50
2010-06-19 21:00:00 27284 21 0.00 0.00 0.00 0.0 0.00	75.0724637681	0.00	0.00	Partly_Cloudy(clear)	True	False	0.00
2010-06-19 22:00:00 27285 22 0.00 0.00 0.00 0.0 0.00	75.0724637681	0.00	0.00	Partly_Cloudy(clear)	True	False	0.00
2010-06-19 23:00:00 27286 23 0.00 0.00 0.00 0.0 0.00	75.0724637681	0.00	0.00	Partly_Cloudy(clear)	True	False	0.00
2010-06-20 00:00:00 27287 0 0.00 0.00 0.00 0.0 0.00	75.0724637681	0.00	0.00	Partly_Cloudy(fair)	True	False	0.00
2010-06-20 01:00:00 27288 1 0.00 0.00 0.00 0.0 0.00	14.0947144821	0.00	0.00	Isolated_T-Storms(fair)	True	False	0.00
2010-06-20 02:00:00 27289 2 0.00 0.00 0.00 0.0 0.00	14.0947144821	0.00	0.00	Isolated_T-Storms(partly_cloudy)	True	False	0.00
2010-06-20 03:00:00 27290 3 0.00 0.00 0.00 0.0 0.00	14.0947144821	0.00	0.00	Isolated_T-Storms(fair)	True	False	0.00
2010-06-20 04:00:00 27291 4 0.00 0.00 0.00 0.0 0.00	14.0947144821	0.00	0.00	Few_Showers(fair)	True	False	0.00
2010-06-20 05:00:00 27292 5 0.25 0.25 0.25 0.0 1.80	14.0947144821	0.25	0.00	Few_Showers(partly_cloudy)	True	False	0.00
2010-06-20 06:00:00 27293 6 10.36 10.36 10.36 45.9 73.50	14.0947144821	10.36	45.90	Few_Showers(mostly_cloudy)	True	False	45.90
2010-06-20 07:00:00 27294 7 31.05 31.05 31.05 151.9 220.30	14.0947144821	31.05	151.90	Mostly_Sunny(mostly_cloudy)	False	False	151.90
2010-06-20 08:00:00 27295 8 63.33 63.33 63.33 226.3 449.30	14.0947144821	63.33	226.30	Mostly_Sunny(partly_cloudy)	False	False	226.30
2010-06-20 09:00:00 27296 9 97.25 97.25 97.25 305.8 690.00	14.0947144821	97.25	305.80	Mostly_Sunny(partly_cloudy)	False	False	305.80
2010-06-20 10:00:00 27297 10 771.52 771.52 771.52 514.9 929.60	82.9944938585	771.52	514.90	Partly_Cloudy(partly_cloudy)	True	False	514.90
2010-06-20 11:00:00 27298 11 783.63 783.63 783.63 779.1 944.20	82.9944938585	783.63	779.10	Partly_Cloudy(fair)	True	False	779.10
2010-06-20 12:00:00 27299 12 779.15 779.15 779.15 597.1 938.80	82.9944938585	779.15	597.10	Partly_Cloudy(fair)	True	False	597.10
2010-06-20 13:00:00 27300 13 863.81 863.81 863.81 738.0 1040.80	82.9944938585	863.81	738.00	Mostly_Sunny(sunny)	False	False	738.00
2010-06-20 14:00:00 27301 14 783.80 783.80 783.80 724.7 944.40	82.9944938585	783.80	724.70	Mostly_Sunny(fair)	False	False	724.70
2010-06-20 15:00:00 27302 15 664.20 664.20 664.20 576.1 800.30	82.9944938585	664.20	576.10	Mostly_Sunny(partly_cloudy)	False	False	576.10
2010-06-20 16:00:00 27303 16 100.93 100.93 100.93 540.6 716.10	14.0947144821	100.93	540.60	Isolated_T-Storms(fair)	True	False	540.60
2010-06-20 17:00:00 27304 17 68.04 68.04 68.04 353.0 482.70	14.0947144821	68.04	353.00	Isolated_T-Storms(fair)	True	False	353.00
2010-06-20 18:00:00 27305 18 30.19 30.19 30.19 142.6 214.20	14.0947144821	30.19	142.60	Isolated_T-Storms(sunny)	True	False	142.60
2010-06-20 19:00:00 27306 19 51.80 51.80 51.80 37.0 69.00	75.0724637681	51.80	37.00	Partly_Cloudy(sunny)	True	False	37.00
2010-06-20 20:00:00 27307 20 5.03 5.03 5.03 2.8 6.70	75.0724637681	5.03	2.80	Partly_Cloudy(sunny)	True	False	2.80
2010-06-20 21:00:00 27308 21 0.00 0.00 0.00 0.0 0.00	75.0724637681	0.00	0.00	Partly_Cloudy(clear)	True	False	0.00
2010-06-20 22:00:00 27309 22 0.00 0.00 0.00 0.0 0.00	73.2471933912	0.00	0.00	Clear(clear)	True	False	0.00
2010-06-20 23:00:00 27310 23 0.00 0.00 0.00 0.0 0.00	73.2471933912	0.00	0.00	Clear(clear)	True	False	0.00
