2010-07-23 10:00:00 67785 10 849.85 849.85 534.41 186.0 919.50	58.1195775179	534.41	186.00	Mostly_Cloudy(mostly_cloudy)	True	False	186.00
2010-07-23 11:00:00 67786 11 210.15 210.15 772.90 220.9 1038.90	74.3959957648	772.90	220.90	Partly_Cloudy(mostly_cloudy)	True	False	220.90
2010-07-23 12:00:00 67787 12 644.02 224.15 644.02 462.6 1108.10	58.1195775179	644.02	462.60	Mostly_Cloudy(light_rain)	True	False	462.60
2010-07-23 13:00:00 67788 13 643.79 224.07 643.79 463.5 1107.70	58.1195775179	643.79	463.50	Mostly_Cloudy(mostly_cloudy)	True	False	463.50
2010-07-23 14:00:00 67789 14 616.30 214.50 616.30 463.5 1060.40	58.1195775179	616.30	463.50	Mostly_Cloudy(mostly_cloudy)	True	False	463.50
2010-07-23 15:00:00 67790 15 545.80 189.96 545.80 479.4 939.10	58.1195775179	545.80	479.40	Mostly_Cloudy(mostly_cloudy)	True	False	479.40
2010-07-23 16:00:00 67791 16 185.39 153.51 185.39 418.7 758.90	24.4288948343	185.39	418.70	Scattered_T-Storms(partly_cloudy)	True	False	418.70
2010-07-23 17:00:00 67792 17 121.83 100.88 121.83 281.9 498.70	24.4288948343	121.83	281.90	Scattered_T-Storms(sunny)	True	False	281.90
2010-07-23 18:00:00 67793 18 55.55 46.00 55.55 134.0 227.40	24.4288948343	55.55	134.00	Scattered_T-Storms(sunny)	True	False	134.00
2010-07-23 19:00:00 67794 19 18.03 14.93 18.03 30.4 73.80	24.4288948343	18.03	30.40	Scattered_T-Storms(sunny)	True	False	30.40
2010-07-23 20:00:00 67795 20 1.66 1.38 1.66 0.0 6.80	24.4288948343	1.66	0.00	Scattered_T-Storms(partly_cloudy)	True	False	0.00
2010-07-23 21:00:00 67796 21 0.00 0.00 0.00 0.0 0.00	24.4288948343	0.00	0.00	Scattered_T-Storms(partly_cloudy)	True	False	0.00
2010-07-23 22:00:00 67797 22 0.00 0.00 0.00 0.0 0.00	24.4288948343	0.00	0.00	Scattered_T-Storms(clear)	True	False	0.00
2010-07-23 23:00:00 67798 23 0.00 0.00 0.00 0.0 0.00	24.4288948343	0.00	0.00	Scattered_T-Storms(clear)	True	False	0.00
2010-07-24 00:00:00 67799 0 0.00 0.00 0.00 0.0 0.00	24.4288948343	0.00	0.00	Scattered_T-Storms(light_rain)	True	False	0.00
2010-07-24 01:00:00 67800 1 0.00 0.00 0.00 0.0 0.00	24.4288948343	0.00	0.00	Scattered_T-Storms(partly_cloudy)	True	False	0.00
2010-07-24 02:00:00 67801 2 0.00 0.00 0.00 0.0 0.00	24.4288948343	0.00	0.00	Scattered_T-Storms(clear)	True	False	0.00
2010-07-24 03:00:00 67802 3 0.00 0.00 0.00 0.0 0.00	24.4288948343	0.00	0.00	Scattered_T-Storms(clear)	True	False	0.00
2010-07-24 04:00:00 67803 4 0.00 0.00 0.00 0.0 0.00	24.4288948343	0.00	0.00	Few_Showers(mostly_cloudy)	True	False	0.00
2010-07-24 05:00:00 67804 5 0.00 0.00 0.00 0.0 0.00	24.4288948343	0.00	0.00	Few_Showers(partly_cloudy)	True	False	0.00
2010-07-24 06:00:00 67805 6 18.98 18.98 18.98 26.0 77.70	24.4288948343	18.98	26.00	Few_Showers(fog)	True	False	26.00
2010-07-24 07:00:00 67806 7 152.04 152.04 152.04 139.7 207.40	73.3069481091	152.04	139.70	Partly_Cloudy(partly_cloudy)	True	False	139.70
2010-07-24 08:00:00 67807 8 356.20 356.20 356.20 408.6 485.90	73.3069481091	356.20	408.60	Partly_Cloudy(partly_cloudy)	True	False	408.60
2010-07-24 09:00:00 67808 9 546.21 546.21 546.21 663.9 745.10	73.3069481091	546.21	663.90	Partly_Cloudy(fair)	True	False	663.90
2010-07-24 10:00:00 67809 10 684.07 684.07 684.07 848.0 919.50	74.3959957648	684.07	848.00	Partly_Cloudy(fair)	True	False	848.00
2010-07-24 11:00:00 67810 11 772.90 772.90 772.90 980.3 1038.90	74.3959957648	772.90	980.30	Partly_Cloudy(fair)	True	False	980.30
2010-07-24 12:00:00 67811 12 824.38 824.38 824.38 877.6 1108.10	74.3959957648	824.38	877.60	Partly_Cloudy(sunny)	True	False	877.60
2010-07-24 13:00:00 67812 13 824.08 824.08 824.08 893.3 1107.70	74.3959957648	824.08	893.30	Partly_Cloudy(sunny)	True	False	893.30
2010-07-24 14:00:00 67813 14 788.90 788.90 788.90 940.8 1060.40	74.3959957648	788.90	940.80	Partly_Cloudy(fair)	True	False	940.80
2010-07-24 15:00:00 67814 15 698.65 698.65 698.65 800.4 939.10	74.3959957648	698.65	800.40	Partly_Cloudy(sunny)	True	False	800.40
2010-07-24 16:00:00 67815 16 556.33 556.33 556.33 609.8 758.90	73.3069481091	556.33	609.80	Partly_Cloudy(sunny)	True	False	609.80
2010-07-24 17:00:00 67816 17 365.58 365.58 365.58 401.9 498.70	73.3069481091	365.58	401.90	Partly_Cloudy(sunny)	True	False	401.90
2010-07-24 18:00:00 67817 18 166.70 166.70 166.70 163.6 227.40	73.3069481091	166.70	163.60	Partly_Cloudy(partly_cloudy)	True	False	163.60
2010-07-24 19:00:00 67818 19 54.10 54.10 54.10 29.6 73.80	73.3069481091	54.10	29.60	Partly_Cloudy(fair)	True	False	29.60
2010-07-24 20:00:00 67819 20 4.98 4.98 4.98 0.0 6.80	73.3069481091	4.98	0.00	Partly_Cloudy(sunny)	True	False	0.00
2010-07-24 21:00:00 67820 21 0.00 0.00 0.00 0.0 0.00	73.3069481091	0.00	0.00	Partly_Cloudy(clear)	True	False	0.00
2010-07-24 22:00:00 67821 22 0.00 0.00 0.00 0.0 0.00	73.3069481091	0.00	0.00	Partly_Cloudy(clear)	True	False	0.00
2010-07-24 23:00:00 67822 23 0.00 0.00 0.00 0.0 0.00	73.3069481091	0.00	0.00	Partly_Cloudy(clear)	True	False	0.00
2010-07-25 00:00:00 67823 0 0.00 0.00 0.00 0.0 0.00	73.3069481091	0.00	0.00	Partly_Cloudy(fair)	True	False	0.00
2010-07-25 01:00:00 67824 1 0.00 0.00 0.00 0.0 0.00	73.3069481091	0.00	0.00	Partly_Cloudy(fair)	True	False	0.00
2010-07-25 02:00:00 67825 2 0.00 0.00 0.00 0.0 0.00	73.3069481091	0.00	0.00	Partly_Cloudy(clear)	True	False	0.00
2010-07-25 03:00:00 67826 3 0.00 0.00 0.00 0.0 0.00	73.3069481091	0.00	0.00	Partly_Cloudy(mostly_cloudy)	True	False	0.00
2010-07-25 04:00:00 67827 4 0.00 0.00 0.00 0.0 0.00	73.3069481091	0.00	0.00	Partly_Cloudy(clear)	True	False	0.00
2010-07-25 05:00:00 67828 5 0.00 0.00 0.00 0.0 0.00	73.3069481091	0.00	0.00	Partly_Cloudy(clear)	True	False	0.00
2010-07-25 06:00:00 67829 6 56.96 56.96 56.96 14.1 77.70	73.3069481091	56.96	14.10	Partly_Cloudy(sunny)	True	False	14.10
2010-07-25 07:00:00 67830 7 180.59 180.59 180.59 151.5 207.40	87.0712401055	180.59	151.50	Sunny(sunny)	True	False	151.50
2010-07-25 08:00:00 67831 8 423.08 423.08 423.08 418.2 485.90	87.0712401055	423.08	418.20	Sunny(sunny)	True	False	418.20
2010-07-25 09:00:00 67832 9 648.77 648.77 648.77 644.7 745.10	87.0712401055	648.77	644.70	Sunny(sunny)	True	False	644.70
2010-07-25 10:00:00 67833 10 849.85 849.85 849.85 778.0 919.50	92.4257470434	849.85	778.00	Sunny(partly_cloudy)	True	False	778.00
