2010-06-17 05:00:00 25204 5 1.35 1.35 1.35 0.0 1.80	75.050077899	1.35	0.00	Clear(sunny)	True	False	0.00
2010-06-17 06:00:00 25205 6 55.55 55.55 55.55 39.7 73.50	75.5760368664	55.55	39.70	Partly_Cloudy(sunny)	True	False	39.70
2010-06-17 07:00:00 25206 7 166.49 166.49 166.49 225.9 220.30	75.5760368664	166.49	225.90	Partly_Cloudy(sunny)	True	False	225.90
2010-06-17 08:00:00 25207 8 339.56 339.56 339.56 504.2 449.30	75.5760368664	339.56	504.20	Partly_Cloudy(sunny)	True	False	504.20
2010-06-17 09:00:00 25208 9 521.47 521.47 521.47 563.6 690.00	75.5760368664	521.47	563.60	Partly_Cloudy(partly_cloudy)	True	False	563.60
2010-06-17 10:00:00 25209 10 784.64 784.64 784.64 880.7 929.60	84.4058478071	784.64	880.70	Partly_Cloudy(partly_cloudy)	True	False	880.70
2010-06-17 11:00:00 25210 11 796.96 796.96 796.96 961.2 944.20	84.4058478071	796.96	961.20	Partly_Cloudy(partly_cloudy)	True	False	961.20
2010-06-17 12:00:00 25211 12 792.40 792.40 792.40 1024.1 938.80	84.4058478071	792.40	1024.10	Partly_Cloudy(cloudy)	True	False	1024.10
2010-06-17 13:00:00 25212 13 878.50 878.50 878.50 689.0 1040.80	84.4058478071	878.50	689.00	Partly_Cloudy(fair)	True	False	689.00
2010-06-17 14:00:00 25213 14 777.04 777.04 777.04 672.7 920.60	84.4058478071	777.04	672.70	Partly_Cloudy(mostly_cloudy)	True	False	672.70
2010-06-17 15:00:00 25214 15 675.50 675.50 675.50 652.4 800.30	84.4058478071	675.50	652.40	Partly_Cloudy(cloudy)	True	False	652.40
2010-06-17 16:00:00 25215 16 604.43 604.43 604.43 334.4 716.10	84.4058478071	604.43	334.40	Mostly_Sunny(cloudy)	False	False	334.40
2010-06-17 17:00:00 25216 17 407.43 407.43 407.43 294.3 482.70	84.4058478071	407.43	294.30	Mostly_Sunny(cloudy)	False	False	294.30
2010-06-17 18:00:00 25217 18 180.80 180.80 180.80 91.8 214.20	84.4058478071	180.80	91.80	Mostly_Sunny(cloudy)	False	False	91.80
2010-06-17 19:00:00 25218 19 51.78 51.78 51.78 20.6 69.00	75.050077899	51.78	20.60	Sunny(cloudy)	True	False	20.60
2010-06-17 20:00:00 25219 20 5.03 5.03 5.03 1.6 6.70	75.050077899	5.03	1.60	Sunny(partly_cloudy)	True	False	1.60
2010-06-17 21:00:00 25220 21 0.00 0.00 0.00 0.0 0.00	75.050077899	0.00	0.00	Clear(partly_cloudy)	True	False	0.00
2010-06-17 22:00:00 25221 22 0.00 0.00 0.00 0.0 0.00	75.050077899	0.00	0.00	Clear(partly_cloudy)	True	False	0.00
2010-06-17 23:00:00 25222 23 0.00 0.00 0.00 0.0 0.00	75.050077899	0.00	0.00	Clear(clear)	True	False	0.00
2010-06-18 00:00:00 25223 0 0.00 0.00 0.00 0.0 0.00	75.050077899	0.00	0.00	Clear(clear)	True	False	0.00
2010-06-18 01:00:00 25224 1 0.00 0.00 0.00 0.0 0.00	75.050077899	0.00	0.00	Clear(clear)	True	False	0.00
2010-06-18 02:00:00 25225 2 0.00 0.00 0.00 0.0 0.00	75.050077899	0.00	0.00	Clear(clear)	True	False	0.00
2010-06-18 03:00:00 25226 3 0.00 0.00 0.00 0.0 0.00	75.050077899	0.00	0.00	Clear(clear)	True	False	0.00
2010-06-18 04:00:00 25227 4 0.00 0.00 0.00 0.0 0.00	75.050077899	0.00	0.00	Clear(clear)	True	False	0.00
2010-06-18 05:00:00 25228 5 1.35 1.35 1.35 0.3 1.80	75.050077899	1.35	0.30	Clear(sunny)	True	False	0.30
2010-06-18 06:00:00 25229 6 55.16 55.16 55.16 41.8 73.50	75.050077899	55.16	41.80	Sunny(sunny)	True	False	41.80
2010-06-18 07:00:00 25230 7 165.34 165.34 165.34 189.8 220.30	75.050077899	165.34	189.80	Sunny(sunny)	True	False	189.80
2010-06-18 08:00:00 25231 8 337.20 337.20 337.20 401.6 449.30	75.050077899	337.20	401.60	Sunny(sunny)	True	False	401.60
2010-06-18 09:00:00 25232 9 517.85 517.85 517.85 594.3 690.00	75.050077899	517.85	594.30	Sunny(sunny)	True	False	594.30
2010-06-18 10:00:00 25233 10 729.40 729.40 729.40 733.0 929.60	78.4638554217	729.40	733.00	Sunny(sunny)	True	False	733.00
2010-06-18 11:00:00 25234 11 740.86 740.86 740.86 808.1 944.20	78.4638554217	740.86	808.10	Sunny(sunny)	True	False	808.10
2010-06-18 12:00:00 25235 12 736.62 736.62 736.62 806.7 938.80	78.4638554217	736.62	806.70	Sunny(sunny)	True	False	806.70
2010-06-18 13:00:00 25236 13 816.65 816.65 816.65 850.3 1040.80	78.4638554217	816.65	850.30	Sunny(fair)	True	False	850.30
2010-06-18 14:00:00 25237 14 722.34 722.34 722.34 801.1 920.60	78.4638554217	722.34	801.10	Sunny(sunny)	True	False	801.10
2010-06-18 15:00:00 25238 15 627.95 627.95 627.95 709.1 800.30	78.4638554217	627.95	709.10	Sunny(sunny)	True	False	709.10
2010-06-18 16:00:00 25239 16 537.43 537.43 537.43 552.2 716.10	75.050077899	537.43	552.20	Sunny(sunny)	True	False	552.20
2010-06-18 17:00:00 25240 17 362.27 362.27 362.27 345.2 482.70	75.050077899	362.27	345.20	Sunny(sunny)	True	False	345.20
2010-06-18 18:00:00 25241 18 160.76 160.76 160.76 143.3 214.20	75.050077899	160.76	143.30	Sunny(sunny)	True	False	143.30
2010-06-18 19:00:00 25242 19 51.78 51.78 51.78 28.7 69.00	75.050077899	51.78	28.70	Sunny(sunny)	True	False	28.70
2010-06-18 20:00:00 25243 20 5.03 5.03 5.03 1.8 6.70	75.050077899	5.03	1.80	Sunny(sunny)	True	False	1.80
2010-06-18 21:00:00 25244 21 0.00 0.00 0.00 0.0 0.00	75.050077899	0.00	0.00	Clear(clear)	True	False	0.00
2010-06-18 22:00:00 25245 22 0.00 0.00 0.00 0.0 0.00	75.050077899	0.00	0.00	Clear(clear)	True	False	0.00
2010-06-18 23:00:00 25246 23 0.00 0.00 0.00 0.0 0.00	75.050077899	0.00	0.00	Clear(clear)	True	False	0.00
2010-06-19 00:00:00 25247 0 0.00 0.00 0.00 0.0 0.00	75.050077899	0.00	0.00	Clear(clear)	True	False	0.00
2010-06-19 01:00:00 25248 1 0.00 0.00 0.00 0.0 0.00	75.050077899	0.00	0.00	Clear(clear)	True	False	0.00
2010-06-19 02:00:00 25249 2 0.00 0.00 0.00 0.0 0.00	75.050077899	0.00	0.00	Clear(clear)	True	False	0.00
2010-06-19 03:00:00 25250 3 0.00 0.00 0.00 0.0 0.00	75.050077899	0.00	0.00	Clear(clear)	True	False	0.00
2010-06-19 04:00:00 25251 4 0.00 0.00 0.00 0.0 0.00	75.050077899	0.00	0.00	Clear(clear)	True	False	0.00
2010-06-19 05:00:00 25252 5 1.35 1.35 1.35 0.4 1.80	75.050077899	1.35	0.40	Clear(sunny)	True	False	0.40
