2010-06-03 13:00:00 9132 13 136.38 136.38 1029.90 742.2 1079.90	12.6287505598	1029.90	742.20	Isolated_T-Storms(partly_cloudy)	True	False	742.20
2010-06-03 14:00:00 9133 14 696.08 696.08 696.08 988.4 1012.80	12.6287505598	696.08	988.40	Isolated_T-Storms(sunny)	True	False	988.40
2010-06-03 15:00:00 9134 15 112.80 613.88 613.88 836.5 893.20	12.6287505598	613.88	836.50	Isolated_T-Storms(partly_cloudy)	True	False	836.50
2010-06-03 16:00:00 9135 16 90.43 492.17 492.17 663.8 716.10	12.6287505598	492.17	663.80	Isolated_T-Storms(fair)	True	False	663.80
2010-06-03 17:00:00 9136 17 52.99 288.39 288.39 385.1 419.60	12.6287505598	288.39	385.10	Isolated_T-Storms(sunny)	True	False	385.10
2010-06-03 18:00:00 9137 18 27.05 147.22 147.22 154.7 214.20	12.6287505598	147.22	154.70	Isolated_T-Storms(sunny)	True	False	154.70
2010-06-03 19:00:00 9138 19 6.72 36.56 36.56 45.0 53.20	12.6287505598	36.56	45.00	Isolated_T-Storms(sunny)	True	False	45.00
2010-06-03 20:00:00 9139 20 0.30 1.65 1.65 0.2 2.40	12.6287505598	1.65	0.20	Isolated_T-Storms(partly_cloudy)	True	False	0.20
2010-06-03 21:00:00 9140 21 0.00 0.00 0.00 0.0 0.00	12.6287505598	0.00	0.00	Isolated_T-Storms(mostly_cloudy)	True	False	0.00
2010-06-03 22:00:00 9141 22 0.00 0.00 0.00 0.0 0.00	12.6287505598	0.00	0.00	Scattered_T-Storms(mostly_cloudy)	True	False	0.00
2010-06-03 23:00:00 9142 23 0.00 0.00 0.00 0.0 0.00	12.6287505598	0.00	0.00	Scattered_T-Storms(mostly_cloudy)	True	False	0.00
2010-06-04 00:00:00 9143 0 0.00 0.00 0.00 0.0 0.00	12.6287505598	0.00	0.00	Scattered_T-Storms(mostly_cloudy)	True	False	0.00
2010-06-04 01:00:00 9144 1 0.00 0.00 0.00 0.0 0.00	12.6287505598	0.00	0.00	Scattered_T-Storms(partly_cloudy)	True	False	0.00
2010-06-04 02:00:00 9145 2 0.00 0.00 0.00 0.0 0.00	12.6287505598	0.00	0.00	Scattered_T-Storms(mostly_cloudy)	True	False	0.00
2010-06-04 03:00:00 9146 3 0.00 0.00 0.00 0.0 0.00	12.6287505598	0.00	0.00	Scattered_T-Storms(fog)	True	False	0.00
2010-06-04 04:00:00 9147 4 0.00 0.00 0.00 0.0 0.00	12.6287505598	0.00	0.00	Few_Showers(fog)	True	False	0.00
2010-06-04 05:00:00 9148 5 0.23 0.23 0.23 0.0 1.80	12.6287505598	0.23	0.00	Few_Showers(fog)	True	False	0.00
2010-06-04 06:00:00 9149 6 9.28 9.28 9.28 55.2 73.50	12.6287505598	9.28	55.20	Few_Showers(sunny)	True	False	55.20
2010-06-04 07:00:00 9150 7 173.39 173.39 173.39 225.0 268.30	64.6258503401	173.39	225.00	Mostly_Cloudy(sunny)	True	False	225.00
2010-06-04 08:00:00 9151 8 343.68 343.68 343.68 482.6 531.80	64.6258503401	343.68	482.60	Mostly_Cloudy(sunny)	True	False	482.60
2010-06-04 09:00:00 9152 9 497.62 497.62 497.62 710.4 770.00	64.6258503401	497.62	710.40	Mostly_Cloudy(sunny)	True	False	710.40
2010-06-04 10:00:00 9153 10 819.62 819.62 819.62 882.2 952.40	86.0584518167	819.62	882.20	Partly_Cloudy(sunny)	True	False	882.20
2010-06-04 11:00:00 9154 11 905.16 905.16 905.16 915.4 1051.80	86.0584518167	905.16	915.40	Partly_Cloudy(sunny)	True	False	915.40
2010-06-04 12:00:00 9155 12 941.65 941.65 941.65 962.6 1094.20	86.0584518167	941.65	962.60	Partly_Cloudy(partly_cloudy)	True	False	962.60
2010-06-04 13:00:00 9156 13 929.35 929.35 929.35 645.3 1079.90	86.0584518167	929.35	645.30	Partly_Cloudy(partly_cloudy)	True	False	645.30
2010-06-04 14:00:00 9157 14 871.60 871.60 871.60 979.6 1012.80	86.0584518167	871.60	979.60	Partly_Cloudy(partly_cloudy)	True	False	979.60
2010-06-04 15:00:00 9158 15 768.67 768.67 768.67 713.0 893.20	86.0584518167	768.67	713.00	Partly_Cloudy(fair)	True	False	713.00
2010-06-04 16:00:00 9159 16 566.38 566.38 566.38 609.0 716.10	79.0929834569	566.38	609.00	Partly_Cloudy(partly_cloudy)	True	False	609.00
2010-06-04 17:00:00 9160 17 331.87 331.87 331.87 290.5 419.60	79.0929834569	331.87	290.50	Partly_Cloudy(fair)	True	False	290.50
2010-06-04 18:00:00 9161 18 169.42 169.42 169.42 123.1 214.20	79.0929834569	169.42	123.10	Partly_Cloudy(fair)	True	False	123.10
2010-06-04 19:00:00 9162 19 34.38 34.38 34.38 34.8 53.20	64.6258503401	34.38	34.80	Mostly_Cloudy(sunny)	True	False	34.80
2010-06-04 20:00:00 9163 20 1.55 1.55 1.55 1.3 2.40	64.6258503401	1.55	1.30	Mostly_Cloudy(mostly_cloudy)	True	False	1.30
2010-06-04 21:00:00 9164 21 0.00 0.00 0.00 0.0 0.00	64.6258503401	0.00	0.00	Mostly_Cloudy(partly_cloudy)	True	False	0.00
2010-06-04 22:00:00 9165 22 0.00 0.00 0.00 0.0 0.00	64.6258503401	0.00	0.00	Mostly_Cloudy(partly_cloudy)	True	False	0.00
2010-06-04 23:00:00 9166 23 0.00 0.00 0.00 0.0 0.00	64.6258503401	0.00	0.00	Mostly_Cloudy(mostly_cloudy)	True	False	0.00
2010-06-05 00:00:00 9167 0 0.00 0.00 0.00 0.0 0.00	64.6258503401	0.00	0.00	Mostly_Cloudy(clear)	True	False	0.00
2010-06-05 01:00:00 9168 1 0.00 0.00 0.00 0.0 0.00	12.6287505598	0.00	0.00	Isolated_T-Storms(clear)	True	False	0.00
2010-06-05 02:00:00 9169 2 0.00 0.00 0.00 0.0 0.00	12.6287505598	0.00	0.00	Isolated_T-Storms(mostly_cloudy)	True	False	0.00
2010-06-05 03:00:00 9170 3 0.00 0.00 0.00 0.0 0.00	12.6287505598	0.00	0.00	Isolated_T-Storms(mostly_cloudy)	True	False	0.00
2010-06-05 04:00:00 9171 4 0.00 0.00 0.00 0.0 0.00	12.6287505598	0.00	0.00	Scattered_T-Storms(mostly_cloudy)	True	False	0.00
2010-06-05 05:00:00 9172 5 0.23 0.23 0.23 0.0 1.80	12.6287505598	0.23	0.00	Scattered_T-Storms(mostly_cloudy)	True	False	0.00
2010-06-05 06:00:00 9173 6 9.28 9.28 9.28 22.5 73.50	12.6287505598	9.28	22.50	Scattered_T-Storms(mostly_cloudy)	True	False	22.50
2010-06-05 07:00:00 9174 7 33.88 33.88 33.88 154.1 268.30	12.6287505598	33.88	154.10	Isolated_T-Storms(partly_cloudy)	True	False	154.10
2010-06-05 08:00:00 9175 8 67.16 67.16 67.16 353.6 531.80	12.6287505598	67.16	353.60	Isolated_T-Storms(partly_cloudy)	True	False	353.60
2010-06-05 09:00:00 9176 9 97.24 97.24 97.24 437.0 770.00	12.6287505598	97.24	437.00	Isolated_T-Storms(partly_cloudy)	True	False	437.00
2010-06-05 10:00:00 9177 10 120.28 120.28 120.28 809.6 952.40	12.6287505598	120.28	809.60	Scattered_T-Storms(mostly_cloudy)	True	False	809.60
2010-06-05 11:00:00 9178 11 132.83 132.83 132.83 815.5 1051.80	12.6287505598	132.83	815.50	Scattered_T-Storms(partly_cloudy)	True	False	815.50
2010-06-05 12:00:00 9179 12 138.18 138.18 138.18 969.1 1094.20	12.6287505598	138.18	969.10	Scattered_T-Storms(fair)	True	False	969.10
2010-06-05 13:00:00 9180 13 136.38 136.38 136.38 807.3 1079.90	12.6287505598	136.38	807.30	Scattered_T-Storms(partly_cloudy)	True	False	807.30
