2010-07-09 22:00:00 51909 22 0.00 0.00 0.00 0.0 0.00	27.3693534101	0.00	0.00	Isolated_T-Storms(cloudy)	True	False	0.00
2010-07-09 23:00:00 51910 23 0.00 0.00 0.00 0.0 0.00	27.3693534101	0.00	0.00	Isolated_T-Storms(partly_cloudy)	True	False	0.00
2010-07-10 00:00:00 51911 0 0.00 0.00 0.00 0.0 0.00	27.3693534101	0.00	0.00	Isolated_T-Storms(cloudy)	True	False	0.00
2010-07-10 01:00:00 51912 1 0.00 0.00 0.00 0.0 0.00	72.972972973	0.00	0.00	Partly_Cloudy(mostly_cloudy)	True	False	0.00
2010-07-10 02:00:00 51913 2 0.00 0.00 0.00 0.0 0.00	72.972972973	0.00	0.00	Partly_Cloudy(partly_cloudy)	True	False	0.00
2010-07-10 03:00:00 51914 3 0.00 0.00 0.00 0.0 0.00	72.972972973	0.00	0.00	Partly_Cloudy(partly_cloudy)	True	False	0.00
2010-07-10 04:00:00 51915 4 0.00 0.00 0.00 0.0 0.00	58.2348163523	0.00	0.00	Mostly_Cloudy(cloudy)	True	False	0.00
2010-07-10 05:00:00 51916 5 0.17 0.17 0.17 0.0 0.30	58.2348163523	0.17	0.00	Mostly_Cloudy(cloudy)	True	False	0.00
2010-07-10 06:00:00 51917 6 45.25 45.25 45.25 69.5 77.70	58.2348163523	45.25	69.50	Mostly_Cloudy(cloudy)	True	False	69.50
2010-07-10 07:00:00 51918 7 56.76 56.76 56.76 182.8 207.40	27.3693534101	56.76	182.80	Isolated_T-Storms(cloudy)	True	False	182.80
2010-07-10 08:00:00 51919 8 132.99 132.99 132.99 173.9 485.90	27.3693534101	132.99	173.90	Isolated_T-Storms(cloudy)	True	False	173.90
2010-07-10 09:00:00 51920 9 203.93 203.93 203.93 247.3 745.10	27.3693534101	203.93	247.30	Isolated_T-Storms(cloudy)	True	False	247.30
2010-07-10 10:00:00 51921 10 209.58 209.58 209.58 188.2 919.50	22.7933391087	209.58	188.20	Showers(light_rain)	True	False	188.20
2010-07-10 11:00:00 51922 11 236.80 236.80 236.80 145.8 1038.90	22.7933391087	236.80	145.80	Showers(light_rain)	True	False	145.80
2010-07-10 12:00:00 51923 12 252.57 252.57 252.57 203.5 1108.10	22.7933391087	252.57	203.50	Showers(light_rain)	True	False	203.50
2010-07-10 13:00:00 51924 13 357.78 357.78 357.78 242.7 1107.70	32.2991324029	357.78	242.70	Scattered_T-Storms(fair)	True	False	242.70
2010-07-10 14:00:00 51925 14 342.50 342.50 342.50 269.3 1060.40	32.2991324029	342.50	269.30	Scattered_T-Storms(cloudy)	True	False	269.30
2010-07-10 15:00:00 51926 15 303.32 303.32 303.32 233.6 939.10	32.2991324029	303.32	233.60	Scattered_T-Storms(fair)	True	False	233.60
2010-07-10 16:00:00 51927 16 207.71 207.71 207.71 321.8 758.90	27.3693534101	207.71	321.80	Scattered_T-Storms(partly_cloudy)	True	False	321.80
2010-07-10 17:00:00 51928 17 136.49 136.49 136.49 357.1 498.70	27.3693534101	136.49	357.10	Scattered_T-Storms(mostly_cloudy)	True	False	357.10
2010-07-10 18:00:00 51929 18 61.80 61.80 61.80 211.2 225.80	27.3693534101	61.80	211.20	Scattered_T-Storms(mostly_cloudy)	True	False	211.20
2010-07-10 19:00:00 51930 19 22.28 22.28 22.28 49.3 81.40	27.3693534101	22.28	49.30	Scattered_T-Storms(partly_cloudy)	True	False	49.30
2010-07-10 20:00:00 51931 20 1.86 1.86 1.86 0.8 6.80	27.3693534101	1.86	0.80	Scattered_T-Storms(fair)	True	False	0.80
2010-07-10 21:00:00 51932 21 0.00 0.00 0.00 0.0 0.00	27.3693534101	0.00	0.00	Scattered_T-Storms(fair)	True	False	0.00
2010-07-10 22:00:00 51933 22 0.00 0.00 0.00 0.0 0.00	27.3693534101	0.00	0.00	Scattered_T-Storms(fair)	True	False	0.00
2010-07-10 23:00:00 51934 23 0.00 0.00 0.00 0.0 0.00	27.3693534101	0.00	0.00	Scattered_T-Storms(partly_cloudy)	True	False	0.00
2010-07-11 00:00:00 51935 0 0.00 0.00 0.00 0.0 0.00	27.3693534101	0.00	0.00	Scattered_T-Storms(fair)	True	False	0.00
2010-07-11 01:00:00 51936 1 0.00 0.00 0.00 0.0 0.00	72.972972973	0.00	0.00	Partly_Cloudy(partly_cloudy)	True	False	0.00
2010-07-11 02:00:00 51937 2 0.00 0.00 0.00 0.0 0.00	72.972972973	0.00	0.00	Partly_Cloudy(mostly_cloudy)	True	False	0.00
2010-07-11 03:00:00 51938 3 0.00 0.00 0.00 0.0 0.00	72.972972973	0.00	0.00	Partly_Cloudy(fair)	True	False	0.00
2010-07-11 04:00:00 51939 4 0.00 0.00 0.00 0.0 0.00	72.972972973	0.00	0.00	Partly_Cloudy(fair)	True	False	0.00
2010-07-11 05:00:00 51940 5 0.22 0.22 0.22 0.0 0.30	72.972972973	0.22	0.00	Partly_Cloudy(partly_cloudy)	True	False	0.00
2010-07-11 06:00:00 51941 6 56.70 56.70 56.70 34.9 77.70	72.972972973	56.70	34.90	Partly_Cloudy(partly_cloudy)	True	False	34.90
2010-07-11 07:00:00 51942 7 151.35 151.35 151.35 197.6 207.40	72.972972973	151.35	197.60	Mostly_Sunny(fair)	False	False	197.60
2010-07-11 08:00:00 51943 8 354.58 354.58 354.58 420.7 485.90	72.972972973	354.58	420.70	Mostly_Sunny(fair)	False	False	420.70
2010-07-11 09:00:00 51944 9 543.72 543.72 543.72 516.0 745.10	72.972972973	543.72	516.00	Mostly_Sunny(fair)	False	False	516.00
2010-07-11 10:00:00 51945 10 670.99 670.99 670.99 629.8 919.50	72.972972973	670.99	629.80	Mostly_Sunny(mostly_cloudy)	False	False	629.80
2010-07-11 11:00:00 51946 11 758.12 758.12 758.12 741.7 1038.90	72.972972973	758.12	741.70	Mostly_Sunny(fair)	False	False	741.70
2010-07-11 12:00:00 51947 12 808.61 808.61 808.61 836.2 1108.10	72.972972973	808.61	836.20	Mostly_Sunny(partly_cloudy)	False	False	836.20
2010-07-11 13:00:00 51948 13 808.32 808.32 808.32 400.6 1107.70	72.972972973	808.32	400.60	Mostly_Sunny(fair)	False	False	400.60
2010-07-11 14:00:00 51949 14 773.81 773.81 773.81 311.1 1060.40	72.972972973	773.81	311.10	Mostly_Sunny(fair)	False	False	311.10
2010-07-11 15:00:00 51950 15 685.29 685.29 685.29 206.1 939.10	72.972972973	685.29	206.10	Mostly_Sunny(fair)	False	False	206.10
2010-07-11 16:00:00 51951 16 553.79 553.79 553.79 445.3 758.90	72.972972973	553.79	445.30	Partly_Cloudy(fair)	True	False	445.30
2010-07-11 17:00:00 51952 17 363.92 363.92 363.92 452.3 498.70	72.972972973	363.92	452.30	Partly_Cloudy(sunny)	True	False	452.30
2010-07-11 18:00:00 51953 18 164.77 164.77 164.77 219.8 225.80	72.972972973	164.77	219.80	Partly_Cloudy(sunny)	True	False	219.80
2010-07-11 19:00:00 51954 19 62.59 62.59 62.59 37.2 81.40	76.8890172298	62.59	37.20	Sunny(sunny)	True	False	37.20
2010-07-11 20:00:00 51955 20 5.23 5.23 5.23 1.7 6.80	76.8890172298	5.23	1.70	Sunny(sunny)	True	False	1.70
2010-07-11 21:00:00 51956 21 0.00 0.00 0.00 0.0 0.00	76.8890172298	0.00	0.00	Clear(clear)	True	False	0.00
2010-07-11 22:00:00 51957 22 0.00 0.00 0.00 0.0 0.00	76.8890172298	0.00	0.00	Clear(clear)	True	False	0.00
