2010-06-29 17:00:00 39904 17 350.06 369.78 369.78 301.8 484.70	72.2217206825	369.78	301.80	Partly_Cloudy(partly_cloudy)	True	False	301.80
2010-06-29 18:00:00 39905 18 163.08 140.60 140.60 173.1 225.80	72.2217206825	140.60	173.10	Partly_Cloudy(partly_cloudy)	True	False	173.10
2010-06-29 19:00:00 39906 19 58.79 50.68 50.68 39.4 81.40	72.2217206825	50.68	39.40	Partly_Cloudy(fair)	True	False	39.40
2010-06-29 20:00:00 39907 20 4.84 4.17 4.17 7.0 6.70	72.2217206825	4.17	7.00	Partly_Cloudy(sunny)	True	False	7.00
2010-06-29 21:00:00 39908 21 0.00 0.00 0.00 0.0 0.00	72.2217206825	0.00	0.00	Partly_Cloudy(clear)	True	False	0.00
2010-06-29 22:00:00 39909 22 0.00 0.00 0.00 0.0 0.00	62.2653187539	0.00	0.00	Mostly_Clear(fair)	False	False	0.00
2010-06-29 23:00:00 39910 23 0.00 0.00 0.00 0.0 0.00	62.2653187539	0.00	0.00	Mostly_Clear(clear)	False	False	0.00
2010-06-30 00:00:00 39911 0 0.00 0.00 0.00 0.0 0.00	62.2653187539	0.00	0.00	Mostly_Clear(clear)	False	False	0.00
2010-06-30 01:00:00 39912 1 0.00 0.00 0.00 0.0 0.00	72.2217206825	0.00	0.00	Partly_Cloudy(clear)	True	False	0.00
2010-06-30 02:00:00 39913 2 0.00 0.00 0.00 0.0 0.00	72.2217206825	0.00	0.00	Partly_Cloudy(clear)	True	False	0.00
2010-06-30 03:00:00 39914 3 0.00 0.00 0.00 0.0 0.00	72.2217206825	0.00	0.00	Partly_Cloudy(fair)	True	False	0.00
2010-06-30 04:00:00 39915 4 0.00 0.00 0.00 0.0 0.00	72.2217206825	0.00	0.00	Partly_Cloudy(clear)	True	False	0.00
2010-06-30 05:00:00 39916 5 1.30 1.30 1.30 0.1 1.80	72.2217206825	1.30	0.10	Partly_Cloudy(sunny)	True	False	0.10
2010-06-30 06:00:00 39917 6 56.12 56.12 56.12 33.4 77.70	72.2217206825	56.12	33.40	Partly_Cloudy(sunny)	True	False	33.40
2010-06-30 07:00:00 39918 7 161.03 161.03 161.03 181.0 220.30	73.0943432591	161.03	181.00	Sunny(sunny)	True	False	181.00
2010-06-30 08:00:00 39919 8 355.17 355.17 355.17 414.9 485.90	73.0943432591	355.17	414.90	Sunny(sunny)	True	False	414.90
2010-06-30 09:00:00 39920 9 543.60 543.60 543.60 617.1 743.70	73.0943432591	543.60	617.10	Sunny(sunny)	True	False	617.10
2010-06-30 10:00:00 39921 10 709.20 709.20 709.20 768.1 929.60	76.2908777969	709.20	768.10	Sunny(sunny)	True	False	768.10
2010-06-30 11:00:00 39922 11 791.67 791.67 791.67 861.7 1037.70	76.2908777969	791.67	861.70	Sunny(sunny)	True	False	861.70
2010-06-30 12:00:00 39923 12 838.44 838.44 838.44 906.5 1099.00	76.2908777969	838.44	906.50	Sunny(sunny)	True	False	906.50
2010-06-30 13:00:00 39924 13 845.07 845.07 845.07 909.6 1107.70	76.2908777969	845.07	909.60	Sunny(sunny)	True	False	909.60
2010-06-30 14:00:00 39925 14 808.99 808.99 808.99 870.8 1060.40	76.2908777969	808.99	870.80	Sunny(sunny)	True	False	870.80
2010-06-30 15:00:00 39926 15 716.45 716.45 716.45 774.3 939.10	76.2908777969	716.45	774.30	Sunny(sunny)	True	False	774.30
2010-06-30 16:00:00 39927 16 544.11 544.11 544.11 611.2 744.40	73.0943432591	544.11	611.20	Sunny(sunny)	True	False	611.20
2010-06-30 17:00:00 39928 17 354.29 354.29 354.29 380.9 484.70	73.0943432591	354.29	380.90	Sunny(sunny)	True	False	380.90
2010-06-30 18:00:00 39929 18 165.05 165.05 165.05 155.4 225.80	73.0943432591	165.05	155.40	Sunny(fair)	True	False	155.40
2010-06-30 19:00:00 39930 19 59.50 59.50 59.50 29.4 81.40	73.0943432591	59.50	29.40	Sunny(fair)	True	False	29.40
2010-06-30 20:00:00 39931 20 4.90 4.90 4.90 2.2 6.70	73.0943432591	4.90	2.20	Sunny(sunny)	True	False	2.20
2010-06-30 21:00:00 39932 21 0.00 0.00 0.00 0.0 0.00	73.0943432591	0.00	0.00	Clear(fair)	True	False	0.00
2010-06-30 22:00:00 39933 22 0.00 0.00 0.00 0.0 0.00	73.0943432591	0.00	0.00	Clear(clear)	True	False	0.00
2010-06-30 23:00:00 39934 23 0.00 0.00 0.00 0.0 0.00	73.0943432591	0.00	0.00	Clear(clear)	True	False	0.00
2010-07-01 00:00:00 39935 0 0.00 0.00 0.00 0.0 0.00	73.0943432591	0.00	0.00	Clear(cloudy)	True	False	0.00
2010-07-01 01:00:00 39936 1 0.00 0.00 0.00 0.0 0.00	73.0943432591	0.00	0.00	Clear(cloudy)	True	False	0.00
2010-07-01 02:00:00 39937 2 0.00 0.00 0.00 0.0 0.00	73.0943432591	0.00	0.00	Clear(cloudy)	True	False	0.00
2010-07-01 03:00:00 39938 3 0.00 0.00 0.00 0.0 0.00	73.0943432591	0.00	0.00	Clear(fair)	True	False	0.00
2010-07-01 04:00:00 39939 4 0.00 0.00 0.00 0.0 0.00	73.0943432591	0.00	0.00	Clear(partly_cloudy)	True	False	0.00
2010-07-01 05:00:00 39940 5 1.32 1.32 1.32 0.3 1.80	73.0943432591	1.32	0.30	Clear(fair)	True	False	0.30
2010-07-01 06:00:00 39941 6 56.79 56.79 56.79 31.2 77.70	73.0943432591	56.79	31.20	Sunny(sunny)	True	False	31.20
2010-07-01 07:00:00 39942 7 161.03 161.03 161.03 174.2 220.30	73.0943432591	161.03	174.20	Sunny(sunny)	True	False	174.20
2010-07-01 08:00:00 39943 8 355.17 355.17 355.17 404.9 485.90	73.0943432591	355.17	404.90	Sunny(sunny)	True	False	404.90
2010-07-01 09:00:00 39944 9 543.60 543.60 543.60 607.6 743.70	73.0943432591	543.60	607.60	Sunny(sunny)	True	False	607.60
2010-07-01 10:00:00 39945 10 709.20 709.20 709.20 746.7 929.60	76.2908777969	709.20	746.70	Sunny(sunny)	True	False	746.70
2010-07-01 11:00:00 39946 11 791.67 791.67 791.67 691.6 1037.70	76.2908777969	791.67	691.60	Sunny(sunny)	True	False	691.60
2010-07-01 12:00:00 39947 12 838.44 838.44 838.44 800.5 1099.00	76.2908777969	838.44	800.50	Sunny(mostly_cloudy)	True	False	800.50
2010-07-01 13:00:00 39948 13 845.07 845.07 845.07 780.3 1107.70	76.2908777969	845.07	780.30	Sunny(fair)	True	False	780.30
2010-07-01 14:00:00 39949 14 808.99 808.99 808.99 676.3 1060.40	76.2908777969	808.99	676.30	Sunny(partly_cloudy)	True	False	676.30
2010-07-01 15:00:00 39950 15 716.45 716.45 716.45 458.2 939.10	76.2908777969	716.45	458.20	Sunny(fair)	True	False	458.20
2010-07-01 16:00:00 39951 16 544.11 544.11 544.11 424.4 744.40	73.0943432591	544.11	424.40	Sunny(mostly_cloudy)	True	False	424.40
2010-07-01 17:00:00 39952 17 354.29 354.29 354.29 244.2 484.70	73.0943432591	354.29	244.20	Sunny(fair)	True	False	244.20
