2010-07-17 10:00:00 60729 10 786.57 786.57 786.57 845.5 919.50	85.5431912486	786.57	845.50	Sunny(sunny)	True	False	845.50
2010-07-17 11:00:00 60730 11 888.71 888.71 888.71 957.9 1038.90	85.5431912486	888.71	957.90	Sunny(sunny)	True	False	957.90
2010-07-17 12:00:00 60731 12 947.90 947.90 947.90 856.7 1108.10	85.5431912486	947.90	856.70	Sunny(sunny)	True	False	856.70
2010-07-17 13:00:00 60732 13 947.56 947.56 947.56 969.2 1107.70	85.5431912486	947.56	969.20	Sunny(sunny)	True	False	969.20
2010-07-17 14:00:00 60733 14 907.10 907.10 907.10 857.4 1060.40	85.5431912486	907.10	857.40	Sunny(sunny)	True	False	857.40
2010-07-17 15:00:00 60734 15 803.34 803.34 803.34 743.0 939.10	85.5431912486	803.34	743.00	Sunny(partly_cloudy)	True	False	743.00
2010-07-17 16:00:00 60735 16 649.19 649.19 649.19 642.6 758.90	85.5431912486	649.19	642.60	Mostly_Sunny(partly_cloudy)	False	False	642.60
2010-07-17 17:00:00 60736 17 426.60 426.60 426.60 372.3 498.70	85.5431912486	426.60	372.30	Mostly_Sunny(fair)	False	False	372.30
2010-07-17 18:00:00 60737 18 193.16 193.16 193.16 166.7 225.80	85.5431912486	193.16	166.70	Mostly_Sunny(partly_cloudy)	False	False	166.70
2010-07-17 19:00:00 60738 19 69.63 69.63 69.63 62.1 81.40	85.5431912486	69.63	62.10	Mostly_Sunny(mostly_cloudy)	False	False	62.10
2010-07-17 20:00:00 60739 20 5.82 5.82 5.82 1.4 6.80	85.5431912486	5.82	1.40	Mostly_Sunny(fair)	False	False	1.40
2010-07-17 21:00:00 60740 21 0.00 0.00 0.00 0.0 0.00	85.5431912486	0.00	0.00	Mostly_Clear(clear)	False	False	0.00
2010-07-17 22:00:00 60741 22 0.00 0.00 0.00 0.0 0.00	79.2665319087	0.00	0.00	Clear(clear)	True	False	0.00
2010-07-17 23:00:00 60742 23 0.00 0.00 0.00 0.0 0.00	79.2665319087	0.00	0.00	Clear(clear)	True	False	0.00
2010-07-18 00:00:00 60743 0 0.00 0.00 0.00 0.0 0.00	79.2665319087	0.00	0.00	Clear(clear)	True	False	0.00
2010-07-18 01:00:00 60744 1 0.00 0.00 0.00 0.0 0.00	73.8263950399	0.00	0.00	Partly_Cloudy(clear)	True	False	0.00
2010-07-18 02:00:00 60745 2 0.00 0.00 0.00 0.0 0.00	73.8263950399	0.00	0.00	Partly_Cloudy(partly_cloudy)	True	False	0.00
2010-07-18 03:00:00 60746 3 0.00 0.00 0.00 0.0 0.00	73.8263950399	0.00	0.00	Partly_Cloudy(clear)	True	False	0.00
2010-07-18 04:00:00 60747 4 0.00 0.00 0.00 0.0 0.00	73.8263950399	0.00	0.00	Mostly_Clear(fair)	False	False	0.00
2010-07-18 05:00:00 60748 5 0.15 0.15 0.15 0.0 0.20	73.8263950399	0.15	0.00	Mostly_Clear(fair)	False	False	0.00
2010-07-18 06:00:00 60749 6 57.36 57.36 57.36 24.2 77.70	73.8263950399	57.36	24.20	Mostly_Sunny(fog)	False	False	24.20
2010-07-18 07:00:00 60750 7 164.40 164.40 164.40 176.8 207.40	79.2665319087	164.40	176.80	Sunny(sunny)	True	False	176.80
2010-07-18 08:00:00 60751 8 385.16 385.16 385.16 422.5 485.90	79.2665319087	385.16	422.50	Sunny(sunny)	True	False	422.50
2010-07-18 09:00:00 60752 9 590.61 590.61 590.61 661.7 745.10	79.2665319087	590.61	661.70	Sunny(sunny)	True	False	661.70
2010-07-18 10:00:00 60753 10 786.57 786.57 786.57 861.5 919.50	85.5431912486	786.57	861.50	Sunny(sunny)	True	False	861.50
2010-07-18 11:00:00 60754 11 888.71 888.71 888.71 832.1 1038.90	85.5431912486	888.71	832.10	Sunny(fair)	True	False	832.10
2010-07-18 12:00:00 60755 12 947.90 947.90 947.90 1019.8 1108.10	85.5431912486	947.90	1019.80	Sunny(partly_cloudy)	True	False	1019.80
2010-07-18 13:00:00 60756 13 947.56 947.56 947.56 974.1 1107.70	85.5431912486	947.56	974.10	Sunny(sunny)	True	False	974.10
2010-07-18 14:00:00 60757 14 907.10 907.10 907.10 767.6 1060.40	85.5431912486	907.10	767.60	Sunny(fair)	True	False	767.60
2010-07-18 15:00:00 60758 15 803.34 803.34 803.34 831.6 939.10	85.5431912486	803.34	831.60	Sunny(sunny)	True	False	831.60
2010-07-18 16:00:00 60759 16 560.27 560.27 560.27 566.3 758.90	73.8263950399	560.27	566.30	Partly_Cloudy(sunny)	True	False	566.30
2010-07-18 17:00:00 60760 17 368.17 368.17 368.17 425.6 498.70	73.8263950399	368.17	425.60	Partly_Cloudy(sunny)	True	False	425.60
2010-07-18 18:00:00 60761 18 166.70 166.70 166.70 195.5 225.80	73.8263950399	166.70	195.50	Partly_Cloudy(sunny)	True	False	195.50
2010-07-18 19:00:00 60762 19 60.09 60.09 60.09 40.3 81.40	73.8263950399	60.09	40.30	Partly_Cloudy(sunny)	True	False	40.30
2010-07-18 20:00:00 60763 20 5.02 5.02 5.02 0.5 6.80	73.8263950399	5.02	0.50	Partly_Cloudy(sunny)	True	False	0.50
2010-07-18 21:00:00 60764 21 0.00 0.00 0.00 0.0 0.00	73.8263950399	0.00	0.00	Partly_Cloudy(clear)	True	False	0.00
2010-07-18 22:00:00 60765 22 0.00 0.00 0.00 0.0 0.00	73.8263950399	0.00	0.00	Partly_Cloudy(clear)	True	False	0.00
2010-07-18 23:00:00 60766 23 0.00 0.00 0.00 0.0 0.00	73.8263950399	0.00	0.00	Partly_Cloudy(partly_cloudy)	True	False	0.00
2010-07-19 00:00:00 60767 0 0.00 0.00 0.00 0.0 0.00	73.8263950399	0.00	0.00	Partly_Cloudy(partly_cloudy)	True	False	0.00
2010-07-19 01:00:00 60768 1 0.00 0.00 0.00 0.0 0.00	73.8263950399	0.00	0.00	Partly_Cloudy(partly_cloudy)	True	False	0.00
2010-07-19 02:00:00 60769 2 0.00 0.00 0.00 0.0 0.00	73.8263950399	0.00	0.00	Partly_Cloudy(mostly_cloudy)	True	False	0.00
2010-07-19 03:00:00 60770 3 0.00 0.00 0.00 0.0 0.00	73.8263950399	0.00	0.00	Partly_Cloudy(mostly_cloudy)	True	False	0.00
2010-07-19 04:00:00 60771 4 0.00 0.00 0.00 0.0 0.00	73.8263950399	0.00	0.00	Partly_Cloudy(fair)	True	False	0.00
2010-07-19 05:00:00 60772 5 0.15 0.15 0.15 0.0 0.20	73.8263950399	0.15	0.00	Partly_Cloudy(partly_cloudy)	True	False	0.00
2010-07-19 06:00:00 60773 6 57.36 57.36 57.36 31.8 77.70	73.8263950399	57.36	31.80	Partly_Cloudy(partly_cloudy)	True	False	31.80
2010-07-19 07:00:00 60774 7 153.12 153.12 153.12 168.5 207.40	73.8263950399	153.12	168.50	Partly_Cloudy(partly_cloudy)	True	False	168.50
2010-07-19 08:00:00 60775 8 358.72 358.72 358.72 328.2 485.90	73.8263950399	358.72	328.20	Partly_Cloudy(thunder)	True	False	328.20
2010-07-19 09:00:00 60776 9 550.08 550.08 550.08 188.2 745.10	73.8263950399	550.08	188.20	Partly_Cloudy(mostly_cloudy)	True	False	188.20
2010-07-19 10:00:00 60777 10 693.88 693.88 693.88 345.0 919.50	75.4625033842	693.88	345.00	Partly_Cloudy(mostly_cloudy)	True	False	345.00
