2010-07-23 01:00:00 67344 1 0.00 0.00 0.00 0.0 0.00	55.5052479934	0.00	0.00	Mostly_Cloudy(partly_cloudy)	True	False	0.00
2010-07-23 02:00:00 67345 2 0.00 0.00 0.00 0.0 0.00	55.5052479934	0.00	0.00	Mostly_Cloudy(partly_cloudy)	True	False	0.00
2010-07-23 03:00:00 67346 3 0.00 0.00 0.00 0.0 0.00	55.5052479934	0.00	0.00	Mostly_Cloudy(partly_cloudy)	True	False	0.00
2010-07-23 04:00:00 67347 4 0.00 0.00 0.00 0.0 0.00	73.3069481091	0.00	0.00	Partly_Cloudy(mostly_cloudy)	True	False	0.00
2010-07-23 05:00:00 67348 5 0.00 0.00 0.00 0.0 0.00	73.3069481091	0.00	0.00	Partly_Cloudy(mostly_cloudy)	True	False	0.00
2010-07-23 06:00:00 67349 6 56.96 56.96 56.96 35.1 77.70	73.3069481091	56.96	35.10	Partly_Cloudy(mostly_cloudy)	True	False	35.10
2010-07-23 07:00:00 67350 7 115.12 115.12 115.12 149.9 207.40	55.5052479934	115.12	149.90	Mostly_Cloudy(partly_cloudy)	True	False	149.90
2010-07-23 08:00:00 67351 8 269.70 269.70 269.70 343.3 485.90	55.5052479934	269.70	343.30	Mostly_Cloudy(partly_cloudy)	True	False	343.30
2010-07-23 09:00:00 67352 9 413.57 413.57 413.57 215.8 745.10	55.5052479934	413.57	215.80	Mostly_Cloudy(partly_cloudy)	True	False	215.80
2010-07-23 10:00:00 67353 10 534.41 534.41 534.41 186.0 919.50	58.1195775179	534.41	186.00	Mostly_Cloudy(mostly_cloudy)	True	False	186.00
2010-07-23 11:00:00 67354 11 603.80 603.80 603.80 220.9 1038.90	58.1195775179	603.80	220.90	Mostly_Cloudy(mostly_cloudy)	True	False	220.90
2010-07-23 12:00:00 67355 12 644.02 644.02 644.02 462.6 1108.10	58.1195775179	644.02	462.60	Mostly_Cloudy(light_rain)	True	False	462.60
2010-07-23 13:00:00 67356 13 824.08 824.08 824.08 463.5 1107.70	74.3959957648	824.08	463.50	Partly_Cloudy(mostly_cloudy)	True	False	463.50
2010-07-23 14:00:00 67357 14 788.90 788.90 788.90 463.5 1060.40	74.3959957648	788.90	463.50	Partly_Cloudy(mostly_cloudy)	True	False	463.50
2010-07-23 15:00:00 67358 15 698.65 698.65 698.65 479.4 939.10	74.3959957648	698.65	479.40	Partly_Cloudy(mostly_cloudy)	True	False	479.40
2010-07-23 16:00:00 67359 16 185.39 185.39 185.39 418.7 758.90	24.4288948343	185.39	418.70	Scattered_T-Storms(partly_cloudy)	True	False	418.70
2010-07-23 17:00:00 67360 17 121.83 121.83 121.83 281.9 498.70	24.4288948343	121.83	281.90	Scattered_T-Storms(sunny)	True	False	281.90
2010-07-23 18:00:00 67361 18 55.55 55.55 55.55 134.0 227.40	24.4288948343	55.55	134.00	Scattered_T-Storms(sunny)	True	False	134.00
2010-07-23 19:00:00 67362 19 18.03 18.03 18.03 30.4 73.80	24.4288948343	18.03	30.40	Isolated_T-Storms(sunny)	True	False	30.40
2010-07-23 20:00:00 67363 20 1.66 1.66 1.66 0.0 6.80	24.4288948343	1.66	0.00	Isolated_T-Storms(partly_cloudy)	True	False	0.00
2010-07-23 21:00:00 67364 21 0.00 0.00 0.00 0.0 0.00	24.4288948343	0.00	0.00	Isolated_T-Storms(partly_cloudy)	True	False	0.00
2010-07-23 22:00:00 67365 22 0.00 0.00 0.00 0.0 0.00	24.4288948343	0.00	0.00	Isolated_T-Storms(clear)	True	False	0.00
2010-07-23 23:00:00 67366 23 0.00 0.00 0.00 0.0 0.00	24.4288948343	0.00	0.00	Isolated_T-Storms(clear)	True	False	0.00
2010-07-24 00:00:00 67367 0 0.00 0.00 0.00 0.0 0.00	24.4288948343	0.00	0.00	Isolated_T-Storms(light_rain)	True	False	0.00
2010-07-24 01:00:00 67368 1 0.00 0.00 0.00 0.0 0.00	24.4288948343	0.00	0.00	Isolated_T-Storms(partly_cloudy)	True	False	0.00
2010-07-24 02:00:00 67369 2 0.00 0.00 0.00 0.0 0.00	24.4288948343	0.00	0.00	Isolated_T-Storms(clear)	True	False	0.00
2010-07-24 03:00:00 67370 3 0.00 0.00 0.00 0.0 0.00	24.4288948343	0.00	0.00	Isolated_T-Storms(clear)	True	False	0.00
2010-07-24 04:00:00 67371 4 0.00 0.00 0.00 0.0 0.00	24.4288948343	0.00	0.00	Isolated_T-Storms(mostly_cloudy)	True	False	0.00
2010-07-24 05:00:00 67372 5 0.00 0.00 0.00 0.0 0.00	24.4288948343	0.00	0.00	Isolated_T-Storms(partly_cloudy)	True	False	0.00
2010-07-24 06:00:00 67373 6 18.98 18.98 18.98 26.0 77.70	24.4288948343	18.98	26.00	Isolated_T-Storms(fog)	True	False	26.00
2010-07-24 07:00:00 67374 7 50.67 50.67 50.67 139.7 207.40	24.4288948343	50.67	139.70	Few_Showers(partly_cloudy)	True	False	139.70
2010-07-24 08:00:00 67375 8 118.70 118.70 118.70 408.6 485.90	24.4288948343	118.70	408.60	Few_Showers(partly_cloudy)	True	False	408.60
2010-07-24 09:00:00 67376 9 182.02 182.02 182.02 663.9 745.10	24.4288948343	182.02	663.90	Few_Showers(fair)	True	False	663.90
2010-07-24 10:00:00 67377 10 684.07 684.07 684.07 848.0 919.50	74.3959957648	684.07	848.00	Partly_Cloudy(fair)	True	False	848.00
2010-07-24 11:00:00 67378 11 772.90 772.90 772.90 980.3 1038.90	74.3959957648	772.90	980.30	Partly_Cloudy(fair)	True	False	980.30
2010-07-24 12:00:00 67379 12 824.38 824.38 824.38 877.6 1108.10	74.3959957648	824.38	877.60	Partly_Cloudy(sunny)	True	False	877.60
2010-07-24 13:00:00 67380 13 824.08 824.08 824.08 893.3 1107.70	74.3959957648	824.08	893.30	Partly_Cloudy(sunny)	True	False	893.30
2010-07-24 14:00:00 67381 14 788.90 788.90 788.90 940.8 1060.40	74.3959957648	788.90	940.80	Partly_Cloudy(fair)	True	False	940.80
2010-07-24 15:00:00 67382 15 698.65 698.65 698.65 800.4 939.10	74.3959957648	698.65	800.40	Partly_Cloudy(sunny)	True	False	800.40
2010-07-24 16:00:00 67383 16 185.39 185.39 185.39 609.8 758.90	24.4288948343	185.39	609.80	Isolated_T-Storms(sunny)	True	False	609.80
2010-07-24 17:00:00 67384 17 121.83 121.83 121.83 401.9 498.70	24.4288948343	121.83	401.90	Isolated_T-Storms(sunny)	True	False	401.90
2010-07-24 18:00:00 67385 18 55.55 55.55 55.55 163.6 227.40	24.4288948343	55.55	163.60	Isolated_T-Storms(partly_cloudy)	True	False	163.60
2010-07-24 19:00:00 67386 19 54.10 54.10 54.10 29.6 73.80	73.3069481091	54.10	29.60	Partly_Cloudy(fair)	True	False	29.60
2010-07-24 20:00:00 67387 20 4.98 4.98 4.98 0.0 6.80	73.3069481091	4.98	0.00	Partly_Cloudy(sunny)	True	False	0.00
2010-07-24 21:00:00 67388 21 0.00 0.00 0.00 0.0 0.00	73.3069481091	0.00	0.00	Partly_Cloudy(clear)	True	False	0.00
2010-07-24 22:00:00 67389 22 0.00 0.00 0.00 0.0 0.00	73.3069481091	0.00	0.00	Partly_Cloudy(clear)	True	False	0.00
2010-07-24 23:00:00 67390 23 0.00 0.00 0.00 0.0 0.00	73.3069481091	0.00	0.00	Partly_Cloudy(clear)	True	False	0.00
2010-07-25 00:00:00 67391 0 0.00 0.00 0.00 0.0 0.00	73.3069481091	0.00	0.00	Partly_Cloudy(light_rain)	True	False	0.00
2010-07-25 01:00:00 67392 1 0.00 0.00 0.00 0.0 0.00	87.0712401055	0.00	0.00	Clear(fair)	True	False	0.00
