2010-06-22 03:00:00 30986 3 0.00 0.00 0.00 0.0 0.00	75.5102040816	0.00	0.00	Partly_Cloudy(clear)	True	False	0.00
2010-06-22 04:00:00 30987 4 0.00 0.00 0.00 0.0 0.00	75.5102040816	0.00	0.00	Partly_Cloudy(partly_cloudy)	True	False	0.00
2010-06-22 05:00:00 30988 5 1.36 1.36 1.36 0.0 1.80	75.5102040816	1.36	0.00	Partly_Cloudy(partly_cloudy)	True	False	0.00
2010-06-22 06:00:00 30989 6 55.50 55.50 55.50 45.9 73.50	75.5102040816	55.50	45.90	Partly_Cloudy(partly_cloudy)	True	False	45.90
2010-06-22 07:00:00 30990 7 166.35 166.35 166.35 182.7 220.30	75.5102040816	166.35	182.70	Partly_Cloudy(sunny)	True	False	182.70
2010-06-22 08:00:00 30991 8 366.60 366.60 366.60 369.8 485.50	75.5102040816	366.60	369.80	Partly_Cloudy(partly_cloudy)	True	False	369.80
2010-06-22 09:00:00 30992 9 524.34 524.34 524.34 533.2 694.40	75.5102040816	524.34	533.20	Partly_Cloudy(partly_cloudy)	True	False	533.20
2010-06-22 10:00:00 30993 10 772.66 772.66 772.66 696.1 929.60	83.1179834781	772.66	696.10	Partly_Cloudy(sunny)	True	False	696.10
2010-06-22 11:00:00 30994 11 784.80 784.80 784.80 779.6 944.20	83.1179834781	784.80	779.60	Partly_Cloudy(sunny)	True	False	779.60
2010-06-22 12:00:00 30995 12 780.31 780.31 780.31 594.7 938.80	83.1179834781	780.31	594.70	Partly_Cloudy(fair)	True	False	594.70
2010-06-22 13:00:00 30996 13 827.52 827.52 827.52 638.4 995.60	83.1179834781	827.52	638.40	Partly_Cloudy(sunny)	True	False	638.40
2010-06-22 14:00:00 30997 14 790.37 790.37 790.37 506.2 950.90	83.1179834781	790.37	506.20	Partly_Cloudy(partly_cloudy)	True	False	506.20
2010-06-22 15:00:00 30998 15 657.88 657.88 657.88 226.5 791.50	83.1179834781	657.88	226.50	Partly_Cloudy(mostly_cloudy)	True	False	226.50
2010-06-22 16:00:00 30999 16 87.55 87.55 87.55 225.0 681.80	12.8404669261	87.55	225.00	Isolated_T-Storms(mostly_cloudy)	True	False	225.00
2010-06-22 17:00:00 31000 17 61.98 61.98 61.98 148.2 482.70	12.8404669261	61.98	148.20	Isolated_T-Storms(mostly_cloudy)	True	False	148.20
2010-06-22 18:00:00 31001 18 27.50 27.50 27.50 31.6 214.20	12.8404669261	27.50	31.60	Isolated_T-Storms(sunny)	True	False	31.60
2010-06-22 19:00:00 31002 19 10.45 10.45 10.45 3.6 81.40	12.8404669261	10.45	3.60	Scattered_T-Storms(heavy_t-storm)	True	False	3.60
2010-06-22 20:00:00 31003 20 0.86 0.86 0.86 4.6 6.70	12.8404669261	0.86	4.60	Scattered_T-Storms(mostly_cloudy)	True	False	4.60
2010-06-22 21:00:00 31004 21 0.00 0.00 0.00 0.0 0.00	12.8404669261	0.00	0.00	Scattered_T-Storms(fog)	True	False	0.00
2010-06-22 22:00:00 31005 22 0.00 0.00 0.00 0.0 0.00	12.8404669261	0.00	0.00	Scattered_T-Storms(fog)	True	False	0.00
2010-06-22 23:00:00 31006 23 0.00 0.00 0.00 0.0 0.00	12.8404669261	0.00	0.00	Scattered_T-Storms(fog)	True	False	0.00
2010-06-23 00:00:00 31007 0 0.00 0.00 0.00 0.0 0.00	12.8404669261	0.00	0.00	Scattered_T-Storms(fog)	True	False	0.00
2010-06-23 01:00:00 31008 1 0.00 0.00 0.00 0.0 0.00	12.8404669261	0.00	0.00	Few_Showers(fog)	True	False	0.00
2010-06-23 02:00:00 31009 2 0.00 0.00 0.00 0.0 0.00	12.8404669261	0.00	0.00	Few_Showers(fog)	True	False	0.00
2010-06-23 03:00:00 31010 3 0.00 0.00 0.00 0.0 0.00	12.8404669261	0.00	0.00	Few_Showers(fog)	True	False	0.00
2010-06-23 04:00:00 31011 4 0.00 0.00 0.00 0.0 0.00	12.8404669261	0.00	0.00	Few_Showers(fog)	True	False	0.00
2010-06-23 05:00:00 31012 5 0.23 0.23 0.23 0.0 1.80	12.8404669261	0.23	0.00	Few_Showers(fair)	True	False	0.00
2010-06-23 06:00:00 31013 6 9.44 9.44 9.44 38.9 73.50	12.8404669261	9.44	38.90	Few_Showers(fog)	True	False	38.90
2010-06-23 07:00:00 31014 7 166.35 166.35 166.35 177.7 220.30	75.5102040816	166.35	177.70	Partly_Cloudy(sunny)	True	False	177.70
2010-06-23 08:00:00 31015 8 366.60 366.60 366.60 385.3 485.50	75.5102040816	366.60	385.30	Partly_Cloudy(sunny)	True	False	385.30
2010-06-23 09:00:00 31016 9 524.34 524.34 524.34 538.4 694.40	75.5102040816	524.34	538.40	Partly_Cloudy(sunny)	True	False	538.40
2010-06-23 10:00:00 31017 10 701.94 701.94 701.94 677.6 929.60	75.5102040816	701.94	677.60	Mostly_Sunny(sunny)	False	False	677.60
2010-06-23 11:00:00 31018 11 712.97 712.97 712.97 608.3 944.20	75.5102040816	712.97	608.30	Mostly_Sunny(fair)	False	False	608.30
2010-06-23 12:00:00 31019 12 708.89 708.89 708.89 781.6 938.80	75.5102040816	708.89	781.60	Mostly_Sunny(fair)	False	False	781.60
2010-06-23 13:00:00 31020 13 827.52 827.52 827.52 852.3 995.60	83.1179834781	827.52	852.30	Partly_Cloudy(partly_cloudy)	True	False	852.30
2010-06-23 14:00:00 31021 14 790.37 790.37 790.37 689.7 950.90	83.1179834781	790.37	689.70	Partly_Cloudy(fair)	True	False	689.70
2010-06-23 15:00:00 31022 15 657.88 657.88 657.88 658.5 791.50	83.1179834781	657.88	658.50	Partly_Cloudy(partly_cloudy)	True	False	658.50
2010-06-23 16:00:00 31023 16 514.83 514.83 514.83 532.5 681.80	75.5102040816	514.83	532.50	Partly_Cloudy(partly_cloudy)	True	False	532.50
2010-06-23 17:00:00 31024 17 364.49 364.49 364.49 330.9 482.70	75.5102040816	364.49	330.90	Partly_Cloudy(sunny)	True	False	330.90
2010-06-23 18:00:00 31025 18 161.74 161.74 161.74 131.7 214.20	75.5102040816	161.74	131.70	Partly_Cloudy(fair)	True	False	131.70
2010-06-23 19:00:00 31026 19 61.47 61.47 61.47 31.2 81.40	75.5102040816	61.47	31.20	Partly_Cloudy(sunny)	True	False	31.20
2010-06-23 20:00:00 31027 20 5.06 5.06 5.06 1.0 6.70	75.5102040816	5.06	1.00	Partly_Cloudy(sunny)	True	False	1.00
2010-06-23 21:00:00 31028 21 0.00 0.00 0.00 0.0 0.00	75.5102040816	0.00	0.00	Partly_Cloudy(clear)	True	False	0.00
2010-06-23 22:00:00 31029 22 0.00 0.00 0.00 0.0 0.00	65.672260203	0.00	0.00	Mostly_Cloudy(clear)	True	False	0.00
2010-06-23 23:00:00 31030 23 0.00 0.00 0.00 0.0 0.00	65.672260203	0.00	0.00	Mostly_Cloudy(partly_cloudy)	True	False	0.00
2010-06-24 00:00:00 31031 0 0.00 0.00 0.00 0.0 0.00	65.672260203	0.00	0.00	Mostly_Cloudy(clear)	True	False	0.00
2010-06-24 01:00:00 31032 1 0.00 0.00 0.00 0.0 0.00	12.8404669261	0.00	0.00	Isolated_T-Storms(clear)	True	False	0.00
2010-06-24 02:00:00 31033 2 0.00 0.00 0.00 0.0 0.00	12.8404669261	0.00	0.00	Isolated_T-Storms(partly_cloudy)	True	False	0.00
2010-06-24 03:00:00 31034 3 0.00 0.00 0.00 0.0 0.00	12.8404669261	0.00	0.00	Isolated_T-Storms(mostly_cloudy)	True	False	0.00
