2010-05-29 18:00:00 3497 18 186.06 186.06 186.06 134.0 195.70	12.6215390314	186.06	134.00	Scattered_T-Storms(mostly_cloudy)	True	False	134.00
2010-05-29 19:00:00 3498 19 41.43 41.43 41.43 46.7 60.50	12.6215390314	41.43	46.70	Isolated_T-Storms(fair)	True	False	46.70
2010-05-29 20:00:00 3499 20 0.18 0.96 0.96 0.0 1.40	12.6215390314	0.96	0.00	Isolated_T-Storms(partly_cloudy)	True	False	0.00
2010-05-29 21:00:00 3500 21 0.00 0.00 0.00 0.0 0.00	12.6215390314	0.00	0.00	Isolated_T-Storms(fair)	True	False	0.00
2010-05-29 22:00:00 3501 22 0.00 0.00 0.00 0.0 0.00	12.6215390314	0.00	0.00	Few_Showers(light_rain)	True	False	0.00
2010-05-29 23:00:00 3502 23 0.00 0.00 0.00 0.0 0.00	12.6215390314	0.00	0.00	Few_Showers(cloudy)	True	False	0.00
2010-05-30 00:00:00 3503 0 0.00 0.00 0.00 0.0 0.00	12.6215390314	0.00	0.00	Few_Showers(partly_cloudy)	True	False	0.00
2010-05-30 01:00:00 3504 1 0.00 0.00 0.00 0.0 0.00	78.9788933257	0.00	0.00	Partly_Cloudy(fog)	True	False	0.00
2010-05-30 02:00:00 3505 2 0.00 0.00 0.00 0.0 0.00	78.9788933257	0.00	0.00	Partly_Cloudy(fog)	True	False	0.00
2010-05-30 03:00:00 3506 3 0.00 0.00 0.00 0.0 0.00	78.9788933257	0.00	0.00	Partly_Cloudy(fog)	True	False	0.00
2010-05-30 04:00:00 3507 4 0.00 0.00 0.00 0.0 0.00	78.9788933257	0.00	0.00	Partly_Cloudy(fog)	True	False	0.00
2010-05-30 05:00:00 3508 5 0.55 0.55 0.55 0.0 0.70	78.9788933257	0.55	0.00	Partly_Cloudy(sunny)	True	False	0.00
2010-05-30 06:00:00 3509 6 57.42 57.42 57.42 58.3 72.70	78.9788933257	57.42	58.30	Partly_Cloudy(fog)	True	False	58.30
2010-05-30 07:00:00 3510 7 211.90 211.90 211.90 248.5 268.30	78.9788933257	211.90	248.50	Partly_Cloudy(sunny)	True	False	248.50
2010-05-30 08:00:00 3511 8 420.01 420.01 420.01 531.8 531.80	78.9788933257	420.01	531.80	Partly_Cloudy(sunny)	True	False	531.80
2010-05-30 09:00:00 3512 9 608.14 608.14 608.14 720.1 770.00	78.9788933257	608.14	720.10	Partly_Cloudy(sunny)	True	False	720.10
2010-05-30 10:00:00 3513 10 919.07 919.07 919.07 928.4 966.70	95.0730647709	919.07	928.40	Sunny(sunny)	True	False	928.40
2010-05-30 11:00:00 3514 11 999.98 999.98 999.98 1051.8 1051.80	95.0730647709	999.98	1051.80	Sunny(sunny)	True	False	1051.80
2010-05-30 12:00:00 3515 12 1040.29 1040.29 1040.29 1094.2 1094.20	95.0730647709	1040.29	1094.20	Sunny(sunny)	True	False	1094.20
2010-05-30 13:00:00 3516 13 1026.69 1026.69 1026.69 1079.9 1079.90	95.0730647709	1026.69	1079.90	Mostly_Sunny(sunny)	False	False	1079.90
2010-05-30 14:00:00 3517 14 962.90 962.90 962.90 1012.8 1012.80	95.0730647709	962.90	1012.80	Mostly_Sunny(sunny)	False	False	1012.80
2010-05-30 15:00:00 3518 15 849.19 849.19 849.19 883.5 893.20	95.0730647709	849.19	883.50	Mostly_Sunny(sunny)	False	False	883.50
2010-05-30 16:00:00 3519 16 618.80 618.80 618.80 690.5 716.10	86.412512219	618.80	690.50	Sunny(sunny)	True	False	690.50
2010-05-30 17:00:00 3520 17 418.93 418.93 418.93 419.6 484.80	86.412512219	418.93	419.60	Sunny(sunny)	True	False	419.60
2010-05-30 18:00:00 3521 18 169.11 169.11 169.11 161.0 195.70	86.412512219	169.11	161.00	Sunny(sunny)	True	False	161.00
2010-05-30 19:00:00 3522 19 52.28 52.28 52.28 26.7 60.50	86.412512219	52.28	26.70	Sunny(sunny)	True	False	26.70
2010-05-30 20:00:00 3523 20 1.21 1.21 1.21 0.7 1.40	86.412512219	1.21	0.70	Sunny(sunny)	True	False	0.70
2010-05-30 21:00:00 3524 21 0.00 0.00 0.00 0.0 0.00	86.412512219	0.00	0.00	Clear(clear)	True	False	0.00
2010-05-30 22:00:00 3525 22 0.00 0.00 0.00 0.0 0.00	86.412512219	0.00	0.00	Clear(fair)	True	False	0.00
2010-05-30 23:00:00 3526 23 0.00 0.00 0.00 0.0 0.00	86.412512219	0.00	0.00	Clear(clear)	True	False	0.00
2010-05-31 00:00:00 3527 0 0.00 0.00 0.00 0.0 0.00	86.412512219	0.00	0.00	Clear(clear)	True	False	0.00
2010-05-31 01:00:00 3528 1 0.00 0.00 0.00 0.0 0.00	86.412512219	0.00	0.00	Clear(clear)	True	False	0.00
2010-05-31 02:00:00 3529 2 0.00 0.00 0.00 0.0 0.00	86.412512219	0.00	0.00	Clear(clear)	True	False	0.00
2010-05-31 03:00:00 3530 3 0.00 0.00 0.00 0.0 0.00	86.412512219	0.00	0.00	Clear(clear)	True	False	0.00
2010-05-31 04:00:00 3531 4 0.00 0.00 0.00 0.0 0.00	86.412512219	0.00	0.00	Clear(clear)	True	False	0.00
2010-05-31 05:00:00 3532 5 0.60 0.60 0.60 0.0 0.70	86.412512219	0.60	0.00	Clear(sunny)	True	False	0.00
2010-05-31 06:00:00 3533 6 62.82 62.82 62.82 48.1 72.70	86.412512219	62.82	48.10	Sunny(sunny)	True	False	48.10
2010-05-31 07:00:00 3534 7 231.84 231.84 231.84 228.2 268.30	86.412512219	231.84	228.20	Sunny(sunny)	True	False	228.20
2010-05-31 08:00:00 3535 8 459.54 459.54 459.54 491.2 531.80	86.412512219	459.54	491.20	Sunny(sunny)	True	False	491.20
2010-05-31 09:00:00 3536 9 665.38 665.38 665.38 720.4 770.00	86.412512219	665.38	720.40	Sunny(sunny)	True	False	720.40
2010-05-31 10:00:00 3537 10 919.07 919.07 919.07 882.6 966.70	95.0730647709	919.07	882.60	Sunny(sunny)	True	False	882.60
2010-05-31 11:00:00 3538 11 999.98 999.98 999.98 982.4 1051.80	95.0730647709	999.98	982.40	Sunny(sunny)	True	False	982.40
2010-05-31 12:00:00 3539 12 1040.29 1040.29 1040.29 1030.3 1094.20	95.0730647709	1040.29	1030.30	Sunny(sunny)	True	False	1030.30
2010-05-31 13:00:00 3540 13 1026.69 1026.69 1026.69 896.5 1079.90	95.0730647709	1026.69	896.50	Sunny(sunny)	True	False	896.50
2010-05-31 14:00:00 3541 14 962.90 962.90 962.90 887.0 1012.80	95.0730647709	962.90	887.00	Sunny(fair)	True	False	887.00
2010-05-31 15:00:00 3542 15 849.19 849.19 849.19 846.8 893.20	95.0730647709	849.19	846.80	Sunny(sunny)	True	False	846.80
2010-05-31 16:00:00 3543 16 680.82 680.82 680.82 538.5 716.10	95.0730647709	680.82	538.50	Mostly_Sunny(fair)	False	False	538.50
2010-05-31 17:00:00 3544 17 460.91 460.91 460.91 60.9 484.80	95.0730647709	460.91	60.90	Mostly_Sunny(fair)	False	False	60.90
2010-05-31 18:00:00 3545 18 186.06 186.06 186.06 213.0 195.70	95.0730647709	186.06	213.00	Mostly_Sunny(thunder)	False	False	213.00
