2010-06-12 23:00:00 20206 23 0.00 0.00 0.00 0.0 0.00	12.6215390314	0.00	0.00	Scattered_T-Storms(clear)	True	False	0.00
2010-06-13 00:00:00 20207 0 0.00 0.00 0.00 0.0 0.00	12.6215390314	0.00	0.00	Scattered_T-Storms(clear)	True	False	0.00
2010-06-13 01:00:00 20208 1 0.00 0.00 0.00 0.0 0.00	12.6215390314	0.00	0.00	Scattered_T-Storms(clear)	True	False	0.00
2010-06-13 02:00:00 20209 2 0.00 0.00 0.00 0.0 0.00	12.6215390314	0.00	0.00	Scattered_T-Storms(mostly_cloudy)	True	False	0.00
2010-06-13 03:00:00 20210 3 0.00 0.00 0.00 0.0 0.00	12.6215390314	0.00	0.00	Scattered_T-Storms(clear)	True	False	0.00
2010-06-13 04:00:00 20211 4 0.00 0.00 0.00 0.0 0.00	12.6215390314	0.00	0.00	Isolated_T-Storms(fair)	True	False	0.00
2010-06-13 05:00:00 20212 5 0.23 0.23 0.23 0.0 1.80	12.6215390314	0.23	0.00	Isolated_T-Storms(cloudy)	True	False	0.00
2010-06-13 06:00:00 20213 6 9.28 9.28 9.28 14.8 73.50	12.6215390314	9.28	14.80	Isolated_T-Storms(partly_cloudy)	True	False	14.80
2010-06-13 07:00:00 20214 7 31.36 31.36 31.36 156.1 248.50	12.6215390314	31.36	156.10	Isolated_T-Storms(partly_cloudy)	True	False	156.10
2010-06-13 08:00:00 20215 8 67.12 67.12 67.12 333.0 531.80	12.6215390314	67.12	333.00	Isolated_T-Storms(partly_cloudy)	True	False	333.00
2010-06-13 09:00:00 20216 9 90.89 90.89 90.89 670.4 720.10	12.6215390314	90.89	670.40	Isolated_T-Storms(partly_cloudy)	True	False	670.40
2010-06-13 10:00:00 20217 10 117.33 117.33 117.33 814.2 929.60	12.6215390314	117.33	814.20	Isolated_T-Storms(sunny)	True	False	814.20
2010-06-13 11:00:00 20218 11 132.75 132.75 132.75 751.8 1051.80	12.6215390314	132.75	751.80	Isolated_T-Storms(sunny)	True	False	751.80
2010-06-13 12:00:00 20219 12 138.10 138.10 138.10 826.3 1094.20	12.6215390314	138.10	826.30	Isolated_T-Storms(partly_cloudy)	True	False	826.30
2010-06-13 13:00:00 20220 13 136.30 136.30 136.30 778.2 1079.90	12.6215390314	136.30	778.20	Isolated_T-Storms(partly_cloudy)	True	False	778.20
2010-06-13 14:00:00 20221 14 127.83 127.83 127.83 353.6 1012.80	12.6215390314	127.83	353.60	Isolated_T-Storms(light_rain)	True	False	353.60
2010-06-13 15:00:00 20222 15 111.51 111.51 111.51 44.6 883.50	12.6215390314	111.51	44.60	Isolated_T-Storms(light_rain)	True	False	44.60
2010-06-13 16:00:00 20223 16 90.38 90.38 90.38 341.9 716.10	12.6215390314	90.38	341.90	Isolated_T-Storms(light_rain)	True	False	341.90
2010-06-13 17:00:00 20224 17 53.82 53.82 53.82 61.0 426.40	12.6215390314	53.82	61.00	Isolated_T-Storms(cloudy)	True	False	61.00
2010-06-13 18:00:00 20225 18 27.04 27.04 27.04 44.4 214.20	12.6215390314	27.04	44.40	Isolated_T-Storms(heavy_rain)	True	False	44.40
2010-06-13 19:00:00 20226 19 32.50 32.50 32.50 21.7 53.40	60.861423221	32.50	21.70	Mostly_Cloudy(light_rain)	True	False	21.70
2010-06-13 20:00:00 20227 20 2.13 2.13 2.13 0.2 3.50	60.861423221	2.13	0.20	Mostly_Cloudy(fog)	True	False	0.20
2010-06-13 21:00:00 20228 21 0.00 0.00 0.00 0.0 0.00	60.861423221	0.00	0.00	Mostly_Cloudy(cloudy)	True	False	0.00
2010-06-13 22:00:00 20229 22 0.00 0.00 0.00 0.0 0.00	60.861423221	0.00	0.00	Mostly_Cloudy(cloudy)	True	False	0.00
2010-06-13 23:00:00 20230 23 0.00 0.00 0.00 0.0 0.00	60.861423221	0.00	0.00	Mostly_Cloudy(fog)	True	False	0.00
2010-06-14 00:00:00 20231 0 0.00 0.00 0.00 0.0 0.00	60.861423221	0.00	0.00	Mostly_Cloudy(rain)	True	False	0.00
2010-06-14 01:00:00 20232 1 0.00 0.00 0.00 0.0 0.00	60.861423221	0.00	0.00	Mostly_Cloudy(fog)	True	False	0.00
2010-06-14 02:00:00 20233 2 0.00 0.00 0.00 0.0 0.00	60.861423221	0.00	0.00	Mostly_Cloudy(cloudy)	True	False	0.00
2010-06-14 03:00:00 20234 3 0.00 0.00 0.00 0.0 0.00	60.861423221	0.00	0.00	Mostly_Cloudy(fog)	True	False	0.00
2010-06-14 04:00:00 20235 4 0.00 0.00 0.00 0.0 0.00	42.6852200075	0.00	0.00	Cloudy(cloudy)	True	False	0.00
2010-06-14 05:00:00 20236 5 0.77 0.77 0.77 0.0 1.80	42.6852200075	0.77	0.00	Cloudy(cloudy)	True	False	0.00
2010-06-14 06:00:00 20237 6 31.37 31.37 31.37 16.1 73.50	42.6852200075	31.37	16.10	Cloudy(light_rain)	True	False	16.10
2010-06-14 07:00:00 20238 7 106.07 106.07 106.07 76.0 248.50	42.6852200075	106.07	76.00	Cloudy(fog)	True	False	76.00
2010-06-14 08:00:00 20239 8 227.00 227.00 227.00 110.9 531.80	42.6852200075	227.00	110.90	Cloudy(cloudy)	True	False	110.90
2010-06-14 09:00:00 20240 9 307.38 307.38 307.38 168.0 720.10	42.6852200075	307.38	168.00	Cloudy(cloudy)	True	False	168.00
2010-06-14 10:00:00 20241 10 514.91 514.91 514.91 287.6 929.60	55.3907586994	514.91	287.60	Mostly_Cloudy(cloudy)	True	False	287.60
2010-06-14 11:00:00 20242 11 582.60 582.60 582.60 320.2 1051.80	55.3907586994	582.60	320.20	Mostly_Cloudy(cloudy)	True	False	320.20
2010-06-14 12:00:00 20243 12 606.09 606.09 606.09 489.2 1094.20	55.3907586994	606.09	489.20	Mostly_Cloudy(cloudy)	True	False	489.20
2010-06-14 13:00:00 20244 13 598.16 598.16 598.16 755.2 1079.90	55.3907586994	598.16	755.20	Mostly_Cloudy(cloudy)	True	False	755.20
2010-06-14 14:00:00 20245 14 561.00 561.00 561.00 653.5 1012.80	55.3907586994	561.00	653.50	Mostly_Cloudy(mostly_cloudy)	True	False	653.50
2010-06-14 15:00:00 20246 15 489.38 489.38 489.38 444.1 883.50	55.3907586994	489.38	444.10	Mostly_Cloudy(cloudy)	True	False	444.10
2010-06-14 16:00:00 20247 16 90.38 90.38 90.38 412.2 716.10	12.6215390314	90.38	412.20	Scattered_T-Storms(mostly_cloudy)	True	False	412.20
2010-06-14 17:00:00 20248 17 53.82 53.82 53.82 211.2 426.40	12.6215390314	53.82	211.20	Scattered_T-Storms(partly_cloudy)	True	False	211.20
2010-06-14 18:00:00 20249 18 27.04 27.04 27.04 97.6 214.20	12.6215390314	27.04	97.60	Scattered_T-Storms(cloudy)	True	False	97.60
2010-06-14 19:00:00 20250 19 6.74 6.74 6.74 47.7 53.40	12.6215390314	6.74	47.70	Scattered_T-Storms(mostly_cloudy)	True	False	47.70
2010-06-14 20:00:00 20251 20 0.44 0.44 0.44 2.5 3.50	12.6215390314	0.44	2.50	Scattered_T-Storms(partly_cloudy)	True	False	2.50
2010-06-14 21:00:00 20252 21 0.00 0.00 0.00 0.0 0.00	12.6215390314	0.00	0.00	Scattered_T-Storms(clear)	True	False	0.00
2010-06-14 22:00:00 20253 22 0.00 0.00 0.00 0.0 0.00	12.6215390314	0.00	0.00	Few_Showers(clear)	True	False	0.00
2010-06-14 23:00:00 20254 23 0.00 0.00 0.00 0.0 0.00	12.6215390314	0.00	0.00	Few_Showers(clear)	True	False	0.00
