2010-05-29 06:00:00 2909 6 9.18 9.18 9.18 0.0 72.70	12.6215390314	9.18	0.00	Few_Showers(cloudy)	True	False	0.00
2010-05-29 07:00:00 2910 7 167.32 167.32 167.32 11.9 268.30	62.3617693523	167.32	11.90	Mostly_Cloudy(light_rain)	True	False	11.90
2010-05-29 08:00:00 2911 8 331.64 331.64 331.64 52.6 531.80	62.3617693523	331.64	52.60	Mostly_Cloudy(cloudy)	True	False	52.60
2010-05-29 09:00:00 2912 9 480.19 480.19 480.19 239.4 770.00	62.3617693523	480.19	239.40	Mostly_Cloudy(cloudy)	True	False	239.40
2010-05-29 10:00:00 2913 10 132.10 132.10 132.10 598.2 966.70	13.6650460329	132.10	598.20	Showers(cloudy)	True	False	598.20
2010-05-29 11:00:00 2914 11 143.73 143.73 143.73 805.2 1051.80	13.6650460329	143.73	805.20	Showers(cloudy)	True	False	805.20
2010-05-29 12:00:00 2915 12 149.52 149.52 149.52 899.1 1094.20	13.6650460329	149.52	899.10	Showers(cloudy)	True	False	899.10
2010-05-29 13:00:00 2916 13 136.30 136.30 136.30 630.3 1079.90	12.6215390314	136.30	630.30	Scattered_T-Storms(mostly_cloudy)	True	False	630.30
2010-05-29 14:00:00 2917 14 127.83 127.83 127.83 413.4 1012.80	12.6215390314	127.83	413.40	Scattered_T-Storms(cloudy)	True	False	413.40
2010-05-29 15:00:00 2918 15 112.74 112.74 112.74 658.7 893.20	12.6215390314	112.74	658.70	Scattered_T-Storms(cloudy)	True	False	658.70
2010-05-29 16:00:00 2919 16 90.38 90.38 90.38 530.7 716.10	12.6215390314	90.38	530.70	Scattered_T-Storms(fair)	True	False	530.70
2010-05-29 17:00:00 2920 17 61.19 61.19 61.19 345.7 484.80	12.6215390314	61.19	345.70	Scattered_T-Storms(partly_cloudy)	True	False	345.70
2010-05-29 18:00:00 2921 18 24.70 24.70 24.70 134.0 195.70	12.6215390314	24.70	134.00	Scattered_T-Storms(mostly_cloudy)	True	False	134.00
2010-05-29 19:00:00 2922 19 7.64 7.64 7.64 46.7 60.50	12.6215390314	7.64	46.70	Scattered_T-Storms(fair)	True	False	46.70
2010-05-29 20:00:00 2923 20 0.18 0.18 0.18 0.0 1.40	12.6215390314	0.18	0.00	Scattered_T-Storms(partly_cloudy)	True	False	0.00
2010-05-29 21:00:00 2924 21 0.00 0.00 0.00 0.0 0.00	12.6215390314	0.00	0.00	Scattered_T-Storms(fair)	True	False	0.00
2010-05-29 22:00:00 2925 22 0.00 0.00 0.00 0.0 0.00	12.6215390314	0.00	0.00	Few_Showers(light_rain)	True	False	0.00
2010-05-29 23:00:00 2926 23 0.00 0.00 0.00 0.0 0.00	12.6215390314	0.00	0.00	Few_Showers(cloudy)	True	False	0.00
2010-05-30 00:00:00 2927 0 0.00 0.00 0.00 0.0 0.00	12.6215390314	0.00	0.00	Few_Showers(partly_cloudy)	True	False	0.00
2010-05-30 01:00:00 2928 1 0.00 0.00 0.00 0.0 0.00	78.9788933257	0.00	0.00	Partly_Cloudy(fog)	True	False	0.00
2010-05-30 02:00:00 2929 2 0.00 0.00 0.00 0.0 0.00	78.9788933257	0.00	0.00	Partly_Cloudy(fog)	True	False	0.00
2010-05-30 03:00:00 2930 3 0.00 0.00 0.00 0.0 0.00	78.9788933257	0.00	0.00	Partly_Cloudy(fog)	True	False	0.00
2010-05-30 04:00:00 2931 4 0.00 0.00 0.00 0.0 0.00	78.9788933257	0.00	0.00	Partly_Cloudy(fog)	True	False	0.00
2010-05-30 05:00:00 2932 5 0.55 0.55 0.55 0.0 0.70	78.9788933257	0.55	0.00	Partly_Cloudy(sunny)	True	False	0.00
2010-05-30 06:00:00 2933 6 57.42 57.42 57.42 58.3 72.70	78.9788933257	57.42	58.30	Partly_Cloudy(fog)	True	False	58.30
2010-05-30 07:00:00 2934 7 211.90 211.90 211.90 248.5 268.30	78.9788933257	211.90	248.50	Partly_Cloudy(sunny)	True	False	248.50
2010-05-30 08:00:00 2935 8 420.01 420.01 420.01 531.8 531.80	78.9788933257	420.01	531.80	Partly_Cloudy(sunny)	True	False	531.80
2010-05-30 09:00:00 2936 9 608.14 608.14 608.14 720.1 770.00	78.9788933257	608.14	720.10	Partly_Cloudy(sunny)	True	False	720.10
2010-05-30 10:00:00 2937 10 919.07 919.07 919.07 928.4 966.70	95.0730647709	919.07	928.40	Sunny(sunny)	True	False	928.40
2010-05-30 11:00:00 2938 11 999.98 999.98 999.98 1051.8 1051.80	95.0730647709	999.98	1051.80	Sunny(sunny)	True	False	1051.80
2010-05-30 12:00:00 2939 12 1040.29 1040.29 1040.29 1094.2 1094.20	95.0730647709	1040.29	1094.20	Sunny(sunny)	True	False	1094.20
2010-05-30 13:00:00 2940 13 1026.69 1026.69 1026.69 1079.9 1079.90	95.0730647709	1026.69	1079.90	Sunny(sunny)	True	False	1079.90
2010-05-30 14:00:00 2941 14 962.90 962.90 962.90 1012.8 1012.80	95.0730647709	962.90	1012.80	Sunny(sunny)	True	False	1012.80
2010-05-30 15:00:00 2942 15 849.19 849.19 849.19 883.5 893.20	95.0730647709	849.19	883.50	Sunny(sunny)	True	False	883.50
2010-05-30 16:00:00 2943 16 618.80 618.80 618.80 690.5 716.10	86.412512219	618.80	690.50	Sunny(sunny)	True	False	690.50
2010-05-30 17:00:00 2944 17 418.93 418.93 418.93 419.6 484.80	86.412512219	418.93	419.60	Sunny(sunny)	True	False	419.60
2010-05-30 18:00:00 2945 18 169.11 169.11 169.11 161.0 195.70	86.412512219	169.11	161.00	Sunny(sunny)	True	False	161.00
2010-05-30 19:00:00 2946 19 52.28 52.28 52.28 26.7 60.50	86.412512219	52.28	26.70	Sunny(sunny)	True	False	26.70
2010-05-30 20:00:00 2947 20 1.21 1.21 1.21 0.7 1.40	86.412512219	1.21	0.70	Sunny(sunny)	True	False	0.70
2010-05-30 21:00:00 2948 21 0.00 0.00 0.00 0.0 0.00	86.412512219	0.00	0.00	Clear(clear)	True	False	0.00
2010-05-30 22:00:00 2949 22 0.00 0.00 0.00 0.0 0.00	78.9788933257	0.00	0.00	Partly_Cloudy(fair)	True	False	0.00
2010-05-30 23:00:00 2950 23 0.00 0.00 0.00 0.0 0.00	78.9788933257	0.00	0.00	Partly_Cloudy(clear)	True	False	0.00
2010-05-31 00:00:00 2951 0 0.00 0.00 0.00 0.0 0.00	78.9788933257	0.00	0.00	Partly_Cloudy(clear)	True	False	0.00
2010-05-31 01:00:00 2952 1 0.00 0.00 0.00 0.0 0.00	78.9788933257	0.00	0.00	Mostly_Clear(clear)	False	False	0.00
2010-05-31 02:00:00 2953 2 0.00 0.00 0.00 0.0 0.00	78.9788933257	0.00	0.00	Mostly_Clear(clear)	False	False	0.00
2010-05-31 03:00:00 2954 3 0.00 0.00 0.00 0.0 0.00	78.9788933257	0.00	0.00	Mostly_Clear(clear)	False	False	0.00
2010-05-31 04:00:00 2955 4 0.00 0.00 0.00 0.0 0.00	78.9788933257	0.00	0.00	Mostly_Clear(clear)	False	False	0.00
2010-05-31 05:00:00 2956 5 0.55 0.55 0.55 0.0 0.70	78.9788933257	0.55	0.00	Mostly_Clear(sunny)	False	False	0.00
2010-05-31 06:00:00 2957 6 57.42 57.42 57.42 48.1 72.70	78.9788933257	57.42	48.10	Mostly_Sunny(sunny)	False	False	48.10
