2010-06-06 05:00:00 12268 5 0.22 0.22 0.22 0.0 1.80	12.0556872038	0.22	0.00	Few_Showers(sunny)	True	False	0.00
2010-06-06 06:00:00 12269 6 8.86 8.86 8.86 59.8 73.50	12.0556872038	8.86	59.80	Few_Showers(sunny)	True	False	59.80
2010-06-06 07:00:00 12270 7 29.96 29.96 29.96 153.2 248.50	12.0556872038	29.96	153.20	Scattered_T-Storms(mostly_cloudy)	True	False	153.20
2010-06-06 08:00:00 12271 8 64.11 64.11 64.11 364.9 531.80	12.0556872038	64.11	364.90	Scattered_T-Storms(mostly_cloudy)	True	False	364.90
2010-06-06 09:00:00 12272 9 91.55 91.55 91.55 629.6 759.40	12.0556872038	91.55	629.60	Scattered_T-Storms(partly_cloudy)	True	False	629.60
2010-06-06 10:00:00 12273 10 112.07 112.07 112.07 792.2 929.60	12.0556872038	112.07	792.20	Isolated_T-Storms(partly_cloudy)	True	False	792.20
2010-06-06 11:00:00 12274 11 126.80 126.80 126.80 812.8 1051.80	12.0556872038	126.80	812.80	Isolated_T-Storms(partly_cloudy)	True	False	812.80
2010-06-06 12:00:00 12275 12 131.91 131.91 131.91 875.5 1094.20	12.0556872038	131.91	875.50	Isolated_T-Storms(partly_cloudy)	True	False	875.50
2010-06-06 13:00:00 12276 13 130.19 130.19 130.19 708.8 1079.90	12.0556872038	130.19	708.80	Scattered_T-Storms(partly_cloudy)	True	False	708.80
2010-06-06 14:00:00 12277 14 122.10 122.10 122.10 515.1 1012.80	12.0556872038	122.10	515.10	Scattered_T-Storms(mostly_cloudy)	True	False	515.10
2010-06-06 15:00:00 12278 15 107.68 107.68 107.68 451.2 893.20	12.0556872038	107.68	451.20	Scattered_T-Storms(mostly_cloudy)	True	False	451.20
2010-06-06 16:00:00 12279 16 86.33 86.33 86.33 357.2 716.10	12.0556872038	86.33	357.20	Scattered_Strong_Storms(heavy_rain)	True	False	357.20
2010-06-06 17:00:00 12280 17 50.59 50.59 50.59 407.5 419.60	12.0556872038	50.59	407.50	Scattered_Strong_Storms(mostly_cloudy)	True	False	407.50
2010-06-06 18:00:00 12281 18 25.82 25.82 25.82 154.5 214.20	12.0556872038	25.82	154.50	Scattered_Strong_Storms(partly_cloudy)	True	False	154.50
2010-06-06 19:00:00 12282 19 6.44 6.44 6.44 39.1 53.40	12.0556872038	6.44	39.10	Isolated_T-Storms(fair)	True	False	39.10
2010-06-06 20:00:00 12283 20 0.34 0.34 0.34 1.3 2.80	12.0556872038	0.34	1.30	Isolated_T-Storms(partly_cloudy)	True	False	1.30
2010-06-06 21:00:00 12284 21 0.00 0.00 0.00 0.0 0.00	12.0556872038	0.00	0.00	Isolated_T-Storms(clear)	True	False	0.00
2010-06-06 22:00:00 12285 22 0.00 0.00 0.00 0.0 0.00	82.3879885605	0.00	0.00	Partly_Cloudy(clear)	True	False	0.00
2010-06-06 23:00:00 12286 23 0.00 0.00 0.00 0.0 0.00	82.3879885605	0.00	0.00	Partly_Cloudy(clear)	True	False	0.00
2010-06-07 00:00:00 12287 0 0.00 0.00 0.00 0.0 0.00	82.3879885605	0.00	0.00	Partly_Cloudy(partly_cloudy)	True	False	0.00
2010-06-07 01:00:00 12288 1 0.00 0.00 0.00 0.0 0.00	85.7142857143	0.00	0.00	Clear(fair)	True	False	0.00
2010-06-07 02:00:00 12289 2 0.00 0.00 0.00 0.0 0.00	85.7142857143	0.00	0.00	Clear(clear)	True	False	0.00
2010-06-07 03:00:00 12290 3 0.00 0.00 0.00 0.0 0.00	85.7142857143	0.00	0.00	Clear(clear)	True	False	0.00
2010-06-07 04:00:00 12291 4 0.00 0.00 0.00 0.0 0.00	85.7142857143	0.00	0.00	Clear(clear)	True	False	0.00
2010-06-07 05:00:00 12292 5 1.54 1.54 1.54 0.7 1.80	85.7142857143	1.54	0.70	Clear(sunny)	True	False	0.70
2010-06-07 06:00:00 12293 6 63.00 63.00 63.00 45.9 73.50	85.7142857143	63.00	45.90	Sunny(sunny)	True	False	45.90
2010-06-07 07:00:00 12294 7 213.00 213.00 213.00 235.5 248.50	85.7142857143	213.00	235.50	Sunny(sunny)	True	False	235.50
2010-06-07 08:00:00 12295 8 455.83 455.83 455.83 526.3 531.80	85.7142857143	455.83	526.30	Sunny(sunny)	True	False	526.30
2010-06-07 09:00:00 12296 9 650.91 650.91 650.91 781.2 759.40	85.7142857143	650.91	781.20	Sunny(sunny)	True	False	781.20
2010-06-07 10:00:00 12297 10 883.80 883.80 883.80 967.4 929.60	95.0730647709	883.80	967.40	Sunny(sunny)	True	False	967.40
2010-06-07 11:00:00 12298 11 999.98 999.98 999.98 906.7 1051.80	95.0730647709	999.98	906.70	Sunny(sunny)	True	False	906.70
2010-06-07 12:00:00 12299 12 1040.29 1040.29 1040.29 864.9 1094.20	95.0730647709	1040.29	864.90	Sunny(partly_cloudy)	True	False	864.90
2010-06-07 13:00:00 12300 13 1026.69 1026.69 1026.69 563.7 1079.90	95.0730647709	1026.69	563.70	Sunny(mostly_cloudy)	True	False	563.70
2010-06-07 14:00:00 12301 14 962.90 962.90 962.90 638.8 1012.80	95.0730647709	962.90	638.80	Sunny(mostly_cloudy)	True	False	638.80
2010-06-07 15:00:00 12302 15 849.19 849.19 849.19 761.9 893.20	95.0730647709	849.19	761.90	Sunny(mostly_cloudy)	True	False	761.90
2010-06-07 16:00:00 12303 16 613.80 613.80 613.80 551.8 716.10	85.7142857143	613.80	551.80	Sunny(mostly_cloudy)	True	False	551.80
2010-06-07 17:00:00 12304 17 359.66 359.66 359.66 381.9 419.60	85.7142857143	359.66	381.90	Sunny(sunny)	True	False	381.90
2010-06-07 18:00:00 12305 18 183.60 183.60 183.60 182.0 214.20	85.7142857143	183.60	182.00	Sunny(mostly_cloudy)	True	False	182.00
2010-06-07 19:00:00 12306 19 45.77 45.77 45.77 35.4 53.40	85.7142857143	45.77	35.40	Sunny(sunny)	True	False	35.40
2010-06-07 20:00:00 12307 20 2.40 2.40 2.40 1.8 2.80	85.7142857143	2.40	1.80	Sunny(sunny)	True	False	1.80
2010-06-07 21:00:00 12308 21 0.00 0.00 0.00 0.0 0.00	85.7142857143	0.00	0.00	Clear(clear)	True	False	0.00
2010-06-07 22:00:00 12309 22 0.00 0.00 0.00 0.0 0.00	85.7142857143	0.00	0.00	Clear(clear)	True	False	0.00
2010-06-07 23:00:00 12310 23 0.00 0.00 0.00 0.0 0.00	85.7142857143	0.00	0.00	Clear(clear)	True	False	0.00
2010-06-08 00:00:00 12311 0 0.00 0.00 0.00 0.0 0.00	85.7142857143	0.00	0.00	Clear(partly_cloudy)	True	False	0.00
2010-06-08 01:00:00 12312 1 0.00 0.00 0.00 0.0 0.00	85.7142857143	0.00	0.00	Clear(mostly_cloudy)	True	False	0.00
2010-06-08 02:00:00 12313 2 0.00 0.00 0.00 0.0 0.00	85.7142857143	0.00	0.00	Clear(mostly_cloudy)	True	False	0.00
2010-06-08 03:00:00 12314 3 0.00 0.00 0.00 0.0 0.00	85.7142857143	0.00	0.00	Clear(partly_cloudy)	True	False	0.00
2010-06-08 04:00:00 12315 4 0.00 0.00 0.00 0.0 0.00	85.7142857143	0.00	0.00	Clear(fair)	True	False	0.00
2010-06-08 05:00:00 12316 5 1.54 1.54 1.54 1.8 1.80	85.7142857143	1.54	1.80	Clear(sunny)	True	False	1.80
