2010-06-22 05:00:00 31084 5 1.48 1.48 1.48 0.0 1.80	82.2389324296	1.48	0.00	Mostly_Clear(partly_cloudy)	False	False	0.00
2010-06-22 06:00:00 31085 6 55.50 55.50 55.50 45.9 73.50	75.5102040816	55.50	45.90	Partly_Cloudy(partly_cloudy)	True	False	45.90
2010-06-22 07:00:00 31086 7 166.35 166.35 166.35 182.7 220.30	75.5102040816	166.35	182.70	Partly_Cloudy(sunny)	True	False	182.70
2010-06-22 08:00:00 31087 8 366.60 366.60 366.60 369.8 485.50	75.5102040816	366.60	369.80	Partly_Cloudy(partly_cloudy)	True	False	369.80
2010-06-22 09:00:00 31088 9 524.34 524.34 524.34 533.2 694.40	75.5102040816	524.34	533.20	Partly_Cloudy(partly_cloudy)	True	False	533.20
2010-06-22 10:00:00 31089 10 772.66 772.66 772.66 696.1 929.60	83.1179834781	772.66	696.10	Partly_Cloudy(sunny)	True	False	696.10
2010-06-22 11:00:00 31090 11 784.80 784.80 784.80 779.6 944.20	83.1179834781	784.80	779.60	Partly_Cloudy(sunny)	True	False	779.60
2010-06-22 12:00:00 31091 12 780.31 780.31 780.31 594.7 938.80	83.1179834781	780.31	594.70	Partly_Cloudy(fair)	True	False	594.70
2010-06-22 13:00:00 31092 13 653.42 653.42 653.42 638.4 995.60	65.6303786575	653.42	638.40	Mostly_Cloudy(sunny)	True	False	638.40
2010-06-22 14:00:00 31093 14 624.08 624.08 624.08 506.2 950.90	65.6303786575	624.08	506.20	Mostly_Cloudy(partly_cloudy)	True	False	506.20
2010-06-22 15:00:00 31094 15 519.46 519.46 519.46 226.5 791.50	65.6303786575	519.46	226.50	Mostly_Cloudy(mostly_cloudy)	True	False	226.50
2010-06-22 16:00:00 31095 16 87.55 87.55 87.55 225.0 681.80	12.8404669261	87.55	225.00	Isolated_T-Storms(mostly_cloudy)	True	False	225.00
2010-06-22 17:00:00 31096 17 61.98 61.98 61.98 148.2 482.70	12.8404669261	61.98	148.20	Isolated_T-Storms(mostly_cloudy)	True	False	148.20
2010-06-22 18:00:00 31097 18 27.50 27.50 27.50 31.6 214.20	12.8404669261	27.50	31.60	Isolated_T-Storms(sunny)	True	False	31.60
2010-06-22 19:00:00 31098 19 10.45 10.45 10.45 3.6 81.40	12.8404669261	10.45	3.60	Scattered_T-Storms(heavy_t-storm)	True	False	3.60
2010-06-22 20:00:00 31099 20 0.86 0.86 0.86 4.6 6.70	12.8404669261	0.86	4.60	Scattered_T-Storms(mostly_cloudy)	True	False	4.60
2010-06-22 21:00:00 31100 21 0.00 0.00 0.00 0.0 0.00	12.8404669261	0.00	0.00	Scattered_T-Storms(fog)	True	False	0.00
2010-06-22 22:00:00 31101 22 0.00 0.00 0.00 0.0 0.00	12.8404669261	0.00	0.00	T-Storms(fog)	True	False	0.00
2010-06-22 23:00:00 31102 23 0.00 0.00 0.00 0.0 0.00	12.8404669261	0.00	0.00	T-Storms(fog)	True	False	0.00
2010-06-23 00:00:00 31103 0 0.00 0.00 0.00 0.0 0.00	12.8404669261	0.00	0.00	T-Storms(fog)	True	False	0.00
2010-06-23 01:00:00 31104 1 0.00 0.00 0.00 0.0 0.00	14.6676608436	0.00	0.00	Showers(fog)	True	False	0.00
2010-06-23 02:00:00 31105 2 0.00 0.00 0.00 0.0 0.00	14.6676608436	0.00	0.00	Showers(fog)	True	False	0.00
2010-06-23 03:00:00 31106 3 0.00 0.00 0.00 0.0 0.00	14.6676608436	0.00	0.00	Showers(fog)	True	False	0.00
2010-06-23 04:00:00 31107 4 0.00 0.00 0.00 0.0 0.00	14.6676608436	0.00	0.00	Mostly_Clear(fog)	False	False	0.00
2010-06-23 05:00:00 31108 5 0.26 0.26 0.26 0.0 1.80	14.6676608436	0.26	0.00	Mostly_Clear(fair)	False	False	0.00
2010-06-23 06:00:00 31109 6 10.78 10.78 10.78 38.9 73.50	14.6676608436	10.78	38.90	Mostly_Sunny(fog)	False	False	38.90
2010-06-23 07:00:00 31110 7 165.89 165.89 165.89 177.7 220.30	75.3024193548	165.89	177.70	Sunny(sunny)	True	False	177.70
2010-06-23 08:00:00 31111 8 365.59 365.59 365.59 385.3 485.50	75.3024193548	365.59	385.30	Sunny(sunny)	True	False	385.30
2010-06-23 09:00:00 31112 9 522.90 522.90 522.90 538.4 694.40	75.3024193548	522.90	538.40	Sunny(sunny)	True	False	538.40
2010-06-23 10:00:00 31113 10 764.49 764.49 764.49 677.6 929.60	82.2389324296	764.49	677.60	Sunny(sunny)	True	False	677.60
2010-06-23 11:00:00 31114 11 776.50 776.50 776.50 608.3 944.20	82.2389324296	776.50	608.30	Sunny(fair)	True	False	608.30
2010-06-23 12:00:00 31115 12 772.06 772.06 772.06 781.6 938.80	82.2389324296	772.06	781.60	Sunny(fair)	True	False	781.60
2010-06-23 13:00:00 31116 13 818.77 818.77 818.77 852.3 995.60	82.2389324296	818.77	852.30	Mostly_Sunny(partly_cloudy)	False	False	852.30
2010-06-23 14:00:00 31117 14 782.01 782.01 782.01 689.7 950.90	82.2389324296	782.01	689.70	Mostly_Sunny(fair)	False	False	689.70
2010-06-23 15:00:00 31118 15 650.92 650.92 650.92 658.5 791.50	82.2389324296	650.92	658.50	Mostly_Sunny(partly_cloudy)	False	False	658.50
2010-06-23 16:00:00 31119 16 514.83 514.83 514.83 532.5 681.80	75.5102040816	514.83	532.50	Partly_Cloudy(partly_cloudy)	True	False	532.50
2010-06-23 17:00:00 31120 17 364.49 364.49 364.49 330.9 482.70	75.5102040816	364.49	330.90	Partly_Cloudy(sunny)	True	False	330.90
2010-06-23 18:00:00 31121 18 161.74 161.74 161.74 131.7 214.20	75.5102040816	161.74	131.70	Partly_Cloudy(fair)	True	False	131.70
2010-06-23 19:00:00 31122 19 61.47 61.47 61.47 31.2 81.40	75.5102040816	61.47	31.20	Partly_Cloudy(sunny)	True	False	31.20
2010-06-23 20:00:00 31123 20 5.06 5.06 5.06 1.0 6.70	75.5102040816	5.06	1.00	Partly_Cloudy(sunny)	True	False	1.00
2010-06-23 21:00:00 31124 21 0.00 0.00 0.00 0.0 0.00	75.5102040816	0.00	0.00	Partly_Cloudy(clear)	True	False	0.00
2010-06-23 22:00:00 31125 22 0.00 0.00 0.00 0.0 0.00	65.672260203	0.00	0.00	Mostly_Cloudy(clear)	True	False	0.00
2010-06-23 23:00:00 31126 23 0.00 0.00 0.00 0.0 0.00	65.672260203	0.00	0.00	Mostly_Cloudy(partly_cloudy)	True	False	0.00
2010-06-24 00:00:00 31127 0 0.00 0.00 0.00 0.0 0.00	65.672260203	0.00	0.00	Mostly_Cloudy(clear)	True	False	0.00
2010-06-24 01:00:00 31128 1 0.00 0.00 0.00 0.0 0.00	12.8404669261	0.00	0.00	Isolated_T-Storms(clear)	True	False	0.00
2010-06-24 02:00:00 31129 2 0.00 0.00 0.00 0.0 0.00	12.8404669261	0.00	0.00	Isolated_T-Storms(partly_cloudy)	True	False	0.00
2010-06-24 03:00:00 31130 3 0.00 0.00 0.00 0.0 0.00	12.8404669261	0.00	0.00	Isolated_T-Storms(mostly_cloudy)	True	False	0.00
2010-06-24 04:00:00 31131 4 0.00 0.00 0.00 0.0 0.00	12.8404669261	0.00	0.00	Isolated_T-Storms(mostly_cloudy)	True	False	0.00
2010-06-24 05:00:00 31132 5 0.23 0.23 0.23 0.0 1.80	12.8404669261	0.23	0.00	Isolated_T-Storms(partly_cloudy)	True	False	0.00
