2010-06-12 13:00:00 19716 13 598.16 978.20 598.16 882.0 1079.90	55.3907586994	598.16	882.00	Mostly_Cloudy(mostly_cloudy)	True	False	882.00
2010-06-12 14:00:00 19717 14 561.00 827.20 827.20 686.9 1012.80	55.3907586994	827.20	686.90	Mostly_Cloudy(partly_cloudy)	True	False	686.90
2010-06-12 15:00:00 19718 15 489.38 721.59 721.59 645.9 883.50	55.3907586994	721.59	645.90	Mostly_Cloudy(partly_cloudy)	True	False	645.90
2010-06-12 16:00:00 19719 16 435.83 584.87 584.87 626.2 716.10	60.861423221	584.87	626.20	Mostly_Cloudy(sunny)	True	False	626.20
2010-06-12 17:00:00 19720 17 259.51 348.26 348.26 410.0 426.40	60.861423221	348.26	410.00	Mostly_Cloudy(fair)	True	False	410.00
2010-06-12 18:00:00 19721 18 130.37 174.95 174.95 160.5 214.20	60.861423221	174.95	160.50	Mostly_Cloudy(fair)	True	False	160.50
2010-06-12 19:00:00 19722 19 6.74 43.61 43.61 42.1 53.40	12.6215390314	43.61	42.10	Isolated_T-Storms(sunny)	True	False	42.10
2010-06-12 20:00:00 19723 20 0.44 2.86 2.86 2.2 3.50	12.6215390314	2.86	2.20	Isolated_T-Storms(fair)	True	False	2.20
2010-06-12 21:00:00 19724 21 0.00 0.00 0.00 0.0 0.00	12.6215390314	0.00	0.00	Isolated_T-Storms(fair)	True	False	0.00
2010-06-12 22:00:00 19725 22 0.00 0.00 0.00 0.0 0.00	12.6215390314	0.00	0.00	Scattered_T-Storms(partly_cloudy)	True	False	0.00
2010-06-12 23:00:00 19726 23 0.00 0.00 0.00 0.0 0.00	12.6215390314	0.00	0.00	Scattered_T-Storms(clear)	True	False	0.00
2010-06-13 00:00:00 19727 0 0.00 0.00 0.00 0.0 0.00	12.6215390314	0.00	0.00	Scattered_T-Storms(clear)	True	False	0.00
2010-06-13 01:00:00 19728 1 0.00 0.00 0.00 0.0 0.00	12.6215390314	0.00	0.00	Scattered_T-Storms(clear)	True	False	0.00
2010-06-13 02:00:00 19729 2 0.00 0.00 0.00 0.0 0.00	12.6215390314	0.00	0.00	Scattered_T-Storms(mostly_cloudy)	True	False	0.00
2010-06-13 03:00:00 19730 3 0.00 0.00 0.00 0.0 0.00	12.6215390314	0.00	0.00	Scattered_T-Storms(clear)	True	False	0.00
2010-06-13 04:00:00 19731 4 0.00 0.00 0.00 0.0 0.00	12.6215390314	0.00	0.00	Scattered_T-Storms(fair)	True	False	0.00
2010-06-13 05:00:00 19732 5 0.23 0.23 0.23 0.0 1.80	12.6215390314	0.23	0.00	Scattered_T-Storms(cloudy)	True	False	0.00
2010-06-13 06:00:00 19733 6 9.28 9.28 9.28 14.8 73.50	12.6215390314	9.28	14.80	Scattered_T-Storms(partly_cloudy)	True	False	14.80
2010-06-13 07:00:00 19734 7 31.36 31.36 31.36 156.1 248.50	12.6215390314	31.36	156.10	Scattered_T-Storms(partly_cloudy)	True	False	156.10
2010-06-13 08:00:00 19735 8 67.12 67.12 67.12 333.0 531.80	12.6215390314	67.12	333.00	Scattered_T-Storms(partly_cloudy)	True	False	333.00
2010-06-13 09:00:00 19736 9 90.89 90.89 90.89 670.4 720.10	12.6215390314	90.89	670.40	Scattered_T-Storms(partly_cloudy)	True	False	670.40
2010-06-13 10:00:00 19737 10 117.33 117.33 117.33 814.2 929.60	12.6215390314	117.33	814.20	Isolated_T-Storms(sunny)	True	False	814.20
2010-06-13 11:00:00 19738 11 132.75 132.75 132.75 751.8 1051.80	12.6215390314	132.75	751.80	Isolated_T-Storms(sunny)	True	False	751.80
2010-06-13 12:00:00 19739 12 138.10 138.10 138.10 826.3 1094.20	12.6215390314	138.10	826.30	Isolated_T-Storms(partly_cloudy)	True	False	826.30
2010-06-13 13:00:00 19740 13 136.30 136.30 136.30 778.2 1079.90	12.6215390314	136.30	778.20	Scattered_T-Storms(partly_cloudy)	True	False	778.20
2010-06-13 14:00:00 19741 14 127.83 127.83 127.83 353.6 1012.80	12.6215390314	127.83	353.60	Scattered_T-Storms(light_rain)	True	False	353.60
2010-06-13 15:00:00 19742 15 111.51 111.51 111.51 44.6 883.50	12.6215390314	111.51	44.60	Scattered_T-Storms(light_rain)	True	False	44.60
2010-06-13 16:00:00 19743 16 90.38 90.38 90.38 341.9 716.10	12.6215390314	90.38	341.90	Scattered_T-Storms(light_rain)	True	False	341.90
2010-06-13 17:00:00 19744 17 53.82 53.82 53.82 61.0 426.40	12.6215390314	53.82	61.00	Scattered_T-Storms(cloudy)	True	False	61.00
2010-06-13 18:00:00 19745 18 27.04 27.04 27.04 44.4 214.20	12.6215390314	27.04	44.40	Scattered_T-Storms(heavy_rain)	True	False	44.40
2010-06-13 19:00:00 19746 19 6.74 6.74 6.74 21.7 53.40	12.6215390314	6.74	21.70	Scattered_T-Storms(light_rain)	True	False	21.70
2010-06-13 20:00:00 19747 20 0.44 0.44 0.44 0.2 3.50	12.6215390314	0.44	0.20	Scattered_T-Storms(fog)	True	False	0.20
2010-06-13 21:00:00 19748 21 0.00 0.00 0.00 0.0 0.00	12.6215390314	0.00	0.00	Scattered_T-Storms(cloudy)	True	False	0.00
2010-06-13 22:00:00 19749 22 0.00 0.00 0.00 0.0 0.00	12.6215390314	0.00	0.00	Isolated_T-Storms(cloudy)	True	False	0.00
2010-06-13 23:00:00 19750 23 0.00 0.00 0.00 0.0 0.00	12.6215390314	0.00	0.00	Isolated_T-Storms(fog)	True	False	0.00
2010-06-14 00:00:00 19751 0 0.00 0.00 0.00 0.0 0.00	12.6215390314	0.00	0.00	Isolated_T-Storms(rain)	True	False	0.00
2010-06-14 01:00:00 19752 1 0.00 0.00 0.00 0.0 0.00	75.1398450947	0.00	0.00	Partly_Cloudy(fog)	True	False	0.00
2010-06-14 02:00:00 19753 2 0.00 0.00 0.00 0.0 0.00	75.1398450947	0.00	0.00	Partly_Cloudy(cloudy)	True	False	0.00
2010-06-14 03:00:00 19754 3 0.00 0.00 0.00 0.0 0.00	75.1398450947	0.00	0.00	Partly_Cloudy(fog)	True	False	0.00
2010-06-14 04:00:00 19755 4 0.00 0.00 0.00 0.0 0.00	60.861423221	0.00	0.00	Mostly_Cloudy(cloudy)	True	False	0.00
2010-06-14 05:00:00 19756 5 1.10 1.10 1.10 0.0 1.80	60.861423221	1.10	0.00	Mostly_Cloudy(cloudy)	True	False	0.00
2010-06-14 06:00:00 19757 6 44.73 44.73 44.73 16.1 73.50	60.861423221	44.73	16.10	Mostly_Cloudy(light_rain)	True	False	16.10
2010-06-14 07:00:00 19758 7 151.24 151.24 151.24 76.0 248.50	60.861423221	151.24	76.00	Mostly_Cloudy(fog)	True	False	76.00
2010-06-14 08:00:00 19759 8 323.66 323.66 323.66 110.9 531.80	60.861423221	323.66	110.90	Mostly_Cloudy(cloudy)	True	False	110.90
2010-06-14 09:00:00 19760 9 438.26 438.26 438.26 168.0 720.10	60.861423221	438.26	168.00	Mostly_Cloudy(cloudy)	True	False	168.00
2010-06-14 10:00:00 19761 10 698.50 698.50 698.50 287.6 929.60	75.1398450947	698.50	287.60	Partly_Cloudy(cloudy)	True	False	287.60
2010-06-14 11:00:00 19762 11 790.32 790.32 790.32 320.2 1051.80	75.1398450947	790.32	320.20	Partly_Cloudy(cloudy)	True	False	320.20
2010-06-14 12:00:00 19763 12 606.09 606.09 606.09 489.2 1094.20	55.3907586994	606.09	489.20	Mostly_Cloudy(cloudy)	True	False	489.20
2010-06-14 13:00:00 19764 13 598.16 598.16 598.16 755.2 1079.90	55.3907586994	598.16	755.20	Mostly_Cloudy(cloudy)	True	False	755.20
