2010-06-08 08:00:00 14767 8 455.83 455.83 455.83 530.1 531.80	85.7142857143	455.83	530.10	Sunny(sunny)	True	False	530.10
2010-06-08 09:00:00 14768 9 650.91 650.91 650.91 784.7 759.40	85.7142857143	650.91	784.70	Sunny(sunny)	True	False	784.70
2010-06-08 10:00:00 14769 10 883.80 883.80 883.80 932.0 929.60	95.0730647709	883.80	932.00	Sunny(sunny)	True	False	932.00
2010-06-08 11:00:00 14770 11 999.98 999.98 999.98 771.9 1051.80	95.0730647709	999.98	771.90	Sunny(sunny)	True	False	771.90
2010-06-08 12:00:00 14771 12 1040.29 1040.29 1040.29 884.3 1094.20	95.0730647709	1040.29	884.30	Sunny(fair)	True	False	884.30
2010-06-08 13:00:00 14772 13 1026.69 1026.69 1026.69 830.2 1079.90	95.0730647709	1026.69	830.20	Sunny(partly_cloudy)	True	False	830.20
2010-06-08 14:00:00 14773 14 962.90 962.90 962.90 705.1 1012.80	95.0730647709	962.90	705.10	Sunny(fair)	True	False	705.10
2010-06-08 15:00:00 14774 15 849.19 849.19 849.19 974.1 893.20	95.0730647709	849.19	974.10	Sunny(partly_cloudy)	True	False	974.10
2010-06-08 16:00:00 14775 16 680.82 680.82 680.82 682.8 716.10	95.0730647709	680.82	682.80	Mostly_Sunny(sunny)	False	False	682.80
2010-06-08 17:00:00 14776 17 398.93 398.93 398.93 338.1 419.60	95.0730647709	398.93	338.10	Mostly_Sunny(partly_cloudy)	False	False	338.10
2010-06-08 18:00:00 14777 18 203.65 203.65 203.65 171.7 214.20	95.0730647709	203.65	171.70	Mostly_Sunny(sunny)	False	False	171.70
2010-06-08 19:00:00 14778 19 45.77 45.77 45.77 30.7 53.40	85.7142857143	45.77	30.70	Sunny(mostly_cloudy)	True	False	30.70
2010-06-08 20:00:00 14779 20 2.40 2.40 2.40 0.4 2.80	85.7142857143	2.40	0.40	Sunny(sunny)	True	False	0.40
2010-06-08 21:00:00 14780 21 0.00 0.00 0.00 0.0 0.00	85.7142857143	0.00	0.00	Clear(fair)	True	False	0.00
2010-06-08 22:00:00 14781 22 0.00 0.00 0.00 0.0 0.00	85.7142857143	0.00	0.00	Clear(clear)	True	False	0.00
2010-06-08 23:00:00 14782 23 0.00 0.00 0.00 0.0 0.00	85.7142857143	0.00	0.00	Clear(fair)	True	False	0.00
2010-06-09 00:00:00 14783 0 0.00 0.00 0.00 0.0 0.00	85.7142857143	0.00	0.00	Clear(partly_cloudy)	True	False	0.00
2010-06-09 01:00:00 14784 1 0.00 0.00 0.00 0.0 0.00	85.7142857143	0.00	0.00	Mostly_Clear(fair)	False	False	0.00
2010-06-09 02:00:00 14785 2 0.00 0.00 0.00 0.0 0.00	85.7142857143	0.00	0.00	Mostly_Clear(partly_cloudy)	False	False	0.00
2010-06-09 03:00:00 14786 3 0.00 0.00 0.00 0.0 0.00	85.7142857143	0.00	0.00	Mostly_Clear(mostly_cloudy)	False	False	0.00
2010-06-09 04:00:00 14787 4 0.00 0.00 0.00 0.0 0.00	78.9788933257	0.00	0.00	Partly_Cloudy(fair)	True	False	0.00
2010-06-09 05:00:00 14788 5 1.42 1.42 1.42 3.7 1.80	78.9788933257	1.42	3.70	Partly_Cloudy(sunny)	True	False	3.70
2010-06-09 06:00:00 14789 6 58.05 58.05 58.05 89.7 73.50	78.9788933257	58.05	89.70	Partly_Cloudy(fair)	True	False	89.70
2010-06-09 07:00:00 14790 7 161.36 161.36 161.36 188.7 248.50	64.9319381424	161.36	188.70	Mostly_Cloudy(partly_cloudy)	True	False	188.70
2010-06-09 08:00:00 14791 8 345.31 345.31 345.31 212.0 531.80	64.9319381424	345.31	212.00	Mostly_Cloudy(mostly_cloudy)	True	False	212.00
2010-06-09 09:00:00 14792 9 493.09 493.09 493.09 347.4 759.40	64.9319381424	493.09	347.40	Mostly_Cloudy(partly_cloudy)	True	False	347.40
2010-06-09 10:00:00 14793 10 118.62 118.62 118.62 319.6 929.60	12.7604407816	118.62	319.60	Showers(mostly_cloudy)	True	False	319.60
2010-06-09 11:00:00 14794 11 134.21 134.21 134.21 302.3 1051.80	12.7604407816	134.21	302.30	Showers(mostly_cloudy)	True	False	302.30
2010-06-09 12:00:00 14795 12 139.62 139.62 139.62 216.2 1094.20	12.7604407816	139.62	216.20	Showers(light_rain)	True	False	216.20
2010-06-09 13:00:00 14796 13 137.80 137.80 137.80 93.7 1079.90	12.7604407816	137.80	93.70	Rain(light_rain)	True	False	93.70
2010-06-09 14:00:00 14797 14 129.24 129.24 129.24 92.0 1012.80	12.7604407816	129.24	92.00	Rain(light_rain)	True	False	92.00
2010-06-09 15:00:00 14798 15 113.98 113.98 113.98 92.8 893.20	12.7604407816	113.98	92.80	Rain(light_rain)	True	False	92.80
2010-06-09 16:00:00 14799 16 101.76 101.76 101.76 70.3 716.10	14.2104130809	101.76	70.30	Rain(light_rain)	True	False	70.30
2010-06-09 17:00:00 14800 17 59.63 59.63 59.63 15.9 419.60	14.2104130809	59.63	15.90	Rain(light_rain)	True	False	15.90
2010-06-09 18:00:00 14801 18 30.44 30.44 30.44 6.2 214.20	14.2104130809	30.44	6.20	Rain(light_rain)	True	False	6.20
2010-06-09 19:00:00 14802 19 7.59 7.59 7.59 0.0 53.40	14.2104130809	7.59	0.00	Showers(light_rain)	True	False	0.00
2010-06-09 20:00:00 14803 20 0.40 0.40 0.40 0.0 2.80	14.2104130809	0.40	0.00	Showers(light_rain)	True	False	0.00
2010-06-09 21:00:00 14804 21 0.00 0.00 0.00 0.0 0.00	14.2104130809	0.00	0.00	Showers(light_rain)	True	False	0.00
2010-06-09 22:00:00 14805 22 0.00 0.00 0.00 0.0 0.00	14.2104130809	0.00	0.00	Showers(light_rain)	True	False	0.00
2010-06-09 23:00:00 14806 23 0.00 0.00 0.00 0.0 0.00	14.2104130809	0.00	0.00	Showers(light_rain)	True	False	0.00
2010-06-10 00:00:00 14807 0 0.00 0.00 0.00 0.0 0.00	14.2104130809	0.00	0.00	Showers(cloudy)	True	False	0.00
2010-06-10 01:00:00 14808 1 0.00 0.00 0.00 0.0 0.00	42.3436041083	0.00	0.00	Cloudy(cloudy)	True	False	0.00
2010-06-10 02:00:00 14809 2 0.00 0.00 0.00 0.0 0.00	42.3436041083	0.00	0.00	Cloudy(cloudy)	True	False	0.00
2010-06-10 03:00:00 14810 3 0.00 0.00 0.00 0.0 0.00	42.3436041083	0.00	0.00	Cloudy(cloudy)	True	False	0.00
2010-06-10 04:00:00 14811 4 0.00 0.00 0.00 0.0 0.00	42.3436041083	0.00	0.00	Cloudy(cloudy)	True	False	0.00
2010-06-10 05:00:00 14812 5 0.76 0.76 0.76 0.0 1.80	42.3436041083	0.76	0.00	Cloudy(cloudy)	True	False	0.00
2010-06-10 06:00:00 14813 6 31.12 31.12 31.12 2.5 73.50	42.3436041083	31.12	2.50	Cloudy(fog)	True	False	2.50
2010-06-10 07:00:00 14814 7 161.36 161.36 161.36 72.6 248.50	64.9319381424	161.36	72.60	Mostly_Cloudy(cloudy)	True	False	72.60
2010-06-10 08:00:00 14815 8 345.31 345.31 345.31 172.6 531.80	64.9319381424	345.31	172.60	Mostly_Cloudy(cloudy)	True	False	172.60
