2010-07-13 10:00:00 56025 10 209.58 209.58 209.58 119.2 919.50	22.7933391087	209.58	119.20	Showers(mostly_cloudy)	True	False	119.20
2010-07-13 11:00:00 56026 11 134.68 134.68 215.80 32.1 1038.90	20.7721587819	215.80	32.10	Scattered_T-Storms(heavy_rain)	True	False	32.10
2010-07-13 12:00:00 56027 12 230.18 143.65 230.18 203.2 1108.10	20.7721587819	230.18	203.20	Scattered_T-Storms(heavy_rain)	True	False	203.20
2010-07-13 13:00:00 56028 13 230.09 143.60 230.09 902.3 1107.70	20.7721587819	230.09	902.30	Scattered_T-Storms(mostly_cloudy)	True	False	902.30
2010-07-13 14:00:00 56029 14 220.27 137.47 220.27 669.2 1060.40	20.7721587819	220.27	669.20	Scattered_T-Storms(partly_cloudy)	True	False	669.20
2010-07-13 15:00:00 56030 15 195.07 121.74 195.07 490.0 939.10	20.7721587819	195.07	490.00	Scattered_T-Storms(mostly_cloudy)	True	False	490.00
2010-07-13 16:00:00 56031 16 231.31 98.38 231.31 308.9 758.90	30.4792460397	231.31	308.90	Scattered_T-Storms(partly_cloudy)	True	False	308.90
2010-07-13 17:00:00 56032 17 152.00 64.65 152.00 274.5 498.70	30.4792460397	152.00	274.50	Scattered_T-Storms(mostly_cloudy)	True	False	274.50
2010-07-13 18:00:00 56033 18 68.82 29.27 68.82 225.8 225.80	30.4792460397	68.82	225.80	Scattered_T-Storms(partly_cloudy)	True	False	225.80
2010-07-13 19:00:00 56034 19 24.81 10.55 24.81 39.8 81.40	30.4792460397	24.81	39.80	Scattered_T-Storms(partly_cloudy)	True	False	39.80
2010-07-13 20:00:00 56035 20 2.07 0.88 2.07 0.0 6.80	30.4792460397	2.07	0.00	Scattered_T-Storms(partly_cloudy)	True	False	0.00
2010-07-13 21:00:00 56036 21 0.00 0.00 0.00 0.0 0.00	30.4792460397	0.00	0.00	Scattered_T-Storms(mostly_cloudy)	True	False	0.00
2010-07-13 22:00:00 56037 22 0.00 0.00 0.00 0.0 0.00	30.4792460397	0.00	0.00	T-Storms(mostly_cloudy)	True	False	0.00
2010-07-13 23:00:00 56038 23 0.00 0.00 0.00 0.0 0.00	30.4792460397	0.00	0.00	T-Storms(rain)	True	False	0.00
2010-07-14 00:00:00 56039 0 0.00 0.00 0.00 0.0 0.00	30.4792460397	0.00	0.00	T-Storms(partly_cloudy)	True	False	0.00
2010-07-14 01:00:00 56040 1 0.00 0.00 0.00 0.0 0.00	30.4792460397	0.00	0.00	Scattered_T-Storms(fog)	True	False	0.00
2010-07-14 02:00:00 56041 2 0.00 0.00 0.00 0.0 0.00	30.4792460397	0.00	0.00	Scattered_T-Storms(fog)	True	False	0.00
2010-07-14 03:00:00 56042 3 0.00 0.00 0.00 0.0 0.00	30.4792460397	0.00	0.00	Scattered_T-Storms(fog)	True	False	0.00
2010-07-14 04:00:00 56043 4 0.00 0.00 0.00 0.0 0.00	30.4792460397	0.00	0.00	Scattered_T-Storms(fog)	True	False	0.00
2010-07-14 05:00:00 56044 5 0.09 0.09 0.09 0.0 0.30	30.4792460397	0.09	0.00	Scattered_T-Storms(light_rain)	True	False	0.00
2010-07-14 06:00:00 56045 6 23.68 23.68 23.68 0.0 77.70	30.4792460397	23.68	0.00	Scattered_T-Storms(light_rain)	True	False	0.00
2010-07-14 07:00:00 56046 7 63.21 63.21 63.21 69.3 207.40	30.4792460397	63.21	69.30	Scattered_T-Storms(mostly_cloudy)	True	False	69.30
2010-07-14 08:00:00 56047 8 148.10 148.10 148.10 118.7 485.90	30.4792460397	148.10	118.70	Scattered_T-Storms(light_rain)	True	False	118.70
2010-07-14 09:00:00 56048 9 227.10 227.10 227.10 272.1 745.10	30.4792460397	227.10	272.10	Scattered_T-Storms(light_rain)	True	False	272.10
2010-07-14 10:00:00 56049 10 191.00 191.00 191.00 508.0 919.50	20.7721587819	191.00	508.00	Scattered_T-Storms(rain)	True	False	508.00
2010-07-14 11:00:00 56050 11 215.80 215.80 215.80 635.2 1038.90	20.7721587819	215.80	635.20	Scattered_T-Storms(light_rain)	True	False	635.20
2010-07-14 12:00:00 56051 12 230.18 230.18 230.18 410.0 1108.10	20.7721587819	230.18	410.00	Scattered_T-Storms(light_rain)	True	False	410.00
2010-07-14 13:00:00 56052 13 230.09 230.09 230.09 110.6 1107.70	20.7721587819	230.09	110.60	Isolated_T-Storms(cloudy)	True	False	110.60
2010-07-14 14:00:00 56053 14 220.27 220.27 220.27 219.0 1060.40	20.7721587819	220.27	219.00	Isolated_T-Storms(light_rain)	True	False	219.00
2010-07-14 15:00:00 56054 15 195.07 195.07 195.07 61.9 939.10	20.7721587819	195.07	61.90	Isolated_T-Storms(cloudy)	True	False	61.90
2010-07-14 16:00:00 56055 16 231.31 231.31 231.31 122.2 758.90	30.4792460397	231.31	122.20	Isolated_T-Storms(cloudy)	True	False	122.20
2010-07-14 17:00:00 56056 17 152.00 152.00 152.00 161.6 498.70	30.4792460397	152.00	161.60	Isolated_T-Storms(mostly_cloudy)	True	False	161.60
2010-07-14 18:00:00 56057 18 68.82 68.82 68.82 125.7 225.80	30.4792460397	68.82	125.70	Isolated_T-Storms(mostly_cloudy)	True	False	125.70
2010-07-14 19:00:00 56058 19 24.81 24.81 24.81 51.3 81.40	30.4792460397	24.81	51.30	Scattered_T-Storms(mostly_cloudy)	True	False	51.30
2010-07-14 20:00:00 56059 20 2.07 2.07 2.07 6.8 6.80	30.4792460397	2.07	6.80	Scattered_T-Storms(mostly_cloudy)	True	False	6.80
2010-07-14 21:00:00 56060 21 0.00 0.00 0.00 0.0 0.00	30.4792460397	0.00	0.00	Scattered_T-Storms(cloudy)	True	False	0.00
2010-07-14 22:00:00 56061 22 0.00 0.00 0.00 0.0 0.00	30.4792460397	0.00	0.00	Isolated_T-Storms(partly_cloudy)	True	False	0.00
2010-07-14 23:00:00 56062 23 0.00 0.00 0.00 0.0 0.00	30.4792460397	0.00	0.00	Isolated_T-Storms(fair)	True	False	0.00
2010-07-15 00:00:00 56063 0 0.00 0.00 0.00 0.0 0.00	30.4792460397	0.00	0.00	Isolated_T-Storms(clear)	True	False	0.00
2010-07-15 01:00:00 56064 1 0.00 0.00 0.00 0.0 0.00	74.3959957648	0.00	0.00	Partly_Cloudy(fog)	True	False	0.00
2010-07-15 02:00:00 56065 2 0.00 0.00 0.00 0.0 0.00	74.3959957648	0.00	0.00	Partly_Cloudy(cloudy)	True	False	0.00
2010-07-15 03:00:00 56066 3 0.00 0.00 0.00 0.0 0.00	74.3959957648	0.00	0.00	Partly_Cloudy(partly_cloudy)	True	False	0.00
2010-07-15 04:00:00 56067 4 0.00 0.00 0.00 0.0 0.00	74.3959957648	0.00	0.00	Mostly_Clear(fair)	False	False	0.00
2010-07-15 05:00:00 56068 5 0.22 0.22 0.22 0.0 0.30	74.3959957648	0.22	0.00	Mostly_Clear(clear)	False	False	0.00
2010-07-15 06:00:00 56069 6 57.81 57.81 57.81 10.1 77.70	74.3959957648	57.81	10.10	Mostly_Sunny(cloudy)	False	False	10.10
2010-07-15 07:00:00 56070 7 154.30 154.30 154.30 141.2 207.40	74.3959957648	154.30	141.20	Mostly_Sunny(cloudy)	False	False	141.20
2010-07-15 08:00:00 56071 8 361.49 361.49 361.49 247.0 485.90	74.3959957648	361.49	247.00	Mostly_Sunny(partly_cloudy)	False	False	247.00
2010-07-15 09:00:00 56072 9 554.32 554.32 554.32 232.3 745.10	74.3959957648	554.32	232.30	Mostly_Sunny(cloudy)	False	False	232.30
2010-07-15 10:00:00 56073 10 766.30 766.30 766.30 427.8 919.50	83.3387710712	766.30	427.80	Sunny(cloudy)	True	False	427.80
