2010-07-12 01:00:00 54408 1 0.00 0.00 0.00 0.0 0.00	77.3125169209	0.00	0.00	Clear(clear)	True	False	0.00
2010-07-12 02:00:00 54409 2 0.00 0.00 0.00 0.0 0.00	77.3125169209	0.00	0.00	Clear(clear)	True	False	0.00
2010-07-12 03:00:00 54410 3 0.00 0.00 0.00 0.0 0.00	77.3125169209	0.00	0.00	Clear(clear)	True	False	0.00
2010-07-12 04:00:00 54411 4 0.00 0.00 0.00 0.0 0.00	77.3125169209	0.00	0.00	Clear(fog)	True	False	0.00
2010-07-12 05:00:00 54412 5 0.23 0.23 0.23 0.0 0.30	77.3125169209	0.23	0.00	Clear(fair)	True	False	0.00
2010-07-12 06:00:00 54413 6 60.07 60.07 60.07 77.7 77.70	77.3125169209	60.07	77.70	Sunny(sunny)	True	False	77.70
2010-07-12 07:00:00 54414 7 160.35 160.35 160.35 186.0 207.40	77.3125169209	160.35	186.00	Sunny(sunny)	True	False	186.00
2010-07-12 08:00:00 54415 8 375.66 375.66 375.66 454.0 485.90	77.3125169209	375.66	454.00	Sunny(sunny)	True	False	454.00
2010-07-12 09:00:00 54416 9 576.06 576.06 576.06 518.0 745.10	77.3125169209	576.06	518.00	Sunny(sunny)	True	False	518.00
2010-07-12 10:00:00 54417 10 710.89 710.89 710.89 597.2 919.50	77.3125169209	710.89	597.20	Mostly_Sunny(partly_cloudy)	False	False	597.20
2010-07-12 11:00:00 54418 11 803.20 803.20 803.20 898.0 1038.90	77.3125169209	803.20	898.00	Mostly_Sunny(mostly_cloudy)	False	False	898.00
2010-07-12 12:00:00 54419 12 856.70 856.70 856.70 1031.2 1108.10	77.3125169209	856.70	1031.20	Mostly_Sunny(partly_cloudy)	False	False	1031.20
2010-07-12 13:00:00 54420 13 829.33 829.33 829.33 927.1 1107.70	74.8695559578	829.33	927.10	Partly_Cloudy(fair)	True	False	927.10
2010-07-12 14:00:00 54421 14 793.92 793.92 793.92 907.1 1060.40	74.8695559578	793.92	907.10	Partly_Cloudy(sunny)	True	False	907.10
2010-07-12 15:00:00 54422 15 703.10 703.10 703.10 485.2 939.10	74.8695559578	703.10	485.20	Partly_Cloudy(sunny)	True	False	485.20
2010-07-12 16:00:00 54423 16 568.19 568.19 568.19 399.8 758.90	74.8695559578	568.19	399.80	Mostly_Sunny(partly_cloudy)	False	False	399.80
2010-07-12 17:00:00 54424 17 373.37 373.37 373.37 220.2 498.70	74.8695559578	373.37	220.20	Mostly_Sunny(mostly_cloudy)	False	False	220.20
2010-07-12 18:00:00 54425 18 169.06 169.06 169.06 71.7 225.80	74.8695559578	169.06	71.70	Mostly_Sunny(mostly_cloudy)	False	False	71.70
2010-07-12 19:00:00 54426 19 60.09 60.09 60.09 9.2 81.40	73.8263950399	60.09	9.20	Partly_Cloudy(mostly_cloudy)	True	False	9.20
2010-07-12 20:00:00 54427 20 5.02 5.02 5.02 0.0 6.80	73.8263950399	5.02	0.00	Partly_Cloudy(fair)	True	False	0.00
2010-07-12 21:00:00 54428 21 0.00 0.00 0.00 0.0 0.00	73.8263950399	0.00	0.00	Partly_Cloudy(light_rain)	True	False	0.00
2010-07-12 22:00:00 54429 22 0.00 0.00 0.00 0.0 0.00	60.4422604423	0.00	0.00	Mostly_Cloudy(mostly_cloudy)	True	False	0.00
2010-07-12 23:00:00 54430 23 0.00 0.00 0.00 0.0 0.00	60.4422604423	0.00	0.00	Mostly_Cloudy(light_rain)	True	False	0.00
2010-07-13 00:00:00 54431 0 0.00 0.00 0.00 0.0 0.00	60.4422604423	0.00	0.00	Mostly_Cloudy(light_rain)	True	False	0.00
2010-07-13 01:00:00 54432 1 0.00 0.00 0.00 0.0 0.00	27.3693534101	0.00	0.00	Isolated_T-Storms(cloudy)	True	False	0.00
2010-07-13 02:00:00 54433 2 0.00 0.00 0.00 0.0 0.00	27.3693534101	0.00	0.00	Isolated_T-Storms(cloudy)	True	False	0.00
2010-07-13 03:00:00 54434 3 0.00 0.00 0.00 0.0 0.00	27.3693534101	0.00	0.00	Isolated_T-Storms(mostly_cloudy)	True	False	0.00
2010-07-13 04:00:00 54435 4 0.00 0.00 0.00 0.0 0.00	22.7933391087	0.00	0.00	Showers(mostly_cloudy)	True	False	0.00
2010-07-13 05:00:00 54436 5 0.07 0.07 0.07 0.0 0.30	22.7933391087	0.07	0.00	Showers(mostly_cloudy)	True	False	0.00
2010-07-13 06:00:00 54437 6 17.71 17.71 17.71 53.8 77.70	22.7933391087	17.71	53.80	Showers(partly_cloudy)	True	False	53.80
2010-07-13 07:00:00 54438 7 47.27 47.27 47.27 101.4 207.40	22.7933391087	47.27	101.40	Showers(partly_cloudy)	True	False	101.40
2010-07-13 08:00:00 54439 8 110.75 110.75 110.75 173.7 485.90	22.7933391087	110.75	173.70	Showers(mostly_cloudy)	True	False	173.70
2010-07-13 09:00:00 54440 9 169.83 169.83 169.83 209.4 745.10	22.7933391087	169.83	209.40	Showers(cloudy)	True	False	209.40
2010-07-13 10:00:00 54441 10 191.00 191.00 191.00 119.2 919.50	20.7721587819	191.00	119.20	Scattered_T-Storms(mostly_cloudy)	True	False	119.20
2010-07-13 11:00:00 54442 11 215.80 215.80 215.80 32.1 1038.90	20.7721587819	215.80	32.10	Scattered_T-Storms(heavy_rain)	True	False	32.10
2010-07-13 12:00:00 54443 12 230.18 230.18 230.18 203.2 1108.10	20.7721587819	230.18	203.20	Scattered_T-Storms(heavy_rain)	True	False	203.20
2010-07-13 13:00:00 54444 13 230.09 230.09 230.09 902.3 1107.70	20.7721587819	230.09	902.30	Scattered_T-Storms(mostly_cloudy)	True	False	902.30
2010-07-13 14:00:00 54445 14 220.27 220.27 220.27 669.2 1060.40	20.7721587819	220.27	669.20	Scattered_T-Storms(partly_cloudy)	True	False	669.20
2010-07-13 15:00:00 54446 15 195.07 195.07 195.07 490.0 939.10	20.7721587819	195.07	490.00	Scattered_T-Storms(mostly_cloudy)	True	False	490.00
2010-07-13 16:00:00 54447 16 207.71 207.71 207.71 308.9 758.90	27.3693534101	207.71	308.90	Scattered_T-Storms(partly_cloudy)	True	False	308.90
2010-07-13 17:00:00 54448 17 136.49 136.49 136.49 274.5 498.70	27.3693534101	136.49	274.50	Scattered_T-Storms(mostly_cloudy)	True	False	274.50
2010-07-13 18:00:00 54449 18 61.80 61.80 61.80 225.8 225.80	27.3693534101	61.80	225.80	Scattered_T-Storms(partly_cloudy)	True	False	225.80
2010-07-13 19:00:00 54450 19 22.28 22.28 22.28 39.8 81.40	27.3693534101	22.28	39.80	Scattered_T-Storms(partly_cloudy)	True	False	39.80
2010-07-13 20:00:00 54451 20 1.86 1.86 1.86 0.0 6.80	27.3693534101	1.86	0.00	Scattered_T-Storms(partly_cloudy)	True	False	0.00
2010-07-13 21:00:00 54452 21 0.00 0.00 0.00 0.0 0.00	27.3693534101	0.00	0.00	Scattered_T-Storms(mostly_cloudy)	True	False	0.00
2010-07-13 22:00:00 54453 22 0.00 0.00 0.00 0.0 0.00	27.3693534101	0.00	0.00	Scattered_T-Storms(mostly_cloudy)	True	False	0.00
2010-07-13 23:00:00 54454 23 0.00 0.00 0.00 0.0 0.00	27.3693534101	0.00	0.00	Scattered_T-Storms(rain)	True	False	0.00
2010-07-14 00:00:00 54455 0 0.00 0.00 0.00 0.0 0.00	27.3693534101	0.00	0.00	Scattered_T-Storms(partly_cloudy)	True	False	0.00
2010-07-14 01:00:00 54456 1 0.00 0.00 0.00 0.0 0.00	27.3693534101	0.00	0.00	Scattered_T-Storms(fog)	True	False	0.00
