2010-06-06 11:00:00 12562 11 999.98 999.98 999.98 812.8 1051.80	12.0556872038	999.98	812.80	Isolated_T-Storms(partly_cloudy)	True	False	812.80
2010-06-06 12:00:00 12563 12 845.57 845.57 845.57 875.5 1094.20	12.0556872038	845.57	875.50	Isolated_T-Storms(partly_cloudy)	True	False	875.50
2010-06-06 13:00:00 12564 13 130.19 834.51 834.51 708.8 1079.90	12.0556872038	834.51	708.80	Scattered_T-Storms(partly_cloudy)	True	False	708.80
2010-06-06 14:00:00 12565 14 122.10 782.66 782.66 515.1 1012.80	12.0556872038	782.66	515.10	Scattered_T-Storms_/_Wind(mostly_cloudy)	True	False	515.10
2010-06-06 15:00:00 12566 15 107.68 690.24 690.24 451.2 893.20	12.0556872038	690.24	451.20	Scattered_T-Storms(mostly_cloudy)	True	False	451.20
2010-06-06 16:00:00 12567 16 86.33 553.38 553.38 357.2 716.10	12.0556872038	553.38	357.20	Scattered_Strong_Storms(heavy_rain)	True	False	357.20
2010-06-06 17:00:00 12568 17 50.59 324.25 324.25 407.5 419.60	12.0556872038	324.25	407.50	Scattered_Strong_Storms(mostly_cloudy)	True	False	407.50
2010-06-06 18:00:00 12569 18 25.82 165.53 165.53 154.5 214.20	12.0556872038	165.53	154.50	Scattered_Strong_Storms(partly_cloudy)	True	False	154.50
2010-06-06 19:00:00 12570 19 6.44 41.27 41.27 39.1 53.40	12.0556872038	41.27	39.10	Isolated_T-Storms(fair)	True	False	39.10
2010-06-06 20:00:00 12571 20 0.34 2.16 2.16 1.3 2.80	12.0556872038	2.16	1.30	Isolated_T-Storms(partly_cloudy)	True	False	1.30
2010-06-06 21:00:00 12572 21 0.00 0.00 0.00 0.0 0.00	12.0556872038	0.00	0.00	Isolated_T-Storms(clear)	True	False	0.00
2010-06-06 22:00:00 12573 22 0.00 0.00 0.00 0.0 0.00	82.3879885605	0.00	0.00	Partly_Cloudy(clear)	True	False	0.00
2010-06-06 23:00:00 12574 23 0.00 0.00 0.00 0.0 0.00	82.3879885605	0.00	0.00	Partly_Cloudy(clear)	True	False	0.00
2010-06-07 00:00:00 12575 0 0.00 0.00 0.00 0.0 0.00	82.3879885605	0.00	0.00	Partly_Cloudy(partly_cloudy)	True	False	0.00
2010-06-07 01:00:00 12576 1 0.00 0.00 0.00 0.0 0.00	85.7142857143	0.00	0.00	Clear(fair)	True	False	0.00
2010-06-07 02:00:00 12577 2 0.00 0.00 0.00 0.0 0.00	85.7142857143	0.00	0.00	Clear(clear)	True	False	0.00
2010-06-07 03:00:00 12578 3 0.00 0.00 0.00 0.0 0.00	85.7142857143	0.00	0.00	Clear(clear)	True	False	0.00
2010-06-07 04:00:00 12579 4 0.00 0.00 0.00 0.0 0.00	85.7142857143	0.00	0.00	Clear(clear)	True	False	0.00
2010-06-07 05:00:00 12580 5 1.54 1.54 1.54 0.7 1.80	85.7142857143	1.54	0.70	Clear(sunny)	True	False	0.70
2010-06-07 06:00:00 12581 6 63.00 63.00 63.00 45.9 73.50	85.7142857143	63.00	45.90	Sunny(sunny)	True	False	45.90
2010-06-07 07:00:00 12582 7 213.00 213.00 213.00 235.5 248.50	85.7142857143	213.00	235.50	Sunny(sunny)	True	False	235.50
2010-06-07 08:00:00 12583 8 455.83 455.83 455.83 526.3 531.80	85.7142857143	455.83	526.30	Sunny(sunny)	True	False	526.30
2010-06-07 09:00:00 12584 9 650.91 650.91 650.91 781.2 759.40	85.7142857143	650.91	781.20	Sunny(sunny)	True	False	781.20
2010-06-07 10:00:00 12585 10 883.80 883.80 883.80 967.4 929.60	95.0730647709	883.80	967.40	Sunny(sunny)	True	False	967.40
2010-06-07 11:00:00 12586 11 999.98 999.98 999.98 906.7 1051.80	95.0730647709	999.98	906.70	Sunny(sunny)	True	False	906.70
2010-06-07 12:00:00 12587 12 1040.29 1040.29 1040.29 864.9 1094.20	95.0730647709	1040.29	864.90	Sunny(partly_cloudy)	True	False	864.90
2010-06-07 13:00:00 12588 13 1026.69 1026.69 1026.69 563.7 1079.90	95.0730647709	1026.69	563.70	Sunny(mostly_cloudy)	True	False	563.70
2010-06-07 14:00:00 12589 14 962.90 962.90 962.90 638.8 1012.80	95.0730647709	962.90	638.80	Sunny(mostly_cloudy)	True	False	638.80
2010-06-07 15:00:00 12590 15 849.19 849.19 849.19 761.9 893.20	95.0730647709	849.19	761.90	Sunny(mostly_cloudy)	True	False	761.90
2010-06-07 16:00:00 12591 16 613.80 613.80 613.80 551.8 716.10	85.7142857143	613.80	551.80	Sunny(mostly_cloudy)	True	False	551.80
2010-06-07 17:00:00 12592 17 359.66 359.66 359.66 381.9 419.60	85.7142857143	359.66	381.90	Sunny(sunny)	True	False	381.90
2010-06-07 18:00:00 12593 18 183.60 183.60 183.60 182.0 214.20	85.7142857143	183.60	182.00	Sunny(mostly_cloudy)	True	False	182.00
2010-06-07 19:00:00 12594 19 45.77 45.77 45.77 35.4 53.40	85.7142857143	45.77	35.40	Sunny(sunny)	True	False	35.40
2010-06-07 20:00:00 12595 20 2.40 2.40 2.40 1.8 2.80	85.7142857143	2.40	1.80	Sunny(sunny)	True	False	1.80
2010-06-07 21:00:00 12596 21 0.00 0.00 0.00 0.0 0.00	85.7142857143	0.00	0.00	Clear(clear)	True	False	0.00
2010-06-07 22:00:00 12597 22 0.00 0.00 0.00 0.0 0.00	85.7142857143	0.00	0.00	Clear(clear)	True	False	0.00
2010-06-07 23:00:00 12598 23 0.00 0.00 0.00 0.0 0.00	85.7142857143	0.00	0.00	Clear(clear)	True	False	0.00
2010-06-08 00:00:00 12599 0 0.00 0.00 0.00 0.0 0.00	85.7142857143	0.00	0.00	Clear(partly_cloudy)	True	False	0.00
2010-06-08 01:00:00 12600 1 0.00 0.00 0.00 0.0 0.00	85.7142857143	0.00	0.00	Clear(mostly_cloudy)	True	False	0.00
2010-06-08 02:00:00 12601 2 0.00 0.00 0.00 0.0 0.00	85.7142857143	0.00	0.00	Clear(mostly_cloudy)	True	False	0.00
2010-06-08 03:00:00 12602 3 0.00 0.00 0.00 0.0 0.00	85.7142857143	0.00	0.00	Clear(partly_cloudy)	True	False	0.00
2010-06-08 04:00:00 12603 4 0.00 0.00 0.00 0.0 0.00	85.7142857143	0.00	0.00	Clear(fair)	True	False	0.00
2010-06-08 05:00:00 12604 5 1.54 1.54 1.54 1.8 1.80	85.7142857143	1.54	1.80	Clear(sunny)	True	False	1.80
2010-06-08 06:00:00 12605 6 63.00 63.00 63.00 49.6 73.50	85.7142857143	63.00	49.60	Sunny(sunny)	True	False	49.60
2010-06-08 07:00:00 12606 7 213.00 213.00 213.00 240.8 248.50	85.7142857143	213.00	240.80	Sunny(sunny)	True	False	240.80
2010-06-08 08:00:00 12607 8 455.83 455.83 455.83 530.1 531.80	85.7142857143	455.83	530.10	Sunny(sunny)	True	False	530.10
2010-06-08 09:00:00 12608 9 650.91 650.91 650.91 784.7 759.40	85.7142857143	650.91	784.70	Sunny(sunny)	True	False	784.70
2010-06-08 10:00:00 12609 10 883.80 883.80 883.80 932.0 929.60	95.0730647709	883.80	932.00	Sunny(sunny)	True	False	932.00
2010-06-08 11:00:00 12610 11 999.98 999.98 999.98 771.9 1051.80	95.0730647709	999.98	771.90	Sunny(sunny)	True	False	771.90
