2010-07-02 12:00:00 43187 12 854.11 854.11 854.11 570.8 1108.10	77.0786313984	854.11	570.80	Sunny(fair)	True	False	570.80
2010-07-02 13:00:00 43188 13 570.59 570.59 570.59 785.8 1107.70	77.0786313984	570.59	785.80	Sunny(fair)	True	False	785.80
2010-07-02 14:00:00 43189 14 817.34 546.23 546.23 716.5 1060.40	77.0786313984	546.23	716.50	Sunny(mostly_cloudy)	True	False	716.50
2010-07-02 15:00:00 43190 15 723.85 483.75 483.75 791.5 939.10	77.0786313984	483.75	791.50	Sunny(mostly_cloudy)	True	False	791.50
2010-07-02 16:00:00 43191 16 552.54 383.45 383.45 510.9 744.40	74.2258734314	383.45	510.90	Sunny(partly_cloudy)	True	False	510.90
2010-07-02 17:00:00 43192 17 359.77 249.68 249.68 407.2 484.70	74.2258734314	249.68	407.20	Sunny(partly_cloudy)	True	False	407.20
2010-07-02 18:00:00 43193 18 167.60 116.31 116.31 159.1 225.80	74.2258734314	116.31	159.10	Sunny(sunny)	True	False	159.10
2010-07-02 19:00:00 43194 19 60.42 41.93 41.93 34.5 81.40	74.2258734314	41.93	34.50	Sunny(sunny)	True	False	34.50
2010-07-02 20:00:00 43195 20 5.05 3.50 3.50 1.9 6.80	74.2258734314	3.50	1.90	Sunny(sunny)	True	False	1.90
2010-07-02 21:00:00 43196 21 0.00 0.00 0.00 0.0 0.00	74.2258734314	0.00	0.00	Clear(clear)	True	False	0.00
2010-07-02 22:00:00 43197 22 0.00 0.00 0.00 0.0 0.00	74.2258734314	0.00	0.00	Clear(clear)	True	False	0.00
2010-07-02 23:00:00 43198 23 0.00 0.00 0.00 0.0 0.00	74.2258734314	0.00	0.00	Clear(clear)	True	False	0.00
2010-07-03 00:00:00 43199 0 0.00 0.00 0.00 0.0 0.00	74.2258734314	0.00	0.00	Clear(clear)	True	False	0.00
2010-07-03 01:00:00 43200 1 0.00 0.00 0.00 0.0 0.00	74.2258734314	0.00	0.00	Clear(clear)	True	False	0.00
2010-07-03 02:00:00 43201 2 0.00 0.00 0.00 0.0 0.00	74.2258734314	0.00	0.00	Clear(clear)	True	False	0.00
2010-07-03 03:00:00 43202 3 0.00 0.00 0.00 0.0 0.00	74.2258734314	0.00	0.00	Clear(clear)	True	False	0.00
2010-07-03 04:00:00 43203 4 0.00 0.00 0.00 0.0 0.00	72.3352145671	0.00	0.00	Partly_Cloudy(clear)	True	False	0.00
2010-07-03 05:00:00 43204 5 1.23 1.23 1.23 0.0 1.70	72.3352145671	1.23	0.00	Partly_Cloudy(sunny)	True	False	0.00
2010-07-03 06:00:00 43205 6 56.20 56.20 56.20 36.9 77.70	72.3352145671	56.20	36.90	Partly_Cloudy(sunny)	True	False	36.90
2010-07-03 07:00:00 43206 7 159.35 159.35 159.35 190.1 220.30	72.3352145671	159.35	190.10	Partly_Cloudy(sunny)	True	False	190.10
2010-07-03 08:00:00 43207 8 351.48 351.48 351.48 385.4 485.90	72.3352145671	351.48	385.40	Partly_Cloudy(sunny)	True	False	385.40
2010-07-03 09:00:00 43208 9 537.96 537.96 537.96 585.9 743.70	72.3352145671	537.96	585.90	Partly_Cloudy(sunny)	True	False	585.90
2010-07-03 10:00:00 43209 10 716.52 716.52 716.52 735.8 929.60	77.0786313984	716.52	735.80	Sunny(sunny)	True	False	735.80
2010-07-03 11:00:00 43210 11 799.84 799.84 799.84 823.1 1037.70	77.0786313984	799.84	823.10	Sunny(sunny)	True	False	823.10
2010-07-03 12:00:00 43211 12 854.11 854.11 854.11 857.9 1108.10	77.0786313984	854.11	857.90	Sunny(sunny)	True	False	857.90
2010-07-03 13:00:00 43212 13 853.80 853.80 853.80 853.4 1107.70	77.0786313984	853.80	853.40	Sunny(sunny)	True	False	853.40
2010-07-03 14:00:00 43213 14 817.34 817.34 817.34 806.0 1060.40	77.0786313984	817.34	806.00	Sunny(sunny)	True	False	806.00
2010-07-03 15:00:00 43214 15 723.85 723.85 723.85 711.3 939.10	77.0786313984	723.85	711.30	Sunny(sunny)	True	False	711.30
2010-07-03 16:00:00 43215 16 552.54 552.54 552.54 563.3 744.40	74.2258734314	552.54	563.30	Sunny(sunny)	True	False	563.30
2010-07-03 17:00:00 43216 17 359.77 359.77 359.77 349.9 484.70	74.2258734314	359.77	349.90	Sunny(sunny)	True	False	349.90
2010-07-03 18:00:00 43217 18 167.60 167.60 167.60 142.1 225.80	74.2258734314	167.60	142.10	Sunny(sunny)	True	False	142.10
2010-07-03 19:00:00 43218 19 60.42 60.42 60.42 23.9 81.40	74.2258734314	60.42	23.90	Sunny(sunny)	True	False	23.90
2010-07-03 20:00:00 43219 20 5.05 5.05 5.05 1.7 6.80	74.2258734314	5.05	1.70	Sunny(sunny)	True	False	1.70
2010-07-03 21:00:00 43220 21 0.00 0.00 0.00 0.0 0.00	74.2258734314	0.00	0.00	Clear(clear)	True	False	0.00
2010-07-03 22:00:00 43221 22 0.00 0.00 0.00 0.0 0.00	74.2258734314	0.00	0.00	Clear(clear)	True	False	0.00
2010-07-03 23:00:00 43222 23 0.00 0.00 0.00 0.0 0.00	74.2258734314	0.00	0.00	Clear(clear)	True	False	0.00
2010-07-04 00:00:00 43223 0 0.00 0.00 0.00 0.0 0.00	74.2258734314	0.00	0.00	Clear(clear)	True	False	0.00
2010-07-04 01:00:00 43224 1 0.00 0.00 0.00 0.0 0.00	74.2258734314	0.00	0.00	Clear(clear)	True	False	0.00
2010-07-04 02:00:00 43225 2 0.00 0.00 0.00 0.0 0.00	74.2258734314	0.00	0.00	Clear(clear)	True	False	0.00
2010-07-04 03:00:00 43226 3 0.00 0.00 0.00 0.0 0.00	74.2258734314	0.00	0.00	Clear(clear)	True	False	0.00
2010-07-04 04:00:00 43227 4 0.00 0.00 0.00 0.0 0.00	74.2258734314	0.00	0.00	Clear(clear)	True	False	0.00
2010-07-04 05:00:00 43228 5 1.26 1.26 1.26 0.0 1.70	74.2258734314	1.26	0.00	Clear(sunny)	True	False	0.00
2010-07-04 06:00:00 43229 6 57.67 57.67 57.67 24.5 77.70	74.2258734314	57.67	24.50	Sunny(sunny)	True	False	24.50
2010-07-04 07:00:00 43230 7 163.52 163.52 163.52 166.2 220.30	74.2258734314	163.52	166.20	Sunny(sunny)	True	False	166.20
2010-07-04 08:00:00 43231 8 360.66 360.66 360.66 384.9 485.90	74.2258734314	360.66	384.90	Sunny(sunny)	True	False	384.90
2010-07-04 09:00:00 43232 9 552.02 552.02 552.02 574.2 743.70	74.2258734314	552.02	574.20	Sunny(sunny)	True	False	574.20
2010-07-04 10:00:00 43233 10 716.52 716.52 716.52 710.8 929.60	77.0786313984	716.52	710.80	Sunny(sunny)	True	False	710.80
2010-07-04 11:00:00 43234 11 799.84 799.84 799.84 801.8 1037.70	77.0786313984	799.84	801.80	Sunny(sunny)	True	False	801.80
2010-07-04 12:00:00 43235 12 854.11 854.11 854.11 849.9 1108.10	77.0786313984	854.11	849.90	Sunny(sunny)	True	False	849.90
