2010-07-22 08:00:00 66511 8 417.74 417.74 417.74 461.6 485.90	85.9718557608	417.74	461.60	Sunny(sunny)	True	False	461.60
2010-07-22 09:00:00 66512 9 640.58 640.58 640.58 713.0 745.10	85.9718557608	640.58	713.00	Sunny(sunny)	True	False	713.00
2010-07-22 10:00:00 66513 10 845.48 845.48 845.48 903.1 919.50	91.9497391119	845.48	903.10	Sunny(sunny)	True	False	903.10
2010-07-22 11:00:00 66514 11 955.27 955.27 955.27 1007.0 1038.90	91.9497391119	955.27	1007.00	Sunny(sunny)	True	False	1007.00
2010-07-22 12:00:00 66515 12 1018.90 1018.90 1018.90 950.0 1108.10	91.9497391119	1018.90	950.00	Sunny(fair)	True	False	950.00
2010-07-22 13:00:00 66516 13 1018.53 1018.53 1018.53 792.3 1107.70	91.9497391119	1018.53	792.30	Sunny(fair)	True	False	792.30
2010-07-22 14:00:00 66517 14 975.04 975.04 975.04 807.3 1060.40	91.9497391119	975.04	807.30	Sunny(partly_cloudy)	True	False	807.30
2010-07-22 15:00:00 66518 15 863.50 863.50 863.50 705.3 939.10	91.9497391119	863.50	705.30	Sunny(mostly_cloudy)	True	False	705.30
2010-07-22 16:00:00 66519 16 697.81 697.81 697.81 588.6 758.90	91.9497391119	697.81	588.60	Mostly_Sunny(partly_cloudy)	False	False	588.60
2010-07-22 17:00:00 66520 17 458.55 458.55 458.55 405.3 498.70	91.9497391119	458.55	405.30	Mostly_Sunny(partly_cloudy)	False	False	405.30
2010-07-22 18:00:00 66521 18 209.09 209.09 209.09 161.4 227.40	91.9497391119	209.09	161.40	Mostly_Sunny(fair)	False	False	161.40
2010-07-22 19:00:00 66522 19 63.45 63.45 63.45 27.5 73.80	85.9718557608	63.45	27.50	Sunny(partly_cloudy)	True	False	27.50
2010-07-22 20:00:00 66523 20 5.85 5.85 5.85 0.6 6.80	85.9718557608	5.85	0.60	Sunny(fair)	True	False	0.60
2010-07-22 21:00:00 66524 21 0.00 0.00 0.00 0.0 0.00	85.9718557608	0.00	0.00	Clear(fair)	True	False	0.00
2010-07-22 22:00:00 66525 22 0.00 0.00 0.00 0.0 0.00	85.9718557608	0.00	0.00	Clear(partly_cloudy)	True	False	0.00
2010-07-22 23:00:00 66526 23 0.00 0.00 0.00 0.0 0.00	85.9718557608	0.00	0.00	Clear(partly_cloudy)	True	False	0.00
2010-07-23 00:00:00 66527 0 0.00 0.00 0.00 0.0 0.00	85.9718557608	0.00	0.00	Clear(partly_cloudy)	True	False	0.00
2010-07-23 01:00:00 66528 1 0.00 0.00 0.00 0.0 0.00	72.8717161686	0.00	0.00	Partly_Cloudy(partly_cloudy)	True	False	0.00
2010-07-23 02:00:00 66529 2 0.00 0.00 0.00 0.0 0.00	72.8717161686	0.00	0.00	Partly_Cloudy(partly_cloudy)	True	False	0.00
2010-07-23 03:00:00 66530 3 0.00 0.00 0.00 0.0 0.00	72.8717161686	0.00	0.00	Partly_Cloudy(partly_cloudy)	True	False	0.00
2010-07-23 04:00:00 66531 4 0.00 0.00 0.00 0.0 0.00	57.2691995307	0.00	0.00	Mostly_Cloudy(mostly_cloudy)	True	False	0.00
2010-07-23 05:00:00 66532 5 0.00 0.00 0.00 0.0 0.00	57.2691995307	0.00	0.00	Mostly_Cloudy(mostly_cloudy)	True	False	0.00
2010-07-23 06:00:00 66533 6 44.50 44.50 44.50 35.1 77.70	57.2691995307	44.50	35.10	Mostly_Cloudy(mostly_cloudy)	True	False	35.10
2010-07-23 07:00:00 66534 7 118.78 118.78 118.78 149.9 207.40	57.2691995307	118.78	149.90	Mostly_Cloudy(partly_cloudy)	True	False	149.90
2010-07-23 08:00:00 66535 8 278.27 278.27 278.27 343.3 485.90	57.2691995307	278.27	343.30	Mostly_Cloudy(partly_cloudy)	True	False	343.30
2010-07-23 09:00:00 66536 9 426.71 426.71 426.71 215.8 745.10	57.2691995307	426.71	215.80	Mostly_Cloudy(partly_cloudy)	True	False	215.80
2010-07-23 10:00:00 66537 10 537.27 537.27 537.27 186.0 919.50	58.4307808374	537.27	186.00	Mostly_Cloudy(mostly_cloudy)	True	False	186.00
2010-07-23 11:00:00 66538 11 607.04 607.04 607.04 220.9 1038.90	58.4307808374	607.04	220.90	Mostly_Cloudy(mostly_cloudy)	True	False	220.90
2010-07-23 12:00:00 66539 12 647.47 647.47 647.47 462.6 1108.10	58.4307808374	647.47	462.60	Mostly_Cloudy(light_rain)	True	False	462.60
2010-07-23 13:00:00 66540 13 228.77 228.77 228.77 463.5 1107.70	20.6525839306	228.77	463.50	Isolated_T-Storms(mostly_cloudy)	True	False	463.50
2010-07-23 14:00:00 66541 14 219.00 219.00 219.00 463.5 1060.40	20.6525839306	219.00	463.50	Isolated_T-Storms(mostly_cloudy)	True	False	463.50
2010-07-23 15:00:00 66542 15 193.95 193.95 193.95 479.4 939.10	20.6525839306	193.95	479.40	Isolated_T-Storms(mostly_cloudy)	True	False	479.40
2010-07-23 16:00:00 66543 16 194.78 194.78 194.78 418.7 758.90	25.6667335071	194.78	418.70	Scattered_T-Storms(partly_cloudy)	True	False	418.70
2010-07-23 17:00:00 66544 17 128.00 128.00 128.00 281.9 498.70	25.6667335071	128.00	281.90	Scattered_T-Storms(sunny)	True	False	281.90
2010-07-23 18:00:00 66545 18 58.37 58.37 58.37 134.0 227.40	25.6667335071	58.37	134.00	Scattered_T-Storms(sunny)	True	False	134.00
2010-07-23 19:00:00 66546 19 18.94 18.94 18.94 30.4 73.80	25.6667335071	18.94	30.40	Scattered_T-Storms(sunny)	True	False	30.40
2010-07-23 20:00:00 66547 20 1.75 1.75 1.75 0.0 6.80	25.6667335071	1.75	0.00	Scattered_T-Storms(partly_cloudy)	True	False	0.00
2010-07-23 21:00:00 66548 21 0.00 0.00 0.00 0.0 0.00	25.6667335071	0.00	0.00	Scattered_T-Storms(partly_cloudy)	True	False	0.00
2010-07-23 22:00:00 66549 22 0.00 0.00 0.00 0.0 0.00	25.6667335071	0.00	0.00	Isolated_T-Storms(clear)	True	False	0.00
2010-07-23 23:00:00 66550 23 0.00 0.00 0.00 0.0 0.00	25.6667335071	0.00	0.00	Isolated_T-Storms(clear)	True	False	0.00
2010-07-24 00:00:00 66551 0 0.00 0.00 0.00 0.0 0.00	25.6667335071	0.00	0.00	Isolated_T-Storms(light_rain)	True	False	0.00
2010-07-24 01:00:00 66552 1 0.00 0.00 0.00 0.0 0.00	25.6667335071	0.00	0.00	Isolated_T-Storms(partly_cloudy)	True	False	0.00
2010-07-24 02:00:00 66553 2 0.00 0.00 0.00 0.0 0.00	25.6667335071	0.00	0.00	Isolated_T-Storms(clear)	True	False	0.00
2010-07-24 03:00:00 66554 3 0.00 0.00 0.00 0.0 0.00	25.6667335071	0.00	0.00	Isolated_T-Storms(clear)	True	False	0.00
2010-07-24 04:00:00 66555 4 0.00 0.00 0.00 0.0 0.00	25.6667335071	0.00	0.00	Isolated_T-Storms(mostly_cloudy)	True	False	0.00
2010-07-24 05:00:00 66556 5 0.00 0.00 0.00 0.0 0.00	25.6667335071	0.00	0.00	Isolated_T-Storms(partly_cloudy)	True	False	0.00
2010-07-24 06:00:00 66557 6 19.94 19.94 19.94 26.0 77.70	25.6667335071	19.94	26.00	Isolated_T-Storms(fog)	True	False	26.00
2010-07-24 07:00:00 66558 7 53.23 53.23 53.23 139.7 207.40	25.6667335071	53.23	139.70	Few_Showers(partly_cloudy)	True	False	139.70
2010-07-24 08:00:00 66559 8 124.71 124.71 124.71 408.6 485.90	25.6667335071	124.71	408.60	Few_Showers(partly_cloudy)	True	False	408.60
