2010-07-01 15:00:00 42158 15 723.51 723.51 723.51 458.2 939.10	77.0425205381	723.51	458.20	Sunny(fair)	True	False	458.20
2010-07-01 16:00:00 42159 16 363.20 363.20 363.20 424.4 744.40	74.2258734314	363.20	424.40	Sunny(mostly_cloudy)	True	False	424.40
2010-07-01 17:00:00 42160 17 359.77 236.49 236.49 244.2 484.70	74.2258734314	236.49	244.20	Sunny(fair)	True	False	244.20
2010-07-01 18:00:00 42161 18 167.60 110.17 110.17 117.6 225.80	74.2258734314	110.17	117.60	Sunny(fair)	True	False	117.60
2010-07-01 19:00:00 42162 19 60.42 39.72 39.72 26.2 81.40	74.2258734314	39.72	26.20	Sunny(fair)	True	False	26.20
2010-07-01 20:00:00 42163 20 5.05 3.32 3.32 1.7 6.80	74.2258734314	3.32	1.70	Sunny(sunny)	True	False	1.70
2010-07-01 21:00:00 42164 21 0.00 0.00 0.00 0.0 0.00	74.2258734314	0.00	0.00	Clear(clear)	True	False	0.00
2010-07-01 22:00:00 42165 22 0.00 0.00 0.00 0.0 0.00	74.2258734314	0.00	0.00	Clear(clear)	True	False	0.00
2010-07-01 23:00:00 42166 23 0.00 0.00 0.00 0.0 0.00	74.2258734314	0.00	0.00	Clear(clear)	True	False	0.00
2010-07-02 00:00:00 42167 0 0.00 0.00 0.00 0.0 0.00	74.2258734314	0.00	0.00	Clear(clear)	True	False	0.00
2010-07-02 01:00:00 42168 1 0.00 0.00 0.00 0.0 0.00	74.2258734314	0.00	0.00	Clear(clear)	True	False	0.00
2010-07-02 02:00:00 42169 2 0.00 0.00 0.00 0.0 0.00	74.2258734314	0.00	0.00	Clear(clear)	True	False	0.00
2010-07-02 03:00:00 42170 3 0.00 0.00 0.00 0.0 0.00	74.2258734314	0.00	0.00	Clear(clear)	True	False	0.00
2010-07-02 04:00:00 42171 4 0.00 0.00 0.00 0.0 0.00	74.2258734314	0.00	0.00	Clear(clear)	True	False	0.00
2010-07-02 05:00:00 42172 5 1.34 1.34 1.34 0.2 1.80	74.2258734314	1.34	0.20	Clear(sunny)	True	False	0.20
2010-07-02 06:00:00 42173 6 57.67 57.67 57.67 33.8 77.70	74.2258734314	57.67	33.80	Sunny(sunny)	True	False	33.80
2010-07-02 07:00:00 42174 7 163.52 163.52 163.52 174.8 220.30	74.2258734314	163.52	174.80	Sunny(sunny)	True	False	174.80
2010-07-02 08:00:00 42175 8 360.66 360.66 360.66 402.7 485.90	74.2258734314	360.66	402.70	Sunny(sunny)	True	False	402.70
2010-07-02 09:00:00 42176 9 552.02 552.02 552.02 601.8 743.70	74.2258734314	552.02	601.80	Sunny(sunny)	True	False	601.80
2010-07-02 10:00:00 42177 10 716.19 716.19 716.19 709.2 929.60	77.0425205381	716.19	709.20	Sunny(sunny)	True	False	709.20
2010-07-02 11:00:00 42178 11 799.47 799.47 799.47 475.6 1037.70	77.0425205381	799.47	475.60	Sunny(sunny)	True	False	475.60
2010-07-02 12:00:00 42179 12 853.71 853.71 853.71 570.8 1108.10	77.0425205381	853.71	570.80	Sunny(fair)	True	False	570.80
2010-07-02 13:00:00 42180 13 853.40 853.40 853.40 785.8 1107.70	77.0425205381	853.40	785.80	Sunny(fair)	True	False	785.80
2010-07-02 14:00:00 42181 14 816.96 816.96 816.96 716.5 1060.40	77.0425205381	816.96	716.50	Sunny(mostly_cloudy)	True	False	716.50
2010-07-02 15:00:00 42182 15 723.51 723.51 723.51 791.5 939.10	77.0425205381	723.51	791.50	Sunny(mostly_cloudy)	True	False	791.50
2010-07-02 16:00:00 42183 16 552.54 552.54 552.54 510.9 744.40	74.2258734314	552.54	510.90	Sunny(partly_cloudy)	True	False	510.90
2010-07-02 17:00:00 42184 17 359.77 359.77 359.77 407.2 484.70	74.2258734314	359.77	407.20	Sunny(partly_cloudy)	True	False	407.20
2010-07-02 18:00:00 42185 18 167.60 167.60 167.60 159.1 225.80	74.2258734314	167.60	159.10	Sunny(sunny)	True	False	159.10
2010-07-02 19:00:00 42186 19 60.42 60.42 60.42 34.5 81.40	74.2258734314	60.42	34.50	Sunny(sunny)	True	False	34.50
2010-07-02 20:00:00 42187 20 5.05 5.05 5.05 1.9 6.80	74.2258734314	5.05	1.90	Sunny(sunny)	True	False	1.90
2010-07-02 21:00:00 42188 21 0.00 0.00 0.00 0.0 0.00	74.2258734314	0.00	0.00	Clear(clear)	True	False	0.00
2010-07-02 22:00:00 42189 22 0.00 0.00 0.00 0.0 0.00	74.2258734314	0.00	0.00	Clear(clear)	True	False	0.00
2010-07-02 23:00:00 42190 23 0.00 0.00 0.00 0.0 0.00	74.2258734314	0.00	0.00	Clear(clear)	True	False	0.00
2010-07-03 00:00:00 42191 0 0.00 0.00 0.00 0.0 0.00	74.2258734314	0.00	0.00	Clear(clear)	True	False	0.00
2010-07-03 01:00:00 42192 1 0.00 0.00 0.00 0.0 0.00	72.5868725869	0.00	0.00	Partly_Cloudy(clear)	True	False	0.00
2010-07-03 02:00:00 42193 2 0.00 0.00 0.00 0.0 0.00	72.5868725869	0.00	0.00	Partly_Cloudy(clear)	True	False	0.00
2010-07-03 03:00:00 42194 3 0.00 0.00 0.00 0.0 0.00	72.5868725869	0.00	0.00	Partly_Cloudy(clear)	True	False	0.00
2010-07-03 04:00:00 42195 4 0.00 0.00 0.00 0.0 0.00	74.2258734314	0.00	0.00	Clear(clear)	True	False	0.00
2010-07-03 05:00:00 42196 5 1.34 1.34 1.34 0.0 1.80	74.2258734314	1.34	0.00	Clear(sunny)	True	False	0.00
2010-07-03 06:00:00 42197 6 57.67 57.67 57.67 36.9 77.70	74.2258734314	57.67	36.90	Sunny(sunny)	True	False	36.90
2010-07-03 07:00:00 42198 7 163.52 163.52 163.52 190.1 220.30	74.2258734314	163.52	190.10	Sunny(sunny)	True	False	190.10
2010-07-03 08:00:00 42199 8 360.66 360.66 360.66 385.4 485.90	74.2258734314	360.66	385.40	Sunny(sunny)	True	False	385.40
2010-07-03 09:00:00 42200 9 552.02 552.02 552.02 585.9 743.70	74.2258734314	552.02	585.90	Sunny(sunny)	True	False	585.90
2010-07-03 10:00:00 42201 10 677.90 677.90 677.90 735.8 929.60	72.92383821	677.90	735.80	Partly_Cloudy(sunny)	True	False	735.80
2010-07-03 11:00:00 42202 11 756.73 756.73 756.73 823.1 1037.70	72.92383821	756.73	823.10	Partly_Cloudy(sunny)	True	False	823.10
2010-07-03 12:00:00 42203 12 808.07 808.07 808.07 857.9 1108.10	72.92383821	808.07	857.90	Partly_Cloudy(sunny)	True	False	857.90
2010-07-03 13:00:00 42204 13 807.78 807.78 807.78 853.4 1107.70	72.92383821	807.78	853.40	Partly_Cloudy(sunny)	True	False	853.40
2010-07-03 14:00:00 42205 14 773.28 773.28 773.28 806.0 1060.40	72.92383821	773.28	806.00	Partly_Cloudy(sunny)	True	False	806.00
2010-07-03 15:00:00 42206 15 684.83 684.83 684.83 711.3 939.10	72.92383821	684.83	711.30	Partly_Cloudy(sunny)	True	False	711.30
