2010-06-08 01:00:00 14424 1 0.00 0.00 0.00 0.0 0.00	78.9788933257	0.00	0.00	Partly_Cloudy(mostly_cloudy)	True	False	0.00
2010-06-08 02:00:00 14425 2 0.00 0.00 0.00 0.0 0.00	85.7142857143	0.00	0.00	Clear(mostly_cloudy)	True	False	0.00
2010-06-08 03:00:00 14426 3 0.00 0.00 0.00 0.0 0.00	85.7142857143	0.00	0.00	Clear(partly_cloudy)	True	False	0.00
2010-06-08 04:00:00 14427 4 0.00 0.00 0.00 0.0 0.00	85.7142857143	0.00	0.00	Clear(fair)	True	False	0.00
2010-06-08 05:00:00 14428 5 1.54 1.54 1.54 1.8 1.80	85.7142857143	1.54	1.80	Clear(sunny)	True	False	1.80
2010-06-08 06:00:00 14429 6 63.00 63.00 63.00 49.6 73.50	85.7142857143	63.00	49.60	Sunny(sunny)	True	False	49.60
2010-06-08 07:00:00 14430 7 213.00 213.00 213.00 240.8 248.50	85.7142857143	213.00	240.80	Sunny(sunny)	True	False	240.80
2010-06-08 08:00:00 14431 8 455.83 455.83 455.83 530.1 531.80	85.7142857143	455.83	530.10	Sunny(sunny)	True	False	530.10
2010-06-08 09:00:00 14432 9 650.91 650.91 650.91 784.7 759.40	85.7142857143	650.91	784.70	Sunny(sunny)	True	False	784.70
2010-06-08 10:00:00 14433 10 883.80 883.80 883.80 932.0 929.60	95.0730647709	883.80	932.00	Sunny(sunny)	True	False	932.00
2010-06-08 11:00:00 14434 11 999.98 999.98 999.98 771.9 1051.80	95.0730647709	999.98	771.90	Sunny(sunny)	True	False	771.90
2010-06-08 12:00:00 14435 12 1040.29 1040.29 1040.29 884.3 1094.20	95.0730647709	1040.29	884.30	Sunny(fair)	True	False	884.30
2010-06-08 13:00:00 14436 13 1026.69 1026.69 1026.69 830.2 1079.90	95.0730647709	1026.69	830.20	Sunny(partly_cloudy)	True	False	830.20
2010-06-08 14:00:00 14437 14 962.90 962.90 962.90 705.1 1012.80	95.0730647709	962.90	705.10	Sunny(fair)	True	False	705.10
2010-06-08 15:00:00 14438 15 849.19 849.19 849.19 974.1 893.20	95.0730647709	849.19	974.10	Sunny(partly_cloudy)	True	False	974.10
2010-06-08 16:00:00 14439 16 565.57 565.57 565.57 682.8 716.10	78.9788933257	565.57	682.80	Partly_Cloudy(sunny)	True	False	682.80
2010-06-08 17:00:00 14440 17 331.40 331.40 331.40 338.1 419.60	78.9788933257	331.40	338.10	Partly_Cloudy(partly_cloudy)	True	False	338.10
2010-06-08 18:00:00 14441 18 169.17 169.17 169.17 171.7 214.20	78.9788933257	169.17	171.70	Partly_Cloudy(sunny)	True	False	171.70
2010-06-08 19:00:00 14442 19 42.17 42.17 42.17 30.7 53.40	78.9788933257	42.17	30.70	Partly_Cloudy(mostly_cloudy)	True	False	30.70
2010-06-08 20:00:00 14443 20 2.21 2.21 2.21 0.4 2.80	78.9788933257	2.21	0.40	Partly_Cloudy(sunny)	True	False	0.40
2010-06-08 21:00:00 14444 21 0.00 0.00 0.00 0.0 0.00	78.9788933257	0.00	0.00	Partly_Cloudy(fair)	True	False	0.00
2010-06-08 22:00:00 14445 22 0.00 0.00 0.00 0.0 0.00	85.7142857143	0.00	0.00	Clear(clear)	True	False	0.00
2010-06-08 23:00:00 14446 23 0.00 0.00 0.00 0.0 0.00	85.7142857143	0.00	0.00	Clear(fair)	True	False	0.00
2010-06-09 00:00:00 14447 0 0.00 0.00 0.00 0.0 0.00	85.7142857143	0.00	0.00	Clear(partly_cloudy)	True	False	0.00
2010-06-09 01:00:00 14448 1 0.00 0.00 0.00 0.0 0.00	85.7142857143	0.00	0.00	Clear(fair)	True	False	0.00
2010-06-09 02:00:00 14449 2 0.00 0.00 0.00 0.0 0.00	85.7142857143	0.00	0.00	Clear(partly_cloudy)	True	False	0.00
2010-06-09 03:00:00 14450 3 0.00 0.00 0.00 0.0 0.00	85.7142857143	0.00	0.00	Clear(mostly_cloudy)	True	False	0.00
2010-06-09 04:00:00 14451 4 0.00 0.00 0.00 0.0 0.00	78.9788933257	0.00	0.00	Partly_Cloudy(fair)	True	False	0.00
2010-06-09 05:00:00 14452 5 1.42 1.42 1.42 3.7 1.80	78.9788933257	1.42	3.70	Partly_Cloudy(sunny)	True	False	3.70
2010-06-09 06:00:00 14453 6 58.05 58.05 58.05 89.7 73.50	78.9788933257	58.05	89.70	Partly_Cloudy(fair)	True	False	89.70
2010-06-09 07:00:00 14454 7 196.26 196.26 196.26 188.7 248.50	78.9788933257	196.26	188.70	Partly_Cloudy(partly_cloudy)	True	False	188.70
2010-06-09 08:00:00 14455 8 420.01 420.01 420.01 212.0 531.80	78.9788933257	420.01	212.00	Partly_Cloudy(mostly_cloudy)	True	False	212.00
2010-06-09 09:00:00 14456 9 599.77 599.77 599.77 347.4 759.40	78.9788933257	599.77	347.40	Partly_Cloudy(partly_cloudy)	True	False	347.40
2010-06-09 10:00:00 14457 10 497.60 497.60 497.60 319.6 929.60	53.5283993115	497.60	319.60	Cloudy(mostly_cloudy)	True	False	319.60
2010-06-09 11:00:00 14458 11 563.01 563.01 563.01 302.3 1051.80	53.5283993115	563.01	302.30	Cloudy(mostly_cloudy)	True	False	302.30
2010-06-09 12:00:00 14459 12 585.71 585.71 585.71 216.2 1094.20	53.5283993115	585.71	216.20	Cloudy(light_rain)	True	False	216.20
2010-06-09 13:00:00 14460 13 130.19 130.19 130.19 93.7 1079.90	12.0556872038	130.19	93.70	Few_Showers(light_rain)	True	False	93.70
2010-06-09 14:00:00 14461 14 122.10 122.10 122.10 92.0 1012.80	12.0556872038	122.10	92.00	Few_Showers(light_rain)	True	False	92.00
2010-06-09 15:00:00 14462 15 107.68 107.68 107.68 92.8 893.20	12.0556872038	107.68	92.80	Few_Showers(light_rain)	True	False	92.80
2010-06-09 16:00:00 14463 16 101.76 101.76 101.76 70.3 716.10	14.2104130809	101.76	70.30	Showers(light_rain)	True	False	70.30
2010-06-09 17:00:00 14464 17 59.63 59.63 59.63 15.9 419.60	14.2104130809	59.63	15.90	Showers(light_rain)	True	False	15.90
2010-06-09 18:00:00 14465 18 30.44 30.44 30.44 6.2 214.20	14.2104130809	30.44	6.20	Showers(light_rain)	True	False	6.20
2010-06-09 19:00:00 14466 19 7.59 7.59 7.59 0.0 53.40	14.2104130809	7.59	0.00	Showers(light_rain)	True	False	0.00
2010-06-09 20:00:00 14467 20 0.40 0.40 0.40 0.0 2.80	14.2104130809	0.40	0.00	Showers(light_rain)	True	False	0.00
2010-06-09 21:00:00 14468 21 0.00 0.00 0.00 0.0 0.00	14.2104130809	0.00	0.00	Showers(light_rain)	True	False	0.00
2010-06-09 22:00:00 14469 22 0.00 0.00 0.00 0.0 0.00	14.2104130809	0.00	0.00	Showers(light_rain)	True	False	0.00
2010-06-09 23:00:00 14470 23 0.00 0.00 0.00 0.0 0.00	14.2104130809	0.00	0.00	Showers(light_rain)	True	False	0.00
2010-06-10 00:00:00 14471 0 0.00 0.00 0.00 0.0 0.00	14.2104130809	0.00	0.00	Showers(cloudy)	True	False	0.00
2010-06-10 01:00:00 14472 1 0.00 0.00 0.00 0.0 0.00	42.3436041083	0.00	0.00	Cloudy(cloudy)	True	False	0.00
