2010-07-22 21:00:00 67148 21 0.00 0.00 0.00 0.0 0.00	85.9718557608	0.00	0.00	Clear(fair)	True	False	0.00
2010-07-22 22:00:00 67149 22 0.00 0.00 0.00 0.0 0.00	72.8717161686	0.00	0.00	Partly_Cloudy(partly_cloudy)	True	False	0.00
2010-07-22 23:00:00 67150 23 0.00 0.00 0.00 0.0 0.00	72.8717161686	0.00	0.00	Partly_Cloudy(partly_cloudy)	True	False	0.00
2010-07-23 00:00:00 67151 0 0.00 0.00 0.00 0.0 0.00	72.8717161686	0.00	0.00	Partly_Cloudy(partly_cloudy)	True	False	0.00
2010-07-23 01:00:00 67152 1 0.00 0.00 0.00 0.0 0.00	57.2691995307	0.00	0.00	Mostly_Cloudy(partly_cloudy)	True	False	0.00
2010-07-23 02:00:00 67153 2 0.00 0.00 0.00 0.0 0.00	57.2691995307	0.00	0.00	Mostly_Cloudy(partly_cloudy)	True	False	0.00
2010-07-23 03:00:00 67154 3 0.00 0.00 0.00 0.0 0.00	57.2691995307	0.00	0.00	Mostly_Cloudy(partly_cloudy)	True	False	0.00
2010-07-23 04:00:00 67155 4 0.00 0.00 0.00 0.0 0.00	72.8717161686	0.00	0.00	Partly_Cloudy(mostly_cloudy)	True	False	0.00
2010-07-23 05:00:00 67156 5 0.00 0.00 0.00 0.0 0.00	72.8717161686	0.00	0.00	Partly_Cloudy(mostly_cloudy)	True	False	0.00
2010-07-23 06:00:00 67157 6 56.62 56.62 56.62 35.1 77.70	72.8717161686	56.62	35.10	Partly_Cloudy(mostly_cloudy)	True	False	35.10
2010-07-23 07:00:00 67158 7 118.78 118.78 118.78 149.9 207.40	57.2691995307	118.78	149.90	Mostly_Cloudy(partly_cloudy)	True	False	149.90
2010-07-23 08:00:00 67159 8 278.27 278.27 278.27 343.3 485.90	57.2691995307	278.27	343.30	Mostly_Cloudy(partly_cloudy)	True	False	343.30
2010-07-23 09:00:00 67160 9 426.71 426.71 426.71 215.8 745.10	57.2691995307	426.71	215.80	Mostly_Cloudy(partly_cloudy)	True	False	215.80
2010-07-23 10:00:00 67161 10 537.27 537.27 537.27 186.0 919.50	58.4307808374	537.27	186.00	Mostly_Cloudy(mostly_cloudy)	True	False	186.00
2010-07-23 11:00:00 67162 11 607.04 607.04 607.04 220.9 1038.90	58.4307808374	607.04	220.90	Mostly_Cloudy(mostly_cloudy)	True	False	220.90
2010-07-23 12:00:00 67163 12 647.47 647.47 647.47 462.6 1108.10	58.4307808374	647.47	462.60	Mostly_Cloudy(light_rain)	True	False	462.60
2010-07-23 13:00:00 67164 13 807.20 807.20 807.20 463.5 1107.70	72.8717161686	807.20	463.50	Partly_Cloudy(mostly_cloudy)	True	False	463.50
2010-07-23 14:00:00 67165 14 772.73 772.73 772.73 463.5 1060.40	72.8717161686	772.73	463.50	Partly_Cloudy(mostly_cloudy)	True	False	463.50
2010-07-23 15:00:00 67166 15 684.34 684.34 684.34 479.4 939.10	72.8717161686	684.34	479.40	Partly_Cloudy(mostly_cloudy)	True	False	479.40
2010-07-23 16:00:00 67167 16 194.78 194.78 194.78 418.7 758.90	25.6667335071	194.78	418.70	Scattered_T-Storms(partly_cloudy)	True	False	418.70
2010-07-23 17:00:00 67168 17 128.00 128.00 128.00 281.9 498.70	25.6667335071	128.00	281.90	Scattered_T-Storms(sunny)	True	False	281.90
2010-07-23 18:00:00 67169 18 58.37 58.37 58.37 134.0 227.40	25.6667335071	58.37	134.00	Scattered_T-Storms(sunny)	True	False	134.00
2010-07-23 19:00:00 67170 19 18.94 18.94 18.94 30.4 73.80	25.6667335071	18.94	30.40	Isolated_T-Storms(sunny)	True	False	30.40
2010-07-23 20:00:00 67171 20 1.75 1.75 1.75 0.0 6.80	25.6667335071	1.75	0.00	Isolated_T-Storms(partly_cloudy)	True	False	0.00
2010-07-23 21:00:00 67172 21 0.00 0.00 0.00 0.0 0.00	25.6667335071	0.00	0.00	Isolated_T-Storms(partly_cloudy)	True	False	0.00
2010-07-23 22:00:00 67173 22 0.00 0.00 0.00 0.0 0.00	25.6667335071	0.00	0.00	Isolated_T-Storms(clear)	True	False	0.00
2010-07-23 23:00:00 67174 23 0.00 0.00 0.00 0.0 0.00	25.6667335071	0.00	0.00	Isolated_T-Storms(clear)	True	False	0.00
2010-07-24 00:00:00 67175 0 0.00 0.00 0.00 0.0 0.00	25.6667335071	0.00	0.00	Isolated_T-Storms(light_rain)	True	False	0.00
2010-07-24 01:00:00 67176 1 0.00 0.00 0.00 0.0 0.00	25.6667335071	0.00	0.00	Isolated_T-Storms(partly_cloudy)	True	False	0.00
2010-07-24 02:00:00 67177 2 0.00 0.00 0.00 0.0 0.00	25.6667335071	0.00	0.00	Isolated_T-Storms(clear)	True	False	0.00
2010-07-24 03:00:00 67178 3 0.00 0.00 0.00 0.0 0.00	25.6667335071	0.00	0.00	Isolated_T-Storms(clear)	True	False	0.00
2010-07-24 04:00:00 67179 4 0.00 0.00 0.00 0.0 0.00	25.6667335071	0.00	0.00	Isolated_T-Storms(mostly_cloudy)	True	False	0.00
2010-07-24 05:00:00 67180 5 0.00 0.00 0.00 0.0 0.00	25.6667335071	0.00	0.00	Isolated_T-Storms(partly_cloudy)	True	False	0.00
2010-07-24 06:00:00 67181 6 19.94 19.94 19.94 26.0 77.70	25.6667335071	19.94	26.00	Isolated_T-Storms(fog)	True	False	26.00
2010-07-24 07:00:00 67182 7 53.23 53.23 53.23 139.7 207.40	25.6667335071	53.23	139.70	Few_Showers(partly_cloudy)	True	False	139.70
2010-07-24 08:00:00 67183 8 124.71 124.71 124.71 408.6 485.90	25.6667335071	124.71	408.60	Few_Showers(partly_cloudy)	True	False	408.60
2010-07-24 09:00:00 67184 9 191.24 191.24 191.24 663.9 745.10	25.6667335071	191.24	663.90	Few_Showers(fair)	True	False	663.90
2010-07-24 10:00:00 67185 10 670.06 670.06 670.06 848.0 919.50	72.8717161686	670.06	848.00	Partly_Cloudy(fair)	True	False	848.00
2010-07-24 11:00:00 67186 11 757.06 757.06 757.06 980.3 1038.90	72.8717161686	757.06	980.30	Partly_Cloudy(fair)	True	False	980.30
2010-07-24 12:00:00 67187 12 807.49 807.49 807.49 877.6 1108.10	72.8717161686	807.49	877.60	Partly_Cloudy(sunny)	True	False	877.60
2010-07-24 13:00:00 67188 13 807.20 807.20 807.20 893.3 1107.70	72.8717161686	807.20	893.30	Partly_Cloudy(sunny)	True	False	893.30
2010-07-24 14:00:00 67189 14 772.73 772.73 772.73 940.8 1060.40	72.8717161686	772.73	940.80	Partly_Cloudy(fair)	True	False	940.80
2010-07-24 15:00:00 67190 15 684.34 684.34 684.34 800.4 939.10	72.8717161686	684.34	800.40	Partly_Cloudy(sunny)	True	False	800.40
2010-07-24 16:00:00 67191 16 194.78 194.78 194.78 609.8 758.90	25.6667335071	194.78	609.80	Isolated_T-Storms(sunny)	True	False	609.80
2010-07-24 17:00:00 67192 17 128.00 128.00 128.00 401.9 498.70	25.6667335071	128.00	401.90	Isolated_T-Storms(sunny)	True	False	401.90
2010-07-24 18:00:00 67193 18 58.37 58.37 58.37 163.6 227.40	25.6667335071	58.37	163.60	Isolated_T-Storms(partly_cloudy)	True	False	163.60
2010-07-24 19:00:00 67194 19 53.78 53.78 53.78 29.6 73.80	72.8717161686	53.78	29.60	Partly_Cloudy(fair)	True	False	29.60
2010-07-24 20:00:00 67195 20 4.96 4.96 4.96 0.0 6.80	72.8717161686	4.96	0.00	Partly_Cloudy(sunny)	True	False	0.00
2010-07-24 21:00:00 67196 21 0.00 0.00 0.00 0.0 0.00	72.8717161686	0.00	0.00	Partly_Cloudy(clear)	True	False	0.00
