2010-07-22 12:00:00 66707 12 1018.90 1018.90 1018.90 950.0 1108.10	91.9497391119	1018.90	950.00	Sunny(fair)	True	False	950.00
2010-07-22 13:00:00 66708 13 949.66 949.66 949.66 792.3 1107.70	91.9497391119	949.66	792.30	Mostly_Sunny(fair)	False	False	792.30
2010-07-22 14:00:00 66709 14 975.04 975.04 909.11 807.3 1060.40	85.7323346268	909.11	807.30	Mostly_Sunny(partly_cloudy)	False	False	807.30
2010-07-22 15:00:00 66710 15 863.50 863.50 805.11 705.3 939.10	85.7323346268	805.11	705.30	Mostly_Sunny(mostly_cloudy)	False	False	705.30
2010-07-22 16:00:00 66711 16 697.81 697.81 650.62 588.6 758.90	85.7323346268	650.62	588.60	Mostly_Sunny(partly_cloudy)	False	False	588.60
2010-07-22 17:00:00 66712 17 458.55 458.55 427.55 405.3 498.70	85.7323346268	427.55	405.30	Mostly_Sunny(partly_cloudy)	False	False	405.30
2010-07-22 18:00:00 66713 18 209.09 209.09 194.96 161.4 227.40	85.7323346268	194.96	161.40	Mostly_Sunny(fair)	False	False	161.40
2010-07-22 19:00:00 66714 19 63.45 63.45 63.27 27.5 73.80	85.9718557608	63.27	27.50	Sunny(partly_cloudy)	True	False	27.50
2010-07-22 20:00:00 66715 20 5.85 5.85 5.83 0.6 6.80	85.9718557608	5.83	0.60	Sunny(fair)	True	False	0.60
2010-07-22 21:00:00 66716 21 0.00 0.00 0.00 0.0 0.00	85.9718557608	0.00	0.00	Clear(fair)	True	False	0.00
2010-07-22 22:00:00 66717 22 0.00 0.00 0.00 0.0 0.00	85.9718557608	0.00	0.00	Clear(partly_cloudy)	True	False	0.00
2010-07-22 23:00:00 66718 23 0.00 0.00 0.00 0.0 0.00	85.9718557608	0.00	0.00	Clear(partly_cloudy)	True	False	0.00
2010-07-23 00:00:00 66719 0 0.00 0.00 0.00 0.0 0.00	85.9718557608	0.00	0.00	Clear(partly_cloudy)	True	False	0.00
2010-07-23 01:00:00 66720 1 0.00 0.00 0.00 0.0 0.00	72.8717161686	0.00	0.00	Partly_Cloudy(partly_cloudy)	True	False	0.00
2010-07-23 02:00:00 66721 2 0.00 0.00 0.00 0.0 0.00	72.8717161686	0.00	0.00	Partly_Cloudy(partly_cloudy)	True	False	0.00
2010-07-23 03:00:00 66722 3 0.00 0.00 0.00 0.0 0.00	72.8717161686	0.00	0.00	Partly_Cloudy(partly_cloudy)	True	False	0.00
2010-07-23 04:00:00 66723 4 0.00 0.00 0.00 0.0 0.00	57.2691995307	0.00	0.00	Mostly_Cloudy(mostly_cloudy)	True	False	0.00
2010-07-23 05:00:00 66724 5 0.00 0.00 0.00 0.0 0.00	57.2691995307	0.00	0.00	Mostly_Cloudy(mostly_cloudy)	True	False	0.00
2010-07-23 06:00:00 66725 6 44.50 44.50 44.50 35.1 77.70	57.2691995307	44.50	35.10	Mostly_Cloudy(mostly_cloudy)	True	False	35.10
2010-07-23 07:00:00 66726 7 118.78 118.78 118.78 149.9 207.40	57.2691995307	118.78	149.90	Mostly_Cloudy(partly_cloudy)	True	False	149.90
2010-07-23 08:00:00 66727 8 278.27 278.27 278.27 343.3 485.90	57.2691995307	278.27	343.30	Mostly_Cloudy(partly_cloudy)	True	False	343.30
2010-07-23 09:00:00 66728 9 426.71 426.71 426.71 215.8 745.10	57.2691995307	426.71	215.80	Mostly_Cloudy(partly_cloudy)	True	False	215.80
2010-07-23 10:00:00 66729 10 537.27 537.27 537.27 186.0 919.50	58.4307808374	537.27	186.00	Mostly_Cloudy(mostly_cloudy)	True	False	186.00
2010-07-23 11:00:00 66730 11 607.04 607.04 607.04 220.9 1038.90	58.4307808374	607.04	220.90	Mostly_Cloudy(mostly_cloudy)	True	False	220.90
2010-07-23 12:00:00 66731 12 647.47 647.47 647.47 462.6 1108.10	58.4307808374	647.47	462.60	Mostly_Cloudy(light_rain)	True	False	462.60
2010-07-23 13:00:00 66732 13 228.77 228.77 228.77 463.5 1107.70	20.6525839306	228.77	463.50	Isolated_T-Storms(mostly_cloudy)	True	False	463.50
2010-07-23 14:00:00 66733 14 219.00 219.00 219.00 463.5 1060.40	20.6525839306	219.00	463.50	Isolated_T-Storms(mostly_cloudy)	True	False	463.50
2010-07-23 15:00:00 66734 15 193.95 193.95 193.95 479.4 939.10	20.6525839306	193.95	479.40	Isolated_T-Storms(mostly_cloudy)	True	False	479.40
2010-07-23 16:00:00 66735 16 194.78 194.78 194.78 418.7 758.90	25.6667335071	194.78	418.70	Scattered_T-Storms(partly_cloudy)	True	False	418.70
2010-07-23 17:00:00 66736 17 128.00 128.00 128.00 281.9 498.70	25.6667335071	128.00	281.90	Scattered_T-Storms(sunny)	True	False	281.90
2010-07-23 18:00:00 66737 18 58.37 58.37 58.37 134.0 227.40	25.6667335071	58.37	134.00	Scattered_T-Storms(sunny)	True	False	134.00
2010-07-23 19:00:00 66738 19 18.94 18.94 18.94 30.4 73.80	25.6667335071	18.94	30.40	Scattered_T-Storms(sunny)	True	False	30.40
2010-07-23 20:00:00 66739 20 1.75 1.75 1.75 0.0 6.80	25.6667335071	1.75	0.00	Scattered_T-Storms(partly_cloudy)	True	False	0.00
2010-07-23 21:00:00 66740 21 0.00 0.00 0.00 0.0 0.00	25.6667335071	0.00	0.00	Scattered_T-Storms(partly_cloudy)	True	False	0.00
2010-07-23 22:00:00 66741 22 0.00 0.00 0.00 0.0 0.00	25.6667335071	0.00	0.00	Isolated_T-Storms(clear)	True	False	0.00
2010-07-23 23:00:00 66742 23 0.00 0.00 0.00 0.0 0.00	25.6667335071	0.00	0.00	Isolated_T-Storms(clear)	True	False	0.00
2010-07-24 00:00:00 66743 0 0.00 0.00 0.00 0.0 0.00	25.6667335071	0.00	0.00	Isolated_T-Storms(light_rain)	True	False	0.00
2010-07-24 01:00:00 66744 1 0.00 0.00 0.00 0.0 0.00	25.6667335071	0.00	0.00	Isolated_T-Storms(partly_cloudy)	True	False	0.00
2010-07-24 02:00:00 66745 2 0.00 0.00 0.00 0.0 0.00	25.6667335071	0.00	0.00	Isolated_T-Storms(clear)	True	False	0.00
2010-07-24 03:00:00 66746 3 0.00 0.00 0.00 0.0 0.00	25.6667335071	0.00	0.00	Isolated_T-Storms(clear)	True	False	0.00
2010-07-24 04:00:00 66747 4 0.00 0.00 0.00 0.0 0.00	25.6667335071	0.00	0.00	Isolated_T-Storms(mostly_cloudy)	True	False	0.00
2010-07-24 05:00:00 66748 5 0.00 0.00 0.00 0.0 0.00	25.6667335071	0.00	0.00	Isolated_T-Storms(partly_cloudy)	True	False	0.00
2010-07-24 06:00:00 66749 6 19.94 19.94 19.94 26.0 77.70	25.6667335071	19.94	26.00	Isolated_T-Storms(fog)	True	False	26.00
2010-07-24 07:00:00 66750 7 53.23 53.23 53.23 139.7 207.40	25.6667335071	53.23	139.70	Few_Showers(partly_cloudy)	True	False	139.70
2010-07-24 08:00:00 66751 8 124.71 124.71 124.71 408.6 485.90	25.6667335071	124.71	408.60	Few_Showers(partly_cloudy)	True	False	408.60
2010-07-24 09:00:00 66752 9 191.24 191.24 191.24 663.9 745.10	25.6667335071	191.24	663.90	Few_Showers(fair)	True	False	663.90
2010-07-24 10:00:00 66753 10 845.48 845.48 845.48 848.0 919.50	91.9497391119	845.48	848.00	Sunny(fair)	True	False	848.00
2010-07-24 11:00:00 66754 11 955.27 955.27 955.27 980.3 1038.90	91.9497391119	955.27	980.30	Sunny(fair)	True	False	980.30
2010-07-24 12:00:00 66755 12 807.49 807.49 807.49 877.6 1108.10	72.8717161686	807.49	877.60	Partly_Cloudy(sunny)	True	False	877.60
