2010-07-05 22:00:00 47205 22 0.00 0.00 0.00 0.0 0.00	76.7244856797	0.00	0.00	Clear(clear)	True	False	0.00
2010-07-05 23:00:00 47206 23 0.00 0.00 0.00 0.0 0.00	76.7244856797	0.00	0.00	Clear(clear)	True	False	0.00
2010-07-06 00:00:00 47207 0 0.00 0.00 0.00 0.0 0.00	76.7244856797	0.00	0.00	Clear(clear)	True	False	0.00
2010-07-06 01:00:00 47208 1 0.00 0.00 0.00 0.0 0.00	76.7244856797	0.00	0.00	Clear(clear)	True	False	0.00
2010-07-06 02:00:00 47209 2 0.00 0.00 0.00 0.0 0.00	76.7244856797	0.00	0.00	Clear(clear)	True	False	0.00
2010-07-06 03:00:00 47210 3 0.00 0.00 0.00 0.0 0.00	76.7244856797	0.00	0.00	Clear(clear)	True	False	0.00
2010-07-06 04:00:00 47211 4 0.00 0.00 0.00 0.0 0.00	76.7244856797	0.00	0.00	Clear(clear)	True	False	0.00
2010-07-06 05:00:00 47212 5 0.23 0.23 0.23 0.0 0.30	76.7244856797	0.23	0.00	Clear(sunny)	True	False	0.00
2010-07-06 06:00:00 47213 6 59.61 59.61 59.61 27.7 77.70	76.7244856797	59.61	27.70	Sunny(sunny)	True	False	27.70
2010-07-06 07:00:00 47214 7 159.13 159.13 159.13 152.1 207.40	76.7244856797	159.13	152.10	Sunny(sunny)	True	False	152.10
2010-07-06 08:00:00 47215 8 372.80 372.80 372.80 341.2 485.90	76.7244856797	372.80	341.20	Sunny(sunny)	True	False	341.20
2010-07-06 09:00:00 47216 9 570.60 570.60 570.60 522.9 743.70	76.7244856797	570.60	522.90	Sunny(sunny)	True	False	522.90
2010-07-06 10:00:00 47217 10 733.30 733.30 733.30 665.8 919.50	79.7498640566	733.30	665.80	Sunny(sunny)	True	False	665.80
2010-07-06 11:00:00 47218 11 828.52 828.52 828.52 748.1 1038.90	79.7498640566	828.52	748.10	Sunny(sunny)	True	False	748.10
2010-07-06 12:00:00 47219 12 883.71 883.71 883.71 685.8 1108.10	79.7498640566	883.71	685.80	Sunny(sunny)	True	False	685.80
2010-07-06 13:00:00 47220 13 883.39 883.39 883.39 566.1 1107.70	79.7498640566	883.39	566.10	Sunny(sunny)	True	False	566.10
2010-07-06 14:00:00 47221 14 845.67 845.67 845.67 714.4 1060.40	79.7498640566	845.67	714.40	Sunny(sunny)	True	False	714.40
2010-07-06 15:00:00 47222 15 748.93 748.93 748.93 499.2 939.10	79.7498640566	748.93	499.20	Sunny(fair)	True	False	499.20
2010-07-06 16:00:00 47223 16 582.26 582.26 582.26 534.6 758.90	76.7244856797	582.26	534.60	Sunny(sunny)	True	False	534.60
2010-07-06 17:00:00 47224 17 382.63 382.63 382.63 334.5 498.70	76.7244856797	382.63	334.50	Sunny(sunny)	True	False	334.50
2010-07-06 18:00:00 47225 18 173.24 173.24 173.24 141.3 225.80	76.7244856797	173.24	141.30	Sunny(sunny)	True	False	141.30
2010-07-06 19:00:00 47226 19 62.45 62.45 62.45 43.9 81.40	76.7244856797	62.45	43.90	Mostly_Sunny(sunny)	False	False	43.90
2010-07-06 20:00:00 47227 20 5.22 5.22 5.22 1.8 6.80	76.7244856797	5.22	1.80	Mostly_Sunny(sunny)	False	False	1.80
2010-07-06 21:00:00 47228 21 0.00 0.00 0.00 0.0 0.00	76.7244856797	0.00	0.00	Mostly_Clear(clear)	False	False	0.00
2010-07-06 22:00:00 47229 22 0.00 0.00 0.00 0.0 0.00	76.7244856797	0.00	0.00	Mostly_Clear(fair)	False	False	0.00
2010-07-06 23:00:00 47230 23 0.00 0.00 0.00 0.0 0.00	76.7244856797	0.00	0.00	Mostly_Clear(fair)	False	False	0.00
2010-07-07 00:00:00 47231 0 0.00 0.00 0.00 0.0 0.00	76.7244856797	0.00	0.00	Mostly_Clear(fair)	False	False	0.00
2010-07-07 01:00:00 47232 1 0.00 0.00 0.00 0.0 0.00	76.7244856797	0.00	0.00	Clear(fair)	True	False	0.00
2010-07-07 02:00:00 47233 2 0.00 0.00 0.00 0.0 0.00	76.7244856797	0.00	0.00	Clear(fair)	True	False	0.00
2010-07-07 03:00:00 47234 3 0.00 0.00 0.00 0.0 0.00	76.7244856797	0.00	0.00	Clear(fair)	True	False	0.00
2010-07-07 04:00:00 47235 4 0.00 0.00 0.00 0.0 0.00	76.7244856797	0.00	0.00	Clear(cloudy)	True	False	0.00
2010-07-07 05:00:00 47236 5 0.23 0.23 0.23 0.0 0.30	76.7244856797	0.23	0.00	Clear(partly_cloudy)	True	False	0.00
2010-07-07 06:00:00 47237 6 59.61 59.61 59.61 41.1 77.70	76.7244856797	59.61	41.10	Sunny(mostly_cloudy)	True	False	41.10
2010-07-07 07:00:00 47238 7 159.13 159.13 159.13 155.3 207.40	76.7244856797	159.13	155.30	Sunny(partly_cloudy)	True	False	155.30
2010-07-07 08:00:00 47239 8 372.80 372.80 372.80 350.2 485.90	76.7244856797	372.80	350.20	Sunny(fair)	True	False	350.20
2010-07-07 09:00:00 47240 9 570.60 570.60 570.60 521.5 743.70	76.7244856797	570.60	521.50	Sunny(sunny)	True	False	521.50
2010-07-07 10:00:00 47241 10 733.30 733.30 733.30 656.0 919.50	79.7498640566	733.30	656.00	Sunny(sunny)	True	False	656.00
2010-07-07 11:00:00 47242 11 828.52 828.52 828.52 758.5 1038.90	79.7498640566	828.52	758.50	Sunny(sunny)	True	False	758.50
2010-07-07 12:00:00 47243 12 883.71 883.71 883.71 803.8 1108.10	79.7498640566	883.71	803.80	Sunny(sunny)	True	False	803.80
2010-07-07 13:00:00 47244 13 818.76 818.76 818.76 226.6 1107.70	73.9155035836	818.76	226.60	Partly_Cloudy(sunny)	True	False	226.60
2010-07-07 14:00:00 47245 14 783.80 783.80 783.80 5.3 1060.40	73.9155035836	783.80	5.30	Partly_Cloudy(fair)	True	False	5.30
2010-07-07 15:00:00 47246 15 694.14 694.14 694.14 646.8 939.10	73.9155035836	694.14	646.80	Partly_Cloudy(fair)	True	False	646.80
2010-07-07 16:00:00 47247 16 559.50 559.50 559.50 505.8 758.90	73.7248504622	559.50	505.80	Partly_Cloudy(fair)	True	False	505.80
2010-07-07 17:00:00 47248 17 367.67 367.67 367.67 312.2 498.70	73.7248504622	367.67	312.20	Partly_Cloudy(fair)	True	False	312.20
2010-07-07 18:00:00 47249 18 166.47 166.47 166.47 141.8 225.80	73.7248504622	166.47	141.80	Partly_Cloudy(mostly_cloudy)	True	False	141.80
2010-07-07 19:00:00 47250 19 47.97 47.97 47.97 41.0 81.40	58.9373375686	47.97	41.00	Mostly_Cloudy(fair)	True	False	41.00
2010-07-07 20:00:00 47251 20 4.01 4.01 4.01 2.6 6.80	58.9373375686	4.01	2.60	Mostly_Cloudy(sunny)	True	False	2.60
2010-07-07 21:00:00 47252 21 0.00 0.00 0.00 0.0 0.00	58.9373375686	0.00	0.00	Mostly_Cloudy(clear)	True	False	0.00
2010-07-07 22:00:00 47253 22 0.00 0.00 0.00 0.0 0.00	73.7248504622	0.00	0.00	Partly_Cloudy(clear)	True	False	0.00
