2010-07-03 16:00:00 44559 16 563.30 563.30 581.71 563.3 744.40	75.6716818915	581.71	563.30	Sunny(sunny)	True	False	563.30
2010-07-03 17:00:00 44560 17 366.78 366.78 366.78 349.9 484.70	75.6716818915	366.78	349.90	Sunny(sunny)	True	False	349.90
2010-07-03 18:00:00 44561 18 170.87 170.87 170.87 142.1 225.80	75.6716818915	170.87	142.10	Sunny(sunny)	True	False	142.10
2010-07-03 19:00:00 44562 19 61.60 61.60 61.60 23.9 81.40	75.6716818915	61.60	23.90	Sunny(sunny)	True	False	23.90
2010-07-03 20:00:00 44563 20 5.15 5.15 5.15 1.7 6.80	75.6716818915	5.15	1.70	Sunny(sunny)	True	False	1.70
2010-07-03 21:00:00 44564 21 0.00 0.00 0.00 0.0 0.00	75.6716818915	0.00	0.00	Clear(clear)	True	False	0.00
2010-07-03 22:00:00 44565 22 0.00 0.00 0.00 0.0 0.00	75.6716818915	0.00	0.00	Clear(clear)	True	False	0.00
2010-07-03 23:00:00 44566 23 0.00 0.00 0.00 0.0 0.00	75.6716818915	0.00	0.00	Clear(clear)	True	False	0.00
2010-07-04 00:00:00 44567 0 0.00 0.00 0.00 0.0 0.00	75.6716818915	0.00	0.00	Clear(clear)	True	False	0.00
2010-07-04 01:00:00 44568 1 0.00 0.00 0.00 0.0 0.00	75.6716818915	0.00	0.00	Clear(clear)	True	False	0.00
2010-07-04 02:00:00 44569 2 0.00 0.00 0.00 0.0 0.00	75.6716818915	0.00	0.00	Clear(clear)	True	False	0.00
2010-07-04 03:00:00 44570 3 0.00 0.00 0.00 0.0 0.00	75.6716818915	0.00	0.00	Clear(clear)	True	False	0.00
2010-07-04 04:00:00 44571 4 0.00 0.00 0.00 0.0 0.00	75.6716818915	0.00	0.00	Clear(clear)	True	False	0.00
2010-07-04 05:00:00 44572 5 0.23 0.23 0.23 0.0 0.30	75.6716818915	0.23	0.00	Clear(sunny)	True	False	0.00
2010-07-04 06:00:00 44573 6 58.80 58.80 58.80 24.5 77.70	75.6716818915	58.80	24.50	Sunny(sunny)	True	False	24.50
2010-07-04 07:00:00 44574 7 166.70 166.70 166.70 166.2 220.30	75.6716818915	166.70	166.20	Mostly_Sunny(sunny)	False	False	166.20
2010-07-04 08:00:00 44575 8 367.69 367.69 367.69 384.9 485.90	75.6716818915	367.69	384.90	Mostly_Sunny(sunny)	False	False	384.90
2010-07-04 09:00:00 44576 9 562.77 562.77 562.77 574.2 743.70	75.6716818915	562.77	574.20	Mostly_Sunny(sunny)	False	False	574.20
2010-07-04 10:00:00 44577 10 710.80 710.80 710.80 710.8 909.60	78.144239226	710.80	710.80	Sunny(sunny)	True	False	710.80
2010-07-04 11:00:00 44578 11 810.90 810.90 810.90 801.8 1037.70	78.144239226	810.90	801.80	Sunny(sunny)	True	False	801.80
2010-07-04 12:00:00 44579 12 865.92 865.92 865.92 849.9 1108.10	78.144239226	865.92	849.90	Sunny(sunny)	True	False	849.90
2010-07-04 13:00:00 44580 13 865.60 865.60 865.60 840.5 1107.70	78.144239226	865.60	840.50	Sunny(sunny)	True	False	840.50
2010-07-04 14:00:00 44581 14 828.64 828.64 828.64 775.2 1060.40	78.144239226	828.64	775.20	Sunny(sunny)	True	False	775.20
2010-07-04 15:00:00 44582 15 733.85 733.85 733.85 695.1 939.10	78.144239226	733.85	695.10	Sunny(sunny)	True	False	695.10
2010-07-04 16:00:00 44583 16 563.30 563.30 563.30 555.8 744.40	75.6716818915	563.30	555.80	Sunny(sunny)	True	False	555.80
2010-07-04 17:00:00 44584 17 366.78 366.78 366.78 346.8 484.70	75.6716818915	366.78	346.80	Sunny(sunny)	True	False	346.80
2010-07-04 18:00:00 44585 18 170.87 170.87 170.87 149.8 225.80	75.6716818915	170.87	149.80	Sunny(sunny)	True	False	149.80
2010-07-04 19:00:00 44586 19 61.60 61.60 61.60 40.3 81.40	75.6716818915	61.60	40.30	Sunny(sunny)	True	False	40.30
2010-07-04 20:00:00 44587 20 5.15 5.15 5.15 4.9 6.80	75.6716818915	5.15	4.90	Sunny(sunny)	True	False	4.90
2010-07-04 21:00:00 44588 21 0.00 0.00 0.00 0.0 0.00	75.6716818915	0.00	0.00	Clear(clear)	True	False	0.00
2010-07-04 22:00:00 44589 22 0.00 0.00 0.00 0.0 0.00	75.6716818915	0.00	0.00	Clear(clear)	True	False	0.00
2010-07-04 23:00:00 44590 23 0.00 0.00 0.00 0.0 0.00	75.6716818915	0.00	0.00	Clear(fair)	True	False	0.00
2010-07-05 00:00:00 44591 0 0.00 0.00 0.00 0.0 0.00	75.6716818915	0.00	0.00	Clear(fair)	True	False	0.00
2010-07-05 01:00:00 44592 1 0.00 0.00 0.00 0.0 0.00	75.6716818915	0.00	0.00	Clear(fair)	True	False	0.00
2010-07-05 02:00:00 44593 2 0.00 0.00 0.00 0.0 0.00	75.6716818915	0.00	0.00	Clear(clear)	True	False	0.00
2010-07-05 03:00:00 44594 3 0.00 0.00 0.00 0.0 0.00	75.6716818915	0.00	0.00	Clear(clear)	True	False	0.00
2010-07-05 04:00:00 44595 4 0.00 0.00 0.00 0.0 0.00	75.6716818915	0.00	0.00	Clear(clear)	True	False	0.00
2010-07-05 05:00:00 44596 5 0.23 0.23 0.23 0.0 0.30	75.6716818915	0.23	0.00	Clear(sunny)	True	False	0.00
2010-07-05 06:00:00 44597 6 58.80 58.80 58.80 46.2 77.70	75.6716818915	58.80	46.20	Sunny(sunny)	True	False	46.20
2010-07-05 07:00:00 44598 7 166.70 166.70 166.70 161.7 220.30	75.6716818915	166.70	161.70	Sunny(sunny)	True	False	161.70
2010-07-05 08:00:00 44599 8 367.69 367.69 367.69 352.8 485.90	75.6716818915	367.69	352.80	Sunny(sunny)	True	False	352.80
2010-07-05 09:00:00 44600 9 562.77 562.77 562.77 530.7 743.70	75.6716818915	562.77	530.70	Sunny(sunny)	True	False	530.70
2010-07-05 10:00:00 44601 10 688.31 688.31 688.31 678.2 909.60	75.6716818915	688.31	678.20	Mostly_Sunny(sunny)	False	False	678.20
2010-07-05 11:00:00 44602 11 785.25 785.25 785.25 760.5 1037.70	75.6716818915	785.25	760.50	Mostly_Sunny(sunny)	False	False	760.50
2010-07-05 12:00:00 44603 12 838.52 838.52 838.52 817.3 1108.10	75.6716818915	838.52	817.30	Mostly_Sunny(sunny)	False	False	817.30
2010-07-05 13:00:00 44604 13 801.26 801.26 801.26 822.2 1107.70	72.3352145671	801.26	822.20	Partly_Cloudy(sunny)	True	False	822.20
2010-07-05 14:00:00 44605 14 767.04 767.04 767.04 770.8 1060.40	72.3352145671	767.04	770.80	Partly_Cloudy(sunny)	True	False	770.80
2010-07-05 15:00:00 44606 15 679.30 679.30 679.30 680.5 939.10	72.3352145671	679.30	680.50	Partly_Cloudy(sunny)	True	False	680.50
2010-07-05 16:00:00 44607 16 540.34 540.34 540.34 532.1 744.40	72.5868725869	540.34	532.10	Partly_Cloudy(sunny)	True	False	532.10
