2010-07-24 03:00:00 68618 3 0.00 0.00 0.00 0.0 0.00	25.1376535366	0.00	0.00	Scattered_T-Storms(clear)	True	False	0.00
2010-07-24 04:00:00 68619 4 0.00 0.00 0.00 0.0 0.00	25.1376535366	0.00	0.00	Few_Showers(mostly_cloudy)	True	False	0.00
2010-07-24 05:00:00 68620 5 0.00 0.00 0.00 0.0 0.00	25.1376535366	0.00	0.00	Few_Showers(partly_cloudy)	True	False	0.00
2010-07-24 06:00:00 68621 6 19.53 19.53 19.53 26.0 77.70	25.1376535366	19.53	26.00	Few_Showers(fog)	True	False	26.00
2010-07-24 07:00:00 68622 7 151.91 151.91 151.91 139.7 203.10	74.7967479675	151.91	139.70	Partly_Cloudy(partly_cloudy)	True	False	139.70
2010-07-24 08:00:00 68623 8 353.19 353.19 353.19 408.6 472.20	74.7967479675	353.19	408.60	Partly_Cloudy(partly_cloudy)	True	False	408.60
2010-07-24 09:00:00 68624 9 557.31 557.31 557.31 663.9 745.10	74.7967479675	557.31	663.90	Partly_Cloudy(fair)	True	False	663.90
2010-07-24 10:00:00 68625 10 853.86 853.86 853.86 848.0 919.50	92.8611844587	853.86	848.00	Sunny(fair)	True	False	848.00
2010-07-24 11:00:00 68626 11 964.73 964.73 964.73 980.3 1038.90	92.8611844587	964.73	980.30	Sunny(fair)	True	False	980.30
2010-07-24 12:00:00 68627 12 1028.99 1028.99 1028.99 877.6 1108.10	92.8611844587	1028.99	877.60	Sunny(sunny)	True	False	877.60
2010-07-24 13:00:00 68628 13 212.40 212.40 212.40 893.3 1107.70	19.1748668412	212.40	893.30	Isolated_T-Storms(sunny)	True	False	893.30
2010-07-24 14:00:00 68629 14 203.33 203.33 203.33 940.8 1060.40	19.1748668412	203.33	940.80	Isolated_T-Storms(fair)	True	False	940.80
2010-07-24 15:00:00 68630 15 180.07 180.07 180.07 800.4 939.10	19.1748668412	180.07	800.40	Isolated_T-Storms(sunny)	True	False	800.40
2010-07-24 16:00:00 68631 16 190.77 190.77 190.77 609.8 758.90	25.1376535366	190.77	609.80	Isolated_T-Storms(sunny)	True	False	609.80
2010-07-24 17:00:00 68632 17 125.36 125.36 125.36 401.9 498.70	25.1376535366	125.36	401.90	Isolated_T-Storms(sunny)	True	False	401.90
2010-07-24 18:00:00 68633 18 57.16 57.16 57.16 163.6 227.40	25.1376535366	57.16	163.60	Isolated_T-Storms(partly_cloudy)	True	False	163.60
2010-07-24 19:00:00 68634 19 55.20 55.20 55.20 29.6 73.80	74.7967479675	55.20	29.60	Partly_Cloudy(fair)	True	False	29.60
2010-07-24 20:00:00 68635 20 5.09 5.09 5.09 0.0 6.80	74.7967479675	5.09	0.00	Partly_Cloudy(sunny)	True	False	0.00
2010-07-24 21:00:00 68636 21 0.00 0.00 0.00 0.0 0.00	74.7967479675	0.00	0.00	Partly_Cloudy(clear)	True	False	0.00
2010-07-24 22:00:00 68637 22 0.00 0.00 0.00 0.0 0.00	74.7967479675	0.00	0.00	Partly_Cloudy(clear)	True	False	0.00
2010-07-24 23:00:00 68638 23 0.00 0.00 0.00 0.0 0.00	74.7967479675	0.00	0.00	Partly_Cloudy(clear)	True	False	0.00
2010-07-25 00:00:00 68639 0 0.00 0.00 0.00 0.0 0.00	74.7967479675	0.00	0.00	Partly_Cloudy(fair)	True	False	0.00
2010-07-25 01:00:00 68640 1 0.00 0.00 0.00 0.0 0.00	74.7967479675	0.00	0.00	Partly_Cloudy(fair)	True	False	0.00
2010-07-25 02:00:00 68641 2 0.00 0.00 0.00 0.0 0.00	74.7967479675	0.00	0.00	Partly_Cloudy(clear)	True	False	0.00
2010-07-25 03:00:00 68642 3 0.00 0.00 0.00 0.0 0.00	74.7967479675	0.00	0.00	Partly_Cloudy(mostly_cloudy)	True	False	0.00
2010-07-25 04:00:00 68643 4 0.00 0.00 0.00 0.0 0.00	87.938972646	0.00	0.00	Clear(clear)	True	False	0.00
2010-07-25 05:00:00 68644 5 0.00 0.00 0.00 0.0 0.00	87.938972646	0.00	0.00	Clear(clear)	True	False	0.00
2010-07-25 06:00:00 68645 6 68.33 68.33 68.33 14.1 77.70	87.938972646	68.33	14.10	Sunny(sunny)	True	False	14.10
2010-07-25 07:00:00 68646 7 178.60 178.60 178.60 151.5 203.10	87.938972646	178.60	151.50	Sunny(sunny)	True	False	151.50
2010-07-25 08:00:00 68647 8 415.25 415.25 415.25 418.2 472.20	87.938972646	415.25	418.20	Sunny(sunny)	True	False	418.20
2010-07-25 09:00:00 68648 9 655.23 655.23 655.23 644.7 745.10	87.938972646	655.23	644.70	Sunny(sunny)	True	False	644.70
2010-07-25 10:00:00 68649 10 176.31 176.31 176.31 778.0 919.50	19.1748668412	176.31	778.00	Isolated_T-Storms(partly_cloudy)	True	False	778.00
2010-07-25 11:00:00 68650 11 199.21 199.21 199.21 981.8 1038.90	19.1748668412	199.21	981.80	Isolated_T-Storms(fair)	True	False	981.80
2010-07-25 12:00:00 68651 12 212.48 212.48 212.48 919.7 1108.10	19.1748668412	212.48	919.70	Isolated_T-Storms(fair)	True	False	919.70
2010-07-25 13:00:00 68652 13 212.40 212.40 212.40 983.8 1107.70	19.1748668412	212.40	983.80	Isolated_T-Storms(fair)	True	False	983.80
2010-07-25 14:00:00 68653 14 203.33 203.33 203.33 255.2 1060.40	19.1748668412	203.33	255.20	Isolated_T-Storms(fair)	True	False	255.20
2010-07-25 15:00:00 68654 15 180.07 180.07 180.07 56.1 939.10	19.1748668412	180.07	56.10	Isolated_T-Storms(light_rain)	True	False	56.10
2010-07-25 16:00:00 68655 16 419.50 419.50 419.50 38.6 758.90	55.2770448549	419.50	38.60	Mostly_Cloudy(light_rain)	True	False	38.60
2010-07-25 17:00:00 68656 17 275.67 275.67 275.67 152.0 498.70	55.2770448549	275.67	152.00	Mostly_Cloudy(light_rain)	True	False	152.00
2010-07-25 18:00:00 68657 18 125.70 125.70 125.70 213.6 227.40	55.2770448549	125.70	213.60	Mostly_Cloudy(mostly_cloudy)	True	False	213.60
2010-07-25 19:00:00 68658 19 55.20 55.20 55.20 37.6 73.80	74.7967479675	55.20	37.60	Partly_Cloudy(sunny)	True	False	37.60
2010-07-25 20:00:00 68659 20 5.09 5.09 5.09 2.7 6.80	74.7967479675	5.09	2.70	Partly_Cloudy(sunny)	True	False	2.70
2010-07-25 21:00:00 68660 21 0.00 0.00 0.00 0.0 0.00	74.7967479675	0.00	0.00	Partly_Cloudy(clear)	True	False	0.00
2010-07-25 22:00:00 68661 22 0.00 0.00 0.00 0.0 0.00	74.7967479675	0.00	0.00	Partly_Cloudy(clear)	True	False	0.00
2010-07-25 23:00:00 68662 23 0.00 0.00 0.00 0.0 0.00	74.7967479675	0.00	0.00	Partly_Cloudy(fair)	True	False	0.00
2010-07-26 00:00:00 68663 0 0.00 0.00 0.00 0.0 0.00	74.7967479675	0.00	0.00	Partly_Cloudy(clear)	True	False	0.00
2010-07-26 01:00:00 68664 1 0.00 0.00 0.00 0.0 0.00	74.7967479675	0.00	0.00	Partly_Cloudy(clear)	True	False	0.00
2010-07-26 02:00:00 68665 2 0.00 0.00 0.00 0.0 0.00	74.7967479675	0.00	0.00	Partly_Cloudy(clear)	True	False	0.00
2010-07-26 03:00:00 68666 3 0.00 0.00 0.00 0.0 0.00	74.7967479675	0.00	0.00	Partly_Cloudy(clear)	True	False	0.00
