2010-05-30 04:00:00 3987 4 0.00 0.00 0.00 0.0 0.00	80.0223630265	0.00	0.00	Partly_Cloudy(fog)	True	False	0.00
2010-05-30 05:00:00 3988 5 0.43 0.43 0.43 0.0 0.70	60.909555442	0.43	0.00	Mostly_Cloudy(sunny)	True	False	0.00
2010-05-30 06:00:00 3989 6 58.18 58.18 58.18 58.3 72.70	80.0223630265	58.18	58.30	Partly_Cloudy(fog)	True	False	58.30
2010-05-30 07:00:00 3990 7 214.70 214.70 214.70 248.5 268.30	80.0223630265	214.70	248.50	Partly_Cloudy(sunny)	True	False	248.50
2010-05-30 08:00:00 3991 8 425.56 425.56 425.56 531.8 531.80	80.0223630265	425.56	531.80	Partly_Cloudy(sunny)	True	False	531.80
2010-05-30 09:00:00 3992 9 616.17 616.17 616.17 720.1 770.00	80.0223630265	616.17	720.10	Partly_Cloudy(sunny)	True	False	720.10
2010-05-30 10:00:00 3993 10 773.58 773.58 773.58 928.4 966.70	80.0223630265	773.58	928.40	Mostly_Sunny(sunny)	False	False	928.40
2010-05-30 11:00:00 3994 11 841.68 841.68 841.68 1051.8 1051.80	80.0223630265	841.68	1051.80	Mostly_Sunny(sunny)	False	False	1051.80
2010-05-30 12:00:00 3995 12 875.60 875.60 875.60 1094.2 1094.20	80.0223630265	875.60	1094.20	Mostly_Sunny(sunny)	False	False	1094.20
2010-05-30 13:00:00 3996 13 864.16 864.16 864.16 1079.9 1079.90	80.0223630265	864.16	1079.90	Mostly_Sunny(sunny)	False	False	1079.90
2010-05-30 14:00:00 3997 14 810.47 810.47 810.47 1012.8 1012.80	80.0223630265	810.47	1012.80	Mostly_Sunny(sunny)	False	False	1012.80
2010-05-30 15:00:00 3998 15 714.76 714.76 714.76 883.5 893.20	80.0223630265	714.76	883.50	Mostly_Sunny(sunny)	False	False	883.50
2010-05-30 16:00:00 3999 16 573.04 573.04 573.04 690.5 716.10	80.0223630265	573.04	690.50	Mostly_Sunny(sunny)	False	False	690.50
2010-05-30 17:00:00 4000 17 387.95 387.95 387.95 419.6 484.80	80.0223630265	387.95	419.60	Mostly_Sunny(sunny)	False	False	419.60
2010-05-30 18:00:00 4001 18 156.60 156.60 156.60 161.0 195.70	80.0223630265	156.60	161.00	Mostly_Sunny(sunny)	False	False	161.00
2010-05-30 19:00:00 4002 19 51.25 51.25 51.25 26.7 60.50	84.7153465347	51.25	26.70	Sunny(sunny)	True	False	26.70
2010-05-30 20:00:00 4003 20 1.19 1.19 1.19 0.7 1.40	84.7153465347	1.19	0.70	Sunny(sunny)	True	False	0.70
2010-05-30 21:00:00 4004 21 0.00 0.00 0.00 0.0 0.00	84.7153465347	0.00	0.00	Clear(clear)	True	False	0.00
2010-05-30 22:00:00 4005 22 0.00 0.00 0.00 0.0 0.00	84.7153465347	0.00	0.00	Clear(fair)	True	False	0.00
2010-05-30 23:00:00 4006 23 0.00 0.00 0.00 0.0 0.00	84.7153465347	0.00	0.00	Clear(clear)	True	False	0.00
2010-05-31 00:00:00 4007 0 0.00 0.00 0.00 0.0 0.00	84.7153465347	0.00	0.00	Clear(clear)	True	False	0.00
2010-05-31 01:00:00 4008 1 0.00 0.00 0.00 0.0 0.00	84.7153465347	0.00	0.00	Mostly_Clear(clear)	False	False	0.00
2010-05-31 02:00:00 4009 2 0.00 0.00 0.00 0.0 0.00	84.7153465347	0.00	0.00	Mostly_Clear(clear)	False	False	0.00
2010-05-31 03:00:00 4010 3 0.00 0.00 0.00 0.0 0.00	84.7153465347	0.00	0.00	Mostly_Clear(clear)	False	False	0.00
2010-05-31 04:00:00 4011 4 0.00 0.00 0.00 0.0 0.00	80.0223630265	0.00	0.00	Partly_Cloudy(clear)	True	False	0.00
2010-05-31 05:00:00 4012 5 0.56 0.56 0.56 0.0 0.70	80.0223630265	0.56	0.00	Partly_Cloudy(sunny)	True	False	0.00
2010-05-31 06:00:00 4013 6 58.18 58.18 58.18 48.1 72.70	80.0223630265	58.18	48.10	Partly_Cloudy(sunny)	True	False	48.10
2010-05-31 07:00:00 4014 7 214.70 214.70 214.70 228.2 268.30	80.0223630265	214.70	228.20	Partly_Cloudy(sunny)	True	False	228.20
2010-05-31 08:00:00 4015 8 425.56 425.56 425.56 491.2 531.80	80.0223630265	425.56	491.20	Partly_Cloudy(sunny)	True	False	491.20
2010-05-31 09:00:00 4016 9 616.17 616.17 616.17 720.4 770.00	80.0223630265	616.17	720.40	Partly_Cloudy(sunny)	True	False	720.40
2010-05-31 10:00:00 4017 10 919.07 919.07 919.07 882.6 966.70	95.0730647709	919.07	882.60	Sunny(sunny)	True	False	882.60
2010-05-31 11:00:00 4018 11 999.98 999.98 999.98 982.4 1051.80	95.0730647709	999.98	982.40	Sunny(sunny)	True	False	982.40
2010-05-31 12:00:00 4019 12 1040.29 1040.29 1040.29 1030.3 1094.20	95.0730647709	1040.29	1030.30	Sunny(sunny)	True	False	1030.30
2010-05-31 13:00:00 4020 13 929.35 929.35 929.35 896.5 1079.90	86.0584518167	929.35	896.50	Partly_Cloudy(sunny)	True	False	896.50
2010-05-31 14:00:00 4021 14 871.60 871.60 871.60 887.0 1012.80	86.0584518167	871.60	887.00	Partly_Cloudy(fair)	True	False	887.00
2010-05-31 15:00:00 4022 15 768.67 768.67 768.67 846.8 893.20	86.0584518167	768.67	846.80	Partly_Cloudy(sunny)	True	False	846.80
2010-05-31 16:00:00 4023 16 573.04 573.04 573.04 538.5 716.10	80.0223630265	573.04	538.50	Partly_Cloudy(fair)	True	False	538.50
2010-05-31 17:00:00 4024 17 387.95 387.95 387.95 60.9 484.80	80.0223630265	387.95	60.90	Partly_Cloudy(fair)	True	False	60.90
2010-05-31 18:00:00 4025 18 156.60 156.60 156.60 213.0 195.70	80.0223630265	156.60	213.00	Partly_Cloudy(thunder)	True	False	213.00
2010-05-31 19:00:00 4026 19 48.41 48.41 48.41 42.8 60.50	80.0223630265	48.41	42.80	Partly_Cloudy(partly_cloudy)	True	False	42.80
2010-05-31 20:00:00 4027 20 1.12 1.12 1.12 0.3 1.40	80.0223630265	1.12	0.30	Partly_Cloudy(sunny)	True	False	0.30
2010-05-31 21:00:00 4028 21 0.00 0.00 0.00 0.0 0.00	80.0223630265	0.00	0.00	Partly_Cloudy(fair)	True	False	0.00
2010-05-31 22:00:00 4029 22 0.00 0.00 0.00 0.0 0.00	60.909555442	0.00	0.00	Mostly_Cloudy(mostly_cloudy)	True	False	0.00
2010-05-31 23:00:00 4030 23 0.00 0.00 0.00 0.0 0.00	60.909555442	0.00	0.00	Mostly_Cloudy(mostly_cloudy)	True	False	0.00
2010-06-01 00:00:00 4031 0 0.00 0.00 0.00 0.0 0.00	60.909555442	0.00	0.00	Mostly_Cloudy(mostly_cloudy)	True	False	0.00
2010-06-01 01:00:00 4032 1 0.00 0.00 0.00 0.0 0.00	60.909555442	0.00	0.00	Mostly_Cloudy(mostly_cloudy)	True	False	0.00
2010-06-01 02:00:00 4033 2 0.00 0.00 0.00 0.0 0.00	60.909555442	0.00	0.00	Mostly_Cloudy(partly_cloudy)	True	False	0.00
2010-06-01 03:00:00 4034 3 0.00 0.00 0.00 0.0 0.00	60.909555442	0.00	0.00	Mostly_Cloudy(fog)	True	False	0.00
2010-06-01 04:00:00 4035 4 0.00 0.00 0.00 0.0 0.00	12.6287505598	0.00	0.00	Few_Showers(mostly_cloudy)	True	False	0.00
