2010-07-18 17:00:00 62248 17 371.01 371.01 438.55 425.6 498.70	74.3959957648	438.55	425.60	Partly_Cloudy(sunny)	True	False	425.60
2010-07-18 18:00:00 62249 18 192.70 192.70 192.70 195.5 225.80	87.938972646	192.70	195.50	Mostly_Sunny(sunny)	False	False	195.50
2010-07-18 19:00:00 62250 19 65.23 65.23 69.47 40.3 81.40	80.1350048216	69.47	40.30	Sunny(sunny)	True	False	40.30
2010-07-18 20:00:00 62251 20 5.45 5.45 5.80 0.5 6.80	80.1350048216	5.80	0.50	Sunny(sunny)	True	False	0.50
2010-07-18 21:00:00 62252 21 0.00 0.00 0.00 0.0 0.00	80.1350048216	0.00	0.00	Clear(clear)	True	False	0.00
2010-07-18 22:00:00 62253 22 0.00 0.00 0.00 0.0 0.00	80.1350048216	0.00	0.00	Clear(clear)	True	False	0.00
2010-07-18 23:00:00 62254 23 0.00 0.00 0.00 0.0 0.00	80.1350048216	0.00	0.00	Clear(partly_cloudy)	True	False	0.00
2010-07-19 00:00:00 62255 0 0.00 0.00 0.00 0.0 0.00	80.1350048216	0.00	0.00	Clear(partly_cloudy)	True	False	0.00
2010-07-19 01:00:00 62256 1 0.00 0.00 0.00 0.0 0.00	80.1350048216	0.00	0.00	Mostly_Clear(partly_cloudy)	False	False	0.00
2010-07-19 02:00:00 62257 2 0.00 0.00 0.00 0.0 0.00	80.1350048216	0.00	0.00	Mostly_Clear(mostly_cloudy)	False	False	0.00
2010-07-19 03:00:00 62258 3 0.00 0.00 0.00 0.0 0.00	80.1350048216	0.00	0.00	Mostly_Clear(mostly_cloudy)	False	False	0.00
2010-07-19 04:00:00 62259 4 0.00 0.00 0.00 0.0 0.00	74.3959957648	0.00	0.00	Partly_Cloudy(fair)	True	False	0.00
2010-07-19 05:00:00 62260 5 0.07 0.07 0.07 0.0 0.10	74.3959957648	0.07	0.00	Partly_Cloudy(partly_cloudy)	True	False	0.00
2010-07-19 06:00:00 62261 6 57.81 57.81 57.81 31.8 77.70	74.3959957648	57.81	31.80	Partly_Cloudy(partly_cloudy)	True	False	31.80
2010-07-19 07:00:00 62262 7 154.30 154.30 154.30 168.5 207.40	74.3959957648	154.30	168.50	Partly_Cloudy(partly_cloudy)	True	False	168.50
2010-07-19 08:00:00 62263 8 361.49 361.49 361.49 328.2 485.90	74.3959957648	361.49	328.20	Partly_Cloudy(thunder)	True	False	328.20
2010-07-19 09:00:00 62264 9 554.32 554.32 554.32 188.2 745.10	74.3959957648	554.32	188.20	Partly_Cloudy(mostly_cloudy)	True	False	188.20
2010-07-19 10:00:00 62265 10 693.88 693.88 693.88 345.0 919.50	75.4625033842	693.88	345.00	Partly_Cloudy(mostly_cloudy)	True	False	345.00
2010-07-19 11:00:00 62266 11 783.98 783.98 783.98 931.2 1038.90	75.4625033842	783.98	931.20	Partly_Cloudy(partly_cloudy)	True	False	931.20
2010-07-19 12:00:00 62267 12 836.20 836.20 836.20 877.2 1108.10	75.4625033842	836.20	877.20	Partly_Cloudy(fair)	True	False	877.20
2010-07-19 13:00:00 62268 13 228.77 228.77 228.77 984.8 1107.70	20.6525839306	228.77	984.80	Scattered_T-Storms(fair)	True	False	984.80
2010-07-19 14:00:00 62269 14 219.00 219.00 219.00 968.8 1060.40	20.6525839306	219.00	968.80	Scattered_T-Storms(partly_cloudy)	True	False	968.80
2010-07-19 15:00:00 62270 15 193.95 193.95 193.95 719.2 939.10	20.6525839306	193.95	719.20	Scattered_T-Storms(mostly_cloudy)	True	False	719.20
2010-07-19 16:00:00 62271 16 194.78 194.78 194.78 516.3 758.90	25.6667335071	194.78	516.30	Scattered_T-Storms(mostly_cloudy)	True	False	516.30
2010-07-19 17:00:00 62272 17 128.00 128.00 128.00 232.3 498.70	25.6667335071	128.00	232.30	Scattered_T-Storms(fair)	True	False	232.30
2010-07-19 18:00:00 62273 18 57.96 57.96 57.96 86.2 225.80	25.6667335071	57.96	86.20	Scattered_T-Storms(mostly_cloudy)	True	False	86.20
2010-07-19 19:00:00 62274 19 20.89 20.89 20.89 44.7 81.40	25.6667335071	20.89	44.70	Isolated_T-Storms(t-storm)	True	False	44.70
2010-07-19 20:00:00 62275 20 1.75 1.75 1.75 5.2 6.80	25.6667335071	1.75	5.20	Isolated_T-Storms(partly_cloudy)	True	False	5.20
2010-07-19 21:00:00 62276 21 0.00 0.00 0.00 0.0 0.00	25.6667335071	0.00	0.00	Isolated_T-Storms(heavy_t-storm)	True	False	0.00
2010-07-19 22:00:00 62277 22 0.00 0.00 0.00 0.0 0.00	80.1350048216	0.00	0.00	Clear(fair)	True	False	0.00
2010-07-19 23:00:00 62278 23 0.00 0.00 0.00 0.0 0.00	80.1350048216	0.00	0.00	Clear(fair)	True	False	0.00
2010-07-20 00:00:00 62279 0 0.00 0.00 0.00 0.0 0.00	80.1350048216	0.00	0.00	Clear(fog)	True	False	0.00
2010-07-20 01:00:00 62280 1 0.00 0.00 0.00 0.0 0.00	80.1350048216	0.00	0.00	Clear(clear)	True	False	0.00
2010-07-20 02:00:00 62281 2 0.00 0.00 0.00 0.0 0.00	80.1350048216	0.00	0.00	Clear(partly_cloudy)	True	False	0.00
2010-07-20 03:00:00 62282 3 0.00 0.00 0.00 0.0 0.00	80.1350048216	0.00	0.00	Clear(fog)	True	False	0.00
2010-07-20 04:00:00 62283 4 0.00 0.00 0.00 0.0 0.00	74.3959957648	0.00	0.00	Partly_Cloudy(fog)	True	False	0.00
2010-07-20 05:00:00 62284 5 0.07 0.07 0.07 0.0 0.10	74.3959957648	0.07	0.00	Partly_Cloudy(fog)	True	False	0.00
2010-07-20 06:00:00 62285 6 57.81 57.81 57.81 29.5 77.70	74.3959957648	57.81	29.50	Partly_Cloudy(mostly_cloudy)	True	False	29.50
2010-07-20 07:00:00 62286 7 154.30 154.30 154.30 168.7 207.40	74.3959957648	154.30	168.70	Mostly_Sunny(fog)	False	False	168.70
2010-07-20 08:00:00 62287 8 361.49 361.49 361.49 389.8 485.90	74.3959957648	361.49	389.80	Mostly_Sunny(partly_cloudy)	False	False	389.80
2010-07-20 09:00:00 62288 9 554.32 554.32 554.32 489.4 745.10	74.3959957648	554.32	489.40	Mostly_Sunny(sunny)	False	False	489.40
2010-07-20 10:00:00 62289 10 693.88 693.88 693.88 781.8 919.50	75.4625033842	693.88	781.80	Partly_Cloudy(fair)	True	False	781.80
2010-07-20 11:00:00 62290 11 783.98 783.98 783.98 614.1 1038.90	75.4625033842	783.98	614.10	Partly_Cloudy(partly_cloudy)	True	False	614.10
2010-07-20 12:00:00 62291 12 836.20 836.20 836.20 401.2 1108.10	75.4625033842	836.20	401.20	Partly_Cloudy(partly_cloudy)	True	False	401.20
2010-07-20 13:00:00 62292 13 228.77 228.77 228.77 348.4 1107.70	20.6525839306	228.77	348.40	Isolated_T-Storms(mostly_cloudy)	True	False	348.40
2010-07-20 14:00:00 62293 14 219.00 219.00 219.00 619.6 1060.40	20.6525839306	219.00	619.60	Isolated_T-Storms(mostly_cloudy)	True	False	619.60
2010-07-20 15:00:00 62294 15 193.95 193.95 193.95 632.3 939.10	20.6525839306	193.95	632.30	Isolated_T-Storms(partly_cloudy)	True	False	632.30
2010-07-20 16:00:00 62295 16 194.78 194.78 194.78 698.7 758.90	25.6667335071	194.78	698.70	Scattered_T-Storms(partly_cloudy)	True	False	698.70
2010-07-20 17:00:00 62296 17 128.00 128.00 128.00 420.2 498.70	25.6667335071	128.00	420.20	Scattered_T-Storms(fair)	True	False	420.20
