2010-06-27 00:00:00 36719 0 0.00 0.00 0.00 0.0 0.00	19.3496244176	0.00	0.00	Few_Showers(cloudy)	True	False	0.00
2010-06-27 01:00:00 36720 1 0.00 0.00 0.00 0.0 0.00	19.3496244176	0.00	0.00	Few_Showers(cloudy)	True	False	0.00
2010-06-27 02:00:00 36721 2 0.00 0.00 0.00 0.0 0.00	19.3496244176	0.00	0.00	Few_Showers(mostly_cloudy)	True	False	0.00
2010-06-27 03:00:00 36722 3 0.00 0.00 0.00 0.0 0.00	19.3496244176	0.00	0.00	Few_Showers(clear)	True	False	0.00
2010-06-27 04:00:00 36723 4 0.00 0.00 0.00 0.0 0.00	19.3496244176	0.00	0.00	Isolated_T-Storms(clear)	True	False	0.00
2010-06-27 05:00:00 36724 5 0.35 0.35 0.35 0.0 1.80	19.3496244176	0.35	0.00	Isolated_T-Storms(sunny)	True	False	0.00
2010-06-27 06:00:00 36725 6 14.22 14.22 14.22 41.9 73.50	19.3496244176	14.22	41.90	Isolated_T-Storms(sunny)	True	False	41.90
2010-06-27 07:00:00 36726 7 42.63 42.63 42.63 164.6 220.30	19.3496244176	42.63	164.60	Mostly_Sunny(sunny)	False	False	164.60
2010-06-27 08:00:00 36727 8 94.02 94.02 94.02 156.7 485.90	19.3496244176	94.02	156.70	Mostly_Sunny(partly_cloudy)	False	False	156.70
2010-06-27 09:00:00 36728 9 143.90 143.90 143.90 328.6 743.70	19.3496244176	143.90	328.60	Mostly_Sunny(mostly_cloudy)	False	False	328.60
2010-06-27 10:00:00 36729 10 713.57 713.57 713.57 557.1 929.60	76.760930815	713.57	557.10	Partly_Cloudy(mostly_cloudy)	True	False	557.10
2010-06-27 11:00:00 36730 11 794.78 794.78 794.78 615.2 1035.40	76.760930815	794.78	615.20	Partly_Cloudy(mostly_cloudy)	True	False	615.20
2010-06-27 12:00:00 36731 12 807.29 807.29 807.29 724.0 1051.70	76.760930815	807.29	724.00	Partly_Cloudy(fair)	True	False	724.00
2010-06-27 13:00:00 36732 13 786.03 786.03 786.03 729.9 1024.00	76.760930815	786.03	729.90	Mostly_Sunny(fair)	False	False	729.90
2010-06-27 14:00:00 36733 14 735.60 735.60 735.60 664.1 958.30	76.760930815	735.60	664.10	Mostly_Sunny(mostly_cloudy)	False	False	664.10
2010-06-27 15:00:00 36734 15 720.86 720.86 720.86 679.1 939.10	76.760930815	720.86	679.10	Mostly_Sunny(fair)	False	False	679.10
2010-06-27 16:00:00 36735 16 142.37 142.37 142.37 519.5 735.80	19.3496244176	142.37	519.50	Isolated_T-Storms(fair)	True	False	519.50
2010-06-27 17:00:00 36736 17 93.79 93.79 93.79 320.6 484.70	19.3496244176	93.79	320.60	Isolated_T-Storms(fair)	True	False	320.60
2010-06-27 18:00:00 36737 18 42.53 42.53 42.53 145.0 219.80	19.3496244176	42.53	145.00	Isolated_T-Storms(sunny)	True	False	145.00
2010-06-27 19:00:00 36738 19 15.75 15.75 15.75 36.8 81.40	19.3496244176	15.75	36.80	Isolated_T-Storms(sunny)	True	False	36.80
2010-06-27 20:00:00 36739 20 1.30 1.30 1.30 1.0 6.70	19.3496244176	1.30	1.00	Isolated_T-Storms(sunny)	True	False	1.00
2010-06-27 21:00:00 36740 21 0.00 0.00 0.00 0.0 0.00	19.3496244176	0.00	0.00	Isolated_T-Storms(clear)	True	False	0.00
2010-06-27 22:00:00 36741 22 0.00 0.00 0.00 0.0 0.00	19.3496244176	0.00	0.00	Mostly_Clear(clear)	False	False	0.00
2010-06-27 23:00:00 36742 23 0.00 0.00 0.00 0.0 0.00	19.3496244176	0.00	0.00	Mostly_Clear(partly_cloudy)	False	False	0.00
2010-06-28 00:00:00 36743 0 0.00 0.00 0.00 0.0 0.00	19.3496244176	0.00	0.00	Mostly_Clear(clear)	False	False	0.00
2010-06-28 01:00:00 36744 1 0.00 0.00 0.00 0.0 0.00	73.9900136178	0.00	0.00	Partly_Cloudy(partly_cloudy)	True	False	0.00
2010-06-28 02:00:00 36745 2 0.00 0.00 0.00 0.0 0.00	73.9900136178	0.00	0.00	Partly_Cloudy(clear)	True	False	0.00
2010-06-28 03:00:00 36746 3 0.00 0.00 0.00 0.0 0.00	73.9900136178	0.00	0.00	Partly_Cloudy(fair)	True	False	0.00
2010-06-28 04:00:00 36747 4 0.00 0.00 0.00 0.0 0.00	64.6258503401	0.00	0.00	Mostly_Cloudy(partly_cloudy)	True	False	0.00
2010-06-28 05:00:00 36748 5 1.16 1.16 1.16 0.0 1.80	64.6258503401	1.16	0.00	Mostly_Cloudy(sunny)	True	False	0.00
2010-06-28 06:00:00 36749 6 47.50 47.50 47.50 12.8 73.50	64.6258503401	47.50	12.80	Mostly_Cloudy(sunny)	True	False	12.80
2010-06-28 07:00:00 36750 7 163.00 163.00 163.00 155.5 220.30	73.9900136178	163.00	155.50	Partly_Cloudy(sunny)	True	False	155.50
2010-06-28 08:00:00 36751 8 359.52 359.52 359.52 352.6 485.90	73.9900136178	359.52	352.60	Partly_Cloudy(sunny)	True	False	352.60
2010-06-28 09:00:00 36752 9 550.26 550.26 550.26 541.9 743.70	73.9900136178	550.26	541.90	Partly_Cloudy(sunny)	True	False	541.90
2010-06-28 10:00:00 36753 10 713.57 713.57 713.57 694.4 929.60	76.760930815	713.57	694.40	Partly_Cloudy(fair)	True	False	694.40
2010-06-28 11:00:00 36754 11 794.78 794.78 794.78 700.2 1035.40	76.760930815	794.78	700.20	Partly_Cloudy(sunny)	True	False	700.20
2010-06-28 12:00:00 36755 12 807.29 807.29 807.29 432.4 1051.70	76.760930815	807.29	432.40	Partly_Cloudy(sunny)	True	False	432.40
2010-06-28 13:00:00 36756 13 198.14 198.14 198.14 739.9 1024.00	19.3496244176	198.14	739.90	Scattered_T-Storms(sunny)	True	False	739.90
2010-06-28 14:00:00 36757 14 185.43 185.43 185.43 763.0 958.30	19.3496244176	185.43	763.00	Scattered_T-Storms(fair)	True	False	763.00
2010-06-28 15:00:00 36758 15 181.71 181.71 181.71 602.0 939.10	19.3496244176	181.71	602.00	Scattered_T-Storms(partly_cloudy)	True	False	602.00
2010-06-28 16:00:00 36759 16 142.37 142.37 142.37 218.3 735.80	19.3496244176	142.37	218.30	T-Storms(mostly_cloudy)	True	False	218.30
2010-06-28 17:00:00 36760 17 93.79 93.79 93.79 102.1 484.70	19.3496244176	93.79	102.10	T-Storms(mostly_cloudy)	True	False	102.10
2010-06-28 18:00:00 36761 18 42.53 42.53 42.53 91.6 219.80	19.3496244176	42.53	91.60	T-Storms(partly_cloudy)	True	False	91.60
2010-06-28 19:00:00 36762 19 15.75 15.75 15.75 45.4 81.40	19.3496244176	15.75	45.40	T-Storms(sunny)	True	False	45.40
2010-06-28 20:00:00 36763 20 1.30 1.30 1.30 2.8 6.70	19.3496244176	1.30	2.80	T-Storms(sunny)	True	False	2.80
2010-06-28 21:00:00 36764 21 0.00 0.00 0.00 0.0 0.00	19.3496244176	0.00	0.00	T-Storms(fair)	True	False	0.00
2010-06-28 22:00:00 36765 22 0.00 0.00 0.00 0.0 0.00	19.3496244176	0.00	0.00	Scattered_T-Storms(clear)	True	False	0.00
2010-06-28 23:00:00 36766 23 0.00 0.00 0.00 0.0 0.00	19.3496244176	0.00	0.00	Scattered_T-Storms(fair)	True	False	0.00
2010-06-29 00:00:00 36767 0 0.00 0.00 0.00 0.0 0.00	19.3496244176	0.00	0.00	Scattered_T-Storms(partly_cloudy)	True	False	0.00
