2010-08-09 00:00:00	59.73	59.73	59.73	99.35	99.35	99.35	35.42	35.42	35.42	23.94	23.94	23.94	168	101	168	101	168	101	35381.93 33279.3
2010-08-23 00:00:00	66.93	66.93	66.93	114.74	114.74	114.74	26.47	26.47	26.47	73.32	73.32	73.32	168	98	168	98	168	98	35074.5 29860.3
2011-01-24 00:00:00	499.72	499.72	499.72	1182.45	1182.45	1182.45	106.07	106.07	106.07	781.58	781.58	781.58	168	71	168	71	168	71	13337.52 7355.1
2011-03-07 00:00:00	84.01	84.04	84.04	153.40	153.47	153.47	55.63	55.72	55.72	27.12	27.12	27.12	168	92	168	92	168	92	30058.09 29041.9
2010-05-31 00:00:00	35.19	35.19	35.19	56.84	56.84	56.84	47.80	47.80	47.80	41.17	41.17	41.17	168	104	168	104	168	104	29088.37 44402.1
2010-09-06 00:00:00	46.18	46.18	46.18	80.81	80.81	80.81	23.04	23.04	23.04	30.13	30.13	30.13	168	96	168	96	168	96	46238.37 39125.4
