2010-08-09 00:00:00 	8 	1721.26 	8871.6 	19.4019117183
2010-08-10 00:00:00 	8 	33.89 	8866.5 	0.382225229798
2010-08-11 00:00:00 	8 	244.49 	8806.8 	2.77615024754
2010-08-12 00:00:00 	8 	145.71 	8765.2 	1.66236936978
2010-08-13 00:00:00 	8 	636.13 	8762.7 	7.25952046744
2010-08-14 00:00:00 	8 	25.16 	8762.7 	0.287126114097
2010-08-15 00:00:00 	8 	881.64 	8758.1 	10.0665669495
2010-08-23 00:00:00 	8 	805.91 	8693.9 	9.26983287132
2010-08-24 00:00:00 	8 	41.24 	8677.9 	0.475230182417
2010-08-25 00:00:00 	8 	228.65 	8677.9 	2.63485405455
2010-08-26 00:00:00 	8 	254.33 	8651.3 	2.93978939581
2010-08-27 00:00:00 	8 	508.34 	8646.9 	5.878869884
2010-08-28 00:00:00 	8 	249.04 	8631.1 	2.88537961558
2010-08-29 00:00:00 	8 	37.42 	8631.1 	0.433548446896
2011-01-24 00:00:00 	1 	2565.02 	6623.6 	38.7254665137
2011-01-25 00:00:00 	1 	248.9 	6752.6 	3.68598761958
2011-01-26 00:00:00 	1 	65.07 	6348.1 	1.02503111167
2011-01-27 00:00:00 	1 	2867.74 	6787.5 	42.2503130755
2011-01-28 00:00:00 	1 	337.6 	6787.5 	4.97384898711
2011-01-29 00:00:00 	1 	103.66 	6787.5 	1.52721915285
2011-01-30 00:00:00 	1 	14.14 	6787.5 	0.20832412523
2011-03-07 00:00:00 	3 	863.59 	9300.9 	9.28501542861
2011-03-08 00:00:00 	3 	815.06 	9300.9 	8.76323796622
2011-03-09 00:00:00 	3 	105.81 	9300.9 	1.13763184208
2011-03-10 00:00:00 	3 	55.3 	9437.2 	0.585978892044
2011-03-11 00:00:00 	3 	109.92 	9437.2 	1.16475225703
2011-03-12 00:00:00 	3 	110.29 	9576.6 	1.15166134119
2011-03-13 00:00:00 	3 	3913.82 	9604.7 	40.749008298
2010-05-31 00:00:00 	5 	230.36 	9191.3 	2.50628311555
2010-06-01 00:00:00 	6 	164.95 	9131.9 	1.80630536909
2010-06-02 00:00:00 	6 	71.45 	9120.1 	0.783434392167
2010-06-03 00:00:00 	6 	242.19 	9135.2 	2.65117348279
2010-06-04 00:00:00 	6 	57.43 	9135.2 	0.628667133724
2010-06-05 00:00:00 	6 	954.95 	9102.4 	10.4911891369
2010-06-06 00:00:00 	6 	817.03 	9082.6 	8.99555193447
2010-09-06 00:00:00 	9 	76.83 	8551.2 	0.898470390121
2010-09-07 00:00:00 	9 	687.27 	8579.6 	8.01051331064
2010-09-08 00:00:00 	9 	573.76 	8522.3 	6.73245485374
2010-09-09 00:00:00 	9 	2855.67 	8521.3 	33.5121401664
2010-09-10 00:00:00 	9 	1171.84 	8512.6 	13.7659469492
2010-09-11 00:00:00 	9 	143.57 	8512.2 	1.68663800193
2010-09-12 00:00:00 	9 	197.26 	8512.2 	2.31737976081
