2010-05-31 00:00:00 	5 	521.32 	9191.3 	5.67188536986
2010-06-01 00:00:00 	6 	3022.16 	9131.9 	33.0945367339
2010-06-02 00:00:00 	6 	358.12 	9119.0 	3.92718499836
2010-06-03 00:00:00 	6 	2760.78 	9135.2 	30.2213416236
2010-06-04 00:00:00 	6 	647.17 	9135.2 	7.08435502233
2010-06-05 00:00:00 	6 	4309.01 	9102.4 	47.3392731587
2010-06-06 00:00:00 	6 	3622.02 	9082.6 	39.8786691036
2010-08-09 00:00:00 	8 	1741.69 	8871.6 	19.6321971234
2010-08-10 00:00:00 	8 	2176.9 	8866.5 	24.5519652625
2010-08-11 00:00:00 	8 	671.21 	8806.8 	7.62149702503
2010-08-12 00:00:00 	8 	556.43 	8765.2 	6.3481723178
2010-08-13 00:00:00 	8 	1175.71 	8762.7 	13.41721159
2010-08-14 00:00:00 	8 	248.21 	8762.7 	2.83257443482
2010-08-15 00:00:00 	8 	1088.34 	8758.1 	12.4266678846
2010-08-23 00:00:00 	8 	1718.09 	8693.9 	19.7620170464
2010-08-24 00:00:00 	8 	319.23 	8677.9 	3.67865497413
2010-08-25 00:00:00 	8 	479.3 	8677.9 	5.5232256652
2010-08-26 00:00:00 	8 	465.71 	8651.3 	5.38312161178
2010-08-27 00:00:00 	8 	493.88 	8646.9 	5.71164232268
2010-08-28 00:00:00 	8 	224.27 	8631.1 	2.59839417919
2010-08-29 00:00:00 	8 	7.87 	8631.1 	0.0911818887511
2010-09-06 00:00:00 	9 	141.36 	8551.2 	1.65310131911
2010-09-07 00:00:00 	9 	687.27 	8579.6 	8.01051331064
2010-09-08 00:00:00 	9 	650.52 	8522.3 	7.63315067529
2010-09-09 00:00:00 	9 	3655.53 	8521.3 	42.8987361083
2010-09-10 00:00:00 	9 	3048.83 	8512.6 	35.8154970279
2010-09-11 00:00:00 	9 	245.17 	8512.2 	2.88021897982
2010-09-12 00:00:00 	9 	175.89 	8512.2 	2.06632832875
2011-01-24 00:00:00 	1 	2565.02 	6623.6 	38.7254665137
2011-01-25 00:00:00 	1 	453.53 	6752.6 	6.71637591446
2011-01-26 00:00:00 	1 	339.84 	5820.9 	5.8382724321
2011-01-27 00:00:00 	1 	3065.42 	6787.5 	45.1627255985
2011-01-28 00:00:00 	1 	780.76 	6787.5 	11.5029097606
2011-01-29 00:00:00 	1 	757.57 	6787.5 	11.161252302
2011-01-30 00:00:00 	1 	268.77 	6787.5 	3.95977900552
2011-03-07 00:00:00 	3 	834.02 	9300.9 	8.96708920642
2011-03-08 00:00:00 	3 	893.8 	9300.9 	9.60982270533
2011-03-09 00:00:00 	3 	500.81 	9300.9 	5.38453267963
2011-03-10 00:00:00 	3 	29.03 	9437.2 	0.307612427415
2011-03-11 00:00:00 	3 	582.62 	9437.2 	6.17365320222
2011-03-12 00:00:00 	3 	1463.61 	9576.6 	15.2831902763
2011-03-13 00:00:00 	3 	4308.04 	9604.7 	44.8534571616
