# Deadline = 3600
# t	id	work	node	priority	submit	start	end	wait	run	total
12	task_201612041457_0001_m_000033	201612041457_0001	crypt14	NORMAL	7	7	10	0	3	3	JobSetup
14	task_201612041457_0002_m_000033	201612041457_0002	crypt14	NORMAL	10	10	13	0	3	3	JobSetup
18	task_201612041457_0003_m_000033	201612041457_0003	crypt02	NORMAL	12	12	15	0	3	3	JobSetup
18	task_201612041457_0004_m_000033	201612041457_0004	crypt14	NORMAL	13	13	16	0	3	3	JobSetup
20	task_201612041457_0006_m_000033	201612041457_0006	crypt14	NORMAL	16	16	19	0	3	3	JobSetup
20	task_201612041457_0005_m_000033	201612041457_0005	crypt02	NORMAL	15	15	18	0	3	3	JobSetup
24	task_201612041457_0008_m_000033	201612041457_0008	crypt14	NORMAL	19	19	22	0	3	3	JobSetup
26	task_201612041457_0007_m_000033	201612041457_0007	crypt02	NORMAL	18	18	24	0	6	6	JobSetup
54	task_201612041457_0002_m_000000	201612041457_0002	crypt02	NORMAL	5	21	51	16	30	46
60	task_201612041457_0002_m_000001	201612041457_0002	crypt14	NORMAL	5	22	58	17	36	53
60	task_201612041457_0002_m_000002	201612041457_0002	crypt14	NORMAL	5	22	58	17	36	53
60	task_201612041457_0002_m_000005	201612041457_0002	crypt02	NORMAL	5	24	57	19	33	52
90	task_201612041457_0002_m_000006	201612041457_0002	crypt02	NORMAL	5	51	87	46	36	82
92	task_201612041457_0002_m_000012	201612041457_0002	crypt02	NORMAL	5	57	90	52	33	85
96	task_201612041457_0002_m_000003	201612041457_0002	crypt14	NORMAL	5	58	94	53	36	89
102	task_201612041457_0002_m_000004	201612041457_0002	crypt14	NORMAL	5	58	99	53	41	94
136	task_201612041457_0002_m_000007	201612041457_0002	crypt14	NORMAL	5	94	134	89	40	129
142	task_201612041457_0002_m_000008	201612041457_0002	crypt14	NORMAL	5	99	139	94	40	134
164	task_201612041457_0002_m_000016	201612041457_0002	crypt06	NORMAL	5	152	161	147	9	156
172	task_201612041457_0002_m_000019	201612041457_0002	crypt06	NORMAL	5	161	170	156	9	165
180	task_201612041457_0002_m_000009	201612041457_0002	crypt14	NORMAL	5	134	177	129	43	172
180	task_201612041457_0002_m_000010	201612041457_0002	crypt14	NORMAL	5	139	177	134	38	172
184	task_201612041457_0002_m_000020	201612041457_0002	crypt06	NORMAL	5	170	182	165	12	177
184	task_201612041457_0002_m_000011	201612041457_0002	crypt06	NORMAL	5	152	182	147	30	177
192	task_201612041457_0002_m_000017	201612041457_0002	crypt14	NORMAL	5	177	189	172	12	184
196	task_201612041457_0002_m_000022	201612041457_0002	crypt06	NORMAL	5	182	194	177	12	189
196	task_201612041457_0002_m_000021	201612041457_0002	crypt06	NORMAL	5	182	194	177	12	189
200	task_201612041457_0002_m_000018	201612041457_0002	crypt14	NORMAL	5	189	198	184	9	193
208	task_201612041457_0002_m_000028	201612041457_0002	crypt06	NORMAL	5	194	206	189	12	201
208	task_201612041457_0002_m_000025	201612041457_0002	crypt06	NORMAL	5	194	206	189	12	201
212	task_201612041457_0002_m_000023	201612041457_0002	crypt14	NORMAL	5	198	210	193	12	205
216	task_201612041457_0002_m_000029	201612041457_0002	crypt06	NORMAL	5	206	215	201	9	210
216	task_201612041457_0002_m_000030	201612041457_0002	crypt06	NORMAL	5	206	215	201	9	210
216	task_201612041457_0002_m_000015	201612041457_0002	crypt14	NORMAL	5	177	214	172	37	209
228	task_201612041457_0002_m_000024	201612041457_0002	crypt14	NORMAL	5	210	225	205	15	220
230	task_201612041457_0002_m_000027	201612041457_0002	crypt06	NORMAL	5	215	227	210	12	222
230	task_201612041457_0002_m_000031	201612041457_0002	crypt06	NORMAL	5	215	227	210	12	222
232	task_201612041457_0002_m_000026	201612041457_0002	crypt14	NORMAL	5	214	230	209	16	225
254	task_201612041457_0002_m_000014	201612041457_0002	crypt02	NORMAL	5	222	253	217	31	248
260	task_201612041457_0006_m_000001	201612041457_0006	crypt02	NORMAL	5	226	257	221	31	252
262	task_201612041457_0006_m_000000	201612041457_0006	crypt06	NORMAL	5	227	260	222	33	255
262	task_201612041457_0006_m_000002	201612041457_0006	crypt06	NORMAL	5	227	260	222	33	255
270	task_201612041457_0006_m_000003	201612041457_0006	crypt14	NORMAL	5	230	268	225	38	263
270	task_201612041457_0002_m_000013	201612041457_0002	crypt14	NORMAL	5	225	268	220	43	263
294	task_201612041457_0006_m_000005	201612041457_0006	crypt02	NORMAL	5	253	292	248	39	287
294	task_201612041457_0006_m_000006	201612041457_0006	crypt02	NORMAL	5	257	292	252	35	287
298	task_201612041457_0006_m_000004	201612041457_0006	crypt06	NORMAL	5	260	296	255	36	291
306	task_201612041457_0006_m_000008	201612041457_0006	crypt14	NORMAL	5	268	304	263	36	299
310	task_201612041457_0006_m_000007	201612041457_0006	crypt14	NORMAL	5	268	307	263	39	302
330	task_201612041457_0006_m_000014	201612041457_0006	crypt02	NORMAL	5	292	328	287	36	323
330	task_201612041457_0006_m_000011	201612041457_0006	crypt02	NORMAL	5	292	328	287	36	323
334	task_201612041457_0006_m_000010	201612041457_0006	crypt06	NORMAL	5	296	332	291	36	327
334	task_201612041457_0006_m_000009	201612041457_0006	crypt06	NORMAL	5	296	332	291	36	327
342	task_201612041457_0006_m_000016	201612041457_0006	crypt02	NORMAL	5	328	340	323	12	335
352	task_201612041457_0006_m_000018	201612041457_0006	crypt02	NORMAL	5	340	349	335	9	344
354	task_201612041457_0006_m_000019	201612041457_0006	crypt14	NORMAL	5	343	352	338	9	347
354	task_201612041457_0006_m_000017	201612041457_0006	crypt14	NORMAL	5	343	352	338	9	347
364	task_201612041457_0006_m_000021	201612041457_0006	crypt02	NORMAL	5	350	362	345	12	357
364	task_201612041457_0006_m_000015	201612041457_0006	crypt02	NORMAL	5	328	362	323	34	357
366	task_201612041457_0006_m_000020	201612041457_0006	crypt14	NORMAL	5	352	364	347	12	359
366	task_201612041457_0006_m_000013	201612041457_0006	crypt06	NORMAL	5	332	365	327	33	360
366	task_201612041457_0006_m_000012	201612041457_0006	crypt06	NORMAL	5	332	365	327	33	360
376	task_201612041457_0006_m_000022	201612041457_0006	crypt02	NORMAL	5	362	374	357	12	369
376	task_201612041457_0006_m_000023	201612041457_0006	crypt02	NORMAL	5	362	374	357	12	369
378	task_201612041457_0006_m_000027	201612041457_0006	crypt06	NORMAL	5	365	377	360	12	372
378	task_201612041457_0006_m_000024	201612041457_0006	crypt14	NORMAL	5	364	376	359	12	371
378	task_201612041457_0006_m_000028	201612041457_0006	crypt06	NORMAL	5	365	377	360	12	372
384	task_201612041457_0006_m_000025	201612041457_0006	crypt02	NORMAL	5	374	383	369	9	378
388	task_201612041457_0006_m_000029	201612041457_0006	crypt14	NORMAL	5	376	385	371	9	380
390	task_201612041457_0006_m_000026	201612041457_0006	crypt02	NORMAL	5	374	387	369	13	382
392	task_201612041457_0006_m_000031	201612041457_0006	crypt06	NORMAL	5	377	389	372	12	384
392	task_201612041457_0006_m_000030	201612041457_0006	crypt06	NORMAL	5	377	389	372	12	384
400	task_201612041457_0006_r_000000	201612041457_0006	crypt02	NORMAL	5	322	398	317	76	393
402	task_201612041457_0006_r_000001	201612041457_0006	crypt06	NORMAL	398	398	401	0	3	3	JobSetup
402	task_201612041457_0002_r_000000	201612041457_0002	crypt14	NORMAL	5	119	400	114	281	395
402	201612041457_0006	201612041457_0006	['crypt02', 'crypt06', 'crypt14']	NORMAL	1	226	401	225	175	400
406	task_201612041457_0002_r_000001	201612041457_0002	crypt14	NORMAL	400	400	403	0	3	3	JobSetup
406	201612041457_0002	201612041457_0002	['crypt02', 'crypt06', 'crypt14']	NORMAL	1	21	403	20	382	402
424	task_201612041457_0001_m_000005	201612041457_0001	crypt06	NORMAL	5	389	422	384	33	417
424	task_201612041457_0001_m_000001	201612041457_0001	crypt14	NORMAL	5	385	421	380	36	416
424	task_201612041457_0001_m_000000	201612041457_0001	crypt02	NORMAL	5	383	421	378	38	416
424	task_201612041457_0001_m_000002	201612041457_0001	crypt06	NORMAL	5	389	422	384	33	417
428	task_201612041457_0001_m_000004	201612041457_0001	crypt14	NORMAL	5	391	427	386	36	422
428	task_201612041457_0001_m_000003	201612041457_0001	crypt02	NORMAL	5	387	426	382	39	421
456	task_201612041457_0001_m_000006	201612041457_0001	crypt14	NORMAL	5	421	454	416	33	449
460	task_201612041457_0001_m_000008	201612041457_0001	crypt06	NORMAL	5	422	458	417	36	453
460	task_201612041457_0001_m_000011	201612041457_0001	crypt06	NORMAL	5	422	458	417	36	453
462	task_201612041457_0001_m_000007	201612041457_0001	crypt02	NORMAL	5	421	461	416	40	456
462	task_201612041457_0001_m_000010	201612041457_0001	crypt14	NORMAL	5	427	460	422	33	455
468	task_201612041457_0001_m_000009	201612041457_0001	crypt02	NORMAL	5	426	466	421	40	461
478	task_201612041457_0001_m_000016	201612041457_0001	crypt02	NORMAL	5	461	477	456	16	472
478	task_201612041457_0001_m_000018	201612041457_0001	crypt02	NORMAL	5	466	477	461	11	472
490	task_201612041457_0001_m_000021	201612041457_0001	crypt02	NORMAL	5	477	489	472	12	484
490	task_201612041457_0001_m_000019	201612041457_0001	crypt02	NORMAL	5	477	489	472	12	484
492	task_201612041457_0001_m_000012	201612041457_0001	crypt14	NORMAL	5	454	490	449	36	485
492	task_201612041457_0001_m_000013	201612041457_0001	crypt06	NORMAL	5	458	491	453	33	486
492	task_201612041457_0001_m_000014	201612041457_0001	crypt06	NORMAL	5	458	491	453	33	486
498	task_201612041457_0001_m_000015	201612041457_0001	crypt14	NORMAL	5	460	496	455	36	491
502	task_201612041457_0001_m_000022	201612041457_0001	crypt02	NORMAL	5	489	501	484	12	496
502	task_201612041457_0001_m_000024	201612041457_0001	crypt02	NORMAL	5	489	501	484	12	496
502	task_201612041457_0001_m_000017	201612041457_0001	crypt14	NORMAL	5	490	499	485	9	494
506	task_201612041457_0001_m_000023	201612041457_0001	crypt06	NORMAL	5	491	503	486	12	498
506	task_201612041457_0001_m_000020	201612041457_0001	crypt06	NORMAL	5	491	503	486	12	498
508	task_201612041457_0001_m_000025	201612041457_0001	crypt14	NORMAL	5	496	505	491	9	500
512	task_201612041457_0001_m_000028	201612041457_0001	crypt02	NORMAL	5	501	510	496	9	505
512	task_201612041457_0001_m_000027	201612041457_0001	crypt02	NORMAL	5	501	510	496	9	505
514	task_201612041457_0001_m_000029	201612041457_0001	crypt06	NORMAL	5	503	512	498	9	507
514	task_201612041457_0001_m_000026	201612041457_0001	crypt14	NORMAL	5	499	511	494	12	506
514	task_201612041457_0001_m_000030	201612041457_0001	crypt06	NORMAL	5	503	512	498	9	507
520	task_201612041457_0001_m_000031	201612041457_0001	crypt14	NORMAL	5	505	517	500	12	512
530	task_201612041457_0001_r_000000	201612041457_0001	crypt06	NORMAL	5	482	527	477	45	522
532	task_201612041457_0001_r_000001	201612041457_0001	crypt06	NORMAL	527	527	530	0	3	3	JobSetup
532	201612041457_0001	201612041457_0001	['crypt02', 'crypt06', 'crypt14']	NORMAL	1	383	531	382	148	530
546	task_201612041457_0004_m_000002	201612041457_0004	crypt02	NORMAL	6	510	545	504	35	539
546	task_201612041457_0004_m_000000	201612041457_0004	crypt02	NORMAL	6	510	545	504	35	539
546	task_201612041457_0004_m_000001	201612041457_0004	crypt14	NORMAL	6	511	544	505	33	538
550	task_201612041457_0004_m_000007	201612041457_0004	crypt06	NORMAL	6	512	549	506	37	543
550	task_201612041457_0004_m_000004	201612041457_0004	crypt06	NORMAL	6	512	549	506	37	543
552	task_201612041457_0004_m_000003	201612041457_0004	crypt14	NORMAL	6	517	550	511	33	544
582	task_201612041457_0004_m_000008	201612041457_0004	crypt02	NORMAL	6	545	581	539	36	575
582	task_201612041457_0004_m_000009	201612041457_0004	crypt06	NORMAL	6	549	582	543	33	576
582	task_201612041457_0004_m_000006	201612041457_0004	crypt02	NORMAL	6	545	581	539	36	575
582	task_201612041457_0004_m_000005	201612041457_0004	crypt14	NORMAL	6	544	580	538	36	574
588	task_201612041457_0004_m_000010	201612041457_0004	crypt14	NORMAL	6	550	586	544	36	580
588	task_201612041457_0004_m_000013	201612041457_0004	crypt06	NORMAL	6	549	586	543	37	580
598	task_201612041457_0004_m_000016	201612041457_0004	crypt14	NORMAL	6	586	596	580	10	590
600	task_201612041457_0004_m_000021	201612041457_0004	crypt06	NORMAL	6	586	597	580	11	591
609	task_201612041457_0004_m_000017	201612041457_0004	crypt14	NORMAL	6	596	608	590	12	602
613	task_201612041457_0004_m_000023	201612041457_0004	crypt06	NORMAL	6	597	609	591	12	603
617	task_201612041457_0004_m_000015	201612041457_0004	crypt02	NORMAL	6	581	614	575	33	608
617	task_201612041457_0004_m_000011	201612041457_0004	crypt14	NORMAL	6	580	614	574	34	608
617	task_201612041457_0004_m_000012	201612041457_0004	crypt02	NORMAL	6	581	614	575	33	608
621	task_201612041457_0004_m_000018	201612041457_0004	crypt14	NORMAL	6	608	619	602	11	613
621	task_201612041457_0004_m_000025	201612041457_0004	crypt06	NORMAL	6	609	618	603	9	612
627	task_201612041457_0004_m_000014	201612041457_0004	crypt06	NORMAL	6	582	623	576	41	617
629	task_201612041457_0004_m_000022	201612041457_0004	crypt02	NORMAL	6	614	626	608	12	620
629	task_201612041457_0004_m_000020	201612041457_0004	crypt02	NORMAL	6	614	626	608	12	620
633	task_201612041457_0004_m_000019	201612041457_0004	crypt14	NORMAL	6	614	630	608	16	624
633	task_201612041457_0004_m_000024	201612041457_0004	crypt14	NORMAL	6	619	630	613	11	624
637	task_201612041457_0004_m_000028	201612041457_0004	crypt06	NORMAL	6	618	634	612	16	628
637	task_201612041457_0004_m_000026	201612041457_0004	crypt02	NORMAL	6	626	635	620	9	629
641	task_201612041457_0004_m_000029	201612041457_0004	crypt06	NORMAL	6	623	637	617	14	631
643	task_201612041457_0004_m_000031	201612041457_0004	crypt14	NORMAL	6	630	642	624	12	636
643	task_201612041457_0004_m_000030	201612041457_0004	crypt14	NORMAL	6	630	642	624	12	636
643	task_201612041457_0004_m_000027	201612041457_0004	crypt02	NORMAL	6	626	640	620	14	634
655	task_201612041457_0004_r_000000	201612041457_0004	crypt06	NORMAL	6	606	651	600	45	645
657	task_201612041457_0004_r_000001	201612041457_0004	crypt02	NORMAL	651	651	654	0	3	3	JobSetup
657	201612041457_0004	201612041457_0004	['crypt02', 'crypt06', 'crypt14']	NORMAL	1	510	654	509	144	653
673	task_201612041457_0003_m_000003	201612041457_0003	crypt06	NORMAL	6	637	669	631	32	663
673	task_201612041457_0003_m_000000	201612041457_0003	crypt06	NORMAL	6	634	669	628	35	663
677	task_201612041457_0003_m_000002	201612041457_0003	crypt02	NORMAL	6	640	675	634	35	669
677	task_201612041457_0003_m_000001	201612041457_0003	crypt02	NORMAL	6	635	675	629	40	669
677	task_201612041457_0003_m_000005	201612041457_0003	crypt14	NORMAL	6	642	675	636	33	669
677	task_201612041457_0003_m_000004	201612041457_0003	crypt14	NORMAL	6	642	675	636	33	669
709	task_201612041457_0003_m_000010	201612041457_0003	crypt06	NORMAL	6	669	705	663	36	699
709	task_201612041457_0003_m_000006	201612041457_0003	crypt06	NORMAL	6	669	705	663	36	699
713	task_201612041457_0003_m_000009	201612041457_0003	crypt02	NORMAL	6	675	711	669	36	705
713	task_201612041457_0003_m_000008	201612041457_0003	crypt14	NORMAL	6	675	711	669	36	705
713	task_201612041457_0003_m_000014	201612041457_0003	crypt02	NORMAL	6	675	711	669	36	705
713	task_201612041457_0003_m_000007	201612041457_0003	crypt14	NORMAL	6	675	711	669	36	705
727	task_201612041457_0003_m_000016	201612041457_0003	crypt02	NORMAL	6	711	723	705	12	717
727	task_201612041457_0003_m_000017	201612041457_0003	crypt02	NORMAL	6	711	723	705	12	717
735	task_201612041457_0003_m_000020	201612041457_0003	crypt02	NORMAL	6	723	732	717	9	726
735	task_201612041457_0003_m_000021	201612041457_0003	crypt02	NORMAL	6	723	732	717	9	726
745	task_201612041457_0003_m_000011	201612041457_0003	crypt06	NORMAL	6	705	741	699	36	735
745	task_201612041457_0003_m_000012	201612041457_0003	crypt06	NORMAL	6	705	741	699	36	735
747	task_201612041457_0003_m_000013	201612041457_0003	crypt14	NORMAL	6	711	744	705	33	738
747	task_201612041457_0003_m_000022	201612041457_0003	crypt02	NORMAL	6	732	744	726	12	738
747	task_201612041457_0003_m_000023	201612041457_0003	crypt02	NORMAL	6	732	744	726	12	738
751	task_201612041457_0003_m_000015	201612041457_0003	crypt14	NORMAL	6	711	749	705	38	743
753	task_201612041457_0003_m_000018	201612041457_0003	crypt06	NORMAL	6	741	750	735	9	744
753	task_201612041457_0003_m_000019	201612041457_0003	crypt06	NORMAL	6	741	750	735	9	744
759	task_201612041457_0003_m_000027	201612041457_0003	crypt02	NORMAL	6	744	756	738	12	750
759	task_201612041457_0003_m_000026	201612041457_0003	crypt02	NORMAL	6	744	756	738	12	750
763	task_201612041457_0003_m_000025	201612041457_0003	crypt14	NORMAL	6	749	760	743	11	754
763	task_201612041457_0003_m_000024	201612041457_0003	crypt14	NORMAL	6	744	760	738	16	754
765	task_201612041457_0003_m_000029	201612041457_0003	crypt06	NORMAL	6	750	762	744	12	756
765	task_201612041457_0003_m_000028	201612041457_0003	crypt06	NORMAL	6	750	762	744	12	756
769	task_201612041457_0003_m_000030	201612041457_0003	crypt02	NORMAL	6	756	765	750	9	759
769	task_201612041457_0003_m_000031	201612041457_0003	crypt02	NORMAL	6	756	765	750	9	759
777	task_201612041457_0003_r_000000	201612041457_0003	crypt02	NORMAL	6	729	774	723	45	768
779	task_201612041457_0003_r_000001	201612041457_0003	crypt02	NORMAL	774	774	777	0	3	3	JobSetup
779	201612041457_0003	201612041457_0003	['crypt02', 'crypt06', 'crypt14']	NORMAL	6	634	777	628	143	771
799	task_201612041457_0007_m_000001	201612041457_0007	crypt14	NORMAL	6	760	796	754	36	790
799	task_201612041457_0007_m_000000	201612041457_0007	crypt14	NORMAL	6	760	796	754	36	790
801	task_201612041457_0007_m_000008	201612041457_0007	crypt06	NORMAL	6	762	797	756	35	791
801	task_201612041457_0007_m_000009	201612041457_0007	crypt06	NORMAL	6	762	797	756	35	791
805	task_201612041457_0007_m_000003	201612041457_0007	crypt02	NORMAL	6	765	801	759	36	795
805	task_201612041457_0007_m_000002	201612041457_0007	crypt02	NORMAL	6	765	801	759	36	795
833	task_201612041457_0007_m_000012	201612041457_0007	crypt06	NORMAL	6	797	830	791	33	824
833	task_201612041457_0007_m_000014	201612041457_0007	crypt06	NORMAL	6	797	830	791	33	824
833	task_201612041457_0007_m_000005	201612041457_0007	crypt14	NORMAL	6	796	832	790	36	826
833	task_201612041457_0007_m_000004	201612041457_0007	crypt14	NORMAL	6	796	832	790	36	826
837	task_201612041457_0007_m_000006	201612041457_0007	crypt02	NORMAL	6	801	834	795	33	828
837	task_201612041457_0007_m_000007	201612041457_0007	crypt02	NORMAL	6	801	834	795	33	828
845	task_201612041457_0007_m_000020	201612041457_0007	crypt06	NORMAL	6	830	842	824	12	836
849	task_201612041457_0007_m_000016	201612041457_0007	crypt02	NORMAL	6	834	846	828	12	840
857	task_201612041457_0007_m_000022	201612041457_0007	crypt06	NORMAL	6	842	854	836	12	848
861	task_201612041457_0007_m_000017	201612041457_0007	crypt02	NORMAL	6	846	858	840	12	852
867	task_201612041457_0007_m_000010	201612041457_0007	crypt14	NORMAL	6	832	865	826	33	859
867	task_201612041457_0007_m_000011	201612041457_0007	crypt14	NORMAL	6	832	865	826	33	859
867	task_201612041457_0007_m_000023	201612041457_0007	crypt06	NORMAL	6	854	863	848	9	857
871	task_201612041457_0007_m_000018	201612041457_0007	crypt02	NORMAL	6	858	867	852	9	861
871	task_201612041457_0007_m_000015	201612041457_0007	crypt06	NORMAL	6	830	867	824	37	861
873	task_201612041457_0007_m_000013	201612041457_0007	crypt02	NORMAL	6	834	871	828	37	865
879	task_201612041457_0007_m_000019	201612041457_0007	crypt14	NORMAL	6	865	877	859	12	871
879	task_201612041457_0007_m_000021	201612041457_0007	crypt14	NORMAL	6	865	877	859	12	871
881	task_201612041457_0007_m_000028	201612041457_0007	crypt06	NORMAL	6	867	878	861	11	872
881	task_201612041457_0007_m_000026	201612041457_0007	crypt06	NORMAL	6	863	878	857	15	872
885	task_201612041457_0007_m_000025	201612041457_0007	crypt02	NORMAL	6	871	882	865	11	876
885	task_201612041457_0007_m_000024	201612041457_0007	crypt02	NORMAL	6	867	882	861	15	876
891	task_201612041457_0007_m_000029	201612041457_0007	crypt14	NORMAL	6	877	889	871	12	883
891	task_201612041457_0007_m_000027	201612041457_0007	crypt14	NORMAL	6	877	889	871	12	883
893	task_201612041457_0007_m_000030	201612041457_0007	crypt06	NORMAL	6	878	890	872	12	884
893	task_201612041457_0007_m_000031	201612041457_0007	crypt06	NORMAL	6	878	890	872	12	884
903	task_201612041457_0007_r_000000	201612041457_0007	crypt06	NORMAL	6	857	899	851	42	893
905	task_201612041457_0007_r_000001	201612041457_0007	crypt06	NORMAL	899	899	902	0	3	3	JobSetup
905	201612041457_0007	201612041457_0007	['crypt02', 'crypt06', 'crypt14']	NORMAL	1	760	903	759	143	902
921	task_201612041457_0008_m_000002	201612041457_0008	crypt02	NORMAL	6	882	918	876	36	912
921	task_201612041457_0008_m_000010	201612041457_0008	crypt02	NORMAL	6	882	918	876	36	912
923	task_201612041457_0008_m_000001	201612041457_0008	crypt14	NORMAL	6	889	921	883	32	915
927	task_201612041457_0008_m_000003	201612041457_0008	crypt06	NORMAL	6	890	924	884	34	918
929	task_201612041457_0008_m_000000	201612041457_0008	crypt14	NORMAL	6	889	926	883	37	920
931	task_201612041457_0008_m_000004	201612041457_0008	crypt06	NORMAL	6	890	928	884	38	922
931	task_201612041457_0008_m_000016	201612041457_0008	crypt02	NORMAL	6	918	930	912	12	924
941	task_201612041457_0008_m_000017	201612041457_0008	crypt02	NORMAL	6	930	939	924	9	933
953	task_201612041457_0008_m_000018	201612041457_0008	crypt02	NORMAL	6	939	951	933	12	945
953	task_201612041457_0008_m_000013	201612041457_0008	crypt02	NORMAL	6	918	951	912	33	945
963	task_201612041457_0008_m_000020	201612041457_0008	crypt02	NORMAL	6	951	962	945	11	956
963	task_201612041457_0008_m_000005	201612041457_0008	crypt14	NORMAL	6	921	961	915	40	955
963	task_201612041457_0008_m_000019	201612041457_0008	crypt02	NORMAL	6	951	962	945	11	956
967	task_201612041457_0008_m_000008	201612041457_0008	crypt06	NORMAL	6	928	963	922	35	957
967	task_201612041457_0008_m_000006	201612041457_0008	crypt06	NORMAL	6	924	963	918	39	957
967	task_201612041457_0008_m_000007	201612041457_0008	crypt14	NORMAL	6	926	965	920	39	959
977	task_201612041457_0008_m_000021	201612041457_0008	crypt02	NORMAL	6	962	974	956	12	968
977	task_201612041457_0008_m_000022	201612041457_0008	crypt02	NORMAL	6	962	974	956	12	968
989	task_201612041457_0008_m_000024	201612041457_0008	crypt02	NORMAL	6	974	986	968	12	980
989	task_201612041457_0008_m_000025	201612041457_0008	crypt02	NORMAL	6	974	986	968	12	980
997	task_201612041457_0008_m_000030	201612041457_0008	crypt02	NORMAL	6	986	995	980	9	989
997	task_201612041457_0008_m_000027	201612041457_0008	crypt02	NORMAL	6	986	995	980	9	989
1003	task_201612041457_0008_m_000009	201612041457_0008	crypt14	NORMAL	6	961	1000	955	39	994
1003	task_201612041457_0008_m_000014	201612041457_0008	crypt14	NORMAL	6	965	1000	959	35	994
1003	task_201612041457_0008_m_000011	201612041457_0008	crypt06	NORMAL	6	963	1000	957	37	994
1003	task_201612041457_0008_m_000012	201612041457_0008	crypt06	NORMAL	6	963	1000	957	37	994
1009	task_201612041457_0008_m_000023	201612041457_0008	crypt02	NORMAL	6	995	1007	989	12	1001
1015	task_201612041457_0008_m_000029	201612041457_0008	crypt14	NORMAL	6	1000	1012	994	12	1006
1015	task_201612041457_0008_m_000026	201612041457_0008	crypt06	NORMAL	6	1000	1012	994	12	1006
1015	task_201612041457_0008_m_000031	201612041457_0008	crypt14	NORMAL	6	1000	1012	994	12	1006
1015	task_201612041457_0008_m_000028	201612041457_0008	crypt06	NORMAL	6	1000	1012	994	12	1006
1033	task_201612041457_0008_m_000015	201612041457_0008	crypt02	NORMAL	6	995	1031	989	36	1025
1043	task_201612041457_0008_r_000000	201612041457_0008	crypt06	NORMAL	6	978	1040	972	62	1034
1043	task_201612041457_0005_m_000001	201612041457_0005	crypt02	NORMAL	6	1007	1040	1001	33	1034
1047	task_201612041457_0008_m_000032	201612041457_0008	crypt02	NORMAL	1040	1040	1046	0	6	6	JobSetup
1047	task_201612041457_0005_m_000002	201612041457_0005	crypt14	NORMAL	6	1012	1045	1006	33	1039
1047	201612041457_0008	201612041457_0008	['crypt02', 'crypt06', 'crypt14']	NORMAL	1	882	1046	881	164	1045
1053	task_201612041457_0005_m_000000	201612041457_0005	crypt06	NORMAL	6	1012	1050	1006	38	1044
1053	task_201612041457_0005_m_000003	201612041457_0005	crypt14	NORMAL	6	1012	1050	1006	38	1044
1053	task_201612041457_0005_m_000007	201612041457_0005	crypt06	NORMAL	6	1012	1050	1006	38	1044
1067	task_201612041457_0005_m_000004	201612041457_0005	crypt02	NORMAL	6	1031	1064	1025	33	1058
1085	task_201612041457_0005_m_000006	201612041457_0005	crypt02	NORMAL	6	1046	1082	1040	36	1076
1085	task_201612041457_0005_m_000014	201612041457_0005	crypt06	NORMAL	6	1050	1083	1044	33	1077
1085	task_201612041457_0005_m_000009	201612041457_0005	crypt06	NORMAL	6	1050	1083	1044	33	1077
1087	task_201612041457_0005_m_000005	201612041457_0005	crypt14	NORMAL	6	1045	1085	1039	40	1079
1087	task_201612041457_0005_m_000008	201612041457_0005	crypt14	NORMAL	6	1050	1085	1044	35	1079
1097	task_201612041457_0005_m_000018	201612041457_0005	crypt06	NORMAL	6	1083	1095	1077	12	1089
1097	task_201612041457_0005_m_000017	201612041457_0005	crypt06	NORMAL	6	1083	1095	1077	12	1089
1103	task_201612041457_0005_m_000010	201612041457_0005	crypt02	NORMAL	6	1064	1100	1058	36	1094
1109	task_201612041457_0005_m_000023	201612041457_0005	crypt06	NORMAL	6	1095	1107	1089	12	1101
1109	task_201612041457_0005_m_000024	201612041457_0005	crypt06	NORMAL	6	1095	1107	1089	12	1101
1117	task_201612041457_0005_m_000011	201612041457_0005	crypt02	NORMAL	6	1082	1115	1076	33	1109
1117	task_201612041457_0005_m_000028	201612041457_0005	crypt06	NORMAL	6	1107	1116	1101	9	1110
1117	task_201612041457_0005_m_000026	201612041457_0005	crypt06	NORMAL	6	1107	1116	1101	9	1110
1123	task_201612041457_0005_m_000012	201612041457_0005	crypt14	NORMAL	6	1085	1121	1079	36	1115
1123	task_201612041457_0005_m_000013	201612041457_0005	crypt14	NORMAL	6	1085	1121	1079	36	1115
1127	task_201612041457_0005_m_000016	201612041457_0005	crypt02	NORMAL	6	1115	1124	1109	9	1118
1131	task_201612041457_0005_m_000029	201612041457_0005	crypt06	NORMAL	6	1116	1128	1110	12	1122
1131	task_201612041457_0005_m_000031	201612041457_0005	crypt06	NORMAL	6	1116	1128	1110	12	1122
1135	task_201612041457_0005_m_000015	201612041457_0005	crypt02	NORMAL	6	1100	1133	1094	33	1127
1135	task_201612041457_0005_m_000020	201612041457_0005	crypt14	NORMAL	6	1121	1133	1115	12	1127
1135	task_201612041457_0005_m_000019	201612041457_0005	crypt14	NORMAL	6	1121	1133	1115	12	1127
1139	task_201612041457_0005_m_000021	201612041457_0005	crypt02	NORMAL	6	1124	1136	1118	12	1130
1139	task_201612041457_0005_m_000022	201612041457_0005	crypt06	NORMAL	6	1128	1137	1122	9	1131
1139	task_201612041457_0005_m_000025	201612041457_0005	crypt06	NORMAL	6	1128	1137	1122	9	1131
1145	task_201612041457_0005_m_000030	201612041457_0005	crypt14	NORMAL	6	1133	1142	1127	9	1136
1145	task_201612041457_0005_m_000027	201612041457_0005	crypt14	NORMAL	6	1133	1142	1127	9	1136
1153	task_201612041457_0005_r_000000	201612041457_0005	crypt02	NORMAL	6	1106	1151	1100	45	1145
1155	task_201612041457_0005_m_000032	201612041457_0005	crypt14	NORMAL	1151	1151	1154	0	3	3	JobSetup
1155	201612041457_0005	201612041457_0005	['crypt02', 'crypt06', 'crypt14']	NORMAL	1	1007	1154	1006	147	1153
