time: 	0	Current: 	0	available: 	4	alreadyShared: 	0
time: 	37	Current: 	0	available: 	4	alreadyShared: 	0
time: 	74	Current: 	0	available: 	4	alreadyShared: 	0
time: 	111	Current: 	0	available: 	4	alreadyShared: 	0
time: 	148	Current: 	0	available: 	4	alreadyShared: 	0
time: 	185	Current: 	1	available: 	4	alreadyShared: 	0
time: 	222	Current: 	1	available: 	3	alreadyShared: 	1
time: 	259	Current: 	2	available: 	2	alreadyShared: 	2
time: 	296	Current: 	2	available: 	0	alreadyShared: 	4
time: 	333	Current: 	2	available: 	0	alreadyShared: 	4
time: 	370	Current: 	3	available: 	0	alreadyShared: 	4
time: 	407	Current: 	3	available: 	0	alreadyShared: 	4
time: 	444	Current: 	3	available: 	0	alreadyShared: 	4
time: 	481	Current: 	3	available: 	0	alreadyShared: 	4
time: 	518	Current: 	4	available: 	0	alreadyShared: 	4
time: 	555	Current: 	4	available: 	0	alreadyShared: 	4
time: 	592	Current: 	5	available: 	0	alreadyShared: 	4
time: 	629	Current: 	5	available: 	0	alreadyShared: 	4
time: 	666	Current: 	5	available: 	0	alreadyShared: 	4
time: 	703	Current: 	5	available: 	0	alreadyShared: 	4
time: 	740	Current: 	5	available: 	0	alreadyShared: 	4
time: 	777	Current: 	5	available: 	0	alreadyShared: 	4
time: 	814	Current: 	5	available: 	0	alreadyShared: 	4
time: 	851	Current: 	5	available: 	0	alreadyShared: 	4
time: 	888	Current: 	5	available: 	0	alreadyShared: 	4
time: 	925	Current: 	5	available: 	0	alreadyShared: 	4
time: 	962	Current: 	5	available: 	0	alreadyShared: 	4
time: 	999	Current: 	5	available: 	0	alreadyShared: 	4
time: 	1036	Current: 	5	available: 	0	alreadyShared: 	4
time: 	1073	Current: 	5	available: 	0	alreadyShared: 	4
time: 	1110	Current: 	5	available: 	0	alreadyShared: 	4
time: 	1147	Current: 	5	available: 	0	alreadyShared: 	4
time: 	1184	Current: 	5	available: 	0	alreadyShared: 	4
time: 	1221	Current: 	5	available: 	0	alreadyShared: 	4
time: 	1258	Current: 	5	available: 	0	alreadyShared: 	4
time: 	1295	Current: 	5	available: 	0	alreadyShared: 	4
time: 	1332	Current: 	5	available: 	0	alreadyShared: 	4
time: 	1369	Current: 	5	available: 	0	alreadyShared: 	4
time: 	1406	Current: 	5	available: 	0	alreadyShared: 	4
time: 	1443	Current: 	5	available: 	0	alreadyShared: 	4
time: 	1480	Current: 	5	available: 	0	alreadyShared: 	4
time: 	1517	Current: 	5	available: 	0	alreadyShared: 	4
time: 	1554	Current: 	5	available: 	0	alreadyShared: 	4
time: 	1591	Current: 	5	available: 	0	alreadyShared: 	4
time: 	1628	Current: 	5	available: 	0	alreadyShared: 	4
time: 	1665	Current: 	5	available: 	0	alreadyShared: 	4
time: 	1702	Current: 	5	available: 	0	alreadyShared: 	4
time: 	1739	Current: 	5	available: 	0	alreadyShared: 	4
time: 	1776	Current: 	5	available: 	0	alreadyShared: 	4
time: 	1813	Current: 	6	available: 	0	alreadyShared: 	4
time: 	1850	Current: 	6	available: 	0	alreadyShared: 	4
time: 	1887	Current: 	6	available: 	0	alreadyShared: 	4
time: 	1924	Current: 	6	available: 	0	alreadyShared: 	4
time: 	1961	Current: 	6	available: 	0	alreadyShared: 	4
time: 	1998	Current: 	5	available: 	0	alreadyShared: 	4
time: 	2035	Current: 	5	available: 	0	alreadyShared: 	4
time: 	2072	Current: 	5	available: 	0	alreadyShared: 	4
time: 	2109	Current: 	5	available: 	0	alreadyShared: 	4
time: 	2146	Current: 	4	available: 	0	alreadyShared: 	4
time: 	2183	Current: 	3	available: 	0	alreadyShared: 	4
time: 	2220	Current: 	2	available: 	0	alreadyShared: 	4
time: 	2257	Current: 	2	available: 	0	alreadyShared: 	4
time: 	2294	Current: 	1	available: 	0	alreadyShared: 	4
time: 	2331	Current: 	0	available: 	0	alreadyShared: 	4
time: 	2368	Current: 	0	available: 	0	alreadyShared: 	4
time: 	2405	Current: 	0	available: 	0	alreadyShared: 	4
time: 	2442	Current: 	0	available: 	0	alreadyShared: 	4
time: 	2479	Current: 	-1	available: 	0	alreadyShared: 	4
time: 	2516	Current: 	-1	available: 	1	alreadyShared: 	3
time: 	2553	Current: 	-1	available: 	2	alreadyShared: 	2
time: 	2590	Current: 	-1	available: 	3	alreadyShared: 	1
time: 	2627	Current: 	-1	available: 	4	alreadyShared: 	0
time: 	2664	Current: 	-1	available: 	4	alreadyShared: 	0
time: 	2701	Current: 	-1	available: 	4	alreadyShared: 	0
time: 	2738	Current: 	-1	available: 	4	alreadyShared: 	0
time: 	2775	Current: 	-1	available: 	4	alreadyShared: 	0
time: 	2812	Current: 	-1	available: 	4	alreadyShared: 	0
time: 	2849	Current: 	-1	available: 	4	alreadyShared: 	0
time: 	2886	Current: 	-1	available: 	4	alreadyShared: 	0
time: 	2923	Current: 	-1	available: 	4	alreadyShared: 	0
time: 	2960	Current: 	-1	available: 	4	alreadyShared: 	0
time: 	2997	Current: 	-1	available: 	4	alreadyShared: 	0
time: 	3034	Current: 	-1	available: 	4	alreadyShared: 	0
time: 	3071	Current: 	-1	available: 	4	alreadyShared: 	0
time: 	3108	Current: 	-1	available: 	4	alreadyShared: 	0
time: 	3145	Current: 	-2	available: 	4	alreadyShared: 	0
time: 	3182	Current: 	-2	available: 	4	alreadyShared: 	0
time: 	3219	Current: 	-2	available: 	4	alreadyShared: 	0
time: 	3256	Current: 	-2	available: 	4	alreadyShared: 	0
time: 	3293	Current: 	-2	available: 	4	alreadyShared: 	0
time: 	3330	Current: 	-1	available: 	4	alreadyShared: 	0
time: 	3367	Current: 	-1	available: 	4	alreadyShared: 	0
time: 	3404	Current: 	-1	available: 	4	alreadyShared: 	0
time: 	3441	Current: 	-1	available: 	4	alreadyShared: 	0
time: 	3478	Current: 	-1	available: 	4	alreadyShared: 	0
time: 	3515	Current: 	0	available: 	4	alreadyShared: 	0
time: 	3552	Current: 	0	available: 	4	alreadyShared: 	0
time: 	3589	Current: 	0	available: 	4	alreadyShared: 	0
