Hour,HighOutside Air (*F),Low Outside Air (*F),Average Outside Air (*F),Inverter Total (kWh),Building Total (kWh),Solar Contrib (%),Grid Import (kWh),Grid Export (kWh),Grid Net (kWh),Grid Demand (kW),Solar Radiance>0,Avg Solar Radiance (w/SM),Available Solar (kWh),Est Solar kWh Perf (%)
1,58.1,53.3,55.4,0.0,0.0,0.0%,0.0,0.0,0.0,0.0,0.0,21.53,0.0,0.0%
2,53.4,51.9,52.4,0.0,0.0,0.0%,0.0,0.0,0.0,0.0,0.0,21.53,0.0,0.0%
3,52.6,52.0,52.3,0.0,0.0,0.0%,0.0,0.0,0.0,0.0,0.0,21.53,0.0,0.0%
4,52.5,50.3,51.8,0.0,0.0,0.0%,0.0,0.0,0.0,0.0,0.0,21.53,0.0,0.0%
5,50.3,49.2,49.6,0.0,0.0,0.0%,0.0,0.0,0.0,0.0,0.0,21.53,0.0,0.0%
6,52.4,49.2,50.3,0.9,0.9,100.0%,0.0,0.0,0.0,0.0,0.5,27.26,135.1,0.6%
7,63.7,52.6,58.8,46.4,46.4,100.0%,0.0,0.0,0.0,0.0,1.0,102.61,953.8,4.9%
8,63.8,62.1,62.9,237.9,237.9,100.0%,0.0,0.0,0.0,0.0,1.0,268.38,2494.5,9.5%
9,67.6,63.9,65.6,529.0,529.0,100.0%,0.0,0.0,0.0,0.0,1.0,471.81,4385.4,12.1%
10,69.9,67.7,68.9,779.3,779.3,100.0%,0.0,0.0,0.0,0.0,1.0,663.24,6164.7,12.6%
11,74.9,69.8,72.1,968.4,968.4,100.0%,0.0,0.0,0.0,0.0,1.0,825.41,7672.0,12.6%
12,78.8,74.9,76.9,1074.9,1074.9,100.0%,0.0,0.0,0.0,0.0,1.0,938.61,8724.2,12.3%
13,79.2,76.7,77.9,1126.6,1126.6,100.0%,0.0,0.0,0.0,0.0,1.0,991.89,9219.4,12.2%
14,81.1,78.5,79.8,1114.0,1114.0,100.0%,0.0,0.0,0.0,0.0,1.0,983.64,9142.7,12.2%
15,82.3,80.0,81.5,1050.0,1050.0,100.0%,0.0,0.0,0.0,0.0,1.0,909.90,8457.4,12.4%
16,81.1,79.9,80.5,924.4,924.4,100.0%,0.0,0.0,0.0,0.0,1.0,781.46,7263.5,12.7%
17,81.0,78.3,79.8,698.6,698.6,100.0%,0.0,0.0,0.0,0.0,1.0,585.91,5445.9,12.8%
18,78.5,74.8,76.7,401.5,401.5,100.0%,0.0,0.0,0.0,0.0,1.0,355.39,3303.3,12.2%
19,74.7,71.3,72.9,132.0,132.0,100.0%,0.0,0.0,0.0,0.0,1.0,75.53,702.0,18.8%
20,71.2,68.6,69.6,26.5,26.5,100.0%,0.0,0.0,0.0,0.0,0.4,46.10,171.8,15.4%
21,68.9,66.1,67.4,2.6,2.6,100.0%,0.0,0.0,0.0,0.0,0.0,25.11,0.0,0.0%
22,66.0,62.2,64.4,0.0,0.0,0.0%,0.0,0.0,0.0,0.0,0.0,21.53,0.0,0.0%
23,63.0,59.8,61.5,0.0,0.0,0.0%,0.0,0.0,0.0,0.0,0.0,21.53,0.0,0.0%
24,60.0,56.4,58.1,0.0,0.0,0.0%,0.0,0.0,0.0,0.0,0.0,21.53,0.0,0.0%
