Hour,HighOutside Air (*F),Low Outside Air (*F),Average Outside Air (*F),Inverter Total (kWh),Building Total (kWh),Solar Contrib (%),Grid Import (kWh),Grid Export (kWh),Grid Net (kWh),Grid Demand (kW),Solar Radiance>0,Avg Solar Radiance (w/SM),Available Solar (kWh),Est Solar kWh Perf (%)
1,68.8,68.1,68.5,0.0,0.0,0.0%,0.0,0.0,0.0,0.0,0.0,21.53,0.0,0.0%
2,68.2,67.6,68.0,0.0,0.0,0.0%,0.0,0.0,0.0,0.0,0.0,21.53,0.0,0.0%
3,67.7,67.2,67.4,0.0,0.0,0.0%,0.0,0.0,0.0,0.0,0.0,21.53,0.0,0.0%
4,67.3,66.8,67.1,0.0,0.0,0.0%,0.0,0.0,0.0,0.0,0.0,21.53,0.0,0.0%
5,67.0,66.4,66.7,0.0,0.0,0.0%,0.0,0.0,0.0,0.0,0.0,21.53,0.0,0.0%
6,66.7,66.2,66.5,0.0,0.0,0.0%,0.0,0.0,0.0,0.0,0.6,28.71,148.6,0.0%
7,73.5,66.8,70.1,63.7,63.7,100.0%,0.0,0.0,0.0,0.0,1.0,114.99,1068.8,6.0%
8,76.4,73.7,74.6,234.0,234.0,100.0%,0.0,0.0,0.0,0.0,1.0,274.12,2547.9,9.2%
9,79.8,76.6,78.1,401.2,401.2,100.0%,0.0,0.0,0.0,0.0,1.0,364.54,3388.3,11.8%
10,82.8,79.3,81.3,646.9,646.9,100.0%,0.0,0.0,0.0,0.0,1.0,568.69,5285.8,12.2%
11,85.7,82.2,83.5,763.1,763.1,100.0%,0.0,0.0,0.0,0.0,1.0,672.56,6251.3,12.2%
12,89.9,85.6,87.8,942.4,942.4,100.0%,0.0,0.0,0.0,0.0,1.0,851.61,7915.5,11.9%
13,94.2,88.4,90.8,818.9,818.9,100.0%,0.0,0.0,0.0,0.0,1.0,723.52,6724.9,12.2%
14,96.4,94.4,95.6,937.7,937.7,100.0%,0.0,0.0,0.0,0.0,1.0,883.36,8210.6,11.4%
15,94.7,92.2,93.6,822.7,822.7,100.0%,0.0,0.0,0.0,0.0,1.0,762.81,7090.1,11.6%
16,95.2,90.6,93.3,684.7,684.7,100.0%,0.0,0.0,0.0,0.0,1.0,607.27,5644.4,12.1%
17,92.1,90.3,91.3,571.9,571.9,100.0%,0.0,0.0,0.0,0.0,1.0,494.42,4595.5,12.4%
18,91.6,89.1,90.6,394.2,394.2,100.0%,0.0,0.0,0.0,0.0,1.0,355.56,3304.9,11.9%
19,89.0,85.0,86.9,175.2,175.2,100.0%,0.0,0.0,0.0,0.0,1.0,117.33,1090.5,16.1%
20,85.0,81.7,82.8,46.2,46.2,100.0%,0.0,0.0,0.0,0.0,0.5,61.35,267.5,17.3%
21,81.7,77.3,79.6,3.5,3.5,100.0%,0.0,0.0,0.0,0.0,0.0,26.02,0.0,0.0%
22,77.3,74.2,75.6,0.0,0.0,0.0%,0.0,0.0,0.0,0.0,0.0,21.53,0.0,0.0%
23,74.2,73.7,73.9,0.0,0.0,0.0%,0.0,0.0,0.0,0.0,0.0,21.53,0.0,0.0%
24,73.7,72.5,73.0,0.0,0.0,0.0%,0.0,0.0,0.0,0.0,0.0,21.53,0.0,0.0%
