Hour,HighOutside Air (*F),Low Outside Air (*F),Average Outside Air (*F),Inverter Total (kWh),Building Total (kWh),Solar Contrib (%),Grid Import (kWh),Grid Export (kWh),Grid Net (kWh),Grid Demand (kW),Solar Radiance>0,Avg Solar Radiance (w/SM),Available Solar (kWh),Est Solar kWh Perf (%)
1,67.5,64.7,66.1,0.0,0.0,0.0%,0.0,0.0,0.0,0.0,0.0,21.53,0.0,0.0%
2,64.7,63.2,63.7,0.0,0.0,0.0%,0.0,0.0,0.0,0.0,0.0,21.53,0.0,0.0%
3,63.7,63.3,63.5,0.0,0.0,0.0%,0.0,0.0,0.0,0.0,0.0,21.53,0.0,0.0%
4,63.6,63.1,63.3,0.0,0.0,0.0%,0.0,0.0,0.0,0.0,0.0,21.53,0.0,0.0%
5,63.8,62.8,63.2,0.0,0.0,0.0%,0.0,0.0,0.0,0.0,0.0,21.53,0.0,0.0%
6,65.9,62.6,63.9,0.3,0.3,100.0%,0.0,0.0,0.0,0.0,0.5,28.52,145.6,0.2%
7,68.6,66.0,66.6,68.1,68.1,100.0%,0.0,0.0,0.0,0.0,1.0,84.85,788.7,8.6%
8,73.1,68.8,71.4,205.5,205.5,100.0%,0.0,0.0,0.0,0.0,1.0,201.64,1874.2,11.0%
9,76.9,73.2,75.1,392.4,392.4,100.0%,0.0,0.0,0.0,0.0,1.0,351.26,3264.9,12.0%
10,79.8,76.9,78.2,576.6,576.6,100.0%,0.0,0.0,0.0,0.0,1.0,493.88,4590.5,12.6%
11,81.9,80.0,81.2,656.4,656.4,100.0%,0.0,0.0,0.0,0.0,1.0,567.61,5275.8,12.4%
12,86.1,81.6,84.6,982.9,982.9,100.0%,0.0,0.0,0.0,0.0,1.0,881.56,8193.9,12.0%
13,89.7,85.0,86.7,950.0,950.0,100.0%,0.0,0.0,0.0,0.0,1.0,851.96,7918.8,12.0%
14,90.8,85.3,88.1,716.6,716.6,100.0%,0.0,0.0,0.0,0.0,1.0,642.42,5971.2,12.0%
15,87.4,85.4,86.5,693.6,693.6,100.0%,0.0,0.0,0.0,0.0,1.0,603.32,5607.7,12.4%
16,88.1,85.1,86.5,766.6,766.6,100.0%,0.0,0.0,0.0,0.0,1.0,656.41,6101.2,12.6%
17,87.9,86.4,87.2,676.5,676.5,100.0%,0.0,0.0,0.0,0.0,1.0,573.18,5327.6,12.7%
18,86.6,84.4,85.2,379.7,379.7,100.0%,0.0,0.0,0.0,0.0,1.0,334.04,3104.8,12.2%
19,84.3,80.7,82.1,189.9,189.9,100.0%,0.0,0.0,0.0,0.0,1.0,83.42,775.4,24.5%
20,80.7,75.7,78.9,38.9,38.9,100.0%,0.0,0.0,0.0,0.0,0.5,46.82,228.9,17.0%
21,75.6,71.9,73.6,5.4,5.4,100.0%,0.0,0.0,0.0,0.0,0.0,27.63,0.0,0.0%
22,71.9,69.9,70.9,0.0,0.0,0.0%,0.0,0.0,0.0,0.0,0.0,21.53,0.0,0.0%
23,69.9,66.7,68.1,0.0,0.0,0.0%,0.0,0.0,0.0,0.0,0.0,21.53,0.0,0.0%
24,66.8,65.2,66.0,0.0,0.0,0.0%,0.0,0.0,0.0,0.0,0.0,21.53,0.0,0.0%
