Hour,HighOutside Air (*F),Low Outside Air (*F),Average Outside Air (*F),Inverter Total (kWh),Building Total (kWh),Solar Contrib (%),Grid Import (kWh),Grid Export (kWh),Grid Net (kWh),Grid Demand (kW),Solar Radiance>0,Avg Solar Radiance (w/SM),Available Solar (kWh),Est Solar kWh Perf (%)
1,72.0,69.2,70.2,0.0,0.0,0.0%,0.0,0.0,0.0,0.0,0.0,21.53,0.0,0.0%
2,69.6,68.7,69.1,0.0,0.0,0.0%,0.0,0.0,0.0,0.0,0.0,21.53,0.0,0.0%
3,69.3,67.9,68.4,0.0,0.0,0.0%,0.0,0.0,0.0,0.0,0.0,21.53,0.0,0.0%
4,67.9,66.4,67.2,0.0,0.0,0.0%,0.0,0.0,0.0,0.0,0.0,21.53,0.0,0.0%
5,66.5,65.2,66.1,0.0,0.0,0.0%,0.0,0.0,0.0,0.0,0.0,21.53,0.0,0.0%
6,65.2,64.3,64.6,0.0,0.0,0.0%,0.0,0.0,0.0,0.0,0.6,25.65,131.8,0.0%
7,75.2,64.7,70.1,59.0,59.0,100.0%,0.0,0.0,0.0,0.0,1.0,92.57,860.4,6.9%
8,77.2,74.7,75.5,210.3,210.3,100.0%,0.0,0.0,0.0,0.0,1.0,226.94,2109.3,10.0%
9,82.5,77.3,79.8,418.6,418.6,100.0%,0.0,0.0,0.0,0.0,1.0,391.27,3636.7,11.5%
10,87.9,82.5,85.0,644.4,644.4,100.0%,0.0,0.0,0.0,0.0,1.0,582.87,5417.6,11.9%
11,93.5,87.9,90.2,830.4,830.4,100.0%,0.0,0.0,0.0,0.0,1.0,757.24,7038.4,11.8%
12,96.6,93.7,95.2,922.5,922.5,100.0%,0.0,0.0,0.0,0.0,1.0,853.93,7937.1,11.6%
13,99.1,96.3,97.8,970.8,970.8,100.0%,0.0,0.0,0.0,0.0,1.0,906.14,8422.3,11.5%
14,100.4,98.9,99.7,974.1,974.1,100.0%,0.0,0.0,0.0,0.0,1.0,908.66,8445.8,11.5%
15,100.7,99.1,100.0,907.2,907.2,100.0%,0.0,0.0,0.0,0.0,1.0,833.13,7743.7,11.7%
16,100.2,98.5,99.3,779.7,779.7,100.0%,0.0,0.0,0.0,0.0,1.0,697.32,6481.4,12.0%
17,99.2,97.0,98.5,603.9,603.9,100.0%,0.0,0.0,0.0,0.0,1.0,532.09,4945.7,12.2%
18,97.2,94.4,96.1,371.5,371.5,100.0%,0.0,0.0,0.0,0.0,1.0,346.78,3223.2,11.5%
19,94.4,90.1,91.8,157.4,157.4,100.0%,0.0,0.0,0.0,0.0,1.0,98.49,915.4,17.2%
20,90.1,87.5,88.9,42.4,42.4,100.0%,0.0,0.0,0.0,0.0,0.5,55.97,235.2,18.0%
21,87.4,84.7,86.1,1.3,1.3,100.0%,0.0,0.0,0.0,0.0,0.0,24.40,0.0,0.0%
22,84.6,81.8,83.3,0.0,0.0,0.0%,0.0,0.0,0.0,0.0,0.0,21.53,0.0,0.0%
23,81.8,79.6,81.1,0.0,0.0,0.0%,0.0,0.0,0.0,0.0,0.0,21.53,0.0,0.0%
24,79.6,76.4,78.2,0.0,0.0,0.0%,0.0,0.0,0.0,0.0,0.0,21.53,0.0,0.0%
