Hour,HighOutside Air (*F),Low Outside Air (*F),Average Outside Air (*F),Inverter Total (kWh),Building Total (kWh),Solar Contrib (%),Grid Import (kWh),Grid Export (kWh),Grid Net (kWh),Grid Demand (kW),Solar Radiance>0,Avg Solar Radiance (w/SM),Available Solar (kWh),Est Solar kWh Perf (%)
1,62.3,60.2,61.7,0.0,0.0,0.0%,0.0,0.0,0.0,0.0,0.0,21.53,0.0,0.0%
2,61.8,60.2,61.2,0.0,0.0,0.0%,0.0,0.0,0.0,0.0,0.0,21.53,0.0,0.0%
3,60.1,57.9,58.9,0.0,0.0,0.0%,0.0,0.0,0.0,0.0,0.0,21.53,0.0,0.0%
4,59.7,58.0,59.0,0.0,0.0,0.0%,0.0,0.0,0.0,0.0,0.0,21.53,0.0,0.0%
5,59.9,58.6,59.5,0.0,0.0,0.0%,0.0,0.0,0.0,0.0,0.0,21.53,0.0,0.0%
6,58.9,57.2,58.2,0.2,0.2,100.0%,0.0,0.0,0.0,0.0,0.5,27.09,137.5,0.1%
7,67.3,58.2,63.3,61.4,61.4,100.0%,0.0,0.0,0.0,0.0,1.0,96.15,893.7,6.9%
8,68.2,66.7,67.1,220.5,220.5,100.0%,0.0,0.0,0.0,0.0,1.0,230.16,2139.3,10.3%
9,73.4,68.4,71.5,485.8,485.8,100.0%,0.0,0.0,0.0,0.0,1.0,441.32,4102.0,11.8%
10,75.9,73.1,74.7,725.0,725.0,100.0%,0.0,0.0,0.0,0.0,1.0,627.35,5831.1,12.4%
11,80.0,75.8,77.8,799.8,799.8,100.0%,0.0,0.0,0.0,0.0,1.0,708.45,6584.9,12.1%
12,82.3,78.4,80.5,738.5,738.5,100.0%,0.0,0.0,0.0,0.0,1.0,702.16,6526.4,11.3%
13,82.8,77.0,78.9,605.3,605.3,100.0%,0.0,0.0,0.0,0.0,1.0,563.49,5237.5,11.6%
14,86.0,82.0,83.9,950.4,950.4,100.0%,0.0,0.0,0.0,0.0,1.0,906.32,8424.0,11.3%
15,86.3,83.1,84.8,878.0,878.0,100.0%,0.0,0.0,0.0,0.0,1.0,808.91,7518.6,11.7%
16,85.5,0.0,83.4,796.5,796.5,100.0%,0.0,0.0,0.0,0.0,1.0,712.57,6623.2,12.0%
17,85.3,82.5,84.0,603.0,603.0,100.0%,0.0,0.0,0.0,0.0,1.0,497.65,4625.5,13.0%
18,84.5,83.0,83.9,435.1,435.1,100.0%,0.0,0.0,0.0,0.0,1.0,392.88,3651.8,11.9%
19,82.9,78.2,80.5,142.3,142.3,100.0%,0.0,0.0,0.0,0.0,1.0,78.58,730.4,19.5%
20,78.9,76.0,77.7,33.5,33.5,100.0%,0.0,0.0,0.0,0.0,0.4,46.82,188.4,17.8%
21,75.9,71.7,73.3,2.0,2.0,100.0%,0.0,0.0,0.0,0.0,0.0,24.76,0.0,0.0%
22,71.7,69.3,70.5,0.0,0.0,0.0%,0.0,0.0,0.0,0.0,0.0,21.53,0.0,0.0%
23,69.5,68.6,69.1,0.0,0.0,0.0%,0.0,0.0,0.0,0.0,0.0,21.53,0.0,0.0%
24,68.5,66.3,67.5,0.0,0.0,0.0%,0.0,0.0,0.0,0.0,0.0,21.53,0.0,0.0%
