Hour,HighOutside Air (*F),Low Outside Air (*F),Average Outside Air (*F),Inverter Total (kWh),Building Total (kWh),Solar Contrib (%),Grid Import (kWh),Grid Export (kWh),Grid Net (kWh),Grid Demand (kW),Solar Radiance>0,Avg Solar Radiance (w/SM),Available Solar (kWh),Est Solar kWh Perf (%)
1,59.2,58.5,58.9,0.0,0.0,0.0%,0.0,0.0,0.0,0.0,0.0,21.53,0.0,0.0%
2,58.7,58.3,58.5,0.0,0.0,0.0%,0.0,0.0,0.0,0.0,0.0,21.53,0.0,0.0%
3,58.5,57.7,58.2,0.0,0.0,0.0%,0.0,0.0,0.0,0.0,0.0,21.53,0.0,0.0%
4,57.9,57.7,57.8,0.0,0.0,0.0%,0.0,0.0,0.0,0.0,0.0,21.53,0.0,0.0%
5,57.8,57.6,57.7,0.0,0.0,0.0%,0.0,0.0,0.0,0.0,0.0,21.53,0.0,0.0%
6,58.1,57.8,57.9,0.0,0.0,0.0%,0.0,0.0,0.0,0.0,0.3,21.53,67.0,0.0%
7,58.5,58.1,58.3,0.0,0.0,0.0%,0.0,0.0,0.0,0.0,1.0,22.79,211.8,0.0%
8,59.1,58.3,58.7,19.9,19.9,100.0%,0.0,0.0,0.0,0.0,1.0,44.85,416.9,4.8%
9,60.1,59.2,59.6,60.4,60.4,100.0%,0.0,0.0,0.0,0.0,1.0,68.17,633.6,9.5%
10,62.2,60.1,61.1,126.4,126.4,100.0%,0.0,0.0,0.0,0.0,1.0,115.53,1073.8,11.8%
11,63.5,62.3,62.8,136.0,136.0,100.0%,0.0,0.0,0.0,0.0,1.0,125.75,1168.9,11.6%
12,63.6,63.3,63.5,93.4,93.4,100.0%,0.0,0.0,0.0,0.0,1.0,95.26,885.4,10.5%
13,66.0,63.6,65.2,223.5,223.5,100.0%,0.0,0.0,0.0,0.0,1.0,194.47,1807.6,12.4%
14,70.0,66.0,68.2,359.4,359.4,100.0%,0.0,0.0,0.0,0.0,1.0,299.24,2781.3,12.9%
15,72.9,70.1,71.8,330.0,330.0,100.0%,0.0,0.0,0.0,0.0,1.0,278.60,2589.5,12.7%
16,73.2,70.5,71.7,232.4,232.4,100.0%,0.0,0.0,0.0,0.0,1.0,201.64,1874.2,12.4%
17,71.0,69.6,70.2,148.9,148.9,100.0%,0.0,0.0,0.0,0.0,1.0,136.88,1272.3,11.7%
18,72.3,69.5,71.3,300.8,300.8,100.0%,0.0,0.0,0.0,0.0,1.0,246.85,2294.4,13.1%
19,70.8,66.5,68.1,55.1,55.1,100.0%,0.0,0.0,0.0,0.0,1.0,66.92,622.0,8.9%
20,66.5,64.1,65.3,6.1,6.1,100.0%,0.0,0.0,0.0,0.0,0.1,29.06,37.3,16.3%
21,64.1,62.4,63.2,0.0,0.0,0.0%,0.0,0.0,0.0,0.0,0.0,21.53,0.0,0.0%
22,62.3,61.4,61.8,0.0,0.0,0.0%,0.0,0.0,0.0,0.0,0.0,21.53,0.0,0.0%
23,61.6,60.9,61.2,0.0,0.0,0.0%,0.0,0.0,0.0,0.0,0.0,21.53,0.0,0.0%
24,61.0,60.6,60.8,0.0,0.0,0.0%,0.0,0.0,0.0,0.0,0.0,21.53,0.0,0.0%
