Hour,HighOutside Air (*F),Low Outside Air (*F),Average Outside Air (*F),Inverter Total (kWh),Building Total (kWh),Solar Contrib (%),Grid Import (kWh),Grid Export (kWh),Grid Net (kWh),Grid Demand (kW),Solar Radiance>0,Avg Solar Radiance (w/SM),Available Solar (kWh),Est Solar kWh Perf (%)
1,71.5,69.6,70.6,0.0,0.0,0.0%,0.0,0.0,0.0,0.0,0.0,21.53,0.0,0.0%
2,69.5,68.6,69.0,0.0,0.0,0.0%,0.0,0.0,0.0,0.0,0.0,21.53,0.0,0.0%
3,68.6,67.4,67.9,0.0,0.0,0.0%,0.0,0.0,0.0,0.0,0.0,21.53,0.0,0.0%
4,67.8,66.6,67.4,0.0,0.0,0.0%,0.0,0.0,0.0,0.0,0.0,21.53,0.0,0.0%
5,66.6,65.8,66.0,0.0,0.0,0.0%,0.0,0.0,0.0,0.0,0.0,21.53,0.0,0.0%
6,65.9,65.1,65.3,0.0,0.0,0.0%,0.0,0.0,0.0,0.0,0.5,26.73,122.0,0.0%
7,71.0,65.5,67.8,69.8,69.8,100.0%,0.0,0.0,0.0,0.0,1.0,93.29,867.1,8.1%
8,74.1,70.1,71.5,224.1,224.1,100.0%,0.0,0.0,0.0,0.0,1.0,213.31,1982.7,11.3%
9,78.3,74.3,76.9,389.7,389.7,100.0%,0.0,0.0,0.0,0.0,1.0,355.56,3304.9,11.8%
10,82.4,78.2,80.7,669.4,669.4,100.0%,0.0,0.0,0.0,0.0,1.0,590.58,5489.3,12.2%
11,85.8,82.5,84.5,840.9,840.9,100.0%,0.0,0.0,0.0,0.0,1.0,747.01,6943.3,12.1%
12,88.6,85.8,87.3,896.7,896.7,100.0%,0.0,0.0,0.0,0.0,1.0,818.95,7612.0,11.8%
13,87.9,85.1,86.8,818.8,818.8,100.0%,0.0,0.0,0.0,0.0,1.0,724.23,6731.5,12.2%
14,90.7,84.6,88.1,1015.5,1015.5,100.0%,0.0,0.0,0.0,0.0,1.0,933.95,8680.9,11.7%
15,92.0,89.3,90.7,892.0,892.0,100.0%,0.0,0.0,0.0,0.0,1.0,818.78,7610.4,11.7%
16,90.7,89.0,89.9,825.4,825.4,100.0%,0.0,0.0,0.0,0.0,1.0,717.77,6671.5,12.4%
17,89.9,86.9,88.4,603.0,603.0,100.0%,0.0,0.0,0.0,0.0,1.0,515.41,4790.6,12.6%
18,87.0,81.4,83.6,250.1,250.1,100.0%,0.0,0.0,0.0,0.0,1.0,233.93,2174.3,11.5%
19,81.4,75.2,78.0,96.7,96.7,100.0%,0.0,0.0,0.0,0.0,1.0,95.44,887.1,10.9%
20,77.8,75.9,76.9,50.9,50.9,100.0%,0.0,0.0,0.0,0.0,0.3,62.79,191.4,26.6%
21,75.8,73.5,74.5,0.6,0.6,100.0%,0.0,0.0,0.0,0.0,0.0,22.79,0.0,0.0%
22,73.5,71.5,72.3,0.0,0.0,0.0%,0.0,0.0,0.0,0.0,0.0,21.53,0.0,0.0%
23,71.5,69.8,70.7,0.0,0.0,0.0%,0.0,0.0,0.0,0.0,0.0,21.53,0.0,0.0%
24,69.8,68.7,69.2,0.0,0.0,0.0%,0.0,0.0,0.0,0.0,0.0,21.53,0.0,0.0%
