Hour,HighOutside Air (*F),Low Outside Air (*F),Average Outside Air (*F),Inverter Total (kWh),Building Total (kWh),Solar Contrib (%),Grid Import (kWh),Grid Export (kWh),Grid Net (kWh),Grid Demand (kW),Solar Radiance>0,Avg Solar Radiance (w/SM),Available Solar (kWh),Est Solar kWh Perf (%)
1,55.3,54.9,55.0,0.0,0.0,0.0%,0.0,0.0,0.0,0.0,0.0,21.53,0.0,0.0%
2,55.9,55.3,55.6,0.0,0.0,0.0%,0.0,0.0,0.0,0.0,0.0,21.53,0.0,0.0%
3,56.3,55.9,56.1,0.0,0.0,0.0%,0.0,0.0,0.0,0.0,0.0,21.53,0.0,0.0%
4,56.3,56.1,56.2,0.0,0.0,0.0%,0.0,0.0,0.0,0.0,0.0,21.53,0.0,0.0%
5,56.5,56.2,56.3,0.0,0.0,0.0%,0.0,0.0,0.0,0.0,0.0,21.53,0.0,0.0%
6,57.2,56.5,56.8,0.0,0.0,0.0%,0.0,0.0,0.0,0.0,0.4,21.53,88.2,0.0%
7,58.1,57.2,57.6,0.5,0.5,100.0%,0.0,0.0,0.0,0.0,1.0,29.25,271.8,0.2%
8,60.0,58.1,59.0,64.8,64.8,100.0%,0.0,0.0,0.0,0.0,1.0,75.35,700.3,9.3%
9,60.9,60.1,60.4,59.5,59.5,100.0%,0.0,0.0,0.0,0.0,1.0,70.69,657.0,9.1%
10,62.1,61.0,61.7,75.4,75.4,100.0%,0.0,0.0,0.0,0.0,1.0,82.53,767.1,9.8%
11,63.1,62.1,62.5,61.7,61.7,100.0%,0.0,0.0,0.0,0.0,1.0,71.22,662.0,9.3%
12,63.7,63.1,63.3,55.3,55.3,100.0%,0.0,0.0,0.0,0.0,1.0,66.20,615.3,9.0%
13,64.7,63.7,64.2,131.4,131.4,100.0%,0.0,0.0,0.0,0.0,1.0,121.45,1128.8,11.6%
14,67.2,64.7,66.0,219.6,219.6,100.0%,0.0,0.0,0.0,0.0,1.0,188.19,1749.1,12.6%
15,69.1,67.2,68.4,202.3,202.3,100.0%,0.0,0.0,0.0,0.0,1.0,179.04,1664.1,12.2%
16,68.6,68.3,68.4,120.2,120.2,100.0%,0.0,0.0,0.0,0.0,1.0,117.33,1090.5,11.0%
17,71.7,68.3,70.3,235.3,235.3,100.0%,0.0,0.0,0.0,0.0,1.0,206.48,1919.2,12.3%
18,71.8,70.0,70.8,84.0,84.0,100.0%,0.0,0.0,0.0,0.0,1.0,90.60,842.1,10.0%
19,70.7,70.0,70.3,75.1,75.1,100.0%,0.0,0.0,0.0,0.0,1.0,84.85,788.7,9.5%
20,70.6,68.6,69.7,16.0,16.0,100.0%,0.0,0.0,0.0,0.0,0.3,38.93,93.7,17.0%
21,68.5,67.4,67.7,0.0,0.0,0.0%,0.0,0.0,0.0,0.0,0.0,21.53,0.0,0.0%
22,67.6,66.9,67.1,0.0,0.0,0.0%,0.0,0.0,0.0,0.0,0.0,21.53,0.0,0.0%
23,67.9,66.5,67.3,0.0,0.0,0.0%,0.0,0.0,0.0,0.0,0.0,21.53,0.0,0.0%
24,66.5,66.1,66.3,0.0,0.0,0.0%,0.0,0.0,0.0,0.0,0.0,21.53,0.0,0.0%
