Hour,HighOutside Air (*F),Low Outside Air (*F),Average Outside Air (*F),Inverter Total (kWh),Building Total (kWh),Solar Contrib (%),Grid Import (kWh),Grid Export (kWh),Grid Net (kWh),Grid Demand (kW),Solar Radiance>0,Avg Solar Radiance (w/SM),Available Solar (kWh),Est Solar kWh Perf (%)
1,47.7,46.9,47.1,0.0,0.0,0.0%,0.0,0.0,0.0,0.0,0.0,21.34,0.0,0.0%
2,47.4,46.4,47.2,0.0,0.0,0.0%,0.0,0.0,0.0,0.0,0.0,21.53,0.0,0.0%
3,46.5,45.0,45.9,0.0,0.0,0.0%,0.0,0.0,0.0,0.0,0.0,21.53,0.0,0.0%
4,46.1,44.9,45.5,0.0,0.0,0.0%,0.0,0.0,0.0,0.0,0.0,21.17,0.0,0.0%
5,46.1,42.9,44.6,0.0,0.0,0.0%,0.0,0.0,0.0,0.0,0.0,21.34,0.0,0.0%
6,43.1,41.1,42.2,0.0,0.0,0.0%,0.0,0.0,0.0,0.0,0.2,21.71,44.0,0.0%
7,53.7,41.3,46.5,36.4,36.4,100.0%,0.0,0.0,0.0,0.0,1.0,86.29,802.1,4.5%
8,57.7,52.3,54.3,233.5,233.5,100.0%,0.0,0.0,0.0,0.0,1.0,240.76,2237.8,10.4%
9,64.4,57.8,61.2,513.3,513.3,100.0%,0.0,0.0,0.0,0.0,1.0,442.75,4115.3,12.5%
10,70.8,64.6,67.4,765.3,765.3,100.0%,0.0,0.0,0.0,0.0,1.0,638.48,5934.5,12.9%
11,73.4,70.4,71.8,955.2,955.2,100.0%,0.0,0.0,0.0,0.0,1.0,804.42,7476.9,12.8%
12,73.7,71.6,72.4,1039.1,1039.1,100.0%,0.0,0.0,0.0,0.0,1.0,895.56,8324.0,12.5%
13,75.3,72.3,73.9,944.6,944.6,100.0%,0.0,0.0,0.0,0.0,1.0,851.42,7913.8,11.9%
14,80.9,74.0,77.0,1139.3,1139.3,100.0%,0.0,0.0,0.0,0.0,1.0,1059.17,9844.7,11.6%
15,81.4,74.5,76.5,750.7,750.7,100.0%,0.0,0.0,0.0,0.0,1.0,667.54,6204.7,12.1%
16,76.1,72.8,73.8,499.4,499.4,100.0%,0.0,0.0,0.0,0.0,1.0,399.70,3715.1,13.4%
17,74.4,72.4,73.4,346.4,346.4,100.0%,0.0,0.0,0.0,0.0,1.0,287.58,2673.0,13.0%
18,73.3,70.8,71.9,208.5,208.5,100.0%,0.0,0.0,0.0,0.0,1.0,184.96,1719.1,12.1%
19,70.8,69.0,69.8,63.0,63.0,100.0%,0.0,0.0,0.0,0.0,1.0,75.35,700.3,9.0%
20,69.0,66.5,67.8,5.5,5.5,100.0%,0.0,0.0,0.0,0.0,0.0,27.99,6.0,91.4%
21,66.5,65.0,65.8,0.0,0.0,0.0%,0.0,0.0,0.0,0.0,0.0,21.53,0.0,0.0%
22,65.0,63.9,64.6,0.0,0.0,0.0%,0.0,0.0,0.0,0.0,0.0,21.53,0.0,0.0%
23,64.0,61.8,63.1,0.0,0.0,0.0%,0.0,0.0,0.0,0.0,0.0,21.53,0.0,0.0%
24,61.8,58.1,59.6,0.0,0.0,0.0%,0.0,0.0,0.0,0.0,0.0,21.53,0.0,0.0%
