Hour,HighOutside Air (*F),Low Outside Air (*F),Average Outside Air (*F),Inverter Total (kWh),Building Total (kWh),Solar Contrib (%),Grid Import (kWh),Grid Export (kWh),Grid Net (kWh),Grid Demand (kW),Solar Radiance>0,Avg Solar Radiance (w/SM),Available Solar (kWh),Est Solar kWh Perf (%)
1,58.0,57.6,57.8,0.0,0.0,0.0%,0.0,0.0,0.0,0.0,0.0,21.53,0.0,0.0%
2,58.2,57.9,58.1,0.0,0.0,0.0%,0.0,0.0,0.0,0.0,0.0,21.53,0.0,0.0%
3,58.0,57.6,57.8,0.0,0.0,0.0%,0.0,0.0,0.0,0.0,0.0,21.53,0.0,0.0%
4,57.8,57.5,57.7,0.0,0.0,0.0%,0.0,0.0,0.0,0.0,0.0,21.53,0.0,0.0%
5,57.5,56.1,56.9,0.0,0.0,0.0%,0.0,0.0,0.0,0.0,0.0,21.53,0.0,0.0%
6,56.1,54.9,55.4,0.0,0.0,0.0%,0.0,0.0,0.0,0.0,0.4,21.53,85.8,0.0%
7,54.9,54.7,54.8,0.0,0.0,0.0%,0.0,0.0,0.0,0.0,1.0,24.04,223.4,0.0%
8,55.4,54.6,54.9,32.3,32.3,100.0%,0.0,0.0,0.0,0.0,1.0,51.85,481.9,6.7%
9,56.9,55.3,56.1,81.8,81.8,100.0%,0.0,0.0,0.0,0.0,1.0,86.47,803.7,10.2%
10,57.6,56.9,57.2,100.0,100.0,100.0%,0.0,0.0,0.0,0.0,1.0,100.46,933.7,10.7%
11,60.0,57.5,58.4,213.1,213.1,100.0%,0.0,0.0,0.0,0.0,1.0,184.96,1719.1,12.4%
12,61.4,60.1,60.6,292.5,292.5,100.0%,0.0,0.0,0.0,0.0,1.0,245.23,2279.4,12.8%
13,61.5,60.4,60.9,217.7,217.7,100.0%,0.0,0.0,0.0,0.0,1.0,190.17,1767.5,12.3%
14,61.6,60.7,61.1,206.9,206.9,100.0%,0.0,0.0,0.0,0.0,1.0,181.19,1684.1,12.3%
15,61.1,60.5,60.8,218.4,218.4,100.0%,0.0,0.0,0.0,0.0,1.0,191.06,1775.9,12.3%
16,60.9,59.7,60.5,186.3,186.3,100.0%,0.0,0.0,0.0,0.0,1.0,165.23,1535.7,12.1%
17,59.7,58.8,59.3,159.5,159.5,100.0%,0.0,0.0,0.0,0.0,1.0,145.13,1348.9,11.8%
18,58.9,58.2,58.6,131.9,131.9,100.0%,0.0,0.0,0.0,0.0,1.0,124.86,1160.6,11.4%
19,58.1,56.4,57.1,51.4,51.4,100.0%,0.0,0.0,0.0,0.0,1.0,65.12,605.3,8.5%
20,56.4,55.5,56.0,12.5,12.5,100.0%,0.0,0.0,0.0,0.0,0.2,33.55,76.4,16.4%
21,55.5,54.7,55.1,0.0,0.0,0.0%,0.0,0.0,0.0,0.0,0.0,21.53,0.0,0.0%
22,54.7,54.4,54.5,0.0,0.0,0.0%,0.0,0.0,0.0,0.0,0.0,21.53,0.0,0.0%
23,54.7,54.4,54.5,0.0,0.0,0.0%,0.0,0.0,0.0,0.0,0.0,21.53,0.0,0.0%
24,55.0,54.7,54.8,0.0,0.0,0.0%,0.0,0.0,0.0,0.0,0.0,21.53,0.0,0.0%
