Hour,HighOutside Air (*F),Low Outside Air (*F),Average Outside Air (*F),Inverter Total (kWh),Building Total (kWh),Solar Contrib (%),Grid Import (kWh),Grid Export (kWh),Grid Net (kWh),Grid Demand (kW),Solar Radiance>0,Avg Solar Radiance (w/SM),Available Solar (kWh),Est Solar kWh Perf (%)
1,67.8,65.3,66.3,0.0,0.0,0.0%,0.0,0.0,0.0,0.0,0.0,21.53,0.0,0.0%
2,65.5,63.0,64.1,0.0,0.0,0.0%,0.0,0.0,0.0,0.0,0.0,21.53,0.0,0.0%
3,63.2,61.9,62.7,0.0,0.0,0.0%,0.0,0.0,0.0,0.0,0.0,21.53,0.0,0.0%
4,61.9,60.7,61.2,0.0,0.0,0.0%,0.0,0.0,0.0,0.0,0.0,21.53,0.0,0.0%
5,60.8,60.1,60.3,0.0,0.0,0.0%,0.0,0.0,0.0,0.0,0.0,21.53,0.0,0.0%
6,60.2,59.3,59.7,0.0,0.0,0.0%,0.0,0.0,0.0,0.0,0.5,26.37,114.5,0.0%
7,72.0,60.3,65.7,41.8,41.8,100.0%,0.0,0.0,0.0,0.0,1.0,85.39,793.7,5.3%
8,74.4,72.2,73.4,194.5,194.5,100.0%,0.0,0.0,0.0,0.0,1.0,220.12,2046.0,9.5%
9,80.5,74.4,77.4,413.9,413.9,100.0%,0.0,0.0,0.0,0.0,1.0,380.15,3533.4,11.7%
10,86.1,80.6,83.5,670.4,670.4,100.0%,0.0,0.0,0.0,0.0,1.0,596.50,5544.4,12.1%
11,89.9,85.6,87.2,835.2,835.2,100.0%,0.0,0.0,0.0,0.0,1.0,748.98,6961.6,12.0%
12,90.9,87.5,89.4,783.8,783.8,100.0%,0.0,0.0,0.0,0.0,1.0,694.09,6451.4,12.1%
13,92.7,87.4,89.9,841.4,841.4,100.0%,0.0,0.0,0.0,0.0,1.0,777.51,7226.8,11.6%
14,96.6,91.3,93.8,968.5,968.5,100.0%,0.0,0.0,0.0,0.0,1.0,922.65,8575.8,11.3%
15,96.6,88.7,91.6,653.2,653.2,100.0%,0.0,0.0,0.0,0.0,1.0,574.98,5344.3,12.2%
16,94.6,90.1,92.8,783.3,783.3,100.0%,0.0,0.0,0.0,0.0,1.0,709.88,6598.2,11.9%
17,92.0,89.7,91.0,575.9,575.9,100.0%,0.0,0.0,0.0,0.0,1.0,498.72,4635.5,12.4%
18,90.0,87.2,88.9,378.4,378.4,100.0%,0.0,0.0,0.0,0.0,1.0,336.02,3123.2,12.1%
19,87.2,83.8,85.0,123.3,123.3,100.0%,0.0,0.0,0.0,0.0,1.0,115.36,1072.2,11.5%
20,83.8,78.5,80.9,47.4,47.4,100.0%,0.0,0.0,0.0,0.0,0.5,64.94,321.7,14.7%
21,78.4,74.9,76.5,1.3,1.3,100.0%,0.0,0.0,0.0,0.0,0.0,24.94,0.0,0.0%
22,74.9,73.0,73.9,0.0,0.0,0.0%,0.0,0.0,0.0,0.0,0.0,21.53,0.0,0.0%
23,73.0,71.0,72.1,0.0,0.0,0.0%,0.0,0.0,0.0,0.0,0.0,21.53,0.0,0.0%
24,71.0,69.0,70.1,0.0,0.0,0.0%,0.0,0.0,0.0,0.0,0.0,21.53,0.0,0.0%
