Hour,HighOutside Air (*F),Low Outside Air (*F),Average Outside Air (*F),Inverter Total (kWh),Building Total (kWh),Solar Contrib (%),Grid Import (kWh),Grid Export (kWh),Grid Net (kWh),Grid Demand (kW),Solar Radiance>0,Avg Solar Radiance (w/SM),Available Solar (kWh),Est Solar kWh Perf (%)
1,70.0,63.5,66.2,0.0,0.0,0.0%,0.0,0.0,0.0,0.0,0.0,21.53,0.0,0.0%
2,63.4,62.9,63.0,0.0,0.0,0.0%,0.0,0.0,0.0,0.0,0.0,21.53,0.0,0.0%
3,63.5,63.2,63.3,0.0,0.0,0.0%,0.0,0.0,0.0,0.0,0.0,21.53,0.0,0.0%
4,65.2,63.2,64.0,0.0,0.0,0.0%,0.0,0.0,0.0,0.0,0.0,21.53,0.0,0.0%
5,65.4,65.1,65.2,0.0,0.0,0.0%,0.0,0.0,0.0,0.0,0.0,21.53,0.0,0.0%
6,65.6,65.2,65.5,0.0,0.0,0.0%,0.0,0.0,0.0,0.0,0.6,21.53,111.1,0.0%
7,66.6,65.0,65.8,0.0,0.0,0.0%,0.0,0.0,0.0,0.0,1.0,35.52,330.2,0.0%
8,70.0,66.6,67.8,119.1,119.1,100.0%,0.0,0.0,0.0,0.0,1.0,125.94,1170.6,10.2%
9,70.5,69.8,70.1,162.1,162.1,100.0%,0.0,0.0,0.0,0.0,1.0,152.49,1417.4,11.4%
10,75.9,70.3,73.6,493.6,493.6,100.0%,0.0,0.0,0.0,0.0,1.0,419.61,3900.2,12.7%
11,80.0,75.5,78.0,697.9,697.9,100.0%,0.0,0.0,0.0,0.0,1.0,623.95,5799.5,12.0%
12,85.9,80.3,83.7,843.1,843.1,100.0%,0.0,0.0,0.0,0.0,1.0,783.79,7285.2,11.6%
13,82.3,79.9,80.7,358.9,358.9,100.0%,0.0,0.0,0.0,0.0,1.0,315.38,2931.4,12.2%
14,87.6,80.5,85.1,874.4,874.4,100.0%,0.0,0.0,0.0,0.0,1.0,785.41,7300.2,12.0%
15,84.8,74.9,77.8,391.8,391.8,100.0%,0.0,0.0,0.0,0.0,1.0,340.86,3168.2,12.4%
16,81.6,73.1,78.9,316.2,316.2,100.0%,0.0,0.0,0.0,0.0,1.0,272.33,2531.2,12.5%
17,73.0,66.5,68.2,181.8,181.8,100.0%,0.0,0.0,0.0,0.0,1.0,164.87,1532.4,11.9%
18,74.7,70.4,72.6,308.0,308.0,100.0%,0.0,0.0,0.0,0.0,1.0,269.10,2501.2,12.3%
19,74.2,71.0,72.6,113.4,113.4,100.0%,0.0,0.0,0.0,0.0,1.0,113.56,1055.5,10.7%
20,71.1,69.5,70.2,53.0,53.0,100.0%,0.0,0.0,0.0,0.0,0.5,61.89,297.4,17.8%
21,69.4,65.7,67.4,1.9,1.9,100.0%,0.0,0.0,0.0,0.0,0.0,24.04,0.0,0.0%
22,65.6,64.9,65.2,0.0,0.0,0.0%,0.0,0.0,0.0,0.0,0.0,21.53,0.0,0.0%
23,65.5,62.9,64.4,0.0,0.0,0.0%,0.0,0.0,0.0,0.0,0.0,21.53,0.0,0.0%
24,63.3,61.4,62.5,0.0,0.0,0.0%,0.0,0.0,0.0,0.0,0.0,21.53,0.0,0.0%
