Hour,HighOutside Air (*F),Low Outside Air (*F),Average Outside Air (*F),Inverter Total (kWh),Building Total (kWh),Solar Contrib (%),Grid Import (kWh),Grid Export (kWh),Grid Net (kWh),Grid Demand (kW),Solar Radiance>0,Avg Solar Radiance (w/SM),Available Solar (kWh),Est Solar kWh Perf (%)
1,56.3,53.3,55.0,0.0,0.0,0.0%,0.0,0.0,0.0,0.0,0.0,21.53,0.0,0.0%
2,53.6,52.9,53.3,0.0,0.0,0.0%,0.0,0.0,0.0,0.0,0.0,21.53,0.0,0.0%
3,53.3,49.9,51.6,0.0,0.0,0.0%,0.0,0.0,0.0,0.0,0.0,21.53,0.0,0.0%
4,50.3,47.6,49.2,0.0,0.0,0.0%,0.0,0.0,0.0,0.0,0.0,21.53,0.0,0.0%
5,49.0,47.6,48.4,0.0,0.0,0.0%,0.0,0.0,0.0,0.0,0.0,21.53,0.0,0.0%
6,47.7,47.2,47.5,0.0,0.0,0.0%,0.0,0.0,0.0,0.0,0.2,21.88,40.7,0.0%
7,56.0,47.4,51.1,38.9,38.9,100.0%,0.0,0.0,0.0,0.0,1.0,72.84,677.0,5.7%
8,58.7,55.0,56.3,216.0,216.0,100.0%,0.0,0.0,0.0,0.0,1.0,228.55,2124.3,10.2%
9,65.0,58.9,62.2,501.4,501.4,100.0%,0.0,0.0,0.0,0.0,1.0,436.48,4056.9,12.4%
10,72.2,64.9,67.9,752.3,752.3,100.0%,0.0,0.0,0.0,0.0,1.0,630.95,5864.5,12.8%
11,72.8,71.4,72.2,956.2,956.2,100.0%,0.0,0.0,0.0,0.0,1.0,802.80,7461.9,12.8%
12,75.6,72.5,74.2,1033.0,1033.0,100.0%,0.0,0.0,0.0,0.0,1.0,898.97,8355.7,12.4%
13,78.0,74.5,76.0,1093.7,1093.7,100.0%,0.0,0.0,0.0,0.0,1.0,978.44,9094.4,12.0%
14,79.5,72.1,75.9,771.6,771.6,100.0%,0.0,0.0,0.0,0.0,1.0,670.59,6233.0,12.4%
15,76.2,73.5,74.8,665.4,665.4,100.0%,0.0,0.0,0.0,0.0,1.0,541.78,5035.7,13.2%
16,77.2,73.0,75.0,787.2,787.2,100.0%,0.0,0.0,0.0,0.0,1.0,638.30,5932.8,13.3%
17,74.8,64.8,68.8,229.4,229.4,100.0%,0.0,0.0,0.0,0.0,1.0,203.44,1890.9,12.1%
18,67.8,64.5,66.6,357.1,357.1,100.0%,0.0,0.0,0.0,0.0,1.0,301.03,2798.0,12.8%
19,64.3,60.5,62.2,65.8,65.8,100.0%,0.0,0.0,0.0,0.0,1.0,76.24,708.6,9.3%
20,60.4,58.5,59.4,16.9,16.9,100.0%,0.0,0.0,0.0,0.0,0.0,40.01,2.2,759.4%
21,58.4,52.8,55.1,0.0,0.0,0.0%,0.0,0.0,0.0,0.0,0.0,21.53,0.0,0.0%
22,52.7,49.9,51.0,0.0,0.0,0.0%,0.0,0.0,0.0,0.0,0.0,21.53,0.0,0.0%
23,50.4,49.2,49.7,0.0,0.0,0.0%,0.0,0.0,0.0,0.0,0.0,21.53,0.0,0.0%
24,49.6,47.8,48.6,0.0,0.0,0.0%,0.0,0.0,0.0,0.0,0.0,21.53,0.0,0.0%
