Hour,HighOutside Air (*F),Low Outside Air (*F),Average Outside Air (*F),Inverter Total (kWh),Building Total (kWh),Solar Contrib (%),Grid Import (kWh),Grid Export (kWh),Grid Net (kWh),Grid Demand (kW),Solar Radiance>0,Avg Solar Radiance (w/SM),Available Solar (kWh),Est Solar kWh Perf (%)
1,49.8,48.8,49.3,0.0,0.0,0.0%,0.0,0.0,0.0,0.0,0.0,21.53,0.0,0.0%
2,49.8,48.8,49.3,0.0,0.0,0.0%,0.0,0.0,0.0,0.0,0.0,21.53,0.0,0.0%
3,51.0,49.8,50.5,0.0,0.0,0.0%,0.0,0.0,0.0,0.0,0.0,21.53,0.0,0.0%
4,51.3,50.7,51.1,0.0,0.0,0.0%,0.0,0.0,0.0,0.0,0.0,21.53,0.0,0.0%
5,51.9,51.2,51.6,0.0,0.0,0.0%,0.0,0.0,0.0,0.0,0.0,21.53,0.0,0.0%
6,52.4,51.8,52.0,0.0,0.0,0.0%,0.0,0.0,0.0,0.0,0.3,21.53,60.8,0.0%
7,54.0,52.4,53.0,26.2,26.2,100.0%,0.0,0.0,0.0,0.0,1.0,50.95,473.5,5.5%
8,55.0,54.1,54.8,60.4,60.4,100.0%,0.0,0.0,0.0,0.0,1.0,70.69,657.0,9.2%
9,57.7,55.1,56.6,137.7,137.7,100.0%,0.0,0.0,0.0,0.0,1.0,129.70,1205.6,11.4%
10,58.1,57.2,57.4,127.5,127.5,100.0%,0.0,0.0,0.0,0.0,1.0,122.35,1137.2,11.2%
11,62.5,58.2,60.4,317.8,317.8,100.0%,0.0,0.0,0.0,0.0,1.0,266.22,2474.5,12.8%
12,63.0,62.0,62.4,271.7,271.7,100.0%,0.0,0.0,0.0,0.0,1.0,231.78,2154.3,12.6%
13,66.1,62.4,63.5,372.7,372.7,100.0%,0.0,0.0,0.0,0.0,1.0,313.05,2909.7,12.8%
14,70.9,66.1,68.4,755.8,755.8,100.0%,0.0,0.0,0.0,0.0,1.0,628.43,5841.1,12.9%
15,73.6,70.1,71.5,824.5,824.5,100.0%,0.0,0.0,0.0,0.0,1.0,712.93,6626.5,12.4%
16,73.7,69.2,70.8,442.6,442.6,100.0%,0.0,0.0,0.0,0.0,1.0,371.71,3455.0,12.8%
17,71.7,69.5,70.8,534.9,534.9,100.0%,0.0,0.0,0.0,0.0,1.0,436.48,4056.9,13.2%
18,71.0,68.3,69.4,345.9,345.9,100.0%,0.0,0.0,0.0,0.0,1.0,285.96,2658.0,13.0%
19,68.2,64.7,66.3,134.7,134.7,100.0%,0.0,0.0,0.0,0.0,1.0,103.52,962.2,14.0%
20,64.7,62.2,63.7,25.0,25.0,100.0%,0.0,0.0,0.0,0.0,0.1,45.03,43.9,57.0%
21,62.1,58.3,59.9,0.0,0.0,0.0%,0.0,0.0,0.0,0.0,0.0,21.53,0.0,0.0%
22,58.3,56.2,56.8,0.0,0.0,0.0%,0.0,0.0,0.0,0.0,0.0,21.53,0.0,0.0%
23,56.8,56.3,56.6,0.0,0.0,0.0%,0.0,0.0,0.0,0.0,0.0,21.53,0.0,0.0%
24,56.6,56.0,56.4,0.0,0.0,0.0%,0.0,0.0,0.0,0.0,0.0,21.53,0.0,0.0%
