2011-01-17 00:00:00 19150 0 0.00 0.00 0.00 0.0 0.00	50.9681813759	0.00	0.00	Partly_Cloudy(fair)	True	False	0.00
2011-01-17 01:00:00 19151 1 0.00 0.00 0.00 0.0 0.00	50.9681813759	0.00	0.00	Partly_Cloudy(fair)	True	False	0.00
2011-01-17 02:00:00 19152 2 0.00 0.00 0.00 0.0 0.00	50.9681813759	0.00	0.00	Partly_Cloudy(fair)	True	False	0.00
2011-01-17 03:00:00 19153 3 0.00 0.00 0.00 0.0 0.00	50.9681813759	0.00	0.00	Partly_Cloudy(mostly_cloudy)	True	False	0.00
2011-01-17 04:00:00 19154 4 0.00 0.00 0.00 0.0 0.00	50.9681813759	0.00	0.00	Partly_Cloudy(cloudy)	True	False	0.00
2011-01-17 05:00:00 19155 5 0.00 0.00 0.00 0.0 0.00	50.9681813759	0.00	0.00	Mostly_Clear(cloudy)	False	False	0.00
2011-01-17 06:00:00 19156 6 0.00 0.00 0.00 0.0 0.00	50.9681813759	0.00	0.00	Mostly_Clear(cloudy)	False	False	0.00
2011-01-17 07:00:00 19157 7 42.35 42.35 42.35 14.0 49.60	85.3751914242	42.35	14.00	Clear(cloudy)	True	False	14.00
2011-01-17 08:00:00 19158 8 334.50 334.50 334.50 112.4 391.80	85.3751914242	334.50	112.40	Sunny(cloudy)	True	False	112.40
2011-01-17 09:00:00 19159 9 595.07 595.07 595.07 160.3 697.00	85.3751914242	595.07	160.30	Sunny(cloudy)	True	False	160.30
2011-01-17 10:00:00 19160 10 782.43 782.43 782.43 234.9 891.50	87.7655389457	782.43	234.90	Sunny(cloudy)	True	False	234.90
2011-01-17 11:00:00 19161 11 892.40 892.40 892.40 283.9 1016.80	87.7655389457	892.40	283.90	Sunny(cloudy)	True	False	283.90
2011-01-17 12:00:00 19162 12 901.97 901.97 901.97 323.3 1027.70	87.7655389457	901.97	323.30	Sunny(cloudy)	True	False	323.30
2011-01-17 13:00:00 19163 13 808.58 808.58 808.58 195.9 921.30	87.7655389457	808.58	195.90	Sunny(cloudy)	True	False	195.90
2011-01-17 14:00:00 19164 14 667.28 667.28 667.28 111.7 760.30	87.7655389457	667.28	111.70	Sunny(cloudy)	True	False	111.70
2011-01-17 15:00:00 19165 15 266.92 266.92 266.92 40.8 447.60	59.6343548599	266.92	40.80	Partly_Cloudy(cloudy)	True	False	40.80
2011-01-17 16:00:00 19166 16 51.94 51.94 51.94 4.6 101.90	50.9681813759	51.94	4.60	Partly_Cloudy(cloudy)	True	False	4.60
2011-01-17 17:00:00 19167 17 0.51 0.51 0.51 0.0 1.00	50.9681813759	0.51	0.00	Partly_Cloudy(cloudy)	True	False	0.00
2011-01-17 18:00:00 19168 18 0.00 0.00 0.00 0.0 0.00	50.9681813759	0.00	0.00	Partly_Cloudy(cloudy)	True	False	0.00
2011-01-17 19:00:00 19169 19 0.00 0.00 0.00 0.0 0.00	50.9681813759	0.00	0.00	Partly_Cloudy(cloudy)	True	False	0.00
2011-01-17 20:00:00 19170 20 0.00 0.00 0.00 0.0 0.00	50.9681813759	0.00	0.00	Partly_Cloudy(cloudy)	True	False	0.00
2011-01-17 21:00:00 19171 21 0.00 0.00 0.00 0.0 0.00	50.9681813759	0.00	0.00	Partly_Cloudy(cloudy)	True	False	0.00
2011-01-17 22:00:00 19172 22 0.00 0.00 0.00 0.0 0.00	50.9681813759	0.00	0.00	Partly_Cloudy(cloudy)	True	False	0.00
2011-01-17 23:00:00 19173 23 0.00 0.00 0.00 0.0 0.00	50.9681813759	0.00	0.00	Partly_Cloudy(light_snow)	True	False	0.00
2011-01-18 00:00:00 19174 0 0.00 0.00 0.00 0.0 0.00	20.0578718927	0.00	0.00	Snow_Shower(light_snow)	True	False	0.00
2011-01-18 01:00:00 19175 1 0.00 0.00 0.00 0.0 0.00	20.0578718927	0.00	0.00	Snow_Shower(light_snow)	True	False	0.00
2011-01-18 02:00:00 19176 2 0.00 0.00 0.00 0.0 0.00	20.0578718927	0.00	0.00	Snow_Shower(light_snow)	True	False	0.00
2011-01-18 03:00:00 19177 3 0.00 0.00 0.00 0.0 0.00	20.0578718927	0.00	0.00	Snow(snow)	True	False	0.00
2011-01-18 04:00:00 19178 4 0.00 0.00 0.00 0.0 0.00	20.0578718927	0.00	0.00	Snow(light_freezing_rain)	True	False	0.00
2011-01-18 05:00:00 19179 5 0.00 0.00 0.00 0.0 0.00	20.0578718927	0.00	0.00	Snow(light_freezing_rain)	True	False	0.00
2011-01-18 06:00:00 19180 6 0.00 0.00 0.00 0.0 0.00	3.97676496872	0.00	0.00	Wintry_Mix(light_freezing_rain)	True	False	0.00
2011-01-18 07:00:00 19181 7 1.97 1.97 1.97 0.0 49.60	3.97676496872	1.97	0.00	Wintry_Mix(light_freezing_rain)	True	False	0.00
2011-01-18 08:00:00 19182 8 15.58 15.58 15.58 0.0 391.80	3.97676496872	15.58	0.00	Wintry_Mix(light_freezing_rain)	True	False	0.00
2011-01-18 09:00:00 19183 9 64.98 64.98 64.98 4.5 697.00	9.32286555447	64.98	4.50	Rain_/_Freezing_Rain(light_freezing_rain)	True	False	4.50
2011-01-18 10:00:00 19184 10 31.54 31.54 31.54 16.6 891.50	3.53807707484	31.54	16.60	Rain_/_Freezing_Rain(light_freezing_rain)	True	False	16.60
2011-01-18 11:00:00 19185 11 35.98 35.98 35.98 26.2 1016.80	3.53807707484	35.98	26.20	Rain_/_Freezing_Rain(light_rain)	True	False	26.20
2011-01-18 12:00:00 19186 12 36.36 36.36 36.36 49.4 1027.70	3.53807707484	36.36	49.40	Few_Showers(light_rain)	True	False	49.40
2011-01-18 13:00:00 19187 13 32.60 32.60 32.60 73.3 921.30	3.53807707484	32.60	73.30	Few_Showers(cloudy)	True	False	73.30
2011-01-18 14:00:00 19188 14 26.90 26.90 26.90 76.2 760.30	3.53807707484	26.90	76.20	Few_Showers(light_rain)	True	False	76.20
2011-01-18 15:00:00 19189 15 138.70 138.70 138.70 42.7 447.60	30.9874888293	138.70	42.70	Cloudy(light_rain)	True	False	42.70
2011-01-18 16:00:00 19190 16 31.58 31.58 31.58 9.2 101.90	30.9874888293	31.58	9.20	Cloudy(cloudy)	True	False	9.20
2011-01-18 17:00:00 19191 17 0.31 0.31 0.31 0.0 1.00	30.9874888293	0.31	0.00	Cloudy(cloudy)	True	False	0.00
2011-01-18 18:00:00 19192 18 0.00 0.00 0.00 0.0 0.00	3.97676496872	0.00	0.00	Showers(cloudy)	True	False	0.00
2011-01-18 19:00:00 19193 19 0.00 0.00 0.00 0.0 0.00	3.97676496872	0.00	0.00	Showers(cloudy)	True	False	0.00
2011-01-18 20:00:00 19194 20 0.00 0.00 0.00 0.0 0.00	3.97676496872	0.00	0.00	Showers(cloudy)	True	False	0.00
2011-01-18 21:00:00 19195 21 0.00 0.00 0.00 0.0 0.00	3.97676496872	0.00	0.00	Showers(cloudy)	True	False	0.00
2011-01-18 22:00:00 19196 22 0.00 0.00 0.00 0.0 0.00	3.97676496872	0.00	0.00	Showers(cloudy)	True	False	0.00
2011-01-18 23:00:00 19197 23 0.00 0.00 0.00 0.0 0.00	3.97676496872	0.00	0.00	Showers(cloudy)	True	False	0.00
