2011-01-03 01:00:00 3081 1 0.00 0.00 0.00 0.0 0.00	91.9352252686	0.00	0.00	Clear(fair)	True	False	0.00
2011-01-03 02:00:00 3082 2 0.00 0.00 0.00 0.0 0.00	91.9352252686	0.00	0.00	Clear(fair)	True	False	0.00
2011-01-03 03:00:00 3083 3 0.00 0.00 0.00 0.0 0.00	91.9352252686	0.00	0.00	Clear(fair)	True	False	0.00
2011-01-03 04:00:00 3084 4 0.00 0.00 0.00 0.0 0.00	91.9352252686	0.00	0.00	Clear(fair)	True	False	0.00
2011-01-03 05:00:00 3085 5 0.00 0.00 0.00 0.0 0.00	91.9352252686	0.00	0.00	Clear(fair)	True	False	0.00
2011-01-03 06:00:00 3086 6 0.00 0.00 0.00 0.0 0.00	91.9352252686	0.00	0.00	Clear(fair)	True	False	0.00
2011-01-03 07:00:00 3087 7 22.52 22.52 22.52 20.3 24.50	91.9352252686	22.52	20.30	Clear(fair)	True	False	20.30
2011-01-03 08:00:00 3088 8 280.68 280.68 280.68 287.1 305.30	91.9352252686	280.68	287.10	Sunny(fair)	True	False	287.10
2011-01-03 09:00:00 3089 9 600.61 600.61 600.61 627.3 653.30	91.9352252686	600.61	627.30	Sunny(fair)	True	False	627.30
2011-01-03 10:00:00 3090 10 819.60 819.60 819.60 818.1 891.50	91.9352252686	819.60	818.10	Sunny(fair)	True	False	818.10
2011-01-03 11:00:00 3091 11 884.78 884.78 884.78 919.3 962.40	91.9352252686	884.78	919.30	Sunny(fair)	True	False	919.30
2011-01-03 12:00:00 3092 12 917.79 917.79 917.79 915.9 998.30	91.9352252686	917.79	915.90	Sunny(fair)	True	False	915.90
2011-01-03 13:00:00 3093 13 761.87 761.87 761.87 783.1 828.70	91.9352252686	761.87	783.10	Sunny(fair)	True	False	783.10
2011-01-03 14:00:00 3094 14 573.40 573.40 573.40 571.7 623.70	91.9352252686	573.40	571.70	Sunny(fair)	True	False	571.70
2011-01-03 15:00:00 3095 15 288.22 288.22 288.22 236.0 313.50	91.9352252686	288.22	236.00	Sunny(fair)	True	False	236.00
2011-01-03 16:00:00 3096 16 39.72 39.72 39.72 14.9 43.20	91.9352252686	39.72	14.90	Sunny(fair)	True	False	14.90
2011-01-03 17:00:00 3097 17 0.00 0.00 0.00 0.0 0.00	91.9352252686	0.00	0.00	Clear(fair)	True	False	0.00
2011-01-03 18:00:00 3098 18 0.00 0.00 0.00 0.0 0.00	91.9352252686	0.00	0.00	Clear(fair)	True	False	0.00
2011-01-03 19:00:00 3099 19 0.00 0.00 0.00 0.0 0.00	91.9352252686	0.00	0.00	Clear(fair)	True	False	0.00
2011-01-03 20:00:00 3100 20 0.00 0.00 0.00 0.0 0.00	91.9352252686	0.00	0.00	Clear(fair)	True	False	0.00
2011-01-03 21:00:00 3101 21 0.00 0.00 0.00 0.0 0.00	91.9352252686	0.00	0.00	Clear(fair)	True	False	0.00
2011-01-03 22:00:00 3102 22 0.00 0.00 0.00 0.0 0.00	91.9352252686	0.00	0.00	Clear(fair)	True	False	0.00
2011-01-03 23:00:00 3103 23 0.00 0.00 0.00 0.0 0.00	91.9352252686	0.00	0.00	Clear(fair)	True	False	0.00
2011-01-04 00:00:00 3104 0 0.00 0.00 0.00 0.0 0.00	70.8133971292	0.00	0.00	Partly_Cloudy(fair)	True	False	0.00
2011-01-04 01:00:00 3105 1 0.00 0.00 0.00 0.0 0.00	70.8133971292	0.00	0.00	Partly_Cloudy(fair)	True	False	0.00
2011-01-04 02:00:00 3106 2 0.00 0.00 0.00 0.0 0.00	70.8133971292	0.00	0.00	Partly_Cloudy(fair)	True	False	0.00
2011-01-04 03:00:00 3107 3 0.00 0.00 0.00 0.0 0.00	49.5642592407	0.00	0.00	Mostly_Cloudy(fair)	True	False	0.00
2011-01-04 04:00:00 3108 4 0.00 0.00 0.00 0.0 0.00	49.5642592407	0.00	0.00	Mostly_Cloudy(fair)	True	False	0.00
2011-01-04 05:00:00 3109 5 0.00 0.00 0.00 0.0 0.00	49.5642592407	0.00	0.00	Mostly_Cloudy(fair)	True	False	0.00
2011-01-04 06:00:00 3110 6 0.00 0.00 0.00 0.0 0.00	49.5642592407	0.00	0.00	Mostly_Cloudy(fair)	True	False	0.00
2011-01-04 07:00:00 3111 7 12.14 12.14 12.14 0.6 24.50	49.5642592407	12.14	0.60	Mostly_Cloudy(fair)	True	False	0.60
2011-01-04 08:00:00 3112 8 151.32 151.32 151.32 61.7 305.30	49.5642592407	151.32	61.70	Mostly_Cloudy(fair)	True	False	61.70
2011-01-04 09:00:00 3113 9 272.70 272.70 272.70 140.1 653.30	41.7419256084	272.70	140.10	Cloudy(fair)	True	False	140.10
2011-01-04 10:00:00 3114 10 376.09 376.09 376.09 215.4 891.50	42.1862011638	376.09	215.40	Cloudy(fair)	True	False	215.40
2011-01-04 11:00:00 3115 11 406.00 406.00 406.00 577.2 962.40	42.1862011638	406.00	577.20	Cloudy(fair)	True	False	577.20
2011-01-04 12:00:00 3116 12 526.50 526.50 526.50 878.6 998.30	52.7396574176	526.50	878.60	Mostly_Cloudy(cloudy)	True	False	878.60
2011-01-04 13:00:00 3117 13 437.05 437.05 437.05 689.8 828.70	52.7396574176	437.05	689.80	Mostly_Cloudy(fair)	True	False	689.80
2011-01-04 14:00:00 3118 14 328.94 328.94 328.94 325.4 623.70	52.7396574176	328.94	325.40	Mostly_Cloudy(partly_cloudy)	True	False	325.40
2011-01-04 15:00:00 3119 15 165.34 165.34 165.34 118.4 313.50	52.7396574176	165.34	118.40	Mostly_Cloudy(fair)	True	False	118.40
2011-01-04 16:00:00 3120 16 21.41 21.41 21.41 15.7 43.20	49.5642592407	21.41	15.70	Mostly_Cloudy(fair)	True	False	15.70
2011-01-04 17:00:00 3121 17 0.00 0.00 0.00 0.0 0.00	49.5642592407	0.00	0.00	Mostly_Cloudy(fair)	True	False	0.00
2011-01-04 18:00:00 3122 18 0.00 0.00 0.00 0.0 0.00	70.8133971292	0.00	0.00	Partly_Cloudy(fair)	True	False	0.00
2011-01-04 19:00:00 3123 19 0.00 0.00 0.00 0.0 0.00	70.8133971292	0.00	0.00	Partly_Cloudy(fair)	True	False	0.00
2011-01-04 20:00:00 3124 20 0.00 0.00 0.00 0.0 0.00	70.8133971292	0.00	0.00	Partly_Cloudy(fair)	True	False	0.00
2011-01-04 21:00:00 3125 21 0.00 0.00 0.00 0.0 0.00	70.8133971292	0.00	0.00	Partly_Cloudy(mostly_cloudy)	True	False	0.00
2011-01-04 22:00:00 3126 22 0.00 0.00 0.00 0.0 0.00	70.8133971292	0.00	0.00	Partly_Cloudy(mostly_cloudy)	True	False	0.00
2011-01-04 23:00:00 3127 23 0.00 0.00 0.00 0.0 0.00	70.8133971292	0.00	0.00	Partly_Cloudy(partly_cloudy)	True	False	0.00
2011-01-05 00:00:00 3128 0 0.00 0.00 0.00 0.0 0.00	70.8133971292	0.00	0.00	Partly_Cloudy(fair)	True	False	0.00
2011-01-05 01:00:00 3129 1 0.00 0.00 0.00 0.0 0.00	70.8133971292	0.00	0.00	Partly_Cloudy(fair)	True	False	0.00
