2011-01-26 12:00:00 30144 12 913.40 913.40 0.00 5.4 1060.00	0.0	0.00	5.40	Snow(Unkown)	True	False	5.40
2011-01-26 13:00:00 30145 13 4.92 4.92 32.60 8.0 966.60	3.37304075235	32.60	8.00	Light_Wintry_Mix(Unkown)	True	False	8.00
2011-01-26 14:00:00 30146 14 26.90 4.06 26.90 5.3 797.50	3.37304075235	26.90	5.30	Light_Rain/Sleet(light_snow)	True	False	5.30
2011-01-26 15:00:00 30147 15 128.57 2.62 128.57 0.2 514.80	24.9741361473	128.57	0.20	Cloudy(light_snow)	True	False	0.20
2011-01-26 16:00:00 30148 16 31.50 0.78 31.50 0.0 153.70	20.4952380952	31.50	0.00	Cloudy(light_snow)	True	False	0.00
2011-01-26 17:00:00 30149 17 0.00 0.02 0.00 0.0 3.10	0.0	0.00	0.00	Snow(cloudy)	True	False	0.00
2011-01-26 18:00:00 30150 18 0.00 0.00 0.00 0.0 0.00	0.0	0.00	0.00	Snow(wintry_mix)	True	False	0.00
2011-01-26 19:00:00 30151 19 0.00 0.00 0.00 0.0 0.00	0.0	0.00	0.00	Snow(light_snow)	True	False	0.00
2011-01-26 20:00:00 30152 20 0.00 0.00 0.00 0.0 0.00	0.0	0.00	0.00	Snow(snow)	True	False	0.00
2011-01-26 21:00:00 30153 21 0.00 0.00 0.00 0.0 0.00	0.0	0.00	0.00	Heavy_Snow(heavy_snow)	True	False	0.00
2011-01-26 22:00:00 30154 22 0.00 0.00 0.00 0.0 0.00	0.0	0.00	0.00	Heavy_Snow(snow)	True	False	0.00
2011-01-26 23:00:00 30155 23 0.00 0.00 0.00 0.0 0.00	0.0	0.00	0.00	Heavy_Snow(snow)	True	False	0.00
2011-01-27 00:00:00 30156 0 0.00 0.00 0.00 0.0 0.00	0.0	0.00	0.00	Snow(light_snow)	True	False	0.00
2011-01-27 01:00:00 30157 1 0.00 0.00 0.00 0.0 0.00	0.0	0.00	0.00	Snow(light_snow)	True	False	0.00
2011-01-27 02:00:00 30158 2 0.00 0.00 0.00 0.0 0.00	0.0	0.00	0.00	Snow(light_snow)	True	False	0.00
2011-01-27 03:00:00 30159 3 0.00 0.00 0.00 0.0 0.00	0.0	0.00	0.00	Snow_Shower(mostly_cloudy)	True	False	0.00
2011-01-27 04:00:00 30160 4 0.00 0.00 0.00 0.0 0.00	0.0	0.00	0.00	Snow_Shower(cloudy)	True	False	0.00
2011-01-27 05:00:00 30161 5 0.00 0.00 0.00 0.0 0.00	0.0	0.00	0.00	Snow_Shower(cloudy)	True	False	0.00
2011-01-27 06:00:00 30162 6 0.00 0.00 0.00 0.0 0.00	28.547561867	0.00	0.00	Mostly_Cloudy(cloudy)	True	False	0.00
2011-01-27 07:00:00 30163 7 26.86 26.86 26.86 0.0 94.10	28.547561867	26.86	0.00	Mostly_Cloudy(cloudy)	True	False	0.00
2011-01-27 08:00:00 30164 8 125.44 125.44 125.44 0.0 439.40	28.547561867	125.44	0.00	Mostly_Cloudy(cloudy)	True	False	0.00
2011-01-27 09:00:00 30165 9 617.20 617.20 617.20 0.0 750.60	82.2275512923	617.20	0.00	Sunny(cloudy)	True	False	0.00
2011-01-27 10:00:00 30166 10 825.25 825.25 825.25 1.1 957.70	86.1698113208	825.25	1.10	Sunny(cloudy)	True	False	1.10
2011-01-27 11:00:00 30167 11 904.78 904.78 904.78 89.4 1050.00	86.1698113208	904.78	89.40	Sunny(cloudy)	True	False	89.40
2011-01-27 12:00:00 30168 12 913.40 913.40 913.40 171.1 1060.00	86.1698113208	913.40	171.10	Sunny(cloudy)	True	False	171.10
2011-01-27 13:00:00 30169 13 832.92 832.92 832.92 277.7 966.60	86.1698113208	832.92	277.70	Sunny(partly_cloudy)	True	False	277.70
2011-01-27 14:00:00 30170 14 687.20 687.20 687.20 194.7 797.50	86.1698113208	687.20	194.70	Sunny(fair)	True	False	194.70
2011-01-27 15:00:00 30171 15 443.60 443.60 443.60 101.9 514.80	86.1698113208	443.60	101.90	Mostly_Sunny(mostly_cloudy)	False	False	101.90
2011-01-27 16:00:00 30172 16 132.44 132.44 132.44 8.6 153.70	86.1698113208	132.44	8.60	Mostly_Sunny(cloudy)	False	False	8.60
2011-01-27 17:00:00 30173 17 2.67 2.67 2.67 0.0 3.10	86.1698113208	2.67	0.00	Mostly_Sunny(cloudy)	False	False	0.00
2011-01-27 18:00:00 30174 18 0.00 0.00 0.00 0.0 0.00	86.1698113208	0.00	0.00	Mostly_Clear(cloudy)	False	False	0.00
2011-01-27 19:00:00 30175 19 0.00 0.00 0.00 0.0 0.00	86.1698113208	0.00	0.00	Mostly_Clear(cloudy)	False	False	0.00
2011-01-27 20:00:00 30176 20 0.00 0.00 0.00 0.0 0.00	86.1698113208	0.00	0.00	Mostly_Clear(cloudy)	False	False	0.00
2011-01-27 21:00:00 30177 21 0.00 0.00 0.00 0.0 0.00	43.1359791802	0.00	0.00	Partly_Cloudy(cloudy)	True	False	0.00
2011-01-27 22:00:00 30178 22 0.00 0.00 0.00 0.0 0.00	43.1359791802	0.00	0.00	Partly_Cloudy(fair)	True	False	0.00
2011-01-27 23:00:00 30179 23 0.00 0.00 0.00 0.0 0.00	43.1359791802	0.00	0.00	Partly_Cloudy(fair)	True	False	0.00
2011-01-28 00:00:00 30180 0 0.00 0.00 0.00 0.0 0.00	28.547561867	0.00	0.00	Mostly_Cloudy(fair)	True	False	0.00
2011-01-28 01:00:00 30181 1 0.00 0.00 0.00 0.0 0.00	28.547561867	0.00	0.00	Mostly_Cloudy(fair)	True	False	0.00
2011-01-28 02:00:00 30182 2 0.00 0.00 0.00 0.0 0.00	28.547561867	0.00	0.00	Mostly_Cloudy(fair)	True	False	0.00
2011-01-28 03:00:00 30183 3 0.00 0.00 0.00 0.0 0.00	20.4952380952	0.00	0.00	Cloudy(partly_cloudy)	True	False	0.00
2011-01-28 04:00:00 30184 4 0.00 0.00 0.00 0.0 0.00	20.4952380952	0.00	0.00	Cloudy(fair)	True	False	0.00
2011-01-28 05:00:00 30185 5 0.00 0.00 0.00 0.0 0.00	20.4952380952	0.00	0.00	Cloudy(cloudy)	True	False	0.00
2011-01-28 06:00:00 30186 6 0.00 0.00 0.00 0.0 0.00	1.41220357048	0.00	0.00	Few_Snow_Showers(cloudy)	True	False	0.00
2011-01-28 07:00:00 30187 7 1.33 1.33 1.33 3.8 94.10	1.41220357048	1.33	3.80	Few_Snow_Showers(cloudy)	True	False	3.80
2011-01-28 08:00:00 30188 8 6.21 6.21 6.21 36.3 439.40	1.41220357048	6.21	36.30	Few_Snow_Showers(cloudy)	True	False	36.30
2011-01-28 09:00:00 30189 9 214.28 214.28 214.28 74.4 750.60	28.547561867	214.28	74.40	Mostly_Cloudy(cloudy)	True	False	74.40
2011-01-28 10:00:00 30190 10 315.41 315.41 315.41 186.7 957.70	32.9339622642	315.41	186.70	Mostly_Cloudy(light_snow)	True	False	186.70
