2011-01-04 04:00:00 4371 4 0.00 0.00 0.00 0.0 0.00	71.0648148148	0.00	0.00	Partly_Cloudy(fair)	True	False	0.00
2011-01-04 05:00:00 4372 5 0.00 0.00 0.00 0.0 0.00	71.0648148148	0.00	0.00	Partly_Cloudy(fair)	True	False	0.00
2011-01-04 06:00:00 4373 6 0.00 0.00 0.00 0.0 0.00	71.0648148148	0.00	0.00	Partly_Cloudy(fair)	True	False	0.00
2011-01-04 07:00:00 4374 7 12.14 12.14 12.14 0.6 24.50	49.5642592407	12.14	0.60	Mostly_Cloudy(fair)	True	False	0.60
2011-01-04 08:00:00 4375 8 151.32 151.32 151.32 61.7 305.30	49.5642592407	151.32	61.70	Mostly_Cloudy(fair)	True	False	61.70
2011-01-04 09:00:00 4376 9 323.80 323.80 323.80 140.1 653.30	49.5642592407	323.80	140.10	Mostly_Cloudy(fair)	True	False	140.10
2011-01-04 10:00:00 4377 10 470.17 470.17 470.17 215.4 891.50	52.7396574176	470.17	215.40	Mostly_Cloudy(fair)	True	False	215.40
2011-01-04 11:00:00 4378 11 507.57 507.57 507.57 577.2 962.40	52.7396574176	507.57	577.20	Mostly_Cloudy(fair)	True	False	577.20
2011-01-04 12:00:00 4379 12 526.50 526.50 526.50 878.6 998.30	52.7396574176	526.50	878.60	Mostly_Cloudy(cloudy)	True	False	878.60
2011-01-04 13:00:00 4380 13 437.05 437.05 437.05 689.8 828.70	52.7396574176	437.05	689.80	Mostly_Cloudy(fair)	True	False	689.80
2011-01-04 14:00:00 4381 14 328.94 328.94 328.94 325.4 623.70	52.7396574176	328.94	325.40	Mostly_Cloudy(partly_cloudy)	True	False	325.40
2011-01-04 15:00:00 4382 15 170.40 170.40 170.40 118.4 323.10	52.7396574176	170.40	118.40	Mostly_Cloudy(fair)	True	False	118.40
2011-01-04 16:00:00 4383 16 21.41 21.41 21.41 15.7 43.20	49.5642592407	21.41	15.70	Mostly_Cloudy(fair)	True	False	15.70
2011-01-04 17:00:00 4384 17 0.00 0.00 0.00 0.0 0.00	49.5642592407	0.00	0.00	Mostly_Cloudy(fair)	True	False	0.00
2011-01-04 18:00:00 4385 18 0.00 0.00 0.00 0.0 0.00	71.0648148148	0.00	0.00	Partly_Cloudy(fair)	True	False	0.00
2011-01-04 19:00:00 4386 19 0.00 0.00 0.00 0.0 0.00	71.0648148148	0.00	0.00	Partly_Cloudy(fair)	True	False	0.00
2011-01-04 20:00:00 4387 20 0.00 0.00 0.00 0.0 0.00	71.0648148148	0.00	0.00	Partly_Cloudy(fair)	True	False	0.00
2011-01-04 21:00:00 4388 21 0.00 0.00 0.00 0.0 0.00	71.0648148148	0.00	0.00	Partly_Cloudy(mostly_cloudy)	True	False	0.00
2011-01-04 22:00:00 4389 22 0.00 0.00 0.00 0.0 0.00	71.0648148148	0.00	0.00	Partly_Cloudy(mostly_cloudy)	True	False	0.00
2011-01-04 23:00:00 4390 23 0.00 0.00 0.00 0.0 0.00	71.0648148148	0.00	0.00	Partly_Cloudy(partly_cloudy)	True	False	0.00
2011-01-05 00:00:00 4391 0 0.00 0.00 0.00 0.0 0.00	71.0648148148	0.00	0.00	Mostly_Clear(fair)	False	False	0.00
2011-01-05 01:00:00 4392 1 0.00 0.00 0.00 0.0 0.00	71.0648148148	0.00	0.00	Mostly_Clear(fair)	False	False	0.00
2011-01-05 02:00:00 4393 2 0.00 0.00 0.00 0.0 0.00	71.0648148148	0.00	0.00	Mostly_Clear(fair)	False	False	0.00
2011-01-05 03:00:00 4394 3 0.00 0.00 0.00 0.0 0.00	71.0648148148	0.00	0.00	Mostly_Clear(cloudy)	False	False	0.00
2011-01-05 04:00:00 4395 4 0.00 0.00 0.00 0.0 0.00	71.0648148148	0.00	0.00	Mostly_Clear(fair)	False	False	0.00
2011-01-05 05:00:00 4396 5 0.00 0.00 0.00 0.0 0.00	71.0648148148	0.00	0.00	Mostly_Clear(fair)	False	False	0.00
2011-01-05 06:00:00 4397 6 0.00 0.00 0.00 0.0 0.00	92.7265170407	0.00	0.00	Clear(partly_cloudy)	True	False	0.00
2011-01-05 07:00:00 4398 7 22.72 22.72 22.72 20.0 24.50	92.7265170407	22.72	20.00	Clear(fair)	True	False	20.00
2011-01-05 08:00:00 4399 8 283.09 283.09 283.09 277.6 305.30	92.7265170407	283.09	277.60	Sunny(fair)	True	False	277.60
2011-01-05 09:00:00 4400 9 605.78 605.78 605.78 618.2 653.30	92.7265170407	605.78	618.20	Sunny(fair)	True	False	618.20
2011-01-05 10:00:00 4401 10 826.66 826.66 826.66 804.8 891.50	92.7265170407	826.66	804.80	Sunny(fair)	True	False	804.80
2011-01-05 11:00:00 4402 11 892.40 892.40 892.40 753.4 962.40	92.7265170407	892.40	753.40	Sunny(fair)	True	False	753.40
2011-01-05 12:00:00 4403 12 925.69 925.69 925.69 857.7 998.30	92.7265170407	925.69	857.70	Sunny(fair)	True	False	857.70
2011-01-05 13:00:00 4404 13 768.42 768.42 768.42 649.9 828.70	92.7265170407	768.42	649.90	Sunny(fair)	True	False	649.90
2011-01-05 14:00:00 4405 14 578.34 578.34 578.34 308.4 623.70	92.7265170407	578.34	308.40	Sunny(partly_cloudy)	True	False	308.40
2011-01-05 15:00:00 4406 15 299.60 299.60 299.60 236.3 323.10	92.7265170407	299.60	236.30	Mostly_Sunny(mostly_cloudy)	False	False	236.30
2011-01-05 16:00:00 4407 16 40.06 40.06 40.06 20.1 43.20	92.7265170407	40.06	20.10	Mostly_Sunny(fair)	False	False	20.10
2011-01-05 17:00:00 4408 17 0.00 0.00 0.00 0.0 0.00	92.7265170407	0.00	0.00	Mostly_Clear(fair)	False	False	0.00
2011-01-05 18:00:00 4409 18 0.00 0.00 0.00 0.0 0.00	92.7265170407	0.00	0.00	Mostly_Clear(mostly_cloudy)	False	False	0.00
2011-01-05 19:00:00 4410 19 0.00 0.00 0.00 0.0 0.00	92.7265170407	0.00	0.00	Mostly_Clear(mostly_cloudy)	False	False	0.00
2011-01-05 20:00:00 4411 20 0.00 0.00 0.00 0.0 0.00	92.7265170407	0.00	0.00	Mostly_Clear(fair)	False	False	0.00
2011-01-05 21:00:00 4412 21 0.00 0.00 0.00 0.0 0.00	71.0648148148	0.00	0.00	Partly_Cloudy(fair)	True	False	0.00
2011-01-05 22:00:00 4413 22 0.00 0.00 0.00 0.0 0.00	71.0648148148	0.00	0.00	Partly_Cloudy(fair)	True	False	0.00
2011-01-05 23:00:00 4414 23 0.00 0.00 0.00 0.0 0.00	71.0648148148	0.00	0.00	Partly_Cloudy(fair)	True	False	0.00
2011-01-06 00:00:00 4415 0 0.00 0.00 0.00 0.0 0.00	49.5642592407	0.00	0.00	Mostly_Cloudy(fair)	True	False	0.00
2011-01-06 01:00:00 4416 1 0.00 0.00 0.00 0.0 0.00	49.5642592407	0.00	0.00	Mostly_Cloudy(fair)	True	False	0.00
2011-01-06 02:00:00 4417 2 0.00 0.00 0.00 0.0 0.00	49.5642592407	0.00	0.00	Mostly_Cloudy(fair)	True	False	0.00
2011-01-06 03:00:00 4418 3 0.00 0.00 0.00 0.0 0.00	49.5642592407	0.00	0.00	Mostly_Cloudy(fair)	True	False	0.00
2011-01-06 04:00:00 4419 4 0.00 0.00 0.00 0.0 0.00	49.5642592407	0.00	0.00	Mostly_Cloudy(fair)	True	False	0.00
