2011-01-05 10:00:00 5762 10 826.66 826.66 826.66 804.8 891.50	92.7265170407	826.66	804.80	Mostly_Sunny(fair)	False	False	804.80
2011-01-05 11:00:00 5763 11 868.80 868.80 868.80 753.4 962.40	92.7265170407	868.80	753.40	Mostly_Sunny(fair)	False	False	753.40
2011-01-05 12:00:00 5764 12 925.69 925.69 925.69 857.7 998.30	92.7265170407	925.69	857.70	Sunny(fair)	True	False	857.70
2011-01-05 13:00:00 5765 13 768.42 768.42 768.42 649.9 828.70	92.7265170407	768.42	649.90	Sunny(fair)	True	False	649.90
2011-01-05 14:00:00 5766 14 578.34 578.34 578.34 308.4 623.70	92.7265170407	578.34	308.40	Sunny(partly_cloudy)	True	False	308.40
2011-01-05 15:00:00 5767 15 299.60 299.60 299.60 236.3 323.10	92.7265170407	299.60	236.30	Mostly_Sunny(mostly_cloudy)	False	False	236.30
2011-01-05 16:00:00 5768 16 29.80 29.80 29.80 20.1 43.20	68.9795918367	29.80	20.10	Partly_Cloudy(fair)	True	False	20.10
2011-01-05 17:00:00 5769 17 0.00 0.00 0.00 0.0 0.00	68.9795918367	0.00	0.00	Mostly_Clear(fair)	False	False	0.00
2011-01-05 18:00:00 5770 18 0.00 0.00 0.00 0.0 0.00	92.7265170407	0.00	0.00	Clear(mostly_cloudy)	True	False	0.00
2011-01-05 19:00:00 5771 19 0.00 0.00 0.00 0.0 0.00	92.7265170407	0.00	0.00	Clear(mostly_cloudy)	True	False	0.00
2011-01-05 20:00:00 5772 20 0.00 0.00 0.00 0.0 0.00	92.7265170407	0.00	0.00	Clear(fair)	True	False	0.00
2011-01-05 21:00:00 5773 21 0.00 0.00 0.00 0.0 0.00	68.9795918367	0.00	0.00	Partly_Cloudy(fair)	True	False	0.00
2011-01-05 22:00:00 5774 22 0.00 0.00 0.00 0.0 0.00	68.9795918367	0.00	0.00	Partly_Cloudy(fair)	True	False	0.00
2011-01-05 23:00:00 5775 23 0.00 0.00 0.00 0.0 0.00	68.9795918367	0.00	0.00	Partly_Cloudy(fair)	True	False	0.00
2011-01-06 00:00:00 5776 0 0.00 0.00 0.00 0.0 0.00	68.9795918367	0.00	0.00	Partly_Cloudy(fair)	True	False	0.00
2011-01-06 01:00:00 5777 1 0.00 0.00 0.00 0.0 0.00	68.9795918367	0.00	0.00	Partly_Cloudy(fair)	True	False	0.00
2011-01-06 02:00:00 5778 2 0.00 0.00 0.00 0.0 0.00	68.9795918367	0.00	0.00	Partly_Cloudy(fair)	True	False	0.00
2011-01-06 03:00:00 5779 3 0.00 0.00 0.00 0.0 0.00	49.5642592407	0.00	0.00	Mostly_Cloudy(fair)	True	False	0.00
2011-01-06 04:00:00 5780 4 0.00 0.00 0.00 0.0 0.00	49.5642592407	0.00	0.00	Mostly_Cloudy(fair)	True	False	0.00
2011-01-06 05:00:00 5781 5 0.00 0.00 0.00 0.0 0.00	49.5642592407	0.00	0.00	Mostly_Cloudy(fair)	True	False	0.00
2011-01-06 06:00:00 5782 6 0.00 0.00 0.00 0.0 0.00	49.5642592407	0.00	0.00	Mostly_Cloudy(fair)	True	False	0.00
2011-01-06 07:00:00 5783 7 12.14 12.14 12.14 18.7 24.50	49.5642592407	12.14	18.70	Mostly_Cloudy(fair)	True	False	18.70
2011-01-06 08:00:00 5784 8 151.32 151.32 151.32 131.6 305.30	49.5642592407	151.32	131.60	Mostly_Cloudy(partly_cloudy)	True	False	131.60
2011-01-06 09:00:00 5785 9 271.55 271.55 271.55 299.3 653.30	41.5656731084	271.55	299.30	Cloudy(cloudy)	True	False	299.30
2011-01-06 10:00:00 5786 10 345.90 345.90 345.90 638.4 891.50	38.799775659	345.90	638.40	Cloudy(mostly_cloudy)	True	False	638.40
2011-01-06 11:00:00 5787 11 373.41 373.41 373.41 381.2 962.40	38.799775659	373.41	381.20	Cloudy(cloudy)	True	False	381.20
2011-01-06 12:00:00 5788 12 387.34 387.34 387.34 587.4 998.30	38.799775659	387.34	587.40	Cloudy(fair)	True	False	587.40
2011-01-06 13:00:00 5789 13 321.53 321.53 321.53 654.8 828.70	38.799775659	321.53	654.80	Cloudy(mostly_cloudy)	True	False	654.80
2011-01-06 14:00:00 5790 14 241.99 241.99 241.99 524.9 623.70	38.799775659	241.99	524.90	Cloudy(fair)	True	False	524.90
2011-01-06 15:00:00 5791 15 125.36 125.36 125.36 219.1 323.10	38.799775659	125.36	219.10	Cloudy(fair)	True	False	219.10
2011-01-06 16:00:00 5792 16 17.96 17.96 17.96 21.2 43.20	41.5656731084	17.96	21.20	Cloudy(fair)	True	False	21.20
2011-01-06 17:00:00 5793 17 0.00 0.00 0.00 0.0 0.00	41.5656731084	0.00	0.00	Cloudy(fair)	True	False	0.00
2011-01-06 18:00:00 5794 18 0.00 0.00 0.00 0.0 0.00	49.5642592407	0.00	0.00	Mostly_Cloudy(fair)	True	False	0.00
2011-01-06 19:00:00 5795 19 0.00 0.00 0.00 0.0 0.00	49.5642592407	0.00	0.00	Mostly_Cloudy(cloudy)	True	False	0.00
2011-01-06 20:00:00 5796 20 0.00 0.00 0.00 0.0 0.00	49.5642592407	0.00	0.00	Mostly_Cloudy(cloudy)	True	False	0.00
2011-01-06 21:00:00 5797 21 0.00 0.00 0.00 0.0 0.00	49.5642592407	0.00	0.00	Mostly_Cloudy(cloudy)	True	False	0.00
2011-01-06 22:00:00 5798 22 0.00 0.00 0.00 0.0 0.00	49.5642592407	0.00	0.00	Mostly_Cloudy(cloudy)	True	False	0.00
2011-01-06 23:00:00 5799 23 0.00 0.00 0.00 0.0 0.00	49.5642592407	0.00	0.00	Mostly_Cloudy(cloudy)	True	False	0.00
2011-01-07 00:00:00 5800 0 0.00 0.00 0.00 0.0 0.00	49.5642592407	0.00	0.00	Flurries(cloudy)	False	False	0.00
2011-01-07 01:00:00 5801 1 0.00 0.00 0.00 0.0 0.00	49.5642592407	0.00	0.00	Flurries(cloudy)	False	False	0.00
2011-01-07 02:00:00 5802 2 0.00 0.00 0.00 0.0 0.00	49.5642592407	0.00	0.00	Flurries(cloudy)	False	False	0.00
2011-01-07 03:00:00 5803 3 0.00 0.00 0.00 0.0 0.00	29.9263907325	0.00	0.00	Few_Snow_Showers(cloudy)	True	False	0.00
2011-01-07 04:00:00 5804 4 0.00 0.00 0.00 0.0 0.00	29.9263907325	0.00	0.00	Few_Snow_Showers(cloudy)	True	False	0.00
2011-01-07 05:00:00 5805 5 0.00 0.00 0.00 0.0 0.00	29.9263907325	0.00	0.00	Few_Snow_Showers(cloudy)	True	False	0.00
2011-01-07 06:00:00 5806 6 0.00 0.00 0.00 0.0 0.00	24.4508577842	0.00	0.00	Snow_Shower(light_snow)	True	False	0.00
2011-01-07 07:00:00 5807 7 5.99 5.99 5.99 0.0 24.50	24.4508577842	5.99	0.00	Snow_Shower(light_snow)	True	False	0.00
2011-01-07 08:00:00 5808 8 74.65 74.65 74.65 0.1 305.30	24.4508577842	74.65	0.10	Snow_Shower(light_snow)	True	False	0.10
2011-01-07 09:00:00 5809 9 159.74 159.74 159.74 6.0 653.30	24.4508577842	159.74	6.00	Snow_Shower(light_snow)	True	False	6.00
2011-01-07 10:00:00 5810 10 217.98 217.98 217.98 19.9 891.50	24.4508577842	217.98	19.90	Snow_Shower(snow)	True	False	19.90
