2011-01-11 21:00:00 13190 21 0.00 0.00 0.00 0.0 0.00	22.7103499628	0.00	0.00	Snow(light_snow)	True	False	0.00
2011-01-11 22:00:00 13191 22 0.00 0.00 0.00 0.0 0.00	22.7103499628	0.00	0.00	Snow(light_snow)	True	False	0.00
2011-01-11 23:00:00 13192 23 0.00 0.00 0.00 0.0 0.00	22.7103499628	0.00	0.00	Snow(snow)	True	False	0.00
2011-01-12 00:00:00 13193 0 0.00 0.00 0.00 0.0 0.00	22.7103499628	0.00	0.00	Snow(light_snow)	True	False	0.00
2011-01-12 01:00:00 13194 1 0.00 0.00 0.00 0.0 0.00	22.7103499628	0.00	0.00	Snow(light_snow)	True	False	0.00
2011-01-12 02:00:00 13195 2 0.00 0.00 0.00 0.0 0.00	22.7103499628	0.00	0.00	Snow(light_snow)	True	False	0.00
2011-01-12 03:00:00 13196 3 0.00 0.00 0.00 0.0 0.00	22.7103499628	0.00	0.00	Snow(snow)	True	False	0.00
2011-01-12 04:00:00 13197 4 0.00 0.00 0.00 0.0 0.00	22.7103499628	0.00	0.00	Snow(light_snow)	True	False	0.00
2011-01-12 05:00:00 13198 5 0.00 0.00 0.00 0.0 0.00	22.7103499628	0.00	0.00	Snow(mostly_cloudy)	True	False	0.00
2011-01-12 06:00:00 13199 6 0.00 0.00 0.00 0.0 0.00	28.7037037037	0.00	0.00	Light_Snow(cloudy)	True	False	0.00
2011-01-12 07:00:00 13200 7 11.14 11.14 11.14 0.0 38.80	28.7037037037	11.14	0.00	Light_Snow(fair)	True	False	0.00
2011-01-12 08:00:00 13201 8 100.43 100.43 100.43 0.0 349.90	28.7037037037	100.43	0.00	Light_Snow(fair)	True	False	0.00
2011-01-12 09:00:00 13202 9 151.75 151.75 151.75 0.5 668.20	22.7103499628	151.75	0.50	Snow_Shower(fair)	True	False	0.50
2011-01-12 10:00:00 13203 10 202.46 202.46 202.46 5.3 891.50	22.7103499628	202.46	5.30	Snow_Shower(haze)	True	False	5.30
2011-01-12 11:00:00 13204 11 219.29 219.29 219.29 8.0 965.60	22.7103499628	219.29	8.00	Snow_Shower(light_snow)	True	False	8.00
2011-01-12 12:00:00 13205 12 286.55 286.55 286.55 15.7 998.30	28.7037037037	286.55	15.70	Few_Snow_Showers(cloudy)	True	False	15.70
2011-01-12 13:00:00 13206 13 248.00 248.00 248.00 14.9 864.00	28.7037037037	248.00	14.90	Few_Snow_Showers(light_snow)	True	False	14.90
2011-01-12 14:00:00 13207 14 192.75 192.75 192.75 11.4 671.50	28.7037037037	192.75	11.40	Few_Snow_Showers(light_snow)	True	False	11.40
2011-01-12 15:00:00 13208 15 101.64 101.64 101.64 11.8 354.10	28.7037037037	101.64	11.80	Few_Snow_Showers(light_snow)	True	False	11.80
2011-01-12 16:00:00 13209 16 15.93 15.93 15.93 0.0 55.50	28.7037037037	15.93	0.00	Few_Snow_Showers(cloudy)	True	False	0.00
2011-01-12 17:00:00 13210 17 0.00 0.00 0.00 0.0 0.00	28.7037037037	0.00	0.00	Few_Snow_Showers(light_snow)	True	False	0.00
2011-01-12 18:00:00 13211 18 0.00 0.00 0.00 0.0 0.00	28.7037037037	0.00	0.00	Few_Snow_Showers(cloudy)	True	False	0.00
2011-01-12 19:00:00 13212 19 0.00 0.00 0.00 0.0 0.00	28.7037037037	0.00	0.00	Few_Snow_Showers(cloudy)	True	False	0.00
2011-01-12 20:00:00 13213 20 0.00 0.00 0.00 0.0 0.00	28.7037037037	0.00	0.00	Few_Snow_Showers(cloudy)	True	False	0.00
2011-01-12 21:00:00 13214 21 0.00 0.00 0.00 0.0 0.00	28.7037037037	0.00	0.00	Few_Snow_Showers(mostly_cloudy)	True	False	0.00
2011-01-12 22:00:00 13215 22 0.00 0.00 0.00 0.0 0.00	28.7037037037	0.00	0.00	Few_Snow_Showers(mostly_cloudy)	True	False	0.00
2011-01-12 23:00:00 13216 23 0.00 0.00 0.00 0.0 0.00	28.7037037037	0.00	0.00	Few_Snow_Showers(mostly_cloudy)	True	False	0.00
2011-01-13 00:00:00 13217 0 0.00 0.00 0.00 0.0 0.00	33.5051546392	0.00	0.00	Cloudy(fair)	True	False	0.00
2011-01-13 01:00:00 13218 1 0.00 0.00 0.00 0.0 0.00	33.5051546392	0.00	0.00	Cloudy(fair)	True	False	0.00
2011-01-13 02:00:00 13219 2 0.00 0.00 0.00 0.0 0.00	33.5051546392	0.00	0.00	Cloudy(fair)	True	False	0.00
2011-01-13 03:00:00 13220 3 0.00 0.00 0.00 0.0 0.00	47.9166666667	0.00	0.00	Mostly_Cloudy(fair)	True	False	0.00
2011-01-13 04:00:00 13221 4 0.00 0.00 0.00 0.0 0.00	47.9166666667	0.00	0.00	Mostly_Cloudy(fair)	True	False	0.00
2011-01-13 05:00:00 13222 5 0.00 0.00 0.00 0.0 0.00	47.9166666667	0.00	0.00	Mostly_Cloudy(fair)	True	False	0.00
2011-01-13 06:00:00 13223 6 0.00 0.00 0.00 0.0 0.00	52.469197636	0.00	0.00	Partly_Cloudy(fair)	True	False	0.00
2011-01-13 07:00:00 13224 7 20.36 20.36 20.36 0.2 38.80	52.469197636	20.36	0.20	Partly_Cloudy(fair)	True	False	0.20
2011-01-13 08:00:00 13225 8 183.59 183.59 183.59 15.9 349.90	52.469197636	183.59	15.90	Partly_Cloudy(fair)	True	False	15.90
2011-01-13 09:00:00 13226 9 350.60 350.60 350.60 40.8 668.20	52.469197636	350.60	40.80	Mostly_Sunny(fair)	False	False	40.80
2011-01-13 10:00:00 13227 10 467.76 467.76 467.76 68.0 891.50	52.469197636	467.76	68.00	Mostly_Sunny(fair)	False	False	68.00
2011-01-13 11:00:00 13228 11 506.64 506.64 506.64 116.4 965.60	52.469197636	506.64	116.40	Mostly_Sunny(fair)	False	False	116.40
2011-01-13 12:00:00 13229 12 523.80 523.80 523.80 173.0 998.30	52.469197636	523.80	173.00	Mostly_Sunny(fair)	False	False	173.00
2011-01-13 13:00:00 13230 13 453.33 453.33 453.33 203.9 864.00	52.469197636	453.33	203.90	Mostly_Sunny(fair)	False	False	203.90
2011-01-13 14:00:00 13231 14 352.33 352.33 352.33 181.3 671.50	52.469197636	352.33	181.30	Mostly_Sunny(Unkown)	False	False	181.30
2011-01-13 15:00:00 13232 15 185.79 185.79 185.79 95.1 354.10	52.469197636	185.79	95.10	Mostly_Sunny(fair)	False	False	95.10
2011-01-13 16:00:00 13233 16 29.12 29.12 29.12 6.8 55.50	52.469197636	29.12	6.80	Mostly_Sunny(fair)	False	False	6.80
2011-01-13 17:00:00 13234 17 0.00 0.00 0.00 0.0 0.00	52.469197636	0.00	0.00	Mostly_Clear(fair)	False	False	0.00
2011-01-13 18:00:00 13235 18 0.00 0.00 0.00 0.0 0.00	89.0245718541	0.00	0.00	Clear(fair)	True	False	0.00
2011-01-13 19:00:00 13236 19 0.00 0.00 0.00 0.0 0.00	89.0245718541	0.00	0.00	Clear(fair)	True	False	0.00
2011-01-13 20:00:00 13237 20 0.00 0.00 0.00 0.0 0.00	89.0245718541	0.00	0.00	Clear(fair)	True	False	0.00
2011-01-13 21:00:00 13238 21 0.00 0.00 0.00 0.0 0.00	89.0245718541	0.00	0.00	Clear(fair)	True	False	0.00
