2011-01-18 08:00:00 20674 8 36.53 36.53 36.53 0.0 391.80	9.32286555447	36.53	0.00	Light_Sleet(light_freezing_rain)	True	False	0.00
2011-01-18 09:00:00 20675 9 65.20 65.20 65.20 4.5 699.40	9.32286555447	65.20	4.50	Light_Sleet(light_freezing_rain)	True	False	4.50
2011-01-18 10:00:00 20676 10 31.80 31.80 31.80 16.6 898.90	3.53807707484	31.80	16.60	Light_Wintry_Mix(light_freezing_rain)	True	False	16.60
2011-01-18 11:00:00 20677 11 35.98 35.98 35.98 26.2 1016.80	3.53807707484	35.98	26.20	Light_Rain/Freezing_Rain(light_rain)	True	False	26.20
2011-01-18 12:00:00 20678 12 36.36 36.36 36.36 49.4 1027.70	3.53807707484	36.36	49.40	Light_Freezing_Rain/Wind(light_rain)	True	False	49.40
2011-01-18 13:00:00 20679 13 335.30 335.30 335.30 73.3 921.30	36.3941018767	335.30	73.30	Cloudy/Wind(cloudy)	True	False	73.30
2011-01-18 14:00:00 20680 14 26.90 26.90 26.90 76.2 760.30	3.53807707484	26.90	76.20	Freezing_Rain_/_Wind(light_rain)	True	False	76.20
2011-01-18 15:00:00 20681 15 15.84 15.84 15.84 42.7 447.60	3.53807707484	15.84	42.70	Freezing_Drizzle(light_rain)	True	False	42.70
2011-01-18 16:00:00 20682 16 9.50 9.50 9.50 9.2 101.90	9.32286555447	9.50	9.20	Freezing_Drizzle(cloudy)	True	False	9.20
2011-01-18 17:00:00 20683 17 0.09 0.09 0.09 0.0 1.00	9.32286555447	0.09	0.00	Freezing_Drizzle(cloudy)	True	False	0.00
2011-01-18 18:00:00 20684 18 0.00 0.00 0.00 0.0 0.00	30.6589504143	0.00	0.00	Cloudy(cloudy)	True	False	0.00
2011-01-18 19:00:00 20685 19 0.00 0.00 0.00 0.0 0.00	30.6589504143	0.00	0.00	Cloudy(cloudy)	True	False	0.00
2011-01-18 20:00:00 20686 20 0.00 0.00 0.00 0.0 0.00	30.6589504143	0.00	0.00	Cloudy(cloudy)	True	False	0.00
2011-01-18 21:00:00 20687 21 0.00 0.00 0.00 0.0 0.00	30.6589504143	0.00	0.00	Cloudy(cloudy)	True	False	0.00
2011-01-18 22:00:00 20688 22 0.00 0.00 0.00 0.0 0.00	30.6589504143	0.00	0.00	Cloudy(cloudy)	True	False	0.00
2011-01-18 23:00:00 20689 23 0.00 0.00 0.00 0.0 0.00	30.6589504143	0.00	0.00	Cloudy(cloudy)	True	False	0.00
2011-01-19 00:00:00 20690 0 0.00 0.00 0.00 0.0 0.00	30.6589504143	0.00	0.00	Cloudy(mostly_cloudy)	True	False	0.00
2011-01-19 01:00:00 20691 1 0.00 0.00 0.00 0.0 0.00	30.6589504143	0.00	0.00	Cloudy(fair)	True	False	0.00
2011-01-19 02:00:00 20692 2 0.00 0.00 0.00 0.0 0.00	30.6589504143	0.00	0.00	Cloudy(partly_cloudy)	True	False	0.00
2011-01-19 03:00:00 20693 3 0.00 0.00 0.00 0.0 0.00	9.32286555447	0.00	0.00	Freezing_Drizzle(mostly_cloudy)	True	False	0.00
2011-01-19 04:00:00 20694 4 0.00 0.00 0.00 0.0 0.00	9.32286555447	0.00	0.00	Freezing_Drizzle(light_rain)	True	False	0.00
2011-01-19 05:00:00 20695 5 0.00 0.00 0.00 0.0 0.00	9.32286555447	0.00	0.00	Freezing_Drizzle(light_rain)	True	False	0.00
2011-01-19 06:00:00 20696 6 0.00 0.00 0.00 0.0 0.00	4.67237735009	0.00	0.00	Few_Snow_Showers(fog)	True	False	0.00
2011-01-19 07:00:00 20697 7 2.53 2.53 2.53 0.5 54.10	4.67237735009	2.53	0.50	Few_Snow_Showers(cloudy)	True	False	0.50
2011-01-19 08:00:00 20698 8 18.31 18.31 18.31 28.1 391.80	4.67237735009	18.31	28.10	Few_Snow_Showers(fog)	True	False	28.10
2011-01-19 09:00:00 20699 9 32.68 32.68 32.68 122.9 699.40	4.67237735009	32.68	122.90	Rain_/_Snow_Showers(cloudy)	True	False	122.90
2011-01-19 10:00:00 20700 10 241.97 241.97 241.97 384.8 898.90	26.9184847498	241.97	384.80	Rain_/_Snow_Showers(cloudy)	True	False	384.80
2011-01-19 11:00:00 20701 11 273.71 273.71 273.71 830.0 1016.80	26.9184847498	273.71	830.00	Rain_/_Snow_Showers(cloudy)	True	False	830.00
2011-01-19 12:00:00 20702 12 461.81 461.81 461.81 454.8 1027.70	44.9365027678	461.81	454.80	Mostly_Cloudy(fair)	True	False	454.80
2011-01-19 13:00:00 20703 13 414.00 414.00 414.00 278.6 921.30	44.9365027678	414.00	278.60	Mostly_Cloudy(cloudy)	True	False	278.60
2011-01-19 14:00:00 20704 14 341.65 341.65 341.65 314.4 760.30	44.9365027678	341.65	314.40	Mostly_Cloudy(mostly_cloudy)	True	False	314.40
2011-01-19 15:00:00 20705 15 201.14 201.14 201.14 71.3 447.60	44.9365027678	201.14	71.30	Mostly_Cloudy(cloudy)	True	False	71.30
2011-01-19 16:00:00 20706 16 30.30 30.30 30.30 25.1 101.90	29.7345584482	30.30	25.10	Mostly_Cloudy(cloudy)	True	False	25.10
2011-01-19 17:00:00 20707 17 0.30 0.30 0.30 0.0 1.00	29.7345584482	0.30	0.00	Mostly_Cloudy(cloudy)	True	False	0.00
2011-01-19 18:00:00 20708 18 0.00 0.00 0.00 0.0 0.00	54.4944925256	0.00	0.00	Partly_Cloudy(cloudy)	True	False	0.00
2011-01-19 19:00:00 20709 19 0.00 0.00 0.00 0.0 0.00	54.4944925256	0.00	0.00	Partly_Cloudy(cloudy)	True	False	0.00
2011-01-19 20:00:00 20710 20 0.00 0.00 0.00 0.0 0.00	54.4944925256	0.00	0.00	Partly_Cloudy(cloudy)	True	False	0.00
2011-01-19 21:00:00 20711 21 0.00 0.00 0.00 0.0 0.00	85.3751914242	0.00	0.00	Clear(cloudy)	True	False	0.00
2011-01-19 22:00:00 20712 22 0.00 0.00 0.00 0.0 0.00	85.3751914242	0.00	0.00	Clear(cloudy)	True	False	0.00
2011-01-19 23:00:00 20713 23 0.00 0.00 0.00 0.0 0.00	85.3751914242	0.00	0.00	Clear(cloudy)	True	False	0.00
2011-01-20 00:00:00 20714 0 0.00 0.00 0.00 0.0 0.00	85.3751914242	0.00	0.00	Clear(cloudy)	True	False	0.00
2011-01-20 01:00:00 20715 1 0.00 0.00 0.00 0.0 0.00	85.3751914242	0.00	0.00	Clear(cloudy)	True	False	0.00
2011-01-20 02:00:00 20716 2 0.00 0.00 0.00 0.0 0.00	85.3751914242	0.00	0.00	Clear(cloudy)	True	False	0.00
2011-01-20 03:00:00 20717 3 0.00 0.00 0.00 0.0 0.00	85.3751914242	0.00	0.00	Clear(cloudy)	True	False	0.00
2011-01-20 04:00:00 20718 4 0.00 0.00 0.00 0.0 0.00	85.3751914242	0.00	0.00	Clear(cloudy)	True	False	0.00
2011-01-20 05:00:00 20719 5 0.00 0.00 0.00 0.0 0.00	85.3751914242	0.00	0.00	Clear(cloudy)	True	False	0.00
2011-01-20 06:00:00 20720 6 0.00 0.00 0.00 0.0 0.00	85.3751914242	0.00	0.00	Clear(cloudy)	True	False	0.00
2011-01-20 07:00:00 20721 7 46.19 46.19 46.19 26.0 54.10	85.3751914242	46.19	26.00	Clear(mostly_cloudy)	True	False	26.00
2011-01-20 08:00:00 20722 8 334.50 334.50 334.50 132.4 391.80	85.3751914242	334.50	132.40	Sunny(mostly_cloudy)	True	False	132.40
