2011-01-01 18:00:00 1658 18 0.00 0.00 0.00 0.0 0.00	41.5656731084	0.00	0.00	Cloudy(cloudy)	True	False	0.00
2011-01-01 19:00:00 1659 19 0.00 0.00 0.00 0.0 0.00	41.5656731084	0.00	0.00	Cloudy(cloudy)	True	False	0.00
2011-01-01 20:00:00 1660 20 0.00 0.00 0.00 0.0 0.00	41.5656731084	0.00	0.00	Cloudy(cloudy)	True	False	0.00
2011-01-01 21:00:00 1661 21 0.00 0.00 0.00 0.0 0.00	0.0	0.00	0.00	Showers(cloudy)	True	False	0.00
2011-01-01 22:00:00 1662 22 0.00 0.00 0.00 0.0 0.00	41.5656731084	0.00	0.00	Cloudy(cloudy)	True	False	0.00
2011-01-01 23:00:00 1663 23 0.00 0.00 0.00 0.0 0.00	41.5656731084	0.00	0.00	Cloudy(cloudy)	True	False	0.00
2011-01-02 00:00:00 1664 0 0.00 0.00 0.00 0.0 0.00	0.0	0.00	0.00	Showers(cloudy)	True	False	0.00
2011-01-02 01:00:00 1665 1 0.00 0.00 0.00 0.0 0.00	0.0	0.00	0.00	Showers(light_rain)	True	False	0.00
2011-01-02 02:00:00 1666 2 0.00 0.00 0.00 0.0 0.00	0.0	0.00	0.00	Few_Showers(cloudy)	True	False	0.00
2011-01-02 03:00:00 1667 3 0.00 0.00 0.00 0.0 0.00	0.0	0.00	0.00	Few_Showers(fog)	True	False	0.00
2011-01-02 04:00:00 1668 4 0.00 0.00 0.00 0.0 0.00	0.0	0.00	0.00	Few_Showers(fog)	True	False	0.00
2011-01-02 05:00:00 1669 5 0.00 0.00 0.00 0.0 0.00	0.0	0.00	0.00	Few_Showers(fog)	True	False	0.00
2011-01-02 06:00:00 1670 6 0.00 0.00 0.00 0.0 0.00	0.0	0.00	0.00	Few_Showers(fog)	True	False	0.00
2011-01-02 07:00:00 1671 7 0.00 0.00 0.00 0.0 24.50	0.0	0.00	0.00	Few_Showers(fog)	True	False	0.00
2011-01-02 08:00:00 1672 8 126.90 126.90 126.90 10.5 305.30	41.5656731084	126.90	10.50	Cloudy(fog)	True	False	10.50
2011-01-02 09:00:00 1673 9 213.69 213.69 213.69 31.3 653.30	32.7098919368	213.69	31.30	Cloudy(fog)	True	False	31.30
2011-01-02 10:00:00 1674 10 291.61 291.61 291.61 137.1 891.50	32.7098919368	291.61	137.10	Cloudy(fog)	True	False	137.10
2011-01-02 11:00:00 1675 11 507.57 507.57 507.57 222.3 962.40	52.7396574176	507.57	222.30	Mostly_Cloudy(cloudy)	True	False	222.30
2011-01-02 12:00:00 1676 12 526.50 526.50 526.50 364.9 998.30	52.7396574176	526.50	364.90	Mostly_Cloudy(light_rain)	True	False	364.90
2011-01-02 13:00:00 1677 13 437.05 437.05 437.05 136.2 828.70	52.7396574176	437.05	136.20	Mostly_Cloudy(cloudy)	True	False	136.20
2011-01-02 14:00:00 1678 14 506.03 506.03 506.03 63.7 623.70	81.1329220415	506.03	63.70	Partly_Cloudy(light_rain)	True	False	63.70
2011-01-02 15:00:00 1679 15 222.79 222.79 222.79 13.0 313.50	71.0648148148	222.79	13.00	Partly_Cloudy(cloudy)	True	False	13.00
2011-01-02 16:00:00 1680 16 30.70 30.70 30.70 0.0 43.20	71.0648148148	30.70	0.00	Partly_Cloudy(cloudy)	True	False	0.00
2011-01-02 17:00:00 1681 17 0.00 0.00 0.00 0.0 0.00	71.0648148148	0.00	0.00	Partly_Cloudy(light_rain)	True	False	0.00
2011-01-02 18:00:00 1682 18 0.00 0.00 0.00 0.0 0.00	71.0648148148	0.00	0.00	Partly_Cloudy(cloudy)	True	False	0.00
2011-01-02 19:00:00 1683 19 0.00 0.00 0.00 0.0 0.00	71.0648148148	0.00	0.00	Partly_Cloudy(cloudy)	True	False	0.00
2011-01-02 20:00:00 1684 20 0.00 0.00 0.00 0.0 0.00	71.0648148148	0.00	0.00	Mostly_Clear(mostly_cloudy)	False	False	0.00
2011-01-02 21:00:00 1685 21 0.00 0.00 0.00 0.0 0.00	71.0648148148	0.00	0.00	Mostly_Clear(fair)	False	False	0.00
2011-01-02 22:00:00 1686 22 0.00 0.00 0.00 0.0 0.00	71.0648148148	0.00	0.00	Mostly_Clear(fair)	False	False	0.00
2011-01-02 23:00:00 1687 23 0.00 0.00 0.00 0.0 0.00	94.532627866	0.00	0.00	Clear(fair)	True	False	0.00
2011-01-03 00:00:00 1688 0 0.00 0.00 0.00 0.0 0.00	94.532627866	0.00	0.00	Clear(fair)	True	False	0.00
2011-01-03 01:00:00 1689 1 0.00 0.00 0.00 0.0 0.00	94.532627866	0.00	0.00	Clear(fair)	True	False	0.00
2011-01-03 02:00:00 1690 2 0.00 0.00 0.00 0.0 0.00	94.532627866	0.00	0.00	Clear(fair)	True	False	0.00
2011-01-03 03:00:00 1691 3 0.00 0.00 0.00 0.0 0.00	94.532627866	0.00	0.00	Clear(fair)	True	False	0.00
2011-01-03 04:00:00 1692 4 0.00 0.00 0.00 0.0 0.00	94.532627866	0.00	0.00	Clear(fair)	True	False	0.00
2011-01-03 05:00:00 1693 5 0.00 0.00 0.00 0.0 0.00	94.532627866	0.00	0.00	Clear(fair)	True	False	0.00
2011-01-03 06:00:00 1694 6 0.00 0.00 0.00 0.0 0.00	94.532627866	0.00	0.00	Clear(fair)	True	False	0.00
2011-01-03 07:00:00 1695 7 23.16 23.16 23.16 20.3 24.50	94.532627866	23.16	20.30	Sunny(fair)	True	False	20.30
2011-01-03 08:00:00 1696 8 288.61 288.61 288.61 287.1 305.30	94.532627866	288.61	287.10	Sunny(fair)	True	False	287.10
2011-01-03 09:00:00 1697 9 616.00 616.00 616.00 627.3 653.30	94.2902934989	616.00	627.30	Sunny(fair)	True	False	627.30
2011-01-03 10:00:00 1698 10 840.60 840.60 840.60 818.1 891.50	94.2902934989	840.60	818.10	Sunny(fair)	True	False	818.10
2011-01-03 11:00:00 1699 11 907.45 907.45 907.45 919.3 962.40	94.2902934989	907.45	919.30	Sunny(fair)	True	False	919.30
2011-01-03 12:00:00 1700 12 941.30 941.30 941.30 915.9 998.30	94.2902934989	941.30	915.90	Sunny(fair)	True	False	915.90
2011-01-03 13:00:00 1701 13 781.38 781.38 781.38 783.1 828.70	94.2902934989	781.38	783.10	Sunny(fair)	True	False	783.10
2011-01-03 14:00:00 1702 14 588.09 588.09 588.09 571.7 623.70	94.2902934989	588.09	571.70	Sunny(fair)	True	False	571.70
2011-01-03 15:00:00 1703 15 296.36 296.36 296.36 236.0 313.50	94.532627866	296.36	236.00	Sunny(fair)	True	False	236.00
2011-01-03 16:00:00 1704 16 40.84 40.84 40.84 14.9 43.20	94.532627866	40.84	14.90	Clear(fair)	True	False	14.90
2011-01-03 17:00:00 1705 17 0.00 0.00 0.00 0.0 0.00	94.532627866	0.00	0.00	Clear(fair)	True	False	0.00
