2011-01-31 02:00:00 35453 2 0.00 0.00 0.00 0.0 0.00	84.1912916362	0.00	0.00	Mostly_Clear(fair)	False	False	0.00
2011-01-31 03:00:00 35454 3 0.00 0.00 0.00 0.0 0.00	84.1912916362	0.00	0.00	Mostly_Clear(fair)	False	False	0.00
2011-01-31 04:00:00 35455 4 0.00 0.00 0.00 0.0 0.00	43.8894792774	0.00	0.00	Partly_Cloudy(fair)	True	False	0.00
2011-01-31 05:00:00 35456 5 0.00 0.00 0.00 0.0 0.00	43.8894792774	0.00	0.00	Partly_Cloudy(fair)	True	False	0.00
2011-01-31 06:00:00 35457 6 0.00 0.00 0.00 0.0 0.00	43.8894792774	0.00	0.00	Partly_Cloudy(fair)	True	False	0.00
2011-01-31 07:00:00 35458 7 41.30 41.30 41.30 35.1 94.10	43.8894792774	41.30	35.10	Partly_Cloudy(fair)	True	False	35.10
2011-01-31 08:00:00 35459 8 192.85 192.85 192.85 211.4 439.40	43.8894792774	192.85	211.40	Partly_Cloudy(fair)	True	False	211.40
2011-01-31 09:00:00 35460 9 329.43 329.43 329.43 452.8 750.60	43.8894792774	329.43	452.80	Partly_Cloudy(fair)	True	False	452.80
2011-01-31 10:00:00 35461 10 505.39 505.39 505.39 568.9 957.70	52.7714285714	505.39	568.90	Partly_Cloudy(fair)	True	False	568.90
2011-01-31 11:00:00 35462 11 554.10 554.10 554.10 616.3 1050.00	52.7714285714	554.10	616.30	Partly_Cloudy(fair)	True	False	616.30
2011-01-31 12:00:00 35463 12 559.38 559.38 559.38 631.6 1060.00	52.7714285714	559.38	631.60	Partly_Cloudy(fair)	True	False	631.60
2011-01-31 13:00:00 35464 13 510.09 510.09 510.09 544.1 966.60	52.7714285714	510.09	544.10	Partly_Cloudy(fair)	True	False	544.10
2011-01-31 14:00:00 35465 14 420.85 420.85 420.85 442.9 797.50	52.7714285714	420.85	442.90	Partly_Cloudy(fair)	True	False	442.90
2011-01-31 15:00:00 35466 15 271.67 271.67 271.67 247.7 514.80	52.7714285714	271.67	247.70	Partly_Cloudy(fair)	True	False	247.70
2011-01-31 16:00:00 35467 16 67.46 67.46 67.46 46.8 153.70	43.8894792774	67.46	46.80	Partly_Cloudy(fair)	True	False	46.80
2011-01-31 17:00:00 35468 17 1.36 1.36 1.36 0.3 3.10	43.8894792774	1.36	0.30	Partly_Cloudy(fair)	True	False	0.30
2011-01-31 18:00:00 35469 18 0.00 0.00 0.00 0.0 0.00	43.8894792774	0.00	0.00	Partly_Cloudy(fair)	True	False	0.00
2011-01-31 19:00:00 35470 19 0.00 0.00 0.00 0.0 0.00	43.8894792774	0.00	0.00	Partly_Cloudy(mostly_cloudy)	True	False	0.00
2011-01-31 20:00:00 35471 20 0.00 0.00 0.00 0.0 0.00	43.8894792774	0.00	0.00	Partly_Cloudy(cloudy)	True	False	0.00
2011-01-31 21:00:00 35472 21 0.00 0.00 0.00 0.0 0.00	19.1397360036	0.00	0.00	Cloudy(cloudy)	True	False	0.00
2011-01-31 22:00:00 35473 22 0.00 0.00 0.00 0.0 0.00	19.1397360036	0.00	0.00	Cloudy(cloudy)	True	False	0.00
2011-01-31 23:00:00 35474 23 0.00 0.00 0.00 0.0 0.00	19.1397360036	0.00	0.00	Cloudy(cloudy)	True	False	0.00
2011-02-01 00:00:00 35475 0 0.00 0.00 0.00 0.0 0.00	0.417667327973	0.00	0.00	Few_Snow_Showers(cloudy)	True	False	0.00
2011-02-01 01:00:00 35476 1 0.00 0.00 0.00 0.0 0.00	0.417667327973	0.00	0.00	Few_Snow_Showers(light_snow)	True	False	0.00
2011-02-01 02:00:00 35477 2 0.00 0.00 0.00 0.0 0.00	0.417667327973	0.00	0.00	Few_Snow_Showers(light_snow)	True	False	0.00
2011-02-01 03:00:00 35478 3 0.00 0.00 0.00 0.0 0.00	0.047619047619	0.00	0.00	Snow_Shower(light_snow)	True	False	0.00
2011-02-01 04:00:00 35479 4 0.00 0.00 0.00 0.0 0.00	0.047619047619	0.00	0.00	Snow_Shower(light_snow)	True	False	0.00
2011-02-01 05:00:00 35480 5 0.00 0.00 0.00 0.0 0.00	0.047619047619	0.00	0.00	Snow_Shower(cloudy)	True	False	0.00
2011-02-01 06:00:00 35481 6 0.00 0.00 0.00 0.0 0.00	0.417667327973	0.00	0.00	Light_Snow(cloudy)	True	False	0.00
2011-02-01 07:00:00 35482 7 0.39 0.39 0.39 0.0 94.10	0.417667327973	0.39	0.00	Light_Snow(light_freezing_rain)	True	False	0.00
2011-02-01 08:00:00 35483 8 1.84 1.84 1.84 0.0 439.40	0.417667327973	1.84	0.00	Light_Snow(cloudy)	True	False	0.00
2011-02-01 09:00:00 35484 9 0.36 0.36 0.36 0.0 750.60	0.047619047619	0.36	0.00	Snow(light_freezing_rain)	True	False	0.00
2011-02-01 10:00:00 35485 10 0.46 0.46 0.46 2.3 957.70	0.047619047619	0.46	2.30	Snow(cloudy)	True	False	2.30
2011-02-01 11:00:00 35486 11 0.50 0.50 0.50 2.0 1050.00	0.047619047619	0.50	2.00	Snow(cloudy)	True	False	2.00
2011-02-01 12:00:00 35487 12 0.50 0.50 0.50 3.8 1060.00	0.047619047619	0.50	3.80	Snow(light_freezing_rain)	True	False	3.80
2011-02-01 13:00:00 35488 13 0.46 0.46 0.46 9.2 966.60	0.047619047619	0.46	9.20	Snow(light_freezing_rain)	True	False	9.20
2011-02-01 14:00:00 35489 14 0.38 0.38 0.38 12.6 797.50	0.047619047619	0.38	12.60	Snow(cloudy)	True	False	12.60
2011-02-01 15:00:00 35490 15 0.25 0.25 0.25 4.3 514.80	0.047619047619	0.25	4.30	Snow(cloudy)	True	False	4.30
2011-02-01 16:00:00 35491 16 0.07 0.07 0.07 0.0 153.70	0.047619047619	0.07	0.00	Snow(cloudy)	True	False	0.00
2011-02-01 17:00:00 35492 17 0.00 0.00 0.00 0.0 3.10	0.047619047619	0.00	0.00	Snow(fog)	True	False	0.00
2011-02-01 18:00:00 35493 18 0.00 0.00 0.00 0.0 0.00	0.047619047619	0.00	0.00	Snow_Shower(cloudy)	True	False	0.00
2011-02-01 19:00:00 35494 19 0.00 0.00 0.00 0.0 0.00	0.047619047619	0.00	0.00	Snow_Shower(cloudy)	True	False	0.00
2011-02-01 20:00:00 35495 20 0.00 0.00 0.00 0.0 0.00	0.047619047619	0.00	0.00	Snow_Shower(cloudy)	True	False	0.00
2011-02-01 21:00:00 35496 21 0.00 0.00 0.00 0.0 0.00	0.047619047619	0.00	0.00	Snow_Shower(cloudy)	True	False	0.00
2011-02-01 22:00:00 35497 22 0.00 0.00 0.00 0.0 0.00	0.047619047619	0.00	0.00	Snow_Shower(cloudy)	True	False	0.00
2011-02-01 23:00:00 35498 23 0.00 0.00 0.00 0.0 0.00	0.047619047619	0.00	0.00	Snow_Shower(cloudy)	True	False	0.00
2011-02-02 00:00:00 35499 0 0.00 0.00 0.00 0.0 0.00	0.047619047619	0.00	0.00	Snow_Shower(light_freezing_rain)	True	False	0.00
2011-02-02 01:00:00 35500 1 0.00 0.00 0.00 0.0 0.00	0.047619047619	0.00	0.00	Snow_Shower(light_freezing_rain)	True	False	0.00
