2011-01-12 19:00:00 14253 19 0.00 0.00 0.00 0.0 0.00	33.5051546392	0.00	0.00	Cloudy(cloudy)	True	False	0.00
2011-01-12 20:00:00 14254 20 0.00 0.00 0.00 0.0 0.00	48.2137753644	0.00	0.00	Mostly_Cloudy(cloudy)	True	False	0.00
2011-01-12 21:00:00 14255 21 0.00 0.00 0.00 0.0 0.00	48.2137753644	0.00	0.00	Mostly_Cloudy(mostly_cloudy)	True	False	0.00
2011-01-12 22:00:00 14256 22 0.00 0.00 0.00 0.0 0.00	52.7897425624	0.00	0.00	Partly_Cloudy(mostly_cloudy)	True	False	0.00
2011-01-12 23:00:00 14257 23 0.00 0.00 0.00 0.0 0.00	52.7897425624	0.00	0.00	Partly_Cloudy(mostly_cloudy)	True	False	0.00
2011-01-13 00:00:00 14258 0 0.00 0.00 0.00 0.0 0.00	52.7897425624	0.00	0.00	Partly_Cloudy(fair)	True	False	0.00
2011-01-13 01:00:00 14259 1 0.00 0.00 0.00 0.0 0.00	52.7897425624	0.00	0.00	Partly_Cloudy(fair)	True	False	0.00
2011-01-13 02:00:00 14260 2 0.00 0.00 0.00 0.0 0.00	52.7897425624	0.00	0.00	Partly_Cloudy(fair)	True	False	0.00
2011-01-13 03:00:00 14261 3 0.00 0.00 0.00 0.0 0.00	52.7897425624	0.00	0.00	Partly_Cloudy(fair)	True	False	0.00
2011-01-13 04:00:00 14262 4 0.00 0.00 0.00 0.0 0.00	52.7897425624	0.00	0.00	Partly_Cloudy(fair)	True	False	0.00
2011-01-13 05:00:00 14263 5 0.00 0.00 0.00 0.0 0.00	52.7897425624	0.00	0.00	Partly_Cloudy(fair)	True	False	0.00
2011-01-13 06:00:00 14264 6 0.00 0.00 0.00 0.0 0.00	89.0245718541	0.00	0.00	Clear(fair)	True	False	0.00
2011-01-13 07:00:00 14265 7 34.54 34.54 34.54 0.2 38.80	89.0245718541	34.54	0.20	Clear(fair)	True	False	0.20
2011-01-13 08:00:00 14266 8 311.50 311.50 311.50 15.9 349.90	89.0245718541	311.50	15.90	Sunny(fair)	True	False	15.90
2011-01-13 09:00:00 14267 9 594.86 594.86 594.86 40.8 668.20	89.0245718541	594.86	40.80	Sunny(fair)	True	False	40.80
2011-01-13 10:00:00 14268 10 815.68 815.68 815.68 68.0 891.50	91.4955424221	815.68	68.00	Sunny(fair)	True	False	68.00
2011-01-13 11:00:00 14269 11 883.48 883.48 883.48 116.4 965.60	91.4955424221	883.48	116.40	Sunny(fair)	True	False	116.40
2011-01-13 12:00:00 14270 12 913.40 913.40 913.40 173.0 998.30	91.4955424221	913.40	173.00	Mostly_Sunny(fair)	False	False	173.00
2011-01-13 13:00:00 14271 13 790.52 790.52 790.52 203.9 864.00	91.4955424221	790.52	203.90	Mostly_Sunny(fair)	False	False	203.90
2011-01-13 14:00:00 14272 14 614.39 614.39 614.39 181.3 671.50	91.4955424221	614.39	181.30	Mostly_Sunny(Unkown)	False	False	181.30
2011-01-13 15:00:00 14273 15 237.78 237.78 237.78 95.1 354.10	67.149958575	237.78	95.10	Partly_Cloudy(fair)	True	False	95.10
2011-01-13 16:00:00 14274 16 35.00 35.00 35.00 6.8 66.30	52.7897425624	35.00	6.80	Partly_Cloudy(fair)	True	False	6.80
2011-01-13 17:00:00 14275 17 0.16 0.16 0.16 0.0 0.30	52.7897425624	0.16	0.00	Partly_Cloudy(fair)	True	False	0.00
2011-01-13 18:00:00 14276 18 0.00 0.00 0.00 0.0 0.00	89.0245718541	0.00	0.00	Clear(fair)	True	False	0.00
2011-01-13 19:00:00 14277 19 0.00 0.00 0.00 0.0 0.00	89.0245718541	0.00	0.00	Clear(fair)	True	False	0.00
2011-01-13 20:00:00 14278 20 0.00 0.00 0.00 0.0 0.00	89.0245718541	0.00	0.00	Clear(fair)	True	False	0.00
2011-01-13 21:00:00 14279 21 0.00 0.00 0.00 0.0 0.00	89.0245718541	0.00	0.00	Clear(fair)	True	False	0.00
2011-01-13 22:00:00 14280 22 0.00 0.00 0.00 0.0 0.00	89.0245718541	0.00	0.00	Clear(fair)	True	False	0.00
2011-01-13 23:00:00 14281 23 0.00 0.00 0.00 0.0 0.00	89.0245718541	0.00	0.00	Clear(fair)	True	False	0.00
2011-01-14 00:00:00 14282 0 0.00 0.00 0.00 0.0 0.00	89.0245718541	0.00	0.00	Clear(fair)	True	False	0.00
2011-01-14 01:00:00 14283 1 0.00 0.00 0.00 0.0 0.00	89.0245718541	0.00	0.00	Clear(fair)	True	False	0.00
2011-01-14 02:00:00 14284 2 0.00 0.00 0.00 0.0 0.00	89.0245718541	0.00	0.00	Clear(fair)	True	False	0.00
2011-01-14 03:00:00 14285 3 0.00 0.00 0.00 0.0 0.00	52.7897425624	0.00	0.00	Partly_Cloudy(fair)	True	False	0.00
2011-01-14 04:00:00 14286 4 0.00 0.00 0.00 0.0 0.00	52.7897425624	0.00	0.00	Partly_Cloudy(fair)	True	False	0.00
2011-01-14 05:00:00 14287 5 0.00 0.00 0.00 0.0 0.00	52.7897425624	0.00	0.00	Partly_Cloudy(fair)	True	False	0.00
2011-01-14 06:00:00 14288 6 0.00 0.00 0.00 0.0 0.00	48.2137753644	0.00	0.00	Mostly_Cloudy(fair)	True	False	0.00
2011-01-14 07:00:00 14289 7 18.71 18.71 18.71 0.9 38.80	48.2137753644	18.71	0.90	Mostly_Cloudy(fair)	True	False	0.90
2011-01-14 08:00:00 14290 8 168.70 168.70 168.70 56.4 349.90	48.2137753644	168.70	56.40	Mostly_Cloudy(fair)	True	False	56.40
2011-01-14 09:00:00 14291 9 223.88 223.88 223.88 144.1 668.20	33.5051546392	223.88	144.10	Cloudy(fair)	True	False	144.10
2011-01-14 10:00:00 14292 10 290.64 290.64 290.64 288.8 891.50	32.6014913007	290.64	288.80	Cloudy(fair)	True	False	288.80
2011-01-14 11:00:00 14293 11 314.80 314.80 314.80 356.8 965.60	32.6014913007	314.80	356.80	Cloudy(fair)	True	False	356.80
2011-01-14 12:00:00 14294 12 550.22 550.22 550.22 408.8 998.30	55.1154132539	550.22	408.80	Mostly_Cloudy(fair)	True	False	408.80
2011-01-14 13:00:00 14295 13 476.20 476.20 476.20 399.7 864.00	55.1154132539	476.20	399.70	Mostly_Cloudy(fair)	True	False	399.70
2011-01-14 14:00:00 14296 14 370.10 370.10 370.10 314.6 671.50	55.1154132539	370.10	314.60	Mostly_Cloudy(fair)	True	False	314.60
2011-01-14 15:00:00 14297 15 237.78 237.78 237.78 161.5 354.10	67.149958575	237.78	161.50	Partly_Cloudy(fair)	True	False	161.50
2011-01-14 16:00:00 14298 16 35.00 35.00 35.00 13.6 66.30	52.7897425624	35.00	13.60	Partly_Cloudy(fair)	True	False	13.60
2011-01-14 17:00:00 14299 17 0.16 0.16 0.16 0.0 0.30	52.7897425624	0.16	0.00	Partly_Cloudy(fair)	True	False	0.00
2011-01-14 18:00:00 14300 18 0.00 0.00 0.00 0.0 0.00	52.7897425624	0.00	0.00	Mostly_Clear(fair)	False	False	0.00
