2011-02-04 05:00:00 40237 5 0.00 0.00 0.00 0.0 0.00	84.1912916362	0.00	0.00	Mostly_Clear(fair)	False	False	0.00
2011-02-04 06:00:00 40238 6 0.00 0.00 0.00 0.0 0.00	73.8432601881	0.00	0.00	Clear(fair)	True	False	0.00
2011-02-04 07:00:00 40239 7 69.49 69.49 69.49 17.3 94.10	73.8432601881	69.49	17.30	Clear(fair)	True	False	17.30
2011-02-04 08:00:00 40240 8 324.47 324.47 324.47 131.0 439.40	73.8432601881	324.47	131.00	Sunny(fair)	True	False	131.00
2011-02-04 09:00:00 40241 9 554.27 554.27 554.27 263.7 750.60	73.8432601881	554.27	263.70	Sunny(fair)	True	False	263.70
2011-02-04 10:00:00 40242 10 806.30 806.30 806.30 334.7 957.70	84.1912916362	806.30	334.70	Sunny(fair)	True	False	334.70
2011-02-04 11:00:00 40243 11 884.01 884.01 884.01 413.7 1050.00	84.1912916362	884.01	413.70	Sunny(fair)	True	False	413.70
2011-02-04 12:00:00 40244 12 892.43 892.43 892.43 402.5 1060.00	84.1912916362	892.43	402.50	Sunny(fair)	True	False	402.50
2011-02-04 13:00:00 40245 13 813.79 813.79 813.79 316.4 966.60	84.1912916362	813.79	316.40	Sunny(fair)	True	False	316.40
2011-02-04 14:00:00 40246 14 671.43 671.43 671.43 336.5 797.50	84.1912916362	671.43	336.50	Sunny(fair)	True	False	336.50
2011-02-04 15:00:00 40247 15 433.42 433.42 433.42 175.7 514.80	84.1912916362	433.42	175.70	Sunny(fair)	True	False	175.70
2011-02-04 16:00:00 40248 16 113.50 113.50 113.50 47.4 153.70	73.8432601881	113.50	47.40	Sunny(fair)	True	False	47.40
2011-02-04 17:00:00 40249 17 7.38 7.38 7.38 0.3 10.00	73.8432601881	7.38	0.30	Sunny(fair)	True	False	0.30
2011-02-04 18:00:00 40250 18 0.00 0.00 0.00 0.0 0.00	73.8432601881	0.00	0.00	Mostly_Clear(fair)	False	False	0.00
2011-02-04 19:00:00 40251 19 0.00 0.00 0.00 0.0 0.00	73.8432601881	0.00	0.00	Mostly_Clear(fair)	False	False	0.00
2011-02-04 20:00:00 40252 20 0.00 0.00 0.00 0.0 0.00	73.8432601881	0.00	0.00	Mostly_Clear(fair)	False	False	0.00
2011-02-04 21:00:00 40253 21 0.00 0.00 0.00 0.0 0.00	43.8894792774	0.00	0.00	Partly_Cloudy(fair)	True	False	0.00
2011-02-04 22:00:00 40254 22 0.00 0.00 0.00 0.0 0.00	43.8894792774	0.00	0.00	Partly_Cloudy(fair)	True	False	0.00
2011-02-04 23:00:00 40255 23 0.00 0.00 0.00 0.0 0.00	43.8894792774	0.00	0.00	Partly_Cloudy(fair)	True	False	0.00
2011-02-05 00:00:00 40256 0 0.00 0.00 0.00 0.0 0.00	24.0877742947	0.00	0.00	Mostly_Cloudy(fair)	True	False	0.00
2011-02-05 01:00:00 40257 1 0.00 0.00 0.00 0.0 0.00	24.0877742947	0.00	0.00	Mostly_Cloudy(fair)	True	False	0.00
2011-02-05 02:00:00 40258 2 0.00 0.00 0.00 0.0 0.00	24.0877742947	0.00	0.00	Mostly_Cloudy(cloudy)	True	False	0.00
2011-02-05 03:00:00 40259 3 0.00 0.00 0.00 0.0 0.00	21.862509992	0.00	0.00	Cloudy(mostly_cloudy)	True	False	0.00
2011-02-05 04:00:00 40260 4 0.00 0.00 0.00 0.0 0.00	21.862509992	0.00	0.00	Cloudy(cloudy)	True	False	0.00
2011-02-05 05:00:00 40261 5 0.00 0.00 0.00 0.0 0.00	21.862509992	0.00	0.00	Cloudy(cloudy)	True	False	0.00
2011-02-05 06:00:00 40262 6 0.00 0.00 0.00 0.0 0.00	4.37735849057	0.00	0.00	Wintry_Mix(cloudy)	True	False	0.00
2011-02-05 07:00:00 40263 7 4.12 4.12 4.12 4.1 94.10	4.37735849057	4.12	4.10	Wintry_Mix(cloudy)	True	False	4.10
2011-02-05 08:00:00 40264 8 19.23 19.23 19.23 48.3 439.40	4.37735849057	19.23	48.30	Wintry_Mix(cloudy)	True	False	48.30
2011-02-05 09:00:00 40265 9 49.81 49.81 49.81 67.1 750.60	6.63630448926	49.81	67.10	Rain_/_Freezing_Rain(fog)	True	False	67.10
2011-02-05 10:00:00 40266 10 0.00 0.00 0.00 129.8 957.70	0.0	0.00	129.80	Rain_/_Freezing_Rain(light_freezing_rain)	True	False	129.80
2011-02-05 11:00:00 40267 11 0.00 0.00 0.00 111.5 1050.00	0.0	0.00	111.50	Rain_/_Freezing_Rain(fog)	True	False	111.50
2011-02-05 12:00:00 40268 12 54.15 54.15 54.15 78.9 1060.00	5.10878010878	54.15	78.90	Rain(wintry_mix)	True	False	78.90
2011-02-05 13:00:00 40269 13 49.38 49.38 49.38 77.4 966.60	5.10878010878	49.38	77.40	Rain(wintry_mix)	True	False	77.40
2011-02-05 14:00:00 40270 14 40.74 40.74 40.74 73.8 797.50	5.10878010878	40.74	73.80	Rain(wintry_mix)	True	False	73.80
2011-02-05 15:00:00 40271 15 26.30 26.30 26.30 33.2 514.80	5.10878010878	26.30	33.20	Rain(light_rain)	True	False	33.20
2011-02-05 16:00:00 40272 16 6.73 6.73 6.73 7.7 153.70	4.37735849057	6.73	7.70	Rain(wintry_mix)	True	False	7.70
2011-02-05 17:00:00 40273 17 0.44 0.44 0.44 0.0 10.00	4.37735849057	0.44	0.00	Rain(fog)	True	False	0.00
2011-02-05 18:00:00 40274 18 0.00 0.00 0.00 0.0 0.00	1.41220357048	0.00	0.00	Rain_/_Snow_Showers(fog)	True	False	0.00
2011-02-05 19:00:00 40275 19 0.00 0.00 0.00 0.0 0.00	1.41220357048	0.00	0.00	Rain_/_Snow_Showers(fog)	True	False	0.00
2011-02-05 20:00:00 40276 20 0.00 0.00 0.00 0.0 0.00	1.41220357048	0.00	0.00	Rain_/_Snow_Showers(light_rain)	True	False	0.00
2011-02-05 21:00:00 40277 21 0.00 0.00 0.00 0.0 0.00	1.41220357048	0.00	0.00	Few_Snow_Showers(cloudy)	True	False	0.00
2011-02-05 22:00:00 40278 22 0.00 0.00 0.00 0.0 0.00	1.41220357048	0.00	0.00	Few_Snow_Showers(cloudy)	True	False	0.00
2011-02-05 23:00:00 40279 23 0.00 0.00 0.00 0.0 0.00	1.41220357048	0.00	0.00	Few_Snow_Showers(cloudy)	True	False	0.00
2011-02-06 00:00:00 40280 0 0.00 0.00 0.00 0.0 0.00	43.8894792774	0.00	0.00	Partly_Cloudy(mostly_cloudy)	True	False	0.00
2011-02-06 01:00:00 40281 1 0.00 0.00 0.00 0.0 0.00	43.8894792774	0.00	0.00	Partly_Cloudy(cloudy)	True	False	0.00
2011-02-06 02:00:00 40282 2 0.00 0.00 0.00 0.0 0.00	43.8894792774	0.00	0.00	Partly_Cloudy(cloudy)	True	False	0.00
2011-02-06 03:00:00 40283 3 0.00 0.00 0.00 0.0 0.00	43.8894792774	0.00	0.00	Partly_Cloudy(cloudy)	True	False	0.00
2011-02-06 04:00:00 40284 4 0.00 0.00 0.00 0.0 0.00	43.8894792774	0.00	0.00	Partly_Cloudy(cloudy)	True	False	0.00
2011-02-06 05:00:00 40285 5 0.00 0.00 0.00 0.0 0.00	43.8894792774	0.00	0.00	Partly_Cloudy(mostly_cloudy)	True	False	0.00
