2011-01-25 11:00:00 28987 11 892.40 892.40 262.23 89.6 1050.00	24.9741361473	262.23	89.60	Cloudy(cloudy)	True	False	89.60
2011-01-25 12:00:00 28988 12 90.45 90.45 46.49 242.2 1060.00	4.38550694372	46.49	242.20	Light_Snow(fair)	True	False	242.20
2011-01-25 13:00:00 28989 13 241.40 82.48 241.40 310.9 966.60	24.9741361473	241.40	310.90	Cloudy(partly_cloudy)	True	False	310.90
2011-01-25 14:00:00 28990 14 262.65 68.05 262.65 246.0 797.50	32.9339622642	262.65	246.00	Mostly_Cloudy(fair)	True	False	246.00
2011-01-25 15:00:00 28991 15 292.68 43.93 292.68 89.3 514.80	56.8526645768	292.68	89.30	Partly_Cloudy(mostly_cloudy)	True	False	89.30
2011-01-25 16:00:00 28992 16 68.26 13.12 68.26 12.8 153.70	44.4134078212	68.26	12.80	Partly_Cloudy(cloudy)	True	False	12.80
2011-01-25 17:00:00 28993 17 1.38 0.26 1.38 0.0 3.10	44.4134078212	1.38	0.00	Partly_Cloudy(cloudy)	True	False	0.00
2011-01-25 18:00:00 28994 18 0.00 0.00 0.00 0.0 0.00	44.4134078212	0.00	0.00	Partly_Cloudy(cloudy)	True	False	0.00
2011-01-25 19:00:00 28995 19 0.00 0.00 0.00 0.0 0.00	44.4134078212	0.00	0.00	Partly_Cloudy(cloudy)	True	False	0.00
2011-01-25 20:00:00 28996 20 0.00 0.00 0.00 0.0 0.00	44.4134078212	0.00	0.00	Partly_Cloudy(cloudy)	True	False	0.00
2011-01-25 21:00:00 28997 21 0.00 0.00 0.00 0.0 0.00	44.4134078212	0.00	0.00	Mostly_Clear(cloudy)	False	False	0.00
2011-01-25 22:00:00 28998 22 0.00 0.00 0.00 0.0 0.00	44.4134078212	0.00	0.00	Mostly_Clear(cloudy)	False	False	0.00
2011-01-25 23:00:00 28999 23 0.00 0.00 0.00 0.0 0.00	44.4134078212	0.00	0.00	Mostly_Clear(cloudy)	False	False	0.00
2011-01-26 00:00:00 29000 0 0.00 0.00 0.00 0.0 0.00	44.4134078212	0.00	0.00	Partly_Cloudy(fair)	True	False	0.00
2011-01-26 01:00:00 29001 1 0.00 0.00 0.00 0.0 0.00	44.4134078212	0.00	0.00	Partly_Cloudy(fair)	True	False	0.00
2011-01-26 02:00:00 29002 2 0.00 0.00 0.00 0.0 0.00	44.4134078212	0.00	0.00	Partly_Cloudy(fair)	True	False	0.00
2011-01-26 03:00:00 29003 3 0.00 0.00 0.00 0.0 0.00	20.4952380952	0.00	0.00	Cloudy(fair)	True	False	0.00
2011-01-26 04:00:00 29004 4 0.00 0.00 0.00 0.0 0.00	20.4952380952	0.00	0.00	Cloudy(mostly_cloudy)	True	False	0.00
2011-01-26 05:00:00 29005 5 0.00 0.00 0.00 0.0 0.00	20.4952380952	0.00	0.00	Cloudy(mostly_cloudy)	True	False	0.00
2011-01-26 06:00:00 29006 6 0.00 0.00 0.00 0.0 0.00	20.4952380952	0.00	0.00	Cloudy(cloudy)	True	False	0.00
2011-01-26 07:00:00 29007 7 15.02 15.02 15.02 0.0 73.30	20.4952380952	15.02	0.00	Cloudy(Unkown)	True	False	0.00
2011-01-26 08:00:00 29008 8 87.17 87.17 87.17 0.0 425.30	20.4952380952	87.17	0.00	Cloudy(snow)	True	False	0.00
2011-01-26 09:00:00 29009 9 46.39 46.39 46.39 0.0 750.60	6.18087182824	46.39	0.00	Light_Wintry_Mix(snow_and_fog)	True	False	0.00
2011-01-26 10:00:00 29010 10 32.30 32.30 32.30 0.1 957.70	3.37304075235	32.30	0.10	Light_Wintry_Mix(heavy_snow)	True	False	0.10
2011-01-26 11:00:00 29011 11 35.42 35.42 35.42 0.4 1050.00	3.37304075235	35.42	0.40	Light_Wintry_Mix(light_snow)	True	False	0.40
2011-01-26 12:00:00 29012 12 35.75 35.75 35.75 5.4 1060.00	3.37304075235	35.75	5.40	Light_Wintry_Mix(Unkown)	True	False	5.40
2011-01-26 13:00:00 29013 13 32.60 32.60 32.60 8.0 966.60	3.37304075235	32.60	8.00	Light_Wintry_Mix(Unkown)	True	False	8.00
2011-01-26 14:00:00 29014 14 26.90 26.90 26.90 5.3 797.50	3.37304075235	26.90	5.30	Light_Wintry_Mix(light_snow)	True	False	5.30
2011-01-26 15:00:00 29015 15 17.36 17.36 17.36 0.2 514.80	3.37304075235	17.36	0.20	Light_Wintry_Mix(light_snow)	True	False	0.20
2011-01-26 16:00:00 29016 16 9.50 9.50 9.50 0.0 153.70	6.18087182824	9.50	0.00	Light_Wintry_Mix(light_snow)	True	False	0.00
2011-01-26 17:00:00 29017 17 0.19 0.19 0.19 0.0 3.10	6.18087182824	0.19	0.00	Light_Wintry_Mix(cloudy)	True	False	0.00
2011-01-26 18:00:00 29018 18 0.00 0.00 0.00 0.0 0.00	3.45765345765	0.00	0.00	Wintry_Mix(wintry_mix)	True	False	0.00
2011-01-26 19:00:00 29019 19 0.00 0.00 0.00 0.0 0.00	3.45765345765	0.00	0.00	Wintry_Mix(light_snow)	True	False	0.00
2011-01-26 20:00:00 29020 20 0.00 0.00 0.00 0.0 0.00	3.45765345765	0.00	0.00	Wintry_Mix(snow)	True	False	0.00
2011-01-26 21:00:00 29021 21 0.00 0.00 0.00 0.0 0.00	0.0	0.00	0.00	Snow(heavy_snow)	True	False	0.00
2011-01-26 22:00:00 29022 22 0.00 0.00 0.00 0.0 0.00	0.0	0.00	0.00	Snow(snow)	True	False	0.00
2011-01-26 23:00:00 29023 23 0.00 0.00 0.00 0.0 0.00	0.0	0.00	0.00	Snow(snow)	True	False	0.00
2011-01-27 00:00:00 29024 0 0.00 0.00 0.00 0.0 0.00	0.0	0.00	0.00	Snow(light_snow)	True	False	0.00
2011-01-27 01:00:00 29025 1 0.00 0.00 0.00 0.0 0.00	0.0	0.00	0.00	Snow(light_snow)	True	False	0.00
2011-01-27 02:00:00 29026 2 0.00 0.00 0.00 0.0 0.00	0.0	0.00	0.00	Snow(light_snow)	True	False	0.00
2011-01-27 03:00:00 29027 3 0.00 0.00 0.00 0.0 0.00	0.0	0.00	0.00	Snow_Shower(mostly_cloudy)	True	False	0.00
2011-01-27 04:00:00 29028 4 0.00 0.00 0.00 0.0 0.00	0.0	0.00	0.00	Snow_Shower(cloudy)	True	False	0.00
2011-01-27 05:00:00 29029 5 0.00 0.00 0.00 0.0 0.00	0.0	0.00	0.00	Snow_Shower(cloudy)	True	False	0.00
2011-01-27 06:00:00 29030 6 0.00 0.00 0.00 0.0 0.00	28.547561867	0.00	0.00	Mostly_Cloudy(cloudy)	True	False	0.00
2011-01-27 07:00:00 29031 7 20.93 20.93 20.93 0.0 73.30	28.547561867	20.93	0.00	Mostly_Cloudy(cloudy)	True	False	0.00
2011-01-27 08:00:00 29032 8 121.41 121.41 121.41 0.0 425.30	28.547561867	121.41	0.00	Mostly_Cloudy(cloudy)	True	False	0.00
2011-01-27 09:00:00 29033 9 10.60 10.60 10.60 0.0 750.60	1.41220357048	10.60	0.00	Few_Snow_Showers(cloudy)	True	False	0.00
2011-01-27 10:00:00 29034 10 42.00 42.00 42.00 1.1 957.70	4.38550694372	42.00	1.10	Few_Snow_Showers(cloudy)	True	False	1.10
2011-01-27 11:00:00 29035 11 46.05 46.05 46.05 89.4 1050.00	4.38550694372	46.05	89.40	Few_Snow_Showers(cloudy)	True	False	89.40
