2011-02-02 06:00:00 37946 6 0.00 0.00 0.00 0.0 0.00	17.6777696565	0.00	0.00	Cloudy(light_freezing_rain)	True	False	0.00
2011-02-02 07:00:00 37947 7 6.24 6.24 6.24 0.0 94.10	6.63630448926	6.24	0.00	Light_Sleet(freezing_rain)	True	False	0.00
2011-02-02 08:00:00 37948 8 29.16 29.16 29.16 1.0 439.40	6.63630448926	29.16	1.00	Light_Freezing_Rain/Sleet(wintry_mix)	True	False	1.00
2011-02-02 09:00:00 37949 9 49.81 49.81 49.81 20.5 750.60	6.63630448926	49.81	20.50	Light_Wintry_Mix(light_rain)	True	False	20.50
2011-02-02 10:00:00 37950 10 198.50 198.50 198.50 43.8 957.70	20.7264150943	198.50	43.80	Cloudy(cloudy)	True	False	43.80
2011-02-02 11:00:00 37951 11 217.63 217.63 217.63 91.7 1050.00	20.7264150943	217.63	91.70	Cloudy(cloudy)	True	False	91.70
2011-02-02 12:00:00 37952 12 0.00 0.00 0.00 131.5 1060.00	0.0	0.00	131.50	Few_Showers(cloudy)	True	False	131.50
2011-02-02 13:00:00 37953 13 0.00 0.00 0.00 139.2 966.60	0.0	0.00	139.20	Few_Showers(fog)	True	False	139.20
2011-02-02 14:00:00 37954 14 0.00 0.00 0.00 137.0 797.50	0.0	0.00	137.00	Few_Showers(fog)	True	False	137.00
2011-02-02 15:00:00 37955 15 106.70 106.70 106.70 92.4 514.80	20.7264150943	106.70	92.40	Cloudy(cloudy)	True	False	92.40
2011-02-02 16:00:00 37956 16 27.17 27.17 27.17 28.9 153.70	17.6777696565	27.17	28.90	Cloudy(fog)	True	False	28.90
2011-02-02 17:00:00 37957 17 0.74 0.74 0.74 0.0 4.20	17.6777696565	0.74	0.00	Cloudy(cloudy)	True	False	0.00
2011-02-02 18:00:00 37958 18 0.00 0.00 0.00 0.0 0.00	24.0877742947	0.00	0.00	Mostly_Cloudy(partly_cloudy)	True	False	0.00
2011-02-02 19:00:00 37959 19 0.00 0.00 0.00 0.0 0.00	24.0877742947	0.00	0.00	Mostly_Cloudy(fair)	True	False	0.00
2011-02-02 20:00:00 37960 20 0.00 0.00 0.00 0.0 0.00	24.0877742947	0.00	0.00	Mostly_Cloudy(fair)	True	False	0.00
2011-02-02 21:00:00 37961 21 0.00 0.00 0.00 0.0 0.00	24.0877742947	0.00	0.00	Mostly_Clear(partly_cloudy)	False	False	0.00
2011-02-02 22:00:00 37962 22 0.00 0.00 0.00 0.0 0.00	24.0877742947	0.00	0.00	Mostly_Clear(fair)	False	False	0.00
2011-02-02 23:00:00 37963 23 0.00 0.00 0.00 0.0 0.00	24.0877742947	0.00	0.00	Mostly_Clear(cloudy)	False	False	0.00
2011-02-03 00:00:00 37964 0 0.00 0.00 0.00 0.0 0.00	74.1764080765	0.00	0.00	Clear(cloudy)	True	False	0.00
2011-02-03 01:00:00 37965 1 0.00 0.00 0.00 0.0 0.00	74.1764080765	0.00	0.00	Clear(cloudy)	True	False	0.00
2011-02-03 02:00:00 37966 2 0.00 0.00 0.00 0.0 0.00	74.1764080765	0.00	0.00	Clear(cloudy)	True	False	0.00
2011-02-03 03:00:00 37967 3 0.00 0.00 0.00 0.0 0.00	74.1764080765	0.00	0.00	Clear(cloudy)	True	False	0.00
2011-02-03 04:00:00 37968 4 0.00 0.00 0.00 0.0 0.00	74.1764080765	0.00	0.00	Clear(cloudy)	True	False	0.00
2011-02-03 05:00:00 37969 5 0.00 0.00 0.00 0.0 0.00	74.1764080765	0.00	0.00	Clear(cloudy)	True	False	0.00
2011-02-03 06:00:00 37970 6 0.00 0.00 0.00 0.0 0.00	43.8894792774	0.00	0.00	Partly_Cloudy(mostly_cloudy)	True	False	0.00
2011-02-03 07:00:00 37971 7 41.30 41.30 41.30 12.7 94.10	43.8894792774	41.30	12.70	Partly_Cloudy(Unkown)	True	False	12.70
2011-02-03 08:00:00 37972 8 192.85 192.85 192.85 128.9 439.40	43.8894792774	192.85	128.90	Partly_Cloudy(Unkown)	True	False	128.90
2011-02-03 09:00:00 37973 9 329.43 329.43 329.43 451.1 750.60	43.8894792774	329.43	451.10	Partly_Cloudy(cloudy)	True	False	451.10
2011-02-03 10:00:00 37974 10 505.39 505.39 505.39 600.0 957.70	52.7714285714	505.39	600.00	Partly_Cloudy(fair)	True	False	600.00
2011-02-03 11:00:00 37975 11 554.10 554.10 554.10 674.2 1050.00	52.7714285714	554.10	674.20	Partly_Cloudy(fair)	True	False	674.20
2011-02-03 12:00:00 37976 12 559.38 559.38 559.38 698.0 1060.00	52.7714285714	559.38	698.00	Partly_Cloudy(fair)	True	False	698.00
2011-02-03 13:00:00 37977 13 510.09 510.09 510.09 636.9 966.60	52.7714285714	510.09	636.90	Partly_Cloudy(fair)	True	False	636.90
2011-02-03 14:00:00 37978 14 420.85 420.85 420.85 516.0 797.50	52.7714285714	420.85	516.00	Partly_Cloudy(fair)	True	False	516.00
2011-02-03 15:00:00 37979 15 271.67 271.67 271.67 323.0 514.80	52.7714285714	271.67	323.00	Partly_Cloudy(fair)	True	False	323.00
2011-02-03 16:00:00 37980 16 67.46 67.46 67.46 86.5 153.70	43.8894792774	67.46	86.50	Partly_Cloudy(fair)	True	False	86.50
2011-02-03 17:00:00 37981 17 1.84 1.84 1.84 0.5 4.20	43.8894792774	1.84	0.50	Partly_Cloudy(fair)	True	False	0.50
2011-02-03 18:00:00 37982 18 0.00 0.00 0.00 0.0 0.00	74.1764080765	0.00	0.00	Clear(fair)	True	False	0.00
2011-02-03 19:00:00 37983 19 0.00 0.00 0.00 0.0 0.00	74.1764080765	0.00	0.00	Clear(fair)	True	False	0.00
2011-02-03 20:00:00 37984 20 0.00 0.00 0.00 0.0 0.00	74.1764080765	0.00	0.00	Clear(fair)	True	False	0.00
2011-02-03 21:00:00 37985 21 0.00 0.00 0.00 0.0 0.00	74.1764080765	0.00	0.00	Clear(fair)	True	False	0.00
2011-02-03 22:00:00 37986 22 0.00 0.00 0.00 0.0 0.00	74.1764080765	0.00	0.00	Clear(fair)	True	False	0.00
2011-02-03 23:00:00 37987 23 0.00 0.00 0.00 0.0 0.00	74.1764080765	0.00	0.00	Clear(fair)	True	False	0.00
2011-02-04 00:00:00 37988 0 0.00 0.00 0.00 0.0 0.00	74.1764080765	0.00	0.00	Clear(fair)	True	False	0.00
2011-02-04 01:00:00 37989 1 0.00 0.00 0.00 0.0 0.00	74.1764080765	0.00	0.00	Clear(fair)	True	False	0.00
2011-02-04 02:00:00 37990 2 0.00 0.00 0.00 0.0 0.00	74.1764080765	0.00	0.00	Clear(fair)	True	False	0.00
2011-02-04 03:00:00 37991 3 0.00 0.00 0.00 0.0 0.00	74.1764080765	0.00	0.00	Mostly_Clear(fair)	False	False	0.00
2011-02-04 04:00:00 37992 4 0.00 0.00 0.00 0.0 0.00	74.1764080765	0.00	0.00	Mostly_Clear(fair)	False	False	0.00
2011-02-04 05:00:00 37993 5 0.00 0.00 0.00 0.0 0.00	74.1764080765	0.00	0.00	Mostly_Clear(fair)	False	False	0.00
2011-02-04 06:00:00 37994 6 0.00 0.00 0.00 0.0 0.00	74.1764080765	0.00	0.00	Clear(fair)	True	False	0.00
