2011-01-01 19:00:00 1706 19 0.00 0.00 0.00 0.0 0.00	41.5656731084	0.00	0.00	Cloudy(cloudy)	True	False	0.00
2011-01-01 20:00:00 1707 20 0.00 0.00 0.00 0.0 0.00	41.5656731084	0.00	0.00	Cloudy(cloudy)	True	False	0.00
2011-01-01 21:00:00 1708 21 0.00 0.00 0.00 0.0 0.00	41.5656731084	0.00	0.00	Cloudy(cloudy)	True	False	0.00
2011-01-01 22:00:00 1709 22 0.00 0.00 0.00 0.0 0.00	0.0	0.00	0.00	Showers(cloudy)	True	False	0.00
2011-01-01 23:00:00 1710 23 0.00 0.00 0.00 0.0 0.00	41.5656731084	0.00	0.00	Cloudy(cloudy)	True	False	0.00
2011-01-02 00:00:00 1711 0 0.00 0.00 0.00 0.0 0.00	41.5656731084	0.00	0.00	Cloudy(cloudy)	True	False	0.00
2011-01-02 01:00:00 1712 1 0.00 0.00 0.00 0.0 0.00	0.0	0.00	0.00	Showers(light_rain)	True	False	0.00
2011-01-02 02:00:00 1713 2 0.00 0.00 0.00 0.0 0.00	0.0	0.00	0.00	Showers(cloudy)	True	False	0.00
2011-01-02 03:00:00 1714 3 0.00 0.00 0.00 0.0 0.00	0.0	0.00	0.00	Few_Showers(fog)	True	False	0.00
2011-01-02 04:00:00 1715 4 0.00 0.00 0.00 0.0 0.00	0.0	0.00	0.00	Few_Showers(fog)	True	False	0.00
2011-01-02 05:00:00 1716 5 0.00 0.00 0.00 0.0 0.00	0.0	0.00	0.00	Few_Showers(fog)	True	False	0.00
2011-01-02 06:00:00 1717 6 0.00 0.00 0.00 0.0 0.00	0.0	0.00	0.00	Few_Showers(fog)	True	False	0.00
2011-01-02 07:00:00 1718 7 0.00 0.00 0.00 0.0 24.50	0.0	0.00	0.00	Few_Showers(fog)	True	False	0.00
2011-01-02 08:00:00 1719 8 0.00 0.00 0.00 10.5 305.30	0.0	0.00	10.50	Few_Showers(fog)	True	False	10.50
2011-01-02 09:00:00 1720 9 271.55 271.55 271.55 31.3 653.30	41.5656731084	271.55	31.30	Cloudy(fog)	True	False	31.30
2011-01-02 10:00:00 1721 10 291.61 291.61 291.61 137.1 891.50	32.7098919368	291.61	137.10	Cloudy(fog)	True	False	137.10
2011-01-02 11:00:00 1722 11 314.80 314.80 314.80 222.3 962.40	32.7098919368	314.80	222.30	Cloudy(cloudy)	True	False	222.30
2011-01-02 12:00:00 1723 12 526.50 526.50 526.50 364.9 998.30	52.7396574176	526.50	364.90	Mostly_Cloudy(light_rain)	True	False	364.90
2011-01-02 13:00:00 1724 13 437.05 437.05 437.05 136.2 828.70	52.7396574176	437.05	136.20	Mostly_Cloudy(cloudy)	True	False	136.20
2011-01-02 14:00:00 1725 14 328.94 328.94 328.94 63.7 623.70	52.7396574176	328.94	63.70	Mostly_Cloudy(light_rain)	True	False	63.70
2011-01-02 15:00:00 1726 15 254.35 254.35 254.35 13.0 313.50	81.1329220415	254.35	13.00	Partly_Cloudy(cloudy)	True	False	13.00
2011-01-02 16:00:00 1727 16 30.70 30.70 30.70 0.0 43.20	71.0648148148	30.70	0.00	Partly_Cloudy(cloudy)	True	False	0.00
2011-01-02 17:00:00 1728 17 0.00 0.00 0.00 0.0 0.00	71.0648148148	0.00	0.00	Partly_Cloudy(light_rain)	True	False	0.00
2011-01-02 18:00:00 1729 18 0.00 0.00 0.00 0.0 0.00	71.0648148148	0.00	0.00	Partly_Cloudy(cloudy)	True	False	0.00
2011-01-02 19:00:00 1730 19 0.00 0.00 0.00 0.0 0.00	71.0648148148	0.00	0.00	Partly_Cloudy(cloudy)	True	False	0.00
2011-01-02 20:00:00 1731 20 0.00 0.00 0.00 0.0 0.00	71.0648148148	0.00	0.00	Partly_Cloudy(mostly_cloudy)	True	False	0.00
2011-01-02 21:00:00 1732 21 0.00 0.00 0.00 0.0 0.00	71.0648148148	0.00	0.00	Mostly_Clear(fair)	False	False	0.00
2011-01-02 22:00:00 1733 22 0.00 0.00 0.00 0.0 0.00	71.0648148148	0.00	0.00	Mostly_Clear(fair)	False	False	0.00
2011-01-02 23:00:00 1734 23 0.00 0.00 0.00 0.0 0.00	71.0648148148	0.00	0.00	Mostly_Clear(fair)	False	False	0.00
2011-01-03 00:00:00 1735 0 0.00 0.00 0.00 0.0 0.00	94.532627866	0.00	0.00	Clear(fair)	True	False	0.00
2011-01-03 01:00:00 1736 1 0.00 0.00 0.00 0.0 0.00	94.532627866	0.00	0.00	Clear(fair)	True	False	0.00
2011-01-03 02:00:00 1737 2 0.00 0.00 0.00 0.0 0.00	94.532627866	0.00	0.00	Clear(fair)	True	False	0.00
2011-01-03 03:00:00 1738 3 0.00 0.00 0.00 0.0 0.00	94.532627866	0.00	0.00	Clear(fair)	True	False	0.00
2011-01-03 04:00:00 1739 4 0.00 0.00 0.00 0.0 0.00	94.532627866	0.00	0.00	Clear(fair)	True	False	0.00
2011-01-03 05:00:00 1740 5 0.00 0.00 0.00 0.0 0.00	94.532627866	0.00	0.00	Clear(fair)	True	False	0.00
2011-01-03 06:00:00 1741 6 0.00 0.00 0.00 0.0 0.00	94.532627866	0.00	0.00	Clear(fair)	True	False	0.00
2011-01-03 07:00:00 1742 7 23.16 23.16 23.16 20.3 24.50	94.532627866	23.16	20.30	Clear(fair)	True	False	20.30
2011-01-03 08:00:00 1743 8 288.61 288.61 288.61 287.1 305.30	94.532627866	288.61	287.10	Sunny(fair)	True	False	287.10
2011-01-03 09:00:00 1744 9 617.58 617.58 617.58 627.3 653.30	94.532627866	617.58	627.30	Sunny(fair)	True	False	627.30
2011-01-03 10:00:00 1745 10 840.60 840.60 840.60 818.1 891.50	94.2902934989	840.60	818.10	Sunny(fair)	True	False	818.10
2011-01-03 11:00:00 1746 11 907.45 907.45 907.45 919.3 962.40	94.2902934989	907.45	919.30	Sunny(fair)	True	False	919.30
2011-01-03 12:00:00 1747 12 941.30 941.30 941.30 915.9 998.30	94.2902934989	941.30	915.90	Sunny(fair)	True	False	915.90
2011-01-03 13:00:00 1748 13 781.38 781.38 781.38 783.1 828.70	94.2902934989	781.38	783.10	Sunny(fair)	True	False	783.10
2011-01-03 14:00:00 1749 14 588.09 588.09 588.09 571.7 623.70	94.2902934989	588.09	571.70	Sunny(fair)	True	False	571.70
2011-01-03 15:00:00 1750 15 295.60 295.60 295.60 236.0 313.50	94.2902934989	295.60	236.00	Sunny(fair)	True	False	236.00
2011-01-03 16:00:00 1751 16 40.84 40.84 40.84 14.9 43.20	94.532627866	40.84	14.90	Sunny(fair)	True	False	14.90
2011-01-03 17:00:00 1752 17 0.00 0.00 0.00 0.0 0.00	94.532627866	0.00	0.00	Clear(fair)	True	False	0.00
2011-01-03 18:00:00 1753 18 0.00 0.00 0.00 0.0 0.00	94.532627866	0.00	0.00	Clear(fair)	True	False	0.00
