2011-01-04 23:00:00 5237 23 0.00 0.00 0.00 0.0 0.00	71.0648148148	0.00	0.00	Partly_Cloudy(partly_cloudy)	True	False	0.00
2011-01-05 00:00:00 5238 0 0.00 0.00 0.00 0.0 0.00	71.0648148148	0.00	0.00	Partly_Cloudy(fair)	True	False	0.00
2011-01-05 01:00:00 5239 1 0.00 0.00 0.00 0.0 0.00	71.0648148148	0.00	0.00	Mostly_Clear(fair)	False	False	0.00
2011-01-05 02:00:00 5240 2 0.00 0.00 0.00 0.0 0.00	71.0648148148	0.00	0.00	Partly_Cloudy(fair)	True	False	0.00
2011-01-05 03:00:00 5241 3 0.00 0.00 0.00 0.0 0.00	71.0648148148	0.00	0.00	Mostly_Clear(cloudy)	False	False	0.00
2011-01-05 04:00:00 5242 4 0.00 0.00 0.00 0.0 0.00	71.0648148148	0.00	0.00	Mostly_Clear(fair)	False	False	0.00
2011-01-05 05:00:00 5243 5 0.00 0.00 0.00 0.0 0.00	71.0648148148	0.00	0.00	Mostly_Clear(fair)	False	False	0.00
2011-01-05 06:00:00 5244 6 0.00 0.00 0.00 0.0 0.00	92.7265170407	0.00	0.00	Clear(partly_cloudy)	True	False	0.00
2011-01-05 07:00:00 5245 7 22.72 22.72 22.72 20.0 24.50	92.7265170407	22.72	20.00	Clear(fair)	True	False	20.00
2011-01-05 08:00:00 5246 8 283.09 283.09 283.09 277.6 305.30	92.7265170407	283.09	277.60	Sunny(fair)	True	False	277.60
2011-01-05 09:00:00 5247 9 605.78 605.78 605.78 618.2 653.30	92.7265170407	605.78	618.20	Sunny(fair)	True	False	618.20
2011-01-05 10:00:00 5248 10 826.66 826.66 826.66 804.8 891.50	92.7265170407	826.66	804.80	Sunny(fair)	True	False	804.80
2011-01-05 11:00:00 5249 11 892.40 892.40 892.40 753.4 962.40	92.7265170407	892.40	753.40	Sunny(fair)	True	False	753.40
2011-01-05 12:00:00 5250 12 925.69 925.69 925.69 857.7 998.30	92.7265170407	925.69	857.70	Sunny(fair)	True	False	857.70
2011-01-05 13:00:00 5251 13 768.42 768.42 768.42 649.9 828.70	92.7265170407	768.42	649.90	Sunny(fair)	True	False	649.90
2011-01-05 14:00:00 5252 14 578.34 578.34 578.34 308.4 623.70	92.7265170407	578.34	308.40	Sunny(partly_cloudy)	True	False	308.40
2011-01-05 15:00:00 5253 15 299.60 299.60 299.60 236.3 323.10	92.7265170407	299.60	236.30	Sunny(mostly_cloudy)	True	False	236.30
2011-01-05 16:00:00 5254 16 40.06 40.06 40.06 20.1 43.20	92.7265170407	40.06	20.10	Sunny(fair)	True	False	20.10
2011-01-05 17:00:00 5255 17 0.00 0.00 0.00 0.0 0.00	92.7265170407	0.00	0.00	Clear(fair)	True	False	0.00
2011-01-05 18:00:00 5256 18 0.00 0.00 0.00 0.0 0.00	92.7265170407	0.00	0.00	Clear(mostly_cloudy)	True	False	0.00
2011-01-05 19:00:00 5257 19 0.00 0.00 0.00 0.0 0.00	92.7265170407	0.00	0.00	Clear(mostly_cloudy)	True	False	0.00
2011-01-05 20:00:00 5258 20 0.00 0.00 0.00 0.0 0.00	92.7265170407	0.00	0.00	Clear(fair)	True	False	0.00
2011-01-05 21:00:00 5259 21 0.00 0.00 0.00 0.0 0.00	71.0648148148	0.00	0.00	Partly_Cloudy(fair)	True	False	0.00
2011-01-05 22:00:00 5260 22 0.00 0.00 0.00 0.0 0.00	71.0648148148	0.00	0.00	Partly_Cloudy(fair)	True	False	0.00
2011-01-05 23:00:00 5261 23 0.00 0.00 0.00 0.0 0.00	71.0648148148	0.00	0.00	Partly_Cloudy(fair)	True	False	0.00
2011-01-06 00:00:00 5262 0 0.00 0.00 0.00 0.0 0.00	71.0648148148	0.00	0.00	Partly_Cloudy(fair)	True	False	0.00
2011-01-06 01:00:00 5263 1 0.00 0.00 0.00 0.0 0.00	71.0648148148	0.00	0.00	Partly_Cloudy(fair)	True	False	0.00
2011-01-06 02:00:00 5264 2 0.00 0.00 0.00 0.0 0.00	71.0648148148	0.00	0.00	Partly_Cloudy(fair)	True	False	0.00
2011-01-06 03:00:00 5265 3 0.00 0.00 0.00 0.0 0.00	71.0648148148	0.00	0.00	Partly_Cloudy(fair)	True	False	0.00
2011-01-06 04:00:00 5266 4 0.00 0.00 0.00 0.0 0.00	71.0648148148	0.00	0.00	Partly_Cloudy(fair)	True	False	0.00
2011-01-06 05:00:00 5267 5 0.00 0.00 0.00 0.0 0.00	71.0648148148	0.00	0.00	Partly_Cloudy(fair)	True	False	0.00
2011-01-06 06:00:00 5268 6 0.00 0.00 0.00 0.0 0.00	49.5642592407	0.00	0.00	Mostly_Cloudy(fair)	True	False	0.00
2011-01-06 07:00:00 5269 7 12.14 12.14 12.14 18.7 24.50	49.5642592407	12.14	18.70	Mostly_Cloudy(fair)	True	False	18.70
2011-01-06 08:00:00 5270 8 151.32 151.32 151.32 131.6 305.30	49.5642592407	151.32	131.60	Mostly_Cloudy(partly_cloudy)	True	False	131.60
2011-01-06 09:00:00 5271 9 275.60 275.60 275.60 299.3 653.30	42.1862011638	275.60	299.30	Cloudy(cloudy)	True	False	299.30
2011-01-06 10:00:00 5272 10 376.09 376.09 376.09 638.4 891.50	42.1862011638	376.09	638.40	Cloudy(mostly_cloudy)	True	False	638.40
2011-01-06 11:00:00 5273 11 406.00 406.00 406.00 381.2 962.40	42.1862011638	406.00	381.20	Cloudy(cloudy)	True	False	381.20
2011-01-06 12:00:00 5274 12 421.14 421.14 421.14 587.4 998.30	42.1862011638	421.14	587.40	Cloudy(fair)	True	False	587.40
2011-01-06 13:00:00 5275 13 349.60 349.60 349.60 654.8 828.70	42.1862011638	349.60	654.80	Cloudy(mostly_cloudy)	True	False	654.80
2011-01-06 14:00:00 5276 14 263.12 263.12 263.12 524.9 623.70	42.1862011638	263.12	524.90	Cloudy(fair)	True	False	524.90
2011-01-06 15:00:00 5277 15 136.30 136.30 136.30 219.1 323.10	42.1862011638	136.30	219.10	Cloudy(fair)	True	False	219.10
2011-01-06 16:00:00 5278 16 18.22 18.22 18.22 21.2 43.20	42.1862011638	18.22	21.20	Cloudy(fair)	True	False	21.20
2011-01-06 17:00:00 5279 17 0.00 0.00 0.00 0.0 0.00	42.1862011638	0.00	0.00	Cloudy(fair)	True	False	0.00
2011-01-06 18:00:00 5280 18 0.00 0.00 0.00 0.0 0.00	49.5642592407	0.00	0.00	Mostly_Cloudy(fair)	True	False	0.00
2011-01-06 19:00:00 5281 19 0.00 0.00 0.00 0.0 0.00	49.5642592407	0.00	0.00	Mostly_Cloudy(cloudy)	True	False	0.00
2011-01-06 20:00:00 5282 20 0.00 0.00 0.00 0.0 0.00	49.5642592407	0.00	0.00	Mostly_Cloudy(cloudy)	True	False	0.00
2011-01-06 21:00:00 5283 21 0.00 0.00 0.00 0.0 0.00	49.5642592407	0.00	0.00	Mostly_Cloudy(cloudy)	True	False	0.00
2011-01-06 22:00:00 5284 22 0.00 0.00 0.00 0.0 0.00	49.5642592407	0.00	0.00	Mostly_Cloudy(cloudy)	True	False	0.00
2011-01-06 23:00:00 5285 23 0.00 0.00 0.00 0.0 0.00	49.5642592407	0.00	0.00	Mostly_Cloudy(cloudy)	True	False	0.00
