2011-01-19 07:00:00 21795 7 6.39 6.39 6.39 0.5 54.10	11.8093997612	6.39	0.50	Foggy(cloudy)	True	False	0.50
2011-01-19 08:00:00 21796 8 118.41 118.41 118.41 28.1 391.80	30.2222659323	118.41	28.10	Cloudy(fog)	True	False	28.10
2011-01-19 09:00:00 21797 9 211.37 211.37 211.37 122.9 699.40	30.2222659323	211.37	122.90	Cloudy(cloudy)	True	False	122.90
2011-01-19 10:00:00 21798 10 275.59 275.59 275.59 384.8 898.90	30.6589504143	275.59	384.80	Cloudy(cloudy)	True	False	384.80
2011-01-19 11:00:00 21799 11 456.91 456.91 456.91 830.0 1016.80	44.9365027678	456.91	830.00	Mostly_Cloudy(cloudy)	True	False	830.00
2011-01-19 12:00:00 21800 12 315.08 315.08 315.08 454.8 1027.70	30.6589504143	315.08	454.80	Cloudy(fair)	True	False	454.80
2011-01-19 13:00:00 21801 13 414.00 414.00 414.00 278.6 921.30	44.9365027678	414.00	278.60	Mostly_Cloudy(cloudy)	True	False	278.60
2011-01-19 14:00:00 21802 14 341.65 341.65 341.65 314.4 760.30	44.9365027678	341.65	314.40	Mostly_Cloudy(mostly_cloudy)	True	False	314.40
2011-01-19 15:00:00 21803 15 201.14 201.14 201.14 71.3 447.60	44.9365027678	201.14	71.30	Mostly_Cloudy(cloudy)	True	False	71.30
2011-01-19 16:00:00 21804 16 36.00 36.00 36.00 25.1 101.90	35.3281599369	36.00	25.10	Mostly_Cloudy(cloudy)	True	False	25.10
2011-01-19 17:00:00 21805 17 0.35 0.35 0.35 0.0 1.00	35.3281599369	0.35	0.00	Mostly_Cloudy(cloudy)	True	False	0.00
2011-01-19 18:00:00 21806 18 0.00 0.00 0.00 0.0 0.00	35.3281599369	0.00	0.00	Mostly_Cloudy(cloudy)	True	False	0.00
2011-01-19 19:00:00 21807 19 0.00 0.00 0.00 0.0 0.00	35.3281599369	0.00	0.00	Mostly_Cloudy(cloudy)	True	False	0.00
2011-01-19 20:00:00 21808 20 0.00 0.00 0.00 0.0 0.00	35.3281599369	0.00	0.00	Mostly_Cloudy(cloudy)	True	False	0.00
2011-01-19 21:00:00 21809 21 0.00 0.00 0.00 0.0 0.00	52.0302592057	0.00	0.00	Partly_Cloudy(cloudy)	True	False	0.00
2011-01-19 22:00:00 21810 22 0.00 0.00 0.00 0.0 0.00	52.0302592057	0.00	0.00	Partly_Cloudy(cloudy)	True	False	0.00
2011-01-19 23:00:00 21811 23 0.00 0.00 0.00 0.0 0.00	52.0302592057	0.00	0.00	Partly_Cloudy(cloudy)	True	False	0.00
2011-01-20 00:00:00 21812 0 0.00 0.00 0.00 0.0 0.00	85.3751914242	0.00	0.00	Clear(cloudy)	True	False	0.00
2011-01-20 01:00:00 21813 1 0.00 0.00 0.00 0.0 0.00	85.3751914242	0.00	0.00	Clear(cloudy)	True	False	0.00
2011-01-20 02:00:00 21814 2 0.00 0.00 0.00 0.0 0.00	85.3751914242	0.00	0.00	Clear(cloudy)	True	False	0.00
2011-01-20 03:00:00 21815 3 0.00 0.00 0.00 0.0 0.00	85.3751914242	0.00	0.00	Clear(cloudy)	True	False	0.00
2011-01-20 04:00:00 21816 4 0.00 0.00 0.00 0.0 0.00	85.3751914242	0.00	0.00	Clear(cloudy)	True	False	0.00
2011-01-20 05:00:00 21817 5 0.00 0.00 0.00 0.0 0.00	85.3751914242	0.00	0.00	Clear(cloudy)	True	False	0.00
2011-01-20 06:00:00 21818 6 0.00 0.00 0.00 0.0 0.00	85.3751914242	0.00	0.00	Clear(cloudy)	True	False	0.00
2011-01-20 07:00:00 21819 7 46.19 46.19 46.19 26.0 54.10	85.3751914242	46.19	26.00	Clear(mostly_cloudy)	True	False	26.00
2011-01-20 08:00:00 21820 8 334.50 334.50 334.50 132.4 391.80	85.3751914242	334.50	132.40	Sunny(mostly_cloudy)	True	False	132.40
2011-01-20 09:00:00 21821 9 363.90 363.90 363.90 466.6 699.40	52.0302592057	363.90	466.60	Partly_Cloudy(fair)	True	False	466.60
2011-01-20 10:00:00 21822 10 629.59 629.59 629.59 594.7 898.90	70.0402144772	629.59	594.70	Partly_Cloudy(fair)	True	False	594.70
2011-01-20 11:00:00 21823 11 712.17 712.17 712.17 543.8 1016.80	70.0402144772	712.17	543.80	Partly_Cloudy(fair)	True	False	543.80
2011-01-20 12:00:00 21824 12 461.81 461.81 461.81 739.3 1027.70	44.9365027678	461.81	739.30	Mostly_Cloudy(fair)	True	False	739.30
2011-01-20 13:00:00 21825 13 414.00 414.00 414.00 606.7 921.30	44.9365027678	414.00	606.70	Mostly_Cloudy(fair)	True	False	606.70
2011-01-20 14:00:00 21826 14 341.65 341.65 341.65 304.2 760.30	44.9365027678	341.65	304.20	Mostly_Cloudy(fair)	True	False	304.20
2011-01-20 15:00:00 21827 15 201.14 201.14 201.14 201.0 447.60	44.9365027678	201.14	201.00	Mostly_Cloudy(partly_cloudy)	True	False	201.00
2011-01-20 16:00:00 21828 16 36.00 36.00 36.00 35.8 101.90	35.3281599369	36.00	35.80	Mostly_Cloudy(fair)	True	False	35.80
2011-01-20 17:00:00 21829 17 0.35 0.35 0.35 0.0 1.00	35.3281599369	0.35	0.00	Mostly_Cloudy(fair)	True	False	0.00
2011-01-20 18:00:00 21830 18 0.00 0.00 0.00 0.0 0.00	30.2222659323	0.00	0.00	Cloudy(fair)	True	False	0.00
2011-01-20 19:00:00 21831 19 0.00 0.00 0.00 0.0 0.00	30.2222659323	0.00	0.00	Cloudy(mostly_cloudy)	True	False	0.00
2011-01-20 20:00:00 21832 20 0.00 0.00 0.00 0.0 0.00	30.2222659323	0.00	0.00	Cloudy(cloudy)	True	False	0.00
2011-01-20 21:00:00 21833 21 0.00 0.00 0.00 0.0 0.00	4.67237735009	0.00	0.00	Few_Snow_Showers(cloudy)	True	False	0.00
2011-01-20 22:00:00 21834 22 0.00 0.00 0.00 0.0 0.00	4.67237735009	0.00	0.00	Few_Snow_Showers(cloudy)	True	False	0.00
2011-01-20 23:00:00 21835 23 0.00 0.00 0.00 0.0 0.00	4.67237735009	0.00	0.00	Few_Snow_Showers(cloudy)	True	False	0.00
2011-01-21 00:00:00 21836 0 0.00 0.00 0.00 0.0 0.00	20.0578718927	0.00	0.00	Snow(mostly_cloudy)	True	False	0.00
2011-01-21 01:00:00 21837 1 0.00 0.00 0.00 0.0 0.00	20.0578718927	0.00	0.00	Snow(cloudy)	True	False	0.00
2011-01-21 02:00:00 21838 2 0.00 0.00 0.00 0.0 0.00	20.0578718927	0.00	0.00	Snow(snow)	True	False	0.00
2011-01-21 03:00:00 21839 3 0.00 0.00 0.00 0.0 0.00	20.0578718927	0.00	0.00	Snow(snow)	True	False	0.00
2011-01-21 04:00:00 21840 4 0.00 0.00 0.00 0.0 0.00	20.0578718927	0.00	0.00	Snow(light_snow)	True	False	0.00
2011-01-21 05:00:00 21841 5 0.00 0.00 0.00 0.0 0.00	20.0578718927	0.00	0.00	Snow(light_snow)	True	False	0.00
2011-01-21 06:00:00 21842 6 0.00 0.00 0.00 0.0 0.00	20.0578718927	0.00	0.00	Snow(light_snow)	True	False	0.00
2011-01-21 07:00:00 21843 7 10.85 10.85 10.85 0.0 54.10	20.0578718927	10.85	0.00	Snow(cloudy)	True	False	0.00
