2011-01-24 19:00:00 28208 19 0.00 0.00 0.00 0.0 0.00	46.9491073808	0.00	0.00	Partly_Cloudy(cloudy)	True	False	0.00
2011-01-24 20:00:00 28209 20 0.00 0.00 0.00 0.0 0.00	28.547561867	0.00	0.00	Mostly_Cloudy(cloudy)	True	False	0.00
2011-01-24 21:00:00 28210 21 0.00 0.00 0.00 0.0 0.00	1.41220357048	0.00	0.00	Few_Snow_Showers(cloudy)	True	False	0.00
2011-01-24 22:00:00 28211 22 0.00 0.00 0.00 0.0 0.00	28.547561867	0.00	0.00	Mostly_Cloudy(mostly_cloudy)	True	False	0.00
2011-01-24 23:00:00 28212 23 0.00 0.00 0.00 0.0 0.00	28.547561867	0.00	0.00	Mostly_Cloudy(cloudy)	True	False	0.00
2011-01-25 00:00:00 28213 0 0.00 0.00 0.00 0.0 0.00	20.4952380952	0.00	0.00	Cloudy(cloudy)	True	False	0.00
2011-01-25 01:00:00 28214 1 0.00 0.00 0.00 0.0 0.00	20.4952380952	0.00	0.00	Flurries(cloudy)	False	False	0.00
2011-01-25 02:00:00 28215 2 0.00 0.00 0.00 0.0 0.00	20.4952380952	0.00	0.00	Flurries(cloudy)	False	False	0.00
2011-01-25 03:00:00 28216 3 0.00 0.00 0.00 0.0 0.00	1.41220357048	0.00	0.00	Few_Snow_Showers(cloudy)	True	False	0.00
2011-01-25 04:00:00 28217 4 0.00 0.00 0.00 0.0 0.00	1.41220357048	0.00	0.00	Few_Snow_Showers(cloudy)	True	False	0.00
2011-01-25 05:00:00 28218 5 0.00 0.00 0.00 0.0 0.00	1.41220357048	0.00	0.00	Few_Snow_Showers(cloudy)	True	False	0.00
2011-01-25 06:00:00 28219 6 0.00 0.00 0.00 0.0 0.00	1.41220357048	0.00	0.00	Few_Snow_Showers(cloudy)	True	False	0.00
2011-01-25 07:00:00 28220 7 0.97 0.97 0.97 0.0 69.00	1.41220357048	0.97	0.00	Few_Snow_Showers(light_snow)	True	False	0.00
2011-01-25 08:00:00 28221 8 6.01 6.01 6.01 8.5 425.30	1.41220357048	6.01	8.50	Few_Snow_Showers(light_snow)	True	False	8.50
2011-01-25 09:00:00 28222 9 10.60 10.60 10.60 18.5 750.60	1.41220357048	10.60	18.50	Few_Snow_Showers(light_snow)	True	False	18.50
2011-01-25 10:00:00 28223 10 42.00 42.00 42.00 27.6 957.70	4.38550694372	42.00	27.60	Few_Snow_Showers(cloudy)	True	False	27.60
2011-01-25 11:00:00 28224 11 46.05 46.05 46.05 89.6 1050.00	4.38550694372	46.05	89.60	Few_Snow_Showers(cloudy)	True	False	89.60
2011-01-25 12:00:00 28225 12 46.29 46.29 46.29 242.2 1055.60	4.38550694372	46.29	242.20	Few_Snow_Showers(fair)	True	False	242.20
2011-01-25 13:00:00 28226 13 41.37 41.37 41.37 310.9 943.40	4.38550694372	41.37	310.90	Few_Snow_Showers(partly_cloudy)	True	False	310.90
2011-01-25 14:00:00 28227 14 33.58 33.58 33.58 246.0 765.70	4.38550694372	33.58	246.00	Few_Snow_Showers(fair)	True	False	246.00
2011-01-25 15:00:00 28228 15 157.58 157.58 157.58 89.3 476.50	33.0712391057	157.58	89.30	Mostly_Cloudy(mostly_cloudy)	True	False	89.30
2011-01-25 16:00:00 28229 16 36.54 36.54 36.54 12.8 128.00	28.547561867	36.54	12.80	Mostly_Cloudy(cloudy)	True	False	12.80
2011-01-25 17:00:00 28230 17 0.51 0.51 0.51 0.0 1.80	28.547561867	0.51	0.00	Mostly_Cloudy(cloudy)	True	False	0.00
2011-01-25 18:00:00 28231 18 0.00 0.00 0.00 0.0 0.00	46.9491073808	0.00	0.00	Partly_Cloudy(cloudy)	True	False	0.00
2011-01-25 19:00:00 28232 19 0.00 0.00 0.00 0.0 0.00	46.9491073808	0.00	0.00	Partly_Cloudy(cloudy)	True	False	0.00
2011-01-25 20:00:00 28233 20 0.00 0.00 0.00 0.0 0.00	46.9491073808	0.00	0.00	Partly_Cloudy(cloudy)	True	False	0.00
2011-01-25 21:00:00 28234 21 0.00 0.00 0.00 0.0 0.00	46.9491073808	0.00	0.00	Partly_Cloudy(cloudy)	True	False	0.00
2011-01-25 22:00:00 28235 22 0.00 0.00 0.00 0.0 0.00	46.9491073808	0.00	0.00	Partly_Cloudy(cloudy)	True	False	0.00
2011-01-25 23:00:00 28236 23 0.00 0.00 0.00 0.0 0.00	46.9491073808	0.00	0.00	Partly_Cloudy(cloudy)	True	False	0.00
2011-01-26 00:00:00 28237 0 0.00 0.00 0.00 0.0 0.00	28.547561867	0.00	0.00	Mostly_Cloudy(fair)	True	False	0.00
2011-01-26 01:00:00 28238 1 0.00 0.00 0.00 0.0 0.00	28.547561867	0.00	0.00	Mostly_Cloudy(fair)	True	False	0.00
2011-01-26 02:00:00 28239 2 0.00 0.00 0.00 0.0 0.00	28.547561867	0.00	0.00	Mostly_Cloudy(fair)	True	False	0.00
2011-01-26 03:00:00 28240 3 0.00 0.00 0.00 0.0 0.00	20.4952380952	0.00	0.00	Cloudy(fair)	True	False	0.00
2011-01-26 04:00:00 28241 4 0.00 0.00 0.00 0.0 0.00	20.4952380952	0.00	0.00	Cloudy(mostly_cloudy)	True	False	0.00
2011-01-26 05:00:00 28242 5 0.00 0.00 0.00 0.0 0.00	20.4952380952	0.00	0.00	Cloudy(mostly_cloudy)	True	False	0.00
2011-01-26 06:00:00 28243 6 0.00 0.00 0.00 0.0 0.00	20.4952380952	0.00	0.00	Cloudy(cloudy)	True	False	0.00
2011-01-26 07:00:00 28244 7 14.14 14.14 14.14 0.0 69.00	20.4952380952	14.14	0.00	Cloudy(Unkown)	True	False	0.00
2011-01-26 08:00:00 28245 8 87.17 87.17 87.17 0.0 425.30	20.4952380952	87.17	0.00	Cloudy(snow)	True	False	0.00
2011-01-26 09:00:00 28246 9 0.00 0.00 0.00 0.0 750.60	0.0	0.00	0.00	Snow_Shower(snow_and_fog)	True	False	0.00
2011-01-26 10:00:00 28247 10 0.00 0.00 0.00 0.1 957.70	0.0	0.00	0.10	Snow_Shower(heavy_snow)	True	False	0.10
2011-01-26 11:00:00 28248 11 0.00 0.00 0.00 0.4 1050.00	0.0	0.00	0.40	Snow_Shower(light_snow)	True	False	0.40
2011-01-26 12:00:00 28249 12 46.29 46.29 46.29 5.4 1055.60	4.38550694372	46.29	5.40	Rain_/_Snow_Showers(Unkown)	True	False	5.40
2011-01-26 13:00:00 28250 13 41.37 41.37 41.37 8.0 943.40	4.38550694372	41.37	8.00	Rain_/_Snow_Showers(Unkown)	True	False	8.00
2011-01-26 14:00:00 28251 14 33.58 33.58 33.58 5.3 765.70	4.38550694372	33.58	5.30	Rain_/_Snow_Showers(light_snow)	True	False	5.30
2011-01-26 15:00:00 28252 15 0.00 0.00 0.00 0.2 476.50	0.0	0.00	0.20	Snow_Shower(light_snow)	True	False	0.20
2011-01-26 16:00:00 28253 16 0.00 0.00 0.00 0.0 128.00	0.0	0.00	0.00	Snow_Shower(light_snow)	True	False	0.00
2011-01-26 17:00:00 28254 17 0.00 0.00 0.00 0.0 1.80	0.0	0.00	0.00	Snow_Shower(cloudy)	True	False	0.00
2011-01-26 18:00:00 28255 18 0.00 0.00 0.00 0.0 0.00	20.4952380952	0.00	0.00	Cloudy(wintry_mix)	True	False	0.00
