2011-01-04 14:00:00 4837 14 328.94 578.34 578.34 325.4 623.70	52.7396574176	578.34	325.40	Mostly_Cloudy(partly_cloudy)	True	False	325.40
2011-01-04 15:00:00 4838 15 258.50 168.57 168.57 118.4 323.10	80.0060102174	168.57	118.40	Partly_Cloudy(fair)	True	False	118.40
2011-01-04 16:00:00 4839 16 21.41 22.54 22.54 15.7 43.20	49.5642592407	22.54	15.70	Mostly_Cloudy(fair)	True	False	15.70
2011-01-04 17:00:00 4840 17 0.00 0.00 0.00 0.0 0.00	49.5642592407	0.00	0.00	Mostly_Cloudy(fair)	True	False	0.00
2011-01-04 18:00:00 4841 18 0.00 0.00 0.00 0.0 0.00	71.0648148148	0.00	0.00	Partly_Cloudy(fair)	True	False	0.00
2011-01-04 19:00:00 4842 19 0.00 0.00 0.00 0.0 0.00	71.0648148148	0.00	0.00	Partly_Cloudy(fair)	True	False	0.00
2011-01-04 20:00:00 4843 20 0.00 0.00 0.00 0.0 0.00	71.0648148148	0.00	0.00	Mostly_Clear(fair)	False	False	0.00
2011-01-04 21:00:00 4844 21 0.00 0.00 0.00 0.0 0.00	71.0648148148	0.00	0.00	Mostly_Clear(mostly_cloudy)	False	False	0.00
2011-01-04 22:00:00 4845 22 0.00 0.00 0.00 0.0 0.00	71.0648148148	0.00	0.00	Mostly_Clear(mostly_cloudy)	False	False	0.00
2011-01-04 23:00:00 4846 23 0.00 0.00 0.00 0.0 0.00	71.0648148148	0.00	0.00	Mostly_Clear(partly_cloudy)	False	False	0.00
2011-01-05 00:00:00 4847 0 0.00 0.00 0.00 0.0 0.00	92.7265170407	0.00	0.00	Clear(fair)	True	False	0.00
2011-01-05 01:00:00 4848 1 0.00 0.00 0.00 0.0 0.00	92.7265170407	0.00	0.00	Clear(fair)	True	False	0.00
2011-01-05 02:00:00 4849 2 0.00 0.00 0.00 0.0 0.00	92.7265170407	0.00	0.00	Clear(fair)	True	False	0.00
2011-01-05 03:00:00 4850 3 0.00 0.00 0.00 0.0 0.00	92.7265170407	0.00	0.00	Mostly_Clear(cloudy)	False	False	0.00
2011-01-05 04:00:00 4851 4 0.00 0.00 0.00 0.0 0.00	92.7265170407	0.00	0.00	Mostly_Clear(fair)	False	False	0.00
2011-01-05 05:00:00 4852 5 0.00 0.00 0.00 0.0 0.00	92.7265170407	0.00	0.00	Mostly_Clear(fair)	False	False	0.00
2011-01-05 06:00:00 4853 6 0.00 0.00 0.00 0.0 0.00	92.7265170407	0.00	0.00	Clear(partly_cloudy)	True	False	0.00
2011-01-05 07:00:00 4854 7 22.72 22.72 22.72 20.0 24.50	92.7265170407	22.72	20.00	Clear(fair)	True	False	20.00
2011-01-05 08:00:00 4855 8 283.09 283.09 283.09 277.6 305.30	92.7265170407	283.09	277.60	Sunny(fair)	True	False	277.60
2011-01-05 09:00:00 4856 9 605.78 605.78 605.78 618.2 653.30	92.7265170407	605.78	618.20	Sunny(fair)	True	False	618.20
2011-01-05 10:00:00 4857 10 826.66 826.66 826.66 804.8 891.50	92.7265170407	826.66	804.80	Sunny(fair)	True	False	804.80
2011-01-05 11:00:00 4858 11 892.40 892.40 892.40 753.4 962.40	92.7265170407	892.40	753.40	Sunny(fair)	True	False	753.40
2011-01-05 12:00:00 4859 12 925.69 925.69 925.69 857.7 998.30	92.7265170407	925.69	857.70	Sunny(fair)	True	False	857.70
2011-01-05 13:00:00 4860 13 768.42 768.42 768.42 649.9 828.70	92.7265170407	768.42	649.90	Sunny(fair)	True	False	649.90
2011-01-05 14:00:00 4861 14 578.34 578.34 578.34 308.4 623.70	92.7265170407	578.34	308.40	Sunny(partly_cloudy)	True	False	308.40
2011-01-05 15:00:00 4862 15 299.60 299.60 299.60 236.3 323.10	92.7265170407	299.60	236.30	Sunny(mostly_cloudy)	True	False	236.30
2011-01-05 16:00:00 4863 16 40.06 40.06 40.06 20.1 43.20	92.7265170407	40.06	20.10	Sunny(fair)	True	False	20.10
2011-01-05 17:00:00 4864 17 0.00 0.00 0.00 0.0 0.00	92.7265170407	0.00	0.00	Clear(fair)	True	False	0.00
2011-01-05 18:00:00 4865 18 0.00 0.00 0.00 0.0 0.00	92.7265170407	0.00	0.00	Clear(mostly_cloudy)	True	False	0.00
2011-01-05 19:00:00 4866 19 0.00 0.00 0.00 0.0 0.00	92.7265170407	0.00	0.00	Clear(mostly_cloudy)	True	False	0.00
2011-01-05 20:00:00 4867 20 0.00 0.00 0.00 0.0 0.00	92.7265170407	0.00	0.00	Clear(fair)	True	False	0.00
2011-01-05 21:00:00 4868 21 0.00 0.00 0.00 0.0 0.00	71.0648148148	0.00	0.00	Partly_Cloudy(fair)	True	False	0.00
2011-01-05 22:00:00 4869 22 0.00 0.00 0.00 0.0 0.00	71.0648148148	0.00	0.00	Partly_Cloudy(fair)	True	False	0.00
2011-01-05 23:00:00 4870 23 0.00 0.00 0.00 0.0 0.00	71.0648148148	0.00	0.00	Partly_Cloudy(fair)	True	False	0.00
2011-01-06 00:00:00 4871 0 0.00 0.00 0.00 0.0 0.00	71.0648148148	0.00	0.00	Partly_Cloudy(fair)	True	False	0.00
2011-01-06 01:00:00 4872 1 0.00 0.00 0.00 0.0 0.00	71.0648148148	0.00	0.00	Partly_Cloudy(fair)	True	False	0.00
2011-01-06 02:00:00 4873 2 0.00 0.00 0.00 0.0 0.00	71.0648148148	0.00	0.00	Partly_Cloudy(fair)	True	False	0.00
2011-01-06 03:00:00 4874 3 0.00 0.00 0.00 0.0 0.00	71.0648148148	0.00	0.00	Partly_Cloudy(fair)	True	False	0.00
2011-01-06 04:00:00 4875 4 0.00 0.00 0.00 0.0 0.00	71.0648148148	0.00	0.00	Partly_Cloudy(fair)	True	False	0.00
2011-01-06 05:00:00 4876 5 0.00 0.00 0.00 0.0 0.00	71.0648148148	0.00	0.00	Partly_Cloudy(fair)	True	False	0.00
2011-01-06 06:00:00 4877 6 0.00 0.00 0.00 0.0 0.00	49.5642592407	0.00	0.00	Mostly_Cloudy(fair)	True	False	0.00
2011-01-06 07:00:00 4878 7 12.14 12.14 12.14 18.7 24.50	49.5642592407	12.14	18.70	Mostly_Cloudy(fair)	True	False	18.70
2011-01-06 08:00:00 4879 8 151.32 151.32 151.32 131.6 305.30	49.5642592407	151.32	131.60	Mostly_Cloudy(partly_cloudy)	True	False	131.60
2011-01-06 09:00:00 4880 9 275.60 275.60 275.60 299.3 653.30	42.1862011638	275.60	299.30	Cloudy(cloudy)	True	False	299.30
2011-01-06 10:00:00 4881 10 376.09 376.09 376.09 638.4 891.50	42.1862011638	376.09	638.40	Cloudy(mostly_cloudy)	True	False	638.40
2011-01-06 11:00:00 4882 11 406.00 406.00 406.00 381.2 962.40	42.1862011638	406.00	381.20	Cloudy(cloudy)	True	False	381.20
2011-01-06 12:00:00 4883 12 421.14 421.14 421.14 587.4 998.30	42.1862011638	421.14	587.40	Flurries(fair)	False	False	587.40
2011-01-06 13:00:00 4884 13 349.60 349.60 349.60 654.8 828.70	42.1862011638	349.60	654.80	Flurries(mostly_cloudy)	False	False	654.80
