2011-01-18 21:00:00 21307 21 0.00 0.00 0.00 0.0 0.00	30.6589504143	0.00	0.00	Cloudy(cloudy)	True	False	0.00
2011-01-18 22:00:00 21308 22 0.00 0.00 0.00 0.0 0.00	30.6589504143	0.00	0.00	Cloudy(cloudy)	True	False	0.00
2011-01-18 23:00:00 21309 23 0.00 0.00 0.00 0.0 0.00	30.6589504143	0.00	0.00	Cloudy(cloudy)	True	False	0.00
2011-01-19 00:00:00 21310 0 0.00 0.00 0.00 0.0 0.00	30.6589504143	0.00	0.00	Cloudy(mostly_cloudy)	True	False	0.00
2011-01-19 01:00:00 21311 1 0.00 0.00 0.00 0.0 0.00	30.6589504143	0.00	0.00	Cloudy(fair)	True	False	0.00
2011-01-19 02:00:00 21312 2 0.00 0.00 0.00 0.0 0.00	30.6589504143	0.00	0.00	Cloudy(partly_cloudy)	True	False	0.00
2011-01-19 03:00:00 21313 3 0.00 0.00 0.00 0.0 0.00	9.32286555447	0.00	0.00	Freezing_Drizzle(mostly_cloudy)	True	False	0.00
2011-01-19 04:00:00 21314 4 0.00 0.00 0.00 0.0 0.00	9.32286555447	0.00	0.00	Freezing_Drizzle(light_rain)	True	False	0.00
2011-01-19 05:00:00 21315 5 0.00 0.00 0.00 0.0 0.00	9.32286555447	0.00	0.00	Freezing_Drizzle(light_rain)	True	False	0.00
2011-01-19 06:00:00 21316 6 0.00 0.00 0.00 0.0 0.00	20.0578718927	0.00	0.00	Snow_Shower(fog)	True	False	0.00
2011-01-19 07:00:00 21317 7 10.85 10.85 10.85 0.5 54.10	20.0578718927	10.85	0.50	Snow_Shower(cloudy)	True	False	0.50
2011-01-19 08:00:00 21318 8 78.59 78.59 78.59 28.1 391.80	20.0578718927	78.59	28.10	Snow_Shower(fog)	True	False	28.10
2011-01-19 09:00:00 21319 9 32.68 32.68 32.68 122.9 699.40	4.67237735009	32.68	122.90	Rain_/_Snow_Showers(cloudy)	True	False	122.90
2011-01-19 10:00:00 21320 10 241.97 241.97 241.97 384.8 898.90	26.9184847498	241.97	384.80	Rain_/_Snow_Showers(cloudy)	True	False	384.80
2011-01-19 11:00:00 21321 11 273.71 273.71 273.71 830.0 1016.80	26.9184847498	273.71	830.00	Rain_/_Snow_Showers(cloudy)	True	False	830.00
2011-01-19 12:00:00 21322 12 461.81 461.81 461.81 454.8 1027.70	44.9365027678	461.81	454.80	Mostly_Cloudy(fair)	True	False	454.80
2011-01-19 13:00:00 21323 13 414.00 414.00 414.00 278.6 921.30	44.9365027678	414.00	278.60	Mostly_Cloudy(cloudy)	True	False	278.60
2011-01-19 14:00:00 21324 14 341.65 341.65 341.65 314.4 760.30	44.9365027678	341.65	314.40	Mostly_Cloudy(mostly_cloudy)	True	False	314.40
2011-01-19 15:00:00 21325 15 313.50 313.50 313.50 71.3 447.60	70.0402144772	313.50	71.30	Partly_Cloudy(cloudy)	True	False	71.30
2011-01-19 16:00:00 21326 16 55.53 55.53 55.53 25.1 101.90	54.4944925256	55.53	25.10	Partly_Cloudy(cloudy)	True	False	25.10
2011-01-19 17:00:00 21327 17 0.54 0.54 0.54 0.0 1.00	54.4944925256	0.54	0.00	Partly_Cloudy(cloudy)	True	False	0.00
2011-01-19 18:00:00 21328 18 0.00 0.00 0.00 0.0 0.00	54.4944925256	0.00	0.00	Partly_Cloudy(cloudy)	True	False	0.00
2011-01-19 19:00:00 21329 19 0.00 0.00 0.00 0.0 0.00	54.4944925256	0.00	0.00	Partly_Cloudy(cloudy)	True	False	0.00
2011-01-19 20:00:00 21330 20 0.00 0.00 0.00 0.0 0.00	54.4944925256	0.00	0.00	Partly_Cloudy(cloudy)	True	False	0.00
2011-01-19 21:00:00 21331 21 0.00 0.00 0.00 0.0 0.00	54.4944925256	0.00	0.00	Mostly_Clear(cloudy)	False	False	0.00
2011-01-19 22:00:00 21332 22 0.00 0.00 0.00 0.0 0.00	54.4944925256	0.00	0.00	Mostly_Clear(cloudy)	False	False	0.00
2011-01-19 23:00:00 21333 23 0.00 0.00 0.00 0.0 0.00	54.4944925256	0.00	0.00	Mostly_Clear(cloudy)	False	False	0.00
2011-01-20 00:00:00 21334 0 0.00 0.00 0.00 0.0 0.00	85.3751914242	0.00	0.00	Clear(cloudy)	True	False	0.00
2011-01-20 01:00:00 21335 1 0.00 0.00 0.00 0.0 0.00	85.3751914242	0.00	0.00	Clear(cloudy)	True	False	0.00
2011-01-20 02:00:00 21336 2 0.00 0.00 0.00 0.0 0.00	85.3751914242	0.00	0.00	Clear(cloudy)	True	False	0.00
2011-01-20 03:00:00 21337 3 0.00 0.00 0.00 0.0 0.00	85.3751914242	0.00	0.00	Clear(cloudy)	True	False	0.00
2011-01-20 04:00:00 21338 4 0.00 0.00 0.00 0.0 0.00	85.3751914242	0.00	0.00	Clear(cloudy)	True	False	0.00
2011-01-20 05:00:00 21339 5 0.00 0.00 0.00 0.0 0.00	85.3751914242	0.00	0.00	Clear(cloudy)	True	False	0.00
2011-01-20 06:00:00 21340 6 0.00 0.00 0.00 0.0 0.00	85.3751914242	0.00	0.00	Mostly_Clear(cloudy)	False	False	0.00
2011-01-20 07:00:00 21341 7 46.19 46.19 46.19 26.0 54.10	85.3751914242	46.19	26.00	Mostly_Clear(mostly_cloudy)	False	False	26.00
2011-01-20 08:00:00 21342 8 334.50 334.50 334.50 132.4 391.80	85.3751914242	334.50	132.40	Mostly_Sunny(mostly_cloudy)	False	False	132.40
2011-01-20 09:00:00 21343 9 381.13 381.13 381.13 466.6 699.40	54.4944925256	381.13	466.60	Partly_Cloudy(fair)	True	False	466.60
2011-01-20 10:00:00 21344 10 629.59 629.59 629.59 594.7 898.90	70.0402144772	629.59	594.70	Partly_Cloudy(fair)	True	False	594.70
2011-01-20 11:00:00 21345 11 712.17 712.17 712.17 543.8 1016.80	70.0402144772	712.17	543.80	Partly_Cloudy(fair)	True	False	543.80
2011-01-20 12:00:00 21346 12 461.81 461.81 461.81 739.3 1027.70	44.9365027678	461.81	739.30	Mostly_Cloudy(fair)	True	False	739.30
2011-01-20 13:00:00 21347 13 414.00 414.00 414.00 606.7 921.30	44.9365027678	414.00	606.70	Mostly_Cloudy(fair)	True	False	606.70
2011-01-20 14:00:00 21348 14 341.65 341.65 341.65 304.2 760.30	44.9365027678	341.65	304.20	Mostly_Cloudy(fair)	True	False	304.20
2011-01-20 15:00:00 21349 15 201.14 201.14 201.14 201.0 447.60	44.9365027678	201.14	201.00	Mostly_Cloudy(partly_cloudy)	True	False	201.00
2011-01-20 16:00:00 21350 16 30.30 30.30 30.30 35.8 101.90	29.7345584482	30.30	35.80	Mostly_Cloudy(fair)	True	False	35.80
2011-01-20 17:00:00 21351 17 0.30 0.30 0.30 0.0 1.00	29.7345584482	0.30	0.00	Mostly_Cloudy(fair)	True	False	0.00
2011-01-20 18:00:00 21352 18 0.00 0.00 0.00 0.0 0.00	30.6589504143	0.00	0.00	Cloudy(fair)	True	False	0.00
2011-01-20 19:00:00 21353 19 0.00 0.00 0.00 0.0 0.00	30.6589504143	0.00	0.00	Cloudy(mostly_cloudy)	True	False	0.00
2011-01-20 20:00:00 21354 20 0.00 0.00 0.00 0.0 0.00	30.6589504143	0.00	0.00	Cloudy(cloudy)	True	False	0.00
2011-01-20 21:00:00 21355 21 0.00 0.00 0.00 0.0 0.00	30.6589504143	0.00	0.00	Cloudy(cloudy)	True	False	0.00
