2011-01-10 17:00:00 11844 17 0.00 0.00 0.00 0.0 0.00	91.4955424221	0.00	0.00	Mostly_Clear(fair)	False	False	0.00
2011-01-10 18:00:00 11845 18 0.00 0.00 0.00 0.0 0.00	52.469197636	0.00	0.00	Partly_Cloudy(fair)	True	False	0.00
2011-01-10 19:00:00 11846 19 0.00 0.00 0.00 0.0 0.00	52.469197636	0.00	0.00	Partly_Cloudy(Unkown)	True	False	0.00
2011-01-10 20:00:00 11847 20 0.00 0.00 0.00 0.0 0.00	52.469197636	0.00	0.00	Partly_Cloudy(fair)	True	False	0.00
2011-01-10 21:00:00 11848 21 0.00 0.00 0.00 0.0 0.00	52.469197636	0.00	0.00	Partly_Cloudy(fair)	True	False	0.00
2011-01-10 22:00:00 11849 22 0.00 0.00 0.00 0.0 0.00	52.469197636	0.00	0.00	Partly_Cloudy(fair)	True	False	0.00
2011-01-10 23:00:00 11850 23 0.00 0.00 0.00 0.0 0.00	52.469197636	0.00	0.00	Mostly_Clear(fair)	False	False	0.00
2011-01-11 00:00:00 11851 0 0.00 0.00 0.00 0.0 0.00	52.469197636	0.00	0.00	Partly_Cloudy(fair)	True	False	0.00
2011-01-11 01:00:00 11852 1 0.00 0.00 0.00 0.0 0.00	52.469197636	0.00	0.00	Partly_Cloudy(fair)	True	False	0.00
2011-01-11 02:00:00 11853 2 0.00 0.00 0.00 0.0 0.00	52.469197636	0.00	0.00	Partly_Cloudy(fair)	True	False	0.00
2011-01-11 03:00:00 11854 3 0.00 0.00 0.00 0.0 0.00	52.469197636	0.00	0.00	Partly_Cloudy(fair)	True	False	0.00
2011-01-11 04:00:00 11855 4 0.00 0.00 0.00 0.0 0.00	52.469197636	0.00	0.00	Partly_Cloudy(fair)	True	False	0.00
2011-01-11 05:00:00 11856 5 0.00 0.00 0.00 0.0 0.00	52.469197636	0.00	0.00	Partly_Cloudy(fair)	True	False	0.00
2011-01-11 06:00:00 11857 6 0.00 0.00 0.00 0.0 0.00	47.9166666667	0.00	0.00	Mostly_Cloudy(fair)	True	False	0.00
2011-01-11 07:00:00 11858 7 18.59 18.59 18.59 31.8 38.80	47.9166666667	18.59	31.80	Mostly_Cloudy(fair)	True	False	31.80
2011-01-11 08:00:00 11859 8 167.66 167.66 167.66 269.7 349.90	47.9166666667	167.66	269.70	Mostly_Cloudy(mostly_cloudy)	True	False	269.70
2011-01-11 09:00:00 11860 9 217.84 217.84 217.84 184.6 668.20	32.6014913007	217.84	184.60	Cloudy(fair)	True	False	184.60
2011-01-11 10:00:00 11861 10 290.64 290.64 290.64 239.2 891.50	32.6014913007	290.64	239.20	Cloudy(fair)	True	False	239.20
2011-01-11 11:00:00 11862 11 314.80 314.80 314.80 348.4 965.60	32.6014913007	314.80	348.40	Cloudy(fair)	True	False	348.40
2011-01-11 12:00:00 11863 12 325.46 325.46 325.46 364.9 998.30	32.6014913007	325.46	364.90	Cloudy(fair)	True	False	364.90
2011-01-11 13:00:00 11864 13 281.68 281.68 281.68 376.5 864.00	32.6014913007	281.68	376.50	Cloudy(partly_cloudy)	True	False	376.50
2011-01-11 14:00:00 11865 14 218.92 218.92 218.92 223.3 671.50	32.6014913007	218.92	223.30	Cloudy(partly_cloudy)	True	False	223.30
2011-01-11 15:00:00 11866 15 225.01 225.01 225.01 141.7 354.10	63.5443037975	225.01	141.70	Partly_Cloudy(partly_cloudy)	True	False	141.70
2011-01-11 16:00:00 11867 16 29.12 29.12 29.12 10.5 55.50	52.469197636	29.12	10.50	Partly_Cloudy(mostly_cloudy)	True	False	10.50
2011-01-11 17:00:00 11868 17 0.00 0.00 0.00 0.0 0.00	52.469197636	0.00	0.00	Partly_Cloudy(cloudy)	True	False	0.00
2011-01-11 18:00:00 11869 18 0.00 0.00 0.00 0.0 0.00	22.7103499628	0.00	0.00	Snow_Shower(cloudy)	True	False	0.00
2011-01-11 19:00:00 11870 19 0.00 0.00 0.00 0.0 0.00	22.7103499628	0.00	0.00	Snow_Shower(cloudy)	True	False	0.00
2011-01-11 20:00:00 11871 20 0.00 0.00 0.00 0.0 0.00	22.7103499628	0.00	0.00	Snow_Shower(light_snow)	True	False	0.00
2011-01-11 21:00:00 11872 21 0.00 0.00 0.00 0.0 0.00	22.7103499628	0.00	0.00	Snow(light_snow)	True	False	0.00
2011-01-11 22:00:00 11873 22 0.00 0.00 0.00 0.0 0.00	22.7103499628	0.00	0.00	Snow(light_snow)	True	False	0.00
2011-01-11 23:00:00 11874 23 0.00 0.00 0.00 0.0 0.00	22.7103499628	0.00	0.00	Snow(snow)	True	False	0.00
2011-01-12 00:00:00 11875 0 0.00 0.00 0.00 0.0 0.00	22.7103499628	0.00	0.00	Heavy_Snow(light_snow)	False	False	0.00
2011-01-12 01:00:00 11876 1 0.00 0.00 0.00 0.0 0.00	22.7103499628	0.00	0.00	Heavy_Snow(light_snow)	False	False	0.00
2011-01-12 02:00:00 11877 2 0.00 0.00 0.00 0.0 0.00	22.7103499628	0.00	0.00	Heavy_Snow(light_snow)	False	False	0.00
2011-01-12 03:00:00 11878 3 0.00 0.00 0.00 0.0 0.00	22.7103499628	0.00	0.00	Heavy_Snow(snow)	False	False	0.00
2011-01-12 04:00:00 11879 4 0.00 0.00 0.00 0.0 0.00	22.7103499628	0.00	0.00	Heavy_Snow(light_snow)	False	False	0.00
2011-01-12 05:00:00 11880 5 0.00 0.00 0.00 0.0 0.00	22.7103499628	0.00	0.00	Heavy_Snow(mostly_cloudy)	False	False	0.00
2011-01-12 06:00:00 11881 6 0.00 0.00 0.00 0.0 0.00	22.7103499628	0.00	0.00	Snow(cloudy)	True	False	0.00
2011-01-12 07:00:00 11882 7 8.81 8.81 8.81 0.0 38.80	22.7103499628	8.81	0.00	Snow(fair)	True	False	0.00
2011-01-12 08:00:00 11883 8 79.46 79.46 79.46 0.0 349.90	22.7103499628	79.46	0.00	Snow(fair)	True	False	0.00
2011-01-12 09:00:00 11884 9 151.75 151.75 151.75 0.5 668.20	22.7103499628	151.75	0.50	Snow_Shower(fair)	True	False	0.50
2011-01-12 10:00:00 11885 10 202.46 202.46 202.46 5.3 891.50	22.7103499628	202.46	5.30	Snow_Shower(haze)	True	False	5.30
2011-01-12 11:00:00 11886 11 219.29 219.29 219.29 8.0 965.60	22.7103499628	219.29	8.00	Snow_Shower(light_snow)	True	False	8.00
2011-01-12 12:00:00 11887 12 286.55 286.55 286.55 15.7 998.30	28.7037037037	286.55	15.70	Few_Snow_Showers(cloudy)	True	False	15.70
2011-01-12 13:00:00 11888 13 248.00 248.00 248.00 14.9 864.00	28.7037037037	248.00	14.90	Few_Snow_Showers(light_snow)	True	False	14.90
2011-01-12 14:00:00 11889 14 192.75 192.75 192.75 11.4 671.50	28.7037037037	192.75	11.40	Few_Snow_Showers(light_snow)	True	False	11.40
2011-01-12 15:00:00 11890 15 101.64 101.64 101.64 11.8 354.10	28.7037037037	101.64	11.80	Few_Snow_Showers(light_snow)	True	False	11.80
2011-01-12 16:00:00 11891 16 15.93 15.93 15.93 0.0 55.50	28.7037037037	15.93	0.00	Few_Snow_Showers(cloudy)	True	False	0.00
2011-01-12 17:00:00 11892 17 0.00 0.00 0.00 0.0 0.00	28.7037037037	0.00	0.00	Few_Snow_Showers(light_snow)	True	False	0.00
