2011-02-04 01:00:00 40042 1 0.00 0.00 0.00 0.0 0.00	73.8432601881	0.00	0.00	Clear(fair)	True	False	0.00
2011-02-04 02:00:00 40043 2 0.00 0.00 0.00 0.0 0.00	73.8432601881	0.00	0.00	Clear(fair)	True	False	0.00
2011-02-04 03:00:00 40044 3 0.00 0.00 0.00 0.0 0.00	73.8432601881	0.00	0.00	Mostly_Clear(fair)	False	False	0.00
2011-02-04 04:00:00 40045 4 0.00 0.00 0.00 0.0 0.00	43.8894792774	0.00	0.00	Partly_Cloudy(fair)	True	False	0.00
2011-02-04 05:00:00 40046 5 0.00 0.00 0.00 0.0 0.00	43.8894792774	0.00	0.00	Partly_Cloudy(fair)	True	False	0.00
2011-02-04 06:00:00 40047 6 0.00 0.00 0.00 0.0 0.00	43.8894792774	0.00	0.00	Partly_Cloudy(fair)	True	False	0.00
2011-02-04 07:00:00 40048 7 41.30 41.30 41.30 17.3 94.10	43.8894792774	41.30	17.30	Mostly_Clear(fair)	False	False	17.30
2011-02-04 08:00:00 40049 8 192.85 192.85 192.85 131.0 439.40	43.8894792774	192.85	131.00	Mostly_Sunny(fair)	False	False	131.00
2011-02-04 09:00:00 40050 9 554.27 554.27 554.27 263.7 750.60	73.8432601881	554.27	263.70	Sunny(fair)	True	False	263.70
2011-02-04 10:00:00 40051 10 806.30 806.30 806.30 334.7 957.70	84.1912916362	806.30	334.70	Sunny(fair)	True	False	334.70
2011-02-04 11:00:00 40052 11 884.01 884.01 884.01 413.7 1050.00	84.1912916362	884.01	413.70	Sunny(fair)	True	False	413.70
2011-02-04 12:00:00 40053 12 892.43 892.43 892.43 402.5 1060.00	84.1912916362	892.43	402.50	Sunny(fair)	True	False	402.50
2011-02-04 13:00:00 40054 13 813.79 813.79 813.79 316.4 966.60	84.1912916362	813.79	316.40	Sunny(fair)	True	False	316.40
2011-02-04 14:00:00 40055 14 671.43 671.43 671.43 336.5 797.50	84.1912916362	671.43	336.50	Sunny(fair)	True	False	336.50
2011-02-04 15:00:00 40056 15 271.67 271.67 271.67 175.7 514.80	52.7714285714	271.67	175.70	Partly_Cloudy(fair)	True	False	175.70
2011-02-04 16:00:00 40057 16 67.46 67.46 67.46 47.4 153.70	43.8894792774	67.46	47.40	Partly_Cloudy(fair)	True	False	47.40
2011-02-04 17:00:00 40058 17 4.39 4.39 4.39 0.3 10.00	43.8894792774	4.39	0.30	Partly_Cloudy(fair)	True	False	0.30
2011-02-04 18:00:00 40059 18 0.00 0.00 0.00 0.0 0.00	43.8894792774	0.00	0.00	Partly_Cloudy(fair)	True	False	0.00
2011-02-04 19:00:00 40060 19 0.00 0.00 0.00 0.0 0.00	43.8894792774	0.00	0.00	Partly_Cloudy(fair)	True	False	0.00
2011-02-04 20:00:00 40061 20 0.00 0.00 0.00 0.0 0.00	43.8894792774	0.00	0.00	Partly_Cloudy(fair)	True	False	0.00
2011-02-04 21:00:00 40062 21 0.00 0.00 0.00 0.0 0.00	24.0877742947	0.00	0.00	Mostly_Cloudy(fair)	True	False	0.00
2011-02-04 22:00:00 40063 22 0.00 0.00 0.00 0.0 0.00	24.0877742947	0.00	0.00	Mostly_Cloudy(fair)	True	False	0.00
2011-02-04 23:00:00 40064 23 0.00 0.00 0.00 0.0 0.00	24.0877742947	0.00	0.00	Mostly_Cloudy(fair)	True	False	0.00
2011-02-05 00:00:00 40065 0 0.00 0.00 0.00 0.0 0.00	21.862509992	0.00	0.00	Cloudy(fair)	True	False	0.00
2011-02-05 01:00:00 40066 1 0.00 0.00 0.00 0.0 0.00	21.862509992	0.00	0.00	Cloudy(fair)	True	False	0.00
2011-02-05 02:00:00 40067 2 0.00 0.00 0.00 0.0 0.00	21.862509992	0.00	0.00	Cloudy(cloudy)	True	False	0.00
2011-02-05 03:00:00 40068 3 0.00 0.00 0.00 0.0 0.00	0.124146492862	0.00	0.00	Snow_Shower(mostly_cloudy)	True	False	0.00
2011-02-05 04:00:00 40069 4 0.00 0.00 0.00 0.0 0.00	0.124146492862	0.00	0.00	Snow_Shower(cloudy)	True	False	0.00
2011-02-05 05:00:00 40070 5 0.00 0.00 0.00 0.0 0.00	0.124146492862	0.00	0.00	Snow_Shower(cloudy)	True	False	0.00
2011-02-05 06:00:00 40071 6 0.00 0.00 0.00 0.0 0.00	4.37735849057	0.00	0.00	Wintry_Mix(cloudy)	True	False	0.00
2011-02-05 07:00:00 40072 7 4.12 4.12 4.12 4.1 94.10	4.37735849057	4.12	4.10	Wintry_Mix(cloudy)	True	False	4.10
2011-02-05 08:00:00 40073 8 19.23 19.23 19.23 48.3 439.40	4.37735849057	19.23	48.30	Wintry_Mix(cloudy)	True	False	48.30
2011-02-05 09:00:00 40074 9 32.86 32.86 32.86 67.1 750.60	4.37735849057	32.86	67.10	Wintry_Mix(fog)	True	False	67.10
2011-02-05 10:00:00 40075 10 48.93 48.93 48.93 129.8 957.70	5.10878010878	48.93	129.80	Wintry_Mix(light_freezing_rain)	True	False	129.80
2011-02-05 11:00:00 40076 11 53.64 53.64 53.64 111.5 1050.00	5.10878010878	53.64	111.50	Wintry_Mix(fog)	True	False	111.50
2011-02-05 12:00:00 40077 12 54.15 54.15 54.15 78.9 1060.00	5.10878010878	54.15	78.90	Showers(wintry_mix)	True	False	78.90
2011-02-05 13:00:00 40078 13 49.38 49.38 49.38 77.4 966.60	5.10878010878	49.38	77.40	Showers(wintry_mix)	True	False	77.40
2011-02-05 14:00:00 40079 14 40.74 40.74 40.74 73.8 797.50	5.10878010878	40.74	73.80	Showers(wintry_mix)	True	False	73.80
2011-02-05 15:00:00 40080 15 12.36 12.36 12.36 33.2 514.80	2.4	12.36	33.20	Rain_/_Snow(light_rain)	True	False	33.20
2011-02-05 16:00:00 40081 16 2.17 2.17 2.17 7.7 153.70	1.41220357048	2.17	7.70	Rain_/_Snow(wintry_mix)	True	False	7.70
2011-02-05 17:00:00 40082 17 0.14 0.14 0.14 0.0 10.00	1.41220357048	0.14	0.00	Rain_/_Snow(fog)	True	False	0.00
2011-02-05 18:00:00 40083 18 0.00 0.00 0.00 0.0 0.00	1.41220357048	0.00	0.00	Rain_/_Snow_Showers(fog)	True	False	0.00
2011-02-05 19:00:00 40084 19 0.00 0.00 0.00 0.0 0.00	1.41220357048	0.00	0.00	Rain_/_Snow_Showers(fog)	True	False	0.00
2011-02-05 20:00:00 40085 20 0.00 0.00 0.00 0.0 0.00	1.41220357048	0.00	0.00	Rain_/_Snow_Showers(light_rain)	True	False	0.00
2011-02-05 21:00:00 40086 21 0.00 0.00 0.00 0.0 0.00	1.41220357048	0.00	0.00	Few_Snow_Showers(cloudy)	True	False	0.00
2011-02-05 22:00:00 40087 22 0.00 0.00 0.00 0.0 0.00	1.41220357048	0.00	0.00	Few_Snow_Showers(cloudy)	True	False	0.00
2011-02-05 23:00:00 40088 23 0.00 0.00 0.00 0.0 0.00	1.41220357048	0.00	0.00	Few_Snow_Showers(cloudy)	True	False	0.00
2011-02-06 00:00:00 40089 0 0.00 0.00 0.00 0.0 0.00	1.41220357048	0.00	0.00	Mostly_Clear(mostly_cloudy)	False	False	0.00
2011-02-06 01:00:00 40090 1 0.00 0.00 0.00 0.0 0.00	1.41220357048	0.00	0.00	Mostly_Clear(cloudy)	False	False	0.00
