2011-01-08 01:00:00 8722 1 0.00 0.00 0.00 0.0 0.00	53.1446540881	0.00	0.00	Partly_Cloudy(fair)	True	False	0.00
2011-01-08 02:00:00 8723 2 0.00 0.00 0.00 0.0 0.00	53.1446540881	0.00	0.00	Partly_Cloudy(fair)	True	False	0.00
2011-01-08 03:00:00 8724 3 0.00 0.00 0.00 0.0 0.00	53.1446540881	0.00	0.00	Partly_Cloudy(fair)	True	False	0.00
2011-01-08 04:00:00 8725 4 0.00 0.00 0.00 0.0 0.00	40.8805031447	0.00	0.00	Cloudy(mostly_cloudy)	True	False	0.00
2011-01-08 05:00:00 8726 5 0.00 0.00 0.00 0.0 0.00	49.5642592407	0.00	0.00	Mostly_Cloudy(mostly_cloudy)	True	False	0.00
2011-01-08 06:00:00 8727 6 0.00 0.00 0.00 0.0 0.00	49.5642592407	0.00	0.00	Mostly_Cloudy(cloudy)	True	False	0.00
2011-01-08 07:00:00 8728 7 15.76 15.76 15.76 0.0 31.80	49.5642592407	15.76	0.00	Mostly_Cloudy(mostly_cloudy)	True	False	0.00
2011-01-08 08:00:00 8729 8 165.79 165.79 165.79 1.2 334.50	49.5642592407	165.79	1.20	Flurries(cloudy)	False	False	1.20
2011-01-08 09:00:00 8730 9 195.99 195.99 195.99 10.6 654.90	29.9263907325	195.99	10.60	Few_Snow_Showers(mostly_cloudy)	True	False	10.60
2011-01-08 10:00:00 8731 10 266.79 266.79 266.79 17.8 891.50	29.9263907325	266.79	17.80	Few_Snow_Showers(fair)	True	False	17.80
2011-01-08 11:00:00 8732 11 288.01 288.01 288.01 20.0 962.40	29.9263907325	288.01	20.00	Few_Snow_Showers(fair)	True	False	20.00
2011-01-08 12:00:00 8733 12 298.76 298.76 298.76 16.7 998.30	29.9263907325	298.76	16.70	Light_Snow(cloudy)	True	False	16.70
2011-01-08 13:00:00 8734 13 248.00 248.00 248.00 11.5 828.70	29.9263907325	248.00	11.50	Light_Snow(snow)	True	False	11.50
2011-01-08 14:00:00 8735 14 186.65 186.65 186.65 4.3 623.70	29.9263907325	186.65	4.30	Light_Snow(light_snow)	True	False	4.30
2011-01-08 15:00:00 8736 15 96.69 96.69 96.69 1.1 323.10	29.9263907325	96.69	1.10	Light_Snow(light_snow)	True	False	1.10
2011-01-08 16:00:00 8737 16 16.61 16.61 16.61 0.0 55.50	29.9263907325	16.61	0.00	Light_Snow(light_snow)	True	False	0.00
2011-01-08 17:00:00 8738 17 0.00 0.00 0.00 0.0 0.00	29.9263907325	0.00	0.00	Light_Snow(light_snow)	True	False	0.00
2011-01-08 18:00:00 8739 18 0.00 0.00 0.00 0.0 0.00	24.4508577842	0.00	0.00	Snow_Shower(cloudy)	True	False	0.00
2011-01-08 19:00:00 8740 19 0.00 0.00 0.00 0.0 0.00	24.4508577842	0.00	0.00	Snow_Shower(cloudy)	True	False	0.00
2011-01-08 20:00:00 8741 20 0.00 0.00 0.00 0.0 0.00	24.4508577842	0.00	0.00	Snow_Shower(cloudy)	True	False	0.00
2011-01-08 21:00:00 8742 21 0.00 0.00 0.00 0.0 0.00	29.9263907325	0.00	0.00	Few_Snow_Showers(cloudy)	True	False	0.00
2011-01-08 22:00:00 8743 22 0.00 0.00 0.00 0.0 0.00	29.9263907325	0.00	0.00	Few_Snow_Showers(cloudy)	True	False	0.00
2011-01-08 23:00:00 8744 23 0.00 0.00 0.00 0.0 0.00	29.9263907325	0.00	0.00	Few_Snow_Showers(cloudy)	True	False	0.00
2011-01-09 00:00:00 8745 0 0.00 0.00 0.00 0.0 0.00	49.5642592407	0.00	0.00	Mostly_Cloudy(cloudy)	True	False	0.00
2011-01-09 01:00:00 8746 1 0.00 0.00 0.00 0.0 0.00	49.5642592407	0.00	0.00	Mostly_Cloudy(cloudy)	True	False	0.00
2011-01-09 02:00:00 8747 2 0.00 0.00 0.00 0.0 0.00	49.5642592407	0.00	0.00	Mostly_Cloudy(mostly_cloudy)	True	False	0.00
2011-01-09 03:00:00 8748 3 0.00 0.00 0.00 0.0 0.00	49.5642592407	0.00	0.00	Mostly_Cloudy(cloudy)	True	False	0.00
2011-01-09 04:00:00 8749 4 0.00 0.00 0.00 0.0 0.00	49.5642592407	0.00	0.00	Mostly_Cloudy(cloudy)	True	False	0.00
2011-01-09 05:00:00 8750 5 0.00 0.00 0.00 0.0 0.00	49.5642592407	0.00	0.00	Mostly_Cloudy(mostly_cloudy)	True	False	0.00
2011-01-09 06:00:00 8751 6 0.00 0.00 0.00 0.0 0.00	53.1446540881	0.00	0.00	Partly_Cloudy(fair)	True	False	0.00
2011-01-09 07:00:00 8752 7 16.90 16.90 16.90 0.0 31.80	53.1446540881	16.90	0.00	Partly_Cloudy(fair)	True	False	0.00
2011-01-09 08:00:00 8753 8 177.77 177.77 177.77 14.6 334.50	53.1446540881	177.77	14.60	Partly_Cloudy(fair)	True	False	14.60
2011-01-09 09:00:00 8754 9 348.04 348.04 348.04 45.2 654.90	53.1446540881	348.04	45.20	Partly_Cloudy(fair)	True	False	45.20
2011-01-09 10:00:00 8755 10 609.91 609.91 609.91 74.7 891.50	68.4143017476	609.91	74.70	Partly_Cloudy(fair)	True	False	74.70
2011-01-09 11:00:00 8756 11 658.42 658.42 658.42 102.6 962.40	68.4143017476	658.42	102.60	Partly_Cloudy(mostly_cloudy)	True	False	102.60
2011-01-09 12:00:00 8757 12 682.98 682.98 682.98 233.6 998.30	68.4143017476	682.98	233.60	Partly_Cloudy(mostly_cloudy)	True	False	233.60
2011-01-09 13:00:00 8758 13 566.95 566.95 566.95 388.4 828.70	68.4143017476	566.95	388.40	Partly_Cloudy(fair)	True	False	388.40
2011-01-09 14:00:00 8759 14 426.70 426.70 426.70 391.8 623.70	68.4143017476	426.70	391.80	Partly_Cloudy(mostly_cloudy)	True	False	391.80
2011-01-09 15:00:00 8760 15 221.05 221.05 221.05 188.8 323.10	68.4143017476	221.05	188.80	Partly_Cloudy(fair)	True	False	188.80
2011-01-09 16:00:00 8761 16 29.50 29.50 29.50 15.7 55.50	53.1446540881	29.50	15.70	Partly_Cloudy(fair)	True	False	15.70
2011-01-09 17:00:00 8762 17 0.00 0.00 0.00 0.0 0.00	53.1446540881	0.00	0.00	Partly_Cloudy(fair)	True	False	0.00
2011-01-09 18:00:00 8763 18 0.00 0.00 0.00 0.0 0.00	91.4955424221	0.00	0.00	Clear(fair)	True	False	0.00
2011-01-09 19:00:00 8764 19 0.00 0.00 0.00 0.0 0.00	91.4955424221	0.00	0.00	Clear(fair)	True	False	0.00
2011-01-09 20:00:00 8765 20 0.00 0.00 0.00 0.0 0.00	91.4955424221	0.00	0.00	Clear(fair)	True	False	0.00
2011-01-09 21:00:00 8766 21 0.00 0.00 0.00 0.0 0.00	91.4955424221	0.00	0.00	Clear(fair)	True	False	0.00
2011-01-09 22:00:00 8767 22 0.00 0.00 0.00 0.0 0.00	91.4955424221	0.00	0.00	Clear(fair)	True	False	0.00
2011-01-09 23:00:00 8768 23 0.00 0.00 0.00 0.0 0.00	91.4955424221	0.00	0.00	Clear(fair)	True	False	0.00
2011-01-10 00:00:00 8769 0 0.00 0.00 0.00 0.0 0.00	91.4955424221	0.00	0.00	Clear(fair)	True	False	0.00
2011-01-10 01:00:00 8770 1 0.00 0.00 0.00 0.0 0.00	91.4955424221	0.00	0.00	Clear(fair)	True	False	0.00
