2011-01-14 12:00:00 16251 12 922.18 922.18 670.36 408.8 998.30	67.149958575	670.36	408.80	Partly_Cloudy(fair)	True	False	408.80
2011-01-14 13:00:00 16252 13 353.80 353.80 798.12 399.7 864.00	92.3752792256	798.12	399.70	Sunny(fair)	True	False	399.70
2011-01-14 14:00:00 16253 14 274.98 274.98 620.30 314.6 671.50	92.3752792256	620.30	314.60	Mostly_Sunny(fair)	False	False	314.60
2011-01-14 15:00:00 16254 15 238.18 145.25 238.18 161.5 354.70	67.149958575	238.18	161.50	Partly_Cloudy(fair)	True	False	161.50
2011-01-14 16:00:00 16255 16 43.20 32.88 43.20 13.6 80.30	53.798256538	43.20	13.60	Partly_Cloudy(fair)	True	False	13.60
2011-01-14 17:00:00 16256 17 0.32 0.25 0.32 0.0 0.60	53.798256538	0.32	0.00	Partly_Cloudy(fair)	True	False	0.00
2011-01-14 18:00:00 16257 18 0.00 0.00 0.00 0.0 0.00	53.798256538	0.00	0.00	Partly_Cloudy(fair)	True	False	0.00
2011-01-14 19:00:00 16258 19 0.00 0.00 0.00 0.0 0.00	53.798256538	0.00	0.00	Mostly_Clear(fair)	False	False	0.00
2011-01-14 20:00:00 16259 20 0.00 0.00 0.00 0.0 0.00	53.798256538	0.00	0.00	Mostly_Clear(fair)	False	False	0.00
2011-01-14 21:00:00 16260 21 0.00 0.00 0.00 0.0 0.00	89.4255501572	0.00	0.00	Clear(fair)	True	False	0.00
2011-01-14 22:00:00 16261 22 0.00 0.00 0.00 0.0 0.00	89.4255501572	0.00	0.00	Clear(fair)	True	False	0.00
2011-01-14 23:00:00 16262 23 0.00 0.00 0.00 0.0 0.00	89.4255501572	0.00	0.00	Clear(fair)	True	False	0.00
2011-01-15 00:00:00 16263 0 0.00 0.00 0.00 0.0 0.00	89.4255501572	0.00	0.00	Clear(fair)	True	False	0.00
2011-01-15 01:00:00 16264 1 0.00 0.00 0.00 0.0 0.00	89.4255501572	0.00	0.00	Clear(fair)	True	False	0.00
2011-01-15 02:00:00 16265 2 0.00 0.00 0.00 0.0 0.00	89.4255501572	0.00	0.00	Clear(fair)	True	False	0.00
2011-01-15 03:00:00 16266 3 0.00 0.00 0.00 0.0 0.00	47.9166666667	0.00	0.00	Mostly_Cloudy(fair)	True	False	0.00
2011-01-15 04:00:00 16267 4 0.00 0.00 0.00 0.0 0.00	47.9166666667	0.00	0.00	Mostly_Cloudy(fair)	True	False	0.00
2011-01-15 05:00:00 16268 5 0.00 0.00 0.00 0.0 0.00	47.9166666667	0.00	0.00	Mostly_Cloudy(fair)	True	False	0.00
2011-01-15 06:00:00 16269 6 0.00 0.00 0.00 0.0 0.00	47.9166666667	0.00	0.00	Mostly_Cloudy(fair)	True	False	0.00
2011-01-15 07:00:00 16270 7 19.31 19.31 19.31 8.7 40.30	47.9166666667	19.31	8.70	Mostly_Cloudy(fair)	True	False	8.70
2011-01-15 08:00:00 16271 8 167.66 167.66 167.66 136.2 349.90	47.9166666667	167.66	136.20	Mostly_Cloudy(fair)	True	False	136.20
2011-01-15 09:00:00 16272 9 359.48 359.48 359.48 87.5 668.20	53.798256538	359.48	87.50	Partly_Cloudy(fair)	True	False	87.50
2011-01-15 10:00:00 16273 10 598.64 598.64 598.64 187.7 891.50	67.149958575	598.64	187.70	Partly_Cloudy(cloudy)	True	False	187.70
2011-01-15 11:00:00 16274 11 648.40 648.40 648.40 306.5 965.60	67.149958575	648.40	306.50	Partly_Cloudy(mostly_cloudy)	True	False	306.50
2011-01-15 12:00:00 16275 12 286.55 286.55 286.55 411.8 998.30	28.7037037037	286.55	411.80	Few_Snow_Showers(mostly_cloudy)	True	False	411.80
2011-01-15 13:00:00 16276 13 248.00 248.00 248.00 440.6 864.00	28.7037037037	248.00	440.60	Few_Snow_Showers(mostly_cloudy)	True	False	440.60
2011-01-15 14:00:00 16277 14 192.75 192.75 192.75 196.9 671.50	28.7037037037	192.75	196.90	Few_Snow_Showers(fair)	True	False	196.90
2011-01-15 15:00:00 16278 15 101.81 101.81 101.81 49.6 354.70	28.7037037037	101.81	49.60	Few_Snow_Showers(cloudy)	True	False	49.60
2011-01-15 16:00:00 16279 16 3.78 3.78 3.78 1.6 80.30	4.71116096467	3.78	1.60	Few_Snow_Showers(cloudy)	True	False	1.60
2011-01-15 17:00:00 16280 17 0.03 0.03 0.03 0.0 0.60	4.71116096467	0.03	0.00	Few_Snow_Showers(cloudy)	True	False	0.00
2011-01-15 18:00:00 16281 18 0.00 0.00 0.00 0.0 0.00	4.71116096467	0.00	0.00	Few_Snow_Showers(cloudy)	True	False	0.00
2011-01-15 19:00:00 16282 19 0.00 0.00 0.00 0.0 0.00	4.71116096467	0.00	0.00	Few_Snow_Showers(cloudy)	True	False	0.00
2011-01-15 20:00:00 16283 20 0.00 0.00 0.00 0.0 0.00	4.71116096467	0.00	0.00	Few_Snow_Showers(cloudy)	True	False	0.00
2011-01-15 21:00:00 16284 21 0.00 0.00 0.00 0.0 0.00	34.7133283693	0.00	0.00	Cloudy(cloudy)	True	False	0.00
2011-01-15 22:00:00 16285 22 0.00 0.00 0.00 0.0 0.00	34.7133283693	0.00	0.00	Cloudy(fair)	True	False	0.00
2011-01-15 23:00:00 16286 23 0.00 0.00 0.00 0.0 0.00	34.7133283693	0.00	0.00	Cloudy(partly_cloudy)	True	False	0.00
2011-01-16 00:00:00 16287 0 0.00 0.00 0.00 0.0 0.00	34.7133283693	0.00	0.00	Cloudy(mostly_cloudy)	True	False	0.00
2011-01-16 01:00:00 16288 1 0.00 0.00 0.00 0.0 0.00	34.7133283693	0.00	0.00	Cloudy(partly_cloudy)	True	False	0.00
2011-01-16 02:00:00 16289 2 0.00 0.00 0.00 0.0 0.00	34.7133283693	0.00	0.00	Cloudy(mostly_cloudy)	True	False	0.00
2011-01-16 03:00:00 16290 3 0.00 0.00 0.00 0.0 0.00	47.9166666667	0.00	0.00	Mostly_Cloudy(fair)	True	False	0.00
2011-01-16 04:00:00 16291 4 0.00 0.00 0.00 0.0 0.00	47.9166666667	0.00	0.00	Mostly_Cloudy(fair)	True	False	0.00
2011-01-16 05:00:00 16292 5 0.00 0.00 0.00 0.0 0.00	47.9166666667	0.00	0.00	Mostly_Cloudy(fair)	True	False	0.00
2011-01-16 06:00:00 16293 6 0.00 0.00 0.00 0.0 0.00	53.798256538	0.00	0.00	Partly_Cloudy(fair)	True	False	0.00
2011-01-16 07:00:00 16294 7 21.68 21.68 21.68 3.4 40.30	53.798256538	21.68	3.40	Partly_Cloudy(fair)	True	False	3.40
2011-01-16 08:00:00 16295 8 188.24 188.24 188.24 208.1 349.90	53.798256538	188.24	208.10	Partly_Cloudy(fair)	True	False	208.10
2011-01-16 09:00:00 16296 9 359.48 359.48 359.48 538.1 668.20	53.798256538	359.48	538.10	Mostly_Sunny(fair)	False	False	538.10
2011-01-16 10:00:00 16297 10 479.61 479.61 479.61 784.8 891.50	53.798256538	479.61	784.80	Mostly_Sunny(fair)	False	False	784.80
2011-01-16 11:00:00 16298 11 519.48 519.48 519.48 937.0 965.60	53.798256538	519.48	937.00	Mostly_Sunny(fair)	False	False	937.00
2011-01-16 12:00:00 16299 12 537.07 537.07 537.07 943.9 998.30	53.798256538	537.07	943.90	Mostly_Sunny(fair)	False	False	943.90
