2011-01-06 05:00:00 6626 5 0.00 0.00 0.00 0.0 0.00	67.3732335827	0.00	0.00	Partly_Cloudy(fair)	True	False	0.00
2011-01-06 06:00:00 6627 6 0.00 0.00 0.00 0.0 0.00	67.3732335827	0.00	0.00	Partly_Cloudy(fair)	True	False	0.00
2011-01-06 07:00:00 6628 7 20.28 20.28 20.28 18.7 30.10	67.3732335827	20.28	18.70	Partly_Cloudy(fair)	True	False	18.70
2011-01-06 08:00:00 6629 8 155.09 155.09 155.09 131.6 312.90	49.5642592407	155.09	131.60	Mostly_Cloudy(partly_cloudy)	True	False	131.60
2011-01-06 09:00:00 6630 9 323.80 323.80 323.80 299.3 653.30	49.5642592407	323.80	299.30	Mostly_Cloudy(cloudy)	True	False	299.30
2011-01-06 10:00:00 6631 10 470.17 470.17 470.17 638.4 891.50	52.7396574176	470.17	638.40	Mostly_Cloudy(mostly_cloudy)	True	False	638.40
2011-01-06 11:00:00 6632 11 507.57 507.57 507.57 381.2 962.40	52.7396574176	507.57	381.20	Mostly_Cloudy(cloudy)	True	False	381.20
2011-01-06 12:00:00 6633 12 526.50 526.50 526.50 587.4 998.30	52.7396574176	526.50	587.40	Mostly_Cloudy(fair)	True	False	587.40
2011-01-06 13:00:00 6634 13 437.05 437.05 437.05 654.8 828.70	52.7396574176	437.05	654.80	Mostly_Cloudy(mostly_cloudy)	True	False	654.80
2011-01-06 14:00:00 6635 14 328.94 328.94 328.94 524.9 623.70	52.7396574176	328.94	524.90	Mostly_Cloudy(fair)	True	False	524.90
2011-01-06 15:00:00 6636 15 257.00 257.00 257.00 219.1 323.10	79.5419374807	257.00	219.10	Partly_Cloudy(fair)	True	False	219.10
2011-01-06 16:00:00 6637 16 29.11 29.11 29.11 21.2 43.20	67.3732335827	29.11	21.20	Partly_Cloudy(fair)	True	False	21.20
2011-01-06 17:00:00 6638 17 0.00 0.00 0.00 0.0 0.00	67.3732335827	0.00	0.00	Partly_Cloudy(fair)	True	False	0.00
2011-01-06 18:00:00 6639 18 0.00 0.00 0.00 0.0 0.00	67.3732335827	0.00	0.00	Partly_Cloudy(fair)	True	False	0.00
2011-01-06 19:00:00 6640 19 0.00 0.00 0.00 0.0 0.00	67.3732335827	0.00	0.00	Partly_Cloudy(cloudy)	True	False	0.00
2011-01-06 20:00:00 6641 20 0.00 0.00 0.00 0.0 0.00	67.3732335827	0.00	0.00	Partly_Cloudy(cloudy)	True	False	0.00
2011-01-06 21:00:00 6642 21 0.00 0.00 0.00 0.0 0.00	49.5642592407	0.00	0.00	Mostly_Cloudy(cloudy)	True	False	0.00
2011-01-06 22:00:00 6643 22 0.00 0.00 0.00 0.0 0.00	49.5642592407	0.00	0.00	Mostly_Cloudy(cloudy)	True	False	0.00
2011-01-06 23:00:00 6644 23 0.00 0.00 0.00 0.0 0.00	49.5642592407	0.00	0.00	Mostly_Cloudy(cloudy)	True	False	0.00
2011-01-07 00:00:00 6645 0 0.00 0.00 0.00 0.0 0.00	49.5642592407	0.00	0.00	Flurries(cloudy)	False	False	0.00
2011-01-07 01:00:00 6646 1 0.00 0.00 0.00 0.0 0.00	49.5642592407	0.00	0.00	Flurries(cloudy)	False	False	0.00
2011-01-07 02:00:00 6647 2 0.00 0.00 0.00 0.0 0.00	49.5642592407	0.00	0.00	Flurries(cloudy)	False	False	0.00
2011-01-07 03:00:00 6648 3 0.00 0.00 0.00 0.0 0.00	24.4508577842	0.00	0.00	Snow_Shower(cloudy)	True	False	0.00
2011-01-07 04:00:00 6649 4 0.00 0.00 0.00 0.0 0.00	24.4508577842	0.00	0.00	Snow_Shower(cloudy)	True	False	0.00
2011-01-07 05:00:00 6650 5 0.00 0.00 0.00 0.0 0.00	24.4508577842	0.00	0.00	Snow_Shower(cloudy)	True	False	0.00
2011-01-07 06:00:00 6651 6 0.00 0.00 0.00 0.0 0.00	29.9263907325	0.00	0.00	Light_Snow(light_snow)	True	False	0.00
2011-01-07 07:00:00 6652 7 9.01 9.01 9.01 0.0 30.10	29.9263907325	9.01	0.00	Light_Snow(light_snow)	True	False	0.00
2011-01-07 08:00:00 6653 8 93.64 93.64 93.64 0.1 312.90	29.9263907325	93.64	0.10	Light_Snow(light_snow)	True	False	0.10
2011-01-07 09:00:00 6654 9 159.74 159.74 159.74 6.0 653.30	24.4508577842	159.74	6.00	Snow(light_snow)	True	False	6.00
2011-01-07 10:00:00 6655 10 217.98 217.98 217.98 19.9 891.50	24.4508577842	217.98	19.90	Snow(snow)	True	False	19.90
2011-01-07 11:00:00 6656 11 235.32 235.32 235.32 5.8 962.40	24.4508577842	235.32	5.80	Snow(light_snow)	True	False	5.80
2011-01-07 12:00:00 6657 12 298.76 298.76 298.76 10.8 998.30	29.9263907325	298.76	10.80	Light_Snow(light_snow)	True	False	10.80
2011-01-07 13:00:00 6658 13 248.00 248.00 248.00 13.7 828.70	29.9263907325	248.00	13.70	Light_Snow(light_snow)	True	False	13.70
2011-01-07 14:00:00 6659 14 186.65 186.65 186.65 10.0 623.70	29.9263907325	186.65	10.00	Light_Snow(cloudy)	True	False	10.00
2011-01-07 15:00:00 6660 15 79.00 79.00 79.00 6.7 323.10	24.4508577842	79.00	6.70	Snow_Shower(cloudy)	True	False	6.70
2011-01-07 16:00:00 6661 16 10.56 10.56 10.56 0.7 43.20	24.4508577842	10.56	0.70	Snow_Shower(fair)	True	False	0.70
2011-01-07 17:00:00 6662 17 0.00 0.00 0.00 0.0 0.00	24.4508577842	0.00	0.00	Snow_Shower(fair)	True	False	0.00
2011-01-07 18:00:00 6663 18 0.00 0.00 0.00 0.0 0.00	29.9263907325	0.00	0.00	Few_Snow_Showers(fair)	True	False	0.00
2011-01-07 19:00:00 6664 19 0.00 0.00 0.00 0.0 0.00	29.9263907325	0.00	0.00	Few_Snow_Showers(fair)	True	False	0.00
2011-01-07 20:00:00 6665 20 0.00 0.00 0.00 0.0 0.00	29.9263907325	0.00	0.00	Few_Snow_Showers(fair)	True	False	0.00
2011-01-07 21:00:00 6666 21 0.00 0.00 0.00 0.0 0.00	49.5642592407	0.00	0.00	Mostly_Cloudy(fair)	True	False	0.00
2011-01-07 22:00:00 6667 22 0.00 0.00 0.00 0.0 0.00	49.5642592407	0.00	0.00	Mostly_Cloudy(fair)	True	False	0.00
2011-01-07 23:00:00 6668 23 0.00 0.00 0.00 0.0 0.00	49.5642592407	0.00	0.00	Mostly_Cloudy(fair)	True	False	0.00
2011-01-08 00:00:00 6669 0 0.00 0.00 0.00 0.0 0.00	49.5642592407	0.00	0.00	Mostly_Cloudy(fair)	True	False	0.00
2011-01-08 01:00:00 6670 1 0.00 0.00 0.00 0.0 0.00	49.5642592407	0.00	0.00	Mostly_Cloudy(fair)	True	False	0.00
2011-01-08 02:00:00 6671 2 0.00 0.00 0.00 0.0 0.00	49.5642592407	0.00	0.00	Mostly_Cloudy(fair)	True	False	0.00
2011-01-08 03:00:00 6672 3 0.00 0.00 0.00 0.0 0.00	49.5642592407	0.00	0.00	Mostly_Cloudy(fair)	True	False	0.00
2011-01-08 04:00:00 6673 4 0.00 0.00 0.00 0.0 0.00	49.5642592407	0.00	0.00	Mostly_Cloudy(mostly_cloudy)	True	False	0.00
2011-01-08 05:00:00 6674 5 0.00 0.00 0.00 0.0 0.00	49.5642592407	0.00	0.00	Mostly_Cloudy(mostly_cloudy)	True	False	0.00
