2011-02-02 23:00:00 38775 23 0.00 0.00 0.00 0.0 0.00	84.1912916362	0.00	0.00	Mostly_Clear(cloudy)	False	False	0.00
2011-02-03 00:00:00 38776 0 0.00 0.00 0.00 0.0 0.00	74.1764080765	0.00	0.00	Clear(cloudy)	True	False	0.00
2011-02-03 01:00:00 38777 1 0.00 0.00 0.00 0.0 0.00	74.1764080765	0.00	0.00	Mostly_Clear(cloudy)	False	False	0.00
2011-02-03 02:00:00 38778 2 0.00 0.00 0.00 0.0 0.00	74.1764080765	0.00	0.00	Mostly_Clear(cloudy)	False	False	0.00
2011-02-03 03:00:00 38779 3 0.00 0.00 0.00 0.0 0.00	74.1764080765	0.00	0.00	Mostly_Clear(cloudy)	False	False	0.00
2011-02-03 04:00:00 38780 4 0.00 0.00 0.00 0.0 0.00	43.8894792774	0.00	0.00	Partly_Cloudy(cloudy)	True	False	0.00
2011-02-03 05:00:00 38781 5 0.00 0.00 0.00 0.0 0.00	43.8894792774	0.00	0.00	Mostly_Clear(cloudy)	False	False	0.00
2011-02-03 06:00:00 38782 6 0.00 0.00 0.00 0.0 0.00	43.8894792774	0.00	0.00	Mostly_Clear(mostly_cloudy)	False	False	0.00
2011-02-03 07:00:00 38783 7 41.30 41.30 41.30 12.7 94.10	43.8894792774	41.30	12.70	Mostly_Clear(Unkown)	False	False	12.70
2011-02-03 08:00:00 38784 8 192.85 192.85 192.85 128.9 439.40	43.8894792774	192.85	128.90	Mostly_Sunny(Unkown)	False	False	128.90
2011-02-03 09:00:00 38785 9 329.43 329.43 329.43 451.1 750.60	43.8894792774	329.43	451.10	Mostly_Sunny(cloudy)	False	False	451.10
2011-02-03 10:00:00 38786 10 420.33 420.33 420.33 600.0 957.70	43.8894792774	420.33	600.00	Mostly_Sunny(fair)	False	False	600.00
2011-02-03 11:00:00 38787 11 460.84 460.84 460.84 674.2 1050.00	43.8894792774	460.84	674.20	Mostly_Sunny(fair)	False	False	674.20
2011-02-03 12:00:00 38788 12 465.23 465.23 465.23 698.0 1060.00	43.8894792774	465.23	698.00	Mostly_Sunny(fair)	False	False	698.00
2011-02-03 13:00:00 38789 13 424.24 424.24 424.24 636.9 966.60	43.8894792774	424.24	636.90	Mostly_Sunny(fair)	False	False	636.90
2011-02-03 14:00:00 38790 14 350.02 350.02 350.02 516.0 797.50	43.8894792774	350.02	516.00	Mostly_Sunny(fair)	False	False	516.00
2011-02-03 15:00:00 38791 15 225.94 225.94 225.94 323.0 514.80	43.8894792774	225.94	323.00	Mostly_Sunny(fair)	False	False	323.00
2011-02-03 16:00:00 38792 16 67.46 67.46 67.46 86.5 153.70	43.8894792774	67.46	86.50	Mostly_Sunny(fair)	False	False	86.50
2011-02-03 17:00:00 38793 17 1.84 1.84 1.84 0.5 4.20	43.8894792774	1.84	0.50	Mostly_Sunny(fair)	False	False	0.50
2011-02-03 18:00:00 38794 18 0.00 0.00 0.00 0.0 0.00	74.1764080765	0.00	0.00	Clear(fair)	True	False	0.00
2011-02-03 19:00:00 38795 19 0.00 0.00 0.00 0.0 0.00	74.1764080765	0.00	0.00	Clear(fair)	True	False	0.00
2011-02-03 20:00:00 38796 20 0.00 0.00 0.00 0.0 0.00	74.1764080765	0.00	0.00	Clear(fair)	True	False	0.00
2011-02-03 21:00:00 38797 21 0.00 0.00 0.00 0.0 0.00	74.1764080765	0.00	0.00	Clear(fair)	True	False	0.00
2011-02-03 22:00:00 38798 22 0.00 0.00 0.00 0.0 0.00	74.1764080765	0.00	0.00	Clear(fair)	True	False	0.00
2011-02-03 23:00:00 38799 23 0.00 0.00 0.00 0.0 0.00	74.1764080765	0.00	0.00	Clear(fair)	True	False	0.00
2011-02-04 00:00:00 38800 0 0.00 0.00 0.00 0.0 0.00	74.1764080765	0.00	0.00	Clear(fair)	True	False	0.00
2011-02-04 01:00:00 38801 1 0.00 0.00 0.00 0.0 0.00	74.1764080765	0.00	0.00	Clear(fair)	True	False	0.00
2011-02-04 02:00:00 38802 2 0.00 0.00 0.00 0.0 0.00	74.1764080765	0.00	0.00	Clear(fair)	True	False	0.00
2011-02-04 03:00:00 38803 3 0.00 0.00 0.00 0.0 0.00	43.8894792774	0.00	0.00	Partly_Cloudy(fair)	True	False	0.00
2011-02-04 04:00:00 38804 4 0.00 0.00 0.00 0.0 0.00	43.8894792774	0.00	0.00	Partly_Cloudy(fair)	True	False	0.00
2011-02-04 05:00:00 38805 5 0.00 0.00 0.00 0.0 0.00	43.8894792774	0.00	0.00	Partly_Cloudy(fair)	True	False	0.00
2011-02-04 06:00:00 38806 6 0.00 0.00 0.00 0.0 0.00	43.8894792774	0.00	0.00	Partly_Cloudy(fair)	True	False	0.00
2011-02-04 07:00:00 38807 7 41.30 41.30 41.30 17.3 94.10	43.8894792774	41.30	17.30	Partly_Cloudy(fair)	True	False	17.30
2011-02-04 08:00:00 38808 8 192.85 192.85 192.85 131.0 439.40	43.8894792774	192.85	131.00	Partly_Cloudy(fair)	True	False	131.00
2011-02-04 09:00:00 38809 9 556.77 556.77 556.77 263.7 750.60	74.1764080765	556.77	263.70	Sunny(fair)	True	False	263.70
2011-02-04 10:00:00 38810 10 806.30 806.30 806.30 334.7 957.70	84.1912916362	806.30	334.70	Sunny(fair)	True	False	334.70
2011-02-04 11:00:00 38811 11 884.01 884.01 884.01 413.7 1050.00	84.1912916362	884.01	413.70	Sunny(fair)	True	False	413.70
2011-02-04 12:00:00 38812 12 892.43 892.43 892.43 402.5 1060.00	84.1912916362	892.43	402.50	Sunny(fair)	True	False	402.50
2011-02-04 13:00:00 38813 13 813.79 813.79 813.79 316.4 966.60	84.1912916362	813.79	316.40	Sunny(fair)	True	False	316.40
2011-02-04 14:00:00 38814 14 671.43 671.43 671.43 336.5 797.50	84.1912916362	671.43	336.50	Sunny(fair)	True	False	336.50
2011-02-04 15:00:00 38815 15 433.42 433.42 433.42 175.7 514.80	84.1912916362	433.42	175.70	Sunny(fair)	True	False	175.70
2011-02-04 16:00:00 38816 16 114.01 114.01 114.01 47.4 153.70	74.1764080765	114.01	47.40	Sunny(fair)	True	False	47.40
2011-02-04 17:00:00 38817 17 3.12 3.12 3.12 0.3 4.20	74.1764080765	3.12	0.30	Sunny(fair)	True	False	0.30
2011-02-04 18:00:00 38818 18 0.00 0.00 0.00 0.0 0.00	43.8894792774	0.00	0.00	Partly_Cloudy(fair)	True	False	0.00
2011-02-04 19:00:00 38819 19 0.00 0.00 0.00 0.0 0.00	43.8894792774	0.00	0.00	Partly_Cloudy(fair)	True	False	0.00
2011-02-04 20:00:00 38820 20 0.00 0.00 0.00 0.0 0.00	43.8894792774	0.00	0.00	Partly_Cloudy(fair)	True	False	0.00
2011-02-04 21:00:00 38821 21 0.00 0.00 0.00 0.0 0.00	43.8894792774	0.00	0.00	Partly_Cloudy(fair)	True	False	0.00
2011-02-04 22:00:00 38822 22 0.00 0.00 0.00 0.0 0.00	43.8894792774	0.00	0.00	Partly_Cloudy(fair)	True	False	0.00
2011-02-04 23:00:00 38823 23 0.00 0.00 0.00 0.0 0.00	43.8894792774	0.00	0.00	Partly_Cloudy(fair)	True	False	0.00
