2011-01-15 14:00:00 17494 14 381.69 671.80 381.69 196.9 760.30	50.202065559	381.69	196.90	Mostly_Cloudy(fair)	True	False	196.90
2011-01-15 15:00:00 17495 15 115.35 115.35 299.09 49.6 445.40	67.149958575	299.09	49.60	Partly_Cloudy(cloudy)	True	False	49.60
2011-01-15 16:00:00 17496 16 25.50 20.90 25.50 1.6 80.70	31.5977539561	25.50	1.60	Cloudy(cloudy)	True	False	1.60
2011-01-15 17:00:00 17497 17 0.03 0.16 0.03 0.0 0.60	4.71116096467	0.03	0.00	Few_Snow_Showers(cloudy)	True	False	0.00
2011-01-15 18:00:00 17498 18 0.00 0.00 0.00 0.0 0.00	31.5977539561	0.00	0.00	Cloudy(cloudy)	True	False	0.00
2011-01-15 19:00:00 17499 19 0.00 0.00 0.00 0.0 0.00	31.5977539561	0.00	0.00	Cloudy(cloudy)	True	False	0.00
2011-01-15 20:00:00 17500 20 0.00 0.00 0.00 0.0 0.00	4.71116096467	0.00	0.00	Few_Snow_Showers(cloudy)	True	False	0.00
2011-01-15 21:00:00 17501 21 0.00 0.00 0.00 0.0 0.00	4.71116096467	0.00	0.00	Few_Snow_Showers(cloudy)	True	False	0.00
2011-01-15 22:00:00 17502 22 0.00 0.00 0.00 0.0 0.00	4.71116096467	0.00	0.00	Few_Snow_Showers(fair)	True	False	0.00
2011-01-15 23:00:00 17503 23 0.00 0.00 0.00 0.0 0.00	4.71116096467	0.00	0.00	Few_Snow_Showers(partly_cloudy)	True	False	0.00
2011-01-16 00:00:00 17504 0 0.00 0.00 0.00 0.0 0.00	31.5977539561	0.00	0.00	Cloudy(mostly_cloudy)	True	False	0.00
2011-01-16 01:00:00 17505 1 0.00 0.00 0.00 0.0 0.00	31.5977539561	0.00	0.00	Cloudy(partly_cloudy)	True	False	0.00
2011-01-16 02:00:00 17506 2 0.00 0.00 0.00 0.0 0.00	31.5977539561	0.00	0.00	Cloudy(mostly_cloudy)	True	False	0.00
2011-01-16 03:00:00 17507 3 0.00 0.00 0.00 0.0 0.00	55.5142503098	0.00	0.00	Partly_Cloudy(fair)	True	False	0.00
2011-01-16 04:00:00 17508 4 0.00 0.00 0.00 0.0 0.00	55.5142503098	0.00	0.00	Partly_Cloudy(fair)	True	False	0.00
2011-01-16 05:00:00 17509 5 0.00 0.00 0.00 0.0 0.00	55.5142503098	0.00	0.00	Partly_Cloudy(fair)	True	False	0.00
2011-01-16 06:00:00 17510 6 0.00 0.00 0.00 0.0 0.00	86.5160131697	0.00	0.00	Clear(fair)	True	False	0.00
2011-01-16 07:00:00 17511 7 42.91 42.91 42.91 3.4 49.60	86.5160131697	42.91	3.40	Clear(fair)	True	False	3.40
2011-01-16 08:00:00 17512 8 338.97 338.97 338.97 208.1 391.80	86.5160131697	338.97	208.10	Sunny(fair)	True	False	208.10
2011-01-16 09:00:00 17513 9 578.10 578.10 578.10 538.1 668.20	86.5160131697	578.10	538.10	Sunny(fair)	True	False	538.10
2011-01-16 10:00:00 17514 10 787.73 787.73 787.73 784.8 891.50	88.360212361	787.73	784.80	Sunny(fair)	True	False	784.80
2011-01-16 11:00:00 17515 11 853.21 853.21 853.21 937.0 965.60	88.360212361	853.21	937.00	Sunny(fair)	True	False	937.00
2011-01-16 12:00:00 17516 12 882.10 882.10 882.10 943.9 998.30	88.360212361	882.10	943.90	Sunny(fair)	True	False	943.90
2011-01-16 13:00:00 17517 13 790.56 790.56 790.56 850.0 894.70	88.360212361	790.56	850.00	Sunny(partly_cloudy)	True	False	850.00
2011-01-16 14:00:00 17518 14 671.80 671.80 671.80 657.5 760.30	88.360212361	671.80	657.50	Sunny(fair)	True	False	657.50
2011-01-16 15:00:00 17519 15 393.56 393.56 393.56 309.5 445.40	88.360212361	393.56	309.50	Sunny(fair)	True	False	309.50
2011-01-16 16:00:00 17520 16 69.82 69.82 69.82 32.8 80.70	86.5160131697	69.82	32.80	Sunny(fair)	True	False	32.80
2011-01-16 17:00:00 17521 17 0.52 0.52 0.52 0.0 0.60	86.5160131697	0.52	0.00	Clear(fair)	True	False	0.00
2011-01-16 18:00:00 17522 18 0.00 0.00 0.00 0.0 0.00	86.5160131697	0.00	0.00	Clear(fair)	True	False	0.00
2011-01-16 19:00:00 17523 19 0.00 0.00 0.00 0.0 0.00	86.5160131697	0.00	0.00	Clear(fair)	True	False	0.00
2011-01-16 20:00:00 17524 20 0.00 0.00 0.00 0.0 0.00	86.5160131697	0.00	0.00	Clear(fair)	True	False	0.00
2011-01-16 21:00:00 17525 21 0.00 0.00 0.00 0.0 0.00	86.5160131697	0.00	0.00	Clear(fair)	True	False	0.00
2011-01-16 22:00:00 17526 22 0.00 0.00 0.00 0.0 0.00	86.5160131697	0.00	0.00	Clear(fair)	True	False	0.00
2011-01-16 23:00:00 17527 23 0.00 0.00 0.00 0.0 0.00	86.5160131697	0.00	0.00	Clear(fair)	True	False	0.00
2011-01-17 00:00:00 17528 0 0.00 0.00 0.00 0.0 0.00	86.5160131697	0.00	0.00	Clear(fair)	True	False	0.00
2011-01-17 01:00:00 17529 1 0.00 0.00 0.00 0.0 0.00	86.5160131697	0.00	0.00	Clear(fair)	True	False	0.00
2011-01-17 02:00:00 17530 2 0.00 0.00 0.00 0.0 0.00	86.5160131697	0.00	0.00	Clear(fair)	True	False	0.00
2011-01-17 03:00:00 17531 3 0.00 0.00 0.00 0.0 0.00	86.5160131697	0.00	0.00	Clear(mostly_cloudy)	True	False	0.00
2011-01-17 04:00:00 17532 4 0.00 0.00 0.00 0.0 0.00	86.5160131697	0.00	0.00	Clear(cloudy)	True	False	0.00
2011-01-17 05:00:00 17533 5 0.00 0.00 0.00 0.0 0.00	86.5160131697	0.00	0.00	Clear(cloudy)	True	False	0.00
2011-01-17 06:00:00 17534 6 0.00 0.00 0.00 0.0 0.00	86.5160131697	0.00	0.00	Clear(cloudy)	True	False	0.00
2011-01-17 07:00:00 17535 7 42.91 42.91 42.91 14.0 49.60	86.5160131697	42.91	14.00	Clear(cloudy)	True	False	14.00
2011-01-17 08:00:00 17536 8 338.97 338.97 338.97 112.4 391.80	86.5160131697	338.97	112.40	Sunny(cloudy)	True	False	112.40
2011-01-17 09:00:00 17537 9 578.10 578.10 578.10 160.3 668.20	86.5160131697	578.10	160.30	Sunny(cloudy)	True	False	160.30
2011-01-17 10:00:00 17538 10 787.73 787.73 787.73 234.9 891.50	88.360212361	787.73	234.90	Sunny(cloudy)	True	False	234.90
2011-01-17 11:00:00 17539 11 853.21 853.21 853.21 283.9 965.60	88.360212361	853.21	283.90	Sunny(cloudy)	True	False	283.90
2011-01-17 12:00:00 17540 12 882.10 882.10 882.10 323.3 998.30	88.360212361	882.10	323.30	Sunny(cloudy)	True	False	323.30
2011-01-17 13:00:00 17541 13 790.56 790.56 790.56 195.9 894.70	88.360212361	790.56	195.90	Sunny(cloudy)	True	False	195.90
