2011-01-05 04:00:00 5480 4 0.00 0.00 0.00 0.0 0.00	68.9795918367	0.00	0.00	Partly_Cloudy(fair)	True	False	0.00
2011-01-05 05:00:00 5481 5 0.00 0.00 0.00 0.0 0.00	68.9795918367	0.00	0.00	Partly_Cloudy(fair)	True	False	0.00
2011-01-05 06:00:00 5482 6 0.00 0.00 0.00 0.0 0.00	68.9795918367	0.00	0.00	Mostly_Clear(partly_cloudy)	False	False	0.00
2011-01-05 07:00:00 5483 7 22.72 22.72 22.72 20.0 24.50	92.7265170407	22.72	20.00	Clear(fair)	True	False	20.00
2011-01-05 08:00:00 5484 8 283.09 283.09 283.09 277.6 305.30	92.7265170407	283.09	277.60	Sunny(fair)	True	False	277.60
2011-01-05 09:00:00 5485 9 605.78 605.78 605.78 618.2 653.30	92.7265170407	605.78	618.20	Sunny(fair)	True	False	618.20
2011-01-05 10:00:00 5486 10 826.66 826.66 826.66 804.8 891.50	92.7265170407	826.66	804.80	Sunny(fair)	True	False	804.80
2011-01-05 11:00:00 5487 11 892.40 892.40 892.40 753.4 962.40	92.7265170407	892.40	753.40	Sunny(fair)	True	False	753.40
2011-01-05 12:00:00 5488 12 925.69 925.69 925.69 857.7 998.30	92.7265170407	925.69	857.70	Sunny(fair)	True	False	857.70
2011-01-05 13:00:00 5489 13 768.42 768.42 768.42 649.9 828.70	92.7265170407	768.42	649.90	Sunny(fair)	True	False	649.90
2011-01-05 14:00:00 5490 14 578.34 578.34 578.34 308.4 623.70	92.7265170407	578.34	308.40	Sunny(partly_cloudy)	True	False	308.40
2011-01-05 15:00:00 5491 15 299.60 299.60 299.60 236.3 323.10	92.7265170407	299.60	236.30	Mostly_Sunny(mostly_cloudy)	False	False	236.30
2011-01-05 16:00:00 5492 16 40.06 40.06 40.06 20.1 43.20	92.7265170407	40.06	20.10	Mostly_Sunny(fair)	False	False	20.10
2011-01-05 17:00:00 5493 17 0.00 0.00 0.00 0.0 0.00	92.7265170407	0.00	0.00	Mostly_Clear(fair)	False	False	0.00
2011-01-05 18:00:00 5494 18 0.00 0.00 0.00 0.0 0.00	92.7265170407	0.00	0.00	Clear(mostly_cloudy)	True	False	0.00
2011-01-05 19:00:00 5495 19 0.00 0.00 0.00 0.0 0.00	92.7265170407	0.00	0.00	Clear(mostly_cloudy)	True	False	0.00
2011-01-05 20:00:00 5496 20 0.00 0.00 0.00 0.0 0.00	92.7265170407	0.00	0.00	Clear(fair)	True	False	0.00
2011-01-05 21:00:00 5497 21 0.00 0.00 0.00 0.0 0.00	68.9795918367	0.00	0.00	Partly_Cloudy(fair)	True	False	0.00
2011-01-05 22:00:00 5498 22 0.00 0.00 0.00 0.0 0.00	68.9795918367	0.00	0.00	Partly_Cloudy(fair)	True	False	0.00
2011-01-05 23:00:00 5499 23 0.00 0.00 0.00 0.0 0.00	68.9795918367	0.00	0.00	Partly_Cloudy(fair)	True	False	0.00
2011-01-06 00:00:00 5500 0 0.00 0.00 0.00 0.0 0.00	68.9795918367	0.00	0.00	Partly_Cloudy(fair)	True	False	0.00
2011-01-06 01:00:00 5501 1 0.00 0.00 0.00 0.0 0.00	68.9795918367	0.00	0.00	Partly_Cloudy(fair)	True	False	0.00
2011-01-06 02:00:00 5502 2 0.00 0.00 0.00 0.0 0.00	68.9795918367	0.00	0.00	Partly_Cloudy(fair)	True	False	0.00
2011-01-06 03:00:00 5503 3 0.00 0.00 0.00 0.0 0.00	49.5642592407	0.00	0.00	Mostly_Cloudy(fair)	True	False	0.00
2011-01-06 04:00:00 5504 4 0.00 0.00 0.00 0.0 0.00	49.5642592407	0.00	0.00	Mostly_Cloudy(fair)	True	False	0.00
2011-01-06 05:00:00 5505 5 0.00 0.00 0.00 0.0 0.00	49.5642592407	0.00	0.00	Mostly_Cloudy(fair)	True	False	0.00
2011-01-06 06:00:00 5506 6 0.00 0.00 0.00 0.0 0.00	49.5642592407	0.00	0.00	Mostly_Cloudy(fair)	True	False	0.00
2011-01-06 07:00:00 5507 7 12.14 12.14 12.14 18.7 24.50	49.5642592407	12.14	18.70	Mostly_Cloudy(fair)	True	False	18.70
2011-01-06 08:00:00 5508 8 151.32 151.32 151.32 131.6 305.30	49.5642592407	151.32	131.60	Mostly_Cloudy(partly_cloudy)	True	False	131.60
2011-01-06 09:00:00 5509 9 271.55 271.55 271.55 299.3 653.30	41.5656731084	271.55	299.30	Cloudy(cloudy)	True	False	299.30
2011-01-06 10:00:00 5510 10 345.90 345.90 345.90 638.4 891.50	38.799775659	345.90	638.40	Cloudy(mostly_cloudy)	True	False	638.40
2011-01-06 11:00:00 5511 11 373.41 373.41 373.41 381.2 962.40	38.799775659	373.41	381.20	Cloudy(cloudy)	True	False	381.20
2011-01-06 12:00:00 5512 12 387.34 387.34 387.34 587.4 998.30	38.799775659	387.34	587.40	Cloudy(fair)	True	False	587.40
2011-01-06 13:00:00 5513 13 321.53 321.53 321.53 654.8 828.70	38.799775659	321.53	654.80	Cloudy(mostly_cloudy)	True	False	654.80
2011-01-06 14:00:00 5514 14 241.99 241.99 241.99 524.9 623.70	38.799775659	241.99	524.90	Cloudy(fair)	True	False	524.90
2011-01-06 15:00:00 5515 15 125.36 125.36 125.36 219.1 323.10	38.799775659	125.36	219.10	Cloudy(fair)	True	False	219.10
2011-01-06 16:00:00 5516 16 17.96 17.96 17.96 21.2 43.20	41.5656731084	17.96	21.20	Cloudy(fair)	True	False	21.20
