2011-01-31 13:00:00 35979 13 510.09 813.79 510.09 544.1 966.60	52.7714285714	510.09	544.10	Partly_Cloudy(fair)	True	False	544.10
2011-01-31 14:00:00 35980 14 420.85 448.91 420.85 442.9 797.50	52.7714285714	420.85	442.90	Partly_Cloudy(fair)	True	False	442.90
2011-01-31 15:00:00 35981 15 271.67 289.78 271.67 247.7 514.80	52.7714285714	271.67	247.70	Partly_Cloudy(fair)	True	False	247.70
2011-01-31 16:00:00 35982 16 67.46 86.52 67.46 46.8 153.70	43.8894792774	67.46	46.80	Partly_Cloudy(fair)	True	False	46.80
2011-01-31 17:00:00 35983 17 1.36 1.74 1.36 0.3 3.10	43.8894792774	1.36	0.30	Partly_Cloudy(fair)	True	False	0.30
2011-01-31 18:00:00 35984 18 0.00 0.00 0.00 0.0 0.00	24.0877742947	0.00	0.00	Mostly_Cloudy(fair)	True	False	0.00
2011-01-31 19:00:00 35985 19 0.00 0.00 0.00 0.0 0.00	24.0877742947	0.00	0.00	Mostly_Cloudy(mostly_cloudy)	True	False	0.00
2011-01-31 20:00:00 35986 20 0.00 0.00 0.00 0.0 0.00	24.0877742947	0.00	0.00	Mostly_Cloudy(cloudy)	True	False	0.00
2011-01-31 21:00:00 35987 21 0.00 0.00 0.00 0.0 0.00	19.1397360036	0.00	0.00	Cloudy(cloudy)	True	False	0.00
2011-01-31 22:00:00 35988 22 0.00 0.00 0.00 0.0 0.00	19.1397360036	0.00	0.00	Cloudy(cloudy)	True	False	0.00
2011-01-31 23:00:00 35989 23 0.00 0.00 0.00 0.0 0.00	19.1397360036	0.00	0.00	Cloudy(cloudy)	True	False	0.00
2011-02-01 00:00:00 35990 0 0.00 0.00 0.00 0.0 0.00	0.417667327973	0.00	0.00	Few_Snow_Showers(cloudy)	True	False	0.00
2011-02-01 01:00:00 35991 1 0.00 0.00 0.00 0.0 0.00	0.417667327973	0.00	0.00	Few_Snow_Showers(light_snow)	True	False	0.00
2011-02-01 02:00:00 35992 2 0.00 0.00 0.00 0.0 0.00	0.417667327973	0.00	0.00	Few_Snow_Showers(light_snow)	True	False	0.00
2011-02-01 03:00:00 35993 3 0.00 0.00 0.00 0.0 0.00	0.047619047619	0.00	0.00	Snow_Shower(light_snow)	True	False	0.00
2011-02-01 04:00:00 35994 4 0.00 0.00 0.00 0.0 0.00	0.047619047619	0.00	0.00	Snow_Shower(light_snow)	True	False	0.00
2011-02-01 05:00:00 35995 5 0.00 0.00 0.00 0.0 0.00	0.047619047619	0.00	0.00	Snow_Shower(cloudy)	True	False	0.00
2011-02-01 06:00:00 35996 6 0.00 0.00 0.00 0.0 0.00	0.417667327973	0.00	0.00	Light_Snow(cloudy)	True	False	0.00
2011-02-01 07:00:00 35997 7 0.39 0.39 0.39 0.0 94.10	0.417667327973	0.39	0.00	Light_Snow(light_freezing_rain)	True	False	0.00
2011-02-01 08:00:00 35998 8 1.84 1.84 1.84 0.0 439.40	0.417667327973	1.84	0.00	Light_Snow(cloudy)	True	False	0.00
2011-02-01 09:00:00 35999 9 0.36 0.36 0.36 0.0 750.60	0.047619047619	0.36	0.00	Snow(light_freezing_rain)	True	False	0.00
2011-02-01 10:00:00 36000 10 0.46 0.46 0.46 2.3 957.70	0.047619047619	0.46	2.30	Snow(cloudy)	True	False	2.30
2011-02-01 11:00:00 36001 11 0.50 0.50 0.50 2.0 1050.00	0.047619047619	0.50	2.00	Snow(cloudy)	True	False	2.00
2011-02-01 12:00:00 36002 12 36.65 36.65 36.65 3.8 1060.00	3.45765345765	36.65	3.80	Wintry_Mix(light_freezing_rain)	True	False	3.80
2011-02-01 13:00:00 36003 13 33.42 33.42 33.42 9.2 966.60	3.45765345765	33.42	9.20	Wintry_Mix(light_freezing_rain)	True	False	9.20
2011-02-01 14:00:00 36004 14 27.57 27.57 27.57 12.6 797.50	3.45765345765	27.57	12.60	Wintry_Mix(cloudy)	True	False	12.60
2011-02-01 15:00:00 36005 15 17.80 17.80 17.80 4.3 514.80	3.45765345765	17.80	4.30	Freezing_Rain(cloudy)	True	False	4.30
2011-02-01 16:00:00 36006 16 5.31 5.31 5.31 0.0 153.70	3.45765345765	5.31	0.00	Freezing_Rain(cloudy)	True	False	0.00
2011-02-01 17:00:00 36007 17 0.11 0.11 0.11 0.0 3.10	3.45765345765	0.11	0.00	Freezing_Rain(fog)	True	False	0.00
2011-02-01 18:00:00 36008 18 0.00 0.00 0.00 0.0 0.00	6.18087182824	0.00	0.00	Light_Freezing_Rain(cloudy)	True	False	0.00
2011-02-01 19:00:00 36009 19 0.00 0.00 0.00 0.0 0.00	6.18087182824	0.00	0.00	Light_Freezing_Rain(cloudy)	True	False	0.00
2011-02-01 20:00:00 36010 20 0.00 0.00 0.00 0.0 0.00	6.18087182824	0.00	0.00	Light_Freezing_Rain(cloudy)	True	False	0.00
2011-02-01 21:00:00 36011 21 0.00 0.00 0.00 0.0 0.00	6.18087182824	0.00	0.00	Light_Freezing_Rain(cloudy)	True	False	0.00
2011-02-01 22:00:00 36012 22 0.00 0.00 0.00 0.0 0.00	6.18087182824	0.00	0.00	Light_Freezing_Rain(cloudy)	True	False	0.00
2011-02-01 23:00:00 36013 23 0.00 0.00 0.00 0.0 0.00	6.18087182824	0.00	0.00	Light_Freezing_Rain(cloudy)	True	False	0.00
2011-02-02 00:00:00 36014 0 0.00 0.00 0.00 0.0 0.00	6.18087182824	0.00	0.00	Light_Freezing_Rain(light_freezing_rain)	True	False	0.00
2011-02-02 01:00:00 36015 1 0.00 0.00 0.00 0.0 0.00	6.18087182824	0.00	0.00	Light_Freezing_Rain(light_freezing_rain)	True	False	0.00
2011-02-02 02:00:00 36016 2 0.00 0.00 0.00 0.0 0.00	6.18087182824	0.00	0.00	Light_Freezing_Rain(wintry_mix)	True	False	0.00
2011-02-02 03:00:00 36017 3 0.00 0.00 0.00 0.0 0.00	3.45765345765	0.00	0.00	Freezing_Rain(freezing_rain)	True	False	0.00
2011-02-02 04:00:00 36018 4 0.00 0.00 0.00 0.0 0.00	3.45765345765	0.00	0.00	Freezing_Rain(freezing_rain)	True	False	0.00
2011-02-02 05:00:00 36019 5 0.00 0.00 0.00 0.0 0.00	3.45765345765	0.00	0.00	Freezing_Rain(light_freezing_rain)	True	False	0.00
2011-02-02 06:00:00 36020 6 0.00 0.00 0.00 0.0 0.00	3.45765345765	0.00	0.00	Freezing_Rain(light_freezing_rain)	True	False	0.00
2011-02-02 07:00:00 36021 7 3.25 3.25 3.25 0.0 94.10	3.45765345765	3.25	0.00	Freezing_Rain(freezing_rain)	True	False	0.00
2011-02-02 08:00:00 36022 8 15.19 15.19 15.19 1.0 439.40	3.45765345765	15.19	1.00	Freezing_Rain(wintry_mix)	True	False	1.00
2011-02-02 09:00:00 36023 9 143.66 143.66 143.66 20.5 750.60	19.1397360036	143.66	20.50	Cloudy(light_rain)	True	False	20.50
2011-02-02 10:00:00 36024 10 198.50 198.50 198.50 43.8 957.70	20.7264150943	198.50	43.80	Cloudy(cloudy)	True	False	43.80
2011-02-02 11:00:00 36025 11 217.63 217.63 217.63 91.7 1050.00	20.7264150943	217.63	91.70	Cloudy(cloudy)	True	False	91.70
2011-02-02 12:00:00 36026 12 36.65 36.65 36.65 131.5 1060.00	3.45765345765	36.65	131.50	Rain(cloudy)	True	False	131.50
2011-02-02 13:00:00 36027 13 33.42 33.42 33.42 139.2 966.60	3.45765345765	33.42	139.20	Rain(fog)	True	False	139.20
