2011-01-15 15:00:00 17542 15 393.56 393.56 299.09 49.6 445.40	67.149958575	299.09	49.60	Partly_Cloudy(cloudy)	True	False	49.60
2011-01-15 16:00:00 17543 16 8.99 8.99 34.75 1.6 80.70	43.0576824911	34.75	1.60	Mostly_Cloudy(cloudy)	True	False	1.60
2011-01-15 17:00:00 17544 17 0.19 0.07 0.19 0.0 0.60	31.5977539561	0.19	0.00	Cloudy(cloudy)	True	False	0.00
2011-01-15 18:00:00 17545 18 0.00 0.00 0.00 0.0 0.00	43.0576824911	0.00	0.00	Mostly_Cloudy(cloudy)	True	False	0.00
2011-01-15 19:00:00 17546 19 0.00 0.00 0.00 0.0 0.00	43.0576824911	0.00	0.00	Mostly_Cloudy(cloudy)	True	False	0.00
2011-01-15 20:00:00 17547 20 0.00 0.00 0.00 0.0 0.00	31.5977539561	0.00	0.00	Cloudy(cloudy)	True	False	0.00
2011-01-15 21:00:00 17548 21 0.00 0.00 0.00 0.0 0.00	4.71116096467	0.00	0.00	Few_Snow_Showers(cloudy)	True	False	0.00
2011-01-15 22:00:00 17549 22 0.00 0.00 0.00 0.0 0.00	4.71116096467	0.00	0.00	Few_Snow_Showers(fair)	True	False	0.00
2011-01-15 23:00:00 17550 23 0.00 0.00 0.00 0.0 0.00	4.71116096467	0.00	0.00	Few_Snow_Showers(partly_cloudy)	True	False	0.00
2011-01-16 00:00:00 17551 0 0.00 0.00 0.00 0.0 0.00	31.5977539561	0.00	0.00	Cloudy(mostly_cloudy)	True	False	0.00
2011-01-16 01:00:00 17552 1 0.00 0.00 0.00 0.0 0.00	31.5977539561	0.00	0.00	Cloudy(partly_cloudy)	True	False	0.00
2011-01-16 02:00:00 17553 2 0.00 0.00 0.00 0.0 0.00	31.5977539561	0.00	0.00	Cloudy(mostly_cloudy)	True	False	0.00
2011-01-16 03:00:00 17554 3 0.00 0.00 0.00 0.0 0.00	55.5142503098	0.00	0.00	Partly_Cloudy(fair)	True	False	0.00
2011-01-16 04:00:00 17555 4 0.00 0.00 0.00 0.0 0.00	55.5142503098	0.00	0.00	Partly_Cloudy(fair)	True	False	0.00
2011-01-16 05:00:00 17556 5 0.00 0.00 0.00 0.0 0.00	55.5142503098	0.00	0.00	Partly_Cloudy(fair)	True	False	0.00
2011-01-16 06:00:00 17557 6 0.00 0.00 0.00 0.0 0.00	86.5160131697	0.00	0.00	Clear(fair)	True	False	0.00
2011-01-16 07:00:00 17558 7 42.91 42.91 42.91 3.4 49.60	86.5160131697	42.91	3.40	Clear(fair)	True	False	3.40
2011-01-16 08:00:00 17559 8 338.97 338.97 338.97 208.1 391.80	86.5160131697	338.97	208.10	Sunny(fair)	True	False	208.10
2011-01-16 09:00:00 17560 9 578.10 578.10 578.10 538.1 668.20	86.5160131697	578.10	538.10	Sunny(fair)	True	False	538.10
2011-01-16 10:00:00 17561 10 787.73 787.73 787.73 784.8 891.50	88.360212361	787.73	784.80	Sunny(fair)	True	False	784.80
2011-01-16 11:00:00 17562 11 853.21 853.21 853.21 937.0 965.60	88.360212361	853.21	937.00	Sunny(fair)	True	False	937.00
2011-01-16 12:00:00 17563 12 882.10 882.10 882.10 943.9 998.30	88.360212361	882.10	943.90	Sunny(fair)	True	False	943.90
2011-01-16 13:00:00 17564 13 790.56 790.56 790.56 850.0 894.70	88.360212361	790.56	850.00	Sunny(partly_cloudy)	True	False	850.00
2011-01-16 14:00:00 17565 14 671.80 671.80 671.80 657.5 760.30	88.360212361	671.80	657.50	Sunny(fair)	True	False	657.50
2011-01-16 15:00:00 17566 15 393.56 393.56 393.56 309.5 445.40	88.360212361	393.56	309.50	Sunny(fair)	True	False	309.50
2011-01-16 16:00:00 17567 16 69.82 69.82 69.82 32.8 80.70	86.5160131697	69.82	32.80	Sunny(fair)	True	False	32.80
2011-01-16 17:00:00 17568 17 0.52 0.52 0.52 0.0 0.60	86.5160131697	0.52	0.00	Clear(fair)	True	False	0.00
2011-01-16 18:00:00 17569 18 0.00 0.00 0.00 0.0 0.00	86.5160131697	0.00	0.00	Clear(fair)	True	False	0.00
2011-01-16 19:00:00 17570 19 0.00 0.00 0.00 0.0 0.00	86.5160131697	0.00	0.00	Clear(fair)	True	False	0.00
2011-01-16 20:00:00 17571 20 0.00 0.00 0.00 0.0 0.00	86.5160131697	0.00	0.00	Clear(fair)	True	False	0.00
2011-01-16 21:00:00 17572 21 0.00 0.00 0.00 0.0 0.00	86.5160131697	0.00	0.00	Clear(fair)	True	False	0.00
2011-01-16 22:00:00 17573 22 0.00 0.00 0.00 0.0 0.00	86.5160131697	0.00	0.00	Clear(fair)	True	False	0.00
2011-01-16 23:00:00 17574 23 0.00 0.00 0.00 0.0 0.00	86.5160131697	0.00	0.00	Clear(fair)	True	False	0.00
2011-01-17 00:00:00 17575 0 0.00 0.00 0.00 0.0 0.00	86.5160131697	0.00	0.00	Clear(fair)	True	False	0.00
2011-01-17 01:00:00 17576 1 0.00 0.00 0.00 0.0 0.00	86.5160131697	0.00	0.00	Clear(fair)	True	False	0.00
2011-01-17 02:00:00 17577 2 0.00 0.00 0.00 0.0 0.00	86.5160131697	0.00	0.00	Clear(fair)	True	False	0.00
2011-01-17 03:00:00 17578 3 0.00 0.00 0.00 0.0 0.00	86.5160131697	0.00	0.00	Clear(mostly_cloudy)	True	False	0.00
2011-01-17 04:00:00 17579 4 0.00 0.00 0.00 0.0 0.00	86.5160131697	0.00	0.00	Clear(cloudy)	True	False	0.00
2011-01-17 05:00:00 17580 5 0.00 0.00 0.00 0.0 0.00	86.5160131697	0.00	0.00	Clear(cloudy)	True	False	0.00
2011-01-17 06:00:00 17581 6 0.00 0.00 0.00 0.0 0.00	86.5160131697	0.00	0.00	Clear(cloudy)	True	False	0.00
2011-01-17 07:00:00 17582 7 42.91 42.91 42.91 14.0 49.60	86.5160131697	42.91	14.00	Clear(cloudy)	True	False	14.00
2011-01-17 08:00:00 17583 8 338.97 338.97 338.97 112.4 391.80	86.5160131697	338.97	112.40	Sunny(cloudy)	True	False	112.40
2011-01-17 09:00:00 17584 9 578.10 578.10 578.10 160.3 668.20	86.5160131697	578.10	160.30	Sunny(cloudy)	True	False	160.30
2011-01-17 10:00:00 17585 10 787.73 787.73 787.73 234.9 891.50	88.360212361	787.73	234.90	Sunny(cloudy)	True	False	234.90
2011-01-17 11:00:00 17586 11 853.21 853.21 853.21 283.9 965.60	88.360212361	853.21	283.90	Sunny(cloudy)	True	False	283.90
2011-01-17 12:00:00 17587 12 882.10 882.10 882.10 323.3 998.30	88.360212361	882.10	323.30	Sunny(cloudy)	True	False	323.30
2011-01-17 13:00:00 17588 13 790.56 790.56 790.56 195.9 894.70	88.360212361	790.56	195.90	Sunny(cloudy)	True	False	195.90
2011-01-17 14:00:00 17589 14 671.80 671.80 671.80 111.7 760.30	88.360212361	671.80	111.70	Sunny(cloudy)	True	False	111.70
2011-01-17 15:00:00 17590 15 393.56 393.56 393.56 40.8 445.40	88.360212361	393.56	40.80	Mostly_Sunny(cloudy)	False	False	40.80
