2011-02-01 04:00:00 36696 4 0.00 0.00 0.00 0.0 0.00	17.6777696565	0.00	0.00	Cloudy(light_snow)	True	False	0.00
2011-02-01 05:00:00 36697 5 0.00 0.00 0.00 0.0 0.00	0.417667327973	0.00	0.00	Light_Snow(cloudy)	True	False	0.00
2011-02-01 06:00:00 36698 6 0.00 0.00 0.00 0.0 0.00	6.18087182824	0.00	0.00	Light_Wintry_Mix(cloudy)	True	False	0.00
2011-02-01 07:00:00 36699 7 0.39 0.39 0.39 0.0 94.10	0.417667327973	0.39	0.00	Light_Snow(light_freezing_rain)	True	False	0.00
2011-02-01 08:00:00 36700 8 27.16 27.16 27.16 0.0 439.40	6.18087182824	27.16	0.00	Light_Freezing_Rain(cloudy)	True	False	0.00
2011-02-01 09:00:00 36701 9 46.39 46.39 46.39 0.0 750.60	6.18087182824	46.39	0.00	Light_Freezing_Rain(light_freezing_rain)	True	False	0.00
2011-02-01 10:00:00 36702 10 33.11 33.11 33.11 2.3 957.70	3.45765345765	33.11	2.30	Wintry_Mix(cloudy)	True	False	2.30
2011-02-01 11:00:00 36703 11 36.31 36.31 36.31 2.0 1050.00	3.45765345765	36.31	2.00	Wintry_Mix(cloudy)	True	False	2.00
2011-02-01 12:00:00 36704 12 36.65 36.65 36.65 3.8 1060.00	3.45765345765	36.65	3.80	Freezing_Rain(light_freezing_rain)	True	False	3.80
2011-02-01 13:00:00 36705 13 33.42 33.42 33.42 9.2 966.60	3.45765345765	33.42	9.20	Freezing_Rain(light_freezing_rain)	True	False	9.20
2011-02-01 14:00:00 36706 14 27.57 27.57 27.57 12.6 797.50	3.45765345765	27.57	12.60	Freezing_Rain(cloudy)	True	False	12.60
2011-02-01 15:00:00 36707 15 17.36 17.36 17.36 4.3 514.80	3.37304075235	17.36	4.30	Light_Freezing_Rain(cloudy)	True	False	4.30
2011-02-01 16:00:00 36708 16 9.50 9.50 9.50 0.0 153.70	6.18087182824	9.50	0.00	Light_Freezing_Rain(cloudy)	True	False	0.00
2011-02-01 17:00:00 36709 17 0.19 0.19 0.19 0.0 3.10	6.18087182824	0.19	0.00	Light_Freezing_Rain(fog)	True	False	0.00
2011-02-01 18:00:00 36710 18 0.00 0.00 0.00 0.0 0.00	6.18087182824	0.00	0.00	Freezing_Drizzle(cloudy)	True	False	0.00
2011-02-01 19:00:00 36711 19 0.00 0.00 0.00 0.0 0.00	6.18087182824	0.00	0.00	Freezing_Drizzle(cloudy)	True	False	0.00
2011-02-01 20:00:00 36712 20 0.00 0.00 0.00 0.0 0.00	6.18087182824	0.00	0.00	Freezing_Drizzle(cloudy)	True	False	0.00
2011-02-01 21:00:00 36713 21 0.00 0.00 0.00 0.0 0.00	6.18087182824	0.00	0.00	Freezing_Drizzle(cloudy)	True	False	0.00
2011-02-01 22:00:00 36714 22 0.00 0.00 0.00 0.0 0.00	6.18087182824	0.00	0.00	Freezing_Drizzle(cloudy)	True	False	0.00
2011-02-01 23:00:00 36715 23 0.00 0.00 0.00 0.0 0.00	6.18087182824	0.00	0.00	Freezing_Drizzle(cloudy)	True	False	0.00
2011-02-02 00:00:00 36716 0 0.00 0.00 0.00 0.0 0.00	6.18087182824	0.00	0.00	Light_Freezing_Rain(light_freezing_rain)	True	False	0.00
2011-02-02 01:00:00 36717 1 0.00 0.00 0.00 0.0 0.00	6.18087182824	0.00	0.00	Light_Freezing_Rain(light_freezing_rain)	True	False	0.00
2011-02-02 02:00:00 36718 2 0.00 0.00 0.00 0.0 0.00	6.18087182824	0.00	0.00	Light_Freezing_Rain(wintry_mix)	True	False	0.00
2011-02-02 03:00:00 36719 3 0.00 0.00 0.00 0.0 0.00	3.45765345765	0.00	0.00	Freezing_Rain(freezing_rain)	True	False	0.00
2011-02-02 04:00:00 36720 4 0.00 0.00 0.00 0.0 0.00	3.45765345765	0.00	0.00	Freezing_Rain(freezing_rain)	True	False	0.00
2011-02-02 05:00:00 36721 5 0.00 0.00 0.00 0.0 0.00	3.45765345765	0.00	0.00	Freezing_Rain(light_freezing_rain)	True	False	0.00
2011-02-02 06:00:00 36722 6 0.00 0.00 0.00 0.0 0.00	3.45765345765	0.00	0.00	Wintry_Mix(light_freezing_rain)	True	False	0.00
2011-02-02 07:00:00 36723 7 3.25 3.25 3.25 0.0 94.10	3.45765345765	3.25	0.00	Wintry_Mix(freezing_rain)	True	False	0.00
2011-02-02 08:00:00 36724 8 15.19 15.19 15.19 1.0 439.40	3.45765345765	15.19	1.00	Wintry_Mix(wintry_mix)	True	False	1.00
2011-02-02 09:00:00 36725 9 25.95 25.95 25.95 20.5 750.60	3.45765345765	25.95	20.50	Rain(light_rain)	True	False	20.50
2011-02-02 10:00:00 36726 10 33.11 33.11 33.11 43.8 957.70	3.45765345765	33.11	43.80	Rain(cloudy)	True	False	43.80
2011-02-02 11:00:00 36727 11 36.31 36.31 36.31 91.7 1050.00	3.45765345765	36.31	91.70	Rain(cloudy)	True	False	91.70
2011-02-02 12:00:00 36728 12 36.65 36.65 36.65 131.5 1060.00	3.45765345765	36.65	131.50	Showers(cloudy)	True	False	131.50
2011-02-02 13:00:00 36729 13 33.42 33.42 33.42 139.2 966.60	3.45765345765	33.42	139.20	Showers(fog)	True	False	139.20
2011-02-02 14:00:00 36730 14 27.57 27.57 27.57 137.0 797.50	3.45765345765	27.57	137.00	Showers(fog)	True	False	137.00
2011-02-02 15:00:00 36731 15 17.36 17.36 17.36 92.4 514.80	3.37304075235	17.36	92.40	Few_Showers(cloudy)	True	False	92.40
2011-02-02 16:00:00 36732 16 9.50 9.50 9.50 28.9 153.70	6.18087182824	9.50	28.90	Few_Showers(fog)	True	False	28.90
2011-02-02 17:00:00 36733 17 0.19 0.19 0.19 0.0 3.10	6.18087182824	0.19	0.00	Few_Showers(cloudy)	True	False	0.00
2011-02-02 18:00:00 36734 18 0.00 0.00 0.00 0.0 0.00	24.0728692258	0.00	0.00	Mostly_Cloudy(partly_cloudy)	True	False	0.00
2011-02-02 19:00:00 36735 19 0.00 0.00 0.00 0.0 0.00	24.0728692258	0.00	0.00	Mostly_Cloudy(fair)	True	False	0.00
2011-02-02 20:00:00 36736 20 0.00 0.00 0.00 0.0 0.00	24.0728692258	0.00	0.00	Mostly_Cloudy(fair)	True	False	0.00
2011-02-02 21:00:00 36737 21 0.00 0.00 0.00 0.0 0.00	43.1359791802	0.00	0.00	Partly_Cloudy(partly_cloudy)	True	False	0.00
2011-02-02 22:00:00 36738 22 0.00 0.00 0.00 0.0 0.00	43.1359791802	0.00	0.00	Partly_Cloudy(fair)	True	False	0.00
2011-02-02 23:00:00 36739 23 0.00 0.00 0.00 0.0 0.00	43.1359791802	0.00	0.00	Partly_Cloudy(cloudy)	True	False	0.00
2011-02-03 00:00:00 36740 0 0.00 0.00 0.00 0.0 0.00	24.0728692258	0.00	0.00	Mostly_Cloudy(cloudy)	True	False	0.00
2011-02-03 01:00:00 36741 1 0.00 0.00 0.00 0.0 0.00	24.0728692258	0.00	0.00	Mostly_Cloudy(cloudy)	True	False	0.00
2011-02-03 02:00:00 36742 2 0.00 0.00 0.00 0.0 0.00	24.0728692258	0.00	0.00	Mostly_Cloudy(cloudy)	True	False	0.00
2011-02-03 03:00:00 36743 3 0.00 0.00 0.00 0.0 0.00	43.1359791802	0.00	0.00	Partly_Cloudy(cloudy)	True	False	0.00
2011-02-03 04:00:00 36744 4 0.00 0.00 0.00 0.0 0.00	43.1359791802	0.00	0.00	Partly_Cloudy(cloudy)	True	False	0.00
