2011-01-24 08:00:00 27670 8 344.54 344.54 344.54 155.2 425.30	81.0108397545	344.54	155.20	Sunny(fair)	True	False	155.20
2011-01-24 09:00:00 27671 9 608.07 608.07 608.07 291.0 750.60	81.0108397545	608.07	291.00	Sunny(fair)	True	False	291.00
2011-01-24 10:00:00 27672 10 820.15 820.15 820.15 385.0 957.70	85.6370574518	820.15	385.00	Sunny(fair)	True	False	385.00
2011-01-24 11:00:00 27673 11 899.19 899.19 899.19 446.3 1050.00	85.6370574518	899.19	446.30	Sunny(fair)	True	False	446.30
2011-01-24 12:00:00 27674 12 903.98 903.98 903.98 485.1 1055.60	85.6370574518	903.98	485.10	Sunny(fair)	True	False	485.10
2011-01-24 13:00:00 27675 13 807.90 807.90 807.90 460.8 943.40	85.6370574518	807.90	460.80	Sunny(fair)	True	False	460.80
2011-01-24 14:00:00 27676 14 655.72 655.72 655.72 379.3 765.70	85.6370574518	655.72	379.30	Sunny(fair)	True	False	379.30
2011-01-24 15:00:00 27677 15 275.63 275.63 275.63 215.2 476.50	57.8438802577	275.63	215.20	Partly_Cloudy(fair)	True	False	215.20
2011-01-24 16:00:00 27678 16 60.09 60.09 60.09 30.1 128.00	46.9491073808	60.09	30.10	Partly_Cloudy(mostly_cloudy)	True	False	30.10
2011-01-24 17:00:00 27679 17 0.85 0.85 0.85 0.0 1.80	46.9491073808	0.85	0.00	Partly_Cloudy(fair)	True	False	0.00
2011-01-24 18:00:00 27680 18 0.00 0.00 0.00 0.0 0.00	28.547561867	0.00	0.00	Mostly_Cloudy(cloudy)	True	False	0.00
2011-01-24 19:00:00 27681 19 0.00 0.00 0.00 0.0 0.00	28.547561867	0.00	0.00	Mostly_Cloudy(cloudy)	True	False	0.00
2011-01-24 20:00:00 27682 20 0.00 0.00 0.00 0.0 0.00	28.547561867	0.00	0.00	Mostly_Cloudy(cloudy)	True	False	0.00
2011-01-24 21:00:00 27683 21 0.00 0.00 0.00 0.0 0.00	20.4952380952	0.00	0.00	Cloudy(cloudy)	True	False	0.00
2011-01-24 22:00:00 27684 22 0.00 0.00 0.00 0.0 0.00	20.4952380952	0.00	0.00	Cloudy(mostly_cloudy)	True	False	0.00
2011-01-24 23:00:00 27685 23 0.00 0.00 0.00 0.0 0.00	20.4952380952	0.00	0.00	Cloudy(cloudy)	True	False	0.00
2011-01-25 00:00:00 27686 0 0.00 0.00 0.00 0.0 0.00	20.4952380952	0.00	0.00	Cloudy(cloudy)	True	False	0.00
2011-01-25 01:00:00 27687 1 0.00 0.00 0.00 0.0 0.00	20.4952380952	0.00	0.00	Cloudy(cloudy)	True	False	0.00
2011-01-25 02:00:00 27688 2 0.00 0.00 0.00 0.0 0.00	20.4952380952	0.00	0.00	Cloudy(cloudy)	True	False	0.00
2011-01-25 03:00:00 27689 3 0.00 0.00 0.00 0.0 0.00	20.4952380952	0.00	0.00	Flurries(cloudy)	False	False	0.00
2011-01-25 04:00:00 27690 4 0.00 0.00 0.00 0.0 0.00	20.4952380952	0.00	0.00	Flurries(cloudy)	False	False	0.00
2011-01-25 05:00:00 27691 5 0.00 0.00 0.00 0.0 0.00	20.4952380952	0.00	0.00	Flurries(cloudy)	False	False	0.00
2011-01-25 06:00:00 27692 6 0.00 0.00 0.00 0.0 0.00	1.41220357048	0.00	0.00	Few_Snow_Showers(cloudy)	True	False	0.00
2011-01-25 07:00:00 27693 7 0.97 0.97 0.97 0.0 69.00	1.41220357048	0.97	0.00	Few_Snow_Showers(light_snow)	True	False	0.00
2011-01-25 08:00:00 27694 8 6.01 6.01 6.01 8.5 425.30	1.41220357048	6.01	8.50	Few_Snow_Showers(light_snow)	True	False	8.50
2011-01-25 09:00:00 27695 9 10.60 10.60 10.60 18.5 750.60	1.41220357048	10.60	18.50	Few_Snow_Showers(light_snow)	True	False	18.50
2011-01-25 10:00:00 27696 10 42.00 42.00 42.00 27.6 957.70	4.38550694372	42.00	27.60	Few_Snow_Showers(cloudy)	True	False	27.60
2011-01-25 11:00:00 27697 11 46.05 46.05 46.05 89.6 1050.00	4.38550694372	46.05	89.60	Few_Snow_Showers(cloudy)	True	False	89.60
2011-01-25 12:00:00 27698 12 46.29 46.29 46.29 242.2 1055.60	4.38550694372	46.29	242.20	Few_Snow_Showers(fair)	True	False	242.20
2011-01-25 13:00:00 27699 13 41.37 41.37 41.37 310.9 943.40	4.38550694372	41.37	310.90	Few_Snow_Showers(partly_cloudy)	True	False	310.90
2011-01-25 14:00:00 27700 14 33.58 33.58 33.58 246.0 765.70	4.38550694372	33.58	246.00	Few_Snow_Showers(fair)	True	False	246.00
2011-01-25 15:00:00 27701 15 20.90 20.90 20.90 89.3 476.50	4.38550694372	20.90	89.30	Few_Snow_Showers(mostly_cloudy)	True	False	89.30
2011-01-25 16:00:00 27702 16 1.81 1.81 1.81 12.8 128.00	1.41220357048	1.81	12.80	Few_Snow_Showers(cloudy)	True	False	12.80
2011-01-25 17:00:00 27703 17 0.03 0.03 0.03 0.0 1.80	1.41220357048	0.03	0.00	Few_Snow_Showers(cloudy)	True	False	0.00
2011-01-25 18:00:00 27704 18 0.00 0.00 0.00 0.0 0.00	28.547561867	0.00	0.00	Mostly_Cloudy(cloudy)	True	False	0.00
2011-01-25 19:00:00 27705 19 0.00 0.00 0.00 0.0 0.00	28.547561867	0.00	0.00	Mostly_Cloudy(cloudy)	True	False	0.00
2011-01-25 20:00:00 27706 20 0.00 0.00 0.00 0.0 0.00	28.547561867	0.00	0.00	Mostly_Cloudy(cloudy)	True	False	0.00
2011-01-25 21:00:00 27707 21 0.00 0.00 0.00 0.0 0.00	46.9491073808	0.00	0.00	Partly_Cloudy(cloudy)	True	False	0.00
2011-01-25 22:00:00 27708 22 0.00 0.00 0.00 0.0 0.00	46.9491073808	0.00	0.00	Partly_Cloudy(cloudy)	True	False	0.00
2011-01-25 23:00:00 27709 23 0.00 0.00 0.00 0.0 0.00	46.9491073808	0.00	0.00	Partly_Cloudy(cloudy)	True	False	0.00
2011-01-26 00:00:00 27710 0 0.00 0.00 0.00 0.0 0.00	46.9491073808	0.00	0.00	Partly_Cloudy(fair)	True	False	0.00
2011-01-26 01:00:00 27711 1 0.00 0.00 0.00 0.0 0.00	46.9491073808	0.00	0.00	Partly_Cloudy(fair)	True	False	0.00
2011-01-26 02:00:00 27712 2 0.00 0.00 0.00 0.0 0.00	46.9491073808	0.00	0.00	Partly_Cloudy(fair)	True	False	0.00
2011-01-26 03:00:00 27713 3 0.00 0.00 0.00 0.0 0.00	20.4952380952	0.00	0.00	Cloudy(fair)	True	False	0.00
2011-01-26 04:00:00 27714 4 0.00 0.00 0.00 0.0 0.00	20.4952380952	0.00	0.00	Cloudy(mostly_cloudy)	True	False	0.00
2011-01-26 05:00:00 27715 5 0.00 0.00 0.00 0.0 0.00	20.4952380952	0.00	0.00	Cloudy(mostly_cloudy)	True	False	0.00
2011-01-26 06:00:00 27716 6 0.00 0.00 0.00 0.0 0.00	20.4952380952	0.00	0.00	Cloudy(cloudy)	True	False	0.00
2011-01-26 07:00:00 27717 7 14.14 14.14 14.14 0.0 69.00	20.4952380952	14.14	0.00	Cloudy(Unkown)	True	False	0.00
2011-01-26 08:00:00 27718 8 87.17 87.17 87.17 0.0 425.30	20.4952380952	87.17	0.00	Cloudy(snow)	True	False	0.00
