2011-01-16 18:00:00 18859 18 0.00 0.00 0.00 0.0 0.00	86.5160131697	0.00	0.00	Clear(fair)	True	False	0.00
2011-01-16 19:00:00 18860 19 0.00 0.00 0.00 0.0 0.00	86.5160131697	0.00	0.00	Clear(fair)	True	False	0.00
2011-01-16 20:00:00 18861 20 0.00 0.00 0.00 0.0 0.00	86.5160131697	0.00	0.00	Clear(fair)	True	False	0.00
2011-01-16 21:00:00 18862 21 0.00 0.00 0.00 0.0 0.00	86.5160131697	0.00	0.00	Clear(fair)	True	False	0.00
2011-01-16 22:00:00 18863 22 0.00 0.00 0.00 0.0 0.00	86.5160131697	0.00	0.00	Clear(fair)	True	False	0.00
2011-01-16 23:00:00 18864 23 0.00 0.00 0.00 0.0 0.00	86.5160131697	0.00	0.00	Mostly_Clear(fair)	False	False	0.00
2011-01-17 00:00:00 18865 0 0.00 0.00 0.00 0.0 0.00	52.7897425624	0.00	0.00	Partly_Cloudy(fair)	True	False	0.00
2011-01-17 01:00:00 18866 1 0.00 0.00 0.00 0.0 0.00	52.7897425624	0.00	0.00	Partly_Cloudy(fair)	True	False	0.00
2011-01-17 02:00:00 18867 2 0.00 0.00 0.00 0.0 0.00	52.7897425624	0.00	0.00	Partly_Cloudy(fair)	True	False	0.00
2011-01-17 03:00:00 18868 3 0.00 0.00 0.00 0.0 0.00	52.7897425624	0.00	0.00	Mostly_Clear(mostly_cloudy)	False	False	0.00
2011-01-17 04:00:00 18869 4 0.00 0.00 0.00 0.0 0.00	52.7897425624	0.00	0.00	Mostly_Clear(cloudy)	False	False	0.00
2011-01-17 05:00:00 18870 5 0.00 0.00 0.00 0.0 0.00	52.7897425624	0.00	0.00	Mostly_Clear(cloudy)	False	False	0.00
2011-01-17 06:00:00 18871 6 0.00 0.00 0.00 0.0 0.00	86.5160131697	0.00	0.00	Clear(cloudy)	True	False	0.00
2011-01-17 07:00:00 18872 7 42.91 42.91 42.91 14.0 49.60	86.5160131697	42.91	14.00	Clear(cloudy)	True	False	14.00
2011-01-17 08:00:00 18873 8 338.97 338.97 338.97 112.4 391.80	86.5160131697	338.97	112.40	Sunny(cloudy)	True	False	112.40
2011-01-17 09:00:00 18874 9 578.10 578.10 578.10 160.3 668.20	86.5160131697	578.10	160.30	Sunny(cloudy)	True	False	160.30
2011-01-17 10:00:00 18875 10 787.73 787.73 787.73 234.9 891.50	88.360212361	787.73	234.90	Sunny(cloudy)	True	False	234.90
2011-01-17 11:00:00 18876 11 853.21 853.21 853.21 283.9 965.60	88.360212361	853.21	283.90	Sunny(cloudy)	True	False	283.90
2011-01-17 12:00:00 18877 12 882.10 882.10 882.10 323.3 998.30	88.360212361	882.10	323.30	Sunny(cloudy)	True	False	323.30
2011-01-17 13:00:00 18878 13 790.56 790.56 790.56 195.9 894.70	88.360212361	790.56	195.90	Sunny(cloudy)	True	False	195.90
2011-01-17 14:00:00 18879 14 671.80 671.80 671.80 111.7 760.30	88.360212361	671.80	111.70	Sunny(cloudy)	True	False	111.70
2011-01-17 15:00:00 18880 15 272.42 272.42 272.42 40.8 445.40	61.1639787639	272.42	40.80	Partly_Cloudy(cloudy)	True	False	40.80
2011-01-17 16:00:00 18881 16 42.60 42.60 42.60 4.6 80.70	52.7897425624	42.60	4.60	Partly_Cloudy(cloudy)	True	False	4.60
2011-01-17 17:00:00 18882 17 0.32 0.32 0.32 0.0 0.60	52.7897425624	0.32	0.00	Partly_Cloudy(cloudy)	True	False	0.00
2011-01-17 18:00:00 18883 18 0.00 0.00 0.00 0.0 0.00	52.7897425624	0.00	0.00	Partly_Cloudy(cloudy)	True	False	0.00
2011-01-17 19:00:00 18884 19 0.00 0.00 0.00 0.0 0.00	52.7897425624	0.00	0.00	Partly_Cloudy(cloudy)	True	False	0.00
2011-01-17 20:00:00 18885 20 0.00 0.00 0.00 0.0 0.00	52.7897425624	0.00	0.00	Partly_Cloudy(cloudy)	True	False	0.00
2011-01-17 21:00:00 18886 21 0.00 0.00 0.00 0.0 0.00	52.7897425624	0.00	0.00	Partly_Cloudy(cloudy)	True	False	0.00
2011-01-17 22:00:00 18887 22 0.00 0.00 0.00 0.0 0.00	52.7897425624	0.00	0.00	Partly_Cloudy(cloudy)	True	False	0.00
2011-01-17 23:00:00 18888 23 0.00 0.00 0.00 0.0 0.00	52.7897425624	0.00	0.00	Partly_Cloudy(light_snow)	True	False	0.00
2011-01-18 00:00:00 18889 0 0.00 0.00 0.00 0.0 0.00	20.0578718927	0.00	0.00	Snow_Shower(light_snow)	True	False	0.00
2011-01-18 01:00:00 18890 1 0.00 0.00 0.00 0.0 0.00	20.0578718927	0.00	0.00	Snow_Shower(light_snow)	True	False	0.00
2011-01-18 02:00:00 18891 2 0.00 0.00 0.00 0.0 0.00	20.0578718927	0.00	0.00	Snow_Shower(light_snow)	True	False	0.00
2011-01-18 03:00:00 18892 3 0.00 0.00 0.00 0.0 0.00	20.0578718927	0.00	0.00	Snow(snow)	True	False	0.00
2011-01-18 04:00:00 18893 4 0.00 0.00 0.00 0.0 0.00	20.0578718927	0.00	0.00	Snow(light_freezing_rain)	True	False	0.00
2011-01-18 05:00:00 18894 5 0.00 0.00 0.00 0.0 0.00	20.0578718927	0.00	0.00	Snow(light_freezing_rain)	True	False	0.00
2011-01-18 06:00:00 18895 6 0.00 0.00 0.00 0.0 0.00	3.99640772339	0.00	0.00	Wintry_Mix(light_freezing_rain)	True	False	0.00
2011-01-18 07:00:00 18896 7 1.98 1.98 1.98 0.0 49.60	3.99640772339	1.98	0.00	Wintry_Mix(light_freezing_rain)	True	False	0.00
2011-01-18 08:00:00 18897 8 15.66 15.66 15.66 0.0 391.80	3.99640772339	15.66	0.00	Wintry_Mix(light_freezing_rain)	True	False	0.00
2011-01-18 09:00:00 18898 9 78.66 78.66 78.66 4.5 668.20	11.7719950434	78.66	4.50	Rain_/_Freezing_Rain(light_freezing_rain)	True	False	4.50
2011-01-18 10:00:00 18899 10 31.54 31.54 31.54 16.6 891.50	3.53807707484	31.54	16.60	Rain_/_Freezing_Rain(light_freezing_rain)	True	False	16.60
2011-01-18 11:00:00 18900 11 34.16 34.16 34.16 26.2 965.60	3.53807707484	34.16	26.20	Rain_/_Freezing_Rain(light_rain)	True	False	26.20
2011-01-18 12:00:00 18901 12 35.32 35.32 35.32 49.4 998.30	3.53807707484	35.32	49.40	Few_Showers(light_rain)	True	False	49.40
2011-01-18 13:00:00 18902 13 31.66 31.66 31.66 73.3 894.70	3.53807707484	31.66	73.30	Few_Showers(cloudy)	True	False	73.30
2011-01-18 14:00:00 18903 14 26.90 26.90 26.90 76.2 760.30	3.53807707484	26.90	76.20	Few_Showers(light_rain)	True	False	76.20
2011-01-18 15:00:00 18904 15 145.21 145.21 145.21 42.7 445.40	32.6014913007	145.21	42.70	Cloudy(light_rain)	True	False	42.70
2011-01-18 16:00:00 18905 16 25.50 25.50 25.50 9.2 80.70	31.5977539561	25.50	9.20	Cloudy(cloudy)	True	False	9.20
2011-01-18 17:00:00 18906 17 0.19 0.19 0.19 0.0 0.60	31.5977539561	0.19	0.00	Cloudy(cloudy)	True	False	0.00
2011-01-18 18:00:00 18907 18 0.00 0.00 0.00 0.0 0.00	31.5977539561	0.00	0.00	Cloudy(cloudy)	True	False	0.00
