2011-01-20 12:00:00 23210 12 655.35 901.97 901.97 739.3 1027.70	63.768686074	901.97	739.30	Partly_Cloudy(fair)	True	False	739.30
2011-01-20 13:00:00 23211 13 587.50 662.76 662.76 606.7 921.30	63.768686074	662.76	606.70	Partly_Cloudy(fair)	True	False	606.70
2011-01-20 14:00:00 23212 14 484.83 546.94 546.94 304.2 760.30	63.768686074	546.94	304.20	Partly_Cloudy(fair)	True	False	304.20
2011-01-20 15:00:00 23213 15 201.14 321.99 321.99 201.0 447.60	44.9365027678	321.99	201.00	Mostly_Cloudy(partly_cloudy)	True	False	201.00
2011-01-20 16:00:00 23214 16 24.49 73.30 73.30 35.8 101.90	24.0295748614	73.30	35.80	Cloudy(fair)	True	False	35.80
2011-01-20 17:00:00 23215 17 0.34 1.01 1.01 0.0 1.40	24.0295748614	1.01	0.00	Cloudy(fair)	True	False	0.00
2011-01-20 18:00:00 23216 18 0.00 0.00 0.00 0.0 0.00	35.3281599369	0.00	0.00	Mostly_Cloudy(fair)	True	False	0.00
2011-01-20 19:00:00 23217 19 0.00 0.00 0.00 0.0 0.00	35.3281599369	0.00	0.00	Mostly_Cloudy(mostly_cloudy)	True	False	0.00
2011-01-20 20:00:00 23218 20 0.00 0.00 0.00 0.0 0.00	35.3281599369	0.00	0.00	Mostly_Cloudy(cloudy)	True	False	0.00
2011-01-20 21:00:00 23219 21 0.00 0.00 0.00 0.0 0.00	20.0578718927	0.00	0.00	Snow_Shower(cloudy)	True	False	0.00
2011-01-20 22:00:00 23220 22 0.00 0.00 0.00 0.0 0.00	20.0578718927	0.00	0.00	Snow_Shower(cloudy)	True	False	0.00
2011-01-20 23:00:00 23221 23 0.00 0.00 0.00 0.0 0.00	20.0578718927	0.00	0.00	Snow_Shower(cloudy)	True	False	0.00
2011-01-21 00:00:00 23222 0 0.00 0.00 0.00 0.0 0.00	20.0578718927	0.00	0.00	Snow(mostly_cloudy)	True	False	0.00
2011-01-21 01:00:00 23223 1 0.00 0.00 0.00 0.0 0.00	20.0578718927	0.00	0.00	Snow(cloudy)	True	False	0.00
2011-01-21 02:00:00 23224 2 0.00 0.00 0.00 0.0 0.00	20.0578718927	0.00	0.00	Snow(snow)	True	False	0.00
2011-01-21 03:00:00 23225 3 0.00 0.00 0.00 0.0 0.00	20.0578718927	0.00	0.00	Snow(snow)	True	False	0.00
2011-01-21 04:00:00 23226 4 0.00 0.00 0.00 0.0 0.00	20.0578718927	0.00	0.00	Snow(light_snow)	True	False	0.00
2011-01-21 05:00:00 23227 5 0.00 0.00 0.00 0.0 0.00	20.0578718927	0.00	0.00	Snow(light_snow)	True	False	0.00
2011-01-21 06:00:00 23228 6 0.00 0.00 0.00 0.0 0.00	20.0578718927	0.00	0.00	Snow(light_snow)	True	False	0.00
2011-01-21 07:00:00 23229 7 10.85 10.85 10.85 0.0 54.10	20.0578718927	10.85	0.00	Snow(cloudy)	True	False	0.00
2011-01-21 08:00:00 23230 8 78.59 78.59 78.59 0.6 391.80	20.0578718927	78.59	0.60	Snow(fair)	True	False	0.60
2011-01-21 09:00:00 23231 9 352.40 352.40 352.40 8.3 699.40	50.3860451816	352.40	8.30	Partly_Cloudy(fair)	True	False	8.30
2011-01-21 10:00:00 23232 10 573.22 573.22 573.22 21.0 898.90	63.768686074	573.22	21.00	Partly_Cloudy(light_snow)	True	False	21.00
2011-01-21 11:00:00 23233 11 648.40 648.40 648.40 26.5 1016.80	63.768686074	648.40	26.50	Partly_Cloudy(light_snow)	True	False	26.50
2011-01-21 12:00:00 23234 12 461.81 461.81 461.81 32.6 1027.70	44.9365027678	461.81	32.60	Mostly_Cloudy(fair)	True	False	32.60
2011-01-21 13:00:00 23235 13 414.00 414.00 414.00 107.0 921.30	44.9365027678	414.00	107.00	Mostly_Cloudy(cloudy)	True	False	107.00
2011-01-21 14:00:00 23236 14 341.65 341.65 341.65 117.7 760.30	44.9365027678	341.65	117.70	Mostly_Cloudy(light_snow)	True	False	117.70
2011-01-21 15:00:00 23237 15 285.43 285.43 285.43 46.0 447.60	63.768686074	285.43	46.00	Partly_Cloudy(cloudy)	True	False	46.00
2011-01-21 16:00:00 23238 16 51.34 51.34 51.34 11.2 101.90	50.3860451816	51.34	11.20	Partly_Cloudy(mostly_cloudy)	True	False	11.20
2011-01-21 17:00:00 23239 17 0.71 0.71 0.71 0.0 1.40	50.3860451816	0.71	0.00	Partly_Cloudy(mostly_cloudy)	True	False	0.00
2011-01-21 18:00:00 23240 18 0.00 0.00 0.00 0.0 0.00	50.3860451816	0.00	0.00	Partly_Cloudy(mostly_cloudy)	True	False	0.00
2011-01-21 19:00:00 23241 19 0.00 0.00 0.00 0.0 0.00	50.3860451816	0.00	0.00	Partly_Cloudy(fair)	True	False	0.00
2011-01-21 20:00:00 23242 20 0.00 0.00 0.00 0.0 0.00	50.3860451816	0.00	0.00	Partly_Cloudy(fair)	True	False	0.00
2011-01-21 21:00:00 23243 21 0.00 0.00 0.00 0.0 0.00	85.3751914242	0.00	0.00	Clear(fair)	True	False	0.00
2011-01-21 22:00:00 23244 22 0.00 0.00 0.00 0.0 0.00	85.3751914242	0.00	0.00	Clear(fair)	True	False	0.00
2011-01-21 23:00:00 23245 23 0.00 0.00 0.00 0.0 0.00	85.3751914242	0.00	0.00	Clear(fair)	True	False	0.00
2011-01-22 00:00:00 23246 0 0.00 0.00 0.00 0.0 0.00	85.3751914242	0.00	0.00	Clear(fair)	True	False	0.00
2011-01-22 01:00:00 23247 1 0.00 0.00 0.00 0.0 0.00	85.3751914242	0.00	0.00	Clear(fair)	True	False	0.00
2011-01-22 02:00:00 23248 2 0.00 0.00 0.00 0.0 0.00	85.3751914242	0.00	0.00	Clear(fair)	True	False	0.00
2011-01-22 03:00:00 23249 3 0.00 0.00 0.00 0.0 0.00	85.3751914242	0.00	0.00	Clear(fair)	True	False	0.00
2011-01-22 04:00:00 23250 4 0.00 0.00 0.00 0.0 0.00	85.3751914242	0.00	0.00	Clear(fair)	True	False	0.00
2011-01-22 05:00:00 23251 5 0.00 0.00 0.00 0.0 0.00	85.3751914242	0.00	0.00	Clear(fair)	True	False	0.00
2011-01-22 06:00:00 23252 6 0.00 0.00 0.00 0.0 0.00	85.3751914242	0.00	0.00	Clear(fair)	True	False	0.00
2011-01-22 07:00:00 23253 7 46.19 46.19 46.19 7.1 54.10	85.3751914242	46.19	7.10	Clear(fair)	True	False	7.10
2011-01-22 08:00:00 23254 8 334.50 334.50 334.50 60.9 391.80	85.3751914242	334.50	60.90	Sunny(fair)	True	False	60.90
2011-01-22 09:00:00 23255 9 352.40 352.40 352.40 135.7 699.40	50.3860451816	352.40	135.70	Partly_Cloudy(fair)	True	False	135.70
2011-01-22 10:00:00 23256 10 573.22 573.22 573.22 151.3 898.90	63.768686074	573.22	151.30	Partly_Cloudy(fair)	True	False	151.30
2011-01-22 11:00:00 23257 11 648.40 648.40 648.40 151.0 1016.80	63.768686074	648.40	151.00	Partly_Cloudy(fair)	True	False	151.00
2011-01-22 12:00:00 23258 12 655.35 655.35 655.35 174.7 1027.70	63.768686074	655.35	174.70	Partly_Cloudy(fair)	True	False	174.70
