2011-01-19 03:00:00 21599 3 0.00 0.00 0.00 0.0 0.00	35.3281599369	0.00	0.00	Mostly_Cloudy(mostly_cloudy)	True	False	0.00
2011-01-19 04:00:00 21600 4 0.00 0.00 0.00 0.0 0.00	9.32286555447	0.00	0.00	Light_Rain(light_rain)	True	False	0.00
2011-01-19 05:00:00 21601 5 0.00 0.00 0.00 0.0 0.00	9.32286555447	0.00	0.00	Light_Rain/Freezing_Rain(light_rain)	True	False	0.00
2011-01-19 06:00:00 21602 6 0.00 0.00 0.00 0.0 0.00	9.32286555447	0.00	0.00	Light_Freezing_Rain(fog)	True	False	0.00
2011-01-19 07:00:00 21603 7 16.35 16.35 16.35 0.5 54.10	30.2222659323	16.35	0.50	Cloudy(cloudy)	True	False	0.50
2011-01-19 08:00:00 21604 8 36.53 36.53 36.53 28.1 391.80	9.32286555447	36.53	28.10	Light_Freezing_Rain(fog)	True	False	28.10
2011-01-19 09:00:00 21605 9 27.81 27.81 27.81 122.9 699.40	3.97676496872	27.81	122.90	Showers(cloudy)	True	False	122.90
2011-01-19 10:00:00 21606 10 241.97 241.97 241.97 384.8 898.90	26.9184847498	241.97	384.80	Rain_/_Snow_Showers(cloudy)	True	False	384.80
2011-01-19 11:00:00 21607 11 273.71 273.71 273.71 830.0 1016.80	26.9184847498	273.71	830.00	Rain_/_Snow_Showers(cloudy)	True	False	830.00
2011-01-19 12:00:00 21608 12 461.81 461.81 461.81 454.8 1027.70	44.9365027678	461.81	454.80	Mostly_Cloudy(fair)	True	False	454.80
2011-01-19 13:00:00 21609 13 414.00 414.00 414.00 278.6 921.30	44.9365027678	414.00	278.60	Mostly_Cloudy(cloudy)	True	False	278.60
2011-01-19 14:00:00 21610 14 341.65 341.65 341.65 314.4 760.30	44.9365027678	341.65	314.40	Mostly_Cloudy(mostly_cloudy)	True	False	314.40
2011-01-19 15:00:00 21611 15 201.14 201.14 201.14 71.3 447.60	44.9365027678	201.14	71.30	Mostly_Cloudy(cloudy)	True	False	71.30
2011-01-19 16:00:00 21612 16 36.00 36.00 36.00 25.1 101.90	35.3281599369	36.00	25.10	Mostly_Cloudy(cloudy)	True	False	25.10
2011-01-19 17:00:00 21613 17 0.35 0.35 0.35 0.0 1.00	35.3281599369	0.35	0.00	Mostly_Cloudy(cloudy)	True	False	0.00
2011-01-19 18:00:00 21614 18 0.00 0.00 0.00 0.0 0.00	35.3281599369	0.00	0.00	Mostly_Cloudy(cloudy)	True	False	0.00
2011-01-19 19:00:00 21615 19 0.00 0.00 0.00 0.0 0.00	35.3281599369	0.00	0.00	Mostly_Cloudy(cloudy)	True	False	0.00
2011-01-19 20:00:00 21616 20 0.00 0.00 0.00 0.0 0.00	35.3281599369	0.00	0.00	Mostly_Cloudy(cloudy)	True	False	0.00
2011-01-19 21:00:00 21617 21 0.00 0.00 0.00 0.0 0.00	52.0302592057	0.00	0.00	Partly_Cloudy(cloudy)	True	False	0.00
2011-01-19 22:00:00 21618 22 0.00 0.00 0.00 0.0 0.00	52.0302592057	0.00	0.00	Partly_Cloudy(cloudy)	True	False	0.00
2011-01-19 23:00:00 21619 23 0.00 0.00 0.00 0.0 0.00	52.0302592057	0.00	0.00	Partly_Cloudy(cloudy)	True	False	0.00
2011-01-20 00:00:00 21620 0 0.00 0.00 0.00 0.0 0.00	85.3751914242	0.00	0.00	Clear(cloudy)	True	False	0.00
2011-01-20 01:00:00 21621 1 0.00 0.00 0.00 0.0 0.00	85.3751914242	0.00	0.00	Clear(cloudy)	True	False	0.00
2011-01-20 02:00:00 21622 2 0.00 0.00 0.00 0.0 0.00	85.3751914242	0.00	0.00	Clear(cloudy)	True	False	0.00
2011-01-20 03:00:00 21623 3 0.00 0.00 0.00 0.0 0.00	85.3751914242	0.00	0.00	Clear(cloudy)	True	False	0.00
2011-01-20 04:00:00 21624 4 0.00 0.00 0.00 0.0 0.00	85.3751914242	0.00	0.00	Clear(cloudy)	True	False	0.00
2011-01-20 05:00:00 21625 5 0.00 0.00 0.00 0.0 0.00	85.3751914242	0.00	0.00	Clear(cloudy)	True	False	0.00
2011-01-20 06:00:00 21626 6 0.00 0.00 0.00 0.0 0.00	85.3751914242	0.00	0.00	Clear(cloudy)	True	False	0.00
2011-01-20 07:00:00 21627 7 46.19 46.19 46.19 26.0 54.10	85.3751914242	46.19	26.00	Clear(mostly_cloudy)	True	False	26.00
2011-01-20 08:00:00 21628 8 334.50 334.50 334.50 132.4 391.80	85.3751914242	334.50	132.40	Sunny(mostly_cloudy)	True	False	132.40
2011-01-20 09:00:00 21629 9 363.90 363.90 363.90 466.6 699.40	52.0302592057	363.90	466.60	Partly_Cloudy(fair)	True	False	466.60
2011-01-20 10:00:00 21630 10 629.59 629.59 629.59 594.7 898.90	70.0402144772	629.59	594.70	Partly_Cloudy(fair)	True	False	594.70
2011-01-20 11:00:00 21631 11 712.17 712.17 712.17 543.8 1016.80	70.0402144772	712.17	543.80	Partly_Cloudy(fair)	True	False	543.80
2011-01-20 12:00:00 21632 12 461.81 461.81 461.81 739.3 1027.70	44.9365027678	461.81	739.30	Mostly_Cloudy(fair)	True	False	739.30
2011-01-20 13:00:00 21633 13 414.00 414.00 414.00 606.7 921.30	44.9365027678	414.00	606.70	Mostly_Cloudy(fair)	True	False	606.70
2011-01-20 14:00:00 21634 14 341.65 341.65 341.65 304.2 760.30	44.9365027678	341.65	304.20	Mostly_Cloudy(fair)	True	False	304.20
2011-01-20 15:00:00 21635 15 201.14 201.14 201.14 201.0 447.60	44.9365027678	201.14	201.00	Mostly_Cloudy(partly_cloudy)	True	False	201.00
2011-01-20 16:00:00 21636 16 36.00 36.00 36.00 35.8 101.90	35.3281599369	36.00	35.80	Mostly_Cloudy(fair)	True	False	35.80
2011-01-20 17:00:00 21637 17 0.35 0.35 0.35 0.0 1.00	35.3281599369	0.35	0.00	Mostly_Cloudy(fair)	True	False	0.00
2011-01-20 18:00:00 21638 18 0.00 0.00 0.00 0.0 0.00	30.2222659323	0.00	0.00	Cloudy(fair)	True	False	0.00
2011-01-20 19:00:00 21639 19 0.00 0.00 0.00 0.0 0.00	30.2222659323	0.00	0.00	Cloudy(mostly_cloudy)	True	False	0.00
2011-01-20 20:00:00 21640 20 0.00 0.00 0.00 0.0 0.00	30.2222659323	0.00	0.00	Cloudy(cloudy)	True	False	0.00
2011-01-20 21:00:00 21641 21 0.00 0.00 0.00 0.0 0.00	4.67237735009	0.00	0.00	Few_Snow_Showers(cloudy)	True	False	0.00
2011-01-20 22:00:00 21642 22 0.00 0.00 0.00 0.0 0.00	4.67237735009	0.00	0.00	Few_Snow_Showers(cloudy)	True	False	0.00
2011-01-20 23:00:00 21643 23 0.00 0.00 0.00 0.0 0.00	4.67237735009	0.00	0.00	Few_Snow_Showers(cloudy)	True	False	0.00
2011-01-21 00:00:00 21644 0 0.00 0.00 0.00 0.0 0.00	20.0578718927	0.00	0.00	Snow(mostly_cloudy)	True	False	0.00
2011-01-21 01:00:00 21645 1 0.00 0.00 0.00 0.0 0.00	20.0578718927	0.00	0.00	Snow(cloudy)	True	False	0.00
2011-01-21 02:00:00 21646 2 0.00 0.00 0.00 0.0 0.00	20.0578718927	0.00	0.00	Snow(snow)	True	False	0.00
2011-01-21 03:00:00 21647 3 0.00 0.00 0.00 0.0 0.00	20.0578718927	0.00	0.00	Snow(snow)	True	False	0.00
