2011-01-08 15:00:00 9406 15 304.62 304.62 304.62 1.1 323.10	94.28027647	304.62	1.10	Flurries(light_snow)	False	False	1.10
2011-01-08 16:00:00 9407 16 0.19 0.19 16.61 0.0 55.50	29.9263907325	16.61	0.00	Few_Snow_Showers(light_snow)	True	False	0.00
2011-01-08 17:00:00 9408 17 0.00 0.00 0.00 0.0 0.00	29.9263907325	0.00	0.00	Light_Snow(light_snow)	True	False	0.00
2011-01-08 18:00:00 9409 18 0.00 0.00 0.00 0.0 0.00	40.8805031447	0.00	0.00	Cloudy(cloudy)	True	False	0.00
2011-01-08 19:00:00 9410 19 0.00 0.00 0.00 0.0 0.00	40.8805031447	0.00	0.00	Flurries(cloudy)	False	False	0.00
2011-01-08 20:00:00 9411 20 0.00 0.00 0.00 0.0 0.00	40.8805031447	0.00	0.00	Cloudy(cloudy)	True	False	0.00
2011-01-08 21:00:00 9412 21 0.00 0.00 0.00 0.0 0.00	29.9263907325	0.00	0.00	Few_Snow_Showers(cloudy)	True	False	0.00
2011-01-08 22:00:00 9413 22 0.00 0.00 0.00 0.0 0.00	29.9263907325	0.00	0.00	Few_Snow_Showers(cloudy)	True	False	0.00
2011-01-08 23:00:00 9414 23 0.00 0.00 0.00 0.0 0.00	29.9263907325	0.00	0.00	Few_Snow_Showers(cloudy)	True	False	0.00
2011-01-09 00:00:00 9415 0 0.00 0.00 0.00 0.0 0.00	40.8805031447	0.00	0.00	Cloudy(cloudy)	True	False	0.00
2011-01-09 01:00:00 9416 1 0.00 0.00 0.00 0.0 0.00	40.8805031447	0.00	0.00	Cloudy(cloudy)	True	False	0.00
2011-01-09 02:00:00 9417 2 0.00 0.00 0.00 0.0 0.00	40.8805031447	0.00	0.00	Cloudy(mostly_cloudy)	True	False	0.00
2011-01-09 03:00:00 9418 3 0.00 0.00 0.00 0.0 0.00	40.8805031447	0.00	0.00	Cloudy(cloudy)	True	False	0.00
2011-01-09 04:00:00 9419 4 0.00 0.00 0.00 0.0 0.00	40.8805031447	0.00	0.00	Cloudy(cloudy)	True	False	0.00
2011-01-09 05:00:00 9420 5 0.00 0.00 0.00 0.0 0.00	40.8805031447	0.00	0.00	Cloudy(mostly_cloudy)	True	False	0.00
2011-01-09 06:00:00 9421 6 0.00 0.00 0.00 0.0 0.00	49.5642592407	0.00	0.00	Mostly_Cloudy(fair)	True	False	0.00
2011-01-09 07:00:00 9422 7 15.76 15.76 15.76 0.0 31.80	49.5642592407	15.76	0.00	Mostly_Cloudy(fair)	True	False	0.00
2011-01-09 08:00:00 9423 8 165.79 165.79 165.79 14.6 334.50	49.5642592407	165.79	14.60	Mostly_Cloudy(fair)	True	False	14.60
2011-01-09 09:00:00 9424 9 348.04 348.04 348.04 45.2 654.90	53.1446540881	348.04	45.20	Partly_Cloudy(fair)	True	False	45.20
2011-01-09 10:00:00 9425 10 609.91 609.91 609.91 74.7 891.50	68.4143017476	609.91	74.70	Partly_Cloudy(fair)	True	False	74.70
2011-01-09 11:00:00 9426 11 658.42 658.42 658.42 102.6 962.40	68.4143017476	658.42	102.60	Partly_Cloudy(mostly_cloudy)	True	False	102.60
2011-01-09 12:00:00 9427 12 682.98 682.98 682.98 233.6 998.30	68.4143017476	682.98	233.60	Partly_Cloudy(mostly_cloudy)	True	False	233.60
2011-01-09 13:00:00 9428 13 566.95 566.95 566.95 388.4 828.70	68.4143017476	566.95	388.40	Partly_Cloudy(fair)	True	False	388.40
2011-01-09 14:00:00 9429 14 426.70 426.70 426.70 391.8 623.70	68.4143017476	426.70	391.80	Partly_Cloudy(mostly_cloudy)	True	False	391.80
2011-01-09 15:00:00 9430 15 221.05 221.05 221.05 188.8 323.10	68.4143017476	221.05	188.80	Mostly_Sunny(fair)	False	False	188.80
2011-01-09 16:00:00 9431 16 37.97 37.97 37.97 15.7 55.50	68.4143017476	37.97	15.70	Mostly_Sunny(fair)	False	False	15.70
2011-01-09 17:00:00 9432 17 0.00 0.00 0.00 0.0 0.00	68.4143017476	0.00	0.00	Mostly_Clear(fair)	False	False	0.00
2011-01-09 18:00:00 9433 18 0.00 0.00 0.00 0.0 0.00	91.4955424221	0.00	0.00	Clear(fair)	True	False	0.00
2011-01-09 19:00:00 9434 19 0.00 0.00 0.00 0.0 0.00	91.4955424221	0.00	0.00	Clear(fair)	True	False	0.00
2011-01-09 20:00:00 9435 20 0.00 0.00 0.00 0.0 0.00	91.4955424221	0.00	0.00	Clear(fair)	True	False	0.00
2011-01-09 21:00:00 9436 21 0.00 0.00 0.00 0.0 0.00	91.4955424221	0.00	0.00	Clear(fair)	True	False	0.00
2011-01-09 22:00:00 9437 22 0.00 0.00 0.00 0.0 0.00	91.4955424221	0.00	0.00	Clear(fair)	True	False	0.00
2011-01-09 23:00:00 9438 23 0.00 0.00 0.00 0.0 0.00	91.4955424221	0.00	0.00	Clear(fair)	True	False	0.00
2011-01-10 00:00:00 9439 0 0.00 0.00 0.00 0.0 0.00	91.4955424221	0.00	0.00	Clear(fair)	True	False	0.00
2011-01-10 01:00:00 9440 1 0.00 0.00 0.00 0.0 0.00	91.4955424221	0.00	0.00	Clear(fair)	True	False	0.00
2011-01-10 02:00:00 9441 2 0.00 0.00 0.00 0.0 0.00	91.4955424221	0.00	0.00	Clear(fair)	True	False	0.00
2011-01-10 03:00:00 9442 3 0.00 0.00 0.00 0.0 0.00	91.4955424221	0.00	0.00	Clear(fair)	True	False	0.00
2011-01-10 04:00:00 9443 4 0.00 0.00 0.00 0.0 0.00	91.4955424221	0.00	0.00	Clear(fair)	True	False	0.00
2011-01-10 05:00:00 9444 5 0.00 0.00 0.00 0.0 0.00	91.4955424221	0.00	0.00	Clear(fair)	True	False	0.00
2011-01-10 06:00:00 9445 6 0.00 0.00 0.00 0.0 0.00	91.4955424221	0.00	0.00	Clear(fair)	True	False	0.00
2011-01-10 07:00:00 9446 7 29.10 29.10 29.10 17.5 31.80	91.4955424221	29.10	17.50	Clear(fair)	True	False	17.50
2011-01-10 08:00:00 9447 8 306.05 306.05 306.05 237.8 334.50	91.4955424221	306.05	237.80	Sunny(fair)	True	False	237.80
2011-01-10 09:00:00 9448 9 599.20 599.20 599.20 483.0 654.90	91.4955424221	599.20	483.00	Sunny(fair)	True	False	483.00
2011-01-10 10:00:00 9449 10 840.51 840.51 840.51 743.8 891.50	94.28027647	840.51	743.80	Sunny(fair)	True	False	743.80
2011-01-10 11:00:00 9450 11 907.35 907.35 907.35 870.3 962.40	94.28027647	907.35	870.30	Sunny(fair)	True	False	870.30
2011-01-10 12:00:00 9451 12 941.20 941.20 941.20 690.9 998.30	94.28027647	941.20	690.90	Sunny(fair)	True	False	690.90
2011-01-10 13:00:00 9452 13 781.30 781.30 781.30 590.6 828.70	94.28027647	781.30	590.60	Sunny(fair)	True	False	590.60
2011-01-10 14:00:00 9453 14 588.03 588.03 588.03 324.0 623.70	94.28027647	588.03	324.00	Sunny(fair)	True	False	324.00
2011-01-10 15:00:00 9454 15 304.62 304.62 304.62 148.2 323.10	94.28027647	304.62	148.20	Sunny(fair)	True	False	148.20
