2011-01-07 15:00:00 8236 15 304.62 304.62 136.30 6.7 323.10	42.1862011638	136.30	6.70	Cloudy(cloudy)	True	False	6.70
2011-01-07 16:00:00 8237 16 1.15 1.15 27.51 0.7 55.50	49.5642592407	27.51	0.70	Mostly_Cloudy(fair)	True	False	0.70
2011-01-07 17:00:00 8238 17 0.00 0.00 0.00 0.0 0.00	49.5642592407	0.00	0.00	Mostly_Cloudy(fair)	True	False	0.00
2011-01-07 18:00:00 8239 18 0.00 0.00 0.00 0.0 0.00	62.5786163522	0.00	0.00	Partly_Cloudy(fair)	True	False	0.00
2011-01-07 19:00:00 8240 19 0.00 0.00 0.00 0.0 0.00	40.8805031447	0.00	0.00	Cloudy(fair)	True	False	0.00
2011-01-07 20:00:00 8241 20 0.00 0.00 0.00 0.0 0.00	62.5786163522	0.00	0.00	Partly_Cloudy(fair)	True	False	0.00
2011-01-07 21:00:00 8242 21 0.00 0.00 0.00 0.0 0.00	49.5642592407	0.00	0.00	Mostly_Cloudy(fair)	True	False	0.00
2011-01-07 22:00:00 8243 22 0.00 0.00 0.00 0.0 0.00	49.5642592407	0.00	0.00	Mostly_Cloudy(fair)	True	False	0.00
2011-01-07 23:00:00 8244 23 0.00 0.00 0.00 0.0 0.00	49.5642592407	0.00	0.00	Mostly_Cloudy(fair)	True	False	0.00
2011-01-08 00:00:00 8245 0 0.00 0.00 0.00 0.0 0.00	62.5786163522	0.00	0.00	Partly_Cloudy(fair)	True	False	0.00
2011-01-08 01:00:00 8246 1 0.00 0.00 0.00 0.0 0.00	62.5786163522	0.00	0.00	Partly_Cloudy(fair)	True	False	0.00
2011-01-08 02:00:00 8247 2 0.00 0.00 0.00 0.0 0.00	62.5786163522	0.00	0.00	Partly_Cloudy(fair)	True	False	0.00
2011-01-08 03:00:00 8248 3 0.00 0.00 0.00 0.0 0.00	49.5642592407	0.00	0.00	Mostly_Cloudy(fair)	True	False	0.00
2011-01-08 04:00:00 8249 4 0.00 0.00 0.00 0.0 0.00	49.5642592407	0.00	0.00	Mostly_Cloudy(mostly_cloudy)	True	False	0.00
2011-01-08 05:00:00 8250 5 0.00 0.00 0.00 0.0 0.00	49.5642592407	0.00	0.00	Mostly_Cloudy(mostly_cloudy)	True	False	0.00
2011-01-08 06:00:00 8251 6 0.00 0.00 0.00 0.0 0.00	49.5642592407	0.00	0.00	Flurries(cloudy)	False	False	0.00
2011-01-08 07:00:00 8252 7 15.76 15.76 15.76 0.0 31.80	49.5642592407	15.76	0.00	Flurries(mostly_cloudy)	False	False	0.00
2011-01-08 08:00:00 8253 8 165.79 165.79 165.79 1.2 334.50	49.5642592407	165.79	1.20	Flurries(cloudy)	False	False	1.20
2011-01-08 09:00:00 8254 9 160.13 160.13 160.13 10.6 654.90	24.4508577842	160.13	10.60	Snow_Shower(mostly_cloudy)	True	False	10.60
2011-01-08 10:00:00 8255 10 217.98 217.98 217.98 17.8 891.50	24.4508577842	217.98	17.80	Snow_Shower(fair)	True	False	17.80
2011-01-08 11:00:00 8256 11 235.32 235.32 235.32 20.0 962.40	24.4508577842	235.32	20.00	Snow_Shower(fair)	True	False	20.00
2011-01-08 12:00:00 8257 12 244.09 244.09 244.09 16.7 998.30	24.4508577842	244.09	16.70	Snow_Shower(cloudy)	True	False	16.70
2011-01-08 13:00:00 8258 13 202.62 202.62 202.62 11.5 828.70	24.4508577842	202.62	11.50	Snow_Shower(snow)	True	False	11.50
2011-01-08 14:00:00 8259 14 152.50 152.50 152.50 4.3 623.70	24.4508577842	152.50	4.30	Snow_Shower(light_snow)	True	False	4.30
2011-01-08 15:00:00 8260 15 79.00 79.00 79.00 1.1 323.10	24.4508577842	79.00	1.10	Snow_Shower(light_snow)	True	False	1.10
2011-01-08 16:00:00 8261 16 13.57 13.57 13.57 0.0 55.50	24.4508577842	13.57	0.00	Snow_Shower(light_snow)	True	False	0.00
2011-01-08 17:00:00 8262 17 0.00 0.00 0.00 0.0 0.00	24.4508577842	0.00	0.00	Snow_Shower(light_snow)	True	False	0.00
2011-01-08 18:00:00 8263 18 0.00 0.00 0.00 0.0 0.00	24.4508577842	0.00	0.00	Snow_Shower(cloudy)	True	False	0.00
2011-01-08 19:00:00 8264 19 0.00 0.00 0.00 0.0 0.00	24.4508577842	0.00	0.00	Snow_Shower(cloudy)	True	False	0.00
2011-01-08 20:00:00 8265 20 0.00 0.00 0.00 0.0 0.00	24.4508577842	0.00	0.00	Snow_Shower(cloudy)	True	False	0.00
2011-01-08 21:00:00 8266 21 0.00 0.00 0.00 0.0 0.00	29.9263907325	0.00	0.00	Few_Snow_Showers(cloudy)	True	False	0.00
2011-01-08 22:00:00 8267 22 0.00 0.00 0.00 0.0 0.00	29.9263907325	0.00	0.00	Few_Snow_Showers(cloudy)	True	False	0.00
2011-01-08 23:00:00 8268 23 0.00 0.00 0.00 0.0 0.00	29.9263907325	0.00	0.00	Few_Snow_Showers(cloudy)	True	False	0.00
2011-01-09 00:00:00 8269 0 0.00 0.00 0.00 0.0 0.00	49.5642592407	0.00	0.00	Mostly_Cloudy(cloudy)	True	False	0.00
2011-01-09 01:00:00 8270 1 0.00 0.00 0.00 0.0 0.00	49.5642592407	0.00	0.00	Mostly_Cloudy(cloudy)	True	False	0.00
2011-01-09 02:00:00 8271 2 0.00 0.00 0.00 0.0 0.00	49.5642592407	0.00	0.00	Mostly_Cloudy(mostly_cloudy)	True	False	0.00
2011-01-09 03:00:00 8272 3 0.00 0.00 0.00 0.0 0.00	49.5642592407	0.00	0.00	Mostly_Cloudy(cloudy)	True	False	0.00
2011-01-09 04:00:00 8273 4 0.00 0.00 0.00 0.0 0.00	49.5642592407	0.00	0.00	Mostly_Cloudy(cloudy)	True	False	0.00
2011-01-09 05:00:00 8274 5 0.00 0.00 0.00 0.0 0.00	49.5642592407	0.00	0.00	Mostly_Cloudy(mostly_cloudy)	True	False	0.00
2011-01-09 06:00:00 8275 6 0.00 0.00 0.00 0.0 0.00	62.5786163522	0.00	0.00	Partly_Cloudy(fair)	True	False	0.00
2011-01-09 07:00:00 8276 7 19.90 19.90 19.90 0.0 31.80	62.5786163522	19.90	0.00	Partly_Cloudy(fair)	True	False	0.00
2011-01-09 08:00:00 8277 8 209.33 209.33 209.33 14.6 334.50	62.5786163522	209.33	14.60	Partly_Cloudy(fair)	True	False	14.60
2011-01-09 09:00:00 8278 9 409.83 409.83 409.83 45.2 654.90	62.5786163522	409.83	45.20	Partly_Cloudy(fair)	True	False	45.20
2011-01-09 10:00:00 8279 10 709.12 709.12 709.12 74.7 891.50	79.5419374807	709.12	74.70	Partly_Cloudy(fair)	True	False	74.70
2011-01-09 11:00:00 8280 11 765.51 765.51 765.51 102.6 962.40	79.5419374807	765.51	102.60	Partly_Cloudy(mostly_cloudy)	True	False	102.60
2011-01-09 12:00:00 8281 12 794.07 794.07 794.07 233.6 998.30	79.5419374807	794.07	233.60	Partly_Cloudy(mostly_cloudy)	True	False	233.60
2011-01-09 13:00:00 8282 13 659.16 659.16 659.16 388.4 828.70	79.5419374807	659.16	388.40	Partly_Cloudy(fair)	True	False	388.40
2011-01-09 14:00:00 8283 14 496.10 496.10 496.10 391.8 623.70	79.5419374807	496.10	391.80	Partly_Cloudy(mostly_cloudy)	True	False	391.80
2011-01-09 15:00:00 8284 15 257.00 257.00 257.00 188.8 323.10	79.5419374807	257.00	188.80	Partly_Cloudy(fair)	True	False	188.80
