2011-02-02 11:00:00 38191 11 0.00 884.01 0.00 91.7 1050.00	0.0	0.00	91.70	Few_Showers(cloudy)	True	False	91.70
2011-02-02 12:00:00 38192 12 92.57 92.57 219.70 131.5 1060.00	20.7264150943	219.70	131.50	Cloudy(cloudy)	True	False	131.50
2011-02-02 13:00:00 38193 13 200.34 84.42 200.34 139.2 966.60	20.7264150943	200.34	139.20	Cloudy(fog)	True	False	139.20
2011-02-02 14:00:00 38194 14 165.29 69.65 165.29 137.0 797.50	20.7264150943	165.29	137.00	Cloudy(fog)	True	False	137.00
2011-02-02 15:00:00 38195 15 106.70 44.96 106.70 92.4 514.80	20.7264150943	106.70	92.40	Cloudy(cloudy)	True	False	92.40
2011-02-02 16:00:00 38196 16 27.17 13.42 27.17 28.9 153.70	17.6777696565	27.17	28.90	Cloudy(fog)	True	False	28.90
2011-02-02 17:00:00 38197 17 0.74 0.37 0.74 0.0 4.20	17.6777696565	0.74	0.00	Cloudy(cloudy)	True	False	0.00
2011-02-02 18:00:00 38198 18 0.00 0.00 0.00 0.0 0.00	24.0877742947	0.00	0.00	Mostly_Cloudy(partly_cloudy)	True	False	0.00
2011-02-02 19:00:00 38199 19 0.00 0.00 0.00 0.0 0.00	24.0877742947	0.00	0.00	Mostly_Cloudy(fair)	True	False	0.00
2011-02-02 20:00:00 38200 20 0.00 0.00 0.00 0.0 0.00	24.0877742947	0.00	0.00	Mostly_Cloudy(fair)	True	False	0.00
2011-02-02 21:00:00 38201 21 0.00 0.00 0.00 0.0 0.00	24.0877742947	0.00	0.00	Mostly_Clear(partly_cloudy)	False	False	0.00
2011-02-02 22:00:00 38202 22 0.00 0.00 0.00 0.0 0.00	24.0877742947	0.00	0.00	Mostly_Clear(fair)	False	False	0.00
2011-02-02 23:00:00 38203 23 0.00 0.00 0.00 0.0 0.00	24.0877742947	0.00	0.00	Mostly_Clear(cloudy)	False	False	0.00
2011-02-03 00:00:00 38204 0 0.00 0.00 0.00 0.0 0.00	74.1764080765	0.00	0.00	Clear(cloudy)	True	False	0.00
2011-02-03 01:00:00 38205 1 0.00 0.00 0.00 0.0 0.00	74.1764080765	0.00	0.00	Clear(cloudy)	True	False	0.00
2011-02-03 02:00:00 38206 2 0.00 0.00 0.00 0.0 0.00	74.1764080765	0.00	0.00	Clear(cloudy)	True	False	0.00
2011-02-03 03:00:00 38207 3 0.00 0.00 0.00 0.0 0.00	74.1764080765	0.00	0.00	Clear(cloudy)	True	False	0.00
2011-02-03 04:00:00 38208 4 0.00 0.00 0.00 0.0 0.00	74.1764080765	0.00	0.00	Clear(cloudy)	True	False	0.00
2011-02-03 05:00:00 38209 5 0.00 0.00 0.00 0.0 0.00	74.1764080765	0.00	0.00	Clear(cloudy)	True	False	0.00
2011-02-03 06:00:00 38210 6 0.00 0.00 0.00 0.0 0.00	43.8894792774	0.00	0.00	Partly_Cloudy(mostly_cloudy)	True	False	0.00
2011-02-03 07:00:00 38211 7 41.30 41.30 41.30 12.7 94.10	43.8894792774	41.30	12.70	Partly_Cloudy(Unkown)	True	False	12.70
2011-02-03 08:00:00 38212 8 192.85 192.85 192.85 128.9 439.40	43.8894792774	192.85	128.90	Partly_Cloudy(Unkown)	True	False	128.90
2011-02-03 09:00:00 38213 9 329.43 329.43 329.43 451.1 750.60	43.8894792774	329.43	451.10	Partly_Cloudy(cloudy)	True	False	451.10
2011-02-03 10:00:00 38214 10 505.39 505.39 505.39 600.0 957.70	52.7714285714	505.39	600.00	Partly_Cloudy(fair)	True	False	600.00
2011-02-03 11:00:00 38215 11 554.10 554.10 554.10 674.2 1050.00	52.7714285714	554.10	674.20	Partly_Cloudy(fair)	True	False	674.20
2011-02-03 12:00:00 38216 12 559.38 559.38 559.38 698.0 1060.00	52.7714285714	559.38	698.00	Partly_Cloudy(fair)	True	False	698.00
2011-02-03 13:00:00 38217 13 510.09 510.09 510.09 636.9 966.60	52.7714285714	510.09	636.90	Partly_Cloudy(fair)	True	False	636.90
2011-02-03 14:00:00 38218 14 420.85 420.85 420.85 516.0 797.50	52.7714285714	420.85	516.00	Partly_Cloudy(fair)	True	False	516.00
2011-02-03 15:00:00 38219 15 271.67 271.67 271.67 323.0 514.80	52.7714285714	271.67	323.00	Partly_Cloudy(fair)	True	False	323.00
2011-02-03 16:00:00 38220 16 67.46 67.46 67.46 86.5 153.70	43.8894792774	67.46	86.50	Partly_Cloudy(fair)	True	False	86.50
2011-02-03 17:00:00 38221 17 1.84 1.84 1.84 0.5 4.20	43.8894792774	1.84	0.50	Partly_Cloudy(fair)	True	False	0.50
2011-02-03 18:00:00 38222 18 0.00 0.00 0.00 0.0 0.00	74.1764080765	0.00	0.00	Clear(fair)	True	False	0.00
2011-02-03 19:00:00 38223 19 0.00 0.00 0.00 0.0 0.00	74.1764080765	0.00	0.00	Clear(fair)	True	False	0.00
2011-02-03 20:00:00 38224 20 0.00 0.00 0.00 0.0 0.00	74.1764080765	0.00	0.00	Clear(fair)	True	False	0.00
2011-02-03 21:00:00 38225 21 0.00 0.00 0.00 0.0 0.00	74.1764080765	0.00	0.00	Clear(fair)	True	False	0.00
2011-02-03 22:00:00 38226 22 0.00 0.00 0.00 0.0 0.00	74.1764080765	0.00	0.00	Clear(fair)	True	False	0.00
2011-02-03 23:00:00 38227 23 0.00 0.00 0.00 0.0 0.00	74.1764080765	0.00	0.00	Clear(fair)	True	False	0.00
2011-02-04 00:00:00 38228 0 0.00 0.00 0.00 0.0 0.00	74.1764080765	0.00	0.00	Clear(fair)	True	False	0.00
2011-02-04 01:00:00 38229 1 0.00 0.00 0.00 0.0 0.00	74.1764080765	0.00	0.00	Clear(fair)	True	False	0.00
2011-02-04 02:00:00 38230 2 0.00 0.00 0.00 0.0 0.00	74.1764080765	0.00	0.00	Clear(fair)	True	False	0.00
2011-02-04 03:00:00 38231 3 0.00 0.00 0.00 0.0 0.00	74.1764080765	0.00	0.00	Mostly_Clear(fair)	False	False	0.00
2011-02-04 04:00:00 38232 4 0.00 0.00 0.00 0.0 0.00	74.1764080765	0.00	0.00	Mostly_Clear(fair)	False	False	0.00
2011-02-04 05:00:00 38233 5 0.00 0.00 0.00 0.0 0.00	74.1764080765	0.00	0.00	Mostly_Clear(fair)	False	False	0.00
2011-02-04 06:00:00 38234 6 0.00 0.00 0.00 0.0 0.00	74.1764080765	0.00	0.00	Clear(fair)	True	False	0.00
2011-02-04 07:00:00 38235 7 69.80 69.80 69.80 17.3 94.10	74.1764080765	69.80	17.30	Clear(fair)	True	False	17.30
2011-02-04 08:00:00 38236 8 325.93 325.93 325.93 131.0 439.40	74.1764080765	325.93	131.00	Sunny(fair)	True	False	131.00
2011-02-04 09:00:00 38237 9 556.77 556.77 556.77 263.7 750.60	74.1764080765	556.77	263.70	Sunny(fair)	True	False	263.70
2011-02-04 10:00:00 38238 10 806.30 806.30 806.30 334.7 957.70	84.1912916362	806.30	334.70	Sunny(fair)	True	False	334.70
2011-02-04 11:00:00 38239 11 884.01 884.01 884.01 413.7 1050.00	84.1912916362	884.01	413.70	Sunny(fair)	True	False	413.70
