2011-01-23 12:00:00 26696 12 921.01 921.01 610.60 356.8 1055.60	57.8438802577	610.60	356.80	Partly_Cloudy(fair)	True	False	356.80
2011-01-23 13:00:00 26697 13 318.88 318.88 545.70 340.4 943.40	57.8438802577	545.70	340.40	Partly_Cloudy(fair)	True	False	340.40
2011-01-23 14:00:00 26698 14 442.91 258.81 442.91 289.7 765.70	57.8438802577	442.91	289.70	Partly_Cloudy(fair)	True	False	289.70
2011-01-23 15:00:00 26699 15 275.63 161.06 275.63 140.1 476.50	57.8438802577	275.63	140.10	Partly_Cloudy(fair)	True	False	140.10
2011-01-23 16:00:00 26700 16 57.40 41.64 57.40 20.4 123.20	46.5897166842	57.40	20.40	Partly_Cloudy(fair)	True	False	20.40
2011-01-23 17:00:00 26701 17 0.65 0.47 0.65 0.0 1.40	46.5897166842	0.65	0.00	Partly_Cloudy(fair)	True	False	0.00
2011-01-23 18:00:00 26702 18 0.00 0.00 0.00 0.0 0.00	46.5897166842	0.00	0.00	Partly_Cloudy(fair)	True	False	0.00
2011-01-23 19:00:00 26703 19 0.00 0.00 0.00 0.0 0.00	46.5897166842	0.00	0.00	Partly_Cloudy(fair)	True	False	0.00
2011-01-23 20:00:00 26704 20 0.00 0.00 0.00 0.0 0.00	46.5897166842	0.00	0.00	Partly_Cloudy(fair)	True	False	0.00
2011-01-23 21:00:00 26705 21 0.00 0.00 0.00 0.0 0.00	46.5897166842	0.00	0.00	Mostly_Clear(fair)	False	False	0.00
2011-01-23 22:00:00 26706 22 0.00 0.00 0.00 0.0 0.00	46.5897166842	0.00	0.00	Mostly_Clear(fair)	False	False	0.00
2011-01-23 23:00:00 26707 23 0.00 0.00 0.00 0.0 0.00	46.5897166842	0.00	0.00	Mostly_Clear(fair)	False	False	0.00
2011-01-24 00:00:00 26708 0 0.00 0.00 0.00 0.0 0.00	82.2857142857	0.00	0.00	Clear(fair)	True	False	0.00
2011-01-24 01:00:00 26709 1 0.00 0.00 0.00 0.0 0.00	82.2857142857	0.00	0.00	Clear(fair)	True	False	0.00
2011-01-24 02:00:00 26710 2 0.00 0.00 0.00 0.0 0.00	82.2857142857	0.00	0.00	Clear(fair)	True	False	0.00
2011-01-24 03:00:00 26711 3 0.00 0.00 0.00 0.0 0.00	82.2857142857	0.00	0.00	Clear(fair)	True	False	0.00
2011-01-24 04:00:00 26712 4 0.00 0.00 0.00 0.0 0.00	82.2857142857	0.00	0.00	Clear(fair)	True	False	0.00
2011-01-24 05:00:00 26713 5 0.00 0.00 0.00 0.0 0.00	82.2857142857	0.00	0.00	Clear(fair)	True	False	0.00
2011-01-24 06:00:00 26714 6 0.00 0.00 0.00 0.0 0.00	82.2857142857	0.00	0.00	Clear(fair)	True	False	0.00
2011-01-24 07:00:00 26715 7 56.78 56.78 56.78 19.0 69.00	82.2857142857	56.78	19.00	Clear(fair)	True	False	19.00
2011-01-24 08:00:00 26716 8 349.96 349.96 349.96 155.2 425.30	82.2857142857	349.96	155.20	Sunny(fair)	True	False	155.20
2011-01-24 09:00:00 26717 9 617.64 617.64 617.64 291.0 750.60	82.2857142857	617.64	291.00	Sunny(fair)	True	False	291.00
2011-01-24 10:00:00 26718 10 835.60 835.60 835.60 385.0 957.70	87.2501998401	835.60	385.00	Sunny(fair)	True	False	385.00
2011-01-24 11:00:00 26719 11 916.13 916.13 916.13 446.3 1050.00	87.2501998401	916.13	446.30	Sunny(fair)	True	False	446.30
2011-01-24 12:00:00 26720 12 921.01 921.01 921.01 485.1 1055.60	87.2501998401	921.01	485.10	Mostly_Sunny(fair)	False	False	485.10
2011-01-24 13:00:00 26721 13 823.12 823.12 823.12 460.8 943.40	87.2501998401	823.12	460.80	Mostly_Sunny(fair)	False	False	460.80
2011-01-24 14:00:00 26722 14 668.07 668.07 668.07 379.3 765.70	87.2501998401	668.07	379.30	Mostly_Sunny(fair)	False	False	379.30
2011-01-24 15:00:00 26723 15 275.63 275.63 275.63 215.2 476.50	57.8438802577	275.63	215.20	Partly_Cloudy(fair)	True	False	215.20
2011-01-24 16:00:00 26724 16 57.40 57.40 57.40 30.1 123.20	46.5897166842	57.40	30.10	Partly_Cloudy(mostly_cloudy)	True	False	30.10
2011-01-24 17:00:00 26725 17 0.65 0.65 0.65 0.0 1.40	46.5897166842	0.65	0.00	Partly_Cloudy(fair)	True	False	0.00
2011-01-24 18:00:00 26726 18 0.00 0.00 0.00 0.0 0.00	46.5897166842	0.00	0.00	Partly_Cloudy(cloudy)	True	False	0.00
2011-01-24 19:00:00 26727 19 0.00 0.00 0.00 0.0 0.00	46.5897166842	0.00	0.00	Partly_Cloudy(cloudy)	True	False	0.00
2011-01-24 20:00:00 26728 20 0.00 0.00 0.00 0.0 0.00	46.5897166842	0.00	0.00	Partly_Cloudy(cloudy)	True	False	0.00
2011-01-24 21:00:00 26729 21 0.00 0.00 0.00 0.0 0.00	28.547561867	0.00	0.00	Mostly_Cloudy(cloudy)	True	False	0.00
2011-01-24 22:00:00 26730 22 0.00 0.00 0.00 0.0 0.00	28.547561867	0.00	0.00	Mostly_Cloudy(mostly_cloudy)	True	False	0.00
2011-01-24 23:00:00 26731 23 0.00 0.00 0.00 0.0 0.00	28.547561867	0.00	0.00	Mostly_Cloudy(cloudy)	True	False	0.00
2011-01-25 00:00:00 26732 0 0.00 0.00 0.00 0.0 0.00	28.547561867	0.00	0.00	Mostly_Cloudy(cloudy)	True	False	0.00
2011-01-25 01:00:00 26733 1 0.00 0.00 0.00 0.0 0.00	28.547561867	0.00	0.00	Mostly_Cloudy(cloudy)	True	False	0.00
2011-01-25 02:00:00 26734 2 0.00 0.00 0.00 0.0 0.00	28.547561867	0.00	0.00	Mostly_Cloudy(cloudy)	True	False	0.00
2011-01-25 03:00:00 26735 3 0.00 0.00 0.00 0.0 0.00	28.547561867	0.00	0.00	Flurries(cloudy)	False	False	0.00
2011-01-25 04:00:00 26736 4 0.00 0.00 0.00 0.0 0.00	28.547561867	0.00	0.00	Flurries(cloudy)	False	False	0.00
2011-01-25 05:00:00 26737 5 0.00 0.00 0.00 0.0 0.00	28.547561867	0.00	0.00	Flurries(cloudy)	False	False	0.00
2011-01-25 06:00:00 26738 6 0.00 0.00 0.00 0.0 0.00	28.547561867	0.00	0.00	Flurries(cloudy)	False	False	0.00
2011-01-25 07:00:00 26739 7 19.70 19.70 19.70 0.0 69.00	28.547561867	19.70	0.00	Flurries(light_snow)	False	False	0.00
2011-01-25 08:00:00 26740 8 121.41 121.41 121.41 8.5 425.30	28.547561867	121.41	8.50	Flurries(light_snow)	False	False	8.50
2011-01-25 09:00:00 26741 9 137.68 137.68 137.68 18.5 750.60	18.3420776495	137.68	18.50	Cloudy(light_snow)	True	False	18.50
2011-01-25 10:00:00 26742 10 196.28 196.28 196.28 27.6 957.70	20.4952380952	196.28	27.60	Cloudy(cloudy)	True	False	27.60
2011-01-25 11:00:00 26743 11 215.20 215.20 215.20 89.6 1050.00	20.4952380952	215.20	89.60	Cloudy(cloudy)	True	False	89.60
2011-01-25 12:00:00 26744 12 46.29 46.29 46.29 242.2 1055.60	4.38550694372	46.29	242.20	Few_Snow_Showers(fair)	True	False	242.20
