2011-01-07 00:00:00 7504 0 0.00 0.00 0.00 0.0 0.00	49.5642592407	0.00	0.00	Mostly_Cloudy(cloudy)	True	False	0.00
2011-01-07 01:00:00 7505 1 0.00 0.00 0.00 0.0 0.00	40.8805031447	0.00	0.00	Cloudy(cloudy)	True	False	0.00
2011-01-07 02:00:00 7506 2 0.00 0.00 0.00 0.0 0.00	40.8805031447	0.00	0.00	Cloudy(cloudy)	True	False	0.00
2011-01-07 03:00:00 7507 3 0.00 0.00 0.00 0.0 0.00	29.9263907325	0.00	0.00	Light_Snow(cloudy)	True	False	0.00
2011-01-07 04:00:00 7508 4 0.00 0.00 0.00 0.0 0.00	29.9263907325	0.00	0.00	Flurries(cloudy)	False	False	0.00
2011-01-07 05:00:00 7509 5 0.00 0.00 0.00 0.0 0.00	40.8805031447	0.00	0.00	Cloudy(cloudy)	True	False	0.00
2011-01-07 06:00:00 7510 6 0.00 0.00 0.00 0.0 0.00	29.9263907325	0.00	0.00	Light_Snow(light_snow)	True	False	0.00
2011-01-07 07:00:00 7511 7 9.52 9.52 9.52 0.0 31.80	29.9263907325	9.52	0.00	Light_Snow(light_snow)	True	False	0.00
2011-01-07 08:00:00 7512 8 100.10 100.10 100.10 0.1 334.50	29.9263907325	100.10	0.10	Light_Snow(light_snow)	True	False	0.10
2011-01-07 09:00:00 7513 9 160.13 160.13 160.13 6.0 654.90	24.4508577842	160.13	6.00	Snow(light_snow)	True	False	6.00
2011-01-07 10:00:00 7514 10 217.98 217.98 217.98 19.9 891.50	24.4508577842	217.98	19.90	Snow(snow)	True	False	19.90
2011-01-07 11:00:00 7515 11 235.32 235.32 235.32 5.8 962.40	24.4508577842	235.32	5.80	Snow(light_snow)	True	False	5.80
2011-01-07 12:00:00 7516 12 244.09 244.09 244.09 10.8 998.30	24.4508577842	244.09	10.80	Snow(light_snow)	True	False	10.80
2011-01-07 13:00:00 7517 13 202.62 202.62 202.62 13.7 828.70	24.4508577842	202.62	13.70	Snow(light_snow)	True	False	13.70
2011-01-07 14:00:00 7518 14 152.50 152.50 152.50 10.0 623.70	24.4508577842	152.50	10.00	Snow(cloudy)	True	False	10.00
2011-01-07 15:00:00 7519 15 96.69 96.69 96.69 6.7 323.10	29.9263907325	96.69	6.70	Light_Snow(cloudy)	True	False	6.70
2011-01-07 16:00:00 7520 16 16.61 16.61 16.61 0.7 55.50	29.9263907325	16.61	0.70	Light_Snow(fair)	True	False	0.70
2011-01-07 17:00:00 7521 17 0.00 0.00 0.00 0.0 0.00	29.9263907325	0.00	0.00	Light_Snow(fair)	True	False	0.00
2011-01-07 18:00:00 7522 18 0.00 0.00 0.00 0.0 0.00	29.9263907325	0.00	0.00	Few_Snow_Showers(fair)	True	False	0.00
2011-01-07 19:00:00 7523 19 0.00 0.00 0.00 0.0 0.00	29.9263907325	0.00	0.00	Few_Snow_Showers(fair)	True	False	0.00
2011-01-07 20:00:00 7524 20 0.00 0.00 0.00 0.0 0.00	29.9263907325	0.00	0.00	Few_Snow_Showers(fair)	True	False	0.00
2011-01-07 21:00:00 7525 21 0.00 0.00 0.00 0.0 0.00	49.5642592407	0.00	0.00	Mostly_Cloudy(fair)	True	False	0.00
2011-01-07 22:00:00 7526 22 0.00 0.00 0.00 0.0 0.00	49.5642592407	0.00	0.00	Mostly_Cloudy(fair)	True	False	0.00
2011-01-07 23:00:00 7527 23 0.00 0.00 0.00 0.0 0.00	49.5642592407	0.00	0.00	Mostly_Cloudy(fair)	True	False	0.00
2011-01-08 00:00:00 7528 0 0.00 0.00 0.00 0.0 0.00	62.5786163522	0.00	0.00	Partly_Cloudy(fair)	True	False	0.00
2011-01-08 01:00:00 7529 1 0.00 0.00 0.00 0.0 0.00	62.5786163522	0.00	0.00	Partly_Cloudy(fair)	True	False	0.00
2011-01-08 02:00:00 7530 2 0.00 0.00 0.00 0.0 0.00	62.5786163522	0.00	0.00	Partly_Cloudy(fair)	True	False	0.00
2011-01-08 03:00:00 7531 3 0.00 0.00 0.00 0.0 0.00	62.5786163522	0.00	0.00	Partly_Cloudy(fair)	True	False	0.00
2011-01-08 04:00:00 7532 4 0.00 0.00 0.00 0.0 0.00	62.5786163522	0.00	0.00	Partly_Cloudy(mostly_cloudy)	True	False	0.00
2011-01-08 05:00:00 7533 5 0.00 0.00 0.00 0.0 0.00	62.5786163522	0.00	0.00	Partly_Cloudy(mostly_cloudy)	True	False	0.00
2011-01-08 06:00:00 7534 6 0.00 0.00 0.00 0.0 0.00	49.5642592407	0.00	0.00	Mostly_Cloudy(cloudy)	True	False	0.00
2011-01-08 07:00:00 7535 7 15.76 15.76 15.76 0.0 31.80	49.5642592407	15.76	0.00	Mostly_Cloudy(mostly_cloudy)	True	False	0.00
2011-01-08 08:00:00 7536 8 165.79 165.79 165.79 1.2 334.50	49.5642592407	165.79	1.20	Mostly_Cloudy(cloudy)	True	False	1.20
2011-01-08 09:00:00 7537 9 267.73 267.73 267.73 10.6 654.90	40.8805031447	267.73	10.60	Cloudy(mostly_cloudy)	True	False	10.60
2011-01-08 10:00:00 7538 10 376.09 376.09 376.09 17.8 891.50	42.1862011638	376.09	17.80	Cloudy(fair)	True	False	17.80
2011-01-08 11:00:00 7539 11 406.00 406.00 406.00 20.0 962.40	42.1862011638	406.00	20.00	Cloudy(fair)	True	False	20.00
2011-01-08 12:00:00 7540 12 421.14 421.14 421.14 16.7 998.30	42.1862011638	421.14	16.70	Cloudy(cloudy)	True	False	16.70
2011-01-08 13:00:00 7541 13 349.60 349.60 349.60 11.5 828.70	42.1862011638	349.60	11.50	Cloudy(snow)	True	False	11.50
2011-01-08 14:00:00 7542 14 263.12 263.12 263.12 4.3 623.70	42.1862011638	263.12	4.30	Cloudy(light_snow)	True	False	4.30
2011-01-08 15:00:00 7543 15 170.40 170.40 170.40 1.1 323.10	52.7396574176	170.40	1.10	Mostly_Cloudy(light_snow)	True	False	1.10
2011-01-08 16:00:00 7544 16 27.51 27.51 27.51 0.0 55.50	49.5642592407	27.51	0.00	Mostly_Cloudy(light_snow)	True	False	0.00
2011-01-08 17:00:00 7545 17 0.00 0.00 0.00 0.0 0.00	49.5642592407	0.00	0.00	Mostly_Cloudy(light_snow)	True	False	0.00
2011-01-08 18:00:00 7546 18 0.00 0.00 0.00 0.0 0.00	29.9263907325	0.00	0.00	Few_Snow_Showers(cloudy)	True	False	0.00
2011-01-08 19:00:00 7547 19 0.00 0.00 0.00 0.0 0.00	29.9263907325	0.00	0.00	Few_Snow_Showers(cloudy)	True	False	0.00
2011-01-08 20:00:00 7548 20 0.00 0.00 0.00 0.0 0.00	29.9263907325	0.00	0.00	Few_Snow_Showers(cloudy)	True	False	0.00
2011-01-08 21:00:00 7549 21 0.00 0.00 0.00 0.0 0.00	49.5642592407	0.00	0.00	Mostly_Cloudy(cloudy)	True	False	0.00
2011-01-08 22:00:00 7550 22 0.00 0.00 0.00 0.0 0.00	49.5642592407	0.00	0.00	Mostly_Cloudy(cloudy)	True	False	0.00
2011-01-08 23:00:00 7551 23 0.00 0.00 0.00 0.0 0.00	49.5642592407	0.00	0.00	Mostly_Cloudy(cloudy)	True	False	0.00
