2011-01-03 11:00:00 3557 11 884.78 884.78 884.78 919.3 962.40	91.9352252686	884.78	919.30	Sunny(fair)	True	False	919.30
2011-01-03 12:00:00 3558 12 917.79 917.79 917.79 915.9 998.30	91.9352252686	917.79	915.90	Sunny(fair)	True	False	915.90
2011-01-03 13:00:00 3559 13 761.87 761.87 761.87 783.1 828.70	91.9352252686	761.87	783.10	Sunny(fair)	True	False	783.10
2011-01-03 14:00:00 3560 14 573.40 573.40 573.40 571.7 623.70	91.9352252686	573.40	571.70	Sunny(fair)	True	False	571.70
2011-01-03 15:00:00 3561 15 288.22 288.22 288.22 236.0 313.50	91.9352252686	288.22	236.00	Mostly_Sunny(fair)	False	False	236.00
2011-01-03 16:00:00 3562 16 30.59 30.59 30.59 14.9 43.20	70.8133971292	30.59	14.90	Partly_Cloudy(fair)	True	False	14.90
2011-01-03 17:00:00 3563 17 0.00 0.00 0.00 0.0 0.00	70.8133971292	0.00	0.00	Mostly_Clear(fair)	False	False	0.00
2011-01-03 18:00:00 3564 18 0.00 0.00 0.00 0.0 0.00	91.9352252686	0.00	0.00	Clear(fair)	True	False	0.00
2011-01-03 19:00:00 3565 19 0.00 0.00 0.00 0.0 0.00	91.9352252686	0.00	0.00	Clear(fair)	True	False	0.00
2011-01-03 20:00:00 3566 20 0.00 0.00 0.00 0.0 0.00	91.9352252686	0.00	0.00	Clear(fair)	True	False	0.00
2011-01-03 21:00:00 3567 21 0.00 0.00 0.00 0.0 0.00	91.9352252686	0.00	0.00	Mostly_Clear(fair)	False	False	0.00
2011-01-03 22:00:00 3568 22 0.00 0.00 0.00 0.0 0.00	91.9352252686	0.00	0.00	Mostly_Clear(fair)	False	False	0.00
2011-01-03 23:00:00 3569 23 0.00 0.00 0.00 0.0 0.00	91.9352252686	0.00	0.00	Mostly_Clear(fair)	False	False	0.00
2011-01-04 00:00:00 3570 0 0.00 0.00 0.00 0.0 0.00	70.8133971292	0.00	0.00	Partly_Cloudy(fair)	True	False	0.00
2011-01-04 01:00:00 3571 1 0.00 0.00 0.00 0.0 0.00	70.8133971292	0.00	0.00	Partly_Cloudy(fair)	True	False	0.00
2011-01-04 02:00:00 3572 2 0.00 0.00 0.00 0.0 0.00	70.8133971292	0.00	0.00	Partly_Cloudy(fair)	True	False	0.00
2011-01-04 03:00:00 3573 3 0.00 0.00 0.00 0.0 0.00	49.5642592407	0.00	0.00	Mostly_Cloudy(fair)	True	False	0.00
2011-01-04 04:00:00 3574 4 0.00 0.00 0.00 0.0 0.00	49.5642592407	0.00	0.00	Mostly_Cloudy(fair)	True	False	0.00
2011-01-04 05:00:00 3575 5 0.00 0.00 0.00 0.0 0.00	49.5642592407	0.00	0.00	Mostly_Cloudy(fair)	True	False	0.00
2011-01-04 06:00:00 3576 6 0.00 0.00 0.00 0.0 0.00	49.5642592407	0.00	0.00	Mostly_Cloudy(fair)	True	False	0.00
2011-01-04 07:00:00 3577 7 12.14 12.14 12.14 0.6 24.50	49.5642592407	12.14	0.60	Mostly_Cloudy(fair)	True	False	0.60
2011-01-04 08:00:00 3578 8 151.32 151.32 151.32 61.7 305.30	49.5642592407	151.32	61.70	Mostly_Cloudy(fair)	True	False	61.70
2011-01-04 09:00:00 3579 9 323.80 323.80 323.80 140.1 653.30	49.5642592407	323.80	140.10	Mostly_Cloudy(fair)	True	False	140.10
2011-01-04 10:00:00 3580 10 470.17 470.17 470.17 215.4 891.50	52.7396574176	470.17	215.40	Mostly_Cloudy(fair)	True	False	215.40
2011-01-04 11:00:00 3581 11 507.57 507.57 507.57 577.2 962.40	52.7396574176	507.57	577.20	Mostly_Cloudy(fair)	True	False	577.20
2011-01-04 12:00:00 3582 12 526.50 526.50 526.50 878.6 998.30	52.7396574176	526.50	878.60	Mostly_Cloudy(cloudy)	True	False	878.60
2011-01-04 13:00:00 3583 13 437.05 437.05 437.05 689.8 828.70	52.7396574176	437.05	689.80	Mostly_Cloudy(fair)	True	False	689.80
2011-01-04 14:00:00 3584 14 328.94 328.94 328.94 325.4 623.70	52.7396574176	328.94	325.40	Mostly_Cloudy(partly_cloudy)	True	False	325.40
2011-01-04 15:00:00 3585 15 165.34 165.34 165.34 118.4 313.50	52.7396574176	165.34	118.40	Mostly_Cloudy(fair)	True	False	118.40
2011-01-04 16:00:00 3586 16 21.41 21.41 21.41 15.7 43.20	49.5642592407	21.41	15.70	Mostly_Cloudy(fair)	True	False	15.70
2011-01-04 17:00:00 3587 17 0.00 0.00 0.00 0.0 0.00	49.5642592407	0.00	0.00	Mostly_Cloudy(fair)	True	False	0.00
2011-01-04 18:00:00 3588 18 0.00 0.00 0.00 0.0 0.00	70.8133971292	0.00	0.00	Partly_Cloudy(fair)	True	False	0.00
2011-01-04 19:00:00 3589 19 0.00 0.00 0.00 0.0 0.00	70.8133971292	0.00	0.00	Partly_Cloudy(fair)	True	False	0.00
2011-01-04 20:00:00 3590 20 0.00 0.00 0.00 0.0 0.00	70.8133971292	0.00	0.00	Partly_Cloudy(fair)	True	False	0.00
2011-01-04 21:00:00 3591 21 0.00 0.00 0.00 0.0 0.00	70.8133971292	0.00	0.00	Partly_Cloudy(mostly_cloudy)	True	False	0.00
2011-01-04 22:00:00 3592 22 0.00 0.00 0.00 0.0 0.00	70.8133971292	0.00	0.00	Partly_Cloudy(mostly_cloudy)	True	False	0.00
2011-01-04 23:00:00 3593 23 0.00 0.00 0.00 0.0 0.00	70.8133971292	0.00	0.00	Partly_Cloudy(partly_cloudy)	True	False	0.00
2011-01-05 00:00:00 3594 0 0.00 0.00 0.00 0.0 0.00	70.8133971292	0.00	0.00	Partly_Cloudy(fair)	True	False	0.00
2011-01-05 01:00:00 3595 1 0.00 0.00 0.00 0.0 0.00	70.8133971292	0.00	0.00	Partly_Cloudy(fair)	True	False	0.00
2011-01-05 02:00:00 3596 2 0.00 0.00 0.00 0.0 0.00	70.8133971292	0.00	0.00	Partly_Cloudy(fair)	True	False	0.00
2011-01-05 03:00:00 3597 3 0.00 0.00 0.00 0.0 0.00	70.8133971292	0.00	0.00	Partly_Cloudy(cloudy)	True	False	0.00
2011-01-05 04:00:00 3598 4 0.00 0.00 0.00 0.0 0.00	70.8133971292	0.00	0.00	Partly_Cloudy(fair)	True	False	0.00
2011-01-05 05:00:00 3599 5 0.00 0.00 0.00 0.0 0.00	70.8133971292	0.00	0.00	Partly_Cloudy(fair)	True	False	0.00
2011-01-05 06:00:00 3600 6 0.00 0.00 0.00 0.0 0.00	70.8133971292	0.00	0.00	Mostly_Clear(partly_cloudy)	False	False	0.00
2011-01-05 07:00:00 3601 7 17.35 17.35 17.35 20.0 24.50	70.8133971292	17.35	20.00	Mostly_Clear(fair)	False	False	20.00
2011-01-05 08:00:00 3602 8 216.19 216.19 216.19 277.6 305.30	70.8133971292	216.19	277.60	Mostly_Sunny(fair)	False	False	277.60
2011-01-05 09:00:00 3603 9 600.61 600.61 600.61 618.2 653.30	91.9352252686	600.61	618.20	Sunny(fair)	True	False	618.20
2011-01-05 10:00:00 3604 10 819.60 819.60 819.60 804.8 891.50	91.9352252686	819.60	804.80	Sunny(fair)	True	False	804.80
2011-01-05 11:00:00 3605 11 884.78 884.78 884.78 753.4 962.40	91.9352252686	884.78	753.40	Sunny(fair)	True	False	753.40
