2011-01-04 09:00:00 4616 9 464.27 464.27 464.27 140.1 653.30	71.0648148148	464.27	140.10	Partly_Cloudy(fair)	True	False	140.10
2011-01-04 10:00:00 4617 10 191.18 191.18 191.18 215.4 891.50	71.0648148148	191.18	215.40	Mostly_Sunny(fair)	False	False	215.40
2011-01-04 11:00:00 4618 11 206.39 206.39 683.93 577.2 962.40	71.0648148148	683.93	577.20	Mostly_Sunny(fair)	False	False	577.20
2011-01-04 12:00:00 4619 12 798.70 214.09 798.70 878.6 998.30	80.0060102174	798.70	878.60	Partly_Cloudy(cloudy)	True	False	878.60
2011-01-04 13:00:00 4620 13 437.05 177.71 437.05 689.8 828.70	52.7396574176	437.05	689.80	Mostly_Cloudy(fair)	True	False	689.80
2011-01-04 14:00:00 4621 14 328.94 133.75 328.94 325.4 623.70	52.7396574176	328.94	325.40	Mostly_Cloudy(partly_cloudy)	True	False	325.40
2011-01-04 15:00:00 4622 15 170.40 69.29 170.40 118.4 323.10	52.7396574176	170.40	118.40	Mostly_Cloudy(fair)	True	False	118.40
2011-01-04 16:00:00 4623 16 21.41 9.26 21.41 15.7 43.20	49.5642592407	21.41	15.70	Mostly_Cloudy(fair)	True	False	15.70
2011-01-04 17:00:00 4624 17 0.00 0.00 0.00 0.0 0.00	49.5642592407	0.00	0.00	Mostly_Cloudy(fair)	True	False	0.00
2011-01-04 18:00:00 4625 18 0.00 0.00 0.00 0.0 0.00	71.0648148148	0.00	0.00	Partly_Cloudy(fair)	True	False	0.00
2011-01-04 19:00:00 4626 19 0.00 0.00 0.00 0.0 0.00	71.0648148148	0.00	0.00	Partly_Cloudy(fair)	True	False	0.00
2011-01-04 20:00:00 4627 20 0.00 0.00 0.00 0.0 0.00	71.0648148148	0.00	0.00	Partly_Cloudy(fair)	True	False	0.00
2011-01-04 21:00:00 4628 21 0.00 0.00 0.00 0.0 0.00	71.0648148148	0.00	0.00	Partly_Cloudy(mostly_cloudy)	True	False	0.00
2011-01-04 22:00:00 4629 22 0.00 0.00 0.00 0.0 0.00	71.0648148148	0.00	0.00	Partly_Cloudy(mostly_cloudy)	True	False	0.00
2011-01-04 23:00:00 4630 23 0.00 0.00 0.00 0.0 0.00	71.0648148148	0.00	0.00	Partly_Cloudy(partly_cloudy)	True	False	0.00
2011-01-05 00:00:00 4631 0 0.00 0.00 0.00 0.0 0.00	71.0648148148	0.00	0.00	Mostly_Clear(fair)	False	False	0.00
2011-01-05 01:00:00 4632 1 0.00 0.00 0.00 0.0 0.00	71.0648148148	0.00	0.00	Mostly_Clear(fair)	False	False	0.00
2011-01-05 02:00:00 4633 2 0.00 0.00 0.00 0.0 0.00	71.0648148148	0.00	0.00	Mostly_Clear(fair)	False	False	0.00
2011-01-05 03:00:00 4634 3 0.00 0.00 0.00 0.0 0.00	71.0648148148	0.00	0.00	Mostly_Clear(cloudy)	False	False	0.00
2011-01-05 04:00:00 4635 4 0.00 0.00 0.00 0.0 0.00	71.0648148148	0.00	0.00	Mostly_Clear(fair)	False	False	0.00
2011-01-05 05:00:00 4636 5 0.00 0.00 0.00 0.0 0.00	71.0648148148	0.00	0.00	Mostly_Clear(fair)	False	False	0.00
2011-01-05 06:00:00 4637 6 0.00 0.00 0.00 0.0 0.00	92.7265170407	0.00	0.00	Clear(partly_cloudy)	True	False	0.00
2011-01-05 07:00:00 4638 7 22.72 22.72 22.72 20.0 24.50	92.7265170407	22.72	20.00	Clear(fair)	True	False	20.00
2011-01-05 08:00:00 4639 8 283.09 283.09 283.09 277.6 305.30	92.7265170407	283.09	277.60	Sunny(fair)	True	False	277.60
2011-01-05 09:00:00 4640 9 605.78 605.78 605.78 618.2 653.30	92.7265170407	605.78	618.20	Sunny(fair)	True	False	618.20
2011-01-05 10:00:00 4641 10 826.66 826.66 826.66 804.8 891.50	92.7265170407	826.66	804.80	Sunny(fair)	True	False	804.80
2011-01-05 11:00:00 4642 11 892.40 892.40 892.40 753.4 962.40	92.7265170407	892.40	753.40	Sunny(fair)	True	False	753.40
2011-01-05 12:00:00 4643 12 925.69 925.69 925.69 857.7 998.30	92.7265170407	925.69	857.70	Sunny(fair)	True	False	857.70
2011-01-05 13:00:00 4644 13 768.42 768.42 768.42 649.9 828.70	92.7265170407	768.42	649.90	Sunny(fair)	True	False	649.90
2011-01-05 14:00:00 4645 14 578.34 578.34 578.34 308.4 623.70	92.7265170407	578.34	308.40	Sunny(partly_cloudy)	True	False	308.40
2011-01-05 15:00:00 4646 15 299.60 299.60 299.60 236.3 323.10	92.7265170407	299.60	236.30	Mostly_Sunny(mostly_cloudy)	False	False	236.30
2011-01-05 16:00:00 4647 16 40.06 40.06 40.06 20.1 43.20	92.7265170407	40.06	20.10	Mostly_Sunny(fair)	False	False	20.10
2011-01-05 17:00:00 4648 17 0.00 0.00 0.00 0.0 0.00	92.7265170407	0.00	0.00	Mostly_Clear(fair)	False	False	0.00
2011-01-05 18:00:00 4649 18 0.00 0.00 0.00 0.0 0.00	92.7265170407	0.00	0.00	Mostly_Clear(mostly_cloudy)	False	False	0.00
2011-01-05 19:00:00 4650 19 0.00 0.00 0.00 0.0 0.00	92.7265170407	0.00	0.00	Mostly_Clear(mostly_cloudy)	False	False	0.00
2011-01-05 20:00:00 4651 20 0.00 0.00 0.00 0.0 0.00	92.7265170407	0.00	0.00	Mostly_Clear(fair)	False	False	0.00
2011-01-05 21:00:00 4652 21 0.00 0.00 0.00 0.0 0.00	71.0648148148	0.00	0.00	Partly_Cloudy(fair)	True	False	0.00
2011-01-05 22:00:00 4653 22 0.00 0.00 0.00 0.0 0.00	71.0648148148	0.00	0.00	Partly_Cloudy(fair)	True	False	0.00
2011-01-05 23:00:00 4654 23 0.00 0.00 0.00 0.0 0.00	71.0648148148	0.00	0.00	Partly_Cloudy(fair)	True	False	0.00
2011-01-06 00:00:00 4655 0 0.00 0.00 0.00 0.0 0.00	49.5642592407	0.00	0.00	Mostly_Cloudy(fair)	True	False	0.00
2011-01-06 01:00:00 4656 1 0.00 0.00 0.00 0.0 0.00	49.5642592407	0.00	0.00	Mostly_Cloudy(fair)	True	False	0.00
2011-01-06 02:00:00 4657 2 0.00 0.00 0.00 0.0 0.00	49.5642592407	0.00	0.00	Mostly_Cloudy(fair)	True	False	0.00
2011-01-06 03:00:00 4658 3 0.00 0.00 0.00 0.0 0.00	49.5642592407	0.00	0.00	Mostly_Cloudy(fair)	True	False	0.00
2011-01-06 04:00:00 4659 4 0.00 0.00 0.00 0.0 0.00	49.5642592407	0.00	0.00	Mostly_Cloudy(fair)	True	False	0.00
2011-01-06 05:00:00 4660 5 0.00 0.00 0.00 0.0 0.00	49.5642592407	0.00	0.00	Mostly_Cloudy(fair)	True	False	0.00
2011-01-06 06:00:00 4661 6 0.00 0.00 0.00 0.0 0.00	42.1862011638	0.00	0.00	Cloudy(fair)	True	False	0.00
2011-01-06 07:00:00 4662 7 10.34 10.34 10.34 18.7 24.50	42.1862011638	10.34	18.70	Cloudy(fair)	True	False	18.70
2011-01-06 08:00:00 4663 8 128.79 128.79 128.79 131.6 305.30	42.1862011638	128.79	131.60	Cloudy(partly_cloudy)	True	False	131.60
2011-01-06 09:00:00 4664 9 275.60 275.60 275.60 299.3 653.30	42.1862011638	275.60	299.30	Cloudy(cloudy)	True	False	299.30
