2011-02-04 02:00:00 40091 2 0.00 0.00 0.00 0.0 0.00	73.8432601881	0.00	0.00	Clear(fair)	True	False	0.00
2011-02-04 03:00:00 40092 3 0.00 0.00 0.00 0.0 0.00	73.8432601881	0.00	0.00	Clear(fair)	True	False	0.00
2011-02-04 04:00:00 40093 4 0.00 0.00 0.00 0.0 0.00	73.8432601881	0.00	0.00	Mostly_Clear(fair)	False	False	0.00
2011-02-04 05:00:00 40094 5 0.00 0.00 0.00 0.0 0.00	43.8894792774	0.00	0.00	Partly_Cloudy(fair)	True	False	0.00
2011-02-04 06:00:00 40095 6 0.00 0.00 0.00 0.0 0.00	43.8894792774	0.00	0.00	Partly_Cloudy(fair)	True	False	0.00
2011-02-04 07:00:00 40096 7 41.30 41.30 41.30 17.3 94.10	43.8894792774	41.30	17.30	Partly_Cloudy(fair)	True	False	17.30
2011-02-04 08:00:00 40097 8 192.85 192.85 192.85 131.0 439.40	43.8894792774	192.85	131.00	Mostly_Sunny(fair)	False	False	131.00
2011-02-04 09:00:00 40098 9 554.27 554.27 554.27 263.7 750.60	73.8432601881	554.27	263.70	Sunny(fair)	True	False	263.70
2011-02-04 10:00:00 40099 10 806.30 806.30 806.30 334.7 957.70	84.1912916362	806.30	334.70	Sunny(fair)	True	False	334.70
2011-02-04 11:00:00 40100 11 884.01 884.01 884.01 413.7 1050.00	84.1912916362	884.01	413.70	Sunny(fair)	True	False	413.70
2011-02-04 12:00:00 40101 12 892.43 892.43 892.43 402.5 1060.00	84.1912916362	892.43	402.50	Sunny(fair)	True	False	402.50
2011-02-04 13:00:00 40102 13 813.79 813.79 813.79 316.4 966.60	84.1912916362	813.79	316.40	Sunny(fair)	True	False	316.40
2011-02-04 14:00:00 40103 14 671.43 671.43 671.43 336.5 797.50	84.1912916362	671.43	336.50	Sunny(fair)	True	False	336.50
2011-02-04 15:00:00 40104 15 271.67 271.67 271.67 175.7 514.80	52.7714285714	271.67	175.70	Partly_Cloudy(fair)	True	False	175.70
2011-02-04 16:00:00 40105 16 67.46 67.46 67.46 47.4 153.70	43.8894792774	67.46	47.40	Partly_Cloudy(fair)	True	False	47.40
2011-02-04 17:00:00 40106 17 4.39 4.39 4.39 0.3 10.00	43.8894792774	4.39	0.30	Partly_Cloudy(fair)	True	False	0.30
2011-02-04 18:00:00 40107 18 0.00 0.00 0.00 0.0 0.00	43.8894792774	0.00	0.00	Partly_Cloudy(fair)	True	False	0.00
2011-02-04 19:00:00 40108 19 0.00 0.00 0.00 0.0 0.00	43.8894792774	0.00	0.00	Partly_Cloudy(fair)	True	False	0.00
2011-02-04 20:00:00 40109 20 0.00 0.00 0.00 0.0 0.00	43.8894792774	0.00	0.00	Partly_Cloudy(fair)	True	False	0.00
2011-02-04 21:00:00 40110 21 0.00 0.00 0.00 0.0 0.00	24.0877742947	0.00	0.00	Mostly_Cloudy(fair)	True	False	0.00
2011-02-04 22:00:00 40111 22 0.00 0.00 0.00 0.0 0.00	24.0877742947	0.00	0.00	Mostly_Cloudy(fair)	True	False	0.00
2011-02-04 23:00:00 40112 23 0.00 0.00 0.00 0.0 0.00	24.0877742947	0.00	0.00	Mostly_Cloudy(fair)	True	False	0.00
2011-02-05 00:00:00 40113 0 0.00 0.00 0.00 0.0 0.00	21.862509992	0.00	0.00	Cloudy(fair)	True	False	0.00
2011-02-05 01:00:00 40114 1 0.00 0.00 0.00 0.0 0.00	21.862509992	0.00	0.00	Cloudy(fair)	True	False	0.00
2011-02-05 02:00:00 40115 2 0.00 0.00 0.00 0.0 0.00	21.862509992	0.00	0.00	Cloudy(cloudy)	True	False	0.00
2011-02-05 03:00:00 40116 3 0.00 0.00 0.00 0.0 0.00	0.124146492862	0.00	0.00	Snow_Shower(mostly_cloudy)	True	False	0.00
2011-02-05 04:00:00 40117 4 0.00 0.00 0.00 0.0 0.00	0.124146492862	0.00	0.00	Snow_Shower(cloudy)	True	False	0.00
2011-02-05 05:00:00 40118 5 0.00 0.00 0.00 0.0 0.00	0.124146492862	0.00	0.00	Snow_Shower(cloudy)	True	False	0.00
2011-02-05 06:00:00 40119 6 0.00 0.00 0.00 0.0 0.00	4.37735849057	0.00	0.00	Wintry_Mix(cloudy)	True	False	0.00
2011-02-05 07:00:00 40120 7 4.12 4.12 4.12 4.1 94.10	4.37735849057	4.12	4.10	Wintry_Mix(cloudy)	True	False	4.10
2011-02-05 08:00:00 40121 8 19.23 19.23 19.23 48.3 439.40	4.37735849057	19.23	48.30	Wintry_Mix(cloudy)	True	False	48.30
2011-02-05 09:00:00 40122 9 32.86 32.86 32.86 67.1 750.60	4.37735849057	32.86	67.10	Wintry_Mix(fog)	True	False	67.10
2011-02-05 10:00:00 40123 10 48.93 48.93 48.93 129.8 957.70	5.10878010878	48.93	129.80	Wintry_Mix(light_freezing_rain)	True	False	129.80
2011-02-05 11:00:00 40124 11 53.64 53.64 53.64 111.5 1050.00	5.10878010878	53.64	111.50	Wintry_Mix(fog)	True	False	111.50
2011-02-05 12:00:00 40125 12 54.15 54.15 54.15 78.9 1060.00	5.10878010878	54.15	78.90	Showers(wintry_mix)	True	False	78.90
2011-02-05 13:00:00 40126 13 49.38 49.38 49.38 77.4 966.60	5.10878010878	49.38	77.40	Showers(wintry_mix)	True	False	77.40
2011-02-05 14:00:00 40127 14 40.74 40.74 40.74 73.8 797.50	5.10878010878	40.74	73.80	Showers(wintry_mix)	True	False	73.80
2011-02-05 15:00:00 40128 15 12.36 12.36 12.36 33.2 514.80	2.4	12.36	33.20	Rain_/_Snow(light_rain)	True	False	33.20
2011-02-05 16:00:00 40129 16 2.17 2.17 2.17 7.7 153.70	1.41220357048	2.17	7.70	Rain_/_Snow(wintry_mix)	True	False	7.70
2011-02-05 17:00:00 40130 17 0.14 0.14 0.14 0.0 10.00	1.41220357048	0.14	0.00	Rain_/_Snow(fog)	True	False	0.00
2011-02-05 18:00:00 40131 18 0.00 0.00 0.00 0.0 0.00	1.41220357048	0.00	0.00	Rain_/_Snow_Showers(fog)	True	False	0.00
2011-02-05 19:00:00 40132 19 0.00 0.00 0.00 0.0 0.00	1.41220357048	0.00	0.00	Rain_/_Snow_Showers(fog)	True	False	0.00
2011-02-05 20:00:00 40133 20 0.00 0.00 0.00 0.0 0.00	1.41220357048	0.00	0.00	Rain_/_Snow_Showers(light_rain)	True	False	0.00
2011-02-05 21:00:00 40134 21 0.00 0.00 0.00 0.0 0.00	1.41220357048	0.00	0.00	Few_Snow_Showers(cloudy)	True	False	0.00
2011-02-05 22:00:00 40135 22 0.00 0.00 0.00 0.0 0.00	1.41220357048	0.00	0.00	Few_Snow_Showers(cloudy)	True	False	0.00
2011-02-05 23:00:00 40136 23 0.00 0.00 0.00 0.0 0.00	1.41220357048	0.00	0.00	Few_Snow_Showers(cloudy)	True	False	0.00
2011-02-06 00:00:00 40137 0 0.00 0.00 0.00 0.0 0.00	1.41220357048	0.00	0.00	Mostly_Clear(mostly_cloudy)	False	False	0.00
2011-02-06 01:00:00 40138 1 0.00 0.00 0.00 0.0 0.00	1.41220357048	0.00	0.00	Mostly_Clear(cloudy)	False	False	0.00
