2011-01-20 13:00:00 23259 13 587.50 808.58 808.58 606.7 921.30	63.768686074	808.58	606.70	Partly_Cloudy(fair)	True	False	606.70
2011-01-20 14:00:00 23260 14 484.83 500.68 500.68 304.2 760.30	63.768686074	500.68	304.20	Partly_Cloudy(fair)	True	False	304.20
2011-01-20 15:00:00 23261 15 285.43 294.76 294.76 201.0 447.60	63.768686074	294.76	201.00	Partly_Cloudy(partly_cloudy)	True	False	201.00
2011-01-20 16:00:00 23262 16 36.00 67.10 67.10 35.8 101.90	35.3281599369	67.10	35.80	Mostly_Cloudy(fair)	True	False	35.80
2011-01-20 17:00:00 23263 17 0.34 0.92 0.92 0.0 1.40	24.0295748614	0.92	0.00	Cloudy(fair)	True	False	0.00
2011-01-20 18:00:00 23264 18 0.00 0.00 0.00 0.0 0.00	24.0295748614	0.00	0.00	Cloudy(fair)	True	False	0.00
2011-01-20 19:00:00 23265 19 0.00 0.00 0.00 0.0 0.00	35.3281599369	0.00	0.00	Mostly_Cloudy(mostly_cloudy)	True	False	0.00
2011-01-20 20:00:00 23266 20 0.00 0.00 0.00 0.0 0.00	35.3281599369	0.00	0.00	Mostly_Cloudy(cloudy)	True	False	0.00
2011-01-20 21:00:00 23267 21 0.00 0.00 0.00 0.0 0.00	20.0578718927	0.00	0.00	Snow_Shower(cloudy)	True	False	0.00
2011-01-20 22:00:00 23268 22 0.00 0.00 0.00 0.0 0.00	20.0578718927	0.00	0.00	Snow_Shower(cloudy)	True	False	0.00
2011-01-20 23:00:00 23269 23 0.00 0.00 0.00 0.0 0.00	20.0578718927	0.00	0.00	Snow_Shower(cloudy)	True	False	0.00
2011-01-21 00:00:00 23270 0 0.00 0.00 0.00 0.0 0.00	20.0578718927	0.00	0.00	Snow(mostly_cloudy)	True	False	0.00
2011-01-21 01:00:00 23271 1 0.00 0.00 0.00 0.0 0.00	20.0578718927	0.00	0.00	Snow(cloudy)	True	False	0.00
2011-01-21 02:00:00 23272 2 0.00 0.00 0.00 0.0 0.00	20.0578718927	0.00	0.00	Snow(snow)	True	False	0.00
2011-01-21 03:00:00 23273 3 0.00 0.00 0.00 0.0 0.00	20.0578718927	0.00	0.00	Snow(snow)	True	False	0.00
2011-01-21 04:00:00 23274 4 0.00 0.00 0.00 0.0 0.00	20.0578718927	0.00	0.00	Snow(light_snow)	True	False	0.00
2011-01-21 05:00:00 23275 5 0.00 0.00 0.00 0.0 0.00	20.0578718927	0.00	0.00	Snow(light_snow)	True	False	0.00
2011-01-21 06:00:00 23276 6 0.00 0.00 0.00 0.0 0.00	20.0578718927	0.00	0.00	Snow(light_snow)	True	False	0.00
2011-01-21 07:00:00 23277 7 10.85 10.85 10.85 0.0 54.10	20.0578718927	10.85	0.00	Snow(cloudy)	True	False	0.00
2011-01-21 08:00:00 23278 8 78.59 78.59 78.59 0.6 391.80	20.0578718927	78.59	0.60	Snow(fair)	True	False	0.60
2011-01-21 09:00:00 23279 9 352.40 352.40 352.40 8.3 699.40	50.3860451816	352.40	8.30	Partly_Cloudy(fair)	True	False	8.30
2011-01-21 10:00:00 23280 10 573.22 573.22 573.22 21.0 898.90	63.768686074	573.22	21.00	Partly_Cloudy(light_snow)	True	False	21.00
2011-01-21 11:00:00 23281 11 648.40 648.40 648.40 26.5 1016.80	63.768686074	648.40	26.50	Partly_Cloudy(light_snow)	True	False	26.50
2011-01-21 12:00:00 23282 12 655.35 655.35 655.35 32.6 1027.70	63.768686074	655.35	32.60	Partly_Cloudy(fair)	True	False	32.60
2011-01-21 13:00:00 23283 13 587.50 587.50 587.50 107.0 921.30	63.768686074	587.50	107.00	Partly_Cloudy(cloudy)	True	False	107.00
2011-01-21 14:00:00 23284 14 484.83 484.83 484.83 117.7 760.30	63.768686074	484.83	117.70	Partly_Cloudy(light_snow)	True	False	117.70
2011-01-21 15:00:00 23285 15 285.43 285.43 285.43 46.0 447.60	63.768686074	285.43	46.00	Partly_Cloudy(cloudy)	True	False	46.00
2011-01-21 16:00:00 23286 16 51.34 51.34 51.34 11.2 101.90	50.3860451816	51.34	11.20	Partly_Cloudy(mostly_cloudy)	True	False	11.20
2011-01-21 17:00:00 23287 17 0.71 0.71 0.71 0.0 1.40	50.3860451816	0.71	0.00	Partly_Cloudy(mostly_cloudy)	True	False	0.00
2011-01-21 18:00:00 23288 18 0.00 0.00 0.00 0.0 0.00	85.3751914242	0.00	0.00	Clear(mostly_cloudy)	True	False	0.00
2011-01-21 19:00:00 23289 19 0.00 0.00 0.00 0.0 0.00	85.3751914242	0.00	0.00	Clear(fair)	True	False	0.00
2011-01-21 20:00:00 23290 20 0.00 0.00 0.00 0.0 0.00	85.3751914242	0.00	0.00	Clear(fair)	True	False	0.00
2011-01-21 21:00:00 23291 21 0.00 0.00 0.00 0.0 0.00	85.3751914242	0.00	0.00	Clear(fair)	True	False	0.00
2011-01-21 22:00:00 23292 22 0.00 0.00 0.00 0.0 0.00	85.3751914242	0.00	0.00	Clear(fair)	True	False	0.00
2011-01-21 23:00:00 23293 23 0.00 0.00 0.00 0.0 0.00	85.3751914242	0.00	0.00	Clear(fair)	True	False	0.00
2011-01-22 00:00:00 23294 0 0.00 0.00 0.00 0.0 0.00	85.3751914242	0.00	0.00	Clear(fair)	True	False	0.00
2011-01-22 01:00:00 23295 1 0.00 0.00 0.00 0.0 0.00	85.3751914242	0.00	0.00	Clear(fair)	True	False	0.00
2011-01-22 02:00:00 23296 2 0.00 0.00 0.00 0.0 0.00	85.3751914242	0.00	0.00	Clear(fair)	True	False	0.00
2011-01-22 03:00:00 23297 3 0.00 0.00 0.00 0.0 0.00	85.3751914242	0.00	0.00	Clear(fair)	True	False	0.00
2011-01-22 04:00:00 23298 4 0.00 0.00 0.00 0.0 0.00	85.3751914242	0.00	0.00	Clear(fair)	True	False	0.00
2011-01-22 05:00:00 23299 5 0.00 0.00 0.00 0.0 0.00	85.3751914242	0.00	0.00	Clear(fair)	True	False	0.00
2011-01-22 06:00:00 23300 6 0.00 0.00 0.00 0.0 0.00	85.3751914242	0.00	0.00	Clear(fair)	True	False	0.00
2011-01-22 07:00:00 23301 7 46.19 46.19 46.19 7.1 54.10	85.3751914242	46.19	7.10	Clear(fair)	True	False	7.10
2011-01-22 08:00:00 23302 8 334.50 334.50 334.50 60.9 391.80	85.3751914242	334.50	60.90	Sunny(fair)	True	False	60.90
2011-01-22 09:00:00 23303 9 597.11 597.11 597.11 135.7 699.40	85.3751914242	597.11	135.70	Mostly_Sunny(fair)	False	False	135.70
2011-01-22 10:00:00 23304 10 767.44 767.44 767.44 151.3 898.90	85.3751914242	767.44	151.30	Mostly_Sunny(fair)	False	False	151.30
2011-01-22 11:00:00 23305 11 868.09 868.09 868.09 151.0 1016.80	85.3751914242	868.09	151.00	Mostly_Sunny(fair)	False	False	151.00
2011-01-22 12:00:00 23306 12 461.81 461.81 461.81 174.7 1027.70	44.9365027678	461.81	174.70	Mostly_Cloudy(fair)	True	False	174.70
2011-01-22 13:00:00 23307 13 414.00 414.00 414.00 143.0 921.30	44.9365027678	414.00	143.00	Mostly_Cloudy(fair)	True	False	143.00
