2011-01-10 00:00:00 11014 0 0.00 0.00 0.00 0.0 0.00	89.0245718541	0.00	0.00	Clear(fair)	True	False	0.00
2011-01-10 01:00:00 11015 1 0.00 0.00 0.00 0.0 0.00	89.0245718541	0.00	0.00	Clear(fair)	True	False	0.00
2011-01-10 02:00:00 11016 2 0.00 0.00 0.00 0.0 0.00	89.0245718541	0.00	0.00	Clear(fair)	True	False	0.00
2011-01-10 03:00:00 11017 3 0.00 0.00 0.00 0.0 0.00	89.0245718541	0.00	0.00	Clear(fair)	True	False	0.00
2011-01-10 04:00:00 11018 4 0.00 0.00 0.00 0.0 0.00	89.0245718541	0.00	0.00	Clear(fair)	True	False	0.00
2011-01-10 05:00:00 11019 5 0.00 0.00 0.00 0.0 0.00	89.0245718541	0.00	0.00	Clear(fair)	True	False	0.00
2011-01-10 06:00:00 11020 6 0.00 0.00 0.00 0.0 0.00	89.0245718541	0.00	0.00	Clear(fair)	True	False	0.00
2011-01-10 07:00:00 11021 7 34.54 34.54 34.54 17.5 38.80	89.0245718541	34.54	17.50	Clear(fair)	True	False	17.50
2011-01-10 08:00:00 11022 8 311.50 311.50 311.50 237.8 349.90	89.0245718541	311.50	237.80	Sunny(fair)	True	False	237.80
2011-01-10 09:00:00 11023 9 594.86 594.86 594.86 483.0 668.20	89.0245718541	594.86	483.00	Sunny(fair)	True	False	483.00
2011-01-10 10:00:00 11024 10 815.68 815.68 815.68 743.8 891.50	91.4955424221	815.68	743.80	Sunny(fair)	True	False	743.80
2011-01-10 11:00:00 11025 11 883.48 883.48 883.48 870.3 965.60	91.4955424221	883.48	870.30	Sunny(fair)	True	False	870.30
2011-01-10 12:00:00 11026 12 913.40 913.40 913.40 690.9 998.30	91.4955424221	913.40	690.90	Sunny(fair)	True	False	690.90
2011-01-10 13:00:00 11027 13 790.52 790.52 790.52 590.6 864.00	91.4955424221	790.52	590.60	Sunny(fair)	True	False	590.60
2011-01-10 14:00:00 11028 14 614.39 614.39 614.39 324.0 671.50	91.4955424221	614.39	324.00	Sunny(fair)	True	False	324.00
2011-01-10 15:00:00 11029 15 323.99 323.99 323.99 148.2 354.10	91.4955424221	323.99	148.20	Sunny(fair)	True	False	148.20
2011-01-10 16:00:00 11030 16 49.41 49.41 49.41 21.5 55.50	89.0245718541	49.41	21.50	Sunny(fair)	True	False	21.50
2011-01-10 17:00:00 11031 17 0.00 0.00 0.00 0.0 0.00	89.0245718541	0.00	0.00	Clear(fair)	True	False	0.00
2011-01-10 18:00:00 11032 18 0.00 0.00 0.00 0.0 0.00	89.0245718541	0.00	0.00	Mostly_Clear(fair)	False	False	0.00
2011-01-10 19:00:00 11033 19 0.00 0.00 0.00 0.0 0.00	89.0245718541	0.00	0.00	Mostly_Clear(Unkown)	False	False	0.00
2011-01-10 20:00:00 11034 20 0.00 0.00 0.00 0.0 0.00	89.0245718541	0.00	0.00	Mostly_Clear(fair)	False	False	0.00
2011-01-10 21:00:00 11035 21 0.00 0.00 0.00 0.0 0.00	52.469197636	0.00	0.00	Partly_Cloudy(fair)	True	False	0.00
2011-01-10 22:00:00 11036 22 0.00 0.00 0.00 0.0 0.00	52.469197636	0.00	0.00	Partly_Cloudy(fair)	True	False	0.00
2011-01-10 23:00:00 11037 23 0.00 0.00 0.00 0.0 0.00	52.469197636	0.00	0.00	Partly_Cloudy(fair)	True	False	0.00
2011-01-11 00:00:00 11038 0 0.00 0.00 0.00 0.0 0.00	52.469197636	0.00	0.00	Partly_Cloudy(fair)	True	False	0.00
2011-01-11 01:00:00 11039 1 0.00 0.00 0.00 0.0 0.00	52.469197636	0.00	0.00	Partly_Cloudy(fair)	True	False	0.00
2011-01-11 02:00:00 11040 2 0.00 0.00 0.00 0.0 0.00	52.469197636	0.00	0.00	Partly_Cloudy(fair)	True	False	0.00
2011-01-11 03:00:00 11041 3 0.00 0.00 0.00 0.0 0.00	52.469197636	0.00	0.00	Partly_Cloudy(fair)	True	False	0.00
2011-01-11 04:00:00 11042 4 0.00 0.00 0.00 0.0 0.00	52.469197636	0.00	0.00	Partly_Cloudy(fair)	True	False	0.00
2011-01-11 05:00:00 11043 5 0.00 0.00 0.00 0.0 0.00	52.469197636	0.00	0.00	Partly_Cloudy(fair)	True	False	0.00
2011-01-11 06:00:00 11044 6 0.00 0.00 0.00 0.0 0.00	52.469197636	0.00	0.00	Partly_Cloudy(fair)	True	False	0.00
2011-01-11 07:00:00 11045 7 20.36 20.36 20.36 31.8 38.80	52.469197636	20.36	31.80	Partly_Cloudy(fair)	True	False	31.80
2011-01-11 08:00:00 11046 8 183.59 183.59 183.59 269.7 349.90	52.469197636	183.59	269.70	Partly_Cloudy(mostly_cloudy)	True	False	269.70
2011-01-11 09:00:00 11047 9 320.18 320.18 320.18 184.6 668.20	47.9166666667	320.18	184.60	Mostly_Cloudy(fair)	True	False	184.60
2011-01-11 10:00:00 11048 10 496.83 496.83 496.83 239.2 891.50	55.7291666667	496.83	239.20	Mostly_Cloudy(fair)	True	False	239.20
2011-01-11 11:00:00 11049 11 538.12 538.12 538.12 348.4 965.60	55.7291666667	538.12	348.40	Mostly_Cloudy(fair)	True	False	348.40
2011-01-11 12:00:00 11050 12 556.34 556.34 556.34 364.9 998.30	55.7291666667	556.34	364.90	Mostly_Cloudy(fair)	True	False	364.90
2011-01-11 13:00:00 11051 13 481.50 481.50 481.50 376.5 864.00	55.7291666667	481.50	376.50	Mostly_Cloudy(partly_cloudy)	True	False	376.50
2011-01-11 14:00:00 11052 14 374.22 374.22 374.22 223.3 671.50	55.7291666667	374.22	223.30	Mostly_Cloudy(partly_cloudy)	True	False	223.30
2011-01-11 15:00:00 11053 15 115.44 115.44 115.44 141.7 354.10	32.6014913007	115.44	141.70	Cloudy(partly_cloudy)	True	False	141.70
2011-01-11 16:00:00 11054 16 18.09 18.09 18.09 10.5 55.50	32.6014913007	18.09	10.50	Cloudy(mostly_cloudy)	True	False	10.50
2011-01-11 17:00:00 11055 17 0.00 0.00 0.00 0.0 0.00	32.6014913007	0.00	0.00	Cloudy(cloudy)	True	False	0.00
2011-01-11 18:00:00 11056 18 0.00 0.00 0.00 0.0 0.00	22.7103499628	0.00	0.00	Snow_Shower(cloudy)	True	False	0.00
2011-01-11 19:00:00 11057 19 0.00 0.00 0.00 0.0 0.00	22.7103499628	0.00	0.00	Snow_Shower(cloudy)	True	False	0.00
2011-01-11 20:00:00 11058 20 0.00 0.00 0.00 0.0 0.00	22.7103499628	0.00	0.00	Snow_Shower(light_snow)	True	False	0.00
2011-01-11 21:00:00 11059 21 0.00 0.00 0.00 0.0 0.00	22.7103499628	0.00	0.00	Snow(light_snow)	True	False	0.00
2011-01-11 22:00:00 11060 22 0.00 0.00 0.00 0.0 0.00	22.7103499628	0.00	0.00	Snow(light_snow)	True	False	0.00
2011-01-11 23:00:00 11061 23 0.00 0.00 0.00 0.0 0.00	22.7103499628	0.00	0.00	Snow(snow)	True	False	0.00
