2011-01-26 02:00:00 29717 2 0.00 0.00 0.00 0.0 0.00	43.1359791802	0.00	0.00	Partly_Cloudy(fair)	True	False	0.00
2011-01-26 03:00:00 29718 3 0.00 0.00 0.00 0.0 0.00	28.547561867	0.00	0.00	Mostly_Cloudy(fair)	True	False	0.00
2011-01-26 04:00:00 29719 4 0.00 0.00 0.00 0.0 0.00	28.547561867	0.00	0.00	Mostly_Cloudy(mostly_cloudy)	True	False	0.00
2011-01-26 05:00:00 29720 5 0.00 0.00 0.00 0.0 0.00	20.4952380952	0.00	0.00	Cloudy(mostly_cloudy)	True	False	0.00
2011-01-26 06:00:00 29721 6 0.00 0.00 0.00 0.0 0.00	0.0	0.00	0.00	Snow(cloudy)	True	False	0.00
2011-01-26 07:00:00 29722 7 0.00 0.00 0.00 0.0 94.10	0.0	0.00	0.00	Snow(Unkown)	True	False	0.00
2011-01-26 08:00:00 29723 8 90.06 90.06 90.06 0.0 439.40	20.4952380952	90.06	0.00	Cloudy(snow)	True	False	0.00
2011-01-26 09:00:00 29724 9 153.84 153.84 153.84 0.0 750.60	20.4952380952	153.84	0.00	Cloudy(snow_and_fog)	True	False	0.00
2011-01-26 10:00:00 29725 10 239.18 239.18 239.18 0.1 957.70	24.9741361473	239.18	0.10	Cloudy(heavy_snow)	True	False	0.10
2011-01-26 11:00:00 29726 11 262.23 262.23 262.23 0.4 1050.00	24.9741361473	262.23	0.40	Cloudy(light_snow)	True	False	0.40
2011-01-26 12:00:00 29727 12 0.00 0.00 0.00 5.4 1060.00	0.0	0.00	5.40	Snow_Shower(Unkown)	True	False	5.40
2011-01-26 13:00:00 29728 13 0.00 0.00 0.00 8.0 966.60	0.0	0.00	8.00	Snow_Shower(Unkown)	True	False	8.00
2011-01-26 14:00:00 29729 14 0.00 0.00 0.00 5.3 797.50	0.0	0.00	5.30	Snow_Shower(light_snow)	True	False	5.30
2011-01-26 15:00:00 29730 15 0.00 0.00 0.00 0.2 514.80	0.0	0.00	0.20	Snow(light_snow)	True	False	0.20
2011-01-26 16:00:00 29731 16 0.00 0.00 0.00 0.0 153.70	0.0	0.00	0.00	Snow(light_snow)	True	False	0.00
2011-01-26 17:00:00 29732 17 0.00 0.00 0.00 0.0 3.10	0.0	0.00	0.00	Snow(cloudy)	True	False	0.00
2011-01-26 18:00:00 29733 18 0.00 0.00 0.00 0.0 0.00	0.0	0.00	0.00	Snow(wintry_mix)	True	False	0.00
2011-01-26 19:00:00 29734 19 0.00 0.00 0.00 0.0 0.00	0.0	0.00	0.00	Snow(light_snow)	True	False	0.00
2011-01-26 20:00:00 29735 20 0.00 0.00 0.00 0.0 0.00	0.0	0.00	0.00	Snow(snow)	True	False	0.00
2011-01-26 21:00:00 29736 21 0.00 0.00 0.00 0.0 0.00	0.0	0.00	0.00	Heavy_Snow(heavy_snow)	True	False	0.00
2011-01-26 22:00:00 29737 22 0.00 0.00 0.00 0.0 0.00	0.0	0.00	0.00	Heavy_Snow(snow)	True	False	0.00
2011-01-26 23:00:00 29738 23 0.00 0.00 0.00 0.0 0.00	0.0	0.00	0.00	Heavy_Snow(snow)	True	False	0.00
2011-01-27 00:00:00 29739 0 0.00 0.00 0.00 0.0 0.00	0.0	0.00	0.00	Snow(light_snow)	True	False	0.00
2011-01-27 01:00:00 29740 1 0.00 0.00 0.00 0.0 0.00	0.0	0.00	0.00	Snow(light_snow)	True	False	0.00
2011-01-27 02:00:00 29741 2 0.00 0.00 0.00 0.0 0.00	0.0	0.00	0.00	Snow(light_snow)	True	False	0.00
2011-01-27 03:00:00 29742 3 0.00 0.00 0.00 0.0 0.00	0.0	0.00	0.00	Snow_Shower(mostly_cloudy)	True	False	0.00
2011-01-27 04:00:00 29743 4 0.00 0.00 0.00 0.0 0.00	0.0	0.00	0.00	Snow_Shower(cloudy)	True	False	0.00
2011-01-27 05:00:00 29744 5 0.00 0.00 0.00 0.0 0.00	0.0	0.00	0.00	Snow_Shower(cloudy)	True	False	0.00
2011-01-27 06:00:00 29745 6 0.00 0.00 0.00 0.0 0.00	43.1359791802	0.00	0.00	Partly_Cloudy(cloudy)	True	False	0.00
2011-01-27 07:00:00 29746 7 40.59 40.59 40.59 0.0 94.10	43.1359791802	40.59	0.00	Partly_Cloudy(cloudy)	True	False	0.00
2011-01-27 08:00:00 29747 8 189.54 189.54 189.54 0.0 439.40	43.1359791802	189.54	0.00	Partly_Cloudy(cloudy)	True	False	0.00
2011-01-27 09:00:00 29748 9 617.20 617.20 617.20 0.0 750.60	82.2275512923	617.20	0.00	Sunny(cloudy)	True	False	0.00
2011-01-27 10:00:00 29749 10 825.25 825.25 825.25 1.1 957.70	86.1698113208	825.25	1.10	Sunny(cloudy)	True	False	1.10
2011-01-27 11:00:00 29750 11 904.78 904.78 904.78 89.4 1050.00	86.1698113208	904.78	89.40	Sunny(cloudy)	True	False	89.40
2011-01-27 12:00:00 29751 12 913.40 913.40 913.40 171.1 1060.00	86.1698113208	913.40	171.10	Sunny(cloudy)	True	False	171.10
2011-01-27 13:00:00 29752 13 832.92 832.92 832.92 277.7 966.60	86.1698113208	832.92	277.70	Sunny(partly_cloudy)	True	False	277.70
2011-01-27 14:00:00 29753 14 687.20 687.20 687.20 194.7 797.50	86.1698113208	687.20	194.70	Sunny(fair)	True	False	194.70
2011-01-27 15:00:00 29754 15 443.60 443.60 443.60 101.9 514.80	86.1698113208	443.60	101.90	Mostly_Sunny(mostly_cloudy)	False	False	101.90
2011-01-27 16:00:00 29755 16 132.44 132.44 132.44 8.6 153.70	86.1698113208	132.44	8.60	Mostly_Sunny(cloudy)	False	False	8.60
2011-01-27 17:00:00 29756 17 2.67 2.67 2.67 0.0 3.10	86.1698113208	2.67	0.00	Mostly_Sunny(cloudy)	False	False	0.00
2011-01-27 18:00:00 29757 18 0.00 0.00 0.00 0.0 0.00	82.2275512923	0.00	0.00	Clear(cloudy)	True	False	0.00
2011-01-27 19:00:00 29758 19 0.00 0.00 0.00 0.0 0.00	82.2275512923	0.00	0.00	Clear(cloudy)	True	False	0.00
2011-01-27 20:00:00 29759 20 0.00 0.00 0.00 0.0 0.00	82.2275512923	0.00	0.00	Clear(cloudy)	True	False	0.00
2011-01-27 21:00:00 29760 21 0.00 0.00 0.00 0.0 0.00	43.1359791802	0.00	0.00	Partly_Cloudy(cloudy)	True	False	0.00
2011-01-27 22:00:00 29761 22 0.00 0.00 0.00 0.0 0.00	43.1359791802	0.00	0.00	Partly_Cloudy(fair)	True	False	0.00
2011-01-27 23:00:00 29762 23 0.00 0.00 0.00 0.0 0.00	43.1359791802	0.00	0.00	Partly_Cloudy(fair)	True	False	0.00
2011-01-28 00:00:00 29763 0 0.00 0.00 0.00 0.0 0.00	28.547561867	0.00	0.00	Mostly_Cloudy(fair)	True	False	0.00
2011-01-28 01:00:00 29764 1 0.00 0.00 0.00 0.0 0.00	28.547561867	0.00	0.00	Mostly_Cloudy(fair)	True	False	0.00
