2011-01-22 23:00:00 26061 23 0.00 0.00 0.00 0.0 0.00	82.2713378791	0.00	0.00	Clear(fair)	True	False	0.00
2011-01-23 00:00:00 26062 0 0.00 0.00 0.00 0.0 0.00	82.2713378791	0.00	0.00	Mostly_Clear(fair)	False	False	0.00
2011-01-23 01:00:00 26063 1 0.00 0.00 0.00 0.0 0.00	46.9491073808	0.00	0.00	Partly_Cloudy(fair)	True	False	0.00
2011-01-23 02:00:00 26064 2 0.00 0.00 0.00 0.0 0.00	46.9491073808	0.00	0.00	Partly_Cloudy(fair)	True	False	0.00
2011-01-23 03:00:00 26065 3 0.00 0.00 0.00 0.0 0.00	46.9491073808	0.00	0.00	Partly_Cloudy(fair)	True	False	0.00
2011-01-23 04:00:00 26066 4 0.00 0.00 0.00 0.0 0.00	46.9491073808	0.00	0.00	Mostly_Clear(fair)	False	False	0.00
2011-01-23 05:00:00 26067 5 0.00 0.00 0.00 0.0 0.00	46.9491073808	0.00	0.00	Mostly_Clear(fair)	False	False	0.00
2011-01-23 06:00:00 26068 6 0.00 0.00 0.00 0.0 0.00	82.2713378791	0.00	0.00	Clear(fair)	True	False	0.00
2011-01-23 07:00:00 26069 7 56.77 56.77 56.77 10.3 69.00	82.2713378791	56.77	10.30	Clear(fair)	True	False	10.30
2011-01-23 08:00:00 26070 8 349.90 349.90 349.90 97.7 425.30	82.2713378791	349.90	97.70	Sunny(fair)	True	False	97.70
2011-01-23 09:00:00 26071 9 617.53 617.53 617.53 191.7 750.60	82.2713378791	617.53	191.70	Sunny(fair)	True	False	191.70
2011-01-23 10:00:00 26072 10 828.69 828.69 828.69 264.2 957.70	86.5289882531	828.69	264.20	Sunny(fair)	True	False	264.20
2011-01-23 11:00:00 26073 11 908.55 908.55 908.55 319.4 1050.00	86.5289882531	908.55	319.40	Sunny(fair)	True	False	319.40
2011-01-23 12:00:00 26074 12 625.06 625.06 625.06 356.8 1055.60	59.2137913021	625.06	356.80	Partly_Cloudy(fair)	True	False	356.80
2011-01-23 13:00:00 26075 13 558.62 558.62 558.62 340.4 943.40	59.2137913021	558.62	340.40	Partly_Cloudy(fair)	True	False	340.40
2011-01-23 14:00:00 26076 14 453.40 453.40 453.40 289.7 765.70	59.2137913021	453.40	289.70	Partly_Cloudy(fair)	True	False	289.70
2011-01-23 15:00:00 26077 15 282.15 282.15 282.15 140.1 476.50	59.2137913021	282.15	140.10	Partly_Cloudy(fair)	True	False	140.10
2011-01-23 16:00:00 26078 16 57.84 57.84 57.84 20.4 123.20	46.9491073808	57.84	20.40	Partly_Cloudy(fair)	True	False	20.40
2011-01-23 17:00:00 26079 17 0.66 0.66 0.66 0.0 1.40	46.9491073808	0.66	0.00	Partly_Cloudy(fair)	True	False	0.00
2011-01-23 18:00:00 26080 18 0.00 0.00 0.00 0.0 0.00	46.9491073808	0.00	0.00	Partly_Cloudy(fair)	True	False	0.00
2011-01-23 19:00:00 26081 19 0.00 0.00 0.00 0.0 0.00	46.9491073808	0.00	0.00	Partly_Cloudy(fair)	True	False	0.00
2011-01-23 20:00:00 26082 20 0.00 0.00 0.00 0.0 0.00	46.9491073808	0.00	0.00	Partly_Cloudy(fair)	True	False	0.00
2011-01-23 21:00:00 26083 21 0.00 0.00 0.00 0.0 0.00	46.9491073808	0.00	0.00	Mostly_Clear(fair)	False	False	0.00
2011-01-23 22:00:00 26084 22 0.00 0.00 0.00 0.0 0.00	46.9491073808	0.00	0.00	Mostly_Clear(fair)	False	False	0.00
2011-01-23 23:00:00 26085 23 0.00 0.00 0.00 0.0 0.00	46.9491073808	0.00	0.00	Mostly_Clear(fair)	False	False	0.00
2011-01-24 00:00:00 26086 0 0.00 0.00 0.00 0.0 0.00	82.2713378791	0.00	0.00	Clear(fair)	True	False	0.00
2011-01-24 01:00:00 26087 1 0.00 0.00 0.00 0.0 0.00	82.2713378791	0.00	0.00	Clear(fair)	True	False	0.00
2011-01-24 02:00:00 26088 2 0.00 0.00 0.00 0.0 0.00	82.2713378791	0.00	0.00	Clear(fair)	True	False	0.00
2011-01-24 03:00:00 26089 3 0.00 0.00 0.00 0.0 0.00	82.2713378791	0.00	0.00	Clear(fair)	True	False	0.00
2011-01-24 04:00:00 26090 4 0.00 0.00 0.00 0.0 0.00	82.2713378791	0.00	0.00	Clear(fair)	True	False	0.00
2011-01-24 05:00:00 26091 5 0.00 0.00 0.00 0.0 0.00	82.2713378791	0.00	0.00	Clear(fair)	True	False	0.00
2011-01-24 06:00:00 26092 6 0.00 0.00 0.00 0.0 0.00	82.2713378791	0.00	0.00	Clear(fair)	True	False	0.00
2011-01-24 07:00:00 26093 7 56.77 56.77 56.77 19.0 69.00	82.2713378791	56.77	19.00	Clear(fair)	True	False	19.00
2011-01-24 08:00:00 26094 8 349.90 349.90 349.90 155.2 425.30	82.2713378791	349.90	155.20	Sunny(fair)	True	False	155.20
2011-01-24 09:00:00 26095 9 617.53 617.53 617.53 291.0 750.60	82.2713378791	617.53	291.00	Sunny(fair)	True	False	291.00
2011-01-24 10:00:00 26096 10 828.69 828.69 828.69 385.0 957.70	86.5289882531	828.69	385.00	Sunny(fair)	True	False	385.00
2011-01-24 11:00:00 26097 11 908.55 908.55 908.55 446.3 1050.00	86.5289882531	908.55	446.30	Sunny(fair)	True	False	446.30
2011-01-24 12:00:00 26098 12 913.40 913.40 913.40 485.1 1055.60	86.5289882531	913.40	485.10	Sunny(fair)	True	False	485.10
2011-01-24 13:00:00 26099 13 816.31 816.31 816.31 460.8 943.40	86.5289882531	816.31	460.80	Sunny(fair)	True	False	460.80
2011-01-24 14:00:00 26100 14 662.55 662.55 662.55 379.3 765.70	86.5289882531	662.55	379.30	Sunny(fair)	True	False	379.30
2011-01-24 15:00:00 26101 15 412.31 412.31 412.31 215.2 476.50	86.5289882531	412.31	215.20	Sunny(fair)	True	False	215.20
2011-01-24 16:00:00 26102 16 101.36 101.36 101.36 30.1 123.20	82.2713378791	101.36	30.10	Sunny(mostly_cloudy)	True	False	30.10
2011-01-24 17:00:00 26103 17 1.15 1.15 1.15 0.0 1.40	82.2713378791	1.15	0.00	Sunny(fair)	True	False	0.00
2011-01-24 18:00:00 26104 18 0.00 0.00 0.00 0.0 0.00	46.9491073808	0.00	0.00	Partly_Cloudy(cloudy)	True	False	0.00
2011-01-24 19:00:00 26105 19 0.00 0.00 0.00 0.0 0.00	46.9491073808	0.00	0.00	Partly_Cloudy(cloudy)	True	False	0.00
2011-01-24 20:00:00 26106 20 0.00 0.00 0.00 0.0 0.00	46.9491073808	0.00	0.00	Partly_Cloudy(cloudy)	True	False	0.00
2011-01-24 21:00:00 26107 21 0.00 0.00 0.00 0.0 0.00	31.0380952381	0.00	0.00	Mostly_Cloudy(cloudy)	True	False	0.00
2011-01-24 22:00:00 26108 22 0.00 0.00 0.00 0.0 0.00	31.0380952381	0.00	0.00	Mostly_Cloudy(mostly_cloudy)	True	False	0.00
2011-01-24 23:00:00 26109 23 0.00 0.00 0.00 0.0 0.00	31.0380952381	0.00	0.00	Mostly_Cloudy(cloudy)	True	False	0.00
