2011-01-30 08:00:00 34588 8 105.78 105.78 105.78 68.2 439.40	24.0728692258	105.78	68.20	Mostly_Cloudy(fog)	True	False	68.20
2011-01-30 09:00:00 34589 9 4.78 4.78 4.78 193.5 750.60	0.637232589895	4.78	193.50	Foggy(cloudy)	True	False	193.50
2011-01-30 10:00:00 34590 10 230.69 230.69 230.69 429.2 957.70	24.0877742947	230.69	429.20	Mostly_Cloudy(cloudy)	True	False	429.20
2011-01-30 11:00:00 34591 11 252.92 252.92 252.92 376.5 1050.00	24.0877742947	252.92	376.50	Mostly_Cloudy(mostly_cloudy)	True	False	376.50
2011-01-30 12:00:00 34592 12 559.38 559.38 559.38 410.1 1060.00	52.7714285714	559.38	410.10	Partly_Cloudy(cloudy)	True	False	410.10
2011-01-30 13:00:00 34593 13 510.09 510.09 510.09 231.8 966.60	52.7714285714	510.09	231.80	Partly_Cloudy(cloudy)	True	False	231.80
2011-01-30 14:00:00 34594 14 420.85 420.85 420.85 388.2 797.50	52.7714285714	420.85	388.20	Partly_Cloudy(cloudy)	True	False	388.20
2011-01-30 15:00:00 34595 15 271.67 271.67 271.67 157.4 514.80	52.7714285714	271.67	157.40	Mostly_Sunny(cloudy)	False	False	157.40
2011-01-30 16:00:00 34596 16 81.11 81.11 81.11 72.5 153.70	52.7714285714	81.11	72.50	Mostly_Sunny(cloudy)	False	False	72.50
2011-01-30 17:00:00 34597 17 1.64 1.64 1.64 0.3 3.10	52.7714285714	1.64	0.30	Mostly_Sunny(partly_cloudy)	False	False	0.30
2011-01-30 18:00:00 34598 18 0.00 0.00 0.00 0.0 0.00	77.9019242706	0.00	0.00	Clear(cloudy)	True	False	0.00
2011-01-30 19:00:00 34599 19 0.00 0.00 0.00 0.0 0.00	77.9019242706	0.00	0.00	Clear(mostly_cloudy)	True	False	0.00
2011-01-30 20:00:00 34600 20 0.00 0.00 0.00 0.0 0.00	77.9019242706	0.00	0.00	Clear(partly_cloudy)	True	False	0.00
2011-01-30 21:00:00 34601 21 0.00 0.00 0.00 0.0 0.00	77.9019242706	0.00	0.00	Clear(fair)	True	False	0.00
2011-01-30 22:00:00 34602 22 0.00 0.00 0.00 0.0 0.00	77.9019242706	0.00	0.00	Clear(fair)	True	False	0.00
2011-01-30 23:00:00 34603 23 0.00 0.00 0.00 0.0 0.00	77.9019242706	0.00	0.00	Clear(fair)	True	False	0.00
2011-01-31 00:00:00 34604 0 0.00 0.00 0.00 0.0 0.00	77.9019242706	0.00	0.00	Clear(fair)	True	False	0.00
2011-01-31 01:00:00 34605 1 0.00 0.00 0.00 0.0 0.00	77.9019242706	0.00	0.00	Clear(fair)	True	False	0.00
2011-01-31 02:00:00 34606 2 0.00 0.00 0.00 0.0 0.00	77.9019242706	0.00	0.00	Clear(fair)	True	False	0.00
2011-01-31 03:00:00 34607 3 0.00 0.00 0.00 0.0 0.00	77.9019242706	0.00	0.00	Mostly_Clear(fair)	False	False	0.00
2011-01-31 04:00:00 34608 4 0.00 0.00 0.00 0.0 0.00	77.9019242706	0.00	0.00	Mostly_Clear(fair)	False	False	0.00
2011-01-31 05:00:00 34609 5 0.00 0.00 0.00 0.0 0.00	77.9019242706	0.00	0.00	Mostly_Clear(fair)	False	False	0.00
2011-01-31 06:00:00 34610 6 0.00 0.00 0.00 0.0 0.00	77.9019242706	0.00	0.00	Clear(fair)	True	False	0.00
2011-01-31 07:00:00 34611 7 73.31 73.31 73.31 35.1 94.10	77.9019242706	73.31	35.10	Clear(fair)	True	False	35.10
2011-01-31 08:00:00 34612 8 342.30 342.30 342.30 211.4 439.40	77.9019242706	342.30	211.40	Sunny(fair)	True	False	211.40
2011-01-31 09:00:00 34613 9 306.12 306.12 306.12 452.8 750.60	40.7828857533	306.12	452.80	Partly_Cloudy(fair)	True	False	452.80
2011-01-31 10:00:00 34614 10 505.39 505.39 505.39 568.9 957.70	52.7714285714	505.39	568.90	Partly_Cloudy(fair)	True	False	568.90
2011-01-31 11:00:00 34615 11 554.10 554.10 554.10 616.3 1050.00	52.7714285714	554.10	616.30	Partly_Cloudy(fair)	True	False	616.30
2011-01-31 12:00:00 34616 12 559.38 559.38 559.38 631.6 1060.00	52.7714285714	559.38	631.60	Partly_Cloudy(fair)	True	False	631.60
2011-01-31 13:00:00 34617 13 510.09 510.09 510.09 544.1 966.60	52.7714285714	510.09	544.10	Partly_Cloudy(fair)	True	False	544.10
2011-01-31 14:00:00 34618 14 420.85 420.85 420.85 442.9 797.50	52.7714285714	420.85	442.90	Partly_Cloudy(fair)	True	False	442.90
2011-01-31 15:00:00 34619 15 124.00 124.00 124.00 247.7 514.80	24.0877742947	124.00	247.70	Mostly_Cloudy(fair)	True	False	247.70
2011-01-31 16:00:00 34620 16 37.00 37.00 37.00 46.8 153.70	24.0728692258	37.00	46.80	Mostly_Cloudy(fair)	True	False	46.80
2011-01-31 17:00:00 34621 17 0.75 0.75 0.75 0.3 3.10	24.0728692258	0.75	0.30	Mostly_Cloudy(fair)	True	False	0.30
2011-01-31 18:00:00 34622 18 0.00 0.00 0.00 0.0 0.00	24.0728692258	0.00	0.00	Mostly_Cloudy(fair)	True	False	0.00
2011-01-31 19:00:00 34623 19 0.00 0.00 0.00 0.0 0.00	24.0728692258	0.00	0.00	Mostly_Cloudy(mostly_cloudy)	True	False	0.00
2011-01-31 20:00:00 34624 20 0.00 0.00 0.00 0.0 0.00	24.0728692258	0.00	0.00	Mostly_Cloudy(cloudy)	True	False	0.00
2011-01-31 21:00:00 34625 21 0.00 0.00 0.00 0.0 0.00	17.6391475274	0.00	0.00	Cloudy(cloudy)	True	False	0.00
2011-01-31 22:00:00 34626 22 0.00 0.00 0.00 0.0 0.00	17.6391475274	0.00	0.00	Cloudy(cloudy)	True	False	0.00
2011-01-31 23:00:00 34627 23 0.00 0.00 0.00 0.0 0.00	17.6391475274	0.00	0.00	Cloudy(cloudy)	True	False	0.00
2011-02-01 00:00:00 34628 0 0.00 0.00 0.00 0.0 0.00	0.417667327973	0.00	0.00	Few_Snow_Showers(cloudy)	True	False	0.00
2011-02-01 01:00:00 34629 1 0.00 0.00 0.00 0.0 0.00	0.417667327973	0.00	0.00	Few_Snow_Showers(light_snow)	True	False	0.00
2011-02-01 02:00:00 34630 2 0.00 0.00 0.00 0.0 0.00	0.417667327973	0.00	0.00	Few_Snow_Showers(light_snow)	True	False	0.00
2011-02-01 03:00:00 34631 3 0.00 0.00 0.00 0.0 0.00	0.047619047619	0.00	0.00	Snow_Shower(light_snow)	True	False	0.00
2011-02-01 04:00:00 34632 4 0.00 0.00 0.00 0.0 0.00	0.047619047619	0.00	0.00	Snow_Shower(light_snow)	True	False	0.00
2011-02-01 05:00:00 34633 5 0.00 0.00 0.00 0.0 0.00	0.047619047619	0.00	0.00	Snow_Shower(cloudy)	True	False	0.00
2011-02-01 06:00:00 34634 6 0.00 0.00 0.00 0.0 0.00	0.047619047619	0.00	0.00	Snow(cloudy)	True	False	0.00
2011-02-01 07:00:00 34635 7 0.04 0.04 0.04 0.0 94.10	0.047619047619	0.04	0.00	Snow(light_freezing_rain)	True	False	0.00
2011-02-01 08:00:00 34636 8 0.21 0.21 0.21 0.0 439.40	0.047619047619	0.21	0.00	Snow(cloudy)	True	False	0.00
