2011-02-01 20:00:00 37461 20 0.00 0.00 0.00 0.0 0.00	17.6777696565	0.00	0.00	Cloudy(cloudy)	True	False	0.00
2011-02-01 21:00:00 37462 21 0.00 0.00 0.00 0.0 0.00	17.6777696565	0.00	0.00	Cloudy(cloudy)	True	False	0.00
2011-02-01 22:00:00 37463 22 0.00 0.00 0.00 0.0 0.00	17.6777696565	0.00	0.00	Cloudy(cloudy)	True	False	0.00
2011-02-01 23:00:00 37464 23 0.00 0.00 0.00 0.0 0.00	17.6777696565	0.00	0.00	Cloudy(cloudy)	True	False	0.00
2011-02-02 00:00:00 37465 0 0.00 0.00 0.00 0.0 0.00	17.6777696565	0.00	0.00	Cloudy(light_freezing_rain)	True	False	0.00
2011-02-02 01:00:00 37466 1 0.00 0.00 0.00 0.0 0.00	6.18087182824	0.00	0.00	Light_Freezing_Rain(light_freezing_rain)	True	False	0.00
2011-02-02 02:00:00 37467 2 0.00 0.00 0.00 0.0 0.00	3.45765345765	0.00	0.00	Freezing_Rain(wintry_mix)	True	False	0.00
2011-02-02 03:00:00 37468 3 0.00 0.00 0.00 0.0 0.00	3.45765345765	0.00	0.00	Freezing_Rain(freezing_rain)	True	False	0.00
2011-02-02 04:00:00 37469 4 0.00 0.00 0.00 0.0 0.00	3.45765345765	0.00	0.00	Freezing_Rain(freezing_rain)	True	False	0.00
2011-02-02 05:00:00 37470 5 0.00 0.00 0.00 0.0 0.00	3.45765345765	0.00	0.00	Freezing_Rain(light_freezing_rain)	True	False	0.00
2011-02-02 06:00:00 37471 6 0.00 0.00 0.00 0.0 0.00	3.45765345765	0.00	0.00	Freezing_Rain(light_freezing_rain)	True	False	0.00
2011-02-02 07:00:00 37472 7 3.25 3.25 3.25 0.0 94.10	3.45765345765	3.25	0.00	Freezing_Rain(freezing_rain)	True	False	0.00
2011-02-02 08:00:00 37473 8 15.19 15.19 15.19 1.0 439.40	3.45765345765	15.19	1.00	Rain(wintry_mix)	True	False	1.00
2011-02-02 09:00:00 37474 9 25.95 25.95 25.95 20.5 750.60	3.45765345765	25.95	20.50	Rain(light_rain)	True	False	20.50
2011-02-02 10:00:00 37475 10 33.11 33.11 33.11 43.8 957.70	3.45765345765	33.11	43.80	Rain(cloudy)	True	False	43.80
2011-02-02 11:00:00 37476 11 36.31 36.31 36.31 91.7 1050.00	3.45765345765	36.31	91.70	Showers(cloudy)	True	False	91.70
2011-02-02 12:00:00 37477 12 36.65 36.65 36.65 131.5 1060.00	3.45765345765	36.65	131.50	Showers(cloudy)	True	False	131.50
2011-02-02 13:00:00 37478 13 33.42 33.42 33.42 139.2 966.60	3.45765345765	33.42	139.20	Showers(fog)	True	False	139.20
2011-02-02 14:00:00 37479 14 26.90 26.90 26.90 137.0 797.50	3.37304075235	26.90	137.00	Few_Showers(fog)	True	False	137.00
2011-02-02 15:00:00 37480 15 31.82 31.82 31.82 92.4 514.80	6.18087182824	31.82	92.40	Few_Showers(cloudy)	True	False	92.40
2011-02-02 16:00:00 37481 16 9.50 9.50 9.50 28.9 153.70	6.18087182824	9.50	28.90	Few_Showers(fog)	True	False	28.90
2011-02-02 17:00:00 37482 17 0.75 0.75 0.75 0.0 3.10	24.0728692258	0.75	0.00	Mostly_Cloudy(cloudy)	True	False	0.00
2011-02-02 18:00:00 37483 18 0.00 0.00 0.00 0.0 0.00	24.0728692258	0.00	0.00	Mostly_Cloudy(partly_cloudy)	True	False	0.00
2011-02-02 19:00:00 37484 19 0.00 0.00 0.00 0.0 0.00	24.0728692258	0.00	0.00	Mostly_Cloudy(fair)	True	False	0.00
2011-02-02 20:00:00 37485 20 0.00 0.00 0.00 0.0 0.00	43.1359791802	0.00	0.00	Partly_Cloudy(fair)	True	False	0.00
2011-02-02 21:00:00 37486 21 0.00 0.00 0.00 0.0 0.00	43.1359791802	0.00	0.00	Partly_Cloudy(partly_cloudy)	True	False	0.00
2011-02-02 22:00:00 37487 22 0.00 0.00 0.00 0.0 0.00	43.1359791802	0.00	0.00	Partly_Cloudy(fair)	True	False	0.00
2011-02-02 23:00:00 37488 23 0.00 0.00 0.00 0.0 0.00	43.1359791802	0.00	0.00	Partly_Cloudy(cloudy)	True	False	0.00
2011-02-03 00:00:00 37489 0 0.00 0.00 0.00 0.0 0.00	43.1359791802	0.00	0.00	Partly_Cloudy(cloudy)	True	False	0.00
2011-02-03 01:00:00 37490 1 0.00 0.00 0.00 0.0 0.00	43.1359791802	0.00	0.00	Partly_Cloudy(cloudy)	True	False	0.00
2011-02-03 02:00:00 37491 2 0.00 0.00 0.00 0.0 0.00	43.1359791802	0.00	0.00	Partly_Cloudy(cloudy)	True	False	0.00
2011-02-03 03:00:00 37492 3 0.00 0.00 0.00 0.0 0.00	43.1359791802	0.00	0.00	Partly_Cloudy(cloudy)	True	False	0.00
2011-02-03 04:00:00 37493 4 0.00 0.00 0.00 0.0 0.00	43.1359791802	0.00	0.00	Partly_Cloudy(cloudy)	True	False	0.00
2011-02-03 05:00:00 37494 5 0.00 0.00 0.00 0.0 0.00	43.1359791802	0.00	0.00	Partly_Cloudy(cloudy)	True	False	0.00
2011-02-03 06:00:00 37495 6 0.00 0.00 0.00 0.0 0.00	43.1359791802	0.00	0.00	Partly_Cloudy(mostly_cloudy)	True	False	0.00
2011-02-03 07:00:00 37496 7 40.59 40.59 40.59 12.7 94.10	43.1359791802	40.59	12.70	Partly_Cloudy(Unkown)	True	False	12.70
2011-02-03 08:00:00 37497 8 189.54 189.54 189.54 128.9 439.40	43.1359791802	189.54	128.90	Partly_Cloudy(Unkown)	True	False	128.90
2011-02-03 09:00:00 37498 9 396.10 396.10 396.10 451.1 750.60	52.7714285714	396.10	451.10	Partly_Cloudy(cloudy)	True	False	451.10
2011-02-03 10:00:00 37499 10 505.39 505.39 505.39 600.0 957.70	52.7714285714	505.39	600.00	Partly_Cloudy(fair)	True	False	600.00
2011-02-03 11:00:00 37500 11 554.10 554.10 554.10 674.2 1050.00	52.7714285714	554.10	674.20	Partly_Cloudy(fair)	True	False	674.20
2011-02-03 12:00:00 37501 12 559.38 559.38 559.38 698.0 1060.00	52.7714285714	559.38	698.00	Partly_Cloudy(fair)	True	False	698.00
2011-02-03 13:00:00 37502 13 510.09 510.09 510.09 636.9 966.60	52.7714285714	510.09	636.90	Partly_Cloudy(fair)	True	False	636.90
2011-02-03 14:00:00 37503 14 420.85 420.85 420.85 516.0 797.50	52.7714285714	420.85	516.00	Partly_Cloudy(fair)	True	False	516.00
2011-02-03 15:00:00 37504 15 222.06 222.06 222.06 323.0 514.80	43.1359791802	222.06	323.00	Partly_Cloudy(fair)	True	False	323.00
2011-02-03 16:00:00 37505 16 66.30 66.30 66.30 86.5 153.70	43.1359791802	66.30	86.50	Partly_Cloudy(fair)	True	False	86.50
2011-02-03 17:00:00 37506 17 2.36 2.36 2.36 0.5 3.10	76.1265361857	2.36	0.50	Clear(fair)	True	False	0.50
