2011-01-22 19:00:00 25880 19 0.00 0.00 0.00 0.0 0.00	46.9491073808	0.00	0.00	Partly_Cloudy(fair)	True	False	0.00
2011-01-22 20:00:00 25881 20 0.00 0.00 0.00 0.0 0.00	46.9491073808	0.00	0.00	Partly_Cloudy(fair)	True	False	0.00
2011-01-22 21:00:00 25882 21 0.00 0.00 0.00 0.0 0.00	46.9491073808	0.00	0.00	Mostly_Clear(fair)	False	False	0.00
2011-01-22 22:00:00 25883 22 0.00 0.00 0.00 0.0 0.00	82.2713378791	0.00	0.00	Clear(fair)	True	False	0.00
2011-01-22 23:00:00 25884 23 0.00 0.00 0.00 0.0 0.00	82.2713378791	0.00	0.00	Mostly_Clear(fair)	False	False	0.00
2011-01-23 00:00:00 25885 0 0.00 0.00 0.00 0.0 0.00	82.2713378791	0.00	0.00	Mostly_Clear(fair)	False	False	0.00
2011-01-23 01:00:00 25886 1 0.00 0.00 0.00 0.0 0.00	82.2713378791	0.00	0.00	Mostly_Clear(fair)	False	False	0.00
2011-01-23 02:00:00 25887 2 0.00 0.00 0.00 0.0 0.00	82.2713378791	0.00	0.00	Mostly_Clear(fair)	False	False	0.00
2011-01-23 03:00:00 25888 3 0.00 0.00 0.00 0.0 0.00	82.2713378791	0.00	0.00	Mostly_Clear(fair)	False	False	0.00
2011-01-23 04:00:00 25889 4 0.00 0.00 0.00 0.0 0.00	82.2713378791	0.00	0.00	Mostly_Clear(fair)	False	False	0.00
2011-01-23 05:00:00 25890 5 0.00 0.00 0.00 0.0 0.00	82.2713378791	0.00	0.00	Mostly_Clear(fair)	False	False	0.00
2011-01-23 06:00:00 25891 6 0.00 0.00 0.00 0.0 0.00	82.2713378791	0.00	0.00	Clear(fair)	True	False	0.00
2011-01-23 07:00:00 25892 7 56.77 56.77 56.77 10.3 69.00	82.2713378791	56.77	10.30	Clear(fair)	True	False	10.30
2011-01-23 08:00:00 25893 8 349.90 349.90 349.90 97.7 425.30	82.2713378791	349.90	97.70	Sunny(fair)	True	False	97.70
2011-01-23 09:00:00 25894 9 617.53 617.53 617.53 191.7 750.60	82.2713378791	617.53	191.70	Sunny(fair)	True	False	191.70
2011-01-23 10:00:00 25895 10 828.69 828.69 828.69 264.2 957.70	86.5289882531	828.69	264.20	Sunny(fair)	True	False	264.20
2011-01-23 11:00:00 25896 11 908.55 908.55 908.55 319.4 1050.00	86.5289882531	908.55	319.40	Sunny(fair)	True	False	319.40
2011-01-23 12:00:00 25897 12 625.06 625.06 625.06 356.8 1055.60	59.2137913021	625.06	356.80	Partly_Cloudy(fair)	True	False	356.80
2011-01-23 13:00:00 25898 13 558.62 558.62 558.62 340.4 943.40	59.2137913021	558.62	340.40	Partly_Cloudy(fair)	True	False	340.40
2011-01-23 14:00:00 25899 14 453.40 453.40 453.40 289.7 765.70	59.2137913021	453.40	289.70	Partly_Cloudy(fair)	True	False	289.70
2011-01-23 15:00:00 25900 15 282.15 282.15 282.15 140.1 476.50	59.2137913021	282.15	140.10	Partly_Cloudy(fair)	True	False	140.10
2011-01-23 16:00:00 25901 16 57.84 57.84 57.84 20.4 123.20	46.9491073808	57.84	20.40	Partly_Cloudy(fair)	True	False	20.40
2011-01-23 17:00:00 25902 17 0.66 0.66 0.66 0.0 1.40	46.9491073808	0.66	0.00	Partly_Cloudy(fair)	True	False	0.00
2011-01-23 18:00:00 25903 18 0.00 0.00 0.00 0.0 0.00	46.9491073808	0.00	0.00	Partly_Cloudy(fair)	True	False	0.00
2011-01-23 19:00:00 25904 19 0.00 0.00 0.00 0.0 0.00	46.9491073808	0.00	0.00	Partly_Cloudy(fair)	True	False	0.00
2011-01-23 20:00:00 25905 20 0.00 0.00 0.00 0.0 0.00	46.9491073808	0.00	0.00	Partly_Cloudy(fair)	True	False	0.00
2011-01-23 21:00:00 25906 21 0.00 0.00 0.00 0.0 0.00	46.9491073808	0.00	0.00	Mostly_Clear(fair)	False	False	0.00
2011-01-23 22:00:00 25907 22 0.00 0.00 0.00 0.0 0.00	46.9491073808	0.00	0.00	Mostly_Clear(fair)	False	False	0.00
2011-01-23 23:00:00 25908 23 0.00 0.00 0.00 0.0 0.00	46.9491073808	0.00	0.00	Mostly_Clear(fair)	False	False	0.00
2011-01-24 00:00:00 25909 0 0.00 0.00 0.00 0.0 0.00	82.2713378791	0.00	0.00	Clear(fair)	True	False	0.00
2011-01-24 01:00:00 25910 1 0.00 0.00 0.00 0.0 0.00	82.2713378791	0.00	0.00	Clear(fair)	True	False	0.00
2011-01-24 02:00:00 25911 2 0.00 0.00 0.00 0.0 0.00	82.2713378791	0.00	0.00	Clear(fair)	True	False	0.00
2011-01-24 03:00:00 25912 3 0.00 0.00 0.00 0.0 0.00	82.2713378791	0.00	0.00	Clear(fair)	True	False	0.00
2011-01-24 04:00:00 25913 4 0.00 0.00 0.00 0.0 0.00	82.2713378791	0.00	0.00	Clear(fair)	True	False	0.00
2011-01-24 05:00:00 25914 5 0.00 0.00 0.00 0.0 0.00	82.2713378791	0.00	0.00	Clear(fair)	True	False	0.00
2011-01-24 06:00:00 25915 6 0.00 0.00 0.00 0.0 0.00	82.2713378791	0.00	0.00	Clear(fair)	True	False	0.00
2011-01-24 07:00:00 25916 7 56.77 56.77 56.77 19.0 69.00	82.2713378791	56.77	19.00	Clear(fair)	True	False	19.00
2011-01-24 08:00:00 25917 8 349.90 349.90 349.90 155.2 425.30	82.2713378791	349.90	155.20	Sunny(fair)	True	False	155.20
2011-01-24 09:00:00 25918 9 617.53 617.53 617.53 291.0 750.60	82.2713378791	617.53	291.00	Sunny(fair)	True	False	291.00
2011-01-24 10:00:00 25919 10 828.69 828.69 828.69 385.0 957.70	86.5289882531	828.69	385.00	Sunny(fair)	True	False	385.00
2011-01-24 11:00:00 25920 11 908.55 908.55 908.55 446.3 1050.00	86.5289882531	908.55	446.30	Sunny(fair)	True	False	446.30
2011-01-24 12:00:00 25921 12 913.40 913.40 913.40 485.1 1055.60	86.5289882531	913.40	485.10	Sunny(fair)	True	False	485.10
2011-01-24 13:00:00 25922 13 816.31 816.31 816.31 460.8 943.40	86.5289882531	816.31	460.80	Sunny(fair)	True	False	460.80
2011-01-24 14:00:00 25923 14 662.55 662.55 662.55 379.3 765.70	86.5289882531	662.55	379.30	Sunny(fair)	True	False	379.30
2011-01-24 15:00:00 25924 15 412.31 412.31 412.31 215.2 476.50	86.5289882531	412.31	215.20	Sunny(fair)	True	False	215.20
2011-01-24 16:00:00 25925 16 101.36 101.36 101.36 30.1 123.20	82.2713378791	101.36	30.10	Sunny(mostly_cloudy)	True	False	30.10
2011-01-24 17:00:00 25926 17 1.15 1.15 1.15 0.0 1.40	82.2713378791	1.15	0.00	Sunny(fair)	True	False	0.00
2011-01-24 18:00:00 25927 18 0.00 0.00 0.00 0.0 0.00	31.0380952381	0.00	0.00	Mostly_Cloudy(cloudy)	True	False	0.00
