2011-01-28 08:00:00 32260 8 90.06 90.06 90.06 36.3 439.40	20.4952380952	90.06	36.30	Cloudy(cloudy)	True	False	36.30
2011-01-28 09:00:00 32261 9 153.84 153.84 153.84 74.4 750.60	20.4952380952	153.84	74.40	Cloudy(cloudy)	True	False	74.40
2011-01-28 10:00:00 32262 10 198.50 198.50 198.50 186.7 957.70	20.7264150943	198.50	186.70	Cloudy(light_snow)	True	False	186.70
2011-01-28 11:00:00 32263 11 217.63 217.63 217.63 231.7 1050.00	20.7264150943	217.63	231.70	Cloudy(mostly_cloudy)	True	False	231.70
2011-01-28 12:00:00 32264 12 219.70 219.70 219.70 130.5 1060.00	20.7264150943	219.70	130.50	Cloudy(cloudy)	True	False	130.50
2011-01-28 13:00:00 32265 13 200.34 200.34 200.34 110.9 966.60	20.7264150943	200.34	110.90	Cloudy(cloudy)	True	False	110.90
2011-01-28 14:00:00 32266 14 0.38 0.38 0.38 63.6 797.50	0.047619047619	0.38	63.60	Snow_Shower(cloudy)	True	False	63.60
2011-01-28 15:00:00 32267 15 0.25 0.25 0.25 58.9 514.80	0.047619047619	0.25	58.90	Snow_Shower(cloudy)	True	False	58.90
2011-01-28 16:00:00 32268 16 0.07 0.07 0.07 6.5 153.70	0.047619047619	0.07	6.50	Snow_Shower(cloudy)	True	False	6.50
2011-01-28 17:00:00 32269 17 0.00 0.00 0.00 0.0 3.10	0.047619047619	0.00	0.00	Snow_Shower(light_snow)	True	False	0.00
2011-01-28 18:00:00 32270 18 0.00 0.00 0.00 0.0 0.00	0.417667327973	0.00	0.00	Few_Snow_Showers(cloudy)	True	False	0.00
2011-01-28 19:00:00 32271 19 0.00 0.00 0.00 0.0 0.00	0.417667327973	0.00	0.00	Few_Snow_Showers(light_snow)	True	False	0.00
2011-01-28 20:00:00 32272 20 0.00 0.00 0.00 0.0 0.00	0.417667327973	0.00	0.00	Few_Snow_Showers(light_snow)	True	False	0.00
2011-01-28 21:00:00 32273 21 0.00 0.00 0.00 0.0 0.00	20.4952380952	0.00	0.00	Cloudy(cloudy)	True	False	0.00
2011-01-28 22:00:00 32274 22 0.00 0.00 0.00 0.0 0.00	20.4952380952	0.00	0.00	Cloudy(cloudy)	True	False	0.00
2011-01-28 23:00:00 32275 23 0.00 0.00 0.00 0.0 0.00	20.4952380952	0.00	0.00	Cloudy(cloudy)	True	False	0.00
2011-01-29 00:00:00 32276 0 0.00 0.00 0.00 0.0 0.00	20.4952380952	0.00	0.00	Cloudy(fog)	True	False	0.00
2011-01-29 01:00:00 32277 1 0.00 0.00 0.00 0.0 0.00	20.4952380952	0.00	0.00	Cloudy(fog)	True	False	0.00
2011-01-29 02:00:00 32278 2 0.00 0.00 0.00 0.0 0.00	20.4952380952	0.00	0.00	Cloudy(fog)	True	False	0.00
2011-01-29 03:00:00 32279 3 0.00 0.00 0.00 0.0 0.00	26.513427401	0.00	0.00	Mostly_Cloudy(cloudy)	True	False	0.00
2011-01-29 04:00:00 32280 4 0.00 0.00 0.00 0.0 0.00	26.513427401	0.00	0.00	Mostly_Cloudy(cloudy)	True	False	0.00
2011-01-29 05:00:00 32281 5 0.00 0.00 0.00 0.0 0.00	26.513427401	0.00	0.00	Mostly_Cloudy(cloudy)	True	False	0.00
2011-01-29 06:00:00 32282 6 0.00 0.00 0.00 0.0 0.00	26.513427401	0.00	0.00	Mostly_Cloudy(cloudy)	True	False	0.00
2011-01-29 07:00:00 32283 7 24.95 24.95 24.95 7.6 94.10	26.513427401	24.95	7.60	Mostly_Cloudy(fair)	True	False	7.60
2011-01-29 08:00:00 32284 8 116.50 116.50 116.50 91.7 439.40	26.513427401	116.50	91.70	Mostly_Cloudy(fog)	True	False	91.70
2011-01-29 09:00:00 32285 9 199.01 199.01 199.01 187.1 750.60	26.513427401	199.01	187.10	Mostly_Cloudy(fair)	True	False	187.10
2011-01-29 10:00:00 32286 10 297.25 297.25 297.25 281.1 957.70	31.0380952381	297.25	281.10	Mostly_Cloudy(fair)	True	False	281.10
2011-01-29 11:00:00 32287 11 325.90 325.90 325.90 270.2 1050.00	31.0380952381	325.90	270.20	Mostly_Cloudy(fair)	True	False	270.20
2011-01-29 12:00:00 32288 12 0.50 0.50 0.50 362.4 1060.00	0.047619047619	0.50	362.40	Snow_Shower(fair)	True	False	362.40
2011-01-29 13:00:00 32289 13 0.46 0.46 0.46 239.5 966.60	0.047619047619	0.46	239.50	Snow_Shower(partly_cloudy)	True	False	239.50
2011-01-29 14:00:00 32290 14 0.38 0.38 0.38 162.0 797.50	0.047619047619	0.38	162.00	Snow_Shower(partly_cloudy)	True	False	162.00
2011-01-29 15:00:00 32291 15 0.25 0.25 0.25 54.1 514.80	0.047619047619	0.25	54.10	Flurries(mostly_cloudy)	False	False	54.10
2011-01-29 16:00:00 32292 16 0.07 0.07 0.07 19.8 153.70	0.047619047619	0.07	19.80	Flurries(light_snow)	False	False	19.80
2011-01-29 17:00:00 32293 17 0.00 0.00 0.00 0.0 3.10	0.047619047619	0.00	0.00	Flurries(cloudy)	False	False	0.00
2011-01-29 18:00:00 32294 18 0.00 0.00 0.00 0.0 0.00	26.513427401	0.00	0.00	Mostly_Cloudy(light_snow)	True	False	0.00
2011-01-29 19:00:00 32295 19 0.00 0.00 0.00 0.0 0.00	26.513427401	0.00	0.00	Mostly_Cloudy(cloudy)	True	False	0.00
2011-01-29 20:00:00 32296 20 0.00 0.00 0.00 0.0 0.00	26.513427401	0.00	0.00	Mostly_Cloudy(cloudy)	True	False	0.00
2011-01-29 21:00:00 32297 21 0.00 0.00 0.00 0.0 0.00	43.1235431235	0.00	0.00	Partly_Cloudy(cloudy)	True	False	0.00
2011-01-29 22:00:00 32298 22 0.00 0.00 0.00 0.0 0.00	43.1235431235	0.00	0.00	Partly_Cloudy(cloudy)	True	False	0.00
2011-01-29 23:00:00 32299 23 0.00 0.00 0.00 0.0 0.00	43.1235431235	0.00	0.00	Partly_Cloudy(cloudy)	True	False	0.00
2011-01-30 00:00:00 32300 0 0.00 0.00 0.00 0.0 0.00	43.1235431235	0.00	0.00	Partly_Cloudy(cloudy)	True	False	0.00
2011-01-30 01:00:00 32301 1 0.00 0.00 0.00 0.0 0.00	43.1235431235	0.00	0.00	Partly_Cloudy(cloudy)	True	False	0.00
2011-01-30 02:00:00 32302 2 0.00 0.00 0.00 0.0 0.00	43.1235431235	0.00	0.00	Partly_Cloudy(cloudy)	True	False	0.00
2011-01-30 03:00:00 32303 3 0.00 0.00 0.00 0.0 0.00	43.1235431235	0.00	0.00	Partly_Cloudy(cloudy)	True	False	0.00
2011-01-30 04:00:00 32304 4 0.00 0.00 0.00 0.0 0.00	43.1235431235	0.00	0.00	Partly_Cloudy(cloudy)	True	False	0.00
2011-01-30 05:00:00 32305 5 0.00 0.00 0.00 0.0 0.00	43.1235431235	0.00	0.00	Partly_Cloudy(fog)	True	False	0.00
2011-01-30 06:00:00 32306 6 0.00 0.00 0.00 0.0 0.00	43.1235431235	0.00	0.00	Partly_Cloudy(fog)	True	False	0.00
2011-01-30 07:00:00 32307 7 40.58 40.58 40.58 6.3 94.10	43.1235431235	40.58	6.30	Partly_Cloudy(fog)	True	False	6.30
2011-01-30 08:00:00 32308 8 189.48 189.48 189.48 68.2 439.40	43.1235431235	189.48	68.20	Partly_Cloudy(fog)	True	False	68.20
