2011-02-02 13:00:00 38289 13 813.79 813.79 200.34 139.2 966.60	20.7264150943	200.34	139.20	Cloudy(fog)	True	False	139.20
2011-02-02 14:00:00 38290 14 114.85 114.85 89.77 137.0 797.50	11.2559486861	89.77	137.00	Foggy(fog)	True	False	137.00
2011-02-02 15:00:00 38291 15 106.70 74.14 106.70 92.4 514.80	20.7264150943	106.70	92.40	Cloudy(cloudy)	True	False	92.40
2011-02-02 16:00:00 38292 16 27.17 22.13 27.17 28.9 153.70	17.6777696565	27.17	28.90	Cloudy(fog)	True	False	28.90
2011-02-02 17:00:00 38293 17 0.74 0.60 0.74 0.0 4.20	17.6777696565	0.74	0.00	Cloudy(cloudy)	True	False	0.00
2011-02-02 18:00:00 38294 18 0.00 0.00 0.00 0.0 0.00	24.0877742947	0.00	0.00	Mostly_Cloudy(partly_cloudy)	True	False	0.00
2011-02-02 19:00:00 38295 19 0.00 0.00 0.00 0.0 0.00	24.0877742947	0.00	0.00	Mostly_Cloudy(fair)	True	False	0.00
2011-02-02 20:00:00 38296 20 0.00 0.00 0.00 0.0 0.00	24.0877742947	0.00	0.00	Mostly_Cloudy(fair)	True	False	0.00
2011-02-02 21:00:00 38297 21 0.00 0.00 0.00 0.0 0.00	74.1764080765	0.00	0.00	Clear(partly_cloudy)	True	False	0.00
2011-02-02 22:00:00 38298 22 0.00 0.00 0.00 0.0 0.00	74.1764080765	0.00	0.00	Clear(fair)	True	False	0.00
2011-02-02 23:00:00 38299 23 0.00 0.00 0.00 0.0 0.00	74.1764080765	0.00	0.00	Clear(cloudy)	True	False	0.00
2011-02-03 00:00:00 38300 0 0.00 0.00 0.00 0.0 0.00	74.1764080765	0.00	0.00	Clear(cloudy)	True	False	0.00
2011-02-03 01:00:00 38301 1 0.00 0.00 0.00 0.0 0.00	74.1764080765	0.00	0.00	Clear(cloudy)	True	False	0.00
2011-02-03 02:00:00 38302 2 0.00 0.00 0.00 0.0 0.00	74.1764080765	0.00	0.00	Clear(cloudy)	True	False	0.00
2011-02-03 03:00:00 38303 3 0.00 0.00 0.00 0.0 0.00	74.1764080765	0.00	0.00	Mostly_Clear(cloudy)	False	False	0.00
2011-02-03 04:00:00 38304 4 0.00 0.00 0.00 0.0 0.00	74.1764080765	0.00	0.00	Mostly_Clear(cloudy)	False	False	0.00
2011-02-03 05:00:00 38305 5 0.00 0.00 0.00 0.0 0.00	74.1764080765	0.00	0.00	Mostly_Clear(cloudy)	False	False	0.00
2011-02-03 06:00:00 38306 6 0.00 0.00 0.00 0.0 0.00	74.1764080765	0.00	0.00	Mostly_Clear(mostly_cloudy)	False	False	0.00
2011-02-03 07:00:00 38307 7 69.80 69.80 69.80 12.7 94.10	74.1764080765	69.80	12.70	Mostly_Clear(Unkown)	False	False	12.70
2011-02-03 08:00:00 38308 8 325.93 325.93 325.93 128.9 439.40	74.1764080765	325.93	128.90	Mostly_Sunny(Unkown)	False	False	128.90
2011-02-03 09:00:00 38309 9 556.77 556.77 556.77 451.1 750.60	74.1764080765	556.77	451.10	Mostly_Sunny(cloudy)	False	False	451.10
2011-02-03 10:00:00 38310 10 710.39 710.39 710.39 600.0 957.70	74.1764080765	710.39	600.00	Mostly_Sunny(fair)	False	False	600.00
2011-02-03 11:00:00 38311 11 778.85 778.85 778.85 674.2 1050.00	74.1764080765	778.85	674.20	Mostly_Sunny(fair)	False	False	674.20
2011-02-03 12:00:00 38312 12 786.27 786.27 786.27 698.0 1060.00	74.1764080765	786.27	698.00	Mostly_Sunny(fair)	False	False	698.00
2011-02-03 13:00:00 38313 13 716.99 716.99 716.99 636.9 966.60	74.1764080765	716.99	636.90	Mostly_Sunny(fair)	False	False	636.90
2011-02-03 14:00:00 38314 14 591.56 591.56 591.56 516.0 797.50	74.1764080765	591.56	516.00	Mostly_Sunny(fair)	False	False	516.00
2011-02-03 15:00:00 38315 15 381.86 381.86 381.86 323.0 514.80	74.1764080765	381.86	323.00	Mostly_Sunny(fair)	False	False	323.00
2011-02-03 16:00:00 38316 16 114.01 114.01 114.01 86.5 153.70	74.1764080765	114.01	86.50	Mostly_Sunny(fair)	False	False	86.50
2011-02-03 17:00:00 38317 17 3.12 3.12 3.12 0.5 4.20	74.1764080765	3.12	0.50	Mostly_Sunny(fair)	False	False	0.50
2011-02-03 18:00:00 38318 18 0.00 0.00 0.00 0.0 0.00	74.1764080765	0.00	0.00	Clear(fair)	True	False	0.00
2011-02-03 19:00:00 38319 19 0.00 0.00 0.00 0.0 0.00	74.1764080765	0.00	0.00	Clear(fair)	True	False	0.00
2011-02-03 20:00:00 38320 20 0.00 0.00 0.00 0.0 0.00	74.1764080765	0.00	0.00	Clear(fair)	True	False	0.00
2011-02-03 21:00:00 38321 21 0.00 0.00 0.00 0.0 0.00	74.1764080765	0.00	0.00	Clear(fair)	True	False	0.00
2011-02-03 22:00:00 38322 22 0.00 0.00 0.00 0.0 0.00	74.1764080765	0.00	0.00	Clear(fair)	True	False	0.00
2011-02-03 23:00:00 38323 23 0.00 0.00 0.00 0.0 0.00	74.1764080765	0.00	0.00	Clear(fair)	True	False	0.00
2011-02-04 00:00:00 38324 0 0.00 0.00 0.00 0.0 0.00	74.1764080765	0.00	0.00	Clear(fair)	True	False	0.00
2011-02-04 01:00:00 38325 1 0.00 0.00 0.00 0.0 0.00	74.1764080765	0.00	0.00	Clear(fair)	True	False	0.00
2011-02-04 02:00:00 38326 2 0.00 0.00 0.00 0.0 0.00	74.1764080765	0.00	0.00	Clear(fair)	True	False	0.00
2011-02-04 03:00:00 38327 3 0.00 0.00 0.00 0.0 0.00	43.8894792774	0.00	0.00	Partly_Cloudy(fair)	True	False	0.00
2011-02-04 04:00:00 38328 4 0.00 0.00 0.00 0.0 0.00	43.8894792774	0.00	0.00	Partly_Cloudy(fair)	True	False	0.00
2011-02-04 05:00:00 38329 5 0.00 0.00 0.00 0.0 0.00	43.8894792774	0.00	0.00	Partly_Cloudy(fair)	True	False	0.00
2011-02-04 06:00:00 38330 6 0.00 0.00 0.00 0.0 0.00	43.8894792774	0.00	0.00	Partly_Cloudy(fair)	True	False	0.00
2011-02-04 07:00:00 38331 7 41.30 41.30 41.30 17.3 94.10	43.8894792774	41.30	17.30	Partly_Cloudy(fair)	True	False	17.30
2011-02-04 08:00:00 38332 8 192.85 192.85 192.85 131.0 439.40	43.8894792774	192.85	131.00	Partly_Cloudy(fair)	True	False	131.00
2011-02-04 09:00:00 38333 9 556.77 556.77 556.77 263.7 750.60	74.1764080765	556.77	263.70	Sunny(fair)	True	False	263.70
2011-02-04 10:00:00 38334 10 806.30 806.30 806.30 334.7 957.70	84.1912916362	806.30	334.70	Sunny(fair)	True	False	334.70
2011-02-04 11:00:00 38335 11 884.01 884.01 884.01 413.7 1050.00	84.1912916362	884.01	413.70	Sunny(fair)	True	False	413.70
2011-02-04 12:00:00 38336 12 892.43 892.43 892.43 402.5 1060.00	84.1912916362	892.43	402.50	Sunny(fair)	True	False	402.50
2011-02-04 13:00:00 38337 13 813.79 813.79 813.79 316.4 966.60	84.1912916362	813.79	316.40	Sunny(fair)	True	False	316.40
