2011-01-28 10:00:00 32358 10 198.50 806.39 198.50 186.7 957.70	20.7264150943	198.50	186.70	Cloudy(light_snow)	True	False	186.70
2011-01-28 11:00:00 32359 11 217.63 204.69 217.63 231.7 1050.00	20.7264150943	217.63	231.70	Cloudy(mostly_cloudy)	True	False	231.70
2011-01-28 12:00:00 32360 12 219.70 206.64 219.70 130.5 1060.00	20.7264150943	219.70	130.50	Cloudy(cloudy)	True	False	130.50
2011-01-28 13:00:00 32361 13 200.34 188.44 200.34 110.9 966.60	20.7264150943	200.34	110.90	Cloudy(cloudy)	True	False	110.90
2011-01-28 14:00:00 32362 14 165.29 155.47 165.29 63.6 797.50	20.7264150943	165.29	63.60	Cloudy(cloudy)	True	False	63.60
2011-01-28 15:00:00 32363 15 106.70 100.36 106.70 58.9 514.80	20.7264150943	106.70	58.90	Cloudy(cloudy)	True	False	58.90
2011-01-28 16:00:00 32364 16 0.07 29.96 0.07 6.5 153.70	0.047619047619	0.07	6.50	Snow_Shower(cloudy)	True	False	6.50
2011-01-28 17:00:00 32365 17 0.00 0.60 0.00 0.0 3.10	0.047619047619	0.00	0.00	Snow_Shower(light_snow)	True	False	0.00
2011-01-28 18:00:00 32366 18 0.00 0.00 0.00 0.0 0.00	0.417667327973	0.00	0.00	Few_Snow_Showers(cloudy)	True	False	0.00
2011-01-28 19:00:00 32367 19 0.00 0.00 0.00 0.0 0.00	0.417667327973	0.00	0.00	Few_Snow_Showers(light_snow)	True	False	0.00
2011-01-28 20:00:00 32368 20 0.00 0.00 0.00 0.0 0.00	0.417667327973	0.00	0.00	Few_Snow_Showers(light_snow)	True	False	0.00
2011-01-28 21:00:00 32369 21 0.00 0.00 0.00 0.0 0.00	20.4952380952	0.00	0.00	Cloudy(cloudy)	True	False	0.00
2011-01-28 22:00:00 32370 22 0.00 0.00 0.00 0.0 0.00	20.4952380952	0.00	0.00	Cloudy(cloudy)	True	False	0.00
2011-01-28 23:00:00 32371 23 0.00 0.00 0.00 0.0 0.00	20.4952380952	0.00	0.00	Cloudy(cloudy)	True	False	0.00
2011-01-29 00:00:00 32372 0 0.00 0.00 0.00 0.0 0.00	20.4952380952	0.00	0.00	Cloudy(fog)	True	False	0.00
2011-01-29 01:00:00 32373 1 0.00 0.00 0.00 0.0 0.00	20.4952380952	0.00	0.00	Cloudy(fog)	True	False	0.00
2011-01-29 02:00:00 32374 2 0.00 0.00 0.00 0.0 0.00	20.4952380952	0.00	0.00	Cloudy(fog)	True	False	0.00
2011-01-29 03:00:00 32375 3 0.00 0.00 0.00 0.0 0.00	26.513427401	0.00	0.00	Mostly_Cloudy(cloudy)	True	False	0.00
2011-01-29 04:00:00 32376 4 0.00 0.00 0.00 0.0 0.00	26.513427401	0.00	0.00	Mostly_Cloudy(cloudy)	True	False	0.00
2011-01-29 05:00:00 32377 5 0.00 0.00 0.00 0.0 0.00	26.513427401	0.00	0.00	Mostly_Cloudy(cloudy)	True	False	0.00
2011-01-29 06:00:00 32378 6 0.00 0.00 0.00 0.0 0.00	26.513427401	0.00	0.00	Mostly_Cloudy(cloudy)	True	False	0.00
2011-01-29 07:00:00 32379 7 24.95 24.95 24.95 7.6 94.10	26.513427401	24.95	7.60	Mostly_Cloudy(fair)	True	False	7.60
2011-01-29 08:00:00 32380 8 116.50 116.50 116.50 91.7 439.40	26.513427401	116.50	91.70	Mostly_Cloudy(fog)	True	False	91.70
2011-01-29 09:00:00 32381 9 199.01 199.01 199.01 187.1 750.60	26.513427401	199.01	187.10	Mostly_Cloudy(fair)	True	False	187.10
2011-01-29 10:00:00 32382 10 297.25 297.25 297.25 281.1 957.70	31.0380952381	297.25	281.10	Mostly_Cloudy(fair)	True	False	281.10
2011-01-29 11:00:00 32383 11 325.90 325.90 325.90 270.2 1050.00	31.0380952381	325.90	270.20	Mostly_Cloudy(fair)	True	False	270.20
2011-01-29 12:00:00 32384 12 0.50 0.50 0.50 362.4 1060.00	0.047619047619	0.50	362.40	Snow_Shower(fair)	True	False	362.40
2011-01-29 13:00:00 32385 13 0.46 0.46 0.46 239.5 966.60	0.047619047619	0.46	239.50	Snow_Shower(partly_cloudy)	True	False	239.50
2011-01-29 14:00:00 32386 14 0.38 0.38 0.38 162.0 797.50	0.047619047619	0.38	162.00	Snow_Shower(partly_cloudy)	True	False	162.00
2011-01-29 15:00:00 32387 15 0.25 0.25 0.25 54.1 514.80	0.047619047619	0.25	54.10	Flurries(mostly_cloudy)	False	False	54.10
2011-01-29 16:00:00 32388 16 0.07 0.07 0.07 19.8 153.70	0.047619047619	0.07	19.80	Flurries(light_snow)	False	False	19.80
2011-01-29 17:00:00 32389 17 0.00 0.00 0.00 0.0 3.10	0.047619047619	0.00	0.00	Flurries(cloudy)	False	False	0.00
2011-01-29 18:00:00 32390 18 0.00 0.00 0.00 0.0 0.00	26.513427401	0.00	0.00	Mostly_Cloudy(light_snow)	True	False	0.00
2011-01-29 19:00:00 32391 19 0.00 0.00 0.00 0.0 0.00	26.513427401	0.00	0.00	Mostly_Cloudy(cloudy)	True	False	0.00
2011-01-29 20:00:00 32392 20 0.00 0.00 0.00 0.0 0.00	26.513427401	0.00	0.00	Mostly_Cloudy(cloudy)	True	False	0.00
2011-01-29 21:00:00 32393 21 0.00 0.00 0.00 0.0 0.00	43.1235431235	0.00	0.00	Partly_Cloudy(cloudy)	True	False	0.00
2011-01-29 22:00:00 32394 22 0.00 0.00 0.00 0.0 0.00	43.1235431235	0.00	0.00	Partly_Cloudy(cloudy)	True	False	0.00
2011-01-29 23:00:00 32395 23 0.00 0.00 0.00 0.0 0.00	43.1235431235	0.00	0.00	Partly_Cloudy(cloudy)	True	False	0.00
2011-01-30 00:00:00 32396 0 0.00 0.00 0.00 0.0 0.00	43.1235431235	0.00	0.00	Partly_Cloudy(cloudy)	True	False	0.00
2011-01-30 01:00:00 32397 1 0.00 0.00 0.00 0.0 0.00	43.1235431235	0.00	0.00	Partly_Cloudy(cloudy)	True	False	0.00
2011-01-30 02:00:00 32398 2 0.00 0.00 0.00 0.0 0.00	43.1235431235	0.00	0.00	Partly_Cloudy(cloudy)	True	False	0.00
2011-01-30 03:00:00 32399 3 0.00 0.00 0.00 0.0 0.00	43.1235431235	0.00	0.00	Partly_Cloudy(cloudy)	True	False	0.00
2011-01-30 04:00:00 32400 4 0.00 0.00 0.00 0.0 0.00	43.1235431235	0.00	0.00	Partly_Cloudy(cloudy)	True	False	0.00
2011-01-30 05:00:00 32401 5 0.00 0.00 0.00 0.0 0.00	43.1235431235	0.00	0.00	Partly_Cloudy(fog)	True	False	0.00
2011-01-30 06:00:00 32402 6 0.00 0.00 0.00 0.0 0.00	43.1235431235	0.00	0.00	Partly_Cloudy(fog)	True	False	0.00
2011-01-30 07:00:00 32403 7 40.58 40.58 40.58 6.3 94.10	43.1235431235	40.58	6.30	Partly_Cloudy(fog)	True	False	6.30
2011-01-30 08:00:00 32404 8 189.48 189.48 189.48 68.2 439.40	43.1235431235	189.48	68.20	Partly_Cloudy(fog)	True	False	68.20
2011-01-30 09:00:00 32405 9 323.69 323.69 323.69 193.5 750.60	43.1235431235	323.69	193.50	Partly_Cloudy(cloudy)	True	False	193.50
2011-01-30 10:00:00 32406 10 505.39 505.39 505.39 429.2 957.70	52.7714285714	505.39	429.20	Partly_Cloudy(cloudy)	True	False	429.20
