2011-01-20 15:00:00 23356 15 392.84 392.84 392.84 201.0 447.60	63.768686074	392.84	201.00	Partly_Cloudy(partly_cloudy)	True	False	201.00
2011-01-20 16:00:00 23357 16 45.76 45.76 45.76 35.8 101.90	50.3860451816	45.76	35.80	Partly_Cloudy(fair)	True	False	35.80
2011-01-20 17:00:00 23358 17 0.49 0.63 0.63 0.0 1.40	35.3281599369	0.63	0.00	Mostly_Cloudy(fair)	True	False	0.00
2011-01-20 18:00:00 23359 18 0.00 0.00 0.00 0.0 0.00	24.0295748614	0.00	0.00	Cloudy(fair)	True	False	0.00
2011-01-20 19:00:00 23360 19 0.00 0.00 0.00 0.0 0.00	24.0295748614	0.00	0.00	Cloudy(mostly_cloudy)	True	False	0.00
2011-01-20 20:00:00 23361 20 0.00 0.00 0.00 0.0 0.00	24.0295748614	0.00	0.00	Cloudy(cloudy)	True	False	0.00
2011-01-20 21:00:00 23362 21 0.00 0.00 0.00 0.0 0.00	20.0578718927	0.00	0.00	Snow_Shower(cloudy)	True	False	0.00
2011-01-20 22:00:00 23363 22 0.00 0.00 0.00 0.0 0.00	20.0578718927	0.00	0.00	Snow_Shower(cloudy)	True	False	0.00
2011-01-20 23:00:00 23364 23 0.00 0.00 0.00 0.0 0.00	20.0578718927	0.00	0.00	Snow_Shower(cloudy)	True	False	0.00
2011-01-21 00:00:00 23365 0 0.00 0.00 0.00 0.0 0.00	20.0578718927	0.00	0.00	Snow(mostly_cloudy)	True	False	0.00
2011-01-21 01:00:00 23366 1 0.00 0.00 0.00 0.0 0.00	20.0578718927	0.00	0.00	Snow(cloudy)	True	False	0.00
2011-01-21 02:00:00 23367 2 0.00 0.00 0.00 0.0 0.00	20.0578718927	0.00	0.00	Snow(snow)	True	False	0.00
2011-01-21 03:00:00 23368 3 0.00 0.00 0.00 0.0 0.00	20.0578718927	0.00	0.00	Snow(snow)	True	False	0.00
2011-01-21 04:00:00 23369 4 0.00 0.00 0.00 0.0 0.00	20.0578718927	0.00	0.00	Heavy_Snow(light_snow)	False	False	0.00
2011-01-21 05:00:00 23370 5 0.00 0.00 0.00 0.0 0.00	20.0578718927	0.00	0.00	Heavy_Snow(light_snow)	False	False	0.00
2011-01-21 06:00:00 23371 6 0.00 0.00 0.00 0.0 0.00	20.0578718927	0.00	0.00	Snow(light_snow)	True	False	0.00
2011-01-21 07:00:00 23372 7 10.85 10.85 10.85 0.0 54.10	20.0578718927	10.85	0.00	Snow(cloudy)	True	False	0.00
2011-01-21 08:00:00 23373 8 78.59 78.59 78.59 0.6 391.80	20.0578718927	78.59	0.60	Snow(fair)	True	False	0.60
2011-01-21 09:00:00 23374 9 352.40 352.40 352.40 8.3 699.40	50.3860451816	352.40	8.30	Partly_Cloudy(fair)	True	False	8.30
2011-01-21 10:00:00 23375 10 573.22 573.22 573.22 21.0 898.90	63.768686074	573.22	21.00	Partly_Cloudy(light_snow)	True	False	21.00
2011-01-21 11:00:00 23376 11 648.40 648.40 648.40 26.5 1016.80	63.768686074	648.40	26.50	Partly_Cloudy(light_snow)	True	False	26.50
2011-01-21 12:00:00 23377 12 655.35 655.35 655.35 32.6 1027.70	63.768686074	655.35	32.60	Partly_Cloudy(fair)	True	False	32.60
2011-01-21 13:00:00 23378 13 587.50 587.50 587.50 107.0 921.30	63.768686074	587.50	107.00	Partly_Cloudy(cloudy)	True	False	107.00
2011-01-21 14:00:00 23379 14 484.83 484.83 484.83 117.7 760.30	63.768686074	484.83	117.70	Partly_Cloudy(light_snow)	True	False	117.70
2011-01-21 15:00:00 23380 15 285.43 285.43 285.43 46.0 447.60	63.768686074	285.43	46.00	Partly_Cloudy(cloudy)	True	False	46.00
2011-01-21 16:00:00 23381 16 51.34 51.34 51.34 11.2 101.90	50.3860451816	51.34	11.20	Partly_Cloudy(mostly_cloudy)	True	False	11.20
2011-01-21 17:00:00 23382 17 0.71 0.71 0.71 0.0 1.40	50.3860451816	0.71	0.00	Partly_Cloudy(mostly_cloudy)	True	False	0.00
2011-01-21 18:00:00 23383 18 0.00 0.00 0.00 0.0 0.00	85.3751914242	0.00	0.00	Clear(mostly_cloudy)	True	False	0.00
2011-01-21 19:00:00 23384 19 0.00 0.00 0.00 0.0 0.00	85.3751914242	0.00	0.00	Clear(fair)	True	False	0.00
2011-01-21 20:00:00 23385 20 0.00 0.00 0.00 0.0 0.00	85.3751914242	0.00	0.00	Clear(fair)	True	False	0.00
2011-01-21 21:00:00 23386 21 0.00 0.00 0.00 0.0 0.00	85.3751914242	0.00	0.00	Clear(fair)	True	False	0.00
2011-01-21 22:00:00 23387 22 0.00 0.00 0.00 0.0 0.00	85.3751914242	0.00	0.00	Clear(fair)	True	False	0.00
2011-01-21 23:00:00 23388 23 0.00 0.00 0.00 0.0 0.00	85.3751914242	0.00	0.00	Clear(fair)	True	False	0.00
2011-01-22 00:00:00 23389 0 0.00 0.00 0.00 0.0 0.00	85.3751914242	0.00	0.00	Clear(fair)	True	False	0.00
2011-01-22 01:00:00 23390 1 0.00 0.00 0.00 0.0 0.00	85.3751914242	0.00	0.00	Clear(fair)	True	False	0.00
2011-01-22 02:00:00 23391 2 0.00 0.00 0.00 0.0 0.00	85.3751914242	0.00	0.00	Clear(fair)	True	False	0.00
2011-01-22 03:00:00 23392 3 0.00 0.00 0.00 0.0 0.00	85.3751914242	0.00	0.00	Clear(fair)	True	False	0.00
2011-01-22 04:00:00 23393 4 0.00 0.00 0.00 0.0 0.00	85.3751914242	0.00	0.00	Clear(fair)	True	False	0.00
2011-01-22 05:00:00 23394 5 0.00 0.00 0.00 0.0 0.00	85.3751914242	0.00	0.00	Clear(fair)	True	False	0.00
2011-01-22 06:00:00 23395 6 0.00 0.00 0.00 0.0 0.00	85.3751914242	0.00	0.00	Clear(fair)	True	False	0.00
2011-01-22 07:00:00 23396 7 46.19 46.19 46.19 7.1 54.10	85.3751914242	46.19	7.10	Clear(fair)	True	False	7.10
2011-01-22 08:00:00 23397 8 334.50 334.50 334.50 60.9 391.80	85.3751914242	334.50	60.90	Sunny(fair)	True	False	60.90
2011-01-22 09:00:00 23398 9 352.40 352.40 352.40 135.7 699.40	50.3860451816	352.40	135.70	Partly_Cloudy(fair)	True	False	135.70
2011-01-22 10:00:00 23399 10 573.22 573.22 573.22 151.3 898.90	63.768686074	573.22	151.30	Partly_Cloudy(fair)	True	False	151.30
2011-01-22 11:00:00 23400 11 648.40 648.40 648.40 151.0 1016.80	63.768686074	648.40	151.00	Partly_Cloudy(fair)	True	False	151.00
2011-01-22 12:00:00 23401 12 461.81 461.81 461.81 174.7 1027.70	44.9365027678	461.81	174.70	Mostly_Cloudy(fair)	True	False	174.70
2011-01-22 13:00:00 23402 13 414.00 414.00 414.00 143.0 921.30	44.9365027678	414.00	143.00	Mostly_Cloudy(fair)	True	False	143.00
2011-01-22 14:00:00 23403 14 341.65 341.65 341.65 127.0 760.30	44.9365027678	341.65	127.00	Mostly_Cloudy(fair)	True	False	127.00
2011-01-22 15:00:00 23404 15 135.27 135.27 135.27 82.7 447.60	30.2222659323	135.27	82.70	Cloudy(fair)	True	False	82.70
