2011-01-13 09:00:00 14934 9 604.34 604.34 604.34 40.8 668.20	90.4430734717	604.34	40.80	Sunny(fair)	True	False	40.80
2011-01-13 10:00:00 14935 10 54.43 54.43 823.53 68.0 891.50	92.3752792256	823.53	68.00	Sunny(fair)	True	False	68.00
2011-01-13 11:00:00 14936 11 891.98 58.96 891.98 116.4 965.60	92.3752792256	891.98	116.40	Sunny(fair)	True	False	116.40
2011-01-13 12:00:00 14937 12 922.18 60.96 922.18 173.0 998.30	92.3752792256	922.18	173.00	Mostly_Sunny(fair)	False	False	173.00
2011-01-13 13:00:00 14938 13 580.18 52.76 580.18 203.9 864.00	67.149958575	580.18	203.90	Partly_Cloudy(fair)	True	False	203.90
2011-01-13 14:00:00 14939 14 450.91 41.00 450.91 181.3 671.50	67.149958575	450.91	181.30	Partly_Cloudy(Unkown)	True	False	181.30
2011-01-13 15:00:00 14940 15 238.18 21.66 238.18 95.1 354.70	67.149958575	238.18	95.10	Partly_Cloudy(fair)	True	False	95.10
2011-01-13 16:00:00 14941 16 51.57 4.69 51.57 6.8 76.80	67.149958575	51.57	6.80	Mostly_Sunny(fair)	False	False	6.80
2011-01-13 17:00:00 14942 17 0.20 0.02 0.20 0.0 0.30	67.149958575	0.20	0.00	Mostly_Clear(fair)	False	False	0.00
2011-01-13 18:00:00 14943 18 0.00 0.00 0.00 0.0 0.00	90.4430734717	0.00	0.00	Clear(fair)	True	False	0.00
2011-01-13 19:00:00 14944 19 0.00 0.00 0.00 0.0 0.00	90.4430734717	0.00	0.00	Clear(fair)	True	False	0.00
2011-01-13 20:00:00 14945 20 0.00 0.00 0.00 0.0 0.00	90.4430734717	0.00	0.00	Clear(fair)	True	False	0.00
2011-01-13 21:00:00 14946 21 0.00 0.00 0.00 0.0 0.00	90.4430734717	0.00	0.00	Clear(fair)	True	False	0.00
2011-01-13 22:00:00 14947 22 0.00 0.00 0.00 0.0 0.00	90.4430734717	0.00	0.00	Clear(fair)	True	False	0.00
2011-01-13 23:00:00 14948 23 0.00 0.00 0.00 0.0 0.00	90.4430734717	0.00	0.00	Clear(fair)	True	False	0.00
2011-01-14 00:00:00 14949 0 0.00 0.00 0.00 0.0 0.00	90.4430734717	0.00	0.00	Clear(fair)	True	False	0.00
2011-01-14 01:00:00 14950 1 0.00 0.00 0.00 0.0 0.00	90.4430734717	0.00	0.00	Clear(fair)	True	False	0.00
2011-01-14 02:00:00 14951 2 0.00 0.00 0.00 0.0 0.00	90.4430734717	0.00	0.00	Clear(fair)	True	False	0.00
2011-01-14 03:00:00 14952 3 0.00 0.00 0.00 0.0 0.00	52.8997514499	0.00	0.00	Partly_Cloudy(fair)	True	False	0.00
2011-01-14 04:00:00 14953 4 0.00 0.00 0.00 0.0 0.00	52.8997514499	0.00	0.00	Partly_Cloudy(fair)	True	False	0.00
2011-01-14 05:00:00 14954 5 0.00 0.00 0.00 0.0 0.00	52.8997514499	0.00	0.00	Partly_Cloudy(fair)	True	False	0.00
2011-01-14 06:00:00 14955 6 0.00 0.00 0.00 0.0 0.00	48.2137753644	0.00	0.00	Mostly_Cloudy(fair)	True	False	0.00
2011-01-14 07:00:00 14956 7 19.43 19.43 19.43 0.9 40.30	48.2137753644	19.43	0.90	Mostly_Cloudy(fair)	True	False	0.90
2011-01-14 08:00:00 14957 8 168.70 168.70 168.70 56.4 349.90	48.2137753644	168.70	56.40	Mostly_Cloudy(fair)	True	False	56.40
2011-01-14 09:00:00 14958 9 217.84 217.84 217.84 144.1 668.20	32.6014913007	217.84	144.10	Cloudy(fair)	True	False	144.10
2011-01-14 10:00:00 14959 10 335.77 335.77 335.77 288.8 891.50	37.664028849	335.77	288.80	Cloudy(fair)	True	False	288.80
2011-01-14 11:00:00 14960 11 363.68 363.68 363.68 356.8 965.60	37.664028849	363.68	356.80	Cloudy(fair)	True	False	356.80
2011-01-14 12:00:00 14961 12 550.22 550.22 550.22 408.8 998.30	55.1154132539	550.22	408.80	Mostly_Cloudy(fair)	True	False	408.80
2011-01-14 13:00:00 14962 13 476.20 476.20 476.20 399.7 864.00	55.1154132539	476.20	399.70	Mostly_Cloudy(fair)	True	False	399.70
2011-01-14 14:00:00 14963 14 370.10 370.10 370.10 314.6 671.50	55.1154132539	370.10	314.60	Mostly_Cloudy(fair)	True	False	314.60
2011-01-14 15:00:00 14964 15 238.18 238.18 238.18 161.5 354.70	67.149958575	238.18	161.50	Partly_Cloudy(fair)	True	False	161.50
2011-01-14 16:00:00 14965 16 40.63 40.63 40.63 13.6 76.80	52.8997514499	40.63	13.60	Partly_Cloudy(fair)	True	False	13.60
2011-01-14 17:00:00 14966 17 0.16 0.16 0.16 0.0 0.30	52.8997514499	0.16	0.00	Partly_Cloudy(fair)	True	False	0.00
2011-01-14 18:00:00 14967 18 0.00 0.00 0.00 0.0 0.00	52.8997514499	0.00	0.00	Mostly_Clear(fair)	False	False	0.00
2011-01-14 19:00:00 14968 19 0.00 0.00 0.00 0.0 0.00	52.8997514499	0.00	0.00	Mostly_Clear(fair)	False	False	0.00
2011-01-14 20:00:00 14969 20 0.00 0.00 0.00 0.0 0.00	52.8997514499	0.00	0.00	Mostly_Clear(fair)	False	False	0.00
2011-01-14 21:00:00 14970 21 0.00 0.00 0.00 0.0 0.00	90.4430734717	0.00	0.00	Clear(fair)	True	False	0.00
2011-01-14 22:00:00 14971 22 0.00 0.00 0.00 0.0 0.00	90.4430734717	0.00	0.00	Clear(fair)	True	False	0.00
2011-01-14 23:00:00 14972 23 0.00 0.00 0.00 0.0 0.00	90.4430734717	0.00	0.00	Clear(fair)	True	False	0.00
2011-01-15 00:00:00 14973 0 0.00 0.00 0.00 0.0 0.00	90.4430734717	0.00	0.00	Mostly_Clear(fair)	False	False	0.00
2011-01-15 01:00:00 14974 1 0.00 0.00 0.00 0.0 0.00	90.4430734717	0.00	0.00	Mostly_Clear(fair)	False	False	0.00
2011-01-15 02:00:00 14975 2 0.00 0.00 0.00 0.0 0.00	90.4430734717	0.00	0.00	Mostly_Clear(fair)	False	False	0.00
2011-01-15 03:00:00 14976 3 0.00 0.00 0.00 0.0 0.00	52.8997514499	0.00	0.00	Partly_Cloudy(fair)	True	False	0.00
2011-01-15 04:00:00 14977 4 0.00 0.00 0.00 0.0 0.00	52.8997514499	0.00	0.00	Partly_Cloudy(fair)	True	False	0.00
2011-01-15 05:00:00 14978 5 0.00 0.00 0.00 0.0 0.00	52.8997514499	0.00	0.00	Partly_Cloudy(fair)	True	False	0.00
2011-01-15 06:00:00 14979 6 0.00 0.00 0.00 0.0 0.00	48.2137753644	0.00	0.00	Mostly_Cloudy(fair)	True	False	0.00
2011-01-15 07:00:00 14980 7 19.43 19.43 19.43 8.7 40.30	48.2137753644	19.43	8.70	Mostly_Cloudy(fair)	True	False	8.70
2011-01-15 08:00:00 14981 8 168.70 168.70 168.70 136.2 349.90	48.2137753644	168.70	136.20	Mostly_Cloudy(fair)	True	False	136.20
2011-01-15 09:00:00 14982 9 322.16 322.16 322.16 87.5 668.20	48.2137753644	322.16	87.50	Mostly_Cloudy(fair)	True	False	87.50
