2011-01-26 16:00:00 30334 16 132.44 132.44 0.00 0.0 153.70	0.0	0.00	0.00	Snow(light_snow)	True	False	0.00
2011-01-26 17:00:00 30335 17 0.00 0.00 0.00 0.0 3.10	0.0	0.00	0.00	Snow(cloudy)	True	False	0.00
2011-01-26 18:00:00 30336 18 0.00 0.00 0.00 0.0 0.00	0.0	0.00	0.00	Heavy_Snow(wintry_mix)	True	False	0.00
2011-01-26 19:00:00 30337 19 0.00 0.00 0.00 0.0 0.00	0.0	0.00	0.00	Heavy_Snow(light_snow)	True	False	0.00
2011-01-26 20:00:00 30338 20 0.00 0.00 0.00 0.0 0.00	0.0	0.00	0.00	Heavy_Snow(snow)	True	False	0.00
2011-01-26 21:00:00 30339 21 0.00 0.00 0.00 0.0 0.00	0.0	0.00	0.00	Heavy_Snow(heavy_snow)	True	False	0.00
2011-01-26 22:00:00 30340 22 0.00 0.00 0.00 0.0 0.00	0.0	0.00	0.00	Heavy_Snow(snow)	True	False	0.00
2011-01-26 23:00:00 30341 23 0.00 0.00 0.00 0.0 0.00	0.0	0.00	0.00	Heavy_Snow(snow)	True	False	0.00
2011-01-27 00:00:00 30342 0 0.00 0.00 0.00 0.0 0.00	0.0	0.00	0.00	Snow(light_snow)	True	False	0.00
2011-01-27 01:00:00 30343 1 0.00 0.00 0.00 0.0 0.00	0.0	0.00	0.00	Snow(light_snow)	True	False	0.00
2011-01-27 02:00:00 30344 2 0.00 0.00 0.00 0.0 0.00	0.0	0.00	0.00	Snow(light_snow)	True	False	0.00
2011-01-27 03:00:00 30345 3 0.00 0.00 0.00 0.0 0.00	1.41220357048	0.00	0.00	Light_Snow(mostly_cloudy)	True	False	0.00
2011-01-27 04:00:00 30346 4 0.00 0.00 0.00 0.0 0.00	1.41220357048	0.00	0.00	Light_Snow(cloudy)	True	False	0.00
2011-01-27 05:00:00 30347 5 0.00 0.00 0.00 0.0 0.00	1.41220357048	0.00	0.00	Light_Snow(cloudy)	True	False	0.00
2011-01-27 06:00:00 30348 6 0.00 0.00 0.00 0.0 0.00	28.547561867	0.00	0.00	Mostly_Cloudy(cloudy)	True	False	0.00
2011-01-27 07:00:00 30349 7 26.86 26.86 26.86 0.0 94.10	28.547561867	26.86	0.00	Mostly_Cloudy(cloudy)	True	False	0.00
2011-01-27 08:00:00 30350 8 125.44 125.44 125.44 0.0 439.40	28.547561867	125.44	0.00	Mostly_Cloudy(cloudy)	True	False	0.00
2011-01-27 09:00:00 30351 9 617.20 617.20 617.20 0.0 750.60	82.2275512923	617.20	0.00	Sunny(cloudy)	True	False	0.00
2011-01-27 10:00:00 30352 10 825.25 825.25 825.25 1.1 957.70	86.1698113208	825.25	1.10	Sunny(cloudy)	True	False	1.10
2011-01-27 11:00:00 30353 11 904.78 904.78 904.78 89.4 1050.00	86.1698113208	904.78	89.40	Sunny(cloudy)	True	False	89.40
2011-01-27 12:00:00 30354 12 913.40 913.40 913.40 171.1 1060.00	86.1698113208	913.40	171.10	Sunny(cloudy)	True	False	171.10
2011-01-27 13:00:00 30355 13 832.92 832.92 832.92 277.7 966.60	86.1698113208	832.92	277.70	Sunny(partly_cloudy)	True	False	277.70
2011-01-27 14:00:00 30356 14 687.20 687.20 687.20 194.7 797.50	86.1698113208	687.20	194.70	Sunny(fair)	True	False	194.70
2011-01-27 15:00:00 30357 15 443.60 443.60 443.60 101.9 514.80	86.1698113208	443.60	101.90	Mostly_Sunny(mostly_cloudy)	False	False	101.90
2011-01-27 16:00:00 30358 16 132.44 132.44 132.44 8.6 153.70	86.1698113208	132.44	8.60	Mostly_Sunny(cloudy)	False	False	8.60
2011-01-27 17:00:00 30359 17 2.67 2.67 2.67 0.0 3.10	86.1698113208	2.67	0.00	Mostly_Sunny(cloudy)	False	False	0.00
2011-01-27 18:00:00 30360 18 0.00 0.00 0.00 0.0 0.00	86.1698113208	0.00	0.00	Mostly_Clear(cloudy)	False	False	0.00
2011-01-27 19:00:00 30361 19 0.00 0.00 0.00 0.0 0.00	86.1698113208	0.00	0.00	Mostly_Clear(cloudy)	False	False	0.00
2011-01-27 20:00:00 30362 20 0.00 0.00 0.00 0.0 0.00	86.1698113208	0.00	0.00	Mostly_Clear(cloudy)	False	False	0.00
2011-01-27 21:00:00 30363 21 0.00 0.00 0.00 0.0 0.00	43.1359791802	0.00	0.00	Partly_Cloudy(cloudy)	True	False	0.00
2011-01-27 22:00:00 30364 22 0.00 0.00 0.00 0.0 0.00	43.1359791802	0.00	0.00	Partly_Cloudy(fair)	True	False	0.00
2011-01-27 23:00:00 30365 23 0.00 0.00 0.00 0.0 0.00	43.1359791802	0.00	0.00	Partly_Cloudy(fair)	True	False	0.00
2011-01-28 00:00:00 30366 0 0.00 0.00 0.00 0.0 0.00	28.547561867	0.00	0.00	Mostly_Cloudy(fair)	True	False	0.00
2011-01-28 01:00:00 30367 1 0.00 0.00 0.00 0.0 0.00	28.547561867	0.00	0.00	Mostly_Cloudy(fair)	True	False	0.00
2011-01-28 02:00:00 30368 2 0.00 0.00 0.00 0.0 0.00	28.547561867	0.00	0.00	Mostly_Cloudy(fair)	True	False	0.00
2011-01-28 03:00:00 30369 3 0.00 0.00 0.00 0.0 0.00	20.4952380952	0.00	0.00	Cloudy(partly_cloudy)	True	False	0.00
2011-01-28 04:00:00 30370 4 0.00 0.00 0.00 0.0 0.00	20.4952380952	0.00	0.00	Cloudy(fair)	True	False	0.00
2011-01-28 05:00:00 30371 5 0.00 0.00 0.00 0.0 0.00	20.4952380952	0.00	0.00	Cloudy(cloudy)	True	False	0.00
2011-01-28 06:00:00 30372 6 0.00 0.00 0.00 0.0 0.00	1.41220357048	0.00	0.00	Few_Snow_Showers(cloudy)	True	False	0.00
2011-01-28 07:00:00 30373 7 1.33 1.33 1.33 3.8 94.10	1.41220357048	1.33	3.80	Few_Snow_Showers(cloudy)	True	False	3.80
2011-01-28 08:00:00 30374 8 6.21 6.21 6.21 36.3 439.40	1.41220357048	6.21	36.30	Few_Snow_Showers(cloudy)	True	False	36.30
2011-01-28 09:00:00 30375 9 0.00 0.00 0.00 74.4 750.60	0.0	0.00	74.40	Snow_Shower(cloudy)	True	False	74.40
2011-01-28 10:00:00 30376 10 0.00 0.00 0.00 186.7 957.70	0.0	0.00	186.70	Snow_Shower(light_snow)	True	False	186.70
2011-01-28 11:00:00 30377 11 0.00 0.00 0.00 231.7 1050.00	0.0	0.00	231.70	Snow_Shower(mostly_cloudy)	True	False	231.70
2011-01-28 12:00:00 30378 12 0.00 0.00 0.00 130.5 1060.00	0.0	0.00	130.50	Snow_Shower(cloudy)	True	False	130.50
2011-01-28 13:00:00 30379 13 0.00 0.00 0.00 110.9 966.60	0.0	0.00	110.90	Snow_Shower(cloudy)	True	False	110.90
2011-01-28 14:00:00 30380 14 0.00 0.00 0.00 63.6 797.50	0.0	0.00	63.60	Snow_Shower(cloudy)	True	False	63.60
2011-01-28 15:00:00 30381 15 22.58 22.58 22.58 58.9 514.80	4.38550694372	22.58	58.90	Few_Snow_Showers(cloudy)	True	False	58.90
2011-01-28 16:00:00 30382 16 2.17 2.17 2.17 6.5 153.70	1.41220357048	2.17	6.50	Few_Snow_Showers(cloudy)	True	False	6.50
