2011-01-29 14:00:00 33712 14 656.23 656.23 656.23 162.0 797.50	82.2857142857	656.23	162.00	Flurries(partly_cloudy)	False	False	162.00
2011-01-29 15:00:00 33713 15 104.57 104.57 2.15 54.1 514.80	0.417667327973	2.15	54.10	Light_Snow(mostly_cloudy)	True	False	54.10
2011-01-29 16:00:00 33714 16 0.64 31.22 0.64 19.8 153.70	0.417667327973	0.64	19.80	Light_Snow(light_snow)	True	False	19.80
2011-01-29 17:00:00 33715 17 0.00 0.63 0.00 0.0 3.10	0.047619047619	0.00	0.00	Snow(cloudy)	True	False	0.00
2011-01-29 18:00:00 33716 18 0.00 0.00 0.00 0.0 0.00	0.047619047619	0.00	0.00	Snow(light_snow)	True	False	0.00
2011-01-29 19:00:00 33717 19 0.00 0.00 0.00 0.0 0.00	17.6391475274	0.00	0.00	Cloudy(cloudy)	True	False	0.00
2011-01-29 20:00:00 33718 20 0.00 0.00 0.00 0.0 0.00	0.047619047619	0.00	0.00	Snow_Shower(cloudy)	True	False	0.00
2011-01-29 21:00:00 33719 21 0.00 0.00 0.00 0.0 0.00	0.047619047619	0.00	0.00	Flurries(cloudy)	False	False	0.00
2011-01-29 22:00:00 33720 22 0.00 0.00 0.00 0.0 0.00	0.047619047619	0.00	0.00	Flurries(cloudy)	False	False	0.00
2011-01-29 23:00:00 33721 23 0.00 0.00 0.00 0.0 0.00	0.047619047619	0.00	0.00	Flurries(cloudy)	False	False	0.00
2011-01-30 00:00:00 33722 0 0.00 0.00 0.00 0.0 0.00	26.513427401	0.00	0.00	Mostly_Cloudy(cloudy)	True	False	0.00
2011-01-30 01:00:00 33723 1 0.00 0.00 0.00 0.0 0.00	26.513427401	0.00	0.00	Mostly_Cloudy(cloudy)	True	False	0.00
2011-01-30 02:00:00 33724 2 0.00 0.00 0.00 0.0 0.00	26.513427401	0.00	0.00	Mostly_Cloudy(cloudy)	True	False	0.00
2011-01-30 03:00:00 33725 3 0.00 0.00 0.00 0.0 0.00	17.6391475274	0.00	0.00	Cloudy(cloudy)	True	False	0.00
2011-01-30 04:00:00 33726 4 0.00 0.00 0.00 0.0 0.00	17.6391475274	0.00	0.00	Cloudy(cloudy)	True	False	0.00
2011-01-30 05:00:00 33727 5 0.00 0.00 0.00 0.0 0.00	17.6391475274	0.00	0.00	Cloudy(fog)	True	False	0.00
2011-01-30 06:00:00 33728 6 0.00 0.00 0.00 0.0 0.00	17.6391475274	0.00	0.00	Cloudy(fog)	True	False	0.00
2011-01-30 07:00:00 33729 7 16.60 16.60 16.60 6.3 94.10	17.6391475274	16.60	6.30	Cloudy(fog)	True	False	6.30
2011-01-30 08:00:00 33730 8 77.51 77.51 77.51 68.2 439.40	17.6391475274	77.51	68.20	Cloudy(fog)	True	False	68.20
2011-01-30 09:00:00 33731 9 321.46 321.46 321.46 193.5 750.60	42.8267800213	321.46	193.50	Partly_Cloudy(cloudy)	True	False	193.50
2011-01-30 10:00:00 33732 10 505.39 505.39 505.39 429.2 957.70	52.7714285714	505.39	429.20	Partly_Cloudy(cloudy)	True	False	429.20
2011-01-30 11:00:00 33733 11 554.10 554.10 554.10 376.5 1050.00	52.7714285714	554.10	376.50	Partly_Cloudy(mostly_cloudy)	True	False	376.50
2011-01-30 12:00:00 33734 12 559.38 559.38 559.38 410.1 1060.00	52.7714285714	559.38	410.10	Partly_Cloudy(cloudy)	True	False	410.10
2011-01-30 13:00:00 33735 13 510.09 510.09 510.09 231.8 966.60	52.7714285714	510.09	231.80	Partly_Cloudy(cloudy)	True	False	231.80
2011-01-30 14:00:00 33736 14 420.85 420.85 420.85 388.2 797.50	52.7714285714	420.85	388.20	Partly_Cloudy(cloudy)	True	False	388.20
2011-01-30 15:00:00 33737 15 271.67 271.67 271.67 157.4 514.80	52.7714285714	271.67	157.40	Mostly_Sunny(cloudy)	False	False	157.40
2011-01-30 16:00:00 33738 16 81.11 81.11 81.11 72.5 153.70	52.7714285714	81.11	72.50	Mostly_Sunny(cloudy)	False	False	72.50
2011-01-30 17:00:00 33739 17 1.64 1.64 1.64 0.3 3.10	52.7714285714	1.64	0.30	Mostly_Sunny(partly_cloudy)	False	False	0.30
2011-01-30 18:00:00 33740 18 0.00 0.00 0.00 0.0 0.00	77.9019242706	0.00	0.00	Clear(cloudy)	True	False	0.00
2011-01-30 19:00:00 33741 19 0.00 0.00 0.00 0.0 0.00	77.9019242706	0.00	0.00	Clear(mostly_cloudy)	True	False	0.00
2011-01-30 20:00:00 33742 20 0.00 0.00 0.00 0.0 0.00	77.9019242706	0.00	0.00	Clear(partly_cloudy)	True	False	0.00
2011-01-30 21:00:00 33743 21 0.00 0.00 0.00 0.0 0.00	77.9019242706	0.00	0.00	Clear(fair)	True	False	0.00
2011-01-30 22:00:00 33744 22 0.00 0.00 0.00 0.0 0.00	77.9019242706	0.00	0.00	Clear(fair)	True	False	0.00
2011-01-30 23:00:00 33745 23 0.00 0.00 0.00 0.0 0.00	77.9019242706	0.00	0.00	Clear(fair)	True	False	0.00
2011-01-31 00:00:00 33746 0 0.00 0.00 0.00 0.0 0.00	77.9019242706	0.00	0.00	Clear(fair)	True	False	0.00
2011-01-31 01:00:00 33747 1 0.00 0.00 0.00 0.0 0.00	77.9019242706	0.00	0.00	Clear(fair)	True	False	0.00
2011-01-31 02:00:00 33748 2 0.00 0.00 0.00 0.0 0.00	77.9019242706	0.00	0.00	Clear(fair)	True	False	0.00
2011-01-31 03:00:00 33749 3 0.00 0.00 0.00 0.0 0.00	42.8267800213	0.00	0.00	Partly_Cloudy(fair)	True	False	0.00
2011-01-31 04:00:00 33750 4 0.00 0.00 0.00 0.0 0.00	42.8267800213	0.00	0.00	Partly_Cloudy(fair)	True	False	0.00
2011-01-31 05:00:00 33751 5 0.00 0.00 0.00 0.0 0.00	42.8267800213	0.00	0.00	Partly_Cloudy(fair)	True	False	0.00
2011-01-31 06:00:00 33752 6 0.00 0.00 0.00 0.0 0.00	42.8267800213	0.00	0.00	Partly_Cloudy(fair)	True	False	0.00
2011-01-31 07:00:00 33753 7 40.30 40.30 40.30 35.1 94.10	42.8267800213	40.30	35.10	Partly_Cloudy(fair)	True	False	35.10
2011-01-31 08:00:00 33754 8 188.18 188.18 188.18 211.4 439.40	42.8267800213	188.18	211.40	Partly_Cloudy(fair)	True	False	211.40
2011-01-31 09:00:00 33755 9 321.46 321.46 321.46 452.8 750.60	42.8267800213	321.46	452.80	Partly_Cloudy(fair)	True	False	452.80
2011-01-31 10:00:00 33756 10 505.39 505.39 505.39 568.9 957.70	52.7714285714	505.39	568.90	Partly_Cloudy(fair)	True	False	568.90
2011-01-31 11:00:00 33757 11 554.10 554.10 554.10 616.3 1050.00	52.7714285714	554.10	616.30	Partly_Cloudy(fair)	True	False	616.30
2011-01-31 12:00:00 33758 12 329.00 329.00 329.00 631.6 1060.00	31.0380952381	329.00	631.60	Mostly_Cloudy(fair)	True	False	631.60
2011-01-31 13:00:00 33759 13 300.01 300.01 300.01 544.1 966.60	31.0380952381	300.01	544.10	Mostly_Cloudy(fair)	True	False	544.10
