2011-01-08 09:00:00 9113 9 267.73 267.73 267.73 10.6 654.90	40.8805031447	267.73	10.60	Cloudy(mostly_cloudy)	True	False	10.60
2011-01-08 10:00:00 9114 10 14.43 14.43 376.09 17.8 891.50	42.1862011638	376.09	17.80	Cloudy(fair)	True	False	17.80
2011-01-08 11:00:00 9115 11 406.00 15.58 406.00 20.0 962.40	42.1862011638	406.00	20.00	Cloudy(fair)	True	False	20.00
2011-01-08 12:00:00 9116 12 244.09 16.16 244.09 16.7 998.30	24.4508577842	244.09	16.70	Snow(cloudy)	True	False	16.70
2011-01-08 13:00:00 9117 13 349.60 13.41 349.60 11.5 828.70	42.1862011638	349.60	11.50	Cloudy(snow)	True	False	11.50
2011-01-08 14:00:00 9118 14 263.12 10.10 263.12 4.3 623.70	42.1862011638	263.12	4.30	Cloudy(light_snow)	True	False	4.30
2011-01-08 15:00:00 9119 15 96.69 5.23 96.69 1.1 323.10	29.9263907325	96.69	1.10	Light_Snow(light_snow)	True	False	1.10
2011-01-08 16:00:00 9120 16 16.61 0.90 16.61 0.0 55.50	29.9263907325	16.61	0.00	Light_Snow(light_snow)	True	False	0.00
2011-01-08 17:00:00 9121 17 0.00 0.00 0.00 0.0 0.00	29.9263907325	0.00	0.00	Light_Snow(light_snow)	True	False	0.00
2011-01-08 18:00:00 9122 18 0.00 0.00 0.00 0.0 0.00	24.4508577842	0.00	0.00	Snow_Shower(cloudy)	True	False	0.00
2011-01-08 19:00:00 9123 19 0.00 0.00 0.00 0.0 0.00	24.4508577842	0.00	0.00	Snow_Shower(cloudy)	True	False	0.00
2011-01-08 20:00:00 9124 20 0.00 0.00 0.00 0.0 0.00	24.4508577842	0.00	0.00	Snow_Shower(cloudy)	True	False	0.00
2011-01-08 21:00:00 9125 21 0.00 0.00 0.00 0.0 0.00	29.9263907325	0.00	0.00	Few_Snow_Showers(cloudy)	True	False	0.00
2011-01-08 22:00:00 9126 22 0.00 0.00 0.00 0.0 0.00	29.9263907325	0.00	0.00	Few_Snow_Showers(cloudy)	True	False	0.00
2011-01-08 23:00:00 9127 23 0.00 0.00 0.00 0.0 0.00	29.9263907325	0.00	0.00	Few_Snow_Showers(cloudy)	True	False	0.00
2011-01-09 00:00:00 9128 0 0.00 0.00 0.00 0.0 0.00	40.8805031447	0.00	0.00	Cloudy(cloudy)	True	False	0.00
2011-01-09 01:00:00 9129 1 0.00 0.00 0.00 0.0 0.00	40.8805031447	0.00	0.00	Cloudy(cloudy)	True	False	0.00
2011-01-09 02:00:00 9130 2 0.00 0.00 0.00 0.0 0.00	40.8805031447	0.00	0.00	Cloudy(mostly_cloudy)	True	False	0.00
2011-01-09 03:00:00 9131 3 0.00 0.00 0.00 0.0 0.00	49.5642592407	0.00	0.00	Mostly_Cloudy(cloudy)	True	False	0.00
2011-01-09 04:00:00 9132 4 0.00 0.00 0.00 0.0 0.00	49.5642592407	0.00	0.00	Mostly_Cloudy(cloudy)	True	False	0.00
2011-01-09 05:00:00 9133 5 0.00 0.00 0.00 0.0 0.00	49.5642592407	0.00	0.00	Mostly_Cloudy(mostly_cloudy)	True	False	0.00
2011-01-09 06:00:00 9134 6 0.00 0.00 0.00 0.0 0.00	49.5642592407	0.00	0.00	Mostly_Cloudy(fair)	True	False	0.00
2011-01-09 07:00:00 9135 7 15.76 15.76 15.76 0.0 31.80	49.5642592407	15.76	0.00	Mostly_Cloudy(fair)	True	False	0.00
2011-01-09 08:00:00 9136 8 165.79 165.79 165.79 14.6 334.50	49.5642592407	165.79	14.60	Mostly_Cloudy(fair)	True	False	14.60
2011-01-09 09:00:00 9137 9 348.04 348.04 348.04 45.2 654.90	53.1446540881	348.04	45.20	Partly_Cloudy(fair)	True	False	45.20
2011-01-09 10:00:00 9138 10 609.91 609.91 609.91 74.7 891.50	68.4143017476	609.91	74.70	Partly_Cloudy(fair)	True	False	74.70
2011-01-09 11:00:00 9139 11 658.42 658.42 658.42 102.6 962.40	68.4143017476	658.42	102.60	Partly_Cloudy(mostly_cloudy)	True	False	102.60
2011-01-09 12:00:00 9140 12 682.98 682.98 682.98 233.6 998.30	68.4143017476	682.98	233.60	Partly_Cloudy(mostly_cloudy)	True	False	233.60
2011-01-09 13:00:00 9141 13 566.95 566.95 566.95 388.4 828.70	68.4143017476	566.95	388.40	Partly_Cloudy(fair)	True	False	388.40
2011-01-09 14:00:00 9142 14 426.70 426.70 426.70 391.8 623.70	68.4143017476	426.70	391.80	Partly_Cloudy(mostly_cloudy)	True	False	391.80
2011-01-09 15:00:00 9143 15 221.05 221.05 221.05 188.8 323.10	68.4143017476	221.05	188.80	Mostly_Sunny(fair)	False	False	188.80
2011-01-09 16:00:00 9144 16 37.97 37.97 37.97 15.7 55.50	68.4143017476	37.97	15.70	Mostly_Sunny(fair)	False	False	15.70
2011-01-09 17:00:00 9145 17 0.00 0.00 0.00 0.0 0.00	68.4143017476	0.00	0.00	Mostly_Clear(fair)	False	False	0.00
2011-01-09 18:00:00 9146 18 0.00 0.00 0.00 0.0 0.00	91.4955424221	0.00	0.00	Clear(fair)	True	False	0.00
2011-01-09 19:00:00 9147 19 0.00 0.00 0.00 0.0 0.00	91.4955424221	0.00	0.00	Clear(fair)	True	False	0.00
2011-01-09 20:00:00 9148 20 0.00 0.00 0.00 0.0 0.00	91.4955424221	0.00	0.00	Clear(fair)	True	False	0.00
2011-01-09 21:00:00 9149 21 0.00 0.00 0.00 0.0 0.00	91.4955424221	0.00	0.00	Clear(fair)	True	False	0.00
2011-01-09 22:00:00 9150 22 0.00 0.00 0.00 0.0 0.00	91.4955424221	0.00	0.00	Clear(fair)	True	False	0.00
2011-01-09 23:00:00 9151 23 0.00 0.00 0.00 0.0 0.00	91.4955424221	0.00	0.00	Clear(fair)	True	False	0.00
2011-01-10 00:00:00 9152 0 0.00 0.00 0.00 0.0 0.00	91.4955424221	0.00	0.00	Clear(fair)	True	False	0.00
2011-01-10 01:00:00 9153 1 0.00 0.00 0.00 0.0 0.00	91.4955424221	0.00	0.00	Clear(fair)	True	False	0.00
2011-01-10 02:00:00 9154 2 0.00 0.00 0.00 0.0 0.00	91.4955424221	0.00	0.00	Clear(fair)	True	False	0.00
2011-01-10 03:00:00 9155 3 0.00 0.00 0.00 0.0 0.00	91.4955424221	0.00	0.00	Clear(fair)	True	False	0.00
2011-01-10 04:00:00 9156 4 0.00 0.00 0.00 0.0 0.00	91.4955424221	0.00	0.00	Clear(fair)	True	False	0.00
2011-01-10 05:00:00 9157 5 0.00 0.00 0.00 0.0 0.00	91.4955424221	0.00	0.00	Clear(fair)	True	False	0.00
2011-01-10 06:00:00 9158 6 0.00 0.00 0.00 0.0 0.00	91.4955424221	0.00	0.00	Clear(fair)	True	False	0.00
2011-01-10 07:00:00 9159 7 29.10 29.10 29.10 17.5 31.80	91.4955424221	29.10	17.50	Clear(fair)	True	False	17.50
2011-01-10 08:00:00 9160 8 306.05 306.05 306.05 237.8 334.50	91.4955424221	306.05	237.80	Sunny(fair)	True	False	237.80
2011-01-10 09:00:00 9161 9 599.20 599.20 599.20 483.0 654.90	91.4955424221	599.20	483.00	Sunny(fair)	True	False	483.00
