2011-01-28 12:00:00 32456 12 219.70 892.53 219.70 130.5 1060.00	20.7264150943	219.70	130.50	Cloudy(cloudy)	True	False	130.50
2011-01-28 13:00:00 32457 13 119.00 119.00 200.34 110.9 966.60	20.7264150943	200.34	110.90	Cloudy(cloudy)	True	False	110.90
2011-01-28 14:00:00 32458 14 3.33 98.18 3.33 63.6 797.50	0.417667327973	3.33	63.60	Light_Snow(cloudy)	True	False	63.60
2011-01-28 15:00:00 32459 15 2.15 63.38 2.15 58.9 514.80	0.417667327973	2.15	58.90	Light_Snow(cloudy)	True	False	58.90
2011-01-28 16:00:00 32460 16 0.64 18.92 0.64 6.5 153.70	0.417667327973	0.64	6.50	Few_Snow_Showers(cloudy)	True	False	6.50
2011-01-28 17:00:00 32461 17 0.01 0.38 0.01 0.0 3.10	0.417667327973	0.01	0.00	Few_Snow_Showers(light_snow)	True	False	0.00
2011-01-28 18:00:00 32462 18 0.00 0.00 0.00 0.0 0.00	0.417667327973	0.00	0.00	Few_Snow_Showers(cloudy)	True	False	0.00
2011-01-28 19:00:00 32463 19 0.00 0.00 0.00 0.0 0.00	0.417667327973	0.00	0.00	Few_Snow_Showers(light_snow)	True	False	0.00
2011-01-28 20:00:00 32464 20 0.00 0.00 0.00 0.0 0.00	0.417667327973	0.00	0.00	Few_Snow_Showers(light_snow)	True	False	0.00
2011-01-28 21:00:00 32465 21 0.00 0.00 0.00 0.0 0.00	20.4952380952	0.00	0.00	Cloudy(cloudy)	True	False	0.00
2011-01-28 22:00:00 32466 22 0.00 0.00 0.00 0.0 0.00	20.4952380952	0.00	0.00	Cloudy(cloudy)	True	False	0.00
2011-01-28 23:00:00 32467 23 0.00 0.00 0.00 0.0 0.00	20.4952380952	0.00	0.00	Cloudy(cloudy)	True	False	0.00
2011-01-29 00:00:00 32468 0 0.00 0.00 0.00 0.0 0.00	20.4952380952	0.00	0.00	Cloudy(fog)	True	False	0.00
2011-01-29 01:00:00 32469 1 0.00 0.00 0.00 0.0 0.00	20.4952380952	0.00	0.00	Cloudy(fog)	True	False	0.00
2011-01-29 02:00:00 32470 2 0.00 0.00 0.00 0.0 0.00	20.4952380952	0.00	0.00	Cloudy(fog)	True	False	0.00
2011-01-29 03:00:00 32471 3 0.00 0.00 0.00 0.0 0.00	26.513427401	0.00	0.00	Mostly_Cloudy(cloudy)	True	False	0.00
2011-01-29 04:00:00 32472 4 0.00 0.00 0.00 0.0 0.00	26.513427401	0.00	0.00	Mostly_Cloudy(cloudy)	True	False	0.00
2011-01-29 05:00:00 32473 5 0.00 0.00 0.00 0.0 0.00	26.513427401	0.00	0.00	Mostly_Cloudy(cloudy)	True	False	0.00
2011-01-29 06:00:00 32474 6 0.00 0.00 0.00 0.0 0.00	26.513427401	0.00	0.00	Mostly_Cloudy(cloudy)	True	False	0.00
2011-01-29 07:00:00 32475 7 24.95 24.95 24.95 7.6 94.10	26.513427401	24.95	7.60	Mostly_Cloudy(fair)	True	False	7.60
2011-01-29 08:00:00 32476 8 116.50 116.50 116.50 91.7 439.40	26.513427401	116.50	91.70	Mostly_Cloudy(fog)	True	False	91.70
2011-01-29 09:00:00 32477 9 199.01 199.01 199.01 187.1 750.60	26.513427401	199.01	187.10	Mostly_Cloudy(fair)	True	False	187.10
2011-01-29 10:00:00 32478 10 297.25 297.25 297.25 281.1 957.70	31.0380952381	297.25	281.10	Mostly_Cloudy(fair)	True	False	281.10
2011-01-29 11:00:00 32479 11 325.90 325.90 325.90 270.2 1050.00	31.0380952381	325.90	270.20	Mostly_Cloudy(fair)	True	False	270.20
2011-01-29 12:00:00 32480 12 0.50 0.50 0.50 362.4 1060.00	0.047619047619	0.50	362.40	Snow_Shower(fair)	True	False	362.40
2011-01-29 13:00:00 32481 13 0.46 0.46 0.46 239.5 966.60	0.047619047619	0.46	239.50	Snow_Shower(partly_cloudy)	True	False	239.50
2011-01-29 14:00:00 32482 14 0.38 0.38 0.38 162.0 797.50	0.047619047619	0.38	162.00	Snow_Shower(partly_cloudy)	True	False	162.00
2011-01-29 15:00:00 32483 15 0.25 0.25 0.25 54.1 514.80	0.047619047619	0.25	54.10	Flurries(mostly_cloudy)	False	False	54.10
2011-01-29 16:00:00 32484 16 0.07 0.07 0.07 19.8 153.70	0.047619047619	0.07	19.80	Flurries(light_snow)	False	False	19.80
2011-01-29 17:00:00 32485 17 0.00 0.00 0.00 0.0 3.10	0.047619047619	0.00	0.00	Flurries(cloudy)	False	False	0.00
2011-01-29 18:00:00 32486 18 0.00 0.00 0.00 0.0 0.00	26.513427401	0.00	0.00	Mostly_Cloudy(light_snow)	True	False	0.00
2011-01-29 19:00:00 32487 19 0.00 0.00 0.00 0.0 0.00	26.513427401	0.00	0.00	Mostly_Cloudy(cloudy)	True	False	0.00
2011-01-29 20:00:00 32488 20 0.00 0.00 0.00 0.0 0.00	26.513427401	0.00	0.00	Mostly_Cloudy(cloudy)	True	False	0.00
2011-01-29 21:00:00 32489 21 0.00 0.00 0.00 0.0 0.00	43.1235431235	0.00	0.00	Partly_Cloudy(cloudy)	True	False	0.00
2011-01-29 22:00:00 32490 22 0.00 0.00 0.00 0.0 0.00	43.1235431235	0.00	0.00	Partly_Cloudy(cloudy)	True	False	0.00
2011-01-29 23:00:00 32491 23 0.00 0.00 0.00 0.0 0.00	43.1235431235	0.00	0.00	Partly_Cloudy(cloudy)	True	False	0.00
2011-01-30 00:00:00 32492 0 0.00 0.00 0.00 0.0 0.00	43.1235431235	0.00	0.00	Partly_Cloudy(cloudy)	True	False	0.00
2011-01-30 01:00:00 32493 1 0.00 0.00 0.00 0.0 0.00	43.1235431235	0.00	0.00	Partly_Cloudy(cloudy)	True	False	0.00
2011-01-30 02:00:00 32494 2 0.00 0.00 0.00 0.0 0.00	43.1235431235	0.00	0.00	Partly_Cloudy(cloudy)	True	False	0.00
2011-01-30 03:00:00 32495 3 0.00 0.00 0.00 0.0 0.00	43.1235431235	0.00	0.00	Partly_Cloudy(cloudy)	True	False	0.00
2011-01-30 04:00:00 32496 4 0.00 0.00 0.00 0.0 0.00	43.1235431235	0.00	0.00	Partly_Cloudy(cloudy)	True	False	0.00
2011-01-30 05:00:00 32497 5 0.00 0.00 0.00 0.0 0.00	43.1235431235	0.00	0.00	Partly_Cloudy(fog)	True	False	0.00
2011-01-30 06:00:00 32498 6 0.00 0.00 0.00 0.0 0.00	43.1235431235	0.00	0.00	Partly_Cloudy(fog)	True	False	0.00
2011-01-30 07:00:00 32499 7 40.58 40.58 40.58 6.3 94.10	43.1235431235	40.58	6.30	Partly_Cloudy(fog)	True	False	6.30
2011-01-30 08:00:00 32500 8 189.48 189.48 189.48 68.2 439.40	43.1235431235	189.48	68.20	Partly_Cloudy(fog)	True	False	68.20
2011-01-30 09:00:00 32501 9 323.69 323.69 323.69 193.5 750.60	43.1235431235	323.69	193.50	Partly_Cloudy(cloudy)	True	False	193.50
2011-01-30 10:00:00 32502 10 505.39 505.39 505.39 429.2 957.70	52.7714285714	505.39	429.20	Partly_Cloudy(cloudy)	True	False	429.20
2011-01-30 11:00:00 32503 11 554.10 554.10 554.10 376.5 1050.00	52.7714285714	554.10	376.50	Partly_Cloudy(mostly_cloudy)	True	False	376.50
2011-01-30 12:00:00 32504 12 559.38 559.38 559.38 410.1 1060.00	52.7714285714	559.38	410.10	Partly_Cloudy(cloudy)	True	False	410.10
