2011-01-08 05:00:00 8917 5 0.00 0.00 0.00 0.0 0.00	49.5642592407	0.00	0.00	Mostly_Cloudy(mostly_cloudy)	True	False	0.00
2011-01-08 06:00:00 8918 6 0.00 0.00 0.00 0.0 0.00	49.5642592407	0.00	0.00	Mostly_Cloudy(cloudy)	True	False	0.00
2011-01-08 07:00:00 8919 7 13.00 13.00 13.00 0.0 31.80	40.8805031447	13.00	0.00	Cloudy(mostly_cloudy)	True	False	0.00
2011-01-08 08:00:00 8920 8 136.75 136.75 136.75 1.2 334.50	40.8805031447	136.75	1.20	Cloudy(cloudy)	True	False	1.20
2011-01-08 09:00:00 8921 9 267.73 267.73 267.73 10.6 654.90	40.8805031447	267.73	10.60	Cloudy(mostly_cloudy)	True	False	10.60
2011-01-08 10:00:00 8922 10 376.09 376.09 376.09 17.8 891.50	42.1862011638	376.09	17.80	Cloudy(fair)	True	False	17.80
2011-01-08 11:00:00 8923 11 288.01 288.01 288.01 20.0 962.40	29.9263907325	288.01	20.00	Few_Snow_Showers(fair)	True	False	20.00
2011-01-08 12:00:00 8924 12 298.76 298.76 298.76 16.7 998.30	29.9263907325	298.76	16.70	Light_Snow(cloudy)	True	False	16.70
2011-01-08 13:00:00 8925 13 248.00 248.00 248.00 11.5 828.70	29.9263907325	248.00	11.50	Light_Snow(snow)	True	False	11.50
2011-01-08 14:00:00 8926 14 186.65 186.65 186.65 4.3 623.70	29.9263907325	186.65	4.30	Light_Snow(light_snow)	True	False	4.30
2011-01-08 15:00:00 8927 15 96.69 96.69 96.69 1.1 323.10	29.9263907325	96.69	1.10	Light_Snow(light_snow)	True	False	1.10
2011-01-08 16:00:00 8928 16 16.61 16.61 16.61 0.0 55.50	29.9263907325	16.61	0.00	Light_Snow(light_snow)	True	False	0.00
2011-01-08 17:00:00 8929 17 0.00 0.00 0.00 0.0 0.00	29.9263907325	0.00	0.00	Light_Snow(light_snow)	True	False	0.00
2011-01-08 18:00:00 8930 18 0.00 0.00 0.00 0.0 0.00	24.4508577842	0.00	0.00	Snow_Shower(cloudy)	True	False	0.00
2011-01-08 19:00:00 8931 19 0.00 0.00 0.00 0.0 0.00	24.4508577842	0.00	0.00	Snow_Shower(cloudy)	True	False	0.00
2011-01-08 20:00:00 8932 20 0.00 0.00 0.00 0.0 0.00	24.4508577842	0.00	0.00	Snow_Shower(cloudy)	True	False	0.00
2011-01-08 21:00:00 8933 21 0.00 0.00 0.00 0.0 0.00	29.9263907325	0.00	0.00	Few_Snow_Showers(cloudy)	True	False	0.00
2011-01-08 22:00:00 8934 22 0.00 0.00 0.00 0.0 0.00	29.9263907325	0.00	0.00	Few_Snow_Showers(cloudy)	True	False	0.00
2011-01-08 23:00:00 8935 23 0.00 0.00 0.00 0.0 0.00	29.9263907325	0.00	0.00	Few_Snow_Showers(cloudy)	True	False	0.00
2011-01-09 00:00:00 8936 0 0.00 0.00 0.00 0.0 0.00	40.8805031447	0.00	0.00	Cloudy(cloudy)	True	False	0.00
2011-01-09 01:00:00 8937 1 0.00 0.00 0.00 0.0 0.00	40.8805031447	0.00	0.00	Cloudy(cloudy)	True	False	0.00
2011-01-09 02:00:00 8938 2 0.00 0.00 0.00 0.0 0.00	40.8805031447	0.00	0.00	Cloudy(mostly_cloudy)	True	False	0.00
2011-01-09 03:00:00 8939 3 0.00 0.00 0.00 0.0 0.00	49.5642592407	0.00	0.00	Mostly_Cloudy(cloudy)	True	False	0.00
2011-01-09 04:00:00 8940 4 0.00 0.00 0.00 0.0 0.00	49.5642592407	0.00	0.00	Mostly_Cloudy(cloudy)	True	False	0.00
2011-01-09 05:00:00 8941 5 0.00 0.00 0.00 0.0 0.00	49.5642592407	0.00	0.00	Mostly_Cloudy(mostly_cloudy)	True	False	0.00
2011-01-09 06:00:00 8942 6 0.00 0.00 0.00 0.0 0.00	49.5642592407	0.00	0.00	Mostly_Cloudy(fair)	True	False	0.00
2011-01-09 07:00:00 8943 7 15.76 15.76 15.76 0.0 31.80	49.5642592407	15.76	0.00	Mostly_Cloudy(fair)	True	False	0.00
2011-01-09 08:00:00 8944 8 165.79 165.79 165.79 14.6 334.50	49.5642592407	165.79	14.60	Mostly_Cloudy(fair)	True	False	14.60
2011-01-09 09:00:00 8945 9 348.04 348.04 348.04 45.2 654.90	53.1446540881	348.04	45.20	Partly_Cloudy(fair)	True	False	45.20
2011-01-09 10:00:00 8946 10 609.91 609.91 609.91 74.7 891.50	68.4143017476	609.91	74.70	Partly_Cloudy(fair)	True	False	74.70
2011-01-09 11:00:00 8947 11 658.42 658.42 658.42 102.6 962.40	68.4143017476	658.42	102.60	Partly_Cloudy(mostly_cloudy)	True	False	102.60
2011-01-09 12:00:00 8948 12 682.98 682.98 682.98 233.6 998.30	68.4143017476	682.98	233.60	Partly_Cloudy(mostly_cloudy)	True	False	233.60
2011-01-09 13:00:00 8949 13 566.95 566.95 566.95 388.4 828.70	68.4143017476	566.95	388.40	Partly_Cloudy(fair)	True	False	388.40
2011-01-09 14:00:00 8950 14 426.70 426.70 426.70 391.8 623.70	68.4143017476	426.70	391.80	Partly_Cloudy(mostly_cloudy)	True	False	391.80
2011-01-09 15:00:00 8951 15 221.05 221.05 221.05 188.8 323.10	68.4143017476	221.05	188.80	Mostly_Sunny(fair)	False	False	188.80
2011-01-09 16:00:00 8952 16 37.97 37.97 37.97 15.7 55.50	68.4143017476	37.97	15.70	Mostly_Sunny(fair)	False	False	15.70
2011-01-09 17:00:00 8953 17 0.00 0.00 0.00 0.0 0.00	68.4143017476	0.00	0.00	Mostly_Clear(fair)	False	False	0.00
2011-01-09 18:00:00 8954 18 0.00 0.00 0.00 0.0 0.00	91.4955424221	0.00	0.00	Clear(fair)	True	False	0.00
2011-01-09 19:00:00 8955 19 0.00 0.00 0.00 0.0 0.00	91.4955424221	0.00	0.00	Clear(fair)	True	False	0.00
2011-01-09 20:00:00 8956 20 0.00 0.00 0.00 0.0 0.00	91.4955424221	0.00	0.00	Clear(fair)	True	False	0.00
2011-01-09 21:00:00 8957 21 0.00 0.00 0.00 0.0 0.00	91.4955424221	0.00	0.00	Clear(fair)	True	False	0.00
2011-01-09 22:00:00 8958 22 0.00 0.00 0.00 0.0 0.00	91.4955424221	0.00	0.00	Clear(fair)	True	False	0.00
2011-01-09 23:00:00 8959 23 0.00 0.00 0.00 0.0 0.00	91.4955424221	0.00	0.00	Clear(fair)	True	False	0.00
2011-01-10 00:00:00 8960 0 0.00 0.00 0.00 0.0 0.00	91.4955424221	0.00	0.00	Clear(fair)	True	False	0.00
2011-01-10 01:00:00 8961 1 0.00 0.00 0.00 0.0 0.00	91.4955424221	0.00	0.00	Clear(fair)	True	False	0.00
2011-01-10 02:00:00 8962 2 0.00 0.00 0.00 0.0 0.00	91.4955424221	0.00	0.00	Clear(fair)	True	False	0.00
2011-01-10 03:00:00 8963 3 0.00 0.00 0.00 0.0 0.00	91.4955424221	0.00	0.00	Clear(fair)	True	False	0.00
2011-01-10 04:00:00 8964 4 0.00 0.00 0.00 0.0 0.00	91.4955424221	0.00	0.00	Clear(fair)	True	False	0.00
2011-01-10 05:00:00 8965 5 0.00 0.00 0.00 0.0 0.00	91.4955424221	0.00	0.00	Clear(fair)	True	False	0.00
