2011-01-31 12:00:00 35930 12 559.38 892.43 559.38 631.6 1060.00	52.7714285714	559.38	631.60	Partly_Cloudy(fair)	True	False	631.60
2011-01-31 13:00:00 35931 13 510.09 575.95 510.09 544.1 966.60	52.7714285714	510.09	544.10	Partly_Cloudy(fair)	True	False	544.10
2011-01-31 14:00:00 35932 14 420.85 475.19 420.85 442.9 797.50	52.7714285714	420.85	442.90	Partly_Cloudy(fair)	True	False	442.90
2011-01-31 15:00:00 35933 15 271.67 306.74 271.67 247.7 514.80	52.7714285714	271.67	247.70	Partly_Cloudy(fair)	True	False	247.70
2011-01-31 16:00:00 35934 16 67.46 91.58 67.46 46.8 153.70	43.8894792774	67.46	46.80	Partly_Cloudy(fair)	True	False	46.80
2011-01-31 17:00:00 35935 17 1.36 1.85 1.36 0.3 3.10	43.8894792774	1.36	0.30	Partly_Cloudy(fair)	True	False	0.30
2011-01-31 18:00:00 35936 18 0.00 0.00 0.00 0.0 0.00	24.0877742947	0.00	0.00	Mostly_Cloudy(fair)	True	False	0.00
2011-01-31 19:00:00 35937 19 0.00 0.00 0.00 0.0 0.00	24.0877742947	0.00	0.00	Mostly_Cloudy(mostly_cloudy)	True	False	0.00
2011-01-31 20:00:00 35938 20 0.00 0.00 0.00 0.0 0.00	24.0877742947	0.00	0.00	Mostly_Cloudy(cloudy)	True	False	0.00
2011-01-31 21:00:00 35939 21 0.00 0.00 0.00 0.0 0.00	19.1397360036	0.00	0.00	Cloudy(cloudy)	True	False	0.00
2011-01-31 22:00:00 35940 22 0.00 0.00 0.00 0.0 0.00	19.1397360036	0.00	0.00	Cloudy(cloudy)	True	False	0.00
2011-01-31 23:00:00 35941 23 0.00 0.00 0.00 0.0 0.00	19.1397360036	0.00	0.00	Cloudy(cloudy)	True	False	0.00
2011-02-01 00:00:00 35942 0 0.00 0.00 0.00 0.0 0.00	0.417667327973	0.00	0.00	Few_Snow_Showers(cloudy)	True	False	0.00
2011-02-01 01:00:00 35943 1 0.00 0.00 0.00 0.0 0.00	0.417667327973	0.00	0.00	Few_Snow_Showers(light_snow)	True	False	0.00
2011-02-01 02:00:00 35944 2 0.00 0.00 0.00 0.0 0.00	0.417667327973	0.00	0.00	Few_Snow_Showers(light_snow)	True	False	0.00
2011-02-01 03:00:00 35945 3 0.00 0.00 0.00 0.0 0.00	0.047619047619	0.00	0.00	Snow_Shower(light_snow)	True	False	0.00
2011-02-01 04:00:00 35946 4 0.00 0.00 0.00 0.0 0.00	0.047619047619	0.00	0.00	Snow_Shower(light_snow)	True	False	0.00
2011-02-01 05:00:00 35947 5 0.00 0.00 0.00 0.0 0.00	0.047619047619	0.00	0.00	Snow_Shower(cloudy)	True	False	0.00
2011-02-01 06:00:00 35948 6 0.00 0.00 0.00 0.0 0.00	0.417667327973	0.00	0.00	Light_Snow(cloudy)	True	False	0.00
2011-02-01 07:00:00 35949 7 0.39 0.39 0.39 0.0 94.10	0.417667327973	0.39	0.00	Light_Snow(light_freezing_rain)	True	False	0.00
2011-02-01 08:00:00 35950 8 1.84 1.84 1.84 0.0 439.40	0.417667327973	1.84	0.00	Light_Snow(cloudy)	True	False	0.00
2011-02-01 09:00:00 35951 9 0.36 0.36 0.36 0.0 750.60	0.047619047619	0.36	0.00	Snow(light_freezing_rain)	True	False	0.00
2011-02-01 10:00:00 35952 10 0.46 0.46 0.46 2.3 957.70	0.047619047619	0.46	2.30	Snow(cloudy)	True	False	2.30
2011-02-01 11:00:00 35953 11 0.50 0.50 0.50 2.0 1050.00	0.047619047619	0.50	2.00	Snow(cloudy)	True	False	2.00
2011-02-01 12:00:00 35954 12 0.50 0.50 0.50 3.8 1060.00	0.047619047619	0.50	3.80	Snow(light_freezing_rain)	True	False	3.80
2011-02-01 13:00:00 35955 13 0.46 0.46 0.46 9.2 966.60	0.047619047619	0.46	9.20	Snow(light_freezing_rain)	True	False	9.20
2011-02-01 14:00:00 35956 14 0.38 0.38 0.38 12.6 797.50	0.047619047619	0.38	12.60	Snow(cloudy)	True	False	12.60
2011-02-01 15:00:00 35957 15 17.80 17.80 17.80 4.3 514.80	3.45765345765	17.80	4.30	Freezing_Rain(cloudy)	True	False	4.30
2011-02-01 16:00:00 35958 16 5.31 5.31 5.31 0.0 153.70	3.45765345765	5.31	0.00	Freezing_Rain(cloudy)	True	False	0.00
2011-02-01 17:00:00 35959 17 0.11 0.11 0.11 0.0 3.10	3.45765345765	0.11	0.00	Freezing_Rain(fog)	True	False	0.00
2011-02-01 18:00:00 35960 18 0.00 0.00 0.00 0.0 0.00	6.18087182824	0.00	0.00	Light_Freezing_Rain(cloudy)	True	False	0.00
2011-02-01 19:00:00 35961 19 0.00 0.00 0.00 0.0 0.00	6.18087182824	0.00	0.00	Light_Freezing_Rain(cloudy)	True	False	0.00
2011-02-01 20:00:00 35962 20 0.00 0.00 0.00 0.0 0.00	6.18087182824	0.00	0.00	Light_Freezing_Rain(cloudy)	True	False	0.00
2011-02-01 21:00:00 35963 21 0.00 0.00 0.00 0.0 0.00	6.18087182824	0.00	0.00	Light_Freezing_Rain(cloudy)	True	False	0.00
2011-02-01 22:00:00 35964 22 0.00 0.00 0.00 0.0 0.00	6.18087182824	0.00	0.00	Light_Freezing_Rain(cloudy)	True	False	0.00
2011-02-01 23:00:00 35965 23 0.00 0.00 0.00 0.0 0.00	6.18087182824	0.00	0.00	Light_Freezing_Rain(cloudy)	True	False	0.00
2011-02-02 00:00:00 35966 0 0.00 0.00 0.00 0.0 0.00	6.18087182824	0.00	0.00	Light_Freezing_Rain(light_freezing_rain)	True	False	0.00
2011-02-02 01:00:00 35967 1 0.00 0.00 0.00 0.0 0.00	6.18087182824	0.00	0.00	Light_Freezing_Rain(light_freezing_rain)	True	False	0.00
2011-02-02 02:00:00 35968 2 0.00 0.00 0.00 0.0 0.00	6.18087182824	0.00	0.00	Light_Freezing_Rain(wintry_mix)	True	False	0.00
2011-02-02 03:00:00 35969 3 0.00 0.00 0.00 0.0 0.00	3.45765345765	0.00	0.00	Freezing_Rain(freezing_rain)	True	False	0.00
2011-02-02 04:00:00 35970 4 0.00 0.00 0.00 0.0 0.00	3.45765345765	0.00	0.00	Freezing_Rain(freezing_rain)	True	False	0.00
2011-02-02 05:00:00 35971 5 0.00 0.00 0.00 0.0 0.00	3.45765345765	0.00	0.00	Freezing_Rain(light_freezing_rain)	True	False	0.00
2011-02-02 06:00:00 35972 6 0.00 0.00 0.00 0.0 0.00	3.45765345765	0.00	0.00	Freezing_Rain(light_freezing_rain)	True	False	0.00
2011-02-02 07:00:00 35973 7 3.25 3.25 3.25 0.0 94.10	3.45765345765	3.25	0.00	Freezing_Rain(freezing_rain)	True	False	0.00
2011-02-02 08:00:00 35974 8 15.19 15.19 15.19 1.0 439.40	3.45765345765	15.19	1.00	Freezing_Rain(wintry_mix)	True	False	1.00
2011-02-02 09:00:00 35975 9 143.66 143.66 143.66 20.5 750.60	19.1397360036	143.66	20.50	Cloudy(light_rain)	True	False	20.50
2011-02-02 10:00:00 35976 10 198.50 198.50 198.50 43.8 957.70	20.7264150943	198.50	43.80	Cloudy(cloudy)	True	False	43.80
2011-02-02 11:00:00 35977 11 217.63 217.63 217.63 91.7 1050.00	20.7264150943	217.63	91.70	Cloudy(cloudy)	True	False	91.70
2011-02-02 12:00:00 35978 12 36.65 36.65 36.65 131.5 1060.00	3.45765345765	36.65	131.50	Rain(cloudy)	True	False	131.50
