2011-01-19 00:00:00 21454 0 0.00 0.00 0.00 0.0 0.00	30.2222659323	0.00	0.00	Cloudy(mostly_cloudy)	True	False	0.00
2011-01-19 01:00:00 21455 1 0.00 0.00 0.00 0.0 0.00	30.2222659323	0.00	0.00	Cloudy(fair)	True	False	0.00
2011-01-19 02:00:00 21456 2 0.00 0.00 0.00 0.0 0.00	30.2222659323	0.00	0.00	Cloudy(partly_cloudy)	True	False	0.00
2011-01-19 03:00:00 21457 3 0.00 0.00 0.00 0.0 0.00	30.2222659323	0.00	0.00	Cloudy(mostly_cloudy)	True	False	0.00
2011-01-19 04:00:00 21458 4 0.00 0.00 0.00 0.0 0.00	30.2222659323	0.00	0.00	Cloudy(light_rain)	True	False	0.00
2011-01-19 05:00:00 21459 5 0.00 0.00 0.00 0.0 0.00	30.2222659323	0.00	0.00	Cloudy(light_rain)	True	False	0.00
2011-01-19 06:00:00 21460 6 0.00 0.00 0.00 0.0 0.00	30.2222659323	0.00	0.00	Cloudy(fog)	True	False	0.00
2011-01-19 07:00:00 21461 7 10.85 10.85 10.85 0.5 54.10	20.0578718927	10.85	0.50	Snow_Shower(cloudy)	True	False	0.50
2011-01-19 08:00:00 21462 8 78.59 78.59 78.59 28.1 391.80	20.0578718927	78.59	28.10	Snow_Shower(fog)	True	False	28.10
2011-01-19 09:00:00 21463 9 32.68 32.68 32.68 122.9 699.40	4.67237735009	32.68	122.90	Rain_/_Snow_Showers(cloudy)	True	False	122.90
2011-01-19 10:00:00 21464 10 241.97 241.97 241.97 384.8 898.90	26.9184847498	241.97	384.80	Rain_/_Snow_Showers(cloudy)	True	False	384.80
2011-01-19 11:00:00 21465 11 273.71 273.71 273.71 830.0 1016.80	26.9184847498	273.71	830.00	Rain_/_Snow_Showers(cloudy)	True	False	830.00
2011-01-19 12:00:00 21466 12 461.81 461.81 461.81 454.8 1027.70	44.9365027678	461.81	454.80	Mostly_Cloudy(fair)	True	False	454.80
2011-01-19 13:00:00 21467 13 414.00 414.00 414.00 278.6 921.30	44.9365027678	414.00	278.60	Mostly_Cloudy(cloudy)	True	False	278.60
2011-01-19 14:00:00 21468 14 341.65 341.65 341.65 314.4 760.30	44.9365027678	341.65	314.40	Mostly_Cloudy(mostly_cloudy)	True	False	314.40
2011-01-19 15:00:00 21469 15 313.50 313.50 313.50 71.3 447.60	70.0402144772	313.50	71.30	Partly_Cloudy(cloudy)	True	False	71.30
2011-01-19 16:00:00 21470 16 53.02 53.02 53.02 25.1 101.90	52.0302592057	53.02	25.10	Partly_Cloudy(cloudy)	True	False	25.10
2011-01-19 17:00:00 21471 17 0.52 0.52 0.52 0.0 1.00	52.0302592057	0.52	0.00	Partly_Cloudy(cloudy)	True	False	0.00
2011-01-19 18:00:00 21472 18 0.00 0.00 0.00 0.0 0.00	52.0302592057	0.00	0.00	Partly_Cloudy(cloudy)	True	False	0.00
2011-01-19 19:00:00 21473 19 0.00 0.00 0.00 0.0 0.00	52.0302592057	0.00	0.00	Partly_Cloudy(cloudy)	True	False	0.00
2011-01-19 20:00:00 21474 20 0.00 0.00 0.00 0.0 0.00	52.0302592057	0.00	0.00	Partly_Cloudy(cloudy)	True	False	0.00
2011-01-19 21:00:00 21475 21 0.00 0.00 0.00 0.0 0.00	52.0302592057	0.00	0.00	Mostly_Clear(cloudy)	False	False	0.00
2011-01-19 22:00:00 21476 22 0.00 0.00 0.00 0.0 0.00	52.0302592057	0.00	0.00	Mostly_Clear(cloudy)	False	False	0.00
2011-01-19 23:00:00 21477 23 0.00 0.00 0.00 0.0 0.00	52.0302592057	0.00	0.00	Mostly_Clear(cloudy)	False	False	0.00
2011-01-20 00:00:00 21478 0 0.00 0.00 0.00 0.0 0.00	85.3751914242	0.00	0.00	Clear(cloudy)	True	False	0.00
2011-01-20 01:00:00 21479 1 0.00 0.00 0.00 0.0 0.00	85.3751914242	0.00	0.00	Clear(cloudy)	True	False	0.00
2011-01-20 02:00:00 21480 2 0.00 0.00 0.00 0.0 0.00	85.3751914242	0.00	0.00	Clear(cloudy)	True	False	0.00
2011-01-20 03:00:00 21481 3 0.00 0.00 0.00 0.0 0.00	85.3751914242	0.00	0.00	Clear(cloudy)	True	False	0.00
2011-01-20 04:00:00 21482 4 0.00 0.00 0.00 0.0 0.00	85.3751914242	0.00	0.00	Clear(cloudy)	True	False	0.00
2011-01-20 05:00:00 21483 5 0.00 0.00 0.00 0.0 0.00	85.3751914242	0.00	0.00	Clear(cloudy)	True	False	0.00
2011-01-20 06:00:00 21484 6 0.00 0.00 0.00 0.0 0.00	85.3751914242	0.00	0.00	Mostly_Clear(cloudy)	False	False	0.00
2011-01-20 07:00:00 21485 7 46.19 46.19 46.19 26.0 54.10	85.3751914242	46.19	26.00	Mostly_Clear(mostly_cloudy)	False	False	26.00
2011-01-20 08:00:00 21486 8 334.50 334.50 334.50 132.4 391.80	85.3751914242	334.50	132.40	Mostly_Sunny(mostly_cloudy)	False	False	132.40
2011-01-20 09:00:00 21487 9 363.90 363.90 363.90 466.6 699.40	52.0302592057	363.90	466.60	Partly_Cloudy(fair)	True	False	466.60
2011-01-20 10:00:00 21488 10 629.59 629.59 629.59 594.7 898.90	70.0402144772	629.59	594.70	Partly_Cloudy(fair)	True	False	594.70
2011-01-20 11:00:00 21489 11 712.17 712.17 712.17 543.8 1016.80	70.0402144772	712.17	543.80	Partly_Cloudy(fair)	True	False	543.80
2011-01-20 12:00:00 21490 12 461.81 461.81 461.81 739.3 1027.70	44.9365027678	461.81	739.30	Mostly_Cloudy(fair)	True	False	739.30
2011-01-20 13:00:00 21491 13 414.00 414.00 414.00 606.7 921.30	44.9365027678	414.00	606.70	Mostly_Cloudy(fair)	True	False	606.70
2011-01-20 14:00:00 21492 14 341.65 341.65 341.65 304.2 760.30	44.9365027678	341.65	304.20	Mostly_Cloudy(fair)	True	False	304.20
2011-01-20 15:00:00 21493 15 201.14 201.14 201.14 201.0 447.60	44.9365027678	201.14	201.00	Mostly_Cloudy(partly_cloudy)	True	False	201.00
2011-01-20 16:00:00 21494 16 36.00 36.00 36.00 35.8 101.90	35.3281599369	36.00	35.80	Mostly_Cloudy(fair)	True	False	35.80
2011-01-20 17:00:00 21495 17 0.35 0.35 0.35 0.0 1.00	35.3281599369	0.35	0.00	Mostly_Cloudy(fair)	True	False	0.00
2011-01-20 18:00:00 21496 18 0.00 0.00 0.00 0.0 0.00	30.2222659323	0.00	0.00	Cloudy(fair)	True	False	0.00
2011-01-20 19:00:00 21497 19 0.00 0.00 0.00 0.0 0.00	30.2222659323	0.00	0.00	Cloudy(mostly_cloudy)	True	False	0.00
2011-01-20 20:00:00 21498 20 0.00 0.00 0.00 0.0 0.00	30.2222659323	0.00	0.00	Cloudy(cloudy)	True	False	0.00
2011-01-20 21:00:00 21499 21 0.00 0.00 0.00 0.0 0.00	4.67237735009	0.00	0.00	Few_Snow_Showers(cloudy)	True	False	0.00
2011-01-20 22:00:00 21500 22 0.00 0.00 0.00 0.0 0.00	4.67237735009	0.00	0.00	Few_Snow_Showers(cloudy)	True	False	0.00
2011-01-20 23:00:00 21501 23 0.00 0.00 0.00 0.0 0.00	4.67237735009	0.00	0.00	Few_Snow_Showers(cloudy)	True	False	0.00
