2011-01-14 18:00:00 16519 18 0.00 0.00 0.00 0.0 0.00	92.3752792256	0.00	0.00	Mostly_Clear(fair)	False	False	0.00
2011-01-14 19:00:00 16520 19 0.00 0.00 0.00 0.0 0.00	92.3752792256	0.00	0.00	Mostly_Clear(fair)	False	False	0.00
2011-01-14 20:00:00 16521 20 0.00 0.00 0.00 0.0 0.00	92.3752792256	0.00	0.00	Mostly_Clear(fair)	False	False	0.00
2011-01-14 21:00:00 16522 21 0.00 0.00 0.00 0.0 0.00	89.4255501572	0.00	0.00	Clear(fair)	True	False	0.00
2011-01-14 22:00:00 16523 22 0.00 0.00 0.00 0.0 0.00	89.4255501572	0.00	0.00	Clear(fair)	True	False	0.00
2011-01-14 23:00:00 16524 23 0.00 0.00 0.00 0.0 0.00	89.4255501572	0.00	0.00	Clear(fair)	True	False	0.00
2011-01-15 00:00:00 16525 0 0.00 0.00 0.00 0.0 0.00	89.4255501572	0.00	0.00	Clear(fair)	True	False	0.00
2011-01-15 01:00:00 16526 1 0.00 0.00 0.00 0.0 0.00	89.4255501572	0.00	0.00	Clear(fair)	True	False	0.00
2011-01-15 02:00:00 16527 2 0.00 0.00 0.00 0.0 0.00	89.4255501572	0.00	0.00	Clear(fair)	True	False	0.00
2011-01-15 03:00:00 16528 3 0.00 0.00 0.00 0.0 0.00	53.798256538	0.00	0.00	Partly_Cloudy(fair)	True	False	0.00
2011-01-15 04:00:00 16529 4 0.00 0.00 0.00 0.0 0.00	53.798256538	0.00	0.00	Partly_Cloudy(fair)	True	False	0.00
2011-01-15 05:00:00 16530 5 0.00 0.00 0.00 0.0 0.00	53.798256538	0.00	0.00	Partly_Cloudy(fair)	True	False	0.00
2011-01-15 06:00:00 16531 6 0.00 0.00 0.00 0.0 0.00	47.9166666667	0.00	0.00	Mostly_Cloudy(fair)	True	False	0.00
2011-01-15 07:00:00 16532 7 19.31 19.31 19.31 8.7 40.30	47.9166666667	19.31	8.70	Mostly_Cloudy(fair)	True	False	8.70
2011-01-15 08:00:00 16533 8 167.66 167.66 167.66 136.2 349.90	47.9166666667	167.66	136.20	Mostly_Cloudy(fair)	True	False	136.20
2011-01-15 09:00:00 16534 9 320.18 320.18 320.18 87.5 668.20	47.9166666667	320.18	87.50	Mostly_Cloudy(fair)	True	False	87.50
2011-01-15 10:00:00 16535 10 491.35 491.35 491.35 187.7 891.50	55.1154132539	491.35	187.70	Mostly_Cloudy(cloudy)	True	False	187.70
2011-01-15 11:00:00 16536 11 532.19 532.19 532.19 306.5 965.60	55.1154132539	532.19	306.50	Mostly_Cloudy(mostly_cloudy)	True	False	306.50
2011-01-15 12:00:00 16537 12 286.55 286.55 286.55 411.8 998.30	28.7037037037	286.55	411.80	Few_Snow_Showers(mostly_cloudy)	True	False	411.80
2011-01-15 13:00:00 16538 13 248.00 248.00 248.00 440.6 864.00	28.7037037037	248.00	440.60	Few_Snow_Showers(mostly_cloudy)	True	False	440.60
2011-01-15 14:00:00 16539 14 192.75 192.75 192.75 196.9 671.50	28.7037037037	192.75	196.90	Few_Snow_Showers(fair)	True	False	196.90
2011-01-15 15:00:00 16540 15 101.81 101.81 101.81 49.6 354.70	28.7037037037	101.81	49.60	Few_Snow_Showers(cloudy)	True	False	49.60
2011-01-15 16:00:00 16541 16 3.78 3.78 3.78 1.6 80.30	4.71116096467	3.78	1.60	Few_Snow_Showers(cloudy)	True	False	1.60
2011-01-15 17:00:00 16542 17 0.03 0.03 0.03 0.0 0.60	4.71116096467	0.03	0.00	Few_Snow_Showers(cloudy)	True	False	0.00
2011-01-15 18:00:00 16543 18 0.00 0.00 0.00 0.0 0.00	4.71116096467	0.00	0.00	Few_Snow_Showers(cloudy)	True	False	0.00
2011-01-15 19:00:00 16544 19 0.00 0.00 0.00 0.0 0.00	4.71116096467	0.00	0.00	Few_Snow_Showers(cloudy)	True	False	0.00
2011-01-15 20:00:00 16545 20 0.00 0.00 0.00 0.0 0.00	4.71116096467	0.00	0.00	Few_Snow_Showers(cloudy)	True	False	0.00
2011-01-15 21:00:00 16546 21 0.00 0.00 0.00 0.0 0.00	34.7133283693	0.00	0.00	Cloudy(cloudy)	True	False	0.00
2011-01-15 22:00:00 16547 22 0.00 0.00 0.00 0.0 0.00	34.7133283693	0.00	0.00	Cloudy(fair)	True	False	0.00
2011-01-15 23:00:00 16548 23 0.00 0.00 0.00 0.0 0.00	34.7133283693	0.00	0.00	Cloudy(partly_cloudy)	True	False	0.00
2011-01-16 00:00:00 16549 0 0.00 0.00 0.00 0.0 0.00	34.7133283693	0.00	0.00	Cloudy(mostly_cloudy)	True	False	0.00
2011-01-16 01:00:00 16550 1 0.00 0.00 0.00 0.0 0.00	34.7133283693	0.00	0.00	Cloudy(partly_cloudy)	True	False	0.00
2011-01-16 02:00:00 16551 2 0.00 0.00 0.00 0.0 0.00	34.7133283693	0.00	0.00	Cloudy(mostly_cloudy)	True	False	0.00
2011-01-16 03:00:00 16552 3 0.00 0.00 0.00 0.0 0.00	34.7133283693	0.00	0.00	Cloudy(fair)	True	False	0.00
2011-01-16 04:00:00 16553 4 0.00 0.00 0.00 0.0 0.00	34.7133283693	0.00	0.00	Cloudy(fair)	True	False	0.00
2011-01-16 05:00:00 16554 5 0.00 0.00 0.00 0.0 0.00	34.7133283693	0.00	0.00	Cloudy(fair)	True	False	0.00
2011-01-16 06:00:00 16555 6 0.00 0.00 0.00 0.0 0.00	53.798256538	0.00	0.00	Partly_Cloudy(fair)	True	False	0.00
2011-01-16 07:00:00 16556 7 21.68 21.68 21.68 3.4 40.30	53.798256538	21.68	3.40	Partly_Cloudy(fair)	True	False	3.40
2011-01-16 08:00:00 16557 8 188.24 188.24 188.24 208.1 349.90	53.798256538	188.24	208.10	Partly_Cloudy(fair)	True	False	208.10
2011-01-16 09:00:00 16558 9 359.48 359.48 359.48 538.1 668.20	53.798256538	359.48	538.10	Partly_Cloudy(fair)	True	False	538.10
2011-01-16 10:00:00 16559 10 598.64 598.64 598.64 784.8 891.50	67.149958575	598.64	784.80	Partly_Cloudy(fair)	True	False	784.80
2011-01-16 11:00:00 16560 11 648.40 648.40 648.40 937.0 965.60	67.149958575	648.40	937.00	Partly_Cloudy(fair)	True	False	937.00
2011-01-16 12:00:00 16561 12 670.36 670.36 670.36 943.9 998.30	67.149958575	670.36	943.90	Mostly_Sunny(fair)	False	False	943.90
2011-01-16 13:00:00 16562 13 580.18 580.18 580.18 850.0 864.00	67.149958575	580.18	850.00	Mostly_Sunny(partly_cloudy)	False	False	850.00
2011-01-16 14:00:00 16563 14 450.91 450.91 450.91 657.5 671.50	67.149958575	450.91	657.50	Mostly_Sunny(fair)	False	False	657.50
2011-01-16 15:00:00 16564 15 238.18 238.18 238.18 309.5 354.70	67.149958575	238.18	309.50	Mostly_Sunny(fair)	False	False	309.50
2011-01-16 16:00:00 16565 16 53.92 53.92 53.92 32.8 80.30	67.149958575	53.92	32.80	Mostly_Sunny(fair)	False	False	32.80
2011-01-16 17:00:00 16566 17 0.40 0.40 0.40 0.0 0.60	67.149958575	0.40	0.00	Mostly_Clear(fair)	False	False	0.00
2011-01-16 18:00:00 16567 18 0.00 0.00 0.00 0.0 0.00	53.798256538	0.00	0.00	Partly_Cloudy(fair)	True	False	0.00
