2011-01-12 20:00:00 14301 20 0.00 0.00 0.00 0.0 0.00	48.2137753644	0.00	0.00	Mostly_Cloudy(cloudy)	True	False	0.00
2011-01-12 21:00:00 14302 21 0.00 0.00 0.00 0.0 0.00	48.2137753644	0.00	0.00	Mostly_Cloudy(mostly_cloudy)	True	False	0.00
2011-01-12 22:00:00 14303 22 0.00 0.00 0.00 0.0 0.00	48.2137753644	0.00	0.00	Mostly_Cloudy(mostly_cloudy)	True	False	0.00
2011-01-12 23:00:00 14304 23 0.00 0.00 0.00 0.0 0.00	52.7897425624	0.00	0.00	Partly_Cloudy(mostly_cloudy)	True	False	0.00
2011-01-13 00:00:00 14305 0 0.00 0.00 0.00 0.0 0.00	52.7897425624	0.00	0.00	Partly_Cloudy(fair)	True	False	0.00
2011-01-13 01:00:00 14306 1 0.00 0.00 0.00 0.0 0.00	52.7897425624	0.00	0.00	Partly_Cloudy(fair)	True	False	0.00
2011-01-13 02:00:00 14307 2 0.00 0.00 0.00 0.0 0.00	52.7897425624	0.00	0.00	Partly_Cloudy(fair)	True	False	0.00
2011-01-13 03:00:00 14308 3 0.00 0.00 0.00 0.0 0.00	52.7897425624	0.00	0.00	Partly_Cloudy(fair)	True	False	0.00
2011-01-13 04:00:00 14309 4 0.00 0.00 0.00 0.0 0.00	52.7897425624	0.00	0.00	Partly_Cloudy(fair)	True	False	0.00
2011-01-13 05:00:00 14310 5 0.00 0.00 0.00 0.0 0.00	52.7897425624	0.00	0.00	Partly_Cloudy(fair)	True	False	0.00
2011-01-13 06:00:00 14311 6 0.00 0.00 0.00 0.0 0.00	89.0245718541	0.00	0.00	Clear(fair)	True	False	0.00
2011-01-13 07:00:00 14312 7 34.54 34.54 34.54 0.2 38.80	89.0245718541	34.54	0.20	Clear(fair)	True	False	0.20
2011-01-13 08:00:00 14313 8 311.50 311.50 311.50 15.9 349.90	89.0245718541	311.50	15.90	Sunny(fair)	True	False	15.90
2011-01-13 09:00:00 14314 9 594.86 594.86 594.86 40.8 668.20	89.0245718541	594.86	40.80	Sunny(fair)	True	False	40.80
2011-01-13 10:00:00 14315 10 815.68 815.68 815.68 68.0 891.50	91.4955424221	815.68	68.00	Sunny(fair)	True	False	68.00
2011-01-13 11:00:00 14316 11 883.48 883.48 883.48 116.4 965.60	91.4955424221	883.48	116.40	Sunny(fair)	True	False	116.40
2011-01-13 12:00:00 14317 12 913.40 913.40 913.40 173.0 998.30	91.4955424221	913.40	173.00	Mostly_Sunny(fair)	False	False	173.00
2011-01-13 13:00:00 14318 13 790.52 790.52 790.52 203.9 864.00	91.4955424221	790.52	203.90	Mostly_Sunny(fair)	False	False	203.90
2011-01-13 14:00:00 14319 14 614.39 614.39 614.39 181.3 671.50	91.4955424221	614.39	181.30	Mostly_Sunny(Unkown)	False	False	181.30
2011-01-13 15:00:00 14320 15 237.78 237.78 237.78 95.1 354.10	67.149958575	237.78	95.10	Partly_Cloudy(fair)	True	False	95.10
2011-01-13 16:00:00 14321 16 35.00 35.00 35.00 6.8 66.30	52.7897425624	35.00	6.80	Partly_Cloudy(fair)	True	False	6.80
2011-01-13 17:00:00 14322 17 0.16 0.16 0.16 0.0 0.30	52.7897425624	0.16	0.00	Partly_Cloudy(fair)	True	False	0.00
2011-01-13 18:00:00 14323 18 0.00 0.00 0.00 0.0 0.00	89.0245718541	0.00	0.00	Clear(fair)	True	False	0.00
2011-01-13 19:00:00 14324 19 0.00 0.00 0.00 0.0 0.00	89.0245718541	0.00	0.00	Clear(fair)	True	False	0.00
2011-01-13 20:00:00 14325 20 0.00 0.00 0.00 0.0 0.00	89.0245718541	0.00	0.00	Clear(fair)	True	False	0.00
2011-01-13 21:00:00 14326 21 0.00 0.00 0.00 0.0 0.00	89.0245718541	0.00	0.00	Clear(fair)	True	False	0.00
2011-01-13 22:00:00 14327 22 0.00 0.00 0.00 0.0 0.00	89.0245718541	0.00	0.00	Clear(fair)	True	False	0.00
2011-01-13 23:00:00 14328 23 0.00 0.00 0.00 0.0 0.00	89.0245718541	0.00	0.00	Clear(fair)	True	False	0.00
2011-01-14 00:00:00 14329 0 0.00 0.00 0.00 0.0 0.00	89.0245718541	0.00	0.00	Clear(fair)	True	False	0.00
2011-01-14 01:00:00 14330 1 0.00 0.00 0.00 0.0 0.00	89.0245718541	0.00	0.00	Clear(fair)	True	False	0.00
2011-01-14 02:00:00 14331 2 0.00 0.00 0.00 0.0 0.00	89.0245718541	0.00	0.00	Clear(fair)	True	False	0.00
2011-01-14 03:00:00 14332 3 0.00 0.00 0.00 0.0 0.00	52.7897425624	0.00	0.00	Partly_Cloudy(fair)	True	False	0.00
2011-01-14 04:00:00 14333 4 0.00 0.00 0.00 0.0 0.00	52.7897425624	0.00	0.00	Partly_Cloudy(fair)	True	False	0.00
2011-01-14 05:00:00 14334 5 0.00 0.00 0.00 0.0 0.00	52.7897425624	0.00	0.00	Partly_Cloudy(fair)	True	False	0.00
2011-01-14 06:00:00 14335 6 0.00 0.00 0.00 0.0 0.00	48.2137753644	0.00	0.00	Mostly_Cloudy(fair)	True	False	0.00
2011-01-14 07:00:00 14336 7 18.71 18.71 18.71 0.9 38.80	48.2137753644	18.71	0.90	Mostly_Cloudy(fair)	True	False	0.90
2011-01-14 08:00:00 14337 8 168.70 168.70 168.70 56.4 349.90	48.2137753644	168.70	56.40	Mostly_Cloudy(fair)	True	False	56.40
2011-01-14 09:00:00 14338 9 223.88 223.88 223.88 144.1 668.20	33.5051546392	223.88	144.10	Cloudy(fair)	True	False	144.10
2011-01-14 10:00:00 14339 10 290.64 290.64 290.64 288.8 891.50	32.6014913007	290.64	288.80	Cloudy(fair)	True	False	288.80
2011-01-14 11:00:00 14340 11 314.80 314.80 314.80 356.8 965.60	32.6014913007	314.80	356.80	Cloudy(fair)	True	False	356.80
2011-01-14 12:00:00 14341 12 550.22 550.22 550.22 408.8 998.30	55.1154132539	550.22	408.80	Mostly_Cloudy(fair)	True	False	408.80
2011-01-14 13:00:00 14342 13 476.20 476.20 476.20 399.7 864.00	55.1154132539	476.20	399.70	Mostly_Cloudy(fair)	True	False	399.70
2011-01-14 14:00:00 14343 14 370.10 370.10 370.10 314.6 671.50	55.1154132539	370.10	314.60	Mostly_Cloudy(fair)	True	False	314.60
2011-01-14 15:00:00 14344 15 237.78 237.78 237.78 161.5 354.10	67.149958575	237.78	161.50	Partly_Cloudy(fair)	True	False	161.50
2011-01-14 16:00:00 14345 16 35.00 35.00 35.00 13.6 66.30	52.7897425624	35.00	13.60	Partly_Cloudy(fair)	True	False	13.60
2011-01-14 17:00:00 14346 17 0.16 0.16 0.16 0.0 0.30	52.7897425624	0.16	0.00	Partly_Cloudy(fair)	True	False	0.00
2011-01-14 18:00:00 14347 18 0.00 0.00 0.00 0.0 0.00	52.7897425624	0.00	0.00	Mostly_Clear(fair)	False	False	0.00
