2011-01-06 02:00:00 6480 2 0.00 0.00 0.00 0.0 0.00	67.3732335827	0.00	0.00	Partly_Cloudy(fair)	True	False	0.00
2011-01-06 03:00:00 6481 3 0.00 0.00 0.00 0.0 0.00	67.3732335827	0.00	0.00	Partly_Cloudy(fair)	True	False	0.00
2011-01-06 04:00:00 6482 4 0.00 0.00 0.00 0.0 0.00	67.3732335827	0.00	0.00	Partly_Cloudy(fair)	True	False	0.00
2011-01-06 05:00:00 6483 5 0.00 0.00 0.00 0.0 0.00	49.5642592407	0.00	0.00	Mostly_Cloudy(fair)	True	False	0.00
2011-01-06 06:00:00 6484 6 0.00 0.00 0.00 0.0 0.00	49.5642592407	0.00	0.00	Mostly_Cloudy(fair)	True	False	0.00
2011-01-06 07:00:00 6485 7 14.92 14.92 14.92 18.7 30.10	49.5642592407	14.92	18.70	Mostly_Cloudy(fair)	True	False	18.70
2011-01-06 08:00:00 6486 8 155.09 155.09 155.09 131.6 312.90	49.5642592407	155.09	131.60	Mostly_Cloudy(partly_cloudy)	True	False	131.60
2011-01-06 09:00:00 6487 9 272.70 272.70 272.70 299.3 653.30	41.7419256084	272.70	299.30	Cloudy(cloudy)	True	False	299.30
2011-01-06 10:00:00 6488 10 376.09 376.09 376.09 638.4 891.50	42.1862011638	376.09	638.40	Cloudy(mostly_cloudy)	True	False	638.40
2011-01-06 11:00:00 6489 11 406.00 406.00 406.00 381.2 962.40	42.1862011638	406.00	381.20	Cloudy(cloudy)	True	False	381.20
2011-01-06 12:00:00 6490 12 526.50 526.50 526.50 587.4 998.30	52.7396574176	526.50	587.40	Mostly_Cloudy(fair)	True	False	587.40
2011-01-06 13:00:00 6491 13 437.05 437.05 437.05 654.8 828.70	52.7396574176	437.05	654.80	Mostly_Cloudy(mostly_cloudy)	True	False	654.80
2011-01-06 14:00:00 6492 14 328.94 328.94 328.94 524.9 623.70	52.7396574176	328.94	524.90	Mostly_Cloudy(fair)	True	False	524.90
2011-01-06 15:00:00 6493 15 257.00 257.00 257.00 219.1 323.10	79.5419374807	257.00	219.10	Partly_Cloudy(fair)	True	False	219.10
2011-01-06 16:00:00 6494 16 29.11 29.11 29.11 21.2 43.20	67.3732335827	29.11	21.20	Partly_Cloudy(fair)	True	False	21.20
2011-01-06 17:00:00 6495 17 0.00 0.00 0.00 0.0 0.00	67.3732335827	0.00	0.00	Partly_Cloudy(fair)	True	False	0.00
2011-01-06 18:00:00 6496 18 0.00 0.00 0.00 0.0 0.00	67.3732335827	0.00	0.00	Partly_Cloudy(fair)	True	False	0.00
2011-01-06 19:00:00 6497 19 0.00 0.00 0.00 0.0 0.00	67.3732335827	0.00	0.00	Partly_Cloudy(cloudy)	True	False	0.00
2011-01-06 20:00:00 6498 20 0.00 0.00 0.00 0.0 0.00	67.3732335827	0.00	0.00	Partly_Cloudy(cloudy)	True	False	0.00
2011-01-06 21:00:00 6499 21 0.00 0.00 0.00 0.0 0.00	49.5642592407	0.00	0.00	Mostly_Cloudy(cloudy)	True	False	0.00
2011-01-06 22:00:00 6500 22 0.00 0.00 0.00 0.0 0.00	49.5642592407	0.00	0.00	Mostly_Cloudy(cloudy)	True	False	0.00
2011-01-06 23:00:00 6501 23 0.00 0.00 0.00 0.0 0.00	49.5642592407	0.00	0.00	Mostly_Cloudy(cloudy)	True	False	0.00
2011-01-07 00:00:00 6502 0 0.00 0.00 0.00 0.0 0.00	49.5642592407	0.00	0.00	Flurries(cloudy)	False	False	0.00
2011-01-07 01:00:00 6503 1 0.00 0.00 0.00 0.0 0.00	49.5642592407	0.00	0.00	Flurries(cloudy)	False	False	0.00
2011-01-07 02:00:00 6504 2 0.00 0.00 0.00 0.0 0.00	49.5642592407	0.00	0.00	Flurries(cloudy)	False	False	0.00
2011-01-07 03:00:00 6505 3 0.00 0.00 0.00 0.0 0.00	29.9263907325	0.00	0.00	Few_Snow_Showers(cloudy)	True	False	0.00
2011-01-07 04:00:00 6506 4 0.00 0.00 0.00 0.0 0.00	29.9263907325	0.00	0.00	Few_Snow_Showers(cloudy)	True	False	0.00
2011-01-07 05:00:00 6507 5 0.00 0.00 0.00 0.0 0.00	29.9263907325	0.00	0.00	Few_Snow_Showers(cloudy)	True	False	0.00
2011-01-07 06:00:00 6508 6 0.00 0.00 0.00 0.0 0.00	24.4508577842	0.00	0.00	Snow_Shower(light_snow)	True	False	0.00
2011-01-07 07:00:00 6509 7 7.36 7.36 7.36 0.0 30.10	24.4508577842	7.36	0.00	Snow_Shower(light_snow)	True	False	0.00
2011-01-07 08:00:00 6510 8 76.51 76.51 76.51 0.1 312.90	24.4508577842	76.51	0.10	Snow_Shower(light_snow)	True	False	0.10
2011-01-07 09:00:00 6511 9 159.74 159.74 159.74 6.0 653.30	24.4508577842	159.74	6.00	Snow(light_snow)	True	False	6.00
2011-01-07 10:00:00 6512 10 217.98 217.98 217.98 19.9 891.50	24.4508577842	217.98	19.90	Snow(snow)	True	False	19.90
2011-01-07 11:00:00 6513 11 235.32 235.32 235.32 5.8 962.40	24.4508577842	235.32	5.80	Snow(light_snow)	True	False	5.80
2011-01-07 12:00:00 6514 12 244.09 244.09 244.09 10.8 998.30	24.4508577842	244.09	10.80	Snow(light_snow)	True	False	10.80
2011-01-07 13:00:00 6515 13 202.62 202.62 202.62 13.7 828.70	24.4508577842	202.62	13.70	Snow(light_snow)	True	False	13.70
2011-01-07 14:00:00 6516 14 152.50 152.50 152.50 10.0 623.70	24.4508577842	152.50	10.00	Snow(cloudy)	True	False	10.00
2011-01-07 15:00:00 6517 15 79.00 79.00 79.00 6.7 323.10	24.4508577842	79.00	6.70	Snow_Shower(cloudy)	True	False	6.70
2011-01-07 16:00:00 6518 16 10.56 10.56 10.56 0.7 43.20	24.4508577842	10.56	0.70	Snow_Shower(fair)	True	False	0.70
2011-01-07 17:00:00 6519 17 0.00 0.00 0.00 0.0 0.00	24.4508577842	0.00	0.00	Snow_Shower(fair)	True	False	0.00
2011-01-07 18:00:00 6520 18 0.00 0.00 0.00 0.0 0.00	24.4508577842	0.00	0.00	Snow_Shower(fair)	True	False	0.00
2011-01-07 19:00:00 6521 19 0.00 0.00 0.00 0.0 0.00	24.4508577842	0.00	0.00	Snow_Shower(fair)	True	False	0.00
2011-01-07 20:00:00 6522 20 0.00 0.00 0.00 0.0 0.00	24.4508577842	0.00	0.00	Snow_Shower(fair)	True	False	0.00
2011-01-07 21:00:00 6523 21 0.00 0.00 0.00 0.0 0.00	24.4508577842	0.00	0.00	Snow_Shower(fair)	True	False	0.00
2011-01-07 22:00:00 6524 22 0.00 0.00 0.00 0.0 0.00	24.4508577842	0.00	0.00	Snow_Shower(fair)	True	False	0.00
2011-01-07 23:00:00 6525 23 0.00 0.00 0.00 0.0 0.00	24.4508577842	0.00	0.00	Snow_Shower(fair)	True	False	0.00
2011-01-08 00:00:00 6526 0 0.00 0.00 0.00 0.0 0.00	24.4508577842	0.00	0.00	Snow_Shower(fair)	True	False	0.00
2011-01-08 01:00:00 6527 1 0.00 0.00 0.00 0.0 0.00	24.4508577842	0.00	0.00	Snow_Shower(fair)	True	False	0.00
