2011-01-17 16:00:00 19919 16 89.43 89.43 31.55 4.6 101.90	30.9590577678	31.55	4.60	Mostly_Cloudy(cloudy)	True	False	4.60
2011-01-17 17:00:00 19920 17 0.05 0.05 0.31 0.0 1.00	30.9590577678	0.31	0.00	Mostly_Cloudy(cloudy)	True	False	0.00
2011-01-17 18:00:00 19921 18 0.00 0.00 0.00 0.0 0.00	30.9590577678	0.00	0.00	Mostly_Cloudy(cloudy)	True	False	0.00
2011-01-17 19:00:00 19922 19 0.00 0.00 0.00 0.0 0.00	30.9590577678	0.00	0.00	Mostly_Cloudy(cloudy)	True	False	0.00
2011-01-17 20:00:00 19923 20 0.00 0.00 0.00 0.0 0.00	30.9590577678	0.00	0.00	Mostly_Cloudy(cloudy)	True	False	0.00
2011-01-17 21:00:00 19924 21 0.00 0.00 0.00 0.0 0.00	30.9874888293	0.00	0.00	Cloudy(cloudy)	True	False	0.00
2011-01-17 22:00:00 19925 22 0.00 0.00 0.00 0.0 0.00	30.9874888293	0.00	0.00	Cloudy(cloudy)	True	False	0.00
2011-01-17 23:00:00 19926 23 0.00 0.00 0.00 0.0 0.00	30.9874888293	0.00	0.00	Cloudy(light_snow)	True	False	0.00
2011-01-18 00:00:00 19927 0 0.00 0.00 0.00 0.0 0.00	4.71116096467	0.00	0.00	Few_Snow_Showers(light_snow)	True	False	0.00
2011-01-18 01:00:00 19928 1 0.00 0.00 0.00 0.0 0.00	4.71116096467	0.00	0.00	Few_Snow_Showers(light_snow)	True	False	0.00
2011-01-18 02:00:00 19929 2 0.00 0.00 0.00 0.0 0.00	4.71116096467	0.00	0.00	Few_Snow_Showers(light_snow)	True	False	0.00
2011-01-18 03:00:00 19930 3 0.00 0.00 0.00 0.0 0.00	20.0578718927	0.00	0.00	Snow(snow)	True	False	0.00
2011-01-18 04:00:00 19931 4 0.00 0.00 0.00 0.0 0.00	20.0578718927	0.00	0.00	Snow(light_freezing_rain)	True	False	0.00
2011-01-18 05:00:00 19932 5 0.00 0.00 0.00 0.0 0.00	20.0578718927	0.00	0.00	Snow(light_freezing_rain)	True	False	0.00
2011-01-18 06:00:00 19933 6 0.00 0.00 0.00 0.0 0.00	3.97676496872	0.00	0.00	Wintry_Mix(light_freezing_rain)	True	False	0.00
2011-01-18 07:00:00 19934 7 1.97 1.97 1.97 0.0 49.60	3.97676496872	1.97	0.00	Wintry_Mix(light_freezing_rain)	True	False	0.00
2011-01-18 08:00:00 19935 8 15.58 15.58 15.58 0.0 391.80	3.97676496872	15.58	0.00	Wintry_Mix(light_freezing_rain)	True	False	0.00
2011-01-18 09:00:00 19936 9 64.98 64.98 64.98 4.5 697.00	9.32286555447	64.98	4.50	Rain_/_Freezing_Rain(light_freezing_rain)	True	False	4.50
2011-01-18 10:00:00 19937 10 31.54 31.54 31.54 16.6 891.50	3.53807707484	31.54	16.60	Rain_/_Freezing_Rain(light_freezing_rain)	True	False	16.60
2011-01-18 11:00:00 19938 11 35.98 35.98 35.98 26.2 1016.80	3.53807707484	35.98	26.20	Rain_/_Freezing_Rain(light_rain)	True	False	26.20
2011-01-18 12:00:00 19939 12 36.36 36.36 36.36 49.4 1027.70	3.53807707484	36.36	49.40	Rain_/_Freezing_Rain_/_Wind(light_rain)	True	False	49.40
2011-01-18 13:00:00 19940 13 32.60 32.60 32.60 73.3 921.30	3.53807707484	32.60	73.30	Rain_/_Freezing_Rain_/_Wind(cloudy)	True	False	73.30
2011-01-18 14:00:00 19941 14 26.90 26.90 26.90 76.2 760.30	3.53807707484	26.90	76.20	Rain_/_Freezing_Rain_/_Wind(light_rain)	True	False	76.20
2011-01-18 15:00:00 19942 15 15.84 15.84 15.84 42.7 447.60	3.53807707484	15.84	42.70	Freezing_Drizzle(light_rain)	True	False	42.70
2011-01-18 16:00:00 19943 16 9.50 9.50 9.50 9.2 101.90	9.32286555447	9.50	9.20	Freezing_Drizzle(cloudy)	True	False	9.20
2011-01-18 17:00:00 19944 17 0.09 0.09 0.09 0.0 1.00	9.32286555447	0.09	0.00	Freezing_Drizzle(cloudy)	True	False	0.00
2011-01-18 18:00:00 19945 18 0.00 0.00 0.00 0.0 0.00	30.9874888293	0.00	0.00	Cloudy(cloudy)	True	False	0.00
2011-01-18 19:00:00 19946 19 0.00 0.00 0.00 0.0 0.00	30.9874888293	0.00	0.00	Cloudy(cloudy)	True	False	0.00
2011-01-18 20:00:00 19947 20 0.00 0.00 0.00 0.0 0.00	30.9874888293	0.00	0.00	Cloudy(cloudy)	True	False	0.00
2011-01-18 21:00:00 19948 21 0.00 0.00 0.00 0.0 0.00	30.9874888293	0.00	0.00	Cloudy(cloudy)	True	False	0.00
2011-01-18 22:00:00 19949 22 0.00 0.00 0.00 0.0 0.00	30.9874888293	0.00	0.00	Cloudy(cloudy)	True	False	0.00
2011-01-18 23:00:00 19950 23 0.00 0.00 0.00 0.0 0.00	30.9874888293	0.00	0.00	Cloudy(cloudy)	True	False	0.00
2011-01-19 00:00:00 19951 0 0.00 0.00 0.00 0.0 0.00	9.32286555447	0.00	0.00	Few_Showers(mostly_cloudy)	True	False	0.00
2011-01-19 01:00:00 19952 1 0.00 0.00 0.00 0.0 0.00	9.32286555447	0.00	0.00	Few_Showers(fair)	True	False	0.00
2011-01-19 02:00:00 19953 2 0.00 0.00 0.00 0.0 0.00	9.32286555447	0.00	0.00	Few_Showers(partly_cloudy)	True	False	0.00
2011-01-19 03:00:00 19954 3 0.00 0.00 0.00 0.0 0.00	9.32286555447	0.00	0.00	Light_Wintry_Mix(mostly_cloudy)	True	False	0.00
2011-01-19 04:00:00 19955 4 0.00 0.00 0.00 0.0 0.00	9.32286555447	0.00	0.00	Light_Wintry_Mix(light_rain)	True	False	0.00
2011-01-19 05:00:00 19956 5 0.00 0.00 0.00 0.0 0.00	9.32286555447	0.00	0.00	Light_Wintry_Mix(light_rain)	True	False	0.00
2011-01-19 06:00:00 19957 6 0.00 0.00 0.00 0.0 0.00	4.71116096467	0.00	0.00	Few_Snow_Showers(fog)	True	False	0.00
2011-01-19 07:00:00 19958 7 2.34 2.34 2.34 0.5 49.60	4.71116096467	2.34	0.50	Few_Snow_Showers(cloudy)	True	False	0.50
2011-01-19 08:00:00 19959 8 18.46 18.46 18.46 28.1 391.80	4.71116096467	18.46	28.10	Few_Snow_Showers(fog)	True	False	28.10
2011-01-19 09:00:00 19960 9 27.72 27.72 27.72 122.9 697.00	3.97676496872	27.72	122.90	Showers(cloudy)	True	False	122.90
2011-01-19 10:00:00 19961 10 35.45 35.45 35.45 384.8 891.50	3.97676496872	35.45	384.80	Showers(cloudy)	True	False	384.80
2011-01-19 11:00:00 19962 11 40.44 40.44 40.44 830.0 1016.80	3.97676496872	40.44	830.00	Showers(cloudy)	True	False	830.00
2011-01-19 12:00:00 19963 12 36.36 36.36 36.36 454.8 1027.70	3.53807707484	36.36	454.80	Few_Showers(fair)	True	False	454.80
2011-01-19 13:00:00 19964 13 32.60 32.60 32.60 278.6 921.30	3.53807707484	32.60	278.60	Few_Showers(cloudy)	True	False	278.60
2011-01-19 14:00:00 19965 14 26.90 26.90 26.90 314.4 760.30	3.53807707484	26.90	314.40	Few_Showers(mostly_cloudy)	True	False	314.40
2011-01-19 15:00:00 19966 15 215.50 215.50 215.50 71.3 447.60	48.14634621	215.50	71.30	Mostly_Cloudy(cloudy)	True	False	71.30
2011-01-19 16:00:00 19967 16 31.55 31.55 31.55 25.1 101.90	30.9590577678	31.55	25.10	Mostly_Cloudy(cloudy)	True	False	25.10
