time: 	0	required: 	251.6	available: 	3500.0
time: 	37	required: 	251.6	available: 	3500.0
time: 	74	required: 	251.6	available: 	3500.0
time: 	111	required: 	251.6	available: 	3500.0
time: 	148	required: 	251.6	available: 	4162.16216216
time: 	185	required: 	251.6	available: 	4200.0
time: 	222	required: 	251.6	available: 	4200.0
