name=jan27-7nodes-test22 flags=--energy --nobrown --peak 0.0 --repl 30 --taskenergy 0.35 -d 2011-5-9T00:00:00 --speedup 24 --brownfile data/browncost-onoffpeak-winter.nj --greenfile data/shoeb-solarpower-09-05-2011 --pred -w workload/shoeb
Cleanning...
17/01/27 20:46:40 INFO security.Groups: Group mapping impl=org.apache.hadoop.security.ShellBasedUnixGroupsMapping; cacheTimeout=300000
Safe mode is OFF
17/01/27 20:47:19 INFO security.Groups: Group mapping impl=org.apache.hadoop.security.ShellBasedUnixGroupsMapping; cacheTimeout=300000
Replication 3 set: hdfs://crypt14:54310/home/shoeb/big1/501.txt
Replication 3 set: hdfs://crypt14:54310/home/shoeb/big1/502.txt
Replication 3 set: hdfs://crypt14:54310/home/shoeb/big1/503.txt
Replication 3 set: hdfs://crypt14:54310/home/shoeb/big1/504.txt
Replication 3 set: hdfs://crypt14:54310/home/shoeb/big1/505.txt
Replication 3 set: hdfs://crypt14:54310/home/shoeb/big1/506.txt
Replication 3 set: hdfs://crypt14:54310/home/shoeb/big1/507.txt
Replication 3 set: hdfs://crypt14:54310/home/shoeb/big1/508.txt
Replication 3 set: hdfs://crypt14:54310/home/shoeb/big1/509.txt
Replication 3 set: hdfs://crypt14:54310/home/shoeb/big1/510.txt
Replication 3 set: hdfs://crypt14:54310/home/shoeb/big1/511.txt
Replication 3 set: hdfs://crypt14:54310/home/shoeb/big1/512.txt
Replication 3 set: hdfs://crypt14:54310/home/shoeb/big1/513.txt
Replication 3 set: hdfs://crypt14:54310/home/shoeb/big1/514.txt
Replication 3 set: hdfs://crypt14:54310/home/shoeb/big1/515.txt
Replication 3 set: hdfs://crypt14:54310/home/shoeb/big1/516.txt
Replication 3 set: hdfs://crypt14:54310/home/shoeb/big2/501.txt
Replication 3 set: hdfs://crypt14:54310/home/shoeb/big2/502.txt
Replication 3 set: hdfs://crypt14:54310/home/shoeb/big2/503.txt
Replication 3 set: hdfs://crypt14:54310/home/shoeb/big2/504.txt
Replication 3 set: hdfs://crypt14:54310/home/shoeb/big2/505.txt
Replication 3 set: hdfs://crypt14:54310/home/shoeb/big2/506.txt
Replication 3 set: hdfs://crypt14:54310/home/shoeb/big2/507.txt
Replication 3 set: hdfs://crypt14:54310/home/shoeb/big2/508.txt
Replication 3 set: hdfs://crypt14:54310/home/shoeb/big2/509.txt
Replication 3 set: hdfs://crypt14:54310/home/shoeb/big2/510.txt
Replication 3 set: hdfs://crypt14:54310/home/shoeb/big2/511.txt
Replication 3 set: hdfs://crypt14:54310/home/shoeb/big2/512.txt
Replication 3 set: hdfs://crypt14:54310/home/shoeb/big2/513.txt
Replication 3 set: hdfs://crypt14:54310/home/shoeb/big2/514.txt
Replication 3 set: hdfs://crypt14:54310/home/shoeb/big2/515.txt
Replication 3 set: hdfs://crypt14:54310/home/shoeb/big2/516.txt
Replication 3 set: hdfs://crypt14:54310/home/shoeb/out1/_SUCCESS
Replication 3 set: hdfs://crypt14:54310/home/shoeb/out1/part-r-00000
Waiting for hdfs://crypt14:54310/home/shoeb/big1/501.txt ... done
Waiting for hdfs://crypt14:54310/home/shoeb/big1/502.txt ... done
Waiting for hdfs://crypt14:54310/home/shoeb/big1/503.txt ... done
Waiting for hdfs://crypt14:54310/home/shoeb/big1/504.txt ... done
Waiting for hdfs://crypt14:54310/home/shoeb/big1/505.txt ... done
Waiting for hdfs://crypt14:54310/home/shoeb/big1/506.txt ... done
Waiting for hdfs://crypt14:54310/home/shoeb/big1/507.txt ... done
Waiting for hdfs://crypt14:54310/home/shoeb/big1/508.txt ... done
Waiting for hdfs://crypt14:54310/home/shoeb/big1/509.txt ... done
Waiting for hdfs://crypt14:54310/home/shoeb/big1/510.txt ... done
Waiting for hdfs://crypt14:54310/home/shoeb/big1/511.txt ... done
Waiting for hdfs://crypt14:54310/home/shoeb/big1/512.txt ... done
Waiting for hdfs://crypt14:54310/home/shoeb/big1/513.txt ... done
Waiting for hdfs://crypt14:54310/home/shoeb/big1/514.txt ... done
Waiting for hdfs://crypt14:54310/home/shoeb/big1/515.txt ... done
Waiting for hdfs://crypt14:54310/home/shoeb/big1/516.txt ... done
Waiting for hdfs://crypt14:54310/home/shoeb/big2/501.txt .... done
Waiting for hdfs://crypt14:54310/home/shoeb/big2/502.txt ... done
Waiting for hdfs://crypt14:54310/home/shoeb/big2/503.txt ... done
Waiting for hdfs://crypt14:54310/home/shoeb/big2/504.txt ... done
Waiting for hdfs://crypt14:54310/home/shoeb/big2/505.txt ... done
Waiting for hdfs://crypt14:54310/home/shoeb/big2/506.txt ... done
Waiting for hdfs://crypt14:54310/home/shoeb/big2/507.txt ... done
Waiting for hdfs://crypt14:54310/home/shoeb/big2/508.txt ... done
Waiting for hdfs://crypt14:54310/home/shoeb/big2/509.txt ... done
Waiting for hdfs://crypt14:54310/home/shoeb/big2/510.txt ... done
Waiting for hdfs://crypt14:54310/home/shoeb/big2/511.txt ... done
Waiting for hdfs://crypt14:54310/home/shoeb/big2/512.txt ... done
Waiting for hdfs://crypt14:54310/home/shoeb/big2/513.txt ... done
Waiting for hdfs://crypt14:54310/home/shoeb/big2/514.txt ... done
Waiting for hdfs://crypt14:54310/home/shoeb/big2/515.txt ... done
Waiting for hdfs://crypt14:54310/home/shoeb/big2/516.txt ... done
Waiting for hdfs://crypt14:54310/home/shoeb/out1/_SUCCESS ... done
Waiting for hdfs://crypt14:54310/home/shoeb/out1/part-r-00000 ... done
Nodes:	Node	MapRed	HDFS
	crypt02:	UP	UP
	crypt03:	UP	UP
	crypt04:	UP	UP
	crypt06:	UP	UP
	crypt07:	UP	UP
	crypt08:	UP	UP
	crypt14:	UP	UP
Stopping MapReduce...
Stopping HDFS...
Stopping everything...
Cleaning log files...
Starting HDFS...
Wait until HDFS is ready...
Starting MapReduce...
Start monitoring...
Waiting until every node is ready...
	crypt08 ready!
	crypt03 ready!
	crypt02 ready!
	crypt07 ready!
	crypt14 ready!
	crypt06 ready!
	crypt04 ready!
Removing output and temporary data...
Set default data replication...
Nodes:	Node	MapRed	HDFS
	crypt02:	UP	UP
	crypt03:	UP	UP
	crypt04:	UP	UP
	crypt06:	UP	UP
	crypt07:	UP	UP
	crypt08:	UP	UP
	crypt14:	UP	UP
Finished!
Starting...
Date:        2011-05-09 00:00:00
Max time:    1h
Slot length: 10s
Slots:       360
Workload:    workload/shoeb
Brown price: data/browncost-onoffpeak-winter.nj
Green avail: data/shoeb-solarpower-09-05-2011
Speedup:     24.0x
Getting predictions... done!
Reading green availability from: data/shoeb-solarpower-09-05-2011
Reading brown price from data/browncost-onoffpeak-winter.nj
timeElapsed: 0
Required power by the scheduler: 251.6
Available green power: 1400.0
CURRENT_SHARED_SLAVES : 0 SHARED_NODE_ID : 
getNodes: {'crypt08': ['UP', 'UP'], 'crypt03': ['UP', 'UP'], 'crypt02': ['UP', 'UP'], 'crypt07': ['UP', 'UP'], 'crypt06': ['UP', 'UP'], 'crypt04': ['UP', 'UP'], 'crypt14': ['UP', 'UP']}
waiting job: ('05XVST', datetime.datetime(2017, 1, 27, 20, 47, 42, 183195), 'jar /home/shoeb/hadoop-0.21.0/hadoop-mapred-examples-0.21.0.jar wordcount', ['/home/shoeb/big2'], ['/home/shoeb/out2'], 'NORMAL')
timeElapsed: 10
Required power by the scheduler: 251.6
Available green power: 1400.0
CURRENT_SHARED_SLAVES : 0 SHARED_NODE_ID : 
getNodes: {'crypt08': ['UP', 'UP'], 'crypt03': ['UP', 'UP'], 'crypt02': ['UP', 'UP'], 'crypt07': ['UP', 'UP'], 'crypt06': ['UP', 'UP'], 'crypt04': ['UP', 'UP'], 'crypt14': ['UP', 'UP']}
timeElapsed: 20
Required power by the scheduler: 251.6
Available green power: 1400.0
CURRENT_SHARED_SLAVES : 0 SHARED_NODE_ID : 
getNodes: {'crypt08': ['UP', 'UP'], 'crypt03': ['UP', 'UP'], 'crypt02': ['UP', 'UP'], 'crypt07': ['UP', 'UP'], 'crypt14': ['UP', 'UP'], 'crypt06': ['UP', 'UP'], 'crypt04': ['UP', 'UP']}
timeElapsed: 30
Required power by the scheduler: 251.6
Available green power: 1400.0
CURRENT_SHARED_SLAVES : 0 SHARED_NODE_ID : 
getNodes: {'crypt08': ['UP', 'UP'], 'crypt03': ['UP', 'UP'], 'crypt02': ['UP', 'UP'], 'crypt07': ['UP', 'UP'], 'crypt06': ['UP', 'UP'], 'crypt04': ['UP', 'UP'], 'crypt14': ['UP', 'UP']}
timeElapsed: 40
Required power by the scheduler: 251.6
Available green power: 1400.0
CURRENT_SHARED_SLAVES : 0 SHARED_NODE_ID : 
getNodes: {'crypt08': ['UP', 'UP'], 'crypt03': ['UP', 'UP'], 'crypt02': ['UP', 'UP'], 'crypt07': ['UP', 'UP'], 'crypt06': ['UP', 'UP'], 'crypt04': ['UP', 'UP'], 'crypt14': ['UP', 'UP']}
timeElapsed: 50
Required power by the scheduler: 251.6
Available green power: 1400.0
CURRENT_SHARED_SLAVES : 0 SHARED_NODE_ID : 
getNodes: {'crypt08': ['UP', 'UP'], 'crypt03': ['UP', 'UP'], 'crypt02': ['UP', 'UP'], 'crypt07': ['UP', 'UP'], 'crypt06': ['UP', 'UP'], 'crypt04': ['UP', 'UP'], 'crypt14': ['UP', 'UP']}
timeElapsed: 60
Required power by the scheduler: 251.6
Available green power: 1400.0
CURRENT_SHARED_SLAVES : 0 SHARED_NODE_ID : 
getNodes: {'crypt08': ['UP', 'UP'], 'crypt03': ['UP', 'UP'], 'crypt02': ['UP', 'UP'], 'crypt07': ['UP', 'UP'], 'crypt06': ['UP', 'UP'], 'crypt04': ['UP', 'UP'], 'crypt14': ['UP', 'UP']}
timeElapsed: 70
38.9%
Required power by the scheduler: 251.6
Available green power: 1400.0
CURRENT_SHARED_SLAVES : 0 SHARED_NODE_ID : 
getNodes: {'crypt08': ['UP', 'UP'], 'crypt03': ['UP', 'UP'], 'crypt02': ['UP', 'UP'], 'crypt07': ['UP', 'UP'], 'crypt06': ['UP', 'UP'], 'crypt04': ['UP', 'UP'], 'crypt14': ['UP', 'UP']}
timeElapsed: 80
Required power by the scheduler: 251.6
Available green power: 1400.0
CURRENT_SHARED_SLAVES : 0 SHARED_NODE_ID : 
getNodes: {'crypt08': ['UP', 'UP'], 'crypt03': ['UP', 'UP'], 'crypt02': ['UP', 'UP'], 'crypt07': ['UP', 'UP'], 'crypt14': ['UP', 'UP'], 'crypt06': ['UP', 'UP'], 'crypt04': ['UP', 'UP']}
timeElapsed: 90
Required power by the scheduler: 251.6
Available green power: 1400.0
CURRENT_SHARED_SLAVES : 0 SHARED_NODE_ID : 
getNodes: {'crypt08': ['UP', 'UP'], 'crypt03': ['UP', 'UP'], 'crypt02': ['UP', 'UP'], 'crypt07': ['UP', 'UP'], 'crypt14': ['UP', 'UP'], 'crypt06': ['UP', 'UP'], 'crypt04': ['UP', 'UP']}
timeElapsed: 100
Required power by the scheduler: 251.6
Available green power: 1400.0
CURRENT_SHARED_SLAVES : 0 SHARED_NODE_ID : 
getNodes: {'crypt08': ['UP', 'UP'], 'crypt03': ['UP', 'UP'], 'crypt02': ['UP', 'UP'], 'crypt07': ['UP', 'UP'], 'crypt14': ['UP', 'UP'], 'crypt06': ['UP', 'UP'], 'crypt04': ['UP', 'UP']}
timeElapsed: 110
Required power by the /usr/bin/env: python2.5: No such file or directory
