name=jan27-7nodes-test2 flags=--energy --nobrown --peak 0.0 --repl 30 --taskenergy 0.35 -d 2011-5-9T00:00:00 --speedup 24 --brownfile data/browncost-onoffpeak-winter.nj --greenfile data/shoeb-solarpower-09-05-2011 --pred -w workload/shoeb
Cleanning...
Safe mode is OFF
Replication 3 set: hdfs://crypt14:54310/home/shoeb/big1/501.txt
Replication 3 set: hdfs://crypt14:54310/home/shoeb/big1/502.txt
Replication 3 set: hdfs://crypt14:54310/home/shoeb/big1/503.txt
Replication 3 set: hdfs://crypt14:54310/home/shoeb/big1/504.txt
Replication 3 set: hdfs://crypt14:54310/home/shoeb/big1/505.txt
Replication 3 set: hdfs://crypt14:54310/home/shoeb/big1/506.txt
Replication 3 set: hdfs://crypt14:54310/home/shoeb/big1/507.txt
Replication 3 set: hdfs://crypt14:54310/home/shoeb/big1/508.txt
Replication 3 set: hdfs://crypt14:54310/home/shoeb/big1/509.txt
Replication 3 set: hdfs://crypt14:54310/home/shoeb/big1/510.txt
Replication 3 set: hdfs://crypt14:54310/home/shoeb/big1/511.txt
Replication 3 set: hdfs://crypt14:54310/home/shoeb/big1/512.txt
Replication 3 set: hdfs://crypt14:54310/home/shoeb/big1/513.txt
Replication 3 set: hdfs://crypt14:54310/home/shoeb/big1/514.txt
Replication 3 set: hdfs://crypt14:54310/home/shoeb/big1/515.txt
Replication 3 set: hdfs://crypt14:54310/home/shoeb/big1/516.txt
Replication 3 set: hdfs://crypt14:54310/home/shoeb/big1/517.txt
Replication 3 set: hdfs://crypt14:54310/home/shoeb/big1/518.txt
Replication 3 set: hdfs://crypt14:54310/home/shoeb/big1/519.txt
Replication 3 set: hdfs://crypt14:54310/home/shoeb/big1/520.txt
Replication 3 set: hdfs://crypt14:54310/home/shoeb/big1/521.txt
Replication 3 set: hdfs://crypt14:54310/home/shoeb/big1/522.txt
Replication 3 set: hdfs://crypt14:54310/home/shoeb/big1/523.txt
Replication 3 set: hdfs://crypt14:54310/home/shoeb/big1/524.txt
Replication 3 set: hdfs://crypt14:54310/home/shoeb/big1/525.txt
Replication 3 set: hdfs://crypt14:54310/home/shoeb/big1/526.txt
Replication 3 set: hdfs://crypt14:54310/home/shoeb/big1/527.txt
Replication 3 set: hdfs://crypt14:54310/home/shoeb/big1/528.txt
Replication 3 set: hdfs://crypt14:54310/home/shoeb/big1/529.txt
Replication 3 set: hdfs://crypt14:54310/home/shoeb/big1/530.txt
Replication 3 set: hdfs://crypt14:54310/home/shoeb/big1/531.txt
Replication 3 set: hdfs://crypt14:54310/home/shoeb/big1/532.txt
Replication 3 set: hdfs://crypt14:54310/home/shoeb/big2/501.txt
Replication 3 set: hdfs://crypt14:54310/home/shoeb/big2/502.txt
Replication 3 set: hdfs://crypt14:54310/home/shoeb/big2/503.txt
Replication 3 set: hdfs://crypt14:54310/home/shoeb/big2/504.txt
Replication 3 set: hdfs://crypt14:54310/home/shoeb/big2/505.txt
Replication 3 set: hdfs://crypt14:54310/home/shoeb/big2/506.txt
Replication 3 set: hdfs://crypt14:54310/home/shoeb/big2/507.txt
Replication 3 set: hdfs://crypt14:54310/home/shoeb/big2/508.txt
Replication 3 set: hdfs://crypt14:54310/home/shoeb/big2/509.txt
Replication 3 set: hdfs://crypt14:54310/home/shoeb/big2/510.txt
Replication 3 set: hdfs://crypt14:54310/home/shoeb/big2/511.txt
Replication 3 set: hdfs://crypt14:54310/home/shoeb/big2/512.txt
Replication 3 set: hdfs://crypt14:54310/home/shoeb/big2/513.txt
Replication 3 set: hdfs://crypt14:54310/home/shoeb/big2/514.txt
Replication 3 set: hdfs://crypt14:54310/home/shoeb/big2/515.txt
Replication 3 set: hdfs://crypt14:54310/home/shoeb/big2/516.txt
Replication 3 set: hdfs://crypt14:54310/home/shoeb/big2/517.txt
Replication 3 set: hdfs://crypt14:54310/home/shoeb/big2/518.txt
Replication 3 set: hdfs://crypt14:54310/home/shoeb/big2/519.txt
Replication 3 set: hdfs://crypt14:54310/home/shoeb/big2/520.txt
Replication 3 set: hdfs://crypt14:54310/home/shoeb/big2/521.txt
Replication 3 set: hdfs://crypt14:54310/home/shoeb/big2/522.txt
Replication 3 set: hdfs://crypt14:54310/home/shoeb/big2/523.txt
Replication 3 set: hdfs://crypt14:54310/home/shoeb/big2/524.txt
Replication 3 set: hdfs://crypt14:54310/home/shoeb/big2/525.txt
Replication 3 set: hdfs://crypt14:54310/home/shoeb/big2/526.txt
Replication 3 set: hdfs://crypt14:54310/home/shoeb/big2/527.txt
Replication 3 set: hdfs://crypt14:54310/home/shoeb/big2/528.txt
Replication 3 set: hdfs://crypt14:54310/home/shoeb/big2/529.txt
Replication 3 set: hdfs://crypt14:54310/home/shoeb/big2/530.txt
Replication 3 set: hdfs://crypt14:54310/home/shoeb/big2/531.txt
Replication 3 set: hdfs://crypt14:54310/home/shoeb/big2/532.txt
Replication 3 set: hdfs://crypt14:54310/home/shoeb/big3/501.txt
Replication 3 set: hdfs://crypt14:54310/home/shoeb/big3/502.txt
Replication 3 set: hdfs://crypt14:54310/home/shoeb/big3/503.txt
Replication 3 set: hdfs://crypt14:54310/home/shoeb/big3/504.txt
Replication 3 set: hdfs://crypt14:54310/home/shoeb/big3/505.txt
Replication 3 set: hdfs://crypt14:54310/home/shoeb/big3/506.txt
Replication 3 set: hdfs://crypt14:54310/home/shoeb/big3/507.txt
Replication 3 set: hdfs://crypt14:54310/home/shoeb/big3/508.txt
Replication 3 set: hdfs://crypt14:54310/home/shoeb/big3/509.txt
Replication 3 set: hdfs://crypt14:54310/home/shoeb/big3/510.txt
Replication 3 set: hdfs://crypt14:54310/home/shoeb/big3/511.txt
Replication 3 set: hdfs://crypt14:54310/home/shoeb/big3/512.txt
Replication 3 set: hdfs://crypt14:54310/home/shoeb/big3/513.txt
Replication 3 set: hdfs://crypt14:54310/home/shoeb/big3/514.txt
Replication 3 set: hdfs://crypt14:54310/home/shoeb/big3/515.txt
Replication 3 set: hdfs://crypt14:54310/home/shoeb/big3/516.txt
Replication 3 set: hdfs://crypt14:54310/home/shoeb/big3/517.txt
Replication 3 set: hdfs://crypt14:54310/home/shoeb/big3/518.txt
Replication 3 set: hdfs://crypt14:54310/home/shoeb/big3/519.txt
Replication 3 set: hdfs://crypt14:54310/home/shoeb/big3/520.txt
Replication 3 set: hdfs://crypt14:54310/home/shoeb/big3/521.txt
Replication 3 set: hdfs://crypt14:54310/home/shoeb/big3/522.txt
Replication 3 set: hdfs://crypt14:54310/home/shoeb/big3/523.txt
Replication 3 set: hdfs://crypt14:54310/home/shoeb/big3/524.txt
Replication 3 set: hdfs://crypt14:54310/home/shoeb/big3/525.txt
Replication 3 set: hdfs://crypt14:54310/home/shoeb/big3/526.txt
Replication 3 set: hdfs://crypt14:54310/home/shoeb/big3/527.txt
Replication 3 set: hdfs://crypt14:54310/home/shoeb/big3/528.txt
Replication 3 set: hdfs://crypt14:54310/home/shoeb/big3/529.txt
Replication 3 set: hdfs://crypt14:54310/home/shoeb/big3/530.txt
Replication 3 set: hdfs://crypt14:54310/home/shoeb/big3/531.txt
Replication 3 set: hdfs://crypt14:54310/home/shoeb/big3/532.txt
Replication 3 set: hdfs://crypt14:54310/home/shoeb/big4/501.txt
Replication 3 set: hdfs://crypt14:54310/home/shoeb/big4/502.txt
Replication 3 set: hdfs://crypt14:54310/home/shoeb/big4/503.txt
Replication 3 set: hdfs://crypt14:54310/home/shoeb/big4/504.txt
Replication 3 set: hdfs://crypt14:54310/home/shoeb/big4/505.txt
Replication 3 set: hdfs://crypt14:54310/home/shoeb/big4/506.txt
Replication 3 set: hdfs://crypt14:54310/home/shoeb/big4/507.txt
Replication 3 set: hdfs://crypt14:54310/home/shoeb/big4/508.txt
Replication 3 set: hdfs://crypt14:54310/home/shoeb/big4/509.txt
Replication 3 set: hdfs://crypt14:54310/home/shoeb/big4/510.txt
Replication 3 set: hdfs://crypt14:54310/home/shoeb/big4/511.txt
Replication 3 set: hdfs://crypt14:54310/home/shoeb/big4/512.txt
Replication 3 set: hdfs://crypt14:54310/home/shoeb/big4/513.txt
Replication 3 set: hdfs://crypt14:54310/home/shoeb/big4/514.txt
Replication 3 set: hdfs://crypt14:54310/home/shoeb/big4/515.txt
Replication 3 set: hdfs://crypt14:54310/home/shoeb/big4/516.txt
Replication 3 set: hdfs://crypt14:54310/home/shoeb/big4/517.txt
Replication 3 set: hdfs://crypt14:54310/home/shoeb/big4/518.txt
Replication 3 set: hdfs://crypt14:54310/home/shoeb/big4/519.txt
Replication 3 set: hdfs://crypt14:54310/home/shoeb/big4/520.txt
Replication 3 set: hdfs://crypt14:54310/home/shoeb/big4/521.txt
Replication 3 set: hdfs://crypt14:54310/home/shoeb/big4/522.txt
Replication 3 set: hdfs://crypt14:54310/home/shoeb/big4/523.txt
Replication 3 set: hdfs://crypt14:54310/home/shoeb/big4/524.txt
Replication 3 set: hdfs://crypt14:54310/home/shoeb/big4/525.txt
Replication 3 set: hdfs://crypt14:54310/home/shoeb/big4/526.txt
Replication 3 set: hdfs://crypt14:54310/home/shoeb/big4/527.txt
Replication 3 set: hdfs://crypt14:54310/home/shoeb/big4/528.txt
Replication 3 set: hdfs://crypt14:54310/home/shoeb/big4/529.txt
Replication 3 set: hdfs://crypt14:54310/home/shoeb/big4/530.txt
Replication 3 set: hdfs://crypt14:54310/home/shoeb/big4/531.txt
Replication 3 set: hdfs://crypt14:54310/home/shoeb/big4/532.txt
Replication 3 set: hdfs://crypt14:54310/home/shoeb/big5/501.txt
Replication 3 set: hdfs://crypt14:54310/home/shoeb/big5/502.txt
Replication 3 set: hdfs://crypt14:54310/home/shoeb/big5/503.txt
Replication 3 set: hdfs://crypt14:54310/home/shoeb/big5/504.txt
Replication 3 set: hdfs://crypt14:54310/home/shoeb/big5/505.txt
Replication 3 set: hdfs://crypt14:54310/home/shoeb/big5/506.txt
Replication 3 set: hdfs://crypt14:54310/home/shoeb/big5/507.txt
Replication 3 set: hdfs://crypt14:54310/home/shoeb/big5/508.txt
Replication 3 set: hdfs://crypt14:54310/home/shoeb/big5/509.txt
Replication 3 set: hdfs://crypt14:54310/home/shoeb/big5/510.txt
Replication 3 set: hdfs://crypt14:54310/home/shoeb/big5/511.txt
Replication 3 set: hdfs://crypt14:54310/home/shoeb/big5/512.txt
Replication 3 set: hdfs://crypt14:54310/home/shoeb/big5/513.txt
Replication 3 set: hdfs://crypt14:54310/home/shoeb/big5/514.txt
Replication 3 set: hdfs://crypt14:54310/home/shoeb/big5/515.txt
Replication 3 set: hdfs://crypt14:54310/home/shoeb/big5/516.txt
Replication 3 set: hdfs://crypt14:54310/home/shoeb/big5/517.txt
Replication 3 set: hdfs://crypt14:54310/home/shoeb/big5/518.txt
Replication 3 set: hdfs://crypt14:54310/home/shoeb/big5/519.txt
Replication 3 set: hdfs://crypt14:54310/home/shoeb/big5/520.txt
Replication 3 set: hdfs://crypt14:54310/home/shoeb/big5/521.txt
Replication 3 set: hdfs://crypt14:54310/home/shoeb/big5/522.txt
Replication 3 set: hdfs://crypt14:54310/home/shoeb/big5/523.txt
Replication 3 set: hdfs://crypt14:54310/home/shoeb/big5/524.txt
Replication 3 set: hdfs://crypt14:54310/home/shoeb/big5/525.txt
Replication 3 set: hdfs://crypt14:54310/home/shoeb/big5/526.txt
Replication 3 set: hdfs://crypt14:54310/home/shoeb/big5/527.txt
Replication 3 set: hdfs://crypt14:54310/home/shoeb/big5/528.txt
Replication 3 set: hdfs://crypt14:54310/home/shoeb/big5/529.txt
Replication 3 set: hdfs://crypt14:54310/home/shoeb/big5/530.txt
Replication 3 set: hdfs://crypt14:54310/home/shoeb/big5/531.txt
Replication 3 set: hdfs://crypt14:54310/home/shoeb/big5/532.txt
Replication 3 set: hdfs://crypt14:54310/home/shoeb/big6/501.txt
Replication 3 set: hdfs://crypt14:54310/home/shoeb/big6/502.txt
Replication 3 set: hdfs://crypt14:54310/home/shoeb/big6/503.txt
Replication 3 set: hdfs://crypt14:54310/home/shoeb/big6/504.txt
Replication 3 set: hdfs://crypt14:54310/home/shoeb/big6/505.txt
Replication 3 set: hdfs://crypt14:54310/home/shoeb/big6/506.txt
Replication 3 set: hdfs://crypt14:54310/home/shoeb/big6/507.txt
Replication 3 set: hdfs://crypt14:54310/home/shoeb/big6/508.txt
Replication 3 set: hdfs://crypt14:54310/home/shoeb/big6/509.txt
Replication 3 set: hdfs://crypt14:54310/home/shoeb/big6/510.txt
Replication 3 set: hdfs://crypt14:54310/home/shoeb/big6/511.txt
Replication 3 set: hdfs://crypt14:54310/home/shoeb/big6/512.txt
Replication 3 set: hdfs://crypt14:54310/home/shoeb/big6/513.txt
Replication 3 set: hdfs://crypt14:54310/home/shoeb/big6/514.txt
Replication 3 set: hdfs://crypt14:54310/home/shoeb/big6/515.txt
Replication 3 set: hdfs://crypt14:54310/home/shoeb/big6/516.txt
Replication 3 set: hdfs://crypt14:54310/home/shoeb/big6/517.txt
Replication 3 set: hdfs://crypt14:54310/home/shoeb/big6/518.txt
Replication 3 set: hdfs://crypt14:54310/home/shoeb/big6/519.txt
Replication 3 set: hdfs://crypt14:54310/home/shoeb/big6/520.txt
Replication 3 set: hdfs://crypt14:54310/home/shoeb/big6/521.txt
Replication 3 set: hdfs://crypt14:54310/home/shoeb/big6/522.txt
Replication 3 set: hdfs://crypt14:54310/home/shoeb/big6/523.txt
Replication 3 set: hdfs://crypt14:54310/home/shoeb/big6/524.txt
Replication 3 set: hdfs://crypt14:54310/home/shoeb/big6/525.txt
Replication 3 set: hdfs://crypt14:54310/home/shoeb/big6/526.txt
Replication 3 set: hdfs://crypt14:54310/home/shoeb/big6/527.txt
Replication 3 set: hdfs://crypt14:54310/home/shoeb/big6/528.txt
Replication 3 set: hdfs://crypt14:54310/home/shoeb/big6/529.txt
Replication 3 set: hdfs://crypt14:54310/home/shoeb/big6/530.txt
Replication 3 set: hdfs://crypt14:54310/home/shoeb/big6/531.txt
Replication 3 set: hdfs://crypt14:54310/home/shoeb/big6/532.txt
Waiting for hdfs://crypt14:54310/home/shoeb/big1/501.txt .... done
Waiting for hdfs://crypt14:54310/home/shoeb/big1/502.txt ... done
Waiting for hdfs://crypt14:54310/home/shoeb/big1/503.txt ... done
Waiting for hdfs://crypt14:54310/home/shoeb/big1/504.txt ... done
Waiting for hdfs://crypt14:54310/home/shoeb/big1/505.txt ... done
Waiting for hdfs://crypt14:54310/home/shoeb/big1/506.txt ... done
Waiting for hdfs://crypt14:54310/home/shoeb/big1/507.txt ... done
Waiting for hdfs://crypt14:54310/home/shoeb/big1/508.txt ... done
Waiting for hdfs://crypt14:54310/home/shoeb/big1/509.txt ... done
Waiting for hdfs://crypt14:54310/home/shoeb/big1/510.txt ... done
Waiting for hdfs://crypt14:54310/home/shoeb/big1/511.txt ... done
Waiting for hdfs://crypt14:54310/home/shoeb/big1/512.txt ... done
Waiting for hdfs://crypt14:54310/home/shoeb/big1/513.txt ... done
Waiting for hdfs://crypt14:54310/home/shoeb/big1/514.txt ... done
Waiting for hdfs://crypt14:54310/home/shoeb/big1/515.txt ... done
Waiting for hdfs://crypt14:54310/home/shoeb/big1/516.txt ... done
Waiting for hdfs://crypt14:54310/home/shoeb/big1/517.txt ... done
Waiting for hdfs://crypt14:54310/home/shoeb/big1/518.txt ... done
Waiting for hdfs://crypt14:54310/home/shoeb/big1/519.txt ... done
Waiting for hdfs://crypt14:54310/home/shoeb/big1/520.txt ... done
Waiting for hdfs://crypt14:54310/home/shoeb/big1/521.txt ... done
Waiting for hdfs://crypt14:54310/home/shoeb/big1/522.txt ... done
Waiting for hdfs://crypt14:54310/home/shoeb/big1/523.txt ... done
Waiting for hdfs://crypt14:54310/home/shoeb/big1/524.txt ... done
Waiting for hdfs://crypt14:54310/home/shoeb/big1/525.txt ... done
Waiting for hdfs://crypt14:54310/home/shoeb/big1/526.txt ... done
Waiting for hdfs://crypt14:54310/home/shoeb/big1/527.txt ... done
Waiting for hdfs://crypt14:54310/home/shoeb/big1/528.txt ... done
Waiting for hdfs://crypt14:54310/home/shoeb/big1/529.txt ... done
Waiting for hdfs://crypt14:54310/home/shoeb/big1/530.txt ... done
Waiting for hdfs://crypt14:54310/home/shoeb/big1/531.txt ... done
Waiting for hdfs://crypt14:54310/home/shoeb/big1/532.txt ... done
Waiting for hdfs://crypt14:54310/home/shoeb/big2/501.txt ... done
Waiting for hdfs://crypt14:54310/home/shoeb/big2/502.txt ... done
Waiting for hdfs://crypt14:54310/home/shoeb/big2/503.txt ... done
Waiting for hdfs://crypt14:54310/home/shoeb/big2/504.txt ... done
Waiting for hdfs://crypt14:54310/home/shoeb/big2/505.txt ... done
Waiting for hdfs://crypt14:54310/home/shoeb/big2/506.txt ... done
Waiting for hdfs://crypt14:54310/home/shoeb/big2/507.txt ... done
Waiting for hdfs://crypt14:54310/home/shoeb/big2/508.txt ... done
Waiting for hdfs://crypt14:54310/home/shoeb/big2/509.txt ... done
Waiting for hdfs://crypt14:54310/home/shoeb/big2/510.txt ... done
Waiting for hdfs://crypt14:54310/home/shoeb/big2/511.txt ... done
Waiting for hdfs://crypt14:54310/home/shoeb/big2/512.txt ... done
Waiting for hdfs://crypt14:54310/home/shoeb/big2/513.txt ... done
Waiting for hdfs://crypt14:54310/home/shoeb/big2/514.txt ... done
Waiting for hdfs://crypt14:54310/home/shoeb/big2/515.txt ... done
Waiting for hdfs://crypt14:54310/home/shoeb/big2/516.txt ... done
Waiting for hdfs://crypt14:54310/home/shoeb/big2/517.txt ... done
Waiting for hdfs://crypt14:54310/home/shoeb/big2/518.txt ... done
Waiting for hdfs://crypt14:54310/home/shoeb/big2/519.txt ... done
Waiting for hdfs://crypt14:54310/home/shoeb/big2/520.txt ... done
Waiting for hdfs://crypt14:54310/home/shoeb/big2/521.txt ... done
Waiting for hdfs://crypt14:54310/home/shoeb/big2/522.txt ... done
Waiting for hdfs://crypt14:54310/home/shoeb/big2/523.txt ... done
Waiting for hdfs://crypt14:54310/home/shoeb/big2/524.txt ... done
Waiting for hdfs://crypt14:54310/home/shoeb/big2/525.txt ... done
Waiting for hdfs://crypt14:54310/home/shoeb/big2/526.txt ... done
Waiting for hdfs://crypt14:54310/home/shoeb/big2/527.txt ... done
Waiting for hdfs://crypt14:54310/home/shoeb/big2/528.txt ... done
Waiting for hdfs://crypt14:54310/home/shoeb/big2/529.txt ... done
Waiting for hdfs://crypt14:54310/home/shoeb/big2/530.txt ... done
Waiting for hdfs://crypt14:54310/home/shoeb/big2/531.txt ... done
Waiting for hdfs://crypt14:54310/home/shoeb/big2/532.txt ... done
Waiting for hdfs://crypt14:54310/home/shoeb/big3/501.txt ... done
Waiting for hdfs://crypt14:54310/home/shoeb/big3/502.txt ... done
Waiting for hdfs://crypt14:54310/home/shoeb/big3/503.txt ... done
Waiting for hdfs://crypt14:54310/home/shoeb/big3/504.txt ... done
Waiting for hdfs://crypt14:54310/home/shoeb/big3/505.txt ... done
Waiting for hdfs://crypt14:54310/home/shoeb/big3/506.txt ... done
Waiting for hdfs://crypt14:54310/home/shoeb/big3/507.txt ... done
Waiting for hdfs://crypt14:54310/home/shoeb/big3/508.txt ... done
Waiting for hdfs://crypt14:54310/home/shoeb/big3/509.txt ... done
Waiting for hdfs://crypt14:54310/home/shoeb/big3/510.txt ... done
Waiting for hdfs://crypt14:54310/home/shoeb/big3/511.txt ... done
Waiting for hdfs://crypt14:54310/home/shoeb/big3/512.txt ... done
Waiting for hdfs://crypt14:54310/home/shoeb/big3/513.txt ... done
Waiting for hdfs://crypt14:54310/home/shoeb/big3/514.txt ... done
Waiting for hdfs://crypt14:54310/home/shoeb/big3/515.txt ... done
Waiting for hdfs://crypt14:54310/home/shoeb/big3/516.txt ... done
Waiting for hdfs://crypt14:54310/home/shoeb/big3/517.txt ... done
Waiting for hdfs://crypt14:54310/home/shoeb/big3/518.txt ... done
Waiting for hdfs://crypt14:54310/home/shoeb/big3/519.txt ... done
Waiting for hdfs://crypt14:54310/home/shoeb/big3/520.txt ... done
Waiting for hdfs://crypt14:54310/home/shoeb/big3/521.txt ... done
Waiting for hdfs://crypt14:54310/home/shoeb/big3/522.txt ... done
Waiting for hdfs://crypt14:54310/home/shoeb/big3/523.txt ... done
Waiting for hdfs://crypt14:54310/home/shoeb/big3/524.txt ... done
Waiting for hdfs://crypt14:54310/home/shoeb/big3/525.txt ... done
Waiting for hdfs://crypt14:54310/home/shoeb/big3/526.txt ... done
Waiting for hdfs://crypt14:54310/home/shoeb/big3/527.txt ... done
Waiting for hdfs://crypt14:54310/home/shoeb/big3/528.txt ... done
Waiting for hdfs://crypt14:54310/home/shoeb/big3/529.txt ... done
Waiting for hdfs://crypt14:54310/home/shoeb/big3/530.txt ... done
Waiting for hdfs://crypt14:54310/home/shoeb/big3/531.txt ... done
Waiting for hdfs://crypt14:54310/home/shoeb/big3/532.txt ... done
Waiting for hdfs://crypt14:54310/home/shoeb/big4/501.txt ... done
Waiting for hdfs://crypt14:54310/home/shoeb/big4/502.txt ... done
Waiting for hdfs://crypt14:54310/home/shoeb/big4/503.txt ... done
Waiting for hdfs://crypt14:54310/home/shoeb/big4/504.txt ... done
Waiting for hdfs://crypt14:54310/home/shoeb/big4/505.txt ... done
Waiting for hdfs://crypt14:54310/home/shoeb/big4/506.txt ... done
Waiting for hdfs://crypt14:54310/home/shoeb/big4/507.txt ... done
Waiting for hdfs://crypt14:54310/home/shoeb/big4/508.txt ... done
Waiting for hdfs://crypt14:54310/home/shoeb/big4/509.txt ... done
Waiting for hdfs://crypt14:54310/home/shoeb/big4/510.txt ... done
Waiting for hdfs://crypt14:54310/home/shoeb/big4/511.txt ... done
Waiting for hdfs://crypt14:54310/home/shoeb/big4/512.txt ... done
Waiting for hdfs://crypt14:54310/home/shoeb/big4/513.txt ... done
Waiting for hdfs://crypt14:54310/home/shoeb/big4/514.txt ... done
Waiting for hdfs://crypt14:54310/home/shoeb/big4/515.txt ... done
Waiting for hdfs://crypt14:54310/home/shoeb/big4/516.txt ... done
Waiting for hdfs://crypt14:54310/home/shoeb/big4/517.txt ... done
Waiting for hdfs://crypt14:54310/home/shoeb/big4/518.txt ... done
Waiting for hdfs://crypt14:54310/home/shoeb/big4/519.txt ... done
Waiting for hdfs://crypt14:54310/home/shoeb/big4/520.txt ... done
Waiting for hdfs://crypt14:54310/home/shoeb/big4/521.txt ... done
Waiting for hdfs://crypt14:54310/home/shoeb/big4/522.txt ... done
Waiting for hdfs://crypt14:54310/home/shoeb/big4/523.txt ... done
Waiting for hdfs://crypt14:54310/home/shoeb/big4/524.txt ... done
Waiting for hdfs://crypt14:54310/home/shoeb/big4/525.txt ... done
Waiting for hdfs://crypt14:54310/home/shoeb/big4/526.txt ... done
Waiting for hdfs://crypt14:54310/home/shoeb/big4/527.txt ... done
Waiting for hdfs://crypt14:54310/home/shoeb/big4/528.txt ... done
Waiting for hdfs://crypt14:54310/home/shoeb/big4/529.txt ... done
Waiting for hdfs://crypt14:54310/home/shoeb/big4/530.txt ... done
Waiting for hdfs://crypt14:54310/home/shoeb/big4/531.txt ... done
Waiting for hdfs://crypt14:54310/home/shoeb/big4/532.txt ... done
Waiting for hdfs://crypt14:54310/home/shoeb/big5/501.txt ... done
Waiting for hdfs://crypt14:54310/home/shoeb/big5/502.txt ... done
Waiting for hdfs://crypt14:54310/home/shoeb/big5/503.txt ... done
Waiting for hdfs://crypt14:54310/home/shoeb/big5/504.txt ... done
Waiting for hdfs://crypt14:54310/home/shoeb/big5/505.txt ... done
Waiting for hdfs://crypt14:54310/home/shoeb/big5/506.txt ... done
Waiting for hdfs://crypt14:54310/home/shoeb/big5/507.txt ... done
Waiting for hdfs://crypt14:54310/home/shoeb/big5/508.txt ... done
Waiting for hdfs://crypt14:54310/home/shoeb/big5/509.txt ... done
Waiting for hdfs://crypt14:54310/home/shoeb/big5/510.txt ... done
Waiting for hdfs://crypt14:54310/home/shoeb/big5/511.txt ... done
Waiting for hdfs://crypt14:54310/home/shoeb/big5/512.txt ... done
Waiting for hdfs://crypt14:54310/home/shoeb/big5/513.txt ... done
Waiting for hdfs://crypt14:54310/home/shoeb/big5/514.txt ... done
Waiting for hdfs://crypt14:54310/home/shoeb/big5/515.txt ... done
Waiting for hdfs://crypt14:54310/home/shoeb/big5/516.txt ... done
Waiting for hdfs://crypt14:54310/home/shoeb/big5/517.txt ... done
Waiting for hdfs://crypt14:54310/home/shoeb/big5/518.txt ... done
Waiting for hdfs://crypt14:54310/home/shoeb/big5/519.txt ... done
Waiting for hdfs://crypt14:54310/home/shoeb/big5/520.txt ... done
Waiting for hdfs://crypt14:54310/home/shoeb/big5/521.txt ... done
Waiting for hdfs://crypt14:54310/home/shoeb/big5/522.txt ... done
Waiting for hdfs://crypt14:54310/home/shoeb/big5/523.txt ... done
Waiting for hdfs://crypt14:54310/home/shoeb/big5/524.txt ... done
Waiting for hdfs://crypt14:54310/home/shoeb/big5/525.txt ... done
Waiting for hdfs://crypt14:54310/home/shoeb/big5/526.txt ... done
Waiting for hdfs://crypt14:54310/home/shoeb/big5/527.txt ... done
Waiting for hdfs://crypt14:54310/home/shoeb/big5/528.txt ... done
Waiting for hdfs://crypt14:54310/home/shoeb/big5/529.txt ... done
Waiting for hdfs://crypt14:54310/home/shoeb/big5/530.txt ... done
Waiting for hdfs://crypt14:54310/home/shoeb/big5/531.txt ... done
Waiting for hdfs://crypt14:54310/home/shoeb/big5/532.txt ... done
Waiting for hdfs://crypt14:54310/home/shoeb/big6/501.txt ... done
Waiting for hdfs://crypt14:54310/home/shoeb/big6/502.txt ... done
Waiting for hdfs://crypt14:54310/home/shoeb/big6/503.txt ... done
Waiting for hdfs://crypt14:54310/home/shoeb/big6/504.txt ... done
Waiting for hdfs://crypt14:54310/home/shoeb/big6/505.txt ... done
Waiting for hdfs://crypt14:54310/home/shoeb/big6/506.txt ... done
Waiting for hdfs://crypt14:54310/home/shoeb/big6/507.txt ... done
Waiting for hdfs://crypt14:54310/home/shoeb/big6/508.txt ... done
Waiting for hdfs://crypt14:54310/home/shoeb/big6/509.txt ... done
Waiting for hdfs://crypt14:54310/home/shoeb/big6/510.txt ... done
Waiting for hdfs://crypt14:54310/home/shoeb/big6/511.txt ... done
Waiting for hdfs://crypt14:54310/home/shoeb/big6/512.txt ... done
Waiting for hdfs://crypt14:54310/home/shoeb/big6/513.txt ... done
Waiting for hdfs://crypt14:54310/home/shoeb/big6/514.txt ... done
Waiting for hdfs://crypt14:54310/home/shoeb/big6/515.txt ... done
Waiting for hdfs://crypt14:54310/home/shoeb/big6/516.txt ... done
Waiting for hdfs://crypt14:54310/home/shoeb/big6/517.txt ... done
Waiting for hdfs://crypt14:54310/home/shoeb/big6/518.txt ... done
Waiting for hdfs://crypt14:54310/home/shoeb/big6/519.txt ... done
Waiting for hdfs://crypt14:54310/home/shoeb/big6/520.txt ... done
Waiting for hdfs://crypt14:54310/home/shoeb/big6/521.txt ... done
Waiting for hdfs://crypt14:54310/home/shoeb/big6/522.txt ... done
Waiting for hdfs://crypt14:54310/home/shoeb/big6/523.txt ... done
Waiting for hdfs://crypt14:54310/home/shoeb/big6/524.txt ... done
Waiting for hdfs://crypt14:54310/home/shoeb/big6/525.txt ... done
Waiting for hdfs://crypt14:54310/home/shoeb/big6/526.txt ... done
Waiting for hdfs://crypt14:54310/home/shoeb/big6/527.txt ... done
Waiting for hdfs://crypt14:54310/home/shoeb/big6/528.txt ... done
Waiting for hdfs://crypt14:54310/home/shoeb/big6/529.txt ... done
Waiting for hdfs://crypt14:54310/home/shoeb/big6/530.txt ... done
Waiting for hdfs://crypt14:54310/home/shoeb/big6/531.txt ... done
Waiting for hdfs://crypt14:54310/home/shoeb/big6/532.txt ... done
Nodes:	Node	MapRed	HDFS
	crypt02:	UP	UP
	crypt03:	UP	UP
	crypt04:	UP	UP
	crypt06:	UP	UP
	crypt07:	UP	UP
	crypt08:	UP	UP
	crypt14:	UP	UP
Stopping MapReduce...
Stopping HDFS...
Stopping everything...
Cleaning log files...
Starting HDFS...
Wait until HDFS is ready...
Starting MapReduce...
Start monitoring...
Waiting until every node is ready...
	crypt08 ready!
	crypt03 ready!
	crypt02 ready!
	crypt07 ready!
	crypt06 ready!
	crypt04 ready!
	crypt14 ready!
Removing output and temporary data...
Set default data replication...
Nodes:	Node	MapRed	HDFS
	crypt02:	UP	UP
	crypt03:	UP	UP
	crypt04:	UP	UP
	crypt06:	UP	UP
	crypt07:	UP	UP
	crypt08:	UP	UP
	crypt14:	UP	UP
Finished!
Starting...
Date:        2011-05-09 00:00:00
Max time:    1h
Slot length: 10s
Slots:       360
Workload:    workload/shoeb
Brown price: data/browncost-onoffpeak-winter.nj
Green avail: data/shoeb-solarpower-09-05-2011
Speedup:     24.0x
Getting predictions... done!
Reading green availability from: data/shoeb-solarpower-09-05-2011
Reading brown price from data/browncost-onoffpeak-winter.nj
timeElapsed: 0
Required power by the scheduler: 251.6
Available green power: 1400.0
CURRENT_SHARED_SLAVES : 0 SHARED_NODE_ID : 
getNodes: {'crypt08': ['UP', 'UP'], 'crypt03': ['UP', 'UP'], 'crypt02': ['UP', 'UP'], 'crypt07': ['UP', 'UP'], 'crypt14': ['UP', 'UP'], 'crypt06': ['UP', 'UP'], 'crypt04': ['UP', 'UP']}
waiting job: ('CTU3KC', datetime.datetime(2017, 1, 27, 20, 9, 30, 103715), 'jar /home/shoeb/hadoop-0.21.0/hadoop-mapred-examples-0.21.0.jar wordcount', ['/home/shoeb/big1'], ['/home/shoeb/out1'], 'NORMAL')
timeElapsed: 10
Required power by the scheduler: 251.6
Available green power: 1400.0
CURRENT_SHARED_SLAVES : 0 SHARED_NODE_ID : 
getNodes: {'crypt08': ['UP', 'UP'], 'crypt03': ['UP', 'UP'], 'crypt02': ['UP', 'UP'], 'crypt07': ['UP', 'UP'], 'crypt14': ['UP', 'UP'], 'crypt06': ['UP', 'UP'], 'crypt04': ['UP', 'UP']}
timeElapsed: 20
Required power by the scheduler: 251.6
Available green power: 1400.0
CURRENT_SHARED_SLAVES : 0 SHARED_NODE_ID : 
getNodes: {'crypt08': ['UP', 'UP'], 'crypt03': ['UP', 'UP'], 'crypt02': ['UP', 'UP'], 'crypt07': ['UP', 'UP'], 'crypt14': ['UP', 'UP'], 'crypt06': ['UP', 'UP'], 'crypt04': ['UP', 'UP']}
timeElapsed: 30
Required power by the scheduler: 251.6
Available green power: 1400.0
CURRENT_SHARED_SLAVES : 0 SHARED_NODE_ID : 
getNodes: {'crypt08': ['UP', 'UP'], 'crypt03': ['UP', 'UP'], 'crypt02': ['UP', 'UP'], 'crypt07': ['UP', 'UP'], 'crypt06': ['UP', 'UP'], 'crypt04': ['UP', 'UP'], 'crypt14': ['UP', 'UP']}
timeElapsed: 40
Required power by the scheduler: 251.6
Available green power: 1400.0
CURRENT_SHARED_SLAVES : 0 SHARED_NODE_ID : 
getNodes: {'crypt08': ['UP', 'UP'], 'crypt03': ['UP', 'UP'], 'crypt02': ['UP', 'UP'], 'crypt07': ['UP', 'UP'], 'crypt06': ['UP', 'UP'], 'crypt04': ['UP', 'UP'], 'crypt14': ['UP', 'UP']}
timeElapsed: 50
Required power by the scheduler: 251.6
Available green power: 1400.0
CURRENT_SHARED_SLAVES : 0 SHARED_NODE_ID : 
getNodes: {'crypt08': ['UP', 'UP'], 'crypt03': ['UP', 'UP'], 'crypt02': ['UP', 'UP'], 'crypt07': ['UP', 'UP'], 'crypt14': ['UP', 'UP'], 'crypt06': ['UP', 'UP'], 'crypt04': ['UP', 'UP']}
timeElapsed: 60
Required power by the scheduler: 251.6
Available green power: 1400.0
CURRENT_SHARED_SLAVES : 0 SHARED_NODE_ID : 
getNodes: {'crypt08': ['UP', 'UP'], 'crypt03': ['UP', 'UP'], 'crypt02': ['UP', 'UP'], 'crypt07': ['UP', 'UP'], 'crypt14': ['UP', 'UP'], 'crypt06': ['UP', 'UP'], 'crypt04': ['UP', 'UP']}
timeElapsed: 70
38.9%
Required power by the scheduler: 251.6
Available green power: 1400.0
CURRENT_SHARED_SLAVES : 0 SHARED_NODE_ID : 
getNodes: {'crypt08': ['UP', 'UP'], 'crypt03': ['UP', 'UP'], 'crypt02': ['UP', 'UP'], 'crypt07': ['UP', 'UP'], 'crypt06': ['UP', 'UP'], 'crypt04': ['UP', 'UP'], 'crypt14': ['UP', 'UP']}
timeElapsed: 80
Required power by the scheduler: 251.6
Available green power: 1400.0
CURRENT_SHARED_SLAVES : 0 SHARED_NODE_ID : 
getNodes: {'crypt08': ['UP', 'UP'], 'crypt03': ['UP', 'UP'], 'crypt02': ['UP', 'UP'], 'crypt07': ['UP', 'UP'], 'crypt14': ['UP', 'UP'], 'crypt06': ['UP', 'UP'], 'crypt04': ['UP', 'UP']}
timeElapsed: 90
Required power by the scheduler: 251.6
Available green power: 1400.0
CURRENT_SHARED_SLAVES : 0 SHARED_NODE_ID : 
getNodes: {'crypt08': ['UP', 'UP'], 'crypt03': ['UP', 'UP'], 'crypt02': ['UP', 'UP'], 'crypt07': ['UP', 'UP'], 'crypt14': ['UP', 'UP'], 'crypt06': ['UP', 'UP'], 'crypt04': ['UP', 'UP']}
timeElapsed: 100
Required power by the scheduler: 251.6
Available green power: 1400.0
CURRENT_SHARED_SLAVES : 0 SHARED_NODE_ID : 
getNodes: {'crypt08': ['UP', 'UP'], 'crypt03': ['UP', 'UP'], 'crypt02': ['UP', 'UP'], 'crypt07': ['UP', 'UP'], 'crypt14': ['UP', 'UP'], 'crypt06': ['UP', 'UP'], 'crypt04': ['UP', 'UP']}
timeElapsed: 110
Required power by the s