time: 0 required: 251.6 available: 0.0
{'crypt08': ['UP', 'UP'], 'crypt03': ['UP', 'UP'], 'crypt02': ['UP', 'UP'], 'crypt07': ['UP', 'UP'], 'crypt14': ['UP', 'UP'], 'crypt06': ['UP', 'UP'], 'crypt04': ['UP', 'UP']}
time: 10 required: 251.6 available: 0.0
{'crypt08': ['DOWN', 'DOWN'], 'crypt03': ['DOWN', 'DOWN'], 'crypt02': ['DOWN', 'DOWN'], 'crypt07': ['DOWN', 'DOWN'], 'crypt14': ['UP', 'UP'], 'crypt06': ['DOWN', 'DOWN'], 'crypt04': ['DOWN', 'DOWN']}
time: 20 required: 251.6 available: 0.0
{'crypt08': ['DOWN', 'DOWN'], 'crypt03': ['DOWN', 'DOWN'], 'crypt02': ['DOWN', 'DOWN'], 'crypt07': ['DOWN', 'DOWN'], 'crypt14': ['UP', 'UP'], 'crypt06': ['DOWN', 'DOWN'], 'crypt04': ['DOWN', 'DOWN']}
time: 30 required: 251.6 available: 0.0
{'crypt08': ['DOWN', 'DOWN'], 'crypt03': ['DOWN', 'DOWN'], 'crypt02': ['DOWN', 'DOWN'], 'crypt07': ['DOWN', 'DOWN'], 'crypt14': ['UP', 'UP'], 'crypt06': ['DOWN', 'DOWN'], 'crypt04': ['DOWN', 'DOWN']}
time: 40 required: 251.6 available: 0.0
{'crypt08': ['DOWN', 'DOWN'], 'crypt03': ['DOWN', 'DOWN'], 'crypt02': ['DOWN', 'DOWN'], 'crypt07': ['DOWN', 'DOWN'], 'crypt06': ['DOWN', 'DOWN'], 'crypt04': ['DOWN', 'DOWN'], 'crypt14': ['UP', 'UP']}
time: 50 required: 251.6 available: 0.0
{'crypt08': ['DOWN', 'DOWN'], 'crypt03': ['DOWN', 'DOWN'], 'crypt02': ['DOWN', 'DOWN'], 'crypt07': ['DOWN', 'DOWN'], 'crypt14': ['UP', 'UP'], 'crypt06': ['DOWN', 'DOWN'], 'crypt04': ['DOWN', 'DOWN']}
time: 60 required: 251.6 available: 0.0
{'crypt08': ['DOWN', 'DOWN'], 'crypt03': ['DOWN', 'DOWN'], 'crypt02': ['DOWN', 'DOWN'], 'crypt07': ['DOWN', 'DOWN'], 'crypt06': ['DOWN', 'DOWN'], 'crypt04': ['DOWN', 'DOWN'], 'crypt14': ['UP', 'UP']}
time: 70 required: 251.6 available: 0.0
{'crypt08': ['DOWN', 'DOWN'], 'crypt03': ['DOWN', 'DOWN'], 'crypt02': ['DOWN', 'DOWN'], 'crypt07': ['DOWN', 'DOWN'], 'crypt06': ['DOWN', 'DOWN'], 'crypt04': ['DOWN', 'DOWN'], 'crypt14': ['UP', 'UP']}
time: 80 required: 251.6 available: 0.0
{'crypt08': ['DOWN', 'DOWN'], 'crypt03': ['DOWN', 'DOWN'], 'crypt02': ['DOWN', 'DOWN'], 'crypt07': ['DOWN', 'DOWN'], 'crypt06': ['DOWN', 'DOWN'], 'crypt04': ['DOWN', 'DOWN'], 'crypt14': ['UP', 'UP']}
time: 90 required: 251.6 available: 0.0
{'crypt08': ['DOWN', 'DOWN'], 'crypt03': ['DOWN', 'DOWN'], 'crypt02': ['DOWN', 'DOWN'], 'crypt07': ['DOWN', 'DOWN'], 'crypt06': ['DOWN', 'DOWN'], 'crypt04': ['DOWN', 'DOWN'], 'crypt14': ['UP', 'UP']}
time: 100 required: 251.6 available: 0.0
{'crypt08': ['DOWN', 'DOWN'], 'crypt03': ['DOWN', 'DOWN'], 'crypt02': ['DOWN', 'DOWN'], 'crypt07': ['DOWN', 'DOWN'], 'crypt14': ['UP', 'UP'], 'crypt06': ['DOWN', 'DOWN'], 'crypt04': ['DOWN', 'DOWN']}
time: 110 required: 251.6 available: 0.0
{'crypt08': ['DOWN', 'DOWN'], 'crypt03': ['DOWN', 'DOWN'], 'crypt02': ['DOWN', 'DOWN'], 'crypt07': ['DOWN', 'DOWN'], 'crypt14': ['UP', 'UP'], 'crypt06': ['DOWN', 'DOWN'], 'crypt04': ['DOWN', 'DOWN']}
time: 120 required: 251.6 available: 0.0
{'crypt08': ['DOWN', 'DOWN'], 'crypt03': ['DOWN', 'DOWN'], 'crypt02': ['DOWN', 'DOWN'], 'crypt07': ['DOWN', 'DOWN'], 'crypt06': ['DOWN', 'DOWN'], 'crypt04': ['DOWN', 'DOWN'], 'crypt14': ['UP', 'UP']}
time: 130 required: 251.6 available: 0.0
{'crypt08': ['DOWN', 'DOWN'], 'crypt03': ['DOWN', 'DOWN'], 'crypt02': ['DOWN', 'DOWN'], 'crypt07': ['DOWN', 'DOWN'], 'crypt14': ['UP', 'UP'], 'crypt06': ['DOWN', 'DOWN'], 'crypt04': ['DOWN', 'DOWN']}
time: 140 required: 251.6 available: 0.0
{'crypt08': ['DOWN', 'DOWN'], 'crypt03': ['DOWN', 'DOWN'], 'crypt02': ['DOWN', 'DOWN'], 'crypt07': ['DOWN', 'DOWN'], 'crypt14': ['UP', 'UP'], 'crypt06': ['DOWN', 'DOWN'], 'crypt04': ['DOWN', 'DOWN']}
time: 150 required: 251.6 available: 0.0
{'crypt08': ['DOWN', 'DOWN'], 'crypt03': ['DOWN', 'DOWN'], 'crypt02': ['DOWN', 'DOWN'], 'crypt07': ['DOWN', 'DOWN'], 'crypt14': ['UP', 'UP'], 'crypt06': ['DOWN', 'DOWN'], 'crypt04': ['DOWN', 'DOWN']}
time: 160 required: 251.6 available: 0.0
{'crypt08': ['DOWN', 'DOWN'], 'crypt03': ['DOWN', 'DOWN'], 'crypt02': ['DOWN', 'DOWN'], 'crypt07': ['DOWN', 'DOWN'], 'crypt06': ['DOWN', 'DOWN'], 'crypt04': ['DOWN', 'DOWN'], 'crypt14': ['UP', 'UP']}
time: 170 required: 251.6 available: 0.0
{'crypt08': ['DOWN', 'DOWN'], 'crypt03': ['DOWN', 'DOWN'], 'crypt02': ['DOWN', 'DOWN'], 'crypt07': ['DOWN', 'DOWN'], 'crypt14': ['UP', 'UP'], 'crypt06': ['DOWN', 'DOWN'], 'crypt04': ['DOWN', 'DOWN']}
time: 180 required: 251.6 available: 0.0
{'crypt08': ['DOWN', 'DOWN'], 'crypt03': ['DOWN', 'DOWN'], 'crypt02': ['DOWN', 'DOWN'], 'crypt07': ['DOWN', 'DOWN'], 'crypt14': ['UP', 'UP'], 'crypt06': ['DOWN', 'DOWN'], 'crypt04': ['DOWN', 'DOWN']}
time: 190 required: 251.6 available: 0.0
{'crypt08': ['DOWN', 'DOWN'], 'crypt03': ['DOWN', 'DOWN'], 'crypt02': ['DOWN', 'DOWN'], 'crypt07': ['DOWN', 'DOWN'], 'crypt14': ['UP', 'UP'], 'crypt06': ['DOWN', 'DOWN'], 'crypt04': ['DOWN', 'DOWN']}
time: 200 required: 251.6 available: 0.0
{'crypt08': ['DOWN', 'DOWN'], 'crypt03': ['DOWN', 'DOWN'], 'crypt02': ['DOWN', 'DOWN'], 'crypt07': ['DOWN', 'DOWN'], 'crypt06': ['DOWN', 'DOWN'], 'crypt04': ['DOWN', 'DOWN'], 'crypt14': ['UP', 'UP']}
time: 210 required: 251.6 available: 0.0
{'crypt08': ['DOWN', 'DOWN'], 'crypt03': ['DOWN', 'DOWN'], 'crypt02': ['DOWN', 'DOWN'], 'crypt07': ['DOWN', 'DOWN'], 'crypt14': ['UP', 'UP'], 'crypt06': ['DOWN', 'DOWN'], 'crypt04': ['DOWN', 'DOWN']}
time: 220 required: 251.6 available: 0.0
{'crypt08': ['DOWN', 'DOWN'], 'crypt03': ['DOWN', 'DOWN'], 'crypt02': ['DOWN', 'DOWN'], 'crypt07': ['DOWN', 'DOWN'], 'crypt06': ['DOWN', 'DOWN'], 'crypt04': ['DOWN', 'DOWN'], 'crypt14': ['UP', 'UP']}
time: 230 required: 251.6 available: 0.0
{'crypt08': ['DOWN', 'DOWN'], 'crypt03': ['DOWN', 'DOWN'], 'crypt02': ['DOWN', 'DOWN'], 'crypt07': ['DOWN', 'DOWN'], 'crypt14': ['UP', 'UP'], 'crypt06': ['DOWN', 'DOWN'], 'crypt04': ['DOWN', 'DOWN']}
time: 240 required: 251.6 available: 0.0
{'crypt08': ['DOWN', 'DOWN'], 'crypt03': ['DOWN', 'DOWN'], 'crypt02': ['DOWN', 'DOWN'], 'crypt07': ['DOWN', 'DOWN'], 'crypt14': ['UP', 'UP'], 'crypt06': ['DOWN', 'DOWN'], 'crypt04': ['DOWN', 'DOWN']}
time: 250 required: 251.6 available: 0.0
{'crypt08': ['DOWN', 'DOWN'], 'crypt03': ['DOWN', 'DOWN'], 'crypt02': ['DOWN', 'DOWN'], 'crypt07': ['DOWN', 'DOWN'], 'crypt06': ['DOWN', 'DOWN'], 'crypt04': ['DOWN', 'DOWN'], 'crypt14': ['UP', 'UP']}
time: 260 required: 251.6 available: 0.0
{'crypt08': ['DOWN', 'DOWN'], 'crypt03': ['DOWN', 'DOWN'], 'crypt02': ['DOWN', 'DOWN'], 'crypt07': ['DOWN', 'DOWN'], 'crypt14': ['UP', 'UP'], 'crypt06': ['DOWN', 'DOWN'], 'crypt04': ['DOWN', 'DOWN']}
time: 270 required: 251.6 available: 0.0
{'crypt08': ['DOWN', 'DOWN'], 'crypt03': ['DOWN', 'DOWN'], 'crypt02': ['DOWN', 'DOWN'], 'crypt07': ['DOWN', 'DOWN'], 'crypt14': ['UP', 'UP'], 'crypt06': ['DOWN', 'DOWN'], 'crypt04': ['DOWN', 'DOWN']}
time: 280 required: 251.6 available: 0.0
{'crypt08': ['DOWN', 'DOWN'], 'crypt03': ['DOWN', 'DOWN'], 'crypt02': ['DOWN', 'DOWN'], 'crypt07': ['DOWN', 'DOWN'], 'crypt06': ['DOWN', 'DOWN'], 'crypt04': ['DOWN', 'DOWN'], 'crypt14': ['UP', 'UP']}
time: 290 required: 251.6 available: 0.0
{'crypt08': ['DOWN', 'DOWN'], 'crypt03': ['DOWN', 'DOWN'], 'crypt02': ['DOWN', 'DOWN'], 'crypt07': ['DOWN', 'DOWN'], 'crypt14': ['UP', 'UP'], 'crypt06': ['DOWN', 'DOWN'], 'crypt04': ['DOWN', 'DOWN']}
time: 300 required: 251.6 available: 0.0
{'crypt08': ['DOWN', 'DOWN'], 'crypt03': ['DOWN', 'DOWN'], 'crypt02': ['DOWN', 'DOWN'], 'crypt07': ['DOWN', 'DOWN'], 'crypt14': ['UP', 'UP'], 'crypt06': ['DOWN', 'DOWN'], 'crypt04': ['DOWN', 'DOWN']}
time: 310 required: 251.6 available: 0.0
{'crypt08': ['DOWN', 'DOWN'], 'crypt03': ['DOWN', 'DOWN'], 'crypt02': ['DOWN', 'DOWN'], 'crypt07': ['DOWN', 'DOWN'], 'crypt06': ['DOWN', 'DOWN'], 'crypt04': ['DOWN', 'DOWN'], 'crypt14': ['UP', 'UP']}
time: 320 required: 251.6 available: 0.0
{'crypt08': ['DOWN', 'DOWN'], 'crypt03': ['DOWN', 'DOWN'], 'crypt02': ['DOWN', 'DOWN'], 'crypt07': ['DOWN', 'DOWN'], 'crypt14': ['UP', 'UP'], 'crypt06': ['DOWN', 'DOWN'], 'crypt04': ['DOWN', 'DOWN']}
time: 330 required: 251.6 available: 0.0
{'crypt08': ['DOWN', 'DOWN'], 'crypt03': ['DOWN', 'DOWN'], 'crypt02': ['DOWN', 'DOWN'], 'crypt07': ['DOWN', 'DOWN'], 'crypt14': ['UP', 'UP'], 'crypt06': ['DOWN', 'DOWN'], 'crypt04': ['DOWN', 'DOWN']}
time: 340 required: 251.6 available: 0.0
{'crypt08': ['DOWN', 'DOWN'], 'crypt03': ['DOWN', 'DOWN'], 'crypt02': ['DOWN', 'DOWN'], 'crypt07': ['DOWN', 'DOWN'], 'crypt14': ['UP', 'UP'], 'crypt06': ['DOWN', 'DOWN'], 'crypt04': ['DOWN', 'DOWN']}
time: 350 required: 251.6 available: 0.0
{'crypt08': ['DOWN', 'DOWN'], 'crypt03': ['DOWN', 'DOWN'], 'crypt02': ['DOWN', 'DOWN'], 'crypt07': ['DOWN', 'DOWN'], 'crypt14': ['UP', 'UP'], 'crypt06': ['DOWN', 'DOWN'], 'crypt04': ['DOWN', 'DOWN']}
time: 360 required: 251.6 available: 0.0
{'crypt08': ['DOWN', 'DOWN'], 'crypt03': ['DOWN', 'DOWN'], 'crypt02': ['DOWN', 'DOWN'], 'crypt07': ['DOWN', 'DOWN'], 'crypt14': ['UP', 'UP'], 'crypt06': ['DOWN', 'DOWN'], 'crypt04': ['DOWN', 'DOWN']}
time: 370 required: 251.6 available: 0.0
{'crypt08': ['DOWN', 'DOWN'], 'crypt03': ['DOWN', 'DOWN'], 'crypt02': ['DOWN', 'DOWN'], 'crypt07': ['DOWN', 'DOWN'], 'crypt14': ['UP', 'UP'], 'crypt06': ['DOWN', 'DOWN'], 'crypt04': ['DOWN', 'DOWN']}
time: 380 required: 251.6 available: 0.0
{'crypt08': ['DOWN', 'DOWN'], 'crypt03': ['DOWN', 'DOWN'], 'crypt02': ['DOWN', 'DOWN'], 'crypt07': ['DOWN', 'DOWN'], 'crypt14': ['UP', 'UP'], 'crypt06': ['DOWN', 'DOWN'], 'crypt04': ['DOWN', 'DOWN']}
time: 390 required: 251.6 available: 0.0
{'crypt08': ['DOWN', 'DOWN'], 'crypt03': ['DOWN', 'DOWN'], 'crypt02': ['DOWN', 'DOWN'], 'crypt07': ['DOWN', 'DOWN'], 'crypt14': ['UP', 'UP'], 'crypt06': ['DOWN', 'DOWN'], 'crypt04': ['DOWN', 'DOWN']}
time: 400 required: 251.6 available: 0.0
{'crypt08': ['DOWN', 'DOWN'], 'crypt03': ['DOWN', 'DOWN'], 'crypt02': ['DOWN', 'DOWN'], 'crypt07': ['DOWN', 'DOWN'], 'crypt06': ['DOWN', 'DOWN'], 'crypt04': ['DOWN', 'DOWN'], 'crypt14': ['UP', 'UP']}
time: 410 required: 251.6 available: 0.0
{'crypt08': ['DOWN', 'DOWN'], 'crypt03': ['DOWN', 'DOWN'], 'crypt02': ['DOWN', 'DOWN'], 'crypt07': ['DOWN', 'DOWN'], 'crypt14': ['UP', 'UP'], 'crypt06': ['DOWN', 'DOWN'], 'crypt04': ['DOWN', 'DOWN']}
time: 420 required: 251.6 available: 0.0
{'crypt08': ['DOWN', 'DOWN'], 'crypt03': ['DOWN', 'DOWN'], 'crypt02': ['DOWN', 'DOWN'], 'crypt07': ['DOWN', 'DOWN'], 'crypt14': ['UP', 'UP'], 'crypt06': ['DOWN', 'DOWN'], 'crypt04': ['DOWN', 'DOWN']}
time: 430 required: 251.6 available: 0.0
{'crypt08': ['DOWN', 'DOWN'], 'crypt03': ['DOWN', 'DOWN'], 'crypt02': ['DOWN', 'DOWN'], 'crypt07': ['DOWN', 'DOWN'], 'crypt14': ['UP', 'UP'], 'crypt06': ['DOWN', 'DOWN'], 'crypt04': ['DOWN', 'DOWN']}
time: 440 required: 251.6 available: 0.0
{'crypt08': ['DOWN', 'DOWN'], 'crypt03': ['DOWN', 'DOWN'], 'crypt02': ['DOWN', 'DOWN'], 'crypt07': ['DOWN', 'DOWN'], 'crypt14': ['UP', 'UP'], 'crypt06': ['DOWN', 'DOWN'], 'crypt04': ['DOWN', 'DOWN']}
time: 450 required: 251.6 available: 0.0
{'crypt08': ['DOWN', 'DOWN'], 'crypt03': ['DOWN', 'DOWN'], 'crypt02': ['DOWN', 'DOWN'], 'crypt07': ['DOWN', 'DOWN'], 'crypt14': ['UP', 'UP'], 'crypt06': ['DOWN', 'DOWN'], 'crypt04': ['DOWN', 'DOWN']}
time: 460 required: 251.6 available: 0.0
{'crypt08': ['DOWN', 'DOWN'], 'crypt03': ['DOWN', 'DOWN'], 'crypt02': ['DOWN', 'DOWN'], 'crypt07': ['DOWN', 'DOWN'], 'crypt06': ['DOWN', 'DOWN'], 'crypt04': ['DOWN', 'DOWN'], 'crypt14': ['UP', 'UP']}
time: 470 required: 251.6 available: 0.0
{'crypt08': ['DOWN', 'DOWN'], 'crypt03': ['DOWN', 'DOWN'], 'crypt02': ['DOWN', 'DOWN'], 'crypt07': ['DOWN', 'DOWN'], 'crypt14': ['UP', 'UP'], 'crypt06': ['DOWN', 'DOWN'], 'crypt04': ['DOWN', 'DOWN']}
time: 480 required: 251.6 available: 0.0
{'crypt08': ['DOWN', 'DOWN'], 'crypt03': ['DOWN', 'DOWN'], 'crypt02': ['DOWN', 'DOWN'], 'crypt07': ['DOWN', 'DOWN'], 'crypt06': ['DOWN', 'DOWN'], 'crypt04': ['DOWN', 'DOWN'], 'crypt14': ['UP', 'UP']}
time: 490 required: 251.6 available: 0.0
{'crypt08': ['DOWN', 'DOWN'], 'crypt03': ['DOWN', 'DOWN'], 'crypt02': ['DOWN', 'DOWN'], 'crypt07': ['DOWN', 'DOWN'], 'crypt06': ['DOWN', 'DOWN'], 'crypt04': ['DOWN', 'DOWN'], 'crypt14': ['UP', 'UP']}
time: 500 required: 251.6 available: 0.0
{'crypt08': ['DOWN', 'DOWN'], 'crypt03': ['DOWN', 'DOWN'], 'crypt02': ['DOWN', 'DOWN'], 'crypt07': ['DOWN', 'DOWN'], 'crypt14': ['UP', 'UP'], 'crypt06': ['DOWN', 'DOWN'], 'crypt04': ['DOWN', 'DOWN']}
time: 510 required: 251.6 available: 0.0
{'crypt08': ['DOWN', 'DOWN'], 'crypt03': ['DOWN', 'DOWN'], 'crypt02': ['DOWN', 'DOWN'], 'crypt07': ['DOWN', 'DOWN'], 'crypt06': ['DOWN', 'DOWN'], 'crypt04': ['DOWN', 'DOWN'], 'crypt14': ['UP', 'UP']}
time: 520 required: 251.6 available: 0.0
{'crypt08': ['DOWN', 'DOWN'], 'crypt03': ['DOWN', 'DOWN'], 'crypt02': ['DOWN', 'DOWN'], 'crypt07': ['DOWN', 'DOWN'], 'crypt14': ['UP', 'UP'], 'crypt06': ['DOWN', 'DOWN'], 'crypt04': ['DOWN', 'DOWN']}
time: 530 required: 251.6 available: 0.0
{'crypt08': ['DOWN', 'DOWN'], 'crypt03': ['DOWN', 'DOWN'], 'crypt02': ['DOWN', 'DOWN'], 'crypt07': ['DOWN', 'DOWN'], 'crypt14': ['UP', 'UP'], 'crypt06': ['DOWN', 'DOWN'], 'crypt04': ['DOWN', 'DOWN']}
time: 540 required: 251.6 available: 0.0
{'crypt08': ['DOWN', 'DOWN'], 'crypt03': ['DOWN', 'DOWN'], 'crypt02': ['DOWN', 'DOWN'], 'crypt07': ['DOWN', 'DOWN'], 'crypt14': ['UP', 'UP'], 'crypt06': ['DOWN', 'DOWN'], 'crypt04': ['DOWN', 'DOWN']}
time: 550 required: 251.6 available: 0.0
{'crypt08': ['DOWN', 'DOWN'], 'crypt03': ['DOWN', 'DOWN'], 'crypt02': ['DOWN', 'DOWN'], 'crypt07': ['DOWN', 'DOWN'], 'crypt14': ['UP', 'UP'], 'crypt06': ['DOWN', 'DOWN'], 'crypt04': ['DOWN', 'DOWN']}
time: 560 required: 251.6 available: 0.0
{'crypt08': ['DOWN', 'DOWN'], 'crypt03': ['DOWN', 'DOWN'], 'crypt02': ['DOWN', 'DOWN'], 'crypt07': ['DOWN', 'DOWN'], 'crypt06': ['DOWN', 'DOWN'], 'crypt04': ['DOWN', 'DOWN'], 'crypt14': ['UP', 'UP']}
time: 570 required: 251.6 available: 0.0
{'crypt08': ['DOWN', 'DOWN'], 'crypt03': ['DOWN', 'DOWN'], 'crypt02': ['DOWN', 'DOWN'], 'crypt07': ['DOWN', 'DOWN'], 'crypt14': ['UP', 'UP'], 'crypt06': ['DOWN', 'DOWN'], 'crypt04': ['DOWN', 'DOWN']}
time: 580 required: 251.6 available: 0.0
{'crypt08': ['DOWN', 'DOWN'], 'crypt03': ['DOWN', 'DOWN'], 'crypt02': ['DOWN', 'DOWN'], 'crypt07': ['DOWN', 'DOWN'], 'crypt14': ['UP', 'UP'], 'crypt06': ['DOWN', 'DOWN'], 'crypt04': ['DOWN', 'DOWN']}
time: 590 required: 251.6 available: 0.0
{'crypt08': ['DOWN', 'DOWN'], 'crypt03': ['DOWN', 'DOWN'], 'crypt02': ['DOWN', 'DOWN'], 'crypt07': ['DOWN', 'DOWN'], 'crypt06': ['DOWN', 'DOWN'], 'crypt04': ['DOWN', 'DOWN'], 'crypt14': ['UP', 'UP']}
time: 600 required: 251.6 available: 0.0
{'crypt08': ['DOWN', 'DOWN'], 'crypt03': ['DOWN', 'DOWN'], 'crypt02': ['DOWN', 'DOWN'], 'crypt07': ['DOWN', 'DOWN'], 'crypt14': ['UP', 'UP'], 'crypt06': ['DOWN', 'DOWN'], 'crypt04': ['DOWN', 'DOWN']}
time: 610 required: 251.6 available: 0.0
{'crypt08': ['DOWN', 'DOWN'], 'crypt03': ['DOWN', 'DOWN'], 'crypt02': ['DOWN', 'DOWN'], 'crypt07': ['DOWN', 'DOWN'], 'crypt06': ['DOWN', 'DOWN'], 'crypt04': ['DOWN', 'DOWN'], 'crypt14': ['UP', 'UP']}
time: 620 required: 251.6 available: 0.0
{'crypt08': ['DOWN', 'DOWN'], 'crypt03': ['DOWN', 'DOWN'], 'crypt02': ['DOWN', 'DOWN'], 'crypt07': ['DOWN', 'DOWN'], 'crypt14': ['UP', 'UP'], 'crypt06': ['DOWN', 'DOWN'], 'crypt04': ['DOWN', 'DOWN']}
time: 630 required: 251.6 available: 0.0
{'crypt08': ['DOWN', 'DOWN'], 'crypt03': ['DOWN', 'DOWN'], 'crypt02': ['DOWN', 'DOWN'], 'crypt07': ['DOWN', 'DOWN'], 'crypt06': ['DOWN', 'DOWN'], 'crypt04': ['DOWN', 'DOWN'], 'crypt14': ['UP', 'UP']}
time: 640 required: 251.6 available: 0.0
{'crypt08': ['DOWN', 'DOWN'], 'crypt03': ['DOWN', 'DOWN'], 'crypt02': ['DOWN', 'DOWN'], 'crypt07': ['DOWN', 'DOWN'], 'crypt14': ['UP', 'UP'], 'crypt06': ['DOWN', 'DOWN'], 'crypt04': ['DOWN', 'DOWN']}
time: 650 required: 251.6 available: 0.0
{'crypt08': ['DOWN', 'DOWN'], 'crypt03': ['DOWN', 'DOWN'], 'crypt02': ['DOWN', 'DOWN'], 'crypt07': ['DOWN', 'DOWN'], 'crypt14': ['UP', 'UP'], 'crypt06': ['DOWN', 'DOWN'], 'crypt04': ['DOWN', 'DOWN']}
time: 660 required: 251.6 available: 0.0
{'crypt08': ['DOWN', 'DOWN'], 'crypt03': ['DOWN', 'DOWN'], 'crypt02': ['DOWN', 'DOWN'], 'crypt07': ['DOWN', 'DOWN'], 'crypt14': ['UP', 'UP'], 'crypt06': ['DOWN', 'DOWN'], 'crypt04': ['DOWN', 'DOWN']}
time: 670 required: 251.6 available: 0.0
{'crypt08': ['DOWN', 'DOWN'], 'crypt03': ['DOWN', 'DOWN'], 'crypt02': ['DOWN', 'DOWN'], 'crypt07': ['DOWN', 'DOWN'], 'crypt14': ['UP', 'UP'], 'crypt06': ['DOWN', 'DOWN'], 'crypt04': ['DOWN', 'DOWN']}
time: 680 required: 251.6 available: 0.0
{'crypt08': ['DOWN', 'DOWN'], 'crypt03': ['DOWN', 'DOWN'], 'crypt02': ['DOWN', 'DOWN'], 'crypt07': ['DOWN', 'DOWN'], 'crypt14': ['UP', 'UP'], 'crypt06': ['DOWN', 'DOWN'], 'crypt04': ['DOWN', 'DOWN']}
time: 690 required: 251.6 available: 0.0
{'crypt08': ['DOWN', 'DOWN'], 'crypt03': ['DOWN', 'DOWN'], 'crypt02': ['DOWN', 'DOWN'], 'crypt07': ['DOWN', 'DOWN'], 'crypt14': ['UP', 'UP'], 'crypt06': ['DOWN', 'DOWN'], 'crypt04': ['DOWN', 'DOWN']}
time: 700 required: 251.6 available: 0.0
{'crypt08': ['DOWN', 'DOWN'], 'crypt03': ['DOWN', 'DOWN'], 'crypt02': ['DOWN', 'DOWN'], 'crypt07': ['DOWN', 'DOWN'], 'crypt14': ['UP', 'UP'], 'crypt06': ['DOWN', 'DOWN'], 'crypt04': ['DOWN', 'DOWN']}
time: 710 required: 251.6 available: 0.0
{'crypt08': ['DOWN', 'DOWN'], 'crypt03': ['DOWN', 'DOWN'], 'crypt02': ['DOWN', 'DOWN'], 'crypt07': ['DOWN', 'DOWN'], 'crypt06': ['DOWN', 'DOWN'], 'crypt04': ['DOWN', 'DOWN'], 'crypt14': ['UP', 'UP']}
time: 720 required: 251.6 available: 0.0
{'crypt08': ['DOWN', 'DOWN'], 'crypt03': ['DOWN', 'DOWN'], 'crypt02': ['DOWN', 'DOWN'], 'crypt07': ['DOWN', 'DOWN'], 'crypt14': ['UP', 'UP'], 'crypt06': ['DOWN', 'DOWN'], 'crypt04': ['DOWN', 'DOWN']}
time: 730 required: 251.6 available: 0.0
{'crypt08': ['DOWN', 'DOWN'], 'crypt03': ['DOWN', 'DOWN'], 'crypt02': ['DOWN', 'DOWN'], 'crypt07': ['DOWN', 'DOWN'], 'crypt06': ['DOWN', 'DOWN'], 'crypt04': ['DOWN', 'DOWN'], 'crypt14': ['UP', 'UP']}
time: 740 required: 251.6 available: 0.0
{'crypt08': ['DOWN', 'DOWN'], 'crypt03': ['DOWN', 'DOWN'], 'crypt02': ['DOWN', 'DOWN'], 'crypt07': ['DOWN', 'DOWN'], 'crypt14': ['UP', 'UP'], 'crypt06': ['DOWN', 'DOWN'], 'crypt04': ['DOWN', 'DOWN']}
time: 750 required: 251.6 available: 0.0
{'crypt08': ['DOWN', 'DOWN'], 'crypt03': ['DOWN', 'DOWN'], 'crypt02': ['DOWN', 'DOWN'], 'crypt07': ['DOWN', 'DOWN'], 'crypt06': ['DOWN', 'DOWN'], 'crypt04': ['DOWN', 'DOWN'], 'crypt14': ['UP', 'UP']}
time: 760 required: 251.6 available: 0.0
{'crypt08': ['DOWN', 'DOWN'], 'crypt03': ['DOWN', 'DOWN'], 'crypt02': ['DOWN', 'DOWN'], 'crypt07': ['DOWN', 'DOWN'], 'crypt14': ['UP', 'UP'], 'crypt06': ['DOWN', 'DOWN'], 'crypt04': ['DOWN', 'DOWN']}
time: 770 required: 251.6 available: 0.0
{'crypt08': ['DOWN', 'DOWN'], 'crypt03': ['DOWN', 'DOWN'], 'crypt02': ['DOWN', 'DOWN'], 'crypt07': ['DOWN', 'DOWN'], 'crypt06': ['DOWN', 'DOWN'], 'crypt04': ['DOWN', 'DOWN'], 'crypt14': ['UP', 'UP']}
time: 780 required: 251.6 available: 0.0
{'crypt08': ['DOWN', 'DOWN'], 'crypt03': ['DOWN', 'DOWN'], 'crypt02': ['DOWN', 'DOWN'], 'crypt07': ['DOWN', 'DOWN'], 'crypt14': ['UP', 'UP'], 'crypt06': ['DOWN', 'DOWN'], 'crypt04': ['DOWN', 'DOWN']}
time: 790 required: 251.6 available: 0.0
{'crypt08': ['DOWN', 'DOWN'], 'crypt03': ['DOWN', 'DOWN'], 'crypt02': ['DOWN', 'DOWN'], 'crypt07': ['DOWN', 'DOWN'], 'crypt14': ['UP', 'UP'], 'crypt06': ['DOWN', 'DOWN'], 'crypt04': ['DOWN', 'DOWN']}
time: 800 required: 251.6 available: 0.0
{'crypt08': ['DOWN', 'DOWN'], 'crypt03': ['DOWN', 'DOWN'], 'crypt02': ['DOWN', 'DOWN'], 'crypt07': ['DOWN', 'DOWN'], 'crypt14': ['UP', 'UP'], 'crypt06': ['DOWN', 'DOWN'], 'crypt04': ['DOWN', 'DOWN']}
time: 810 required: 251.6 available: 0.0
{'crypt08': ['DOWN', 'DOWN'], 'crypt03': ['DOWN', 'DOWN'], 'crypt02': ['DOWN', 'DOWN'], 'crypt07': ['DOWN', 'DOWN'], 'crypt14': ['UP', 'UP'], 'crypt06': ['DOWN', 'DOWN'], 'crypt04': ['DOWN', 'DOWN']}
time: 820 required: 251.6 available: 0.0
{'crypt08': ['DOWN', 'DOWN'], 'crypt03': ['DOWN', 'DOWN'], 'crypt02': ['DOWN', 'DOWN'], 'crypt07': ['DOWN', 'DOWN'], 'crypt06': ['DOWN', 'DOWN'], 'crypt04': ['DOWN', 'DOWN'], 'crypt14': ['UP', 'UP']}
time: 830 required: 251.6 available: 0.0
{'crypt08': ['DOWN', 'DOWN'], 'crypt03': ['DOWN', 'DOWN'], 'crypt02': ['DOWN', 'DOWN'], 'crypt07': ['DOWN', 'DOWN'], 'crypt14': ['UP', 'UP'], 'crypt06': ['DOWN', 'DOWN'], 'crypt04': ['DOWN', 'DOWN']}
time: 840 required: 251.6 available: 0.0
{'crypt08': ['DOWN', 'DOWN'], 'crypt03': ['DOWN', 'DOWN'], 'crypt02': ['DOWN', 'DOWN'], 'crypt07': ['DOWN', 'DOWN'], 'crypt14': ['UP', 'UP'], 'crypt06': ['DOWN', 'DOWN'], 'crypt04': ['DOWN', 'DOWN']}
time: 850 required: 251.6 available: 0.0
{'crypt08': ['DOWN', 'DOWN'], 'crypt03': ['DOWN', 'DOWN'], 'crypt02': ['DOWN', 'DOWN'], 'crypt07': ['DOWN', 'DOWN'], 'crypt14': ['UP', 'UP'], 'crypt06': ['DOWN', 'DOWN'], 'crypt04': ['DOWN', 'DOWN']}
time: 860 required: 251.6 available: 0.0
{'crypt08': ['DOWN', 'DOWN'], 'crypt03': ['DOWN', 'DOWN'], 'crypt02': ['DOWN', 'DOWN'], 'crypt07': ['DOWN', 'DOWN'], 'crypt14': ['UP', 'UP'], 'crypt06': ['DOWN', 'DOWN'], 'crypt04': ['DOWN', 'DOWN']}
time: 870 required: 251.6 available: 0.0
{'crypt08': ['DOWN', 'DOWN'], 'crypt03': ['DOWN', 'DOWN'], 'crypt02': ['DOWN', 'DOWN'], 'crypt07': ['DOWN', 'DOWN'], 'crypt14': ['UP', 'UP'], 'crypt06': ['DOWN', 'DOWN'], 'crypt04': ['DOWN', 'DOWN']}
time: 880 required: 251.6 available: 0.0
{'crypt08': ['DOWN', 'DOWN'], 'crypt03': ['DOWN', 'DOWN'], 'crypt02': ['DOWN', 'DOWN'], 'crypt07': ['DOWN', 'DOWN'], 'crypt14': ['UP', 'UP'], 'crypt06': ['DOWN', 'DOWN'], 'crypt04': ['DOWN', 'DOWN']}
time: 890 required: 251.6 available: 0.0
{'crypt08': ['DOWN', 'DOWN'], 'crypt03': ['DOWN', 'DOWN'], 'crypt02': ['DOWN', 'DOWN'], 'crypt07': ['DOWN', 'DOWN'], 'crypt06': ['DOWN', 'DOWN'], 'crypt04': ['DOWN', 'DOWN'], 'crypt14': ['UP', 'UP']}
time: 900 required: 251.6 available: 92.75126
{'crypt08': ['DOWN', 'DOWN'], 'crypt03': ['DOWN', 'DOWN'], 'crypt02': ['DOWN', 'DOWN'], 'crypt07': ['DOWN', 'DOWN'], 'crypt14': ['UP', 'UP'], 'crypt06': ['DOWN', 'DOWN'], 'crypt04': ['DOWN', 'DOWN']}
time: 910 required: 251.6 available: 92.75126
{'crypt08': ['DOWN', 'DOWN'], 'crypt03': ['DOWN', 'DOWN'], 'crypt02': ['DOWN', 'DOWN'], 'crypt07': ['DOWN', 'DOWN'], 'crypt14': ['UP', 'UP'], 'crypt06': ['DOWN', 'DOWN'], 'crypt04': ['DOWN', 'DOWN']}
time: 920 required: 251.6 available: 92.75126
{'crypt08': ['DOWN', 'DOWN'], 'crypt03': ['DOWN', 'DOWN'], 'crypt02': ['DOWN', 'DOWN'], 'crypt07': ['DOWN', 'DOWN'], 'crypt14': ['UP', 'UP'], 'crypt06': ['DOWN', 'DOWN'], 'crypt04': ['DOWN', 'DOWN']}
time: 930 required: 251.6 available: 92.75126
{'crypt08': ['DOWN', 'DOWN'], 'crypt03': ['DOWN', 'DOWN'], 'crypt02': ['DOWN', 'DOWN'], 'crypt07': ['DOWN', 'DOWN'], 'crypt14': ['UP', 'UP'], 'crypt06': ['DOWN', 'DOWN'], 'crypt04': ['DOWN', 'DOWN']}
time: 940 required: 251.6 available: 92.75126
{'crypt08': ['DOWN', 'DOWN'], 'crypt03': ['DOWN', 'DOWN'], 'crypt02': ['DOWN', 'DOWN'], 'crypt07': ['DOWN', 'DOWN'], 'crypt14': ['UP', 'UP'], 'crypt06': ['DOWN', 'DOWN'], 'crypt04': ['DOWN', 'DOWN']}
time: 950 required: 251.6 available: 92.75126
{'crypt08': ['DOWN', 'DOWN'], 'crypt03': ['DOWN', 'DOWN'], 'crypt02': ['DOWN', 'DOWN'], 'crypt07': ['DOWN', 'DOWN'], 'crypt14': ['UP', 'UP'], 'crypt06': ['DOWN', 'DOWN'], 'crypt04': ['DOWN', 'DOWN']}
time: 960 required: 251.6 available: 92.75126
{'crypt08': ['DOWN', 'DOWN'], 'crypt03': ['DOWN', 'DOWN'], 'crypt02': ['DOWN', 'DOWN'], 'crypt07': ['DOWN', 'DOWN'], 'crypt06': ['DOWN', 'DOWN'], 'crypt04': ['DOWN', 'DOWN'], 'crypt14': ['UP', 'UP']}
time: 970 required: 251.6 available: 92.75126
{'crypt08': ['DOWN', 'DOWN'], 'crypt03': ['DOWN', 'DOWN'], 'crypt02': ['DOWN', 'DOWN'], 'crypt07': ['DOWN', 'DOWN'], 'crypt06': ['DOWN', 'DOWN'], 'crypt04': ['DOWN', 'DOWN'], 'crypt14': ['UP', 'UP']}
time: 980 required: 251.6 available: 92.75126
{'crypt08': ['DOWN', 'DOWN'], 'crypt03': ['DOWN', 'DOWN'], 'crypt02': ['DOWN', 'DOWN'], 'crypt07': ['DOWN', 'DOWN'], 'crypt06': ['DOWN', 'DOWN'], 'crypt04': ['DOWN', 'DOWN'], 'crypt14': ['UP', 'UP']}
time: 990 required: 251.6 available: 92.75126
{'crypt08': ['DOWN', 'DOWN'], 'crypt03': ['DOWN', 'DOWN'], 'crypt02': ['DOWN', 'DOWN'], 'crypt07': ['DOWN', 'DOWN'], 'crypt14': ['UP', 'UP'], 'crypt06': ['DOWN', 'DOWN'], 'crypt04': ['DOWN', 'DOWN']}
time: 1000 required: 251.6 available: 92.75126
{'crypt08': ['DOWN', 'DOWN'], 'crypt03': ['DOWN', 'DOWN'], 'crypt02': ['DOWN', 'DOWN'], 'crypt07': ['DOWN', 'DOWN'], 'crypt06': ['DOWN', 'DOWN'], 'crypt04': ['DOWN', 'DOWN'], 'crypt14': ['UP', 'UP']}
time: 1010 required: 251.6 available: 92.75126
{'crypt08': ['DOWN', 'DOWN'], 'crypt03': ['DOWN', 'DOWN'], 'crypt02': ['DOWN', 'DOWN'], 'crypt07': ['DOWN', 'DOWN'], 'crypt06': ['DOWN', 'DOWN'], 'crypt04': ['DOWN', 'DOWN'], 'crypt14': ['UP', 'UP']}
time: 1020 required: 251.6 available: 92.75126
{'crypt08': ['DOWN', 'DOWN'], 'crypt03': ['DOWN', 'DOWN'], 'crypt02': ['DOWN', 'DOWN'], 'crypt07': ['DOWN', 'DOWN'], 'crypt14': ['UP', 'UP'], 'crypt06': ['DOWN', 'DOWN'], 'crypt04': ['DOWN', 'DOWN']}
time: 1030 required: 251.6 available: 92.75126
{'crypt08': ['DOWN', 'DOWN'], 'crypt03': ['DOWN', 'DOWN'], 'crypt02': ['DOWN', 'DOWN'], 'crypt07': ['DOWN', 'DOWN'], 'crypt06': ['DOWN', 'DOWN'], 'crypt04': ['DOWN', 'DOWN'], 'crypt14': ['UP', 'UP']}
time: 1040 required: 251.6 available: 92.75126
{'crypt08': ['DOWN', 'DOWN'], 'crypt03': ['DOWN', 'DOWN'], 'crypt02': ['DOWN', 'DOWN'], 'crypt07': ['DOWN', 'DOWN'], 'crypt06': ['DOWN', 'DOWN'], 'crypt04': ['DOWN', 'DOWN'], 'crypt14': ['UP', 'UP']}
time: 1050 required: 514.1962 available: 514.1962
{'crypt08': ['DOWN', 'DOWN'], 'crypt03': ['DOWN', 'DOWN'], 'crypt02': ['DOWN', 'DOWN'], 'crypt07': ['DOWN', 'DOWN'], 'crypt14': ['UP', 'UP'], 'crypt06': ['DOWN', 'DOWN'], 'crypt04': ['DOWN', 'DOWN']}
time: 1060 required: 514.1962 available: 514.1962
{'crypt08': ['DOWN', 'DOWN'], 'crypt03': ['DOWN', 'DOWN'], 'crypt02': ['UP', 'UP'], 'crypt07': ['DOWN', 'DOWN'], 'crypt06': ['UP', 'UP'], 'crypt04': ['DOWN', 'DOWN'], 'crypt14': ['UP', 'UP']}
time: 1070 required: 514.1962 available: 514.1962
{'crypt08': ['DOWN', 'DOWN'], 'crypt03': ['DOWN', 'DOWN'], 'crypt02': ['DEC', 'DEC'], 'crypt07': ['DOWN', 'DOWN'], 'crypt06': ['UP', 'UP'], 'crypt04': ['DOWN', 'DOWN'], 'crypt14': ['UP', 'UP']}
time: 1080 required: 514.1962 available: 514.1962
{'crypt08': ['DOWN', 'DOWN'], 'crypt03': ['UP', 'UP'], 'crypt02': ['DEC', 'DEC'], 'crypt07': ['DOWN', 'DOWN'], 'crypt06': ['UP', 'UP'], 'crypt04': ['DOWN', 'DOWN'], 'crypt14': ['UP', 'UP']}
time: 1090 required: 514.1962 available: 514.1962
{'crypt08': ['DOWN', 'DOWN'], 'crypt03': ['DOWN', 'DOWN'], 'crypt02': ['DEC', 'DEC'], 'crypt07': ['DOWN', 'DOWN'], 'crypt14': ['UP', 'UP'], 'crypt06': ['UP', 'UP'], 'crypt04': ['DOWN', 'DOWN']}
time: 1100 required: 514.1962 available: 514.1962
{'crypt08': ['DOWN', 'DOWN'], 'crypt03': ['UP', 'UP'], 'crypt02': ['DEC', 'DEC'], 'crypt07': ['DOWN', 'DOWN'], 'crypt14': ['UP', 'UP'], 'crypt06': ['UP', 'UP'], 'crypt04': ['DOWN', 'DOWN']}
time: 1110 required: 514.1962 available: 514.1962
{'crypt08': ['DOWN', 'DOWN'], 'crypt03': ['DOWN', 'DOWN'], 'crypt02': ['DEC', 'DEC'], 'crypt07': ['DOWN', 'DOWN'], 'crypt06': ['UP', 'UP'], 'crypt04': ['DOWN', 'DOWN'], 'crypt14': ['UP', 'UP']}
time: 1120 required: 514.1962 available: 514.1962
{'crypt08': ['DOWN', 'DOWN'], 'crypt03': ['UP', 'UP'], 'crypt02': ['DEC', 'DEC'], 'crypt07': ['DOWN', 'DOWN'], 'crypt14': ['UP', 'UP'], 'crypt06': ['UP', 'UP'], 'crypt04': ['DOWN', 'DOWN']}
time: 1130 required: 514.1962 available: 514.1962
{'crypt08': ['DOWN', 'DOWN'], 'crypt03': ['DOWN', 'DOWN'], 'crypt02': ['DEC', 'DEC'], 'crypt07': ['DOWN', 'DOWN'], 'crypt06': ['UP', 'UP'], 'crypt04': ['DOWN', 'DOWN'], 'crypt14': ['UP', 'UP']}
time: 1140 required: 514.1962 available: 514.1962
{'crypt08': ['DOWN', 'DOWN'], 'crypt03': ['UP', 'UP'], 'crypt02': ['DEC', 'DEC'], 'crypt07': ['DOWN', 'DOWN'], 'crypt14': ['UP', 'UP'], 'crypt06': ['UP', 'UP'], 'crypt04': ['DOWN', 'DOWN']}
time: 1150 required: 514.1962 available: 514.1962
{'crypt08': ['DOWN', 'DOWN'], 'crypt03': ['DOWN', 'DOWN'], 'crypt02': ['DEC', 'DEC'], 'crypt07': ['DOWN', 'DOWN'], 'crypt14': ['UP', 'UP'], 'crypt06': ['UP', 'UP'], 'crypt04': ['DOWN', 'DOWN']}
time: 1160 required: 514.1962 available: 514.1962
{'crypt08': ['DOWN', 'DOWN'], 'crypt03': ['UP', 'UP'], 'crypt02': ['DEC', 'DEC'], 'crypt07': ['DOWN', 'DOWN'], 'crypt06': ['UP', 'UP'], 'crypt04': ['DOWN', 'DOWN'], 'crypt14': ['UP', 'UP']}
time: 1170 required: 514.1962 available: 514.1962
{'crypt08': ['DOWN', 'DOWN'], 'crypt03': ['DOWN', 'DOWN'], 'crypt02': ['DEC', 'DEC'], 'crypt07': ['DOWN', 'DOWN'], 'crypt06': ['UP', 'UP'], 'crypt04': ['DOWN', 'DOWN'], 'crypt14': ['UP', 'UP']}
time: 1180 required: 514.1962 available: 514.1962
{'crypt08': ['DOWN', 'DOWN'], 'crypt03': ['UP', 'UP'], 'crypt02': ['DEC', 'DEC'], 'crypt07': ['DOWN', 'DOWN'], 'crypt06': ['UP', 'UP'], 'crypt04': ['DOWN', 'DOWN'], 'crypt14': ['UP', 'UP']}
time: 1190 required: 514.1962 available: 514.1962
{'crypt08': ['DOWN', 'DOWN'], 'crypt03': ['DOWN', 'DOWN'], 'crypt02': ['DEC', 'DEC'], 'crypt07': ['DOWN', 'DOWN'], 'crypt06': ['UP', 'UP'], 'crypt04': ['DOWN', 'DOWN'], 'crypt14': ['UP', 'UP']}
time: 1200 required: 1228.955 available: 1228.955
{'crypt08': ['DOWN', 'DOWN'], 'crypt03': ['UP', 'UP'], 'crypt02': ['DEC', 'DEC'], 'crypt07': ['DOWN', 'DOWN'], 'crypt14': ['UP', 'UP'], 'crypt06': ['UP', 'UP'], 'crypt04': ['DOWN', 'DOWN']}
time: 1210 required: 1228.955 available: 1228.955
{'crypt08': ['UP', 'UP'], 'crypt03': ['UP', 'UP'], 'crypt02': ['DEC', 'DEC'], 'crypt07': ['DEC', 'DEC'], 'crypt14': ['UP', 'UP'], 'crypt06': ['UP', 'UP'], 'crypt04': ['UP', 'UP']}
time: 1220 required: 1228.955 available: 1228.955
{'crypt08': ['UP', 'UP'], 'crypt03': ['UP', 'UP'], 'crypt02': ['UP', 'UP'], 'crypt07': ['DOWN', 'DOWN'], 'crypt14': ['UP', 'UP'], 'crypt06': ['UP', 'UP'], 'crypt04': ['UP', 'UP']}
time: 1230 required: 1228.955 available: 1228.955
{'crypt08': ['UP', 'UP'], 'crypt03': ['UP', 'UP'], 'crypt02': ['UP', 'UP'], 'crypt07': ['DOWN', 'DOWN'], 'crypt06': ['UP', 'UP'], 'crypt04': ['UP', 'UP'], 'crypt14': ['UP', 'UP']}
time: 1240 required: 1228.955 available: 1228.955
{'crypt08': ['UP', 'UP'], 'crypt03': ['UP', 'UP'], 'crypt02': ['UP', 'UP'], 'crypt07': ['DOWN', 'DOWN'], 'crypt06': ['UP', 'UP'], 'crypt04': ['UP', 'UP'], 'crypt14': ['UP', 'UP']}
time: 1250 required: 1228.955 available: 1228.955
{'crypt08': ['UP', 'UP'], 'crypt03': ['UP', 'UP'], 'crypt02': ['UP', 'UP'], 'crypt07': ['DOWN', 'DOWN'], 'crypt14': ['UP', 'UP'], 'crypt06': ['UP', 'UP'], 'crypt04': ['UP', 'UP']}
time: 1260 required: 1228.955 available: 1228.955
{'crypt08': ['UP', 'UP'], 'crypt03': ['UP', 'UP'], 'crypt02': ['UP', 'UP'], 'crypt07': ['DOWN', 'DOWN'], 'crypt14': ['UP', 'UP'], 'crypt06': ['UP', 'UP'], 'crypt04': ['UP', 'UP']}
time: 1270 required: 1228.955 available: 1228.955
{'crypt08': ['UP', 'UP'], 'crypt03': ['UP', 'UP'], 'crypt02': ['UP', 'UP'], 'crypt07': ['DOWN', 'DOWN'], 'crypt14': ['UP', 'UP'], 'crypt06': ['UP', 'UP'], 'crypt04': ['UP', 'UP']}
time: 1280 required: 1228.955 available: 1228.955
{'crypt08': ['UP', 'UP'], 'crypt03': ['UP', 'UP'], 'crypt02': ['UP', 'UP'], 'crypt07': ['DOWN', 'DOWN'], 'crypt06': ['UP', 'UP'], 'crypt04': ['UP', 'UP'], 'crypt14': ['UP', 'UP']}
time: 1290 required: 1228.955 available: 1228.955
{'crypt08': ['UP', 'UP'], 'crypt03': ['UP', 'UP'], 'crypt02': ['UP', 'UP'], 'crypt07': ['DOWN', 'DOWN'], 'crypt06': ['UP', 'UP'], 'crypt04': ['UP', 'UP'], 'crypt14': ['UP', 'UP']}
time: 1300 required: 1228.955 available: 1228.955
{'crypt08': ['UP', 'UP'], 'crypt03': ['UP', 'UP'], 'crypt02': ['UP', 'UP'], 'crypt07': ['DOWN', 'DOWN'], 'crypt06': ['UP', 'UP'], 'crypt04': ['UP', 'UP'], 'crypt14': ['UP', 'UP']}
time: 1310 required: 1228.955 available: 1228.955
{'crypt08': ['UP', 'UP'], 'crypt03': ['UP', 'UP'], 'crypt02': ['UP', 'UP'], 'crypt07': ['DOWN', 'DOWN'], 'crypt14': ['UP', 'UP'], 'crypt06': ['UP', 'UP'], 'crypt04': ['UP', 'UP']}
time: 1320 required: 1228.955 available: 1228.955
{'crypt08': ['UP', 'UP'], 'crypt03': ['UP', 'UP'], 'crypt02': ['UP', 'UP'], 'crypt07': ['DOWN', 'DOWN'], 'crypt14': ['UP', 'UP'], 'crypt06': ['UP', 'UP'], 'crypt04': ['UP', 'UP']}
time: 1330 required: 1228.955 available: 1228.955
{'crypt08': ['UP', 'UP'], 'crypt03': ['UP', 'UP'], 'crypt02': ['UP', 'UP'], 'crypt07': ['DOWN', 'DOWN'], 'crypt06': ['UP', 'UP'], 'crypt04': ['UP', 'UP'], 'crypt14': ['UP', 'UP']}
time: 1340 required: 1228.955 available: 1228.955
{'crypt08': ['UP', 'UP'], 'crypt03': ['UP', 'UP'], 'crypt02': ['UP', 'UP'], 'crypt07': ['DOWN', 'DOWN'], 'crypt06': ['UP', 'UP'], 'crypt04': ['UP', 'UP'], 'crypt14': ['UP', 'UP']}
time: 1350 required: 1906.184 available: 1906.184
{'crypt08': ['UP', 'UP'], 'crypt03': ['UP', 'UP'], 'crypt02': ['UP', 'UP'], 'crypt07': ['DOWN', 'DOWN'], 'crypt14': ['UP', 'UP'], 'crypt06': ['UP', 'UP'], 'crypt04': ['UP', 'UP']}
time: 1360 required: 1906.184 available: 1906.184
{'crypt08': ['UP', 'UP'], 'crypt03': ['UP', 'UP'], 'crypt02': ['UP', 'UP'], 'crypt07': ['DOWN', 'DOWN'], 'crypt14': ['UP', 'UP'], 'crypt06': ['UP', 'UP'], 'crypt04': ['UP', 'UP']}
time: 1370 required: 1906.184 available: 1906.184
{'crypt08': ['UP', 'UP'], 'crypt03': ['UP', 'UP'], 'crypt02': ['UP', 'UP'], 'crypt07': ['DOWN', 'DOWN'], 'crypt06': ['UP', 'UP'], 'crypt04': ['UP', 'UP'], 'crypt14': ['UP', 'UP']}
time: 1380 required: 1906.184 available: 1906.184
{'crypt08': ['UP', 'UP'], 'crypt03': ['UP', 'UP'], 'crypt02': ['UP', 'UP'], 'crypt07': ['DOWN', 'DOWN'], 'crypt06': ['UP', 'UP'], 'crypt04': ['UP', 'UP'], 'crypt14': ['UP', 'UP']}
time: 1390 required: 1906.184 available: 1906.184
{'crypt08': ['UP', 'UP'], 'crypt03': ['UP', 'UP'], 'crypt02': ['UP', 'UP'], 'crypt07': ['DOWN', 'DOWN'], 'crypt06': ['UP', 'UP'], 'crypt04': ['UP', 'UP'], 'crypt14': ['UP', 'UP']}
time: 1400 required: 1906.184 available: 1906.184
{'crypt08': ['UP', 'UP'], 'crypt03': ['UP', 'UP'], 'crypt02': ['UP', 'UP'], 'crypt07': ['DOWN', 'DOWN'], 'crypt06': ['UP', 'UP'], 'crypt04': ['UP', 'UP'], 'crypt14': ['UP', 'UP']}
time: 1410 required: 1906.184 available: 1906.184
{'crypt08': ['UP', 'UP'], 'crypt03': ['UP', 'UP'], 'crypt02': ['UP', 'UP'], 'crypt07': ['DOWN', 'DOWN'], 'crypt06': ['UP', 'UP'], 'crypt04': ['UP', 'UP'], 'crypt14': ['UP', 'UP']}
time: 1420 required: 1906.184 available: 1906.184
{'crypt08': ['UP', 'UP'], 'crypt03': ['UP', 'UP'], 'crypt02': ['UP', 'UP'], 'crypt07': ['DOWN', 'DOWN'], 'crypt14': ['UP', 'UP'], 'crypt06': ['UP', 'UP'], 'crypt04': ['UP', 'UP']}
time: 1430 required: 1906.184 available: 1906.184
{'crypt08': ['UP', 'UP'], 'crypt03': ['UP', 'UP'], 'crypt02': ['UP', 'UP'], 'crypt07': ['DOWN', 'DOWN'], 'crypt06': ['UP', 'UP'], 'crypt04': ['UP', 'UP'], 'crypt14': ['UP', 'UP']}
time: 1440 required: 1906.184 available: 1906.184
{'crypt08': ['UP', 'UP'], 'crypt03': ['UP', 'UP'], 'crypt02': ['UP', 'UP'], 'crypt07': ['DOWN', 'DOWN'], 'crypt06': ['UP', 'UP'], 'crypt04': ['UP', 'UP'], 'crypt14': ['UP', 'UP']}
time: 1450 required: 1906.184 available: 1906.184
{'crypt08': ['UP', 'UP'], 'crypt03': ['UP', 'UP'], 'crypt02': ['UP', 'UP'], 'crypt07': ['DOWN', 'DOWN'], 'crypt06': ['UP', 'UP'], 'crypt04': ['UP', 'UP'], 'crypt14': ['UP', 'UP']}
time: 1460 required: 1906.184 available: 1906.184
{'crypt08': ['UP', 'UP'], 'crypt03': ['UP', 'UP'], 'crypt02': ['UP', 'UP'], 'crypt07': ['DOWN', 'DOWN'], 'crypt06': ['UP', 'UP'], 'crypt04': ['UP', 'UP'], 'crypt14': ['UP', 'UP']}
time: 1470 required: 1906.184 available: 1906.184
{'crypt08': ['UP', 'UP'], 'crypt03': ['UP', 'UP'], 'crypt02': ['UP', 'UP'], 'crypt07': ['DOWN', 'DOWN'], 'crypt14': ['UP', 'UP'], 'crypt06': ['UP', 'UP'], 'crypt04': ['UP', 'UP']}
time: 1480 required: 1906.184 available: 1906.184
{'crypt08': ['UP', 'UP'], 'crypt03': ['UP', 'UP'], 'crypt02': ['UP', 'UP'], 'crypt07': ['DOWN', 'DOWN'], 'crypt14': ['UP', 'UP'], 'crypt06': ['UP', 'UP'], 'crypt04': ['UP', 'UP']}
time: 1490 required: 1906.184 available: 1906.184
{'crypt08': ['UP', 'UP'], 'crypt03': ['UP', 'UP'], 'crypt02': ['UP', 'UP'], 'crypt07': ['DOWN', 'DOWN'], 'crypt06': ['UP', 'UP'], 'crypt04': ['UP', 'UP'], 'crypt14': ['UP', 'UP']}
time: 1500 required: 2160.774 available: 2160.774
{'crypt08': ['UP', 'UP'], 'crypt03': ['UP', 'UP'], 'crypt02': ['UP', 'UP'], 'crypt07': ['DOWN', 'DOWN'], 'crypt06': ['UP', 'UP'], 'crypt04': ['UP', 'UP'], 'crypt14': ['UP', 'UP']}
time: 1510 required: 2160.774 available: 2160.774
{'crypt08': ['UP', 'UP'], 'crypt03': ['UP', 'UP'], 'crypt02': ['UP', 'UP'], 'crypt07': ['DOWN', 'DOWN'], 'crypt06': ['UP', 'UP'], 'crypt04': ['UP', 'UP'], 'crypt14': ['UP', 'UP']}
time: 1520 required: 2160.774 available: 2160.774
{'crypt08': ['UP', 'UP'], 'crypt03': ['UP', 'UP'], 'crypt02': ['UP', 'UP'], 'crypt07': ['DOWN', 'DOWN'], 'crypt14': ['UP', 'UP'], 'crypt06': ['UP', 'UP'], 'crypt04': ['UP', 'UP']}
time: 1530 required: 2160.774 available: 2160.774
{'crypt08': ['UP', 'UP'], 'crypt03': ['UP', 'UP'], 'crypt02': ['UP', 'UP'], 'crypt07': ['DOWN', 'DOWN'], 'crypt14': ['UP', 'UP'], 'crypt06': ['UP', 'UP'], 'crypt04': ['UP', 'UP']}
time: 1540 required: 2160.774 available: 2160.774
{'crypt08': ['UP', 'UP'], 'crypt03': ['UP', 'UP'], 'crypt02': ['UP', 'UP'], 'crypt07': ['DOWN', 'DOWN'], 'crypt06': ['UP', 'UP'], 'crypt04': ['UP', 'UP'], 'crypt14': ['UP', 'UP']}
time: 1550 required: 2160.774 available: 2160.774
{'crypt08': ['UP', 'UP'], 'crypt03': ['UP', 'UP'], 'crypt02': ['UP', 'UP'], 'crypt07': ['DOWN', 'DOWN'], 'crypt14': ['UP', 'UP'], 'crypt06': ['UP', 'UP'], 'crypt04': ['UP', 'UP']}
time: 1560 required: 2160.774 available: 2160.774
{'crypt08': ['UP', 'UP'], 'crypt03': ['UP', 'UP'], 'crypt02': ['UP', 'UP'], 'crypt07': ['DOWN', 'DOWN'], 'crypt06': ['UP', 'UP'], 'crypt04': ['UP', 'UP'], 'crypt14': ['UP', 'UP']}
time: 1570 required: 2160.774 available: 2160.774
{'crypt08': ['UP', 'UP'], 'crypt03': ['UP', 'UP'], 'crypt02': ['UP', 'UP'], 'crypt07': ['DOWN', 'DOWN'], 'crypt06': ['UP', 'UP'], 'crypt04': ['UP', 'UP'], 'crypt14': ['UP', 'UP']}
time: 1580 required: 2160.774 available: 2160.774
{'crypt08': ['UP', 'UP'], 'crypt03': ['UP', 'UP'], 'crypt02': ['UP', 'UP'], 'crypt07': ['DOWN', 'DOWN'], 'crypt14': ['UP', 'UP'], 'crypt06': ['UP', 'UP'], 'crypt04': ['UP', 'UP']}
time: 1590 required: 2160.774 available: 2160.774
{'crypt08': ['UP', 'UP'], 'crypt03': ['UP', 'UP'], 'crypt02': ['UP', 'UP'], 'crypt07': ['DOWN', 'DOWN'], 'crypt14': ['UP', 'UP'], 'crypt06': ['UP', 'UP'], 'crypt04': ['UP', 'UP']}
time: 1600 required: 2160.774 available: 2160.774
{'crypt08': ['UP', 'UP'], 'crypt03': ['UP', 'UP'], 'crypt02': ['UP', 'UP'], 'crypt07': ['DOWN', 'DOWN'], 'crypt06': ['UP', 'UP'], 'crypt04': ['UP', 'UP'], 'crypt14': ['UP', 'UP']}
time: 1610 required: 2160.774 available: 2160.774
{'crypt08': ['UP', 'UP'], 'crypt03': ['UP', 'UP'], 'crypt02': ['UP', 'UP'], 'crypt07': ['DOWN', 'DOWN'], 'crypt06': ['UP', 'UP'], 'crypt04': ['UP', 'UP'], 'crypt14': ['UP', 'UP']}
time: 1620 required: 2160.774 available: 2160.774
{'crypt08': ['UP', 'UP'], 'crypt03': ['UP', 'UP'], 'crypt02': ['UP', 'UP'], 'crypt07': ['DOWN', 'DOWN'], 'crypt06': ['UP', 'UP'], 'crypt04': ['UP', 'UP'], 'crypt14': ['UP', 'UP']}
time: 1630 required: 2160.774 available: 2160.774
{'crypt08': ['UP', 'UP'], 'crypt03': ['UP', 'UP'], 'crypt02': ['UP', 'UP'], 'crypt07': ['DOWN', 'DOWN'], 'crypt14': ['UP', 'UP'], 'crypt06': ['UP', 'UP'], 'crypt04': ['UP', 'UP']}
time: 1640 required: 2160.774 available: 2160.774
{'crypt08': ['UP', 'UP'], 'crypt03': ['UP', 'UP'], 'crypt02': ['UP', 'UP'], 'crypt07': ['DOWN', 'DOWN'], 'crypt06': ['UP', 'UP'], 'crypt04': ['UP', 'UP'], 'crypt14': ['UP', 'UP']}
time: 1650 required: 2569.07 available: 2569.07
{'crypt08': ['UP', 'UP'], 'crypt03': ['UP', 'UP'], 'crypt02': ['UP', 'UP'], 'crypt07': ['DOWN', 'DOWN'], 'crypt14': ['UP', 'UP'], 'crypt06': ['UP', 'UP'], 'crypt04': ['UP', 'UP']}
time: 1660 required: 2569.07 available: 2569.07
{'crypt08': ['UP', 'UP'], 'crypt03': ['UP', 'UP'], 'crypt02': ['UP', 'UP'], 'crypt07': ['DOWN', 'DOWN'], 'crypt06': ['UP', 'UP'], 'crypt04': ['UP', 'UP'], 'crypt14': ['UP', 'UP']}
time: 1670 required: 2569.07 available: 2569.07
{'crypt08': ['UP', 'UP'], 'crypt03': ['UP', 'UP'], 'crypt02': ['UP', 'UP'], 'crypt07': ['DOWN', 'DOWN'], 'crypt14': ['UP', 'UP'], 'crypt06': ['UP', 'UP'], 'crypt04': ['UP', 'UP']}
time: 1680 required: 2569.07 available: 2569.07
{'crypt08': ['UP', 'UP'], 'crypt03': ['UP', 'UP'], 'crypt02': ['UP', 'UP'], 'crypt07': ['DOWN', 'DOWN'], 'crypt06': ['UP', 'UP'], 'crypt04': ['UP', 'UP'], 'crypt14': ['UP', 'UP']}
time: 1690 required: 2569.07 available: 2569.07
{'crypt08': ['UP', 'UP'], 'crypt03': ['UP', 'UP'], 'crypt02': ['UP', 'UP'], 'crypt07': ['DOWN', 'DOWN'], 'crypt06': ['UP', 'UP'], 'crypt04': ['UP', 'UP'], 'crypt14': ['UP', 'UP']}
time: 1700 required: 2569.07 available: 2569.07
{'crypt08': ['UP', 'UP'], 'crypt03': ['UP', 'UP'], 'crypt02': ['UP', 'UP'], 'crypt07': ['DOWN', 'DOWN'], 'crypt06': ['UP', 'UP'], 'crypt04': ['UP', 'UP'], 'crypt14': ['UP', 'UP']}
time: 1710 required: 2569.07 available: 2569.07
{'crypt08': ['UP', 'UP'], 'crypt03': ['UP', 'UP'], 'crypt02': ['UP', 'UP'], 'crypt07': ['DOWN', 'DOWN'], 'crypt06': ['UP', 'UP'], 'crypt04': ['UP', 'UP'], 'crypt14': ['UP', 'UP']}
time: 1720 required: 2569.07 available: 2569.07
{'crypt08': ['UP', 'UP'], 'crypt03': ['UP', 'UP'], 'crypt02': ['UP', 'UP'], 'crypt07': ['DOWN', 'DOWN'], 'crypt14': ['UP', 'UP'], 'crypt06': ['UP', 'UP'], 'crypt04': ['UP', 'UP']}
time: 1730 required: 2569.07 available: 2569.07
{'crypt08': ['UP', 'UP'], 'crypt03': ['UP', 'UP'], 'crypt02': ['UP', 'UP'], 'crypt07': ['DOWN', 'DOWN'], 'crypt06': ['UP', 'UP'], 'crypt04': ['UP', 'UP'], 'crypt14': ['UP', 'UP']}
time: 1740 required: 2569.07 available: 2569.07
{'crypt08': ['UP', 'UP'], 'crypt03': ['UP', 'UP'], 'crypt02': ['UP', 'UP'], 'crypt07': ['DOWN', 'DOWN'], 'crypt14': ['UP', 'UP'], 'crypt06': ['UP', 'UP'], 'crypt04': ['UP', 'UP']}
time: 1750 required: 2569.07 available: 2569.07
{'crypt08': ['UP', 'UP'], 'crypt03': ['UP', 'UP'], 'crypt02': ['UP', 'UP'], 'crypt07': ['DOWN', 'DOWN'], 'crypt06': ['UP', 'UP'], 'crypt04': ['UP', 'UP'], 'crypt14': ['UP', 'UP']}
time: 1760 required: 2569.07 available: 2569.07
{'crypt08': ['UP', 'UP'], 'crypt03': ['UP', 'UP'], 'crypt02': ['UP', 'UP'], 'crypt07': ['DOWN', 'DOWN'], 'crypt06': ['UP', 'UP'], 'crypt04': ['UP', 'UP'], 'crypt14': ['UP', 'UP']}
time: 1770 required: 2569.07 available: 2569.07
{'crypt08': ['UP', 'UP'], 'crypt03': ['UP', 'UP'], 'crypt02': ['UP', 'UP'], 'crypt07': ['DOWN', 'DOWN'], 'crypt06': ['UP', 'UP'], 'crypt04': ['UP', 'UP'], 'crypt14': ['UP', 'UP']}
time: 1780 required: 2569.07 available: 2569.07
{'crypt08': ['UP', 'UP'], 'crypt03': ['UP', 'UP'], 'crypt02': ['UP', 'UP'], 'crypt07': ['DOWN', 'DOWN'], 'crypt14': ['UP', 'UP'], 'crypt06': ['UP', 'UP'], 'crypt04': ['UP', 'UP']}
time: 1790 required: 2569.07 available: 2569.07
{'crypt08': ['UP', 'UP'], 'crypt03': ['UP', 'UP'], 'crypt02': ['UP', 'UP'], 'crypt07': ['DOWN', 'DOWN'], 'crypt06': ['UP', 'UP'], 'crypt04': ['UP', 'UP'], 'crypt14': ['UP', 'UP']}
time: 1800 required: 2750.986 available: 2750.986
{'crypt08': ['UP', 'UP'], 'crypt03': ['UP', 'UP'], 'crypt02': ['UP', 'UP'], 'crypt07': ['DOWN', 'DOWN'], 'crypt06': ['UP', 'UP'], 'crypt04': ['UP', 'UP'], 'crypt14': ['UP', 'UP']}
time: 1810 required: 2750.986 available: 2750.986
{'crypt08': ['UP', 'UP'], 'crypt03': ['UP', 'UP'], 'crypt02': ['UP', 'UP'], 'crypt07': ['DOWN', 'DOWN'], 'crypt14': ['UP', 'UP'], 'crypt06': ['UP', 'UP'], 'crypt04': ['UP', 'UP']}
time: 1820 required: 2750.986 available: 2750.986
{'crypt08': ['UP', 'UP'], 'crypt03': ['UP', 'UP'], 'crypt02': ['UP', 'UP'], 'crypt07': ['DOWN', 'DOWN'], 'crypt06': ['UP', 'UP'], 'crypt04': ['UP', 'UP'], 'crypt14': ['UP', 'UP']}
time: 1830 required: 2750.986 available: 2750.986
{'crypt08': ['UP', 'UP'], 'crypt03': ['UP', 'UP'], 'crypt02': ['UP', 'UP'], 'crypt07': ['DOWN', 'DOWN'], 'crypt14': ['UP', 'UP'], 'crypt06': ['UP', 'UP'], 'crypt04': ['UP', 'UP']}
time: 1840 required: 2750.986 available: 2750.986
{'crypt08': ['UP', 'UP'], 'crypt03': ['UP', 'UP'], 'crypt02': ['UP', 'UP'], 'crypt07': ['DOWN', 'DOWN'], 'crypt06': ['UP', 'UP'], 'crypt04': ['UP', 'UP'], 'crypt14': ['UP', 'UP']}
time: 1850 required: 2750.986 available: 2750.986
{'crypt08': ['UP', 'UP'], 'crypt03': ['UP', 'UP'], 'crypt02': ['UP', 'UP'], 'crypt07': ['DOWN', 'DOWN'], 'crypt14': ['UP', 'UP'], 'crypt06': ['UP', 'UP'], 'crypt04': ['UP', 'UP']}
time: 1860 required: 2750.986 available: 2750.986
{'crypt08': ['UP', 'UP'], 'crypt03': ['UP', 'UP'], 'crypt02': ['UP', 'UP'], 'crypt07': ['DOWN', 'DOWN'], 'crypt06': ['UP', 'UP'], 'crypt04': ['UP', 'UP'], 'crypt14': ['UP', 'UP']}
time: 1870 required: 2750.986 available: 2750.986
{'crypt08': ['UP', 'UP'], 'crypt03': ['UP', 'UP'], 'crypt02': ['UP', 'UP'], 'crypt07': ['DOWN', 'DOWN'], 'crypt06': ['UP', 'UP'], 'crypt04': ['UP', 'UP'], 'crypt14': ['UP', 'UP']}
time: 1880 required: 2750.986 available: 2750.986
{'crypt08': ['UP', 'UP'], 'crypt03': ['UP', 'UP'], 'crypt02': ['UP', 'UP'], 'crypt07': ['DOWN', 'DOWN'], 'crypt06': ['UP', 'UP'], 'crypt04': ['UP', 'UP'], 'crypt14': ['UP', 'UP']}
time: 1890 required: 2750.986 available: 2750.986
{'crypt08': ['UP', 'UP'], 'crypt03': ['UP', 'UP'], 'crypt02': ['UP', 'UP'], 'crypt07': ['DOWN', 'DOWN'], 'crypt14': ['UP', 'UP'], 'crypt06': ['UP', 'UP'], 'crypt04': ['UP', 'UP']}
time: 1900 required: 2750.986 available: 2750.986
{'crypt08': ['UP', 'UP'], 'crypt03': ['UP', 'UP'], 'crypt02': ['UP', 'UP'], 'crypt07': ['DOWN', 'DOWN'], 'crypt06': ['UP', 'UP'], 'crypt04': ['UP', 'UP'], 'crypt14': ['UP', 'UP']}
time: 1910 required: 2750.986 available: 2750.986
{'crypt08': ['UP', 'UP'], 'crypt03': ['UP', 'UP'], 'crypt02': ['UP', 'UP'], 'crypt07': ['DOWN', 'DOWN'], 'crypt06': ['UP', 'UP'], 'crypt04': ['UP', 'UP'], 'crypt14': ['UP', 'UP']}
time: 1920 required: 2750.986 available: 2750.986
{'crypt08': ['UP', 'UP'], 'crypt03': ['UP', 'UP'], 'crypt02': ['UP', 'UP'], 'crypt07': ['DOWN', 'DOWN'], 'crypt14': ['UP', 'UP'], 'crypt06': ['UP', 'UP'], 'crypt04': ['UP', 'UP']}
time: 1930 required: 2750.986 available: 2750.986
{'crypt08': ['UP', 'UP'], 'crypt03': ['UP', 'UP'], 'crypt02': ['UP', 'UP'], 'crypt07': ['DOWN', 'DOWN'], 'crypt14': ['UP', 'UP'], 'crypt06': ['UP', 'UP'], 'crypt04': ['UP', 'UP']}
time: 1940 required: 2750.986 available: 2750.986
{'crypt08': ['UP', 'UP'], 'crypt03': ['UP', 'UP'], 'crypt02': ['UP', 'UP'], 'crypt07': ['DOWN', 'DOWN'], 'crypt14': ['UP', 'UP'], 'crypt06': ['UP', 'UP'], 'crypt04': ['UP', 'UP']}
time: 1950 required: 2313.052 available: 2313.052
{'crypt08': ['UP', 'UP'], 'crypt03': ['UP', 'UP'], 'crypt02': ['UP', 'UP'], 'crypt07': ['DOWN', 'DOWN'], 'crypt06': ['UP', 'UP'], 'crypt04': ['UP', 'UP'], 'crypt14': ['UP', 'UP']}
time: 1960 required: 2313.052 available: 2313.052
{'crypt08': ['UP', 'UP'], 'crypt03': ['UP', 'UP'], 'crypt02': ['UP', 'UP'], 'crypt07': ['DOWN', 'DOWN'], 'crypt06': ['UP', 'UP'], 'crypt04': ['UP', 'UP'], 'crypt14': ['UP', 'UP']}
time: 1970 required: 2313.052 available: 2313.052
{'crypt08': ['UP', 'UP'], 'crypt03': ['UP', 'UP'], 'crypt02': ['UP', 'UP'], 'crypt07': ['DOWN', 'DOWN'], 'crypt14': ['UP', 'UP'], 'crypt06': ['UP', 'UP'], 'crypt04': ['UP', 'UP']}
time: 1980 required: 2313.052 available: 2313.052
{'crypt08': ['UP', 'UP'], 'crypt03': ['UP', 'UP'], 'crypt02': ['UP', 'UP'], 'crypt07': ['DOWN', 'DOWN'], 'crypt06': ['UP', 'UP'], 'crypt04': ['UP', 'UP'], 'crypt14': ['UP', 'UP']}
time: 1990 required: 2313.052 available: 2313.052
{'crypt08': ['UP', 'UP'], 'crypt03': ['UP', 'UP'], 'crypt02': ['UP', 'UP'], 'crypt07': ['DOWN', 'DOWN'], 'crypt06': ['UP', 'UP'], 'crypt04': ['UP', 'UP'], 'crypt14': ['UP', 'UP']}
time: 2000 required: 2313.052 available: 2313.052
{'crypt08': ['UP', 'UP'], 'crypt03': ['UP', 'UP'], 'crypt02': ['UP', 'UP'], 'crypt07': ['DOWN', 'DOWN'], 'crypt14': ['UP', 'UP'], 'crypt06': ['UP', 'UP'], 'crypt04': ['UP', 'UP']}
time: 2010 required: 2313.052 available: 2313.052
{'crypt08': ['UP', 'UP'], 'crypt03': ['UP', 'UP'], 'crypt02': ['UP', 'UP'], 'crypt07': ['DOWN', 'DOWN'], 'crypt06': ['UP', 'UP'], 'crypt04': ['UP', 'UP'], 'crypt14': ['UP', 'UP']}
time: 2020 required: 2313.052 available: 2313.052
{'crypt08': ['UP', 'UP'], 'crypt03': ['UP', 'UP'], 'crypt02': ['UP', 'UP'], 'crypt07': ['DOWN', 'DOWN'], 'crypt06': ['UP', 'UP'], 'crypt04': ['UP', 'UP'], 'crypt14': ['UP', 'UP']}
time: 2030 required: 2313.052 available: 2313.052
{'crypt08': ['UP', 'UP'], 'crypt03': ['UP', 'UP'], 'crypt02': ['UP', 'UP'], 'crypt07': ['DOWN', 'DOWN'], 'crypt14': ['UP', 'UP'], 'crypt06': ['UP', 'UP'], 'crypt04': ['UP', 'UP']}
time: 2040 required: 2313.052 available: 2313.052
{'crypt08': ['UP', 'UP'], 'crypt03': ['UP', 'UP'], 'crypt02': ['UP', 'UP'], 'crypt07': ['DOWN', 'DOWN'], 'crypt06': ['UP', 'UP'], 'crypt04': ['UP', 'UP'], 'crypt14': ['UP', 'UP']}
time: 2050 required: 2313.052 available: 2313.052
{'crypt08': ['UP', 'UP'], 'crypt03': ['UP', 'UP'], 'crypt02': ['UP', 'UP'], 'crypt07': ['DOWN', 'DOWN'], 'crypt06': ['UP', 'UP'], 'crypt04': ['UP', 'UP'], 'crypt14': ['UP', 'UP']}
time: 2060 required: 2313.052 available: 2313.052
{'crypt08': ['UP', 'UP'], 'crypt03': ['UP', 'UP'], 'crypt02': ['UP', 'UP'], 'crypt07': ['DOWN', 'DOWN'], 'crypt06': ['UP', 'UP'], 'crypt04': ['UP', 'UP'], 'crypt14': ['UP', 'UP']}
time: 2070 required: 2313.052 available: 2313.052
{'crypt08': ['UP', 'UP'], 'crypt03': ['UP', 'UP'], 'crypt02': ['UP', 'UP'], 'crypt07': ['DOWN', 'DOWN'], 'crypt06': ['UP', 'UP'], 'crypt04': ['UP', 'UP'], 'crypt14': ['UP', 'UP']}
time: 2080 required: 2313.052 available: 2313.052
{'crypt08': ['UP', 'UP'], 'crypt03': ['UP', 'UP'], 'crypt02': ['UP', 'UP'], 'crypt07': ['DOWN', 'DOWN'], 'crypt14': ['UP', 'UP'], 'crypt06': ['UP', 'UP'], 'crypt04': ['UP', 'UP']}
time: 2090 required: 2313.052 available: 2313.052
{'crypt08': ['UP', 'UP'], 'crypt03': ['UP', 'UP'], 'crypt02': ['UP', 'UP'], 'crypt07': ['DOWN', 'DOWN'], 'crypt06': ['UP', 'UP'], 'crypt04': ['UP', 'UP'], 'crypt14': ['UP', 'UP']}
time: 2100 required: 2475.606 available: 2475.606
{'crypt08': ['UP', 'UP'], 'crypt03': ['UP', 'UP'], 'crypt02': ['UP', 'UP'], 'crypt07': ['DOWN', 'DOWN'], 'crypt06': ['UP', 'UP'], 'crypt04': ['UP', 'UP'], 'crypt14': ['UP', 'UP']}
time: 2110 required: 2475.606 available: 2475.606
{'crypt08': ['UP', 'UP'], 'crypt03': ['UP', 'UP'], 'crypt02': ['UP', 'UP'], 'crypt07': ['DOWN', 'DOWN'], 'crypt06': ['UP', 'UP'], 'crypt04': ['UP', 'UP'], 'crypt14': ['UP', 'UP']}
time: 2120 required: 2475.606 available: 2475.606
{'crypt08': ['UP', 'UP'], 'crypt03': ['UP', 'UP'], 'crypt02': ['UP', 'UP'], 'crypt07': ['DOWN', 'DOWN'], 'crypt14': ['UP', 'UP'], 'crypt06': ['UP', 'UP'], 'crypt04': ['UP', 'UP']}
time: 2130 required: 2475.606 available: 2475.606
{'crypt08': ['UP', 'UP'], 'crypt03': ['UP', 'UP'], 'crypt02': ['UP', 'UP'], 'crypt07': ['DOWN', 'DOWN'], 'crypt06': ['UP', 'UP'], 'crypt04': ['UP', 'UP'], 'crypt14': ['UP', 'UP']}
time: 2140 required: 2475.606 available: 2475.606
{'crypt08': ['UP', 'UP'], 'crypt03': ['UP', 'UP'], 'crypt02': ['UP', 'UP'], 'crypt07': ['DOWN', 'DOWN'], 'crypt14': ['UP', 'UP'], 'crypt06': ['UP', 'UP'], 'crypt04': ['UP', 'UP']}
time: 2150 required: 2475.606 available: 2475.606
{'crypt08': ['UP', 'UP'], 'crypt03': ['UP', 'UP'], 'crypt02': ['UP', 'UP'], 'crypt07': ['DOWN', 'DOWN'], 'crypt06': ['UP', 'UP'], 'crypt04': ['UP', 'UP'], 'crypt14': ['UP', 'UP']}
time: 2160 required: 2475.606 available: 2475.606
{'crypt08': ['UP', 'UP'], 'crypt03': ['UP', 'UP'], 'crypt02': ['UP', 'UP'], 'crypt07': ['DOWN', 'DOWN'], 'crypt14': ['UP', 'UP'], 'crypt06': ['UP', 'UP'], 'crypt04': ['UP', 'UP']}
time: 2170 required: 2475.606 available: 2475.606
{'crypt08': ['UP', 'UP'], 'crypt03': ['UP', 'UP'], 'crypt02': ['UP', 'UP'], 'crypt07': ['DOWN', 'DOWN'], 'crypt06': ['UP', 'UP'], 'crypt04': ['UP', 'UP'], 'crypt14': ['UP', 'UP']}
time: 2180 required: 2475.606 available: 2475.606
{'crypt08': ['UP', 'UP'], 'crypt03': ['UP', 'UP'], 'crypt02': ['UP', 'UP'], 'crypt07': ['DOWN', 'DOWN'], 'crypt06': ['UP', 'UP'], 'crypt04': ['UP', 'UP'], 'crypt14': ['UP', 'UP']}
time: 2190 required: 2475.606 available: 2475.606
{'crypt08': ['UP', 'UP'], 'crypt03': ['UP', 'UP'], 'crypt02': ['UP', 'UP'], 'crypt07': ['DOWN', 'DOWN'], 'crypt14': ['UP', 'UP'], 'crypt06': ['UP', 'UP'], 'crypt04': ['UP', 'UP']}
time: 2200 required: 2475.606 available: 2475.606
{'crypt08': ['UP', 'UP'], 'crypt03': ['UP', 'UP'], 'crypt02': ['UP', 'UP'], 'crypt07': ['DOWN', 'DOWN'], 'crypt14': ['UP', 'UP'], 'crypt06': ['UP', 'UP'], 'crypt04': ['UP', 'UP']}
time: 2210 required: 2475.606 available: 2475.606
{'crypt08': ['UP', 'UP'], 'crypt03': ['UP', 'UP'], 'crypt02': ['UP', 'UP'], 'crypt07': ['DOWN', 'DOWN'], 'crypt06': ['UP', 'UP'], 'crypt04': ['UP', 'UP'], 'crypt14': ['UP', 'UP']}
time: 2220 required: 2475.606 available: 2475.606
{'crypt08': ['UP', 'UP'], 'crypt03': ['UP', 'UP'], 'crypt02': ['UP', 'UP'], 'crypt07': ['DOWN', 'DOWN'], 'crypt06': ['UP', 'UP'], 'crypt04': ['UP', 'UP'], 'crypt14': ['UP', 'UP']}
time: 2230 required: 2475.606 available: 2475.606
{'crypt08': ['UP', 'UP'], 'crypt03': ['UP', 'UP'], 'crypt02': ['UP', 'UP'], 'crypt07': ['DOWN', 'DOWN'], 'crypt06': ['UP', 'UP'], 'crypt04': ['UP', 'UP'], 'crypt14': ['UP', 'UP']}
time: 2240 required: 2475.606 available: 2475.606
{'crypt08': ['UP', 'UP'], 'crypt03': ['UP', 'UP'], 'crypt02': ['UP', 'UP'], 'crypt07': ['DOWN', 'DOWN'], 'crypt14': ['UP', 'UP'], 'crypt06': ['UP', 'UP'], 'crypt04': ['UP', 'UP']}
time: 2250 required: 2205.952 available: 2205.952
{'crypt08': ['UP', 'UP'], 'crypt03': ['UP', 'UP'], 'crypt02': ['UP', 'UP'], 'crypt07': ['DOWN', 'DOWN'], 'crypt06': ['UP', 'UP'], 'crypt04': ['UP', 'UP'], 'crypt14': ['UP', 'UP']}
time: 2260 required: 2205.952 available: 2205.952
{'crypt08': ['UP', 'UP'], 'crypt03': ['UP', 'UP'], 'crypt02': ['UP', 'UP'], 'crypt07': ['DOWN', 'DOWN'], 'crypt06': ['UP', 'UP'], 'crypt04': ['UP', 'UP'], 'crypt14': ['UP', 'UP']}
time: 2270 required: 2205.952 available: 2205.952
{'crypt08': ['UP', 'UP'], 'crypt03': ['UP', 'UP'], 'crypt02': ['UP', 'UP'], 'crypt07': ['DOWN', 'DOWN'], 'crypt14': ['UP', 'UP'], 'crypt06': ['UP', 'UP'], 'crypt04': ['UP', 'UP']}
time: 2280 required: 2205.952 available: 2205.952
{'crypt08': ['UP', 'UP'], 'crypt03': ['UP', 'UP'], 'crypt02': ['UP', 'UP'], 'crypt07': ['DOWN', 'DOWN'], 'crypt14': ['UP', 'UP'], 'crypt06': ['UP', 'UP'], 'crypt04': ['UP', 'UP']}
time: 2290 required: 2205.952 available: 2205.952
{'crypt08': ['UP', 'UP'], 'crypt03': ['UP', 'UP'], 'crypt02': ['UP', 'UP'], 'crypt07': ['DOWN', 'DOWN'], 'crypt14': ['UP', 'UP'], 'crypt06': ['UP', 'UP'], 'crypt04': ['UP', 'UP']}
time: 2300 required: 2205.952 available: 2205.952
{'crypt08': ['UP', 'UP'], 'crypt03': ['UP', 'UP'], 'crypt02': ['UP', 'UP'], 'crypt07': ['DOWN', 'DOWN'], 'crypt06': ['UP', 'UP'], 'crypt04': ['UP', 'UP'], 'crypt14': ['UP', 'UP']}
time: 2310 required: 2205.952 available: 2205.952
{'crypt08': ['UP', 'UP'], 'crypt03': ['UP', 'UP'], 'crypt02': ['UP', 'UP'], 'crypt07': ['DOWN', 'DOWN'], 'crypt14': ['UP', 'UP'], 'crypt06': ['UP', 'UP'], 'crypt04': ['UP', 'UP']}
time: 2320 required: 2205.952 available: 2205.952
{'crypt08': ['UP', 'UP'], 'crypt03': ['UP', 'UP'], 'crypt02': ['UP', 'UP'], 'crypt07': ['DOWN', 'DOWN'], 'crypt06': ['UP', 'UP'], 'crypt04': ['UP', 'UP'], 'crypt14': ['UP', 'UP']}
time: 2330 required: 2205.952 available: 2205.952
{'crypt08': ['UP', 'UP'], 'crypt03': ['UP', 'UP'], 'crypt02': ['UP', 'UP'], 'crypt07': ['DOWN', 'DOWN'], 'crypt06': ['UP', 'UP'], 'crypt04': ['UP', 'UP'], 'crypt14': ['UP', 'UP']}
time: 2340 required: 2205.952 available: 2205.952
{'crypt08': ['UP', 'UP'], 'crypt03': ['UP', 'UP'], 'crypt02': ['UP', 'UP'], 'crypt07': ['DOWN', 'DOWN'], 'crypt14': ['UP', 'UP'], 'crypt06': ['UP', 'UP'], 'crypt04': ['UP', 'UP']}
time: 2350 required: 2205.952 available: 2205.952
{'crypt08': ['UP', 'UP'], 'crypt03': ['UP', 'UP'], 'crypt02': ['UP', 'UP'], 'crypt07': ['DOWN', 'DOWN'], 'crypt06': ['UP', 'UP'], 'crypt04': ['UP', 'UP'], 'crypt14': ['UP', 'UP']}
time: 2360 required: 2205.952 available: 2205.952
{'crypt08': ['UP', 'UP'], 'crypt03': ['UP', 'UP'], 'crypt02': ['UP', 'UP'], 'crypt07': ['DOWN', 'DOWN'], 'crypt06': ['UP', 'UP'], 'crypt04': ['UP', 'UP'], 'crypt14': ['UP', 'UP']}
time: 2370 required: 2205.952 available: 2205.952
{'crypt08': ['UP', 'UP'], 'crypt03': ['UP', 'UP'], 'crypt02': ['UP', 'UP'], 'crypt07': ['DOWN', 'DOWN'], 'crypt06': ['UP', 'UP'], 'crypt04': ['UP', 'UP'], 'crypt14': ['UP', 'UP']}
time: 2380 required: 2205.952 available: 2205.952
{'crypt08': ['UP', 'UP'], 'crypt03': ['UP', 'UP'], 'crypt02': ['UP', 'UP'], 'crypt07': ['DOWN', 'DOWN'], 'crypt06': ['UP', 'UP'], 'crypt04': ['UP', 'UP'], 'crypt14': ['UP', 'UP']}
time: 2390 required: 2205.952 available: 2205.952
{'crypt08': ['UP', 'UP'], 'crypt03': ['UP', 'UP'], 'crypt02': ['UP', 'UP'], 'crypt07': ['DOWN', 'DOWN'], 'crypt14': ['UP', 'UP'], 'crypt06': ['UP', 'UP'], 'crypt04': ['UP', 'UP']}
time: 2400 required: 1678.614 available: 1678.614
{'crypt08': ['UP', 'UP'], 'crypt03': ['UP', 'UP'], 'crypt02': ['UP', 'UP'], 'crypt07': ['DOWN', 'DOWN'], 'crypt06': ['UP', 'UP'], 'crypt04': ['UP', 'UP'], 'crypt14': ['UP', 'UP']}
time: 2410 required: 1678.614 available: 1678.614
{'crypt08': ['UP', 'UP'], 'crypt03': ['UP', 'UP'], 'crypt02': ['UP', 'UP'], 'crypt07': ['DOWN', 'DOWN'], 'crypt06': ['UP', 'UP'], 'crypt04': ['UP', 'UP'], 'crypt14': ['UP', 'UP']}
time: 2420 required: 1678.614 available: 1678.614
{'crypt08': ['UP', 'UP'], 'crypt03': ['UP', 'UP'], 'crypt02': ['UP', 'UP'], 'crypt07': ['DOWN', 'DOWN'], 'crypt06': ['UP', 'UP'], 'crypt04': ['UP', 'UP'], 'crypt14': ['UP', 'UP']}
time: 2430 required: 1678.614 available: 1678.614
{'crypt08': ['UP', 'UP'], 'crypt03': ['UP', 'UP'], 'crypt02': ['UP', 'UP'], 'crypt07': ['DOWN', 'DOWN'], 'crypt06': ['UP', 'UP'], 'crypt04': ['UP', 'UP'], 'crypt14': ['UP', 'UP']}
time: 2440 required: 1678.614 available: 1678.614
{'crypt08': ['UP', 'UP'], 'crypt03': ['UP', 'UP'], 'crypt02': ['UP', 'UP'], 'crypt07': ['DOWN', 'DOWN'], 'crypt06': ['UP', 'UP'], 'crypt04': ['UP', 'UP'], 'crypt14': ['UP', 'UP']}
time: 2450 required: 1678.614 available: 1678.614
{'crypt08': ['UP', 'UP'], 'crypt03': ['UP', 'UP'], 'crypt02': ['UP', 'UP'], 'crypt07': ['DOWN', 'DOWN'], 'crypt06': ['UP', 'UP'], 'crypt04': ['UP', 'UP'], 'crypt14': ['UP', 'UP']}
time: 2460 required: 1678.614 available: 1678.614
{'crypt08': ['UP', 'UP'], 'crypt03': ['UP', 'UP'], 'crypt02': ['UP', 'UP'], 'crypt07': ['DOWN', 'DOWN'], 'crypt06': ['UP', 'UP'], 'crypt04': ['UP', 'UP'], 'crypt14': ['UP', 'UP']}
time: 2470 required: 1678.614 available: 1678.614
{'crypt08': ['UP', 'UP'], 'crypt03': ['UP', 'UP'], 'crypt02': ['UP', 'UP'], 'crypt07': ['DOWN', 'DOWN'], 'crypt06': ['UP', 'UP'], 'crypt04': ['UP', 'UP'], 'crypt14': ['UP', 'UP']}
time: 2480 required: 1678.614 available: 1678.614
{'crypt08': ['UP', 'UP'], 'crypt03': ['UP', 'UP'], 'crypt02': ['UP', 'UP'], 'crypt07': ['DOWN', 'DOWN'], 'crypt06': ['UP', 'UP'], 'crypt04': ['UP', 'UP'], 'crypt14': ['UP', 'UP']}
time: 2490 required: 1678.614 available: 1678.614
{'crypt08': ['UP', 'UP'], 'crypt03': ['UP', 'UP'], 'crypt02': ['UP', 'UP'], 'crypt07': ['DOWN', 'DOWN'], 'crypt06': ['UP', 'UP'], 'crypt04': ['UP', 'UP'], 'crypt14': ['UP', 'UP']}
time: 2500 required: 1678.614 available: 1678.614
{'crypt08': ['UP', 'UP'], 'crypt03': ['UP', 'UP'], 'crypt02': ['UP', 'UP'], 'crypt07': ['DOWN', 'DOWN'], 'crypt14': ['UP', 'UP'], 'crypt06': ['UP', 'UP'], 'crypt04': ['UP', 'UP']}
time: 2510 required: 1678.614 available: 1678.614
{'crypt08': ['UP', 'UP'], 'crypt03': ['UP', 'UP'], 'crypt02': ['UP', 'UP'], 'crypt07': ['DOWN', 'DOWN'], 'crypt06': ['UP', 'UP'], 'crypt04': ['UP', 'UP'], 'crypt14': ['UP', 'UP']}
time: 2520 required: 1678.614 available: 1678.614
{'crypt08': ['UP', 'UP'], 'crypt03': ['UP', 'UP'], 'crypt02': ['UP', 'UP'], 'crypt07': ['DOWN', 'DOWN'], 'crypt06': ['UP', 'UP'], 'crypt04': ['UP', 'UP'], 'crypt14': ['UP', 'UP']}
time: 2530 required: 1678.614 available: 1678.614
{'crypt08': ['UP', 'UP'], 'crypt03': ['UP', 'UP'], 'crypt02': ['UP', 'UP'], 'crypt07': ['DOWN', 'DOWN'], 'crypt06': ['UP', 'UP'], 'crypt04': ['UP', 'UP'], 'crypt14': ['UP', 'UP']}
time: 2540 required: 1678.614 available: 1678.614
{'crypt08': ['UP', 'UP'], 'crypt03': ['UP', 'UP'], 'crypt02': ['UP', 'UP'], 'crypt07': ['DOWN', 'DOWN'], 'crypt06': ['UP', 'UP'], 'crypt04': ['UP', 'UP'], 'crypt14': ['UP', 'UP']}
time: 2550 required: 988.7094 available: 988.7094
{'crypt08': ['UP', 'UP'], 'crypt03': ['UP', 'UP'], 'crypt02': ['UP', 'UP'], 'crypt07': ['DOWN', 'DOWN'], 'crypt06': ['UP', 'UP'], 'crypt04': ['UP', 'UP'], 'crypt14': ['UP', 'UP']}
time: 2560 required: 988.7094 available: 988.7094
{'crypt08': ['UP', 'UP'], 'crypt03': ['UP', 'UP'], 'crypt02': ['UP', 'UP'], 'crypt07': ['DOWN', 'DOWN'], 'crypt14': ['UP', 'UP'], 'crypt06': ['UP', 'UP'], 'crypt04': ['UP', 'UP']}
time: 2570 required: 988.7094 available: 988.7094
{'crypt08': ['UP', 'UP'], 'crypt03': ['UP', 'UP'], 'crypt02': ['UP', 'UP'], 'crypt07': ['DOWN', 'DOWN'], 'crypt06': ['UP', 'UP'], 'crypt04': ['UP', 'UP'], 'crypt14': ['UP', 'UP']}
time: 2580 required: 988.7094 available: 988.7094
{'crypt08': ['UP', 'UP'], 'crypt03': ['UP', 'UP'], 'crypt02': ['UP', 'UP'], 'crypt07': ['DOWN', 'DOWN'], 'crypt06': ['UP', 'UP'], 'crypt04': ['UP', 'UP'], 'crypt14': ['UP', 'UP']}
time: 2590 required: 988.7094 available: 988.7094
{'crypt08': ['UP', 'UP'], 'crypt03': ['UP', 'UP'], 'crypt02': ['UP', 'UP'], 'crypt07': ['DOWN', 'DOWN'], 'crypt14': ['UP', 'UP'], 'crypt06': ['UP', 'UP'], 'crypt04': ['UP', 'UP']}
time: 2600 required: 988.7094 available: 988.7094
{'crypt08': ['UP', 'UP'], 'crypt03': ['UP', 'UP'], 'crypt02': ['UP', 'UP'], 'crypt07': ['DOWN', 'DOWN'], 'crypt06': ['UP', 'UP'], 'crypt04': ['UP', 'UP'], 'crypt14': ['UP', 'UP']}
time: 2610 required: 988.7094 available: 988.7094
{'crypt08': ['UP', 'UP'], 'crypt03': ['UP', 'UP'], 'crypt02': ['UP', 'UP'], 'crypt07': ['DOWN', 'DOWN'], 'crypt06': ['UP', 'UP'], 'crypt04': ['UP', 'UP'], 'crypt14': ['UP', 'UP']}
time: 2620 required: 988.7094 available: 988.7094
{'crypt08': ['UP', 'UP'], 'crypt03': ['UP', 'UP'], 'crypt02': ['UP', 'UP'], 'crypt07': ['DOWN', 'DOWN'], 'crypt06': ['UP', 'UP'], 'crypt04': ['UP', 'UP'], 'crypt14': ['UP', 'UP']}
time: 2630 required: 988.7094 available: 988.7094
{'crypt08': ['UP', 'UP'], 'crypt03': ['UP', 'UP'], 'crypt02': ['UP', 'UP'], 'crypt07': ['DOWN', 'DOWN'], 'crypt06': ['UP', 'UP'], 'crypt04': ['UP', 'UP'], 'crypt14': ['UP', 'UP']}
time: 2640 required: 988.7094 available: 988.7094
{'crypt08': ['UP', 'UP'], 'crypt03': ['UP', 'UP'], 'crypt02': ['UP', 'UP'], 'crypt07': ['DOWN', 'DOWN'], 'crypt14': ['UP', 'UP'], 'crypt06': ['UP', 'UP'], 'crypt04': ['UP', 'UP']}
time: 2650 required: 988.7094 available: 988.7094
{'crypt08': ['UP', 'UP'], 'crypt03': ['UP', 'UP'], 'crypt02': ['UP', 'UP'], 'crypt07': ['DOWN', 'DOWN'], 'crypt06': ['UP', 'UP'], 'crypt04': ['UP', 'UP'], 'crypt14': ['UP', 'UP']}
time: 2660 required: 988.7094 available: 988.7094
{'crypt08': ['UP', 'UP'], 'crypt03': ['UP', 'UP'], 'crypt02': ['UP', 'UP'], 'crypt07': ['DOWN', 'DOWN'], 'crypt06': ['UP', 'UP'], 'crypt04': ['UP', 'UP'], 'crypt14': ['UP', 'UP']}
time: 2670 required: 988.7094 available: 988.7094
{'crypt08': ['UP', 'UP'], 'crypt03': ['UP', 'UP'], 'crypt02': ['UP', 'UP'], 'crypt07': ['DOWN', 'DOWN'], 'crypt06': ['UP', 'UP'], 'crypt04': ['UP', 'UP'], 'crypt14': ['UP', 'UP']}
time: 2680 required: 988.7094 available: 988.7094
{'crypt08': ['UP', 'UP'], 'crypt03': ['UP', 'UP'], 'crypt02': ['UP', 'UP'], 'crypt07': ['DOWN', 'DOWN'], 'crypt06': ['UP', 'UP'], 'crypt04': ['UP', 'UP'], 'crypt14': ['UP', 'UP']}
time: 2690 required: 988.7094 available: 988.7094
{'crypt08': ['UP', 'UP'], 'crypt03': ['UP', 'UP'], 'crypt02': ['UP', 'UP'], 'crypt07': ['DOWN', 'DOWN'], 'crypt06': ['UP', 'UP'], 'crypt04': ['UP', 'UP'], 'crypt14': ['UP', 'UP']}
time: 2700 required: 328.9328 available: 328.9328
{'crypt08': ['UP', 'UP'], 'crypt03': ['UP', 'UP'], 'crypt02': ['UP', 'UP'], 'crypt07': ['DOWN', 'DOWN'], 'crypt06': ['UP', 'UP'], 'crypt04': ['UP', 'UP'], 'crypt14': ['UP', 'UP']}
time: 2710 required: 328.9328 available: 328.9328
{'crypt08': ['DOWN', 'DOWN'], 'crypt03': ['DOWN', 'DOWN'], 'crypt02': ['DEC', 'DEC'], 'crypt07': ['DOWN', 'DOWN'], 'crypt14': ['UP', 'UP'], 'crypt06': ['DEC', 'DEC'], 'crypt04': ['DOWN', 'DOWN']}
time: 2720 required: 328.9328 available: 328.9328
{'crypt08': ['DOWN', 'DOWN'], 'crypt03': ['DOWN', 'DOWN'], 'crypt02': ['DEC', 'DEC'], 'crypt07': ['DOWN', 'DOWN'], 'crypt14': ['UP', 'UP'], 'crypt06': ['DEC', 'DEC'], 'crypt04': ['DOWN', 'DOWN']}
time: 2730 required: 328.9328 available: 328.9328
{'crypt08': ['DOWN', 'DOWN'], 'crypt03': ['DOWN', 'DOWN'], 'crypt02': ['DEC', 'DEC'], 'crypt07': ['DOWN', 'DOWN'], 'crypt06': ['DEC', 'DEC'], 'crypt04': ['DOWN', 'DOWN'], 'crypt14': ['UP', 'UP']}
time: 2740 required: 328.9328 available: 328.9328
{'crypt08': ['DOWN', 'DOWN'], 'crypt03': ['DOWN', 'DOWN'], 'crypt02': ['DEC', 'DEC'], 'crypt07': ['DOWN', 'DOWN'], 'crypt14': ['UP', 'UP'], 'crypt06': ['DEC', 'DEC'], 'crypt04': ['DOWN', 'DOWN']}
time: 2750 required: 328.9328 available: 328.9328
{'crypt08': ['DOWN', 'DOWN'], 'crypt03': ['DOWN', 'DOWN'], 'crypt02': ['DEC', 'DEC'], 'crypt07': ['DOWN', 'DOWN'], 'crypt06': ['DEC', 'DEC'], 'crypt04': ['DOWN', 'DOWN'], 'crypt14': ['UP', 'UP']}
time: 2760 required: 328.9328 available: 328.9328
{'crypt08': ['DOWN', 'DOWN'], 'crypt03': ['DOWN', 'DOWN'], 'crypt02': ['DEC', 'DEC'], 'crypt07': ['DOWN', 'DOWN'], 'crypt14': ['UP', 'UP'], 'crypt06': ['DEC', 'DEC'], 'crypt04': ['DOWN', 'DOWN']}
time: 2770 required: 328.9328 available: 328.9328
{'crypt08': ['DOWN', 'DOWN'], 'crypt03': ['DOWN', 'DOWN'], 'crypt02': ['DEC', 'DEC'], 'crypt07': ['DOWN', 'DOWN'], 'crypt14': ['UP', 'UP'], 'crypt06': ['DEC', 'DEC'], 'crypt04': ['DOWN', 'DOWN']}
time: 2780 required: 328.9328 available: 328.9328
{'crypt08': ['DOWN', 'DOWN'], 'crypt03': ['DOWN', 'DOWN'], 'crypt02': ['DEC', 'DEC'], 'crypt07': ['DOWN', 'DOWN'], 'crypt06': ['DEC', 'DEC'], 'crypt04': ['DOWN', 'DOWN'], 'crypt14': ['UP', 'UP']}
time: 2790 required: 328.9328 available: 328.9328
{'crypt08': ['DOWN', 'DOWN'], 'crypt03': ['DOWN', 'DOWN'], 'crypt02': ['DEC', 'DEC'], 'crypt07': ['DOWN', 'DOWN'], 'crypt06': ['DEC', 'DEC'], 'crypt04': ['DOWN', 'DOWN'], 'crypt14': ['UP', 'UP']}
time: 2800 required: 328.9328 available: 328.9328
{'crypt08': ['DOWN', 'DOWN'], 'crypt03': ['DOWN', 'DOWN'], 'crypt02': ['DEC', 'DEC'], 'crypt07': ['DOWN', 'DOWN'], 'crypt06': ['DEC', 'DEC'], 'crypt04': ['DOWN', 'DOWN'], 'crypt14': ['UP', 'UP']}
time: 2810 required: 328.9328 available: 328.9328
{'crypt08': ['DOWN', 'DOWN'], 'crypt03': ['DOWN', 'DOWN'], 'crypt02': ['DEC', 'DEC'], 'crypt07': ['DOWN', 'DOWN'], 'crypt14': ['UP', 'UP'], 'crypt06': ['DEC', 'DEC'], 'crypt04': ['DOWN', 'DOWN']}
time: 2820 required: 328.9328 available: 328.9328
{'crypt08': ['DOWN', 'DOWN'], 'crypt03': ['DOWN', 'DOWN'], 'crypt02': ['DEC', 'DEC'], 'crypt07': ['DOWN', 'DOWN'], 'crypt14': ['UP', 'UP'], 'crypt06': ['DEC', 'DEC'], 'crypt04': ['DOWN', 'DOWN']}
time: 2830 required: 328.9328 available: 328.9328
{'crypt08': ['DOWN', 'DOWN'], 'crypt03': ['DOWN', 'DOWN'], 'crypt02': ['DEC', 'DEC'], 'crypt07': ['DOWN', 'DOWN'], 'crypt06': ['DEC', 'DEC'], 'crypt04': ['DOWN', 'DOWN'], 'crypt14': ['UP', 'UP']}
time: 2840 required: 328.9328 available: 328.9328
{'crypt08': ['DOWN', 'DOWN'], 'crypt03': ['DOWN', 'DOWN'], 'crypt02': ['DEC', 'DEC'], 'crypt07': ['DOWN', 'DOWN'], 'crypt14': ['UP', 'UP'], 'crypt06': ['DEC', 'DEC'], 'crypt04': ['DOWN', 'DOWN']}
time: 2850 required: 251.6 available: 42.5509
{'crypt08': ['DOWN', 'DOWN'], 'crypt03': ['DOWN', 'DOWN'], 'crypt02': ['DEC', 'DEC'], 'crypt07': ['DOWN', 'DOWN'], 'crypt14': ['UP', 'UP'], 'crypt06': ['DEC', 'DEC'], 'crypt04': ['DOWN', 'DOWN']}
time: 2860 required: 251.6 available: 42.5509
{'crypt08': ['DOWN', 'DOWN'], 'crypt03': ['DOWN', 'DOWN'], 'crypt02': ['DEC', 'DEC'], 'crypt07': ['DOWN', 'DOWN'], 'crypt06': ['DEC', 'DEC'], 'crypt04': ['DOWN', 'DOWN'], 'crypt14': ['UP', 'UP']}
time: 2870 required: 251.6 available: 42.5509
{'crypt08': ['DOWN', 'DOWN'], 'crypt03': ['DOWN', 'DOWN'], 'crypt02': ['DEC', 'DEC'], 'crypt07': ['DOWN', 'DOWN'], 'crypt06': ['DEC', 'DEC'], 'crypt04': ['DOWN', 'DOWN'], 'crypt14': ['UP', 'UP']}
time: 2880 required: 251.6 available: 42.5509
{'crypt08': ['DOWN', 'DOWN'], 'crypt03': ['DOWN', 'DOWN'], 'crypt02': ['DEC', 'DEC'], 'crypt07': ['DOWN', 'DOWN'], 'crypt06': ['DEC', 'DEC'], 'crypt04': ['DOWN', 'DOWN'], 'crypt14': ['UP', 'UP']}
time: 2890 required: 251.6 available: 42.5509
{'crypt08': ['DOWN', 'DOWN'], 'crypt03': ['DOWN', 'DOWN'], 'crypt02': ['DEC', 'DEC'], 'crypt07': ['DOWN', 'DOWN'], 'crypt14': ['UP', 'UP'], 'crypt06': ['DEC', 'DEC'], 'crypt04': ['DOWN', 'DOWN']}
time: 2900 required: 251.6 available: 42.5509
{'crypt08': ['DOWN', 'DOWN'], 'crypt03': ['DOWN', 'DOWN'], 'crypt02': ['DEC', 'DEC'], 'crypt07': ['DOWN', 'DOWN'], 'crypt06': ['DEC', 'DEC'], 'crypt04': ['DOWN', 'DOWN'], 'crypt14': ['UP', 'UP']}
time: 2910 required: 251.6 available: 42.5509
{'crypt08': ['DOWN', 'DOWN'], 'crypt03': ['DOWN', 'DOWN'], 'crypt02': ['DEC', 'DEC'], 'crypt07': ['DOWN', 'DOWN'], 'crypt14': ['UP', 'UP'], 'crypt06': ['DEC', 'DEC'], 'crypt04': ['DOWN', 'DOWN']}
time: 2920 required: 251.6 available: 42.5509
{'crypt08': ['DOWN', 'DOWN'], 'crypt03': ['DOWN', 'DOWN'], 'crypt02': ['DEC', 'DEC'], 'crypt07': ['DOWN', 'DOWN'], 'crypt14': ['UP', 'UP'], 'crypt06': ['DEC', 'DEC'], 'crypt04': ['DOWN', 'DOWN']}
time: 2930 required: 251.6 available: 42.5509
{'crypt08': ['DOWN', 'DOWN'], 'crypt03': ['DOWN', 'DOWN'], 'crypt02': ['DEC', 'DEC'], 'crypt07': ['DOWN', 'DOWN'], 'crypt06': ['DEC', 'DEC'], 'crypt04': ['DOWN', 'DOWN'], 'crypt14': ['UP', 'UP']}
time: 2940 required: 251.6 available: 42.5509
{'crypt08': ['DOWN', 'DOWN'], 'crypt03': ['DOWN', 'DOWN'], 'crypt02': ['DEC', 'DEC'], 'crypt07': ['DOWN', 'DOWN'], 'crypt14': ['UP', 'UP'], 'crypt06': ['DEC', 'DEC'], 'crypt04': ['DOWN', 'DOWN']}
time: 2950 required: 251.6 available: 42.5509
{'crypt08': ['DOWN', 'DOWN'], 'crypt03': ['DOWN', 'DOWN'], 'crypt02': ['DEC', 'DEC'], 'crypt07': ['DOWN', 'DOWN'], 'crypt06': ['DEC', 'DEC'], 'crypt04': ['DOWN', 'DOWN'], 'crypt14': ['UP', 'UP']}
time: 2960 required: 251.6 available: 42.5509
{'crypt08': ['DOWN', 'DOWN'], 'crypt03': ['DOWN', 'DOWN'], 'crypt02': ['DEC', 'DEC'], 'crypt07': ['DOWN', 'DOWN'], 'crypt14': ['UP', 'UP'], 'crypt06': ['DEC', 'DEC'], 'crypt04': ['DOWN', 'DOWN']}
time: 2970 required: 251.6 available: 42.5509
{'crypt08': ['DOWN', 'DOWN'], 'crypt03': ['DOWN', 'DOWN'], 'crypt02': ['DEC', 'DEC'], 'crypt07': ['DOWN', 'DOWN'], 'crypt06': ['DEC', 'DEC'], 'crypt04': ['DOWN', 'DOWN'], 'crypt14': ['UP', 'UP']}
time: 2980 required: 251.6 available: 42.5509
{'crypt08': ['DOWN', 'DOWN'], 'crypt03': ['DOWN', 'DOWN'], 'crypt02': ['DEC', 'DEC'], 'crypt07': ['DOWN', 'DOWN'], 'crypt06': ['DEC', 'DEC'], 'crypt04': ['DOWN', 'DOWN'], 'crypt14': ['UP', 'UP']}
time: 2990 required: 251.6 available: 42.5509
{'crypt08': ['DOWN', 'DOWN'], 'crypt03': ['DOWN', 'DOWN'], 'crypt02': ['DEC', 'DEC'], 'crypt07': ['DOWN', 'DOWN'], 'crypt06': ['DEC', 'DEC'], 'crypt04': ['DOWN', 'DOWN'], 'crypt14': ['UP', 'UP']}
time: 3000 required: 251.6 available: 0.0
{'crypt08': ['DOWN', 'DOWN'], 'crypt03': ['DOWN', 'DOWN'], 'crypt02': ['DEC', 'DEC'], 'crypt07': ['DOWN', 'DOWN'], 'crypt14': ['UP', 'UP'], 'crypt06': ['DEC', 'DEC'], 'crypt04': ['DOWN', 'DOWN']}
time: 3010 required: 251.6 available: 0.0
{'crypt08': ['DOWN', 'DOWN'], 'crypt03': ['DOWN', 'DOWN'], 'crypt02': ['DEC', 'DEC'], 'crypt07': ['DOWN', 'DOWN'], 'crypt14': ['UP', 'UP'], 'crypt06': ['DEC', 'DEC'], 'crypt04': ['DOWN', 'DOWN']}
time: 3020 required: 251.6 available: 0.0
{'crypt08': ['DOWN', 'DOWN'], 'crypt03': ['DOWN', 'DOWN'], 'crypt02': ['DEC', 'DEC'], 'crypt07': ['DOWN', 'DOWN'], 'crypt06': ['DEC', 'DEC'], 'crypt04': ['DOWN', 'DOWN'], 'crypt14': ['UP', 'UP']}
time: 3030 required: 251.6 available: 0.0
{'crypt08': ['DOWN', 'DOWN'], 'crypt03': ['DOWN', 'DOWN'], 'crypt02': ['DEC', 'DEC'], 'crypt07': ['DOWN', 'DOWN'], 'crypt06': ['DEC', 'DEC'], 'crypt04': ['DOWN', 'DOWN'], 'crypt14': ['UP', 'UP']}
time: 3040 required: 251.6 available: 0.0
{'crypt08': ['DOWN', 'DOWN'], 'crypt03': ['DOWN', 'DOWN'], 'crypt02': ['DEC', 'DEC'], 'crypt07': ['DOWN', 'DOWN'], 'crypt14': ['UP', 'UP'], 'crypt06': ['DEC', 'DEC'], 'crypt04': ['DOWN', 'DOWN']}
time: 3050 required: 251.6 available: 0.0
{'crypt08': ['DOWN', 'DOWN'], 'crypt03': ['DOWN', 'DOWN'], 'crypt02': ['DEC', 'DEC'], 'crypt07': ['DOWN', 'DOWN'], 'crypt14': ['UP', 'UP'], 'crypt06': ['DEC', 'DEC'], 'crypt04': ['DOWN', 'DOWN']}
time: 3060 required: 251.6 available: 0.0
{'crypt08': ['DOWN', 'DOWN'], 'crypt03': ['DOWN', 'DOWN'], 'crypt02': ['DEC', 'DEC'], 'crypt07': ['DOWN', 'DOWN'], 'crypt06': ['DEC', 'DEC'], 'crypt04': ['DOWN', 'DOWN'], 'crypt14': ['UP', 'UP']}
time: 3070 required: 251.6 available: 0.0
{'crypt08': ['DOWN', 'DOWN'], 'crypt03': ['DOWN', 'DOWN'], 'crypt02': ['DEC', 'DEC'], 'crypt07': ['DOWN', 'DOWN'], 'crypt06': ['DEC', 'DEC'], 'crypt04': ['DOWN', 'DOWN'], 'crypt14': ['UP', 'UP']}
time: 3080 required: 251.6 available: 0.0
{'crypt08': ['DOWN', 'DOWN'], 'crypt03': ['DOWN', 'DOWN'], 'crypt02': ['DEC', 'DEC'], 'crypt07': ['DOWN', 'DOWN'], 'crypt06': ['DEC', 'DEC'], 'crypt04': ['DOWN', 'DOWN'], 'crypt14': ['UP', 'UP']}
time: 3090 required: 251.6 available: 0.0
{'crypt08': ['DOWN', 'DOWN'], 'crypt03': ['DOWN', 'DOWN'], 'crypt02': ['DEC', 'DEC'], 'crypt07': ['DOWN', 'DOWN'], 'crypt06': ['DEC', 'DEC'], 'crypt04': ['DOWN', 'DOWN'], 'crypt14': ['UP', 'UP']}
time: 3100 required: 251.6 available: 0.0
{'crypt08': ['DOWN', 'DOWN'], 'crypt03': ['DOWN', 'DOWN'], 'crypt02': ['DEC', 'DEC'], 'crypt07': ['DOWN', 'DOWN'], 'crypt06': ['DEC', 'DEC'], 'crypt04': ['DOWN', 'DOWN'], 'crypt14': ['UP', 'UP']}
time: 3110 required: 251.6 available: 0.0
{'crypt08': ['DOWN', 'DOWN'], 'crypt03': ['DOWN', 'DOWN'], 'crypt02': ['DEC', 'DEC'], 'crypt07': ['DOWN', 'DOWN'], 'crypt14': ['UP', 'UP'], 'crypt06': ['DEC', 'DEC'], 'crypt04': ['DOWN', 'DOWN']}
time: 3120 required: 251.6 available: 0.0
{'crypt08': ['DOWN', 'DOWN'], 'crypt03': ['DOWN', 'DOWN'], 'crypt02': ['DEC', 'DEC'], 'crypt07': ['DOWN', 'DOWN'], 'crypt06': ['DEC', 'DEC'], 'crypt04': ['DOWN', 'DOWN'], 'crypt14': ['UP', 'UP']}
time: 3130 required: 251.6 available: 0.0
{'crypt08': ['DOWN', 'DOWN'], 'crypt03': ['DOWN', 'DOWN'], 'crypt02': ['DEC', 'DEC'], 'crypt07': ['DOWN', 'DOWN'], 'crypt06': ['DEC', 'DEC'], 'crypt04': ['DOWN', 'DOWN'], 'crypt14': ['UP', 'UP']}
time: 3140 required: 251.6 available: 0.0
{'crypt08': ['DOWN', 'DOWN'], 'crypt03': ['DOWN', 'DOWN'], 'crypt02': ['DEC', 'DEC'], 'crypt07': ['DOWN', 'DOWN'], 'crypt06': ['DEC', 'DEC'], 'crypt04': ['DOWN', 'DOWN'], 'crypt14': ['UP', 'UP']}
time: 3150 required: 251.6 available: 0.0
{'crypt08': ['DOWN', 'DOWN'], 'crypt03': ['DOWN', 'DOWN'], 'crypt02': ['DEC', 'DEC'], 'crypt07': ['DOWN', 'DOWN'], 'crypt06': ['DEC', 'DEC'], 'crypt04': ['DOWN', 'DOWN'], 'crypt14': ['UP', 'UP']}
time: 3160 required: 251.6 available: 0.0
{'crypt08': ['DOWN', 'DOWN'], 'crypt03': ['DOWN', 'DOWN'], 'crypt02': ['DEC', 'DEC'], 'crypt07': ['DOWN', 'DOWN'], 'crypt14': ['UP', 'UP'], 'crypt06': ['DEC', 'DEC'], 'crypt04': ['DOWN', 'DOWN']}
time: 3170 required: 251.6 available: 0.0
{'crypt08': ['DOWN', 'DOWN'], 'crypt03': ['DOWN', 'DOWN'], 'crypt02': ['DEC', 'DEC'], 'crypt07': ['DOWN', 'DOWN'], 'crypt06': ['DEC', 'DEC'], 'crypt04': ['DOWN', 'DOWN'], 'crypt14': ['UP', 'UP']}
time: 3180 required: 251.6 available: 0.0
{'crypt08': ['DOWN', 'DOWN'], 'crypt03': ['DOWN', 'DOWN'], 'crypt02': ['DEC', 'DEC'], 'crypt07': ['DOWN', 'DOWN'], 'crypt14': ['UP', 'UP'], 'crypt06': ['DEC', 'DEC'], 'crypt04': ['DOWN', 'DOWN']}
time: 3190 required: 251.6 available: 0.0
{'crypt08': ['DOWN', 'DOWN'], 'crypt03': ['DOWN', 'DOWN'], 'crypt02': ['DEC', 'DEC'], 'crypt07': ['DOWN', 'DOWN'], 'crypt14': ['UP', 'UP'], 'crypt06': ['DEC', 'DEC'], 'crypt04': ['DOWN', 'DOWN']}
time: 3200 required: 251.6 available: 0.0
{'crypt08': ['DOWN', 'DOWN'], 'crypt03': ['DOWN', 'DOWN'], 'crypt02': ['DEC', 'DEC'], 'crypt07': ['DOWN', 'DOWN'], 'crypt06': ['DEC', 'DEC'], 'crypt04': ['DOWN', 'DOWN'], 'crypt14': ['UP', 'UP']}
time: 3210 required: 251.6 available: 0.0
{'crypt08': ['DOWN', 'DOWN'], 'crypt03': ['DOWN', 'DOWN'], 'crypt02': ['DEC', 'DEC'], 'crypt07': ['DOWN', 'DOWN'], 'crypt06': ['DEC', 'DEC'], 'crypt04': ['DOWN', 'DOWN'], 'crypt14': ['UP', 'UP']}
time: 3220 required: 251.6 available: 0.0
{'crypt08': ['DOWN', 'DOWN'], 'crypt03': ['DOWN', 'DOWN'], 'crypt02': ['DEC', 'DEC'], 'crypt07': ['DOWN', 'DOWN'], 'crypt06': ['DEC', 'DEC'], 'crypt04': ['DOWN', 'DOWN'], 'crypt14': ['UP', 'UP']}
time: 3230 required: 251.6 available: 0.0
{'crypt08': ['DOWN', 'DOWN'], 'crypt03': ['DOWN', 'DOWN'], 'crypt02': ['DEC', 'DEC'], 'crypt07': ['DOWN', 'DOWN'], 'crypt14': ['UP', 'UP'], 'crypt06': ['DEC', 'DEC'], 'crypt04': ['DOWN', 'DOWN']}
time: 3240 required: 251.6 available: 0.0
{'crypt08': ['DOWN', 'DOWN'], 'crypt03': ['DOWN', 'DOWN'], 'crypt02': ['DEC', 'DEC'], 'crypt07': ['DOWN', 'DOWN'], 'crypt14': ['UP', 'UP'], 'crypt06': ['DEC', 'DEC'], 'crypt04': ['DOWN', 'DOWN']}
time: 3250 required: 251.6 available: 0.0
{'crypt08': ['DOWN', 'DOWN'], 'crypt03': ['DOWN', 'DOWN'], 'crypt02': ['DEC', 'DEC'], 'crypt07': ['DOWN', 'DOWN'], 'crypt06': ['DEC', 'DEC'], 'crypt04': ['DOWN', 'DOWN'], 'crypt14': ['UP', 'UP']}
time: 3260 required: 251.6 available: 0.0
{'crypt08': ['DOWN', 'DOWN'], 'crypt03': ['DOWN', 'DOWN'], 'crypt02': ['DEC', 'DEC'], 'crypt07': ['DOWN', 'DOWN'], 'crypt06': ['DEC', 'DEC'], 'crypt04': ['DOWN', 'DOWN'], 'crypt14': ['UP', 'UP']}
time: 3270 required: 251.6 available: 0.0
{'crypt08': ['DOWN', 'DOWN'], 'crypt03': ['DOWN', 'DOWN'], 'crypt02': ['DEC', 'DEC'], 'crypt07': ['DOWN', 'DOWN'], 'crypt14': ['UP', 'UP'], 'crypt06': ['DEC', 'DEC'], 'crypt04': ['DOWN', 'DOWN']}
time: 3280 required: 251.6 available: 0.0
{'crypt08': ['DOWN', 'DOWN'], 'crypt03': ['DOWN', 'DOWN'], 'crypt02': ['DEC', 'DEC'], 'crypt07': ['DOWN', 'DOWN'], 'crypt06': ['DEC', 'DEC'], 'crypt04': ['DOWN', 'DOWN'], 'crypt14': ['UP', 'UP']}
time: 3290 required: 251.6 available: 0.0
{'crypt08': ['DOWN', 'DOWN'], 'crypt03': ['DOWN', 'DOWN'], 'crypt02': ['DEC', 'DEC'], 'crypt07': ['DOWN', 'DOWN'], 'crypt06': ['DEC', 'DEC'], 'crypt04': ['DOWN', 'DOWN'], 'crypt14': ['UP', 'UP']}
time: 3300 required: 251.6 available: 0.0
{'crypt08': ['DOWN', 'DOWN'], 'crypt03': ['DOWN', 'DOWN'], 'crypt02': ['DEC', 'DEC'], 'crypt07': ['DOWN', 'DOWN'], 'crypt06': ['DEC', 'DEC'], 'crypt04': ['DOWN', 'DOWN'], 'crypt14': ['UP', 'UP']}
time: 3310 required: 251.6 available: 0.0
{'crypt08': ['DOWN', 'DOWN'], 'crypt03': ['DOWN', 'DOWN'], 'crypt02': ['DEC', 'DEC'], 'crypt07': ['DOWN', 'DOWN'], 'crypt06': ['DEC', 'DEC'], 'crypt04': ['DOWN', 'DOWN'], 'crypt14': ['UP', 'UP']}
time: 3320 required: 251.6 available: 0.0
{'crypt08': ['DOWN', 'DOWN'], 'crypt03': ['DOWN', 'DOWN'], 'crypt14': ['UP', 'UP'], 'crypt07': ['DOWN', 'DOWN'], 'crypt06': ['DEC', 'DEC'], 'crypt04': ['DOWN', 'DOWN'], 'crypt02': ['DEC', 'DEC']}
time: 3330 required: 251.6 available: 0.0
{'crypt08': ['DOWN', 'DOWN'], 'crypt03': ['DOWN', 'DOWN'], 'crypt02': ['DEC', 'DEC'], 'crypt07': ['DOWN', 'DOWN'], 'crypt06': ['DEC', 'DEC'], 'crypt04': ['DOWN', 'DOWN'], 'crypt14': ['UP', 'UP']}
time: 3340 required: 251.6 available: 0.0
{'crypt08': ['DOWN', 'DOWN'], 'crypt03': ['DOWN', 'DOWN'], 'crypt02': ['DEC', 'DEC'], 'crypt07': ['DOWN', 'DOWN'], 'crypt14': ['UP', 'UP'], 'crypt06': ['DEC', 'DEC'], 'crypt04': ['DOWN', 'DOWN']}
time: 3350 required: 251.6 available: 0.0
{'crypt08': ['DOWN', 'DOWN'], 'crypt03': ['DOWN', 'DOWN'], 'crypt02': ['DEC', 'DEC'], 'crypt07': ['DOWN', 'DOWN'], 'crypt06': ['DEC', 'DEC'], 'crypt04': ['DOWN', 'DOWN'], 'crypt14': ['UP', 'UP']}
time: 3360 required: 251.6 available: 0.0
{'crypt08': ['DOWN', 'DOWN'], 'crypt03': ['DOWN', 'DOWN'], 'crypt02': ['DEC', 'DEC'], 'crypt07': ['DOWN', 'DOWN'], 'crypt14': ['UP', 'UP'], 'crypt06': ['DEC', 'DEC'], 'crypt04': ['DOWN', 'DOWN']}
time: 3370 required: 251.6 available: 0.0
{'crypt08': ['DOWN', 'DOWN'], 'crypt03': ['DOWN', 'DOWN'], 'crypt02': ['DEC', 'DEC'], 'crypt07': ['DOWN', 'DOWN'], 'crypt06': ['DEC', 'DEC'], 'crypt04': ['DOWN', 'DOWN'], 'crypt14': ['UP', 'UP']}
time: 3380 required: 251.6 available: 0.0
{'crypt08': ['DOWN', 'DOWN'], 'crypt03': ['DOWN', 'DOWN'], 'crypt02': ['DEC', 'DEC'], 'crypt07': ['DOWN', 'DOWN'], 'crypt14': ['UP', 'UP'], 'crypt06': ['DEC', 'DEC'], 'crypt04': ['DOWN', 'DOWN']}
time: 3390 required: 251.6 available: 0.0
{'crypt08': ['DOWN', 'DOWN'], 'crypt03': ['DOWN', 'DOWN'], 'crypt02': ['DEC', 'DEC'], 'crypt07': ['DOWN', 'DOWN'], 'crypt06': ['DEC', 'DEC'], 'crypt04': ['DOWN', 'DOWN'], 'crypt14': ['UP', 'UP']}
time: 3400 required: 251.6 available: 0.0
{'crypt08': ['DOWN', 'DOWN'], 'crypt03': ['DOWN', 'DOWN'], 'crypt02': ['DEC', 'DEC'], 'crypt07': ['DOWN', 'DOWN'], 'crypt14': ['UP', 'UP'], 'crypt06': ['DEC', 'DEC'], 'crypt04': ['DOWN', 'DOWN']}
time: 3410 required: 251.6 available: 0.0
{'crypt08': ['DOWN', 'DOWN'], 'crypt03': ['DOWN', 'DOWN'], 'crypt02': ['DEC', 'DEC'], 'crypt07': ['DOWN', 'DOWN'], 'crypt14': ['UP', 'UP'], 'crypt06': ['DEC', 'DEC'], 'crypt04': ['DOWN', 'DOWN']}
time: 3420 required: 251.6 available: 0.0
{'crypt08': ['DOWN', 'DOWN'], 'crypt03': ['DOWN', 'DOWN'], 'crypt02': ['DEC', 'DEC'], 'crypt07': ['DOWN', 'DOWN'], 'crypt06': ['DEC', 'DEC'], 'crypt04': ['DOWN', 'DOWN'], 'crypt14': ['UP', 'UP']}
time: 3430 required: 251.6 available: 0.0
{'crypt08': ['DOWN', 'DOWN'], 'crypt03': ['DOWN', 'DOWN'], 'crypt02': ['DEC', 'DEC'], 'crypt07': ['DOWN', 'DOWN'], 'crypt14': ['UP', 'UP'], 'crypt06': ['DEC', 'DEC'], 'crypt04': ['DOWN', 'DOWN']}
time: 3440 required: 251.6 available: 0.0
{'crypt08': ['DOWN', 'DOWN'], 'crypt03': ['DOWN', 'DOWN'], 'crypt02': ['DEC', 'DEC'], 'crypt07': ['DOWN', 'DOWN'], 'crypt06': ['DEC', 'DEC'], 'crypt04': ['DOWN', 'DOWN'], 'crypt14': ['UP', 'UP']}
time: 3450 required: 251.6 available: 0.0
{'crypt08': ['DOWN', 'DOWN'], 'crypt03': ['DOWN', 'DOWN'], 'crypt02': ['DEC', 'DEC'], 'crypt07': ['DOWN', 'DOWN'], 'crypt14': ['UP', 'UP'], 'crypt06': ['DEC', 'DEC'], 'crypt04': ['DOWN', 'DOWN']}
time: 3460 required: 251.6 available: 0.0
{'crypt08': ['DOWN', 'DOWN'], 'crypt03': ['DOWN', 'DOWN'], 'crypt02': ['DEC', 'DEC'], 'crypt07': ['DOWN', 'DOWN'], 'crypt06': ['DEC', 'DEC'], 'crypt04': ['DOWN', 'DOWN'], 'crypt14': ['UP', 'UP']}
time: 3470 required: 251.6 available: 0.0
{'crypt08': ['DOWN', 'DOWN'], 'crypt03': ['DOWN', 'DOWN'], 'crypt02': ['DEC', 'DEC'], 'crypt07': ['DOWN', 'DOWN'], 'crypt14': ['UP', 'UP'], 'crypt06': ['DEC', 'DEC'], 'crypt04': ['DOWN', 'DOWN']}
time: 3480 required: 251.6 available: 0.0
{'crypt08': ['DOWN', 'DOWN'], 'crypt03': ['DOWN', 'DOWN'], 'crypt02': ['DEC', 'DEC'], 'crypt07': ['DOWN', 'DOWN'], 'crypt06': ['DEC', 'DEC'], 'crypt04': ['DOWN', 'DOWN'], 'crypt14': ['UP', 'UP']}
time: 3490 required: 251.6 available: 0.0
{'crypt08': ['DOWN', 'DOWN'], 'crypt03': ['DOWN', 'DOWN'], 'crypt02': ['DEC', 'DEC'], 'crypt07': ['DOWN', 'DOWN'], 'crypt06': ['DEC', 'DEC'], 'crypt04': ['DOWN', 'DOWN'], 'crypt14': ['UP', 'UP']}
time: 3500 required: 251.6 available: 0.0
{'crypt08': ['DOWN', 'DOWN'], 'crypt03': ['DOWN', 'DOWN'], 'crypt02': ['DEC', 'DEC'], 'crypt07': ['DOWN', 'DOWN'], 'crypt14': ['UP', 'UP'], 'crypt06': ['DEC', 'DEC'], 'crypt04': ['DOWN', 'DOWN']}
time: 3510 required: 251.6 available: 0.0
{'crypt08': ['DOWN', 'DOWN'], 'crypt03': ['DOWN', 'DOWN'], 'crypt02': ['DEC', 'DEC'], 'crypt07': ['DOWN', 'DOWN'], 'crypt14': ['UP', 'UP'], 'crypt06': ['DEC', 'DEC'], 'crypt04': ['DOWN', 'DOWN']}
time: 3520 required: 251.6 available: 0.0
{'crypt08': ['DOWN', 'DOWN'], 'crypt03': ['DOWN', 'DOWN'], 'crypt02': ['DEC', 'DEC'], 'crypt07': ['DOWN', 'DOWN'], 'crypt06': ['DEC', 'DEC'], 'crypt04': ['DOWN', 'DOWN'], 'crypt14': ['UP', 'UP']}
time: 3530 required: 251.6 available: 0.0
{'crypt08': ['DOWN', 'DOWN'], 'crypt03': ['DOWN', 'DOWN'], 'crypt02': ['DEC', 'DEC'], 'crypt07': ['DOWN', 'DOWN'], 'crypt06': ['DEC', 'DEC'], 'crypt04': ['DOWN', 'DOWN'], 'crypt14': ['UP', 'UP']}
time: 3540 required: 251.6 available: 0.0
{'crypt08': ['DOWN', 'DOWN'], 'crypt03': ['DOWN', 'DOWN'], 'crypt02': ['DEC', 'DEC'], 'crypt07': ['DOWN', 'DOWN'], 'crypt14': ['UP', 'UP'], 'crypt06': ['DEC', 'DEC'], 'crypt04': ['DOWN', 'DOWN']}
time: 3550 required: 251.6 available: 0.0
{'crypt08': ['DOWN', 'DOWN'], 'crypt03': ['DOWN', 'DOWN'], 'crypt02': ['DEC', 'DEC'], 'crypt07': ['DOWN', 'DOWN'], 'crypt14': ['UP', 'UP'], 'crypt06': ['DEC', 'DEC'], 'crypt04': ['DOWN', 'DOWN']}
time: 3560 required: 251.6 available: 0.0
{'crypt08': ['DOWN', 'DOWN'], 'crypt03': ['DOWN', 'DOWN'], 'crypt02': ['DEC', 'DEC'], 'crypt07': ['DOWN', 'DOWN'], 'crypt14': ['UP', 'UP'], 'crypt06': ['DEC', 'DEC'], 'crypt04': ['DOWN', 'DOWN']}
time: 3570 required: 251.6 available: 0.0
{'crypt08': ['DOWN', 'DOWN'], 'crypt03': ['DOWN', 'DOWN'], 'crypt02': ['DEC', 'DEC'], 'crypt07': ['DOWN', 'DOWN'], 'crypt06': ['DEC', 'DEC'], 'crypt04': ['DOWN', 'DOWN'], 'crypt14': ['UP', 'UP']}
time: 3580 required: 251.6 available: 0.0
{'crypt08': ['DOWN', 'DOWN'], 'crypt03': ['DOWN', 'DOWN'], 'crypt02': ['DEC', 'DEC'], 'crypt07': ['DOWN', 'DOWN'], 'crypt14': ['UP', 'UP'], 'crypt06': ['DEC', 'DEC'], 'crypt04': ['DOWN', 'DOWN']}
time: 3590 required: 251.6 available: 0.0
{'crypt08': ['DOWN', 'DOWN'], 'crypt03': ['DOWN', 'DOWN'], 'crypt02': ['DEC', 'DEC'], 'crypt07': ['DOWN', 'DOWN'], 'crypt06': ['DEC', 'DEC'], 'crypt04': ['DOWN', 'DOWN'], 'crypt14': ['UP', 'UP']}
