{'crypt08': ['UP', 'UP'], 'crypt03': ['UP', 'UP'], 'crypt02': ['UP', 'UP'], 'crypt07': ['UP', 'UP'], 'crypt06': ['UP', 'UP'], 'crypt04': ['UP', 'UP'], 'crypt14': ['UP', 'UP']}
{'crypt08': ['UP', 'UP'], 'crypt03': ['UP', 'UP'], 'crypt02': ['UP', 'UP'], 'crypt07': ['UP', 'UP'], 'crypt06': ['UP', 'UP'], 'crypt04': ['UP', 'UP'], 'crypt14': ['UP', 'UP']}
{'crypt08': ['UP', 'UP'], 'crypt03': ['UP', 'UP'], 'crypt02': ['UP', 'UP'], 'crypt07': ['UP', 'UP'], 'crypt06': ['UP', 'UP'], 'crypt04': ['UP', 'UP'], 'crypt14': ['UP', 'UP']}
{'crypt08': ['UP', 'UP'], 'crypt03': ['UP', 'UP'], 'crypt02': ['UP', 'UP'], 'crypt07': ['UP', 'UP'], 'crypt06': ['UP', 'UP'], 'crypt04': ['UP', 'UP'], 'crypt14': ['UP', 'UP']}
{'crypt08': ['UP', 'UP'], 'crypt03': ['UP', 'UP'], 'crypt02': ['UP', 'UP'], 'crypt07': ['UP', 'UP'], 'crypt06': ['UP', 'UP'], 'crypt04': ['UP', 'UP'], 'crypt14': ['UP', 'UP']}
{'crypt08': ['UP', 'UP'], 'crypt03': ['UP', 'UP'], 'crypt02': ['DOWN', 'DOWN'], 'crypt07': ['UP', 'UP'], 'crypt06': ['UP', 'UP'], 'crypt04': ['UP', 'UP'], 'crypt14': ['UP', 'UP']}
{'crypt08': ['UP', 'UP'], 'crypt03': ['DOWN', 'DOWN'], 'crypt02': ['DOWN', 'DOWN'], 'crypt07': ['UP', 'UP'], 'crypt06': ['UP', 'UP'], 'crypt04': ['UP', 'UP'], 'crypt14': ['UP', 'UP']}
{'crypt08': ['UP', 'UP'], 'crypt03': ['DOWN', 'DOWN'], 'crypt02': ['DOWN', 'DOWN'], 'crypt07': ['UP', 'UP'], 'crypt06': ['DOWN', 'DOWN'], 'crypt04': ['DOWN', 'DOWN'], 'crypt14': ['UP', 'UP']}
{'crypt08': ['UP', 'UP'], 'crypt03': ['DOWN', 'DOWN'], 'crypt02': ['DOWN', 'DOWN'], 'crypt07': ['UP', 'UP'], 'crypt06': ['DOWN', 'DOWN'], 'crypt04': ['DOWN', 'DOWN'], 'crypt14': ['UP', 'UP']}
{'crypt08': ['UP', 'UP'], 'crypt03': ['DOWN', 'DOWN'], 'crypt02': ['DOWN', 'DOWN'], 'crypt07': ['UP', 'UP'], 'crypt06': ['DOWN', 'DOWN'], 'crypt04': ['DOWN', 'DOWN'], 'crypt14': ['UP', 'UP']}
{'crypt08': ['UP', 'UP'], 'crypt03': ['DOWN', 'DOWN'], 'crypt02': ['DOWN', 'DOWN'], 'crypt07': ['UP', 'UP'], 'crypt06': ['DOWN', 'DOWN'], 'crypt04': ['DOWN', 'DOWN'], 'crypt14': ['UP', 'UP']}
{'crypt08': ['UP', 'UP'], 'crypt03': ['DOWN', 'DOWN'], 'crypt02': ['DOWN', 'DOWN'], 'crypt07': ['UP', 'UP'], 'crypt06': ['DOWN', 'DOWN'], 'crypt04': ['DOWN', 'DOWN'], 'crypt14': ['UP', 'UP']}
{'crypt08': ['UP', 'UP'], 'crypt03': ['DOWN', 'DOWN'], 'crypt02': ['DOWN', 'DOWN'], 'crypt07': ['UP', 'UP'], 'crypt06': ['DOWN', 'DOWN'], 'crypt04': ['DOWN', 'DOWN'], 'crypt14': ['UP', 'UP']}
{'crypt08': ['UP', 'UP'], 'crypt03': ['DOWN', 'DOWN'], 'crypt02': ['DOWN', 'DOWN'], 'crypt07': ['UP', 'UP'], 'crypt06': ['DOWN', 'DOWN'], 'crypt04': ['DOWN', 'DOWN'], 'crypt14': ['UP', 'UP']}
{'crypt08': ['UP', 'UP'], 'crypt03': ['DOWN', 'DOWN'], 'crypt02': ['DOWN', 'DOWN'], 'crypt07': ['UP', 'UP'], 'crypt06': ['DOWN', 'DOWN'], 'crypt04': ['DOWN', 'DOWN'], 'crypt14': ['UP', 'UP']}
{'crypt08': ['UP', 'UP'], 'crypt03': ['DOWN', 'DOWN'], 'crypt02': ['DOWN', 'DOWN'], 'crypt07': ['UP', 'UP'], 'crypt06': ['DOWN', 'DOWN'], 'crypt04': ['DOWN', 'DOWN'], 'crypt14': ['UP', 'UP']}
{'crypt08': ['UP', 'UP'], 'crypt03': ['DOWN', 'DOWN'], 'crypt02': ['DOWN', 'DOWN'], 'crypt07': ['UP', 'UP'], 'crypt06': ['DOWN', 'DOWN'], 'crypt04': ['DOWN', 'DOWN'], 'crypt14': ['UP', 'UP']}
{'crypt08': ['UP', 'UP'], 'crypt03': ['DOWN', 'DOWN'], 'crypt02': ['DOWN', 'DOWN'], 'crypt07': ['UP', 'UP'], 'crypt06': ['DOWN', 'DOWN'], 'crypt04': ['DOWN', 'DOWN'], 'crypt14': ['UP', 'UP']}
{'crypt08': ['UP', 'UP'], 'crypt03': ['DOWN', 'DOWN'], 'crypt02': ['DOWN', 'DOWN'], 'crypt07': ['UP', 'UP'], 'crypt06': ['DOWN', 'DOWN'], 'crypt04': ['DOWN', 'DOWN'], 'crypt14': ['UP', 'UP']}
{'crypt08': ['UP', 'UP'], 'crypt03': ['DOWN', 'DOWN'], 'crypt02': ['DOWN', 'DOWN'], 'crypt07': ['UP', 'UP'], 'crypt06': ['DOWN', 'DOWN'], 'crypt04': ['DOWN', 'DOWN'], 'crypt14': ['UP', 'UP']}
{'crypt08': ['UP', 'UP'], 'crypt03': ['DOWN', 'DOWN'], 'crypt02': ['DOWN', 'DOWN'], 'crypt07': ['UP', 'UP'], 'crypt06': ['DOWN', 'DOWN'], 'crypt04': ['DOWN', 'DOWN'], 'crypt14': ['UP', 'UP']}
{'crypt08': ['UP', 'UP'], 'crypt03': ['DOWN', 'DOWN'], 'crypt02': ['DOWN', 'DOWN'], 'crypt07': ['UP', 'UP'], 'crypt06': ['DOWN', 'DOWN'], 'crypt04': ['DOWN', 'DOWN'], 'crypt14': ['UP', 'UP']}
{'crypt08': ['UP', 'UP'], 'crypt03': ['DOWN', 'DOWN'], 'crypt02': ['DOWN', 'DOWN'], 'crypt07': ['UP', 'UP'], 'crypt06': ['DOWN', 'DOWN'], 'crypt04': ['DOWN', 'DOWN'], 'crypt14': ['UP', 'UP']}
{'crypt08': ['UP', 'UP'], 'crypt03': ['DOWN', 'DOWN'], 'crypt02': ['DOWN', 'DOWN'], 'crypt07': ['UP', 'UP'], 'crypt06': ['DOWN', 'DOWN'], 'crypt04': ['DOWN', 'DOWN'], 'crypt14': ['UP', 'UP']}
{'crypt08': ['UP', 'UP'], 'crypt03': ['DOWN', 'DOWN'], 'crypt02': ['DOWN', 'DOWN'], 'crypt07': ['UP', 'UP'], 'crypt06': ['DOWN', 'DOWN'], 'crypt04': ['DOWN', 'DOWN'], 'crypt14': ['UP', 'UP']}
{'crypt08': ['UP', 'UP'], 'crypt03': ['DOWN', 'DOWN'], 'crypt02': ['DOWN', 'DOWN'], 'crypt07': ['UP', 'UP'], 'crypt06': ['DOWN', 'DOWN'], 'crypt04': ['DOWN', 'DOWN'], 'crypt14': ['UP', 'UP']}
{'crypt08': ['UP', 'UP'], 'crypt03': ['DOWN', 'DOWN'], 'crypt02': ['DOWN', 'DOWN'], 'crypt07': ['UP', 'UP'], 'crypt06': ['DOWN', 'DOWN'], 'crypt04': ['DOWN', 'DOWN'], 'crypt14': ['UP', 'UP']}
{'crypt08': ['UP', 'UP'], 'crypt03': ['DOWN', 'DOWN'], 'crypt02': ['DOWN', 'DOWN'], 'crypt07': ['UP', 'UP'], 'crypt06': ['DOWN', 'DOWN'], 'crypt04': ['DOWN', 'DOWN'], 'crypt14': ['UP', 'UP']}
{'crypt08': ['UP', 'UP'], 'crypt03': ['DOWN', 'DOWN'], 'crypt02': ['DOWN', 'DOWN'], 'crypt07': ['UP', 'UP'], 'crypt06': ['DOWN', 'DOWN'], 'crypt04': ['DOWN', 'DOWN'], 'crypt14': ['UP', 'UP']}
{'crypt08': ['UP', 'UP'], 'crypt03': ['DOWN', 'DOWN'], 'crypt02': ['DOWN', 'DOWN'], 'crypt07': ['UP', 'UP'], 'crypt06': ['DOWN', 'DOWN'], 'crypt04': ['DOWN', 'DOWN'], 'crypt14': ['UP', 'UP']}
{'crypt08': ['UP', 'UP'], 'crypt03': ['DOWN', 'DOWN'], 'crypt02': ['DOWN', 'DOWN'], 'crypt07': ['UP', 'UP'], 'crypt06': ['DOWN', 'DOWN'], 'crypt04': ['DOWN', 'DOWN'], 'crypt14': ['UP', 'UP']}
{'crypt08': ['UP', 'UP'], 'crypt03': ['DOWN', 'DOWN'], 'crypt02': ['DOWN', 'DOWN'], 'crypt07': ['UP', 'UP'], 'crypt06': ['DOWN', 'DOWN'], 'crypt04': ['DOWN', 'DOWN'], 'crypt14': ['UP', 'UP']}
{'crypt08': ['UP', 'UP'], 'crypt03': ['DOWN', 'DOWN'], 'crypt02': ['DOWN', 'DOWN'], 'crypt07': ['UP', 'UP'], 'crypt06': ['DOWN', 'DOWN'], 'crypt04': ['DOWN', 'DOWN'], 'crypt14': ['UP', 'UP']}
{'crypt08': ['UP', 'UP'], 'crypt03': ['DOWN', 'DOWN'], 'crypt02': ['DOWN', 'DOWN'], 'crypt07': ['UP', 'UP'], 'crypt06': ['DOWN', 'DOWN'], 'crypt04': ['DOWN', 'DOWN'], 'crypt14': ['UP', 'UP']}
{'crypt08': ['UP', 'UP'], 'crypt03': ['DOWN', 'DOWN'], 'crypt02': ['DOWN', 'DOWN'], 'crypt07': ['UP', 'UP'], 'crypt06': ['DOWN', 'DOWN'], 'crypt04': ['DOWN', 'DOWN'], 'crypt14': ['UP', 'UP']}
{'crypt08': ['UP', 'UP'], 'crypt03': ['DOWN', 'DOWN'], 'crypt02': ['DOWN', 'DOWN'], 'crypt07': ['UP', 'UP'], 'crypt06': ['DOWN', 'DOWN'], 'crypt04': ['DOWN', 'DOWN'], 'crypt14': ['UP', 'UP']}
{'crypt08': ['UP', 'UP'], 'crypt03': ['DOWN', 'DOWN'], 'crypt02': ['DOWN', 'DOWN'], 'crypt07': ['UP', 'UP'], 'crypt06': ['DOWN', 'DOWN'], 'crypt04': ['DOWN', 'DOWN'], 'crypt14': ['UP', 'UP']}
{'crypt08': ['UP', 'UP'], 'crypt03': ['DOWN', 'DOWN'], 'crypt02': ['DOWN', 'DOWN'], 'crypt07': ['UP', 'UP'], 'crypt06': ['DOWN', 'DOWN'], 'crypt04': ['DOWN', 'DOWN'], 'crypt14': ['UP', 'UP']}
{'crypt08': ['UP', 'UP'], 'crypt03': ['DOWN', 'DOWN'], 'crypt02': ['DOWN', 'DOWN'], 'crypt07': ['UP', 'UP'], 'crypt06': ['DOWN', 'DOWN'], 'crypt04': ['DOWN', 'DOWN'], 'crypt14': ['UP', 'UP']}
{'crypt08': ['UP', 'UP'], 'crypt03': ['DOWN', 'DOWN'], 'crypt02': ['DOWN', 'DOWN'], 'crypt07': ['UP', 'UP'], 'crypt06': ['DOWN', 'DOWN'], 'crypt04': ['DOWN', 'DOWN'], 'crypt14': ['UP', 'UP']}
{'crypt08': ['UP', 'UP'], 'crypt03': ['DOWN', 'DOWN'], 'crypt02': ['DOWN', 'DOWN'], 'crypt07': ['UP', 'UP'], 'crypt06': ['DOWN', 'DOWN'], 'crypt04': ['DOWN', 'DOWN'], 'crypt14': ['UP', 'UP']}
{'crypt08': ['UP', 'UP'], 'crypt03': ['DOWN', 'DOWN'], 'crypt02': ['DOWN', 'DOWN'], 'crypt07': ['UP', 'UP'], 'crypt06': ['DOWN', 'DOWN'], 'crypt04': ['DOWN', 'DOWN'], 'crypt14': ['UP', 'UP']}
{'crypt08': ['UP', 'UP'], 'crypt03': ['DOWN', 'DOWN'], 'crypt02': ['DOWN', 'DOWN'], 'crypt07': ['UP', 'UP'], 'crypt06': ['DOWN', 'DOWN'], 'crypt04': ['DOWN', 'DOWN'], 'crypt14': ['UP', 'UP']}
{'crypt08': ['UP', 'UP'], 'crypt03': ['DOWN', 'DOWN'], 'crypt02': ['DOWN', 'DOWN'], 'crypt07': ['UP', 'UP'], 'crypt06': ['DOWN', 'DOWN'], 'crypt04': ['DOWN', 'DOWN'], 'crypt14': ['UP', 'UP']}
{'crypt08': ['UP', 'UP'], 'crypt03': ['DOWN', 'DOWN'], 'crypt02': ['DOWN', 'DOWN'], 'crypt07': ['UP', 'UP'], 'crypt06': ['DOWN', 'DOWN'], 'crypt04': ['DOWN', 'DOWN'], 'crypt14': ['UP', 'UP']}
{'crypt08': ['UP', 'UP'], 'crypt03': ['DOWN', 'DOWN'], 'crypt02': ['DOWN', 'DOWN'], 'crypt07': ['UP', 'UP'], 'crypt06': ['DOWN', 'DOWN'], 'crypt04': ['DOWN', 'DOWN'], 'crypt14': ['UP', 'UP']}
{'crypt08': ['UP', 'UP'], 'crypt03': ['DOWN', 'DOWN'], 'crypt02': ['DOWN', 'DOWN'], 'crypt07': ['UP', 'UP'], 'crypt06': ['DOWN', 'DOWN'], 'crypt04': ['DOWN', 'DOWN'], 'crypt14': ['UP', 'UP']}
{'crypt08': ['UP', 'UP'], 'crypt03': ['DOWN', 'DOWN'], 'crypt02': ['DOWN', 'DOWN'], 'crypt07': ['UP', 'UP'], 'crypt06': ['DOWN', 'DOWN'], 'crypt04': ['DOWN', 'DOWN'], 'crypt14': ['UP', 'UP']}
{'crypt08': ['UP', 'UP'], 'crypt03': ['DOWN', 'DOWN'], 'crypt02': ['DOWN', 'DOWN'], 'crypt07': ['UP', 'UP'], 'crypt06': ['DOWN', 'DOWN'], 'crypt04': ['DOWN', 'DOWN'], 'crypt14': ['UP', 'UP']}
{'crypt08': ['UP', 'UP'], 'crypt03': ['DOWN', 'DOWN'], 'crypt02': ['DOWN', 'DOWN'], 'crypt07': ['UP', 'UP'], 'crypt06': ['DOWN', 'DOWN'], 'crypt04': ['DOWN', 'DOWN'], 'crypt14': ['UP', 'UP']}
{'crypt08': ['UP', 'UP'], 'crypt03': ['DOWN', 'DOWN'], 'crypt02': ['DOWN', 'DOWN'], 'crypt07': ['UP', 'UP'], 'crypt06': ['DOWN', 'DOWN'], 'crypt04': ['DOWN', 'DOWN'], 'crypt14': ['UP', 'UP']}
{'crypt08': ['UP', 'UP'], 'crypt03': ['DOWN', 'DOWN'], 'crypt02': ['DOWN', 'DOWN'], 'crypt07': ['UP', 'UP'], 'crypt06': ['DOWN', 'DOWN'], 'crypt04': ['DOWN', 'DOWN'], 'crypt14': ['UP', 'UP']}
{'crypt08': ['UP', 'UP'], 'crypt03': ['DOWN', 'DOWN'], 'crypt02': ['DOWN', 'DOWN'], 'crypt07': ['UP', 'UP'], 'crypt06': ['DOWN', 'DOWN'], 'crypt04': ['DOWN', 'DOWN'], 'crypt14': ['UP', 'UP']}
{'crypt08': ['UP', 'UP'], 'crypt03': ['DOWN', 'DOWN'], 'crypt02': ['DOWN', 'DOWN'], 'crypt07': ['UP', 'UP'], 'crypt06': ['DOWN', 'DOWN'], 'crypt04': ['DOWN', 'DOWN'], 'crypt14': ['UP', 'UP']}
{'crypt08': ['UP', 'UP'], 'crypt03': ['DOWN', 'DOWN'], 'crypt02': ['DOWN', 'DOWN'], 'crypt07': ['UP', 'UP'], 'crypt06': ['DOWN', 'DOWN'], 'crypt04': ['DOWN', 'DOWN'], 'crypt14': ['UP', 'UP']}
{'crypt08': ['UP', 'UP'], 'crypt03': ['DOWN', 'DOWN'], 'crypt02': ['DOWN', 'DOWN'], 'crypt07': ['UP', 'UP'], 'crypt06': ['DOWN', 'DOWN'], 'crypt04': ['DOWN', 'DOWN'], 'crypt14': ['UP', 'UP']}
{'crypt08': ['UP', 'UP'], 'crypt03': ['DOWN', 'DOWN'], 'crypt02': ['DOWN', 'DOWN'], 'crypt07': ['UP', 'UP'], 'crypt06': ['DOWN', 'DOWN'], 'crypt04': ['DOWN', 'DOWN'], 'crypt14': ['UP', 'UP']}
{'crypt08': ['UP', 'UP'], 'crypt03': ['DOWN', 'DOWN'], 'crypt02': ['DOWN', 'DOWN'], 'crypt07': ['UP', 'UP'], 'crypt06': ['DOWN', 'DOWN'], 'crypt04': ['DOWN', 'DOWN'], 'crypt14': ['UP', 'UP']}
{'crypt08': ['UP', 'UP'], 'crypt03': ['DOWN', 'DOWN'], 'crypt02': ['DOWN', 'DOWN'], 'crypt07': ['UP', 'UP'], 'crypt06': ['DOWN', 'DOWN'], 'crypt04': ['DOWN', 'DOWN'], 'crypt14': ['UP', 'UP']}
{'crypt08': ['UP', 'UP'], 'crypt03': ['DOWN', 'DOWN'], 'crypt02': ['DOWN', 'DOWN'], 'crypt07': ['UP', 'UP'], 'crypt06': ['DOWN', 'DOWN'], 'crypt04': ['DOWN', 'DOWN'], 'crypt14': ['UP', 'UP']}
{'crypt08': ['UP', 'UP'], 'crypt03': ['DOWN', 'DOWN'], 'crypt02': ['DOWN', 'DOWN'], 'crypt07': ['UP', 'UP'], 'crypt06': ['DOWN', 'DOWN'], 'crypt04': ['DOWN', 'DOWN'], 'crypt14': ['UP', 'UP']}
{'crypt08': ['UP', 'UP'], 'crypt03': ['DOWN', 'DOWN'], 'crypt02': ['DOWN', 'DOWN'], 'crypt07': ['UP', 'UP'], 'crypt06': ['DOWN', 'DOWN'], 'crypt04': ['DOWN', 'DOWN'], 'crypt14': ['UP', 'UP']}
{'crypt08': ['UP', 'UP'], 'crypt03': ['DOWN', 'DOWN'], 'crypt02': ['DOWN', 'DOWN'], 'crypt07': ['UP', 'UP'], 'crypt06': ['DOWN', 'DOWN'], 'crypt04': ['DOWN', 'DOWN'], 'crypt14': ['UP', 'UP']}
{'crypt08': ['UP', 'UP'], 'crypt03': ['DOWN', 'DOWN'], 'crypt02': ['DOWN', 'DOWN'], 'crypt07': ['UP', 'UP'], 'crypt06': ['DOWN', 'DOWN'], 'crypt04': ['DOWN', 'DOWN'], 'crypt14': ['UP', 'UP']}
{'crypt08': ['UP', 'UP'], 'crypt03': ['DOWN', 'DOWN'], 'crypt02': ['DOWN', 'DOWN'], 'crypt07': ['UP', 'UP'], 'crypt06': ['DOWN', 'DOWN'], 'crypt04': ['DOWN', 'DOWN'], 'crypt14': ['UP', 'UP']}
{'crypt08': ['UP', 'UP'], 'crypt03': ['DOWN', 'DOWN'], 'crypt02': ['DOWN', 'DOWN'], 'crypt07': ['UP', 'UP'], 'crypt06': ['DOWN', 'DOWN'], 'crypt04': ['DOWN', 'DOWN'], 'crypt14': ['UP', 'UP']}
{'crypt08': ['UP', 'UP'], 'crypt03': ['DOWN', 'DOWN'], 'crypt02': ['DOWN', 'DOWN'], 'crypt07': ['UP', 'UP'], 'crypt06': ['DOWN', 'DOWN'], 'crypt04': ['DOWN', 'DOWN'], 'crypt14': ['UP', 'UP']}
{'crypt08': ['UP', 'UP'], 'crypt03': ['DOWN', 'DOWN'], 'crypt02': ['UP', 'UP'], 'crypt07': ['UP', 'UP'], 'crypt06': ['DOWN', 'DOWN'], 'crypt04': ['DOWN', 'DOWN'], 'crypt14': ['UP', 'UP']}
{'crypt08': ['UP', 'UP'], 'crypt03': ['UP', 'UP'], 'crypt02': ['UP', 'UP'], 'crypt07': ['UP', 'UP'], 'crypt06': ['DOWN', 'DOWN'], 'crypt04': ['DOWN', 'DOWN'], 'crypt14': ['UP', 'UP']}
{'crypt08': ['UP', 'UP'], 'crypt03': ['UP', 'UP'], 'crypt02': ['UP', 'UP'], 'crypt07': ['UP', 'UP'], 'crypt06': ['DOWN', 'DOWN'], 'crypt04': ['UP', 'UP'], 'crypt14': ['UP', 'UP']}
{'crypt08': ['UP', 'UP'], 'crypt03': ['UP', 'UP'], 'crypt02': ['UP', 'UP'], 'crypt07': ['UP', 'UP'], 'crypt06': ['UP', 'UP'], 'crypt04': ['UP', 'UP'], 'crypt14': ['UP', 'UP']}
{'crypt08': ['UP', 'UP'], 'crypt03': ['UP', 'UP'], 'crypt02': ['UP', 'UP'], 'crypt07': ['UP', 'UP'], 'crypt06': ['UP', 'UP'], 'crypt04': ['UP', 'UP'], 'crypt14': ['UP', 'UP']}
{'crypt08': ['UP', 'UP'], 'crypt03': ['UP', 'UP'], 'crypt02': ['UP', 'UP'], 'crypt07': ['UP', 'UP'], 'crypt06': ['UP', 'UP'], 'crypt04': ['UP', 'UP'], 'crypt14': ['UP', 'UP']}
{'crypt08': ['UP', 'UP'], 'crypt03': ['UP', 'UP'], 'crypt02': ['UP', 'UP'], 'crypt07': ['UP', 'UP'], 'crypt06': ['UP', 'UP'], 'crypt04': ['UP', 'UP'], 'crypt14': ['UP', 'UP']}
{'crypt08': ['UP', 'UP'], 'crypt03': ['UP', 'UP'], 'crypt02': ['UP', 'UP'], 'crypt07': ['UP', 'UP'], 'crypt06': ['UP', 'UP'], 'crypt04': ['UP', 'UP'], 'crypt14': ['UP', 'UP']}
{'crypt08': ['UP', 'UP'], 'crypt03': ['UP', 'UP'], 'crypt02': ['UP', 'UP'], 'crypt07': ['UP', 'UP'], 'crypt06': ['UP', 'UP'], 'crypt04': ['UP', 'UP'], 'crypt14': ['UP', 'UP']}
{'crypt08': ['UP', 'UP'], 'crypt03': ['UP', 'UP'], 'crypt02': ['UP', 'UP'], 'crypt07': ['UP', 'UP'], 'crypt06': ['UP', 'UP'], 'crypt04': ['UP', 'UP'], 'crypt14': ['UP', 'UP']}
{'crypt08': ['UP', 'UP'], 'crypt03': ['UP', 'UP'], 'crypt02': ['UP', 'UP'], 'crypt07': ['UP', 'UP'], 'crypt06': ['UP', 'UP'], 'crypt04': ['UP', 'UP'], 'crypt14': ['UP', 'UP']}
{'crypt08': ['UP', 'UP'], 'crypt03': ['UP', 'UP'], 'crypt02': ['UP', 'UP'], 'crypt07': ['UP', 'UP'], 'crypt06': ['UP', 'UP'], 'crypt04': ['UP', 'UP'], 'crypt14': ['UP', 'UP']}
{'crypt08': ['UP', 'UP'], 'crypt03': ['UP', 'UP'], 'crypt02': ['UP', 'UP'], 'crypt07': ['UP', 'UP'], 'crypt06': ['UP', 'UP'], 'crypt04': ['UP', 'UP'], 'crypt14': ['UP', 'UP']}
{'crypt08': ['UP', 'UP'], 'crypt03': ['UP', 'UP'], 'crypt02': ['UP', 'UP'], 'crypt07': ['UP', 'UP'], 'crypt06': ['UP', 'UP'], 'crypt04': ['UP', 'UP'], 'crypt14': ['UP', 'UP']}
{'crypt08': ['UP', 'UP'], 'crypt03': ['UP', 'UP'], 'crypt02': ['UP', 'UP'], 'crypt07': ['UP', 'UP'], 'crypt06': ['UP', 'UP'], 'crypt04': ['UP', 'UP'], 'crypt14': ['UP', 'UP']}
{'crypt08': ['UP', 'UP'], 'crypt03': ['UP', 'UP'], 'crypt02': ['UP', 'UP'], 'crypt07': ['UP', 'UP'], 'crypt06': ['UP', 'UP'], 'crypt04': ['UP', 'UP'], 'crypt14': ['UP', 'UP']}
{'crypt08': ['UP', 'UP'], 'crypt03': ['UP', 'UP'], 'crypt02': ['UP', 'UP'], 'crypt07': ['UP', 'UP'], 'crypt06': ['UP', 'UP'], 'crypt04': ['UP', 'UP'], 'crypt14': ['UP', 'UP']}
{'crypt08': ['UP', 'UP'], 'crypt03': ['UP', 'UP'], 'crypt02': ['UP', 'UP'], 'crypt07': ['UP', 'UP'], 'crypt06': ['UP', 'UP'], 'crypt04': ['UP', 'UP'], 'crypt14': ['UP', 'UP']}
{'crypt08': ['UP', 'UP'], 'crypt03': ['UP', 'UP'], 'crypt02': ['UP', 'UP'], 'crypt07': ['UP', 'UP'], 'crypt06': ['UP', 'UP'], 'crypt04': ['UP', 'UP'], 'crypt14': ['UP', 'UP']}
{'crypt08': ['UP', 'UP'], 'crypt03': ['UP', 'UP'], 'crypt02': ['UP', 'UP'], 'crypt07': ['UP', 'UP'], 'crypt06': ['UP', 'UP'], 'crypt04': ['UP', 'UP'], 'crypt14': ['UP', 'UP']}
{'crypt08': ['UP', 'UP'], 'crypt03': ['UP', 'UP'], 'crypt02': ['UP', 'UP'], 'crypt07': ['UP', 'UP'], 'crypt06': ['UP', 'UP'], 'crypt04': ['UP', 'UP'], 'crypt14': ['UP', 'UP']}
{'crypt08': ['UP', 'UP'], 'crypt03': ['UP', 'UP'], 'crypt02': ['UP', 'UP'], 'crypt07': ['UP', 'UP'], 'crypt06': ['UP', 'UP'], 'crypt04': ['UP', 'UP'], 'crypt14': ['UP', 'UP']}
{'crypt08': ['UP', 'UP'], 'crypt03': ['UP', 'UP'], 'crypt02': ['UP', 'UP'], 'crypt07': ['UP', 'UP'], 'crypt06': ['UP', 'UP'], 'crypt04': ['UP', 'UP'], 'crypt14': ['UP', 'UP']}
{'crypt08': ['UP', 'UP'], 'crypt03': ['UP', 'UP'], 'crypt02': ['UP', 'UP'], 'crypt07': ['UP', 'UP'], 'crypt06': ['UP', 'UP'], 'crypt04': ['UP', 'UP'], 'crypt14': ['UP', 'UP']}
{'crypt08': ['UP', 'UP'], 'crypt03': ['UP', 'UP'], 'crypt02': ['UP', 'UP'], 'crypt07': ['UP', 'UP'], 'crypt06': ['UP', 'UP'], 'crypt04': ['UP', 'UP'], 'crypt14': ['UP', 'UP']}
{'crypt08': ['UP', 'UP'], 'crypt03': ['UP', 'UP'], 'crypt02': ['UP', 'UP'], 'crypt07': ['UP', 'UP'], 'crypt06': ['UP', 'UP'], 'crypt04': ['UP', 'UP'], 'crypt14': ['UP', 'UP']}
{'crypt08': ['UP', 'UP'], 'crypt03': ['UP', 'UP'], 'crypt02': ['UP', 'UP'], 'crypt07': ['UP', 'UP'], 'crypt06': ['UP', 'UP'], 'crypt04': ['UP', 'UP'], 'crypt14': ['UP', 'UP']}
{'crypt08': ['UP', 'UP'], 'crypt03': ['UP', 'UP'], 'crypt02': ['UP', 'UP'], 'crypt07': ['UP', 'UP'], 'crypt06': ['UP', 'UP'], 'crypt04': ['UP', 'UP'], 'crypt14': ['UP', 'UP']}
{'crypt08': ['UP', 'UP'], 'crypt03': ['UP', 'UP'], 'crypt02': ['UP', 'UP'], 'crypt07': ['UP', 'UP'], 'crypt06': ['UP', 'UP'], 'crypt04': ['UP', 'UP'], 'crypt14': ['UP', 'UP']}
{'crypt08': ['UP', 'UP'], 'crypt03': ['UP', 'UP'], 'crypt02': ['UP', 'UP'], 'crypt07': ['UP', 'UP'], 'crypt06': ['UP', 'UP'], 'crypt04': ['UP', 'UP'], 'crypt14': ['UP', 'UP']}
{'crypt08': ['UP', 'UP'], 'crypt03': ['UP', 'UP'], 'crypt02': ['UP', 'UP'], 'crypt07': ['UP', 'UP'], 'crypt06': ['UP', 'UP'], 'crypt04': ['UP', 'UP'], 'crypt14': ['UP', 'UP']}
