2009	6	4	0	6/4/2009 0:00	29	light rain	57	57	56	97	4	30	4	6/4/2009 0:00	0.00
2009	6	4	1	6/4/2009 1:00	54	rain	55	55	54	94	4	30	5	6/4/2009 1:00	0.00
2009	6	4	2	6/4/2009 2:00	29	light rain	55	55	54	94	4	29.99	3	6/4/2009 2:00	0.00
2009	6	4	3	6/4/2009 3:00	29	light rain	55	55	54	94	10	29.97	5	6/4/2009 3:00	0.00
2009	6	4	4	6/4/2009 4:00	29	light rain	55	55	54	94	6	29.97	5	6/4/2009 4:00	0.00
2009	6	4	5	6/4/2009 5:00	29	light rain	55	55	53	93	9	29.97	4	6/4/2009 5:00	0.00
2009	6	4	6	6/4/2009 6:00	29	light rain	54	54	54	100	10	29.99	0	6/4/2009 6:00	0.00
2009	6	4	7	6/4/2009 7:00	6	cloudy	55	55	53	93	10	30.01	0	6/4/2009 7:00	0.00
2009	6	4	8	6/4/2009 8:00	6	cloudy	56	56	53	90	10	30.01	0	6/4/2009 8:00	0.00
2009	6	4	9	6/4/2009 9:00	6	cloudy	57	57	53	87	10	30.01	3	6/4/2009 9:00	0.00
2009	6	4	10	6/4/2009 10:00	6	cloudy	59	59	54	83	10	30.01	0	6/4/2009 10:00	0.00
2009	6	4	11	6/4/2009 11:00	6	cloudy	62	62	55	78	10	30.01	0	6/4/2009 11:00	0.00
2009	6	4	12	6/4/2009 12:00	43	mostly cloudy	66	66	55	68	10	30	0	6/4/2009 12:00	0.00
2009	6	4	13	6/4/2009 13:00	43	mostly cloudy	66	66	54	65	10	30	3	6/4/2009 13:00	0.00
2009	6	4	14	6/4/2009 14:00	6	cloudy	65	65	54	68	10	29.99	0	6/4/2009 14:00	301.50
2009	6	4	15	6/4/2009 15:00	6	cloudy	65	65	55	70	10	29.99	4	6/4/2009 15:00	413.10
2009	6	4	16	6/4/2009 16:00	6	cloudy	65	65	55	70	10	29.97	4	6/4/2009 16:00	262.60
2009	6	4	17	6/4/2009 17:00	6	cloudy	64	64	55	73	10	29.97	3	6/4/2009 17:00	138.70
2009	6	4	18	6/4/2009 18:00	6	cloudy	63	63	56	78	10	29.96	0	6/4/2009 18:00	53.70
2009	6	4	19	6/4/2009 19:00	6	cloudy	62	62	56	80	10	29.96	3	6/4/2009 19:00	13.90
2009	6	4	20	6/4/2009 20:00	6	cloudy	60	60	57	90	10	29.98	0	6/4/2009 20:00	0.00
2009	6	4	21	6/4/2009 21:00	6	cloudy	59	59	56	90	10	29.98	0	6/4/2009 21:00	0.00
2009	6	4	22	6/4/2009 22:00	6	cloudy	57	57	55	93	7	30	0	6/4/2009 22:00	0.00
2009	6	4	23	6/4/2009 23:00	6	cloudy	56	56	55	97	4	30	0	6/4/2009 23:00	0.00
2009	6	5	0	6/5/2009 0:00	6	cloudy	56	56	55	97	6	29.99	0	6/5/2009 0:00	0.00
2009	6	5	1	6/5/2009 1:00	6	cloudy	56	56	55	97	5	29.99	0	6/5/2009 1:00	0.00
2009	6	5	2	6/5/2009 2:00	29	light rain	55	55	55	99	10	29.99	1	6/5/2009 2:00	0.00
2009	6	5	3	6/5/2009 3:00	6	cloudy	56	56	55	97	3	29.96	0	6/5/2009 3:00	0.00
2009	6	5	4	6/5/2009 4:00	29	light rain	56	56	55	98	10	29.96	0	6/5/2009 4:00	0.00
2009	6	5	5	6/5/2009 5:00	29	light rain	56	56	53	91	10	29.94	0	6/5/2009 5:00	0.00
2009	6	5	6	6/5/2009 6:00	29	light rain	56	56	54	93	7	29.93	2	6/5/2009 6:00	13.20
2009	6	5	7	6/5/2009 7:00	57	rain shower	57	57	55	95	7	29.95	0	6/5/2009 7:00	61.20
2009	6	5	8	6/5/2009 8:00	29	light rain	58	58	56	93	10	29.94	0	6/5/2009 8:00	67.10
2009	6	5	9	6/5/2009 9:00	29	light rain	59	59	55	88	4	29.94	0	6/5/2009 9:00	124.60
2009	6	5	10	6/5/2009 10:00	57	rain shower	59	59	57	93	7	29.94	0	6/5/2009 10:00	132.10
2009	6	5	11	6/5/2009 11:00	57	rain shower	60	60	56	86	7	29.94	9	6/5/2009 11:00	172.90
2009	6	5	12	6/5/2009 12:00	29	light rain	58	58	57	95	10	29.93	4	6/5/2009 12:00	180.80
2009	6	5	13	6/5/2009 13:00	29	light rain	58	58	57	94	9	29.92	5	6/5/2009 13:00	136.30
2009	6	5	14	6/5/2009 14:00	29	light rain	60	60	58	92	10	29.91	5	6/5/2009 14:00	113.60
2009	6	5	15	6/5/2009 15:00	29	light rain	59	59	55	88	10	29.89	8	6/5/2009 15:00	130.40
2009	6	5	16	6/5/2009 16:00	29	light rain	57	57	55	94	9	29.88	7	6/5/2009 16:00	71.30
2009	6	5	17	6/5/2009 17:00	29	light rain	58	58	55	90	10	29.86	6	6/5/2009 17:00	61.90
2009	6	5	18	6/5/2009 18:00	29	light rain	57	57	54	90	10	29.85	6	6/5/2009 18:00	31.30
2009	6	5	19	6/5/2009 19:00	29	light rain	57	57	54	92	10	29.85	4	6/5/2009 19:00	5.40
2009	6	5	20	6/5/2009 20:00	29	light rain	57	57	55	94	5	29.86	0	6/5/2009 20:00	0.00
2009	6	5	21	6/5/2009 21:00	6	cloudy	57	57	55	93	10	29.85	3	6/5/2009 21:00	0.00
2009	6	5	22	6/5/2009 22:00	6	cloudy	58	58	55	90	10	29.86	5	6/5/2009 22:00	0.00
2009	6	5	23	6/5/2009 23:00	54	rain	57	57	55	93	1.8	29.87	0	6/5/2009 23:00	0.00
2009	6	6	0	6/6/2009 0:00	29	light rain	57	57	55	94	3	29.88	0	6/6/2009 0:00	0.00
2009	6	6	1	6/6/2009 1:00	6	cloudy	57	57	55	93	10	29.86	3	6/6/2009 1:00	0.00
2009	6	6	2	6/6/2009 2:00	6	cloudy	57	57	56	96	10	29.85	0	6/6/2009 2:00	0.00
2009	6	6	3	6/6/2009 3:00	6	cloudy	57	57	55	93	8	29.85	0	6/6/2009 3:00	0.00
2009	6	6	4	6/6/2009 4:00	18	fog	55	55	54	96	1	29.87	0	6/6/2009 4:00	0.00
2009	6	6	5	6/6/2009 5:00	6	cloudy	56	56	54	93	7	29.88	0	6/6/2009 5:00	0.00
2009	6	6	6	6/6/2009 6:00	18	fog	55	55	54	96	0.8	29.89	0	6/6/2009 6:00	58.40
2009	6	6	7	6/6/2009 7:00	6	cloudy	57	57	55	94	5	29.91	0	6/6/2009 7:00	169.20
2009	6	6	8	6/6/2009 8:00	6	cloudy	60	60	57	90	8	29.93	0	6/6/2009 8:00	314.10
2009	6	6	9	6/6/2009 9:00	6	cloudy	62	62	58	86	10	29.95	0	6/6/2009 9:00	262.90
2009	6	6	10	6/6/2009 10:00	6	cloudy	64	64	59	84	10	29.95	0	6/6/2009 10:00	497.60
2009	6	6	11	6/6/2009 11:00	6	cloudy	64	64	59	84	10	29.95	3	6/6/2009 11:00	596.90
2009	6	6	12	6/6/2009 12:00	6	cloudy	66	66	60	81	10	29.96	0	6/6/2009 12:00	627.90
2009	6	6	13	6/6/2009 13:00	43	mostly cloudy	70	70	60	71	10	29.96	3	6/6/2009 13:00	1040.80
2009	6	6	14	6/6/2009 14:00	50	partly cloudy	75	75	60	60	10	29.94	7	6/6/2009 14:00	837.40
2009	6	6	15	6/6/2009 15:00	74	sunny	76	76	60	58	10	29.93	0	6/6/2009 15:00	800.30
2009	6	6	16	6/6/2009 16:00	43	mostly cloudy	76	76	59	56	10	29.91	3	6/6/2009 16:00	716.10
2009	6	6	17	6/6/2009 17:00	74	sunny	78	78	59	52	10	29.9	0	6/6/2009 17:00	404.90
2009	6	6	18	6/6/2009 18:00	74	sunny	77	77	59	54	10	29.91	0	6/6/2009 18:00	179.80
2009	6	6	19	6/6/2009 19:00	74	sunny	76	76	59	56	10	29.92	0	6/6/2009 19:00	33.30
2009	6	6	20	6/6/2009 20:00	74	sunny	73	73	60	64	10	29.93	0	6/6/2009 20:00	1.10
2009	6	6	21	6/6/2009 21:00	3	clear	66	66	61	84	10	29.94	0	6/6/2009 21:00	0.00
2009	6	6	22	6/6/2009 22:00	3	clear	62	62	60	93	8	29.96	0	6/6/2009 22:00	0.00
2009	6	6	23	6/6/2009 23:00	18	fog	59	59	57	94	1.8	29.96	0	6/6/2009 23:00	0.00
2009	6	7	0	6/7/2009 0:00	18	fog	57	57	57	100	0.8	29.97	0	6/7/2009 0:00	0.00
2009	6	7	1	6/7/2009 1:00	18	fog	56	56	55	97	0.5	29.98	0	6/7/2009 1:00	0.00
2009	6	7	2	6/7/2009 2:00	18	fog	54	54	54	100	0.5	29.98	0	6/7/2009 2:00	0.00
2009	6	7	3	6/7/2009 3:00	18	fog	54	54	53	97	0.5	29.98	0	6/7/2009 3:00	0.00
2009	6	7	4	6/7/2009 4:00	3	clear	54	54	52	94	10	29.98	0	6/7/2009 4:00	0.00
2009	6	7	5	6/7/2009 5:00	50	partly cloudy	53	53	51	93	6	29.98	0	6/7/2009 5:00	0.30
2009	6	7	6	6/7/2009 6:00	74	sunny	52	52	51	97	8	30	0	6/7/2009 6:00	51.00
2009	6	7	7	6/7/2009 7:00	74	sunny	56	56	54	93	7	30.01	0	6/7/2009 7:00	192.00
2009	6	7	8	6/7/2009 8:00	74	sunny	63	63	59	87	7	30.01	0	6/7/2009 8:00	395.90
2009	6	7	9	6/7/2009 9:00	74	sunny	69	69	61	75	10	30.03	0	6/7/2009 9:00	578.50
2009	6	7	10	6/7/2009 10:00	74	sunny	74	74	57	55	10	30.02	0	6/7/2009 10:00	717.50
2009	6	7	11	6/7/2009 11:00	74	sunny	76	76	59	56	10	30.01	3	6/7/2009 11:00	796.30
2009	6	7	12	6/7/2009 12:00	74	sunny	78	78	60	54	10	30.01	0	6/7/2009 12:00	830.70
2009	6	7	13	6/7/2009 13:00	74	sunny	80	80	60	50	10	29.98	6	6/7/2009 13:00	792.10
2009	6	7	14	6/7/2009 14:00	74	sunny	81	81	59	47	10	29.97	7	6/7/2009 14:00	619.10
2009	6	7	15	6/7/2009 15:00	74	sunny	83	83	57	41	10	29.96	3	6/7/2009 15:00	553.70
2009	6	7	16	6/7/2009 16:00	50	partly cloudy	82	82	57	42	10	29.94	6	6/7/2009 16:00	541.20
2009	6	7	17	6/7/2009 17:00	50	partly cloudy	83	83	59	44	10	29.93	4	6/7/2009 17:00	321.90
2009	6	7	18	6/7/2009 18:00	50	partly cloudy	80	80	58	47	10	29.91	5	6/7/2009 18:00	147.70
2009	6	7	19	6/7/2009 19:00	50	partly cloudy	79	79	57	47	10	29.91	3	6/7/2009 19:00	27.30
2009	6	7	20	6/7/2009 20:00	50	partly cloudy	76	76	58	54	10	29.93	0	6/7/2009 20:00	1.20
2009	6	7	21	6/7/2009 21:00	43	mostly cloudy	73	73	59	61	10	29.93	0	6/7/2009 21:00	0.00
2009	6	7	22	6/7/2009 22:00	43	mostly cloudy	69	69	59	70	10	29.95	0	6/7/2009 22:00	0.00
2009	6	7	23	6/7/2009 23:00	50	partly cloudy	68	68	60	76	10	29.96	0	6/7/2009 23:00	0.00
2009	6	8	0	6/8/2009 0:00	50	partly cloudy	64	64	61	90	8	29.96	0	6/8/2009 0:00	0.00
2009	6	8	1	6/8/2009 1:00	50	partly cloudy	63	63	61	93	6	29.96	0	6/8/2009 1:00	0.00
2009	6	8	2	6/8/2009 2:00	57	rain shower	61	61	61	100	7	29.96	0	6/8/2009 2:00	0.00
2009	6	8	3	6/8/2009 3:00	6	cloudy	64	64	61	90	6	29.95	0	6/8/2009 3:00	0.00
2009	6	8	4	6/8/2009 4:00	6	cloudy	63	63	61	93	5	29.94	0	6/8/2009 4:00	0.00
2009	6	8	5	6/8/2009 5:00	43	mostly cloudy	63	63	61	93	5	29.94	0	6/8/2009 5:00	0.00
2009	6	8	6	6/8/2009 6:00	43	mostly cloudy	63	63	61	93	4	29.94	0	6/8/2009 6:00	35.20
2009	6	8	7	6/8/2009 7:00	18	fog	64	64	62	93	2.5	29.94	0	6/8/2009 7:00	147.10
2009	6	8	8	6/8/2009 8:00	6	cloudy	68	68	64	87	5	29.94	0	6/8/2009 8:00	394.30
2009	6	8	9	6/8/2009 9:00	10	fair	73	73	63	71	8	29.96	3	6/8/2009 9:00	522.10
2009	6	8	10	6/8/2009 10:00	43	mostly cloudy	73	73	58	59	10	29.97	9	6/8/2009 10:00	693.80
2009	6	8	11	6/8/2009 11:00	6	cloudy	73	73	58	59	10	29.97	7	6/8/2009 11:00	631.90
2009	6	8	12	6/8/2009 12:00	6	cloudy	73	73	58	59	10	29.96	6	6/8/2009 12:00	708.10
2009	6	8	13	6/8/2009 13:00	6	cloudy	72	72	58	61	10	29.96	6	6/8/2009 13:00	373.00
2009	6	8	14	6/8/2009 14:00	43	mostly cloudy	77	77	60	56	10	29.94	8	6/8/2009 14:00	304.60
2009	6	8	15	6/8/2009 15:00	50	partly cloudy	79	79	62	56	10	29.94	4	6/8/2009 15:00	703.10
2009	6	8	16	6/8/2009 16:00	43	mostly cloudy	78	78	62	58	10	29.93	5	6/8/2009 16:00	655.50
2009	6	8	17	6/8/2009 17:00	50	partly cloudy	76	76	64	67	8	29.92	8	6/8/2009 17:00	409.90
2009	6	8	18	6/8/2009 18:00	50	partly cloudy	74	74	62	66	9	29.92	5	6/8/2009 18:00	195.70
2009	6	8	19	6/8/2009 19:00	74	sunny	72	72	61	68	9	29.93	3	6/8/2009 19:00	50.20
2009	6	8	20	6/8/2009 20:00	74	sunny	69	69	60	73	8	29.93	3	6/8/2009 20:00	0.80
2009	6	8	21	6/8/2009 21:00	29	light rain	66	66	58	75	10	29.94	0	6/8/2009 21:00	0.00
2009	6	8	22	6/8/2009 22:00	6	cloudy	65	65	59	81	10	29.95	0	6/8/2009 22:00	0.00
2009	6	8	23	6/8/2009 23:00	6	cloudy	65	65	60	84	8	29.96	0	6/8/2009 23:00	0.00
2009	6	9	0	6/9/2009 0:00	6	cloudy	64	64	61	90	6	29.93	3	6/9/2009 0:00	0.00
2009	6	9	1	6/9/2009 1:00	6	cloudy	63	63	61	93	5	29.92	4	6/9/2009 1:00	0.00
2009	6	9	2	6/9/2009 2:00	81	thunder in the vicinity	63	63	61	93	4	29.94	0	6/9/2009 2:00	0.00
2009	6	9	3	6/9/2009 3:00	6	cloudy	63	63	61	93	4	29.91	0	6/9/2009 3:00	0.00
2009	6	9	4	6/9/2009 4:00	43	mostly cloudy	62	62	61	96	3	29.9	0	6/9/2009 4:00	0.00
2009	6	9	5	6/9/2009 5:00	6	cloudy	63	63	61	93	3	29.9	0	6/9/2009 5:00	0.00
2009	6	9	6	6/9/2009 6:00	6	cloudy	63	63	61	94	3	29.89	3	6/9/2009 6:00	10.80
2009	6	9	7	6/9/2009 7:00	29	light rain	63	63	61	93	5	29.9	0	6/9/2009 7:00	16.70
2009	6	9	8	6/9/2009 8:00	24	heavy t-storm	63	63	61	94	1	29.94	3	6/9/2009 8:00	0.00
2009	6	9	9	6/9/2009 9:00	29	light rain	63	63	61	94	10	29.9	0	6/9/2009 9:00	7.00
2009	6	9	10	6/9/2009 10:00	6	cloudy	64	64	62	93	9	29.88	3	6/9/2009 10:00	343.90
2009	6	9	11	6/9/2009 11:00	6	cloudy	66	66	63	88	8	29.9	3	6/9/2009 11:00	198.80
2009	6	9	12	6/9/2009 12:00	6	cloudy	66	66	63	90	8	29.93	5	6/9/2009 12:00	506.80
2009	6	9	13	6/9/2009 13:00	6	cloudy	69	69	64	84	9	29.91	7	6/9/2009 13:00	502.10
2009	6	9	14	6/9/2009 14:00	6	cloudy	71	71	64	78	9	29.9	3	6/9/2009 14:00	425.00
2009	6	9	15	6/9/2009 15:00	6	cloudy	73	73	65	76	8	29.88	6	6/9/2009 15:00	348.20
2009	6	9	16	6/9/2009 16:00	6	cloudy	71	71	65	81	10	29.86	0	6/9/2009 16:00	143.90
2009	6	9	17	6/9/2009 17:00	6	cloudy	71	71	65	81	8	29.85	0	6/9/2009 17:00	155.70
2009	6	9	18	6/9/2009 18:00	50	partly cloudy	72	72	65	78	9	29.85	0	6/9/2009 18:00	66.60
2009	6	9	19	6/9/2009 19:00	6	cloudy	71	71	67	87	8	29.85	0	6/9/2009 19:00	5.10
2009	6	9	20	6/9/2009 20:00	6	cloudy	71	71	66	84	7	29.86	0	6/9/2009 20:00	0.00
2009	6	9	21	6/9/2009 21:00	6	cloudy	70	70	66	87	8	29.87	3	6/9/2009 21:00	0.00
2009	6	9	22	6/9/2009 22:00	43	mostly cloudy	69	69	67	93	8	29.87	0	6/9/2009 22:00	0.00
2009	6	9	23	6/9/2009 23:00	6	cloudy	70	70	67	90	10	29.88	0	6/9/2009 23:00	0.00
2009	6	10	0	6/10/2009 0:00	6	cloudy	69	69	66	90	6	29.88	0	6/10/2009 0:00	0.00
2009	6	10	1	6/10/2009 1:00	6	cloudy	68	68	66	93	5	29.89	0	6/10/2009 1:00	0.00
2009	6	10	2	6/10/2009 2:00	6	cloudy	68	68	65	90	5	29.89	0	6/10/2009 2:00	0.00
2009	6	10	3	6/10/2009 3:00	6	cloudy	67	67	63	87	5	29.89	3	6/10/2009 3:00	0.00
2009	6	10	4	6/10/2009 4:00	6	cloudy	66	66	62	87	7	29.88	3	6/10/2009 4:00	0.00
2009	6	10	5	6/10/2009 5:00	6	cloudy	65	65	62	90	5	29.88	0	6/10/2009 5:00	0.00
2009	6	10	6	6/10/2009 6:00	6	cloudy	65	65	62	90	4	29.89	3	6/10/2009 6:00	0.00
2009	6	10	7	6/10/2009 7:00	6	cloudy	64	64	62	93	1.2	29.91	3	6/10/2009 7:00	17.70
2009	6	10	8	6/10/2009 8:00	6	cloudy	64	64	62	93	3	29.93	0	6/10/2009 8:00	65.60
2009	6	10	9	6/10/2009 9:00	6	cloudy	64	64	62	93	3	29.95	0	6/10/2009 9:00	146.50
2009	6	10	10	6/10/2009 10:00	6	cloudy	65	65	61	87	4	29.94	3	6/10/2009 10:00	196.20
2009	6	10	11	6/10/2009 11:00	6	cloudy	66	66	61	83	10	29.94	3	6/10/2009 11:00	247.70
2009	6	10	12	6/10/2009 12:00	6	cloudy	67	67	61	81	10	29.94	3	6/10/2009 12:00	221.40
2009	6	10	13	6/10/2009 13:00	6	cloudy	70	70	63	78	10	29.94	0	6/10/2009 13:00	582.00
2009	6	10	14	6/10/2009 14:00	6	cloudy	70	70	63	78	10	29.91	0	6/10/2009 14:00	848.00
2009	6	10	15	6/10/2009 15:00	6	cloudy	72	72	64	76	10	29.91	0	6/10/2009 15:00	533.60
2009	6	10	16	6/10/2009 16:00	6	cloudy	73	73	65	76	9	29.9	0	6/10/2009 16:00	291.80
2009	6	10	17	6/10/2009 17:00	6	cloudy	72	72	65	78	7	29.89	3	6/10/2009 17:00	216.00
2009	6	10	18	6/10/2009 18:00	6	cloudy	70	70	63	78	9	29.9	6	6/10/2009 18:00	90.70
2009	6	10	19	6/10/2009 19:00	6	cloudy	69	69	62	78	9	29.91	0	6/10/2009 19:00	15.90
2009	6	10	20	6/10/2009 20:00	50	partly cloudy	67	67	62	84	10	29.92	3	6/10/2009 20:00	0.00
2009	6	10	21	6/10/2009 21:00	50	partly cloudy	66	66	61	84	10	29.91	0	6/10/2009 21:00	0.00
2009	6	10	22	6/10/2009 22:00	3	clear	65	65	60	84	10	29.92	5	6/10/2009 22:00	0.00
2009	6	10	23	6/10/2009 23:00	6	cloudy	64	64	60	87	10	29.94	0	6/10/2009 23:00	0.00
2009	6	11	0	6/11/2009 0:00	6	cloudy	63	63	60	90	8	29.94	3	6/11/2009 0:00	0.00
2009	6	11	1	6/11/2009 1:00	6	cloudy	64	64	60	87	7	29.93	0	6/11/2009 1:00	0.00
2009	6	11	2	6/11/2009 2:00	57	rain shower	64	64	60	88	7	29.93	1	6/11/2009 2:00	0.00
2009	6	11	3	6/11/2009 3:00	57	rain shower	63	63	60	90	7	29.94	0	6/11/2009 3:00	0.00
2009	6	11	4	6/11/2009 4:00	29	light rain	62	62	61	96	4	29.92	0	6/11/2009 4:00	0.00
2009	6	11	5	6/11/2009 5:00	83	drizzle and fog	62	62	61	94	2	29.93	1	6/11/2009 5:00	0.00
2009	6	11	6	6/11/2009 6:00	29	light rain	62	62	61	94	5	29.93	1	6/11/2009 6:00	0.00
2009	6	11	7	6/11/2009 7:00	29	light rain	63	63	61	94	2	29.92	0	6/11/2009 7:00	11.60
2009	6	11	8	6/11/2009 8:00	6	cloudy	64	64	62	93	4	29.91	0	6/11/2009 8:00	46.10
2009	6	11	9	6/11/2009 9:00	29	light rain	63	63	61	94	1.8	29.92	3	6/11/2009 9:00	111.30
2009	6	11	10	6/11/2009 10:00	29	light rain	63	63	63	100	3	29.92	0	6/11/2009 10:00	159.00
2009	6	11	11	6/11/2009 11:00	6	cloudy	65	65	62	90	5	29.92	0	6/11/2009 11:00	153.70
2009	6	11	12	6/11/2009 12:00	18	fog	64	64	62	93	2	29.92	0	6/11/2009 12:00	173.40
2009	6	11	13	6/11/2009 13:00	18	fog	63	63	62	97	1.8	29.91	0	6/11/2009 13:00	130.70
2009	6	11	14	6/11/2009 14:00	29	light rain	64	64	63	94	2.5	29.9	0	6/11/2009 14:00	122.10
2009	6	11	15	6/11/2009 15:00	29	light rain	64	64	62	93	7	29.88	0	6/11/2009 15:00	112.80
2009	6	11	16	6/11/2009 16:00	6	cloudy	63	63	61	93	6	29.86	3	6/11/2009 16:00	98.40
2009	6	11	17	6/11/2009 17:00	6	cloudy	63	63	61	93	8	29.85	3	6/11/2009 17:00	60.50
2009	6	11	18	6/11/2009 18:00	6	cloudy	62	62	61	96	5	29.83	3	6/11/2009 18:00	20.40
2009	6	11	19	6/11/2009 19:00	6	cloudy	62	62	60	93	8	29.83	5	6/11/2009 19:00	2.20
2009	6	11	20	6/11/2009 20:00	54	rain	63	63	61	94	4	29.83	5	6/11/2009 20:00	0.00
2009	6	11	21	6/11/2009 21:00	6	cloudy	61	61	60	97	9	29.81	0	6/11/2009 21:00	0.00
2009	6	11	22	6/11/2009 22:00	6	cloudy	61	61	60	97	5	29.81	0	6/11/2009 22:00	0.00
2009	6	11	23	6/11/2009 23:00	6	cloudy	61	61	60	97	6	29.79	3	6/11/2009 23:00	0.00
2009	6	12	0	6/12/2009 0:00	57	rain shower	61	61	60	97	7	29.79	5	6/12/2009 0:00	0.00
2009	6	12	1	6/12/2009 1:00	57	rain shower	62	62	61	97	4	29.76	0	6/12/2009 1:00	0.00
2009	6	12	2	6/12/2009 2:00	6	cloudy	62	62	61	96	5	29.72	0	6/12/2009 2:00	0.00
2009	6	12	3	6/12/2009 3:00	6	cloudy	62	62	61	96	4	29.7	0	6/12/2009 3:00	0.00
2009	6	12	4	6/12/2009 4:00	18	fog	62	62	61	96	2	29.69	0	6/12/2009 4:00	0.00
2009	6	12	5	6/12/2009 5:00	18	fog	62	62	61	96	0.8	29.68	0	6/12/2009 5:00	0.00
2009	6	12	6	6/12/2009 6:00	30	light rain and fog	63	63	62	97	5	29.68	1	6/12/2009 6:00	0.00
2009	6	12	7	6/12/2009 7:00	57	rain shower	63	63	62	97	4	29.69	0	6/12/2009 7:00	41.20
2009	6	12	8	6/12/2009 8:00	54	rain	63	63	62	100	2.7	29.69	0	6/12/2009 8:00	98.80
2009	6	12	9	6/12/2009 9:00	18	fog	65	65	64	97	2	29.7	0	6/12/2009 9:00	165.60
2009	6	12	10	6/12/2009 10:00	43	mostly cloudy	70	70	66	88	5	29.7	0	6/12/2009 10:00	462.20
2009	6	12	11	6/12/2009 11:00	43	mostly cloudy	74	74	68	82	10	29.7	0	6/12/2009 11:00	823.40
2009	6	12	12	6/12/2009 12:00	6	cloudy	76	76	65	69	10	29.71	3	6/12/2009 12:00	709.20
2009	6	12	13	6/12/2009 13:00	50	partly cloudy	80	80	64	58	10	29.71	7	6/12/2009 13:00	995.60
2009	6	12	14	6/12/2009 14:00	50	partly cloudy	82	84	65	56	10	29.7	3	6/12/2009 14:00	699.50
2009	6	12	15	6/12/2009 15:00	50	partly cloudy	82	83	64	54	10	29.7	5	6/12/2009 15:00	409.80
2009	6	12	16	6/12/2009 16:00	6	cloudy	80	80	64	58	10	29.71	3	6/12/2009 16:00	431.90
2009	6	12	17	6/12/2009 17:00	43	mostly cloudy	81	82	63	54	10	29.71	6	6/12/2009 17:00	216.40
2009	6	12	18	6/12/2009 18:00	43	mostly cloudy	82	84	65	56	10	29.72	0	6/12/2009 18:00	138.40
2009	6	12	19	6/12/2009 19:00	10	fair	80	80	64	59	9	29.75	1	6/12/2009 19:00	41.60
2009	6	12	20	6/12/2009 20:00	50	partly cloudy	73	73	68	84	10	29.75	0	6/12/2009 20:00	1.00
2009	6	12	21	6/12/2009 21:00	43	mostly cloudy	72	72	68	87	10	29.77	0	6/12/2009 21:00	0.00
2009	6	12	22	6/12/2009 22:00	6	cloudy	74	74	64	71	10	29.8	5	6/12/2009 22:00	0.00
2009	6	12	23	6/12/2009 23:00	50	partly cloudy	70	70	65	84	10	29.82	3	6/12/2009 23:00	0.00
2009	6	13	0	6/13/2009 0:00	50	partly cloudy	68	68	65	90	10	29.82	0	6/13/2009 0:00	0.00
2009	6	13	1	6/13/2009 1:00	43	mostly cloudy	65	65	64	97	9	29.82	0	6/13/2009 1:00	0.00
2009	6	13	2	6/13/2009 2:00	50	partly cloudy	64	64	63	96	10	29.83	3	6/13/2009 2:00	0.00
2009	6	13	3	6/13/2009 3:00	3	clear	64	64	62	93	9	29.83	0	6/13/2009 3:00	0.00
2009	6	13	4	6/13/2009 4:00	43	mostly cloudy	63	63	61	93	10	29.84	3	6/13/2009 4:00	0.00
2009	6	13	5	6/13/2009 5:00	6	cloudy	65	65	63	93	10	29.85	0	6/13/2009 5:00	0.00
2009	6	13	6	6/13/2009 6:00	43	mostly cloudy	64	64	62	93	10	29.87	0	6/13/2009 6:00	47.50
2009	6	13	7	6/13/2009 7:00	50	partly cloudy	65	65	63	93	10	29.86	0	6/13/2009 7:00	214.70
2009	6	13	8	6/13/2009 8:00	74	sunny	72	72	61	68	10	29.88	3	6/13/2009 8:00	237.00
2009	6	13	9	6/13/2009 9:00	43	mostly cloudy	72	72	61	68	10	29.91	3	6/13/2009 9:00	461.80
2009	6	13	10	6/13/2009 10:00	43	mostly cloudy	74	74	61	64	10	29.91	3	6/13/2009 10:00	610.10
2009	6	13	11	6/13/2009 11:00	43	mostly cloudy	75	75	63	66	10	29.91	5	6/13/2009 11:00	582.60
2009	6	13	12	6/13/2009 12:00	6	cloudy	75	75	62	64	10	29.91	7	6/13/2009 12:00	716.70
2009	6	13	13	6/13/2009 13:00	43	mostly cloudy	76	76	63	64	10	29.9	4	6/13/2009 13:00	595.10
2009	6	13	14	6/13/2009 14:00	43	mostly cloudy	75	75	63	66	10	29.89	5	6/13/2009 14:00	441.20
2009	6	13	15	6/13/2009 15:00	57	rain shower	74	74	63	69	7	29.89	5	6/13/2009 15:00	32.70
2009	6	13	16	6/13/2009 16:00	54	rain	66	66	64	94	2.5	29.91	3	6/13/2009 16:00	192.40
2009	6	13	17	6/13/2009 17:00	29	light rain	65	65	63	93	10	29.91	0	6/13/2009 17:00	162.70
2009	6	13	18	6/13/2009 18:00	29	light rain	64	64	62	94	10	29.91	0	6/13/2009 18:00	52.60
2009	6	13	19	6/13/2009 19:00	54	rain	63	63	63	100	2.5	29.91	0	6/13/2009 19:00	14.20
2009	6	13	20	6/13/2009 20:00	6	cloudy	63	63	61	93	10	29.91	0	6/13/2009 20:00	1.10
2009	6	13	21	6/13/2009 21:00	43	mostly cloudy	63	63	61	93	10	29.91	0	6/13/2009 21:00	0.00
2009	6	13	22	6/13/2009 22:00	43	mostly cloudy	63	63	61	93	10	29.93	0	6/13/2009 22:00	0.00
2009	6	13	23	6/13/2009 23:00	29	light rain	63	63	61	94	10	29.94	5	6/13/2009 23:00	0.00
2009	6	14	0	6/14/2009 0:00	54	rain	63	63	61	94	3	29.93	0	6/14/2009 0:00	0.00
2009	6	14	1	6/14/2009 1:00	29	light rain	63	63	61	94	10	29.91	6	6/14/2009 1:00	0.00
2009	6	14	2	6/14/2009 2:00	6	cloudy	62	62	60	93	10	29.91	3	6/14/2009 2:00	0.00
2009	6	14	3	6/14/2009 3:00	6	cloudy	61	61	60	97	8	29.89	0	6/14/2009 3:00	0.00
2009	6	14	4	6/14/2009 4:00	6	cloudy	60	60	59	96	7	29.9	0	6/14/2009 4:00	0.00
2009	6	14	5	6/14/2009 5:00	6	cloudy	61	61	60	97	8	29.89	0	6/14/2009 5:00	0.00
2009	6	14	6	6/14/2009 6:00	6	cloudy	61	61	59	94	3	29.9	0	6/14/2009 6:00	45.00
2009	6	14	7	6/14/2009 7:00	6	cloudy	61	61	60	97	7	29.92	0	6/14/2009 7:00	91.30
2009	6	14	8	6/14/2009 8:00	6	cloudy	63	63	61	93	7	29.95	3	6/14/2009 8:00	147.10
2009	6	14	9	6/14/2009 9:00	6	cloudy	65	65	62	90	7	29.96	0	6/14/2009 9:00	133.70
2009	6	14	10	6/14/2009 10:00	6	cloudy	66	66	62	87	10	29.95	0	6/14/2009 10:00	570.20
2009	6	14	11	6/14/2009 11:00	43	mostly cloudy	69	69	61	75	10	29.96	0	6/14/2009 11:00	523.70
2009	6	14	12	6/14/2009 12:00	50	partly cloudy	73	73	62	68	10	29.96	6	6/14/2009 12:00	455.80
2009	6	14	13	6/14/2009 13:00	50	partly cloudy	73	73	61	66	10	29.95	3	6/14/2009 13:00	795.80
2009	6	14	14	6/14/2009 14:00	50	partly cloudy	75	75	61	62	10	29.94	0	6/14/2009 14:00	883.80
2009	6	14	15	6/14/2009 15:00	43	mostly cloudy	76	76	58	54	10	29.94	6	6/14/2009 15:00	705.80
2009	6	14	16	6/14/2009 16:00	43	mostly cloudy	75	75	58	55	10	29.93	0	6/14/2009 16:00	681.80
2009	6	14	17	6/14/2009 17:00	43	mostly cloudy	73	73	62	68	10	29.93	0	6/14/2009 17:00	349.20
2009	6	14	18	6/14/2009 18:00	43	mostly cloudy	74	74	61	64	10	29.93	6	6/14/2009 18:00	184.20
2009	6	14	19	6/14/2009 19:00	10	fair	72	72	60	66	10	29.93	3	6/14/2009 19:00	40.20
2009	6	14	20	6/14/2009 20:00	74	sunny	69	69	60	73	10	29.95	5	6/14/2009 20:00	2.40
2009	6	14	21	6/14/2009 21:00	3	clear	64	64	59	84	10	29.97	0	6/14/2009 21:00	0.00
2009	6	14	22	6/14/2009 22:00	3	clear	63	63	59	87	10	29.99	3	6/14/2009 22:00	0.00
2009	6	14	23	6/14/2009 23:00	6	cloudy	61	61	58	90	10	29.99	0	6/14/2009 23:00	0.00
2009	6	15	0	6/15/2009 0:00	50	partly cloudy	58	58	57	97	6	30	0	6/15/2009 0:00	0.00
2009	6	15	1	6/15/2009 1:00	18	fog	57	57	55	94	0.8	29.99	0	6/15/2009 1:00	0.00
2009	6	15	2	6/15/2009 2:00	3	clear	55	55	54	96	3	29.99	0	6/15/2009 2:00	0.00
2009	6	15	3	6/15/2009 3:00	3	clear	56	56	55	97	8	29.98	0	6/15/2009 3:00	0.00
2009	6	15	6	6/15/2009 6:00	6	cloudy	60	60	57	90	10	30.02	0	6/15/2009 6:00	0.00
2009	6	15	6	6/15/2009 6:00	6	cloudy	60	60	57	90	10	30.02	0	6/15/2009 6:00	0.00
2009	6	15	6	6/15/2009 6:00	6	cloudy	60	60	57	90	10	30.02	0	6/15/2009 6:00	40.60
2009	6	15	7	6/15/2009 7:00	6	cloudy	60	60	56	86	10	30.04	3	6/15/2009 7:00	99.10
2009	6	15	8	6/15/2009 8:00	6	cloudy	61	61	56	83	10	30.04	0	6/15/2009 8:00	313.00
2009	6	15	9	6/15/2009 9:00	6	cloudy	63	63	57	81	10	30.05	0	6/15/2009 9:00	684.80
2009	6	15	10	6/15/2009 10:00	74	sunny	67	67	58	73	10	30.03	5	6/15/2009 10:00	927.10
2009	6	15	11	6/15/2009 11:00	50	partly cloudy	70	70	59	68	10	30.03	5	6/15/2009 11:00	944.20
2009	6	15	12	6/15/2009 12:00	43	mostly cloudy	73	73	60	64	10	30.02	7	6/15/2009 12:00	583.80
2009	6	15	13	6/15/2009 13:00	6	cloudy	71	71	58	63	10	30.03	0	6/15/2009 13:00	537.30
2009	6	15	14	6/15/2009 14:00	50	partly cloudy	73	73	59	61	10	30.01	5	6/15/2009 14:00	920.60
2009	6	15	15	6/15/2009 15:00	43	mostly cloudy	73	73	60	64	10	29.99	5	6/15/2009 15:00	666.70
2009	6	15	16	6/15/2009 16:00	43	mostly cloudy	72	72	60	66	10	29.99	5	6/15/2009 16:00	263.30
2009	6	15	17	6/15/2009 17:00	43	mostly cloudy	72	72	60	66	10	30	9	6/15/2009 17:00	383.40
2009	6	15	18	6/15/2009 18:00	43	mostly cloudy	67	67	57	70	10	30.03	8	6/15/2009 18:00	214.20
2009	6	15	19	6/15/2009 19:00	50	partly cloudy	65	65	55	70	10	30.04	6	6/15/2009 19:00	51.80
2009	6	15	20	6/15/2009 20:00	43	mostly cloudy	63	63	54	72	10	30.03	8	6/15/2009 20:00	2.00
2009	6	15	21	6/15/2009 21:00	6	cloudy	63	63	54	72	10	30.07	0	6/15/2009 21:00	0.00
2009	6	15	22	6/15/2009 22:00	50	partly cloudy	59	59	56	90	10	30.06	0	6/15/2009 22:00	0.00
2009	6	15	23	6/15/2009 23:00	6	cloudy	61	61	55	81	10	30.09	0	6/15/2009 23:00	0.00
2009	6	16	0	6/16/2009 0:00	6	cloudy	60	60	56	86	10	30.11	0	6/16/2009 0:00	0.00
2009	6	16	1	6/16/2009 1:00	43	mostly cloudy	59	59	57	94	10	30.1	0	6/16/2009 1:00	0.00
2009	6	16	2	6/16/2009 2:00	6	cloudy	58	58	56	93	10	30.09	3	6/16/2009 2:00	0.00
2009	6	16	3	6/16/2009 3:00	6	cloudy	58	58	57	97	9	30.09	0	6/16/2009 3:00	0.00
2009	6	16	4	6/16/2009 4:00	6	cloudy	57	57	57	100	8	30.1	0	6/16/2009 4:00	0.00
2009	6	16	5	6/16/2009 5:00	6	cloudy	59	59	56	90	10	30.12	0	6/16/2009 5:00	1.80
2009	6	16	6	6/16/2009 6:00	6	cloudy	59	59	56	90	10	30.13	0	6/16/2009 6:00	51.80
2009	6	16	7	6/16/2009 7:00	6	cloudy	60	60	56	86	10	30.16	0	6/16/2009 7:00	125.90
2009	6	16	8	6/16/2009 8:00	6	cloudy	61	61	56	83	10	30.18	6	6/16/2009 8:00	392.90
2009	6	16	9	6/16/2009 9:00	6	cloudy	61	61	55	81	10	30.19	6	6/16/2009 9:00	510.50
2009	6	16	10	6/16/2009 10:00	43	mostly cloudy	66	66	55	68	10	30.19	5	6/16/2009 10:00	487.20
2009	6	16	11	6/16/2009 11:00	43	mostly cloudy	66	66	53	63	10	30.2	3	6/16/2009 11:00	395.30
2009	6	16	12	6/16/2009 12:00	6	cloudy	67	67	56	68	10	30.2	4	6/16/2009 12:00	712.20
2009	6	16	13	6/16/2009 13:00	6	cloudy	65	65	56	73	10	30.2	4	6/16/2009 13:00	994.20
2009	6	16	14	6/16/2009 14:00	6	cloudy	65	65	55	70	10	30.21	5	6/16/2009 14:00	719.30
2009	6	16	15	6/16/2009 15:00	6	cloudy	66	66	56	70	10	30.21	3	6/16/2009 15:00	581.20
2009	6	16	16	6/16/2009 16:00	6	cloudy	65	65	56	73	10	30.22	5	6/16/2009 16:00	407.40
2009	6	16	17	6/16/2009 17:00	6	cloudy	66	66	57	73	9	30.21	0	6/16/2009 17:00	339.10
2009	6	16	18	6/16/2009 18:00	6	cloudy	67	67	57	70	10	30.21	7	6/16/2009 18:00	195.80
2009	6	16	19	6/16/2009 19:00	6	cloudy	66	66	57	73	10	30.22	0	6/16/2009 19:00	53.20
2009	6	16	20	6/16/2009 20:00	43	mostly cloudy	63	63	56	78	10	30.23	5	6/16/2009 20:00	1.90
2009	6	16	21	6/16/2009 21:00	6	cloudy	62	62	55	78	10	30.24	5	6/16/2009 21:00	0.00
2009	6	16	22	6/16/2009 22:00	50	partly cloudy	58	58	54	87	10	30.26	3	6/16/2009 22:00	0.00
2009	6	16	23	6/16/2009 23:00	50	partly cloudy	56	56	53	90	10	30.26	0	6/16/2009 23:00	0.00
2009	6	17	0	6/17/2009 0:00	3	clear	55	55	52	89	10	30.25	0	6/17/2009 0:00	0.00
2009	6	17	1	6/17/2009 1:00	43	mostly cloudy	54	54	51	90	10	30.24	0	6/17/2009 1:00	0.00
2009	6	17	2	6/17/2009 2:00	43	mostly cloudy	52	52	50	93	7	30.24	0	6/17/2009 2:00	0.00
2009	6	17	9	6/17/2009 9:00	43	mostly cloudy	62	62	56	80	10	30.24	0	6/17/2009 9:00	0.00
2009	6	17	9	6/17/2009 9:00	43	mostly cloudy	62	62	56	80	10	30.24	0	6/17/2009 9:00	0.00
2009	6	17	9	6/17/2009 9:00	43	mostly cloudy	62	62	56	80	10	30.24	0	6/17/2009 9:00	1.70
2009	6	17	9	6/17/2009 9:00	43	mostly cloudy	62	62	56	80	10	30.24	0	6/17/2009 9:00	73.50
2009	6	17	9	6/17/2009 9:00	43	mostly cloudy	62	62	56	80	10	30.24	0	6/17/2009 9:00	211.00
2009	6	17	9	6/17/2009 9:00	43	mostly cloudy	62	62	56	80	10	30.24	0	6/17/2009 9:00	409.50
2009	6	17	9	6/17/2009 9:00	43	mostly cloudy	62	62	56	80	10	30.24	0	6/17/2009 9:00	683.80
2009	6	17	10	6/17/2009 10:00	50	partly cloudy	64	64	53	67	10	30.24	7	6/17/2009 10:00	929.60
2009	6	17	11	6/17/2009 11:00	50	partly cloudy	65	65	52	63	10	30.23	4	6/17/2009 11:00	831.90
2009	6	17	12	6/17/2009 12:00	43	mostly cloudy	67	67	54	63	10	30.23	5	6/17/2009 12:00	902.20
2009	6	17	13	6/17/2009 13:00	43	mostly cloudy	69	69	55	61	10	30.21	6	6/17/2009 13:00	879.00
2009	6	17	14	6/17/2009 14:00	6	cloudy	69	69	53	57	10	30.2	4	6/17/2009 14:00	775.10
2009	6	17	15	6/17/2009 15:00	43	mostly cloudy	69	69	55	61	10	30.18	4	6/17/2009 15:00	491.90
2009	6	17	16	6/17/2009 16:00	74	sunny	66	66	53	63	10	30.16	5	6/17/2009 16:00	198.30
2009	6	17	17	6/17/2009 17:00	43	mostly cloudy	64	64	51	63	10	30.16	6	6/17/2009 17:00	69.70
2009	6	17	18	6/17/2009 18:00	74	sunny	63	63	50	63	10	30.15	3	6/17/2009 18:00	65.00
2009	6	17	19	6/17/2009 19:00	43	mostly cloudy	62	62	52	70	10	30.14	3	6/17/2009 19:00	19.80
2009	6	17	20	6/17/2009 20:00	43	mostly cloudy	61	61	53	75	10	30.13	6	6/17/2009 20:00	1.20
2009	6	17	21	6/17/2009 21:00	43	mostly cloudy	60	60	54	80	10	30.12	3	6/17/2009 21:00	0.00
2009	6	17	22	6/17/2009 22:00	43	mostly cloudy	59	59	55	87	10	30.12	0	6/17/2009 22:00	0.00
2009	6	17	23	6/17/2009 23:00	29	light rain	59	59	55	88	10	30.11	0	6/17/2009 23:00	0.00
2009	6	18	0	6/18/2009 0:00	57	rain shower	59	59	56	92	7	30.1	2	6/18/2009 0:00	0.00
2009	6	18	1	6/18/2009 1:00	57	rain shower	59	59	57	94	4	30.08	3	6/18/2009 1:00	0.00
2009	6	18	2	6/18/2009 2:00	6	cloudy	60	60	58	93	10	30.03	0	6/18/2009 2:00	0.00
2009	6	18	3	6/18/2009 3:00	6	cloudy	61	61	59	93	10	30.01	0	6/18/2009 3:00	0.00
2009	6	18	4	6/18/2009 4:00	57	rain shower	61	61	60	93	7	30.01	0	6/18/2009 4:00	0.00
2009	6	18	5	6/18/2009 5:00	6	cloudy	62	62	59	90	10	29.97	5	6/18/2009 5:00	0.00
2009	6	18	6	6/18/2009 6:00	29	light rain	63	63	60	91	10	29.97	7	6/18/2009 6:00	0.00
2009	6	18	7	6/18/2009 7:00	6	cloudy	62	62	60	93	9	29.97	3	6/18/2009 7:00	34.70
2009	6	18	8	6/18/2009 8:00	29	light rain	63	63	61	93	10	29.97	5	6/18/2009 8:00	39.90
2009	6	18	9	6/18/2009 9:00	29	light rain	63	63	61	93	4	29.93	4	6/18/2009 9:00	44.20
2009	6	18	10	6/18/2009 10:00	29	light rain	63	63	61	94	5	29.92	8	6/18/2009 10:00	49.20
2009	6	18	11	6/18/2009 11:00	57	rain shower	63	63	61	93	7	29.92	6	6/18/2009 11:00	72.60
2009	6	18	12	6/18/2009 12:00	29	light rain	63	63	61	94	4	29.89	6	6/18/2009 12:00	90.90
2009	6	18	13	6/18/2009 13:00	18	fog	63	63	61	93	2.5	29.88	7	6/18/2009 13:00	115.30
2009	6	18	14	6/18/2009 14:00	29	light rain	63	63	61	94	4	29.88	3	6/18/2009 14:00	103.70
2009	6	18	15	6/18/2009 15:00	18	fog	64	64	62	93	2.5	29.84	5	6/18/2009 15:00	89.00
2009	6	18	16	6/18/2009 16:00	54	rain	64	64	63	94	2.5	29.83	0	6/18/2009 16:00	64.10
2009	6	18	17	6/18/2009 17:00	29	light rain	64	64	63	94	1.8	29.82	0	6/18/2009 17:00	42.60
2009	6	18	18	6/18/2009 18:00	29	light rain	65	65	64	97	4	29.81	3	6/18/2009 18:00	42.80
2009	6	18	19	6/18/2009 19:00	6	cloudy	66	66	64	93	5	29.8	0	6/18/2009 19:00	9.50
2009	6	18	20	6/18/2009 20:00	6	cloudy	66	66	64	93	4	29.8	0	6/18/2009 20:00	0.00
2009	6	18	21	6/18/2009 21:00	6	cloudy	65	65	64	97	3	29.81	0	6/18/2009 21:00	0.00
2009	6	18	22	6/18/2009 22:00	6	cloudy	65	65	64	97	4	29.8	0	6/18/2009 22:00	0.00
2009	6	18	23	6/18/2009 23:00	6	cloudy	65	65	64	97	4	29.79	0	6/18/2009 23:00	0.00
2009	6	19	0	6/19/2009 0:00	6	cloudy	65	65	64	97	3	29.78	0	6/19/2009 0:00	0.00
2009	6	19	1	6/19/2009 1:00	18	fog	65	65	64	97	2	29.78	0	6/19/2009 1:00	0.00
2009	6	19	2	6/19/2009 2:00	18	fog	64	64	63	96	1.8	29.77	0	6/19/2009 2:00	0.00
2009	6	19	3	6/19/2009 3:00	6	cloudy	65	65	63	93	3	29.77	0	6/19/2009 3:00	0.00
2009	6	19	4	6/19/2009 4:00	18	fog	64	64	63	96	1.3	29.76	0	6/19/2009 4:00	0.00
2009	6	19	5	6/19/2009 5:00	18	fog	65	65	63	93	2	29.76	0	6/19/2009 5:00	0.00
2009	6	19	6	6/19/2009 6:00	18	fog	63	63	62	97	0.5	29.77	0	6/19/2009 6:00	57.00
2009	6	19	7	6/19/2009 7:00	18	fog	65	65	64	97	0.5	29.77	0	6/19/2009 7:00	220.30
2009	6	19	8	6/19/2009 8:00	10	fair	68	68	64	87	10	29.77	0	6/19/2009 8:00	369.20
2009	6	19	9	6/19/2009 9:00	50	partly cloudy	70	70	63	78	10	29.77	5	6/19/2009 9:00	465.80
2009	6	19	10	6/19/2009 10:00	6	cloudy	71	71	63	75	10	29.78	4	6/19/2009 10:00	431.40
2009	6	19	11	6/19/2009 11:00	6	cloudy	71	71	63	75	10	29.79	6	6/19/2009 11:00	552.30
2009	6	19	12	6/19/2009 12:00	6	cloudy	73	73	63	69	10	29.79	5	6/19/2009 12:00	523.60
2009	6	19	13	6/19/2009 13:00	6	cloudy	75	75	63	66	10	29.79	3	6/19/2009 13:00	528.40
2009	6	19	14	6/19/2009 14:00	6	cloudy	73	73	64	73	10	29.78	0	6/19/2009 14:00	395.80
2009	6	19	15	6/19/2009 15:00	6	cloudy	74	74	64	71	10	29.75	0	6/19/2009 15:00	529.90
2009	6	19	16	6/19/2009 16:00	43	mostly cloudy	76	76	63	64	10	29.73	0	6/19/2009 16:00	631.80
2009	6	19	17	6/19/2009 17:00	43	mostly cloudy	76	76	63	64	10	29.73	5	6/19/2009 17:00	317.00
2009	6	19	18	6/19/2009 18:00	50	partly cloudy	77	77	61	58	10	29.73	6	6/19/2009 18:00	183.80
2009	6	19	19	6/19/2009 19:00	50	partly cloudy	75	75	60	60	10	29.75	9	6/19/2009 19:00	53.40
2009	6	19	20	6/19/2009 20:00	50	partly cloudy	71	71	60	68	10	29.76	0	6/19/2009 20:00	2.80
2009	6	19	21	6/19/2009 21:00	3	clear	65	65	61	87	10	29.77	0	6/19/2009 21:00	0.00
2009	6	19	22	6/19/2009 22:00	3	clear	62	62	59	90	10	29.78	0	6/19/2009 22:00	0.00
2009	6	19	23	6/19/2009 23:00	3	clear	60	60	59	96	10	29.77	0	6/19/2009 23:00	0.00
2009	6	20	0	6/20/2009 0:00	50	partly cloudy	59	59	57	94	3	29.75	0	6/20/2009 0:00	0.00
2009	6	20	1	6/20/2009 1:00	50	partly cloudy	59	59	57	93	10	29.75	0	6/20/2009 1:00	0.00
2009	6	20	2	6/20/2009 2:00	3	clear	58	58	56	93	10	29.75	0	6/20/2009 2:00	0.00
2009	6	20	3	6/20/2009 3:00	18	fog	55	55	54	94	1.8	29.74	0	6/20/2009 3:00	0.00
2009	6	20	4	6/20/2009 4:00	3	clear	55	55	54	96	10	29.72	0	6/20/2009 4:00	0.00
2009	6	20	5	6/20/2009 5:00	74	sunny	55	55	54	96	10	29.73	0	6/20/2009 5:00	0.10
2009	6	20	6	6/20/2009 6:00	50	partly cloudy	55	55	54	96	10	29.72	0	6/20/2009 6:00	70.00
2009	6	20	7	6/20/2009 7:00	43	mostly cloudy	58	58	56	93	10	29.72	0	6/20/2009 7:00	155.80
2009	6	20	8	6/20/2009 8:00	74	sunny	60	60	58	93	10	29.7	0	6/20/2009 8:00	337.20
2009	6	20	9	6/20/2009 9:00	43	mostly cloudy	64	64	60	87	10	29.7	0	6/20/2009 9:00	145.10
2009	6	20	10	6/20/2009 10:00	57	rain shower	66	66	61	85	7	29.7	0	6/20/2009 10:00	111.70
2009	6	20	11	6/20/2009 11:00	29	light rain	65	65	63	94	6	29.7	1	6/20/2009 11:00	112.40
2009	6	20	12	6/20/2009 12:00	54	rain	64	64	63	98	2.9	29.69	0	6/20/2009 12:00	137.70
2009	6	20	13	6/20/2009 13:00	54	rain	64	64	63	94	1.8	29.64	3	6/20/2009 13:00	137.80
2009	6	20	14	6/20/2009 14:00	57	rain shower	64	64	63	95	6	29.62	1	6/20/2009 14:00	130.00
2009	6	20	15	6/20/2009 15:00	6	cloudy	66	66	64	93	9	29.56	0	6/20/2009 15:00	67.80
2009	6	20	16	6/20/2009 16:00	6	cloudy	67	67	65	93	6	29.52	0	6/20/2009 16:00	48.00
2009	6	20	17	6/20/2009 17:00	29	light rain	66	66	66	100	9	29.51	4	6/20/2009 17:00	49.40
2009	6	20	18	6/20/2009 18:00	6	cloudy	68	68	66	93	3	29.49	0	6/20/2009 18:00	29.70
2009	6	20	19	6/20/2009 19:00	6	cloudy	68	68	66	93	4	29.48	0	6/20/2009 19:00	13.40
2009	6	20	20	6/20/2009 20:00	29	light rain	68	68	66	93	1.5	29.48	0	6/20/2009 20:00	0.00
2009	6	20	21	6/20/2009 21:00	18	fog	66	66	64	94	1.3	29.48	0	6/20/2009 21:00	0.00
2009	6	20	22	6/20/2009 22:00	29	light rain	66	66	64	94	1.3	29.48	0	6/20/2009 22:00	0.00
2009	6	20	23	6/20/2009 23:00	18	fog	66	66	64	93	0.8	29.47	0	6/20/2009 23:00	0.00
2009	6	21	0	6/21/2009 0:00	29	light rain	66	66	64	94	3	29.47	0	6/21/2009 0:00	0.00
2009	6	21	1	6/21/2009 1:00	29	light rain	67	64	63	90	10	29.48	5	6/21/2009 1:00	0.00
2009	6	21	2	6/21/2009 2:00	6	cloudy	66	66	63	90	10	29.48	5	6/21/2009 2:00	0.00
2009	6	21	3	6/21/2009 3:00	29	light rain	66	66	63	88	10	29.47	3	6/21/2009 3:00	0.00
2009	6	21	4	6/21/2009 4:00	29	light rain	65	65	62	90	10	29.48	6	6/21/2009 4:00	0.00
2009	6	21	5	6/21/2009 5:00	29	light rain	64	64	61	91	10	29.48	5	6/21/2009 5:00	0.00
2009	6	21	6	6/21/2009 6:00	6	cloudy	63	63	61	93	10	29.51	3	6/21/2009 6:00	0.00
2009	6	21	7	6/21/2009 7:00	29	light rain	63	63	61	94	10	29.53	0	6/21/2009 7:00	25.70
2009	6	21	8	6/21/2009 8:00	29	light rain	63	63	61	94	6	29.53	1	6/21/2009 8:00	80.50
2009	6	21	9	6/21/2009 9:00	29	light rain	63	63	62	96	10	29.55	5	6/21/2009 9:00	148.90
2009	6	21	10	6/21/2009 10:00	43	mostly cloudy	67	67	63	87	10	29.59	6	6/21/2009 10:00	294.60
2009	6	21	11	6/21/2009 11:00	43	mostly cloudy	69	69	63	81	10	29.59	7	6/21/2009 11:00	447.10
2009	6	21	12	6/21/2009 12:00	50	partly cloudy	72	72	63	73	10	29.59	8	6/21/2009 12:00	446.60
2009	6	21	13	6/21/2009 13:00	10	fair	73	73	63	71	10	29.59	8	6/21/2009 13:00	553.20
2009	6	21	14	6/21/2009 14:00	43	mostly cloudy	76	76	64	67	10	29.58	7	6/21/2009 14:00	536.70
2009	6	21	15	6/21/2009 15:00	43	mostly cloudy	78	78	62	58	10	29.58	12	6/21/2009 15:00	640.20
2009	6	21	16	6/21/2009 16:00	50	partly cloudy	77	77	61	58	10	29.57	10	6/21/2009 16:00	505.70
2009	6	21	17	6/21/2009 17:00	50	partly cloudy	78	78	61	56	10	29.57	7	6/21/2009 17:00	159.10
2009	6	21	18	6/21/2009 18:00	43	mostly cloudy	77	77	63	62	10	29.57	5	6/21/2009 18:00	71.80
2009	6	21	19	6/21/2009 19:00	6	cloudy	76	76	62	62	10	29.58	8	6/21/2009 19:00	21.90
2009	6	21	20	6/21/2009 20:00	43	mostly cloudy	74	74	63	68	10	29.58	6	6/21/2009 20:00	0.00
2009	6	21	21	6/21/2009 21:00	6	cloudy	74	74	63	68	10	29.6	5	6/21/2009 21:00	0.00
2009	6	21	22	6/21/2009 22:00	6	cloudy	69	69	65	87	10	29.64	3	6/21/2009 22:00	0.00
2009	6	21	23	6/21/2009 23:00	6	cloudy	67	67	65	93	10	29.63	0	6/21/2009 23:00	0.00
2009	6	22	0	6/22/2009 0:00	57	rain shower	66	66	65	97	7	29.63	0	6/22/2009 0:00	0.00
2009	6	22	1	6/22/2009 1:00	6	cloudy	66	66	63	90	10	29.63	6	6/22/2009 1:00	0.00
2009	6	22	2	6/22/2009 2:00	50	partly cloudy	65	65	63	93	10	29.62	5	6/22/2009 2:00	0.00
2009	6	22	3	6/22/2009 3:00	6	cloudy	65	65	63	93	10	29.62	0	6/22/2009 3:00	0.00
2009	6	22	4	6/22/2009 4:00	57	rain shower	64	64	62	94	7	29.62	2	6/22/2009 4:00	0.00
2009	6	22	5	6/22/2009 5:00	43	mostly cloudy	63	63	62	97	9	29.63	0	6/22/2009 5:00	0.00
2009	6	22	6	6/22/2009 6:00	6	cloudy	64	64	63	96	10	29.63	0	6/22/2009 6:00	18.30
2009	6	22	7	6/22/2009 7:00	6	cloudy	65	65	63	93	10	29.63	0	6/22/2009 7:00	61.80
2009	6	22	8	6/22/2009 8:00	29	light rain	66	66	64	93	4	29.64	0	6/22/2009 8:00	159.20
2009	6	22	9	6/22/2009 9:00	6	cloudy	69	69	65	87	10	29.65	0	6/22/2009 9:00	316.70
2009	6	22	10	6/22/2009 10:00	6	cloudy	71	71	64	78	10	29.64	3	6/22/2009 10:00	368.40
2009	6	22	11	6/22/2009 11:00	6	cloudy	74	74	63	68	10	29.64	4	6/22/2009 11:00	648.90
2009	6	22	12	6/22/2009 12:00	6	cloudy	73	73	63	71	10	29.63	3	6/22/2009 12:00	434.50
2009	6	22	13	6/22/2009 13:00	6	cloudy	74	74	64	71	10	29.63	0	6/22/2009 13:00	745.60
2009	6	22	14	6/22/2009 14:00	43	mostly cloudy	77	77	63	62	10	29.62	6	6/22/2009 14:00	720.50
2009	6	22	15	6/22/2009 15:00	43	mostly cloudy	76	76	63	64	10	29.62	5	6/22/2009 15:00	694.80
2009	6	22	16	6/22/2009 16:00	43	mostly cloudy	79	79	61	54	10	29.62	8	6/22/2009 16:00	470.90
2009	6	22	17	6/22/2009 17:00	6	cloudy	77	77	61	58	10	29.62	8	6/22/2009 17:00	287.10
2009	6	22	18	6/22/2009 18:00	50	partly cloudy	78	78	61	56	10	29.62	7	6/22/2009 18:00	157.20
2009	6	22	19	6/22/2009 19:00	43	mostly cloudy	76	76	61	60	10	29.63	4	6/22/2009 19:00	32.50
2009	6	22	20	6/22/2009 20:00	6	cloudy	74	74	59	59	10	29.66	9	6/22/2009 20:00	0.00
2009	6	22	21	6/22/2009 21:00	6	cloudy	72	72	59	64	10	29.68	7	6/22/2009 21:00	0.00
2009	6	22	22	6/22/2009 22:00	6	cloudy	71	71	58	63	10	29.7	5	6/22/2009 22:00	0.00
2009	6	22	23	6/22/2009 23:00	6	cloudy	71	71	58	63	10	29.71	0	6/22/2009 23:00	0.00
2009	6	23	0	6/23/2009 0:00	6	cloudy	69	69	59	70	10	29.72	0	6/23/2009 0:00	0.00
2009	6	23	1	6/23/2009 1:00	43	mostly cloudy	68	68	58	70	10	29.71	5	6/23/2009 1:00	0.00
2009	6	23	2	6/23/2009 2:00	6	cloudy	67	67	58	73	10	29.7	0	6/23/2009 2:00	0.00
2009	6	23	3	6/23/2009 3:00	3	clear	62	62	58	86	10	29.69	0	6/23/2009 3:00	0.00
2009	6	23	4	6/23/2009 4:00	43	mostly cloudy	61	61	58	90	10	29.7	0	6/23/2009 4:00	0.00
2009	6	23	5	6/23/2009 5:00	6	cloudy	62	62	59	90	10	29.71	0	6/23/2009 5:00	0.00
2009	6	23	6	6/23/2009 6:00	6	cloudy	65	65	58	78	10	29.72	0	6/23/2009 6:00	25.50
2009	6	23	7	6/23/2009 7:00	6	cloudy	65	65	58	78	10	29.73	6	6/23/2009 7:00	82.70
2009	6	23	8	6/23/2009 8:00	50	partly cloudy	69	69	59	70	10	29.73	3	6/23/2009 8:00	320.10
2009	6	23	9	6/23/2009 9:00	50	partly cloudy	72	72	59	64	10	29.73	8	6/23/2009 9:00	400.10
2009	6	23	10	6/23/2009 10:00	43	mostly cloudy	74	74	60	62	10	29.73	6	6/23/2009 10:00	521.20
2009	6	23	11	6/23/2009 11:00	6	cloudy	74	74	59	59	10	29.73	7	6/23/2009 11:00	415.90
2009	6	23	12	6/23/2009 12:00	43	mostly cloudy	76	76	59	56	10	29.72	7	6/23/2009 12:00	415.60
2009	6	23	13	6/23/2009 13:00	6	cloudy	77	77	61	58	10	29.73	6	6/23/2009 13:00	516.80
2009	6	23	14	6/23/2009 14:00	43	mostly cloudy	80	80	61	52	10	29.72	5	6/23/2009 14:00	451.10
2009	6	23	15	6/23/2009 15:00	43	mostly cloudy	81	82	61	50	10	29.72	0	6/23/2009 15:00	574.50
2009	6	23	16	6/23/2009 16:00	6	cloudy	78	78	65	64	10	29.71	0	6/23/2009 16:00	561.20
2009	6	23	17	6/23/2009 17:00	43	mostly cloudy	82	83	64	54	10	29.7	0	6/23/2009 17:00	227.40
2009	6	23	18	6/23/2009 18:00	43	mostly cloudy	81	83	65	58	10	29.7	0	6/23/2009 18:00	178.70
2009	6	23	19	6/23/2009 19:00	50	partly cloudy	80	80	65	60	10	29.7	0	6/23/2009 19:00	32.10
2009	6	23	20	6/23/2009 20:00	6	cloudy	80	80	62	54	10	29.7	5	6/23/2009 20:00	0.00
2009	6	23	21	6/23/2009 21:00	6	cloudy	76	76	63	64	10	29.73	10	6/23/2009 21:00	0.00
2009	6	23	22	6/23/2009 22:00	6	cloudy	68	68	64	87	10	29.76	0	6/23/2009 22:00	0.00
2009	6	23	23	6/23/2009 23:00	43	mostly cloudy	66	66	64	93	8	29.77	0	6/23/2009 23:00	0.00
2009	6	24	0	6/24/2009 0:00	6	cloudy	66	66	64	93	6	29.77	0	6/24/2009 0:00	0.00
2009	6	24	1	6/24/2009 1:00	18	fog	65	65	64	97	1.5	29.76	0	6/24/2009 1:00	0.00
2009	6	24	2	6/24/2009 2:00	43	mostly cloudy	65	65	64	97	5	29.75	0	6/24/2009 2:00	0.00
2009	6	24	3	6/24/2009 3:00	43	mostly cloudy	64	64	63	96	5	29.75	0	6/24/2009 3:00	0.00
2009	6	24	4	6/24/2009 4:00	18	fog	63	63	62	97	1.3	29.74	0	6/24/2009 4:00	0.00
2009	6	24	5	6/24/2009 5:00	6	cloudy	64	64	63	96	5	29.75	0	6/24/2009 5:00	0.00
2009	6	24	6	6/24/2009 6:00	18	fog	64	64	63	96	2.5	29.75	0	6/24/2009 6:00	1.40
2009	6	24	7	6/24/2009 7:00	29	light rain	65	65	64	97	5	29.77	0	6/24/2009 7:00	104.60
2009	6	24	8	6/24/2009 8:00	6	cloudy	67	67	65	93	6	29.76	0	6/24/2009 8:00	227.00
2009	6	24	9	6/24/2009 9:00	43	mostly cloudy	70	70	66	87	10	29.76	0	6/24/2009 9:00	509.60
2009	6	24	10	6/24/2009 10:00	50	partly cloudy	75	75	63	66	10	29.75	0	6/24/2009 10:00	491.80
2009	6	24	11	6/24/2009 11:00	43	mostly cloudy	77	77	62	60	10	29.76	6	6/24/2009 11:00	355.20
2009	6	24	12	6/24/2009 12:00	6	cloudy	77	77	62	60	10	29.76	3	6/24/2009 12:00	433.40
2009	6	24	13	6/24/2009 13:00	43	mostly cloudy	79	79	62	56	10	29.75	5	6/24/2009 13:00	392.00
2009	6	24	14	6/24/2009 14:00	29	light rain	79	79	64	60	10	29.76	3	6/24/2009 14:00	399.10
2009	6	24	15	6/24/2009 15:00	43	mostly cloudy	81	82	63	54	10	29.74	7	6/24/2009 15:00	315.80
2009	6	24	16	6/24/2009 16:00	43	mostly cloudy	80	80	64	58	10	29.74	5	6/24/2009 16:00	430.00
2009	6	24	17	6/24/2009 17:00	6	cloudy	75	75	70	84	10	29.73	0	6/24/2009 17:00	120.90
2009	6	24	18	6/24/2009 18:00	50	partly cloudy	80	80	68	67	10	29.73	0	6/24/2009 18:00	70.50
2009	6	24	19	6/24/2009 19:00	50	partly cloudy	74	74	67	79	10	29.75	3	6/24/2009 19:00	50.00
2009	6	24	20	6/24/2009 20:00	50	partly cloudy	72	72	66	81	10	29.76	5	6/24/2009 20:00	3.50
2009	6	24	21	6/24/2009 21:00	6	cloudy	69	69	67	93	10	29.77	0	6/24/2009 21:00	0.00
2009	6	24	22	6/24/2009 22:00	50	partly cloudy	70	70	67	90	10	29.79	0	6/24/2009 22:00	0.00
2009	6	24	23	6/24/2009 23:00	43	mostly cloudy	68	68	66	93	10	29.79	0	6/24/2009 23:00	0.00
2009	6	25	0	6/25/2009 0:00	43	mostly cloudy	67	67	66	97	10	29.8	0	6/25/2009 0:00	0.00
2009	6	25	1	6/25/2009 1:00	43	mostly cloudy	66	66	65	96	9	29.8	0	6/25/2009 1:00	0.00
2009	6	25	2	6/25/2009 2:00	18	fog	66	66	65	96	2.5	29.81	3	6/25/2009 2:00	0.00
2009	6	25	3	6/25/2009 3:00	6	cloudy	66	66	64	93	3	29.8	0	6/25/2009 3:00	0.00
2009	6	25	4	6/25/2009 4:00	6	cloudy	66	66	64	93	3	29.81	0	6/25/2009 4:00	0.00
2009	6	25	5	6/25/2009 5:00	6	cloudy	66	66	64	93	3	29.8	0	6/25/2009 5:00	0.00
2009	6	25	6	6/25/2009 6:00	18	fog	66	66	64	93	2	29.81	0	6/25/2009 6:00	22.90
2009	6	25	7	6/25/2009 7:00	18	fog	66	66	65	96	2	29.82	0	6/25/2009 7:00	107.30
2009	6	25	8	6/25/2009 8:00	18	fog	67	67	65	93	2.5	29.83	0	6/25/2009 8:00	363.10
2009	6	25	9	6/25/2009 9:00	6	cloudy	68	68	65	90	4	29.83	0	6/25/2009 9:00	303.90
2009	6	25	10	6/25/2009 10:00	6	cloudy	70	70	66	87	6	29.82	0	6/25/2009 10:00	344.60
2009	6	25	11	6/25/2009 11:00	6	cloudy	74	74	67	79	8	29.82	3	6/25/2009 11:00	614.10
2009	6	25	12	6/25/2009 12:00	43	mostly cloudy	76	76	66	71	10	29.81	0	6/25/2009 12:00	847.10
2009	6	25	13	6/25/2009 13:00	50	partly cloudy	80	80	67	64	10	29.79	0	6/25/2009 13:00	808.30
2009	6	25	14	6/25/2009 14:00	43	mostly cloudy	82	84	67	60	10	29.78	4	6/25/2009 14:00	825.30
2009	6	25	15	6/25/2009 15:00	74	sunny	83	85	67	58	10	29.75	0	6/25/2009 15:00	548.40
2009	6	25	16	6/25/2009 16:00	50	partly cloudy	84	87	68	58	10	29.74	0	6/25/2009 16:00	474.40
2009	6	25	17	6/25/2009 17:00	50	partly cloudy	83	85	67	58	10	29.73	0	6/25/2009 17:00	426.40
2009	6	25	18	6/25/2009 18:00	50	partly cloudy	83	86	69	63	10	29.72	6	6/25/2009 18:00	185.80
2009	6	25	19	6/25/2009 19:00	50	partly cloudy	82	85	69	65	10	29.71	7	6/25/2009 19:00	44.20
2009	6	25	20	6/25/2009 20:00	50	partly cloudy	79	79	69	72	10	29.72	3	6/25/2009 20:00	1.80
2009	6	25	21	6/25/2009 21:00	3	clear	74	74	70	87	10	29.72	0	6/25/2009 21:00	0.00
2009	6	25	22	6/25/2009 22:00	50	partly cloudy	74	74	68	82	10	29.72	5	6/25/2009 22:00	0.00
2009	6	25	23	6/25/2009 23:00	50	partly cloudy	72	72	68	87	10	29.74	0	6/25/2009 23:00	0.00
2009	6	26	0	6/26/2009 0:00	50	partly cloudy	70	70	68	93	10	29.72	3	6/26/2009 0:00	0.00
2009	6	26	1	6/26/2009 1:00	3	clear	69	69	67	93	9	29.73	0	6/26/2009 1:00	0.00
2009	6	26	2	6/26/2009 2:00	18	fog	66	66	66	100	0.8	29.72	0	6/26/2009 2:00	0.00
2009	6	26	3	6/26/2009 3:00	18	fog	66	66	64	94	2	29.71	0	6/26/2009 3:00	0.00
2009	6	26	4	6/26/2009 4:00	18	fog	65	65	64	97	0.8	29.7	0	6/26/2009 4:00	0.00
2009	6	26	5	6/26/2009 5:00	50	partly cloudy	66	66	64	93	6	29.69	0	6/26/2009 5:00	0.00
2009	6	26	6	6/26/2009 6:00	6	cloudy	65	65	64	97	3	29.7	0	6/26/2009 6:00	54.00
2009	6	26	7	6/26/2009 7:00	50	partly cloudy	67	67	65	93	5	29.72	0	6/26/2009 7:00	45.20
2009	6	26	8	6/26/2009 8:00	43	mostly cloudy	68	68	66	93	6	29.72	0	6/26/2009 8:00	68.00
2009	6	26	9	6/26/2009 9:00	43	mostly cloudy	69	69	67	93	3	29.73	0	6/26/2009 9:00	128.40
2009	6	26	10	6/26/2009 10:00	43	mostly cloudy	71	71	68	90	6	29.73	0	6/26/2009 10:00	203.70
2009	6	26	11	6/26/2009 11:00	43	mostly cloudy	76	76	68	76	10	29.72	3	6/26/2009 11:00	572.00
2009	6	26	12	6/26/2009 12:00	50	partly cloudy	79	79	66	64	10	29.73	0	6/26/2009 12:00	551.30
2009	6	26	13	6/26/2009 13:00	50	partly cloudy	81	83	67	62	10	29.71	0	6/26/2009 13:00	800.00
2009	6	26	14	6/26/2009 14:00	50	partly cloudy	85	87	66	53	10	29.68	0	6/26/2009 14:00	783.80
2009	6	26	15	6/26/2009 15:00	50	partly cloudy	86	89	67	53	10	29.66	5	6/26/2009 15:00	539.40
2009	6	26	16	6/26/2009 16:00	50	partly cloudy	86	88	66	51	10	29.65	4	6/26/2009 16:00	344.20
2009	6	26	17	6/26/2009 17:00	50	partly cloudy	84	86	66	55	10	29.64	4	6/26/2009 17:00	362.10
2009	6	26	18	6/26/2009 18:00	80	thunder	81	82	63	54	10	29.7	19	6/26/2009 18:00	36.10
2009	6	26	19	6/26/2009 19:00	33	light rain with thunder	66	66	63	88	3	29.67	0	6/26/2009 19:00	0.40
2009	6	26	20	6/26/2009 20:00	57	rain shower	63	63	63	100	7	29.67	1	6/26/2009 20:00	0.00
2009	6	26	21	6/26/2009 21:00	43	mostly cloudy	65	65	64	97	3	29.69	0	6/26/2009 21:00	0.00
2009	6	26	22	6/26/2009 22:00	43	mostly cloudy	65	65	63	93	4	29.69	3	6/26/2009 22:00	0.00
2009	6	26	23	6/26/2009 23:00	43	mostly cloudy	64	64	62	93	5	29.7	0	6/26/2009 23:00	0.00
2009	6	27	0	6/27/2009 0:00	50	partly cloudy	63	63	61	94	3	29.71	0	6/27/2009 0:00	0.00
2009	6	27	1	6/27/2009 1:00	3	clear	62	62	61	96	7	29.71	3	6/27/2009 1:00	0.00
2009	6	27	4	6/27/2009 4:00	18	fog	58	58	57	97	0.3	29.69	0	6/27/2009 4:00	0.00
2009	6	27	4	6/27/2009 4:00	18	fog	58	58	57	97	0.3	29.69	0	6/27/2009 4:00	0.00
2009	6	27	4	6/27/2009 4:00	18	fog	58	58	57	97	0.3	29.69	0	6/27/2009 4:00	0.00
2009	6	27	5	6/27/2009 5:00	18	fog	57	57	55	94	1	29.71	0	6/27/2009 5:00	0.00
2009	6	27	6	6/27/2009 6:00	74	sunny	58	58	57	97	10	29.73	0	6/27/2009 6:00	58.30
2009	6	27	7	6/27/2009 7:00	50	partly cloudy	61	61	60	97	5	29.72	0	6/27/2009 7:00	161.70
2009	6	27	8	6/27/2009 8:00	50	partly cloudy	65	65	62	90	10	29.74	0	6/27/2009 8:00	341.10
2009	6	27	9	6/27/2009 9:00	50	partly cloudy	71	71	63	75	10	29.74	7	6/27/2009 9:00	562.70
2009	6	27	10	6/27/2009 10:00	74	sunny	74	74	61	64	10	29.74	6	6/27/2009 10:00	729.40
2009	6	27	11	6/27/2009 11:00	43	mostly cloudy	75	75	59	57	10	29.74	10	6/27/2009 11:00	793.90
2009	6	27	12	6/27/2009 12:00	50	partly cloudy	78	78	60	54	10	29.73	8	6/27/2009 12:00	854.10
2009	6	27	13	6/27/2009 13:00	50	partly cloudy	79	79	61	54	10	29.72	4	6/27/2009 13:00	520.00
2009	6	27	14	6/27/2009 14:00	50	partly cloudy	80	80	61	52	10	29.7	9	6/27/2009 14:00	783.80
2009	6	27	15	6/27/2009 15:00	50	partly cloudy	81	81	59	47	10	29.7	10	6/27/2009 15:00	675.50
2009	6	27	16	6/27/2009 16:00	50	partly cloudy	80	80	59	48	10	29.7	9	6/27/2009 16:00	354.80
2009	6	27	17	6/27/2009 17:00	50	partly cloudy	79	79	60	52	10	29.71	5	6/27/2009 17:00	216.60
2009	6	27	18	6/27/2009 18:00	50	partly cloudy	79	79	61	54	10	29.72	13	6/27/2009 18:00	168.70
2009	6	27	19	6/27/2009 19:00	50	partly cloudy	75	75	61	62	10	29.72	6	6/27/2009 19:00	51.40
2009	6	27	20	6/27/2009 20:00	50	partly cloudy	74	74	61	64	10	29.72	5	6/27/2009 20:00	1.90
2009	6	27	21	6/27/2009 21:00	50	partly cloudy	71	71	61	70	10	29.73	0	6/27/2009 21:00	0.00
2009	6	27	22	6/27/2009 22:00	50	partly cloudy	65	65	62	90	10	29.73	0	6/27/2009 22:00	0.00
2009	6	27	23	6/27/2009 23:00	50	partly cloudy	65	65	61	87	10	29.72	0	6/27/2009 23:00	0.00
2009	6	28	0	6/28/2009 0:00	3	clear	65	65	61	87	10	29.71	0	6/28/2009 0:00	0.00
2009	6	28	1	6/28/2009 1:00	3	clear	61	61	60	97	8	29.7	0	6/28/2009 1:00	0.00
2009	6	28	2	6/28/2009 2:00	18	fog	60	60	59	96	2	29.69	0	6/28/2009 2:00	0.00
2009	6	28	3	6/28/2009 3:00	3	clear	60	60	59	96	8	29.71	0	6/28/2009 3:00	0.00
2009	6	28	4	6/28/2009 4:00	3	clear	59	59	58	96	5	29.71	0	6/28/2009 4:00	0.00
2009	6	28	5	6/28/2009 5:00	50	partly cloudy	59	59	57	93	3	29.7	0	6/28/2009 5:00	0.00
2009	6	28	6	6/28/2009 6:00	50	partly cloudy	59	59	57	93	7	29.7	0	6/28/2009 6:00	32.50
2009	6	28	7	6/28/2009 7:00	50	partly cloudy	63	63	60	90	8	29.7	0	6/28/2009 7:00	163.00
2009	6	28	8	6/28/2009 8:00	50	partly cloudy	69	69	61	75	10	29.7	3	6/28/2009 8:00	380.10
2009	6	28	9	6/28/2009 9:00	74	sunny	72	72	60	66	10	29.68	0	6/28/2009 9:00	570.60
2009	6	28	10	6/28/2009 10:00	50	partly cloudy	76	76	60	58	10	29.67	4	6/28/2009 10:00	677.90
2009	6	28	11	6/28/2009 11:00	74	sunny	77	77	60	56	10	29.66	5	6/28/2009 11:00	677.10
2009	6	28	12	6/28/2009 12:00	43	mostly cloudy	78	78	59	52	10	29.66	3	6/28/2009 12:00	688.30
2009	6	28	13	6/28/2009 13:00	50	partly cloudy	81	81	59	47	10	29.65	3	6/28/2009 13:00	607.50
2009	6	28	14	6/28/2009 14:00	74	sunny	82	82	57	42	10	29.63	0	6/28/2009 14:00	527.90
2009	6	28	15	6/28/2009 15:00	50	partly cloudy	83	83	58	42	10	29.6	5	6/28/2009 15:00	725.60
2009	6	28	16	6/28/2009 16:00	50	partly cloudy	82	82	60	47	10	29.58	0	6/28/2009 16:00	491.30
2009	6	28	17	6/28/2009 17:00	74	sunny	83	83	61	47	10	29.57	3	6/28/2009 17:00	251.30
2009	6	28	18	6/28/2009 18:00	50	partly cloudy	82	83	62	51	10	29.56	0	6/28/2009 18:00	43.40
2009	6	28	19	6/28/2009 19:00	6	cloudy	79	79	62	56	10	29.55	0	6/28/2009 19:00	28.50
2009	6	28	20	6/28/2009 20:00	50	partly cloudy	77	77	62	60	10	29.56	3	6/28/2009 20:00	1.30
2009	6	28	21	6/28/2009 21:00	6	cloudy	76	76	60	58	10	29.56	0	6/28/2009 21:00	0.00
2009	6	28	22	6/28/2009 22:00	43	mostly cloudy	68	68	63	84	10	29.57	0	6/28/2009 22:00	0.00
2009	6	28	23	6/28/2009 23:00	6	cloudy	69	69	60	73	10	29.56	3	6/28/2009 23:00	0.00
2009	6	29	0	6/29/2009 0:00	6	cloudy	68	68	60	76	10	29.56	3	6/29/2009 0:00	0.00
2009	6	29	1	6/29/2009 1:00	6	cloudy	68	68	60	76	10	29.54	0	6/29/2009 1:00	0.00
2009	6	29	2	6/29/2009 2:00	50	partly cloudy	66	66	59	78	10	29.53	3	6/29/2009 2:00	0.00
2009	6	29	3	6/29/2009 3:00	43	mostly cloudy	64	64	59	84	10	29.52	0	6/29/2009 3:00	0.00
2009	6	29	4	6/29/2009 4:00	3	clear	62	62	59	90	10	29.51	0	6/29/2009 4:00	0.00
2009	6	29	5	6/29/2009 5:00	74	sunny	59	59	58	96	9	29.5	0	6/29/2009 5:00	0.00
2009	6	29	6	6/29/2009 6:00	50	partly cloudy	59	59	58	96	7	29.5	0	6/29/2009 6:00	56.70
2009	6	29	7	6/29/2009 7:00	50	partly cloudy	64	64	60	87	10	29.5	0	6/29/2009 7:00	182.30
2009	6	29	8	6/29/2009 8:00	50	partly cloudy	68	68	61	78	8	29.49	6	6/29/2009 8:00	371.70
2009	6	29	9	6/29/2009 9:00	74	sunny	73	73	62	68	8	29.49	3	6/29/2009 9:00	522.90
2009	6	29	10	6/29/2009 10:00	43	mostly cloudy	73	73	60	64	9	29.49	7	6/29/2009 10:00	810.90
2009	6	29	11	6/29/2009 11:00	50	partly cloudy	74	74	60	62	9	29.48	7	6/29/2009 11:00	928.50
2009	6	29	12	6/29/2009 12:00	43	mostly cloudy	76	76	61	60	10	29.49	6	6/29/2009 12:00	938.80
2009	6	29	13	6/29/2009 13:00	50	partly cloudy	79	79	61	54	10	29.49	3	6/29/2009 13:00	945.00
2009	6	29	14	6/29/2009 14:00	50	partly cloudy	78	78	60	54	10	29.47	6	6/29/2009 14:00	824.20
2009	6	29	15	6/29/2009 15:00	50	partly cloudy	80	80	58	47	10	29.46	0	6/29/2009 15:00	657.80
2009	6	29	16	6/29/2009 16:00	50	partly cloudy	84	84	55	37	10	29.45	6	6/29/2009 16:00	598.10
2009	6	29	17	6/29/2009 17:00	50	partly cloudy	82	82	57	42	10	29.45	7	6/29/2009 17:00	392.50
2009	6	29	18	6/29/2009 18:00	50	partly cloudy	81	81	57	44	10	29.46	0	6/29/2009 18:00	203.50
2009	6	29	19	6/29/2009 19:00	50	partly cloudy	81	81	56	42	10	29.47	3	6/29/2009 19:00	51.10
2009	6	29	20	6/29/2009 20:00	74	sunny	75	75	61	62	10	29.48	0	6/29/2009 20:00	2.90
2009	6	29	21	6/29/2009 21:00	3	clear	68	68	63	84	10	29.49	0	6/29/2009 21:00	0.00
2009	6	29	22	6/29/2009 22:00	3	clear	64	64	61	90	10	29.51	0	6/29/2009 22:00	0.00
2009	6	29	23	6/29/2009 23:00	3	clear	64	64	62	93	9	29.52	0	6/29/2009 23:00	0.00
2009	6	30	0	6/30/2009 0:00	3	clear	63	63	61	93	6	29.53	0	6/30/2009 0:00	0.00
2009	6	30	1	6/30/2009 1:00	50	partly cloudy	62	62	60	93	5	29.53	0	6/30/2009 1:00	0.00
2009	6	30	2	6/30/2009 2:00	50	partly cloudy	62	62	60	93	8	29.52	0	6/30/2009 2:00	0.00
2009	6	30	3	6/30/2009 3:00	3	clear	61	61	59	93	7	29.51	0	6/30/2009 3:00	0.00
2009	6	30	4	6/30/2009 4:00	50	partly cloudy	59	59	57	94	3	29.51	0	6/30/2009 4:00	0.00
2009	6	30	5	6/30/2009 5:00	43	mostly cloudy	59	59	58	96	7	29.52	0	6/30/2009 5:00	0.00
2009	6	30	6	6/30/2009 6:00	50	partly cloudy	59	59	57	93	4	29.52	0	6/30/2009 6:00	55.50
2009	6	30	7	6/30/2009 7:00	50	partly cloudy	61	61	59	93	7	29.53	3	6/30/2009 7:00	201.80
2009	6	30	8	6/30/2009 8:00	50	partly cloudy	65	65	61	87	8	29.54	3	6/30/2009 8:00	449.30
2009	6	30	9	6/30/2009 9:00	50	partly cloudy	73	73	62	68	10	29.54	0	6/30/2009 9:00	690.00
2009	6	30	10	6/30/2009 10:00	50	partly cloudy	78	78	63	60	10	29.53	0	6/30/2009 10:00	814.80
2009	6	30	11	6/30/2009 11:00	74	sunny	81	82	62	52	10	29.52	3	6/30/2009 11:00	798.80
2009	6	30	12	6/30/2009 12:00	74	sunny	83	83	61	47	10	29.52	10	6/30/2009 12:00	812.30
2009	6	30	13	6/30/2009 13:00	50	partly cloudy	85	85	59	41	10	29.5	8	6/30/2009 13:00	684.40
2009	6	30	14	6/30/2009 14:00	50	partly cloudy	84	84	56	38	10	29.47	6	6/30/2009 14:00	454.30
2009	6	30	15	6/30/2009 15:00	43	mostly cloudy	81	81	55	41	10	29.48	0	6/30/2009 15:00	97.80
2009	6	30	16	6/30/2009 16:00	81	thunder in the vicinity	69	69	65	87	9	29.51	0	6/30/2009 16:00	55.10
2009	6	30	17	6/30/2009 17:00	29	light rain	66	66	63	88	3	29.57	9	6/30/2009 17:00	12.10
2009	6	30	18	6/30/2009 18:00	6	cloudy	65	65	62	90	9	29.56	3	6/30/2009 18:00	55.90
2009	6	30	19	6/30/2009 19:00	43	mostly cloudy	68	68	64	87	10	29.59	0	6/30/2009 19:00	25.50
2009	6	30	20	6/30/2009 20:00	43	mostly cloudy	66	66	64	93	4	29.61	0	6/30/2009 20:00	0.00
2009	6	30	21	6/30/2009 21:00	18	fog	64	64	63	94	0.8	29.62	0	6/30/2009 21:00	0.00
2009	6	30	22	6/30/2009 22:00	18	fog	63	63	61	93	0.5	29.65	0	6/30/2009 22:00	0.00
2009	6	30	23	6/30/2009 23:00	18	fog	63	63	61	94	0.3	29.64	0	6/30/2009 23:00	0.00
