0.00	0.00	0.00	0.00	0.00	0.00	0.00	0.00	0.00	0.00	0.00	0.00	0.00	0.00	0.00	0.00	0.00	0.00	0.00	0.00	0.00	0.00	0.00	0.00	0.00	0.00	0.00	0.00	0.00	0.00	0.00	0.00	0.00	0.00	0.00	0.00	0.00	0.00	0.00	0.00	0.00	0.00	0.00	0.00	0.00	0.00	0.00	0.00	0.00	0.00	0.00	0.00	0.00	0.00	0.00	0.00	0.00	0.00	0.00	0.00	0.00
0.00	0.00	0.00	0.00	0.00	0.00	0.00	0.00	0.00	0.00	0.00	0.00	0.00	0.00	0.00	0.00	0.00	0.00	0.00	0.00	0.00	0.00	0.00	0.00	0.00	0.00	0.00	0.00	0.00	0.00	0.00	0.00	0.00	0.00	0.00	0.00	0.00	0.00	0.00	0.00	0.00	0.00	0.00	0.00	0.00	0.00	0.00	0.00	0.00	0.00	0.00	0.00	0.00	0.00	0.00	0.00	0.00	0.00	0.00	0.00	0.00
0.00	0.00	0.00	0.00	0.00	0.00	0.00	0.00	0.00	0.00	0.00	0.00	0.00	0.00	0.00	0.00	0.00	0.00	0.00	0.00	0.00	0.00	0.00	0.00	0.00	0.00	0.00	0.00	0.00	0.00	0.00	0.00	0.00	0.00	0.00	0.00	0.00	0.00	0.00	0.00	0.00	0.00	0.00	0.00	0.00	0.00	0.00	0.00	0.00	0.00	0.00	0.00	0.00	0.00	0.00	0.00	0.00	0.00	0.00	0.00	0.00
0.00	0.00	0.00	0.00	0.00	0.00	0.00	0.00	0.00	0.00	0.00	0.00	0.00	0.00	0.00	0.00	0.00	0.00	0.00	0.00	0.00	0.00	0.00	0.00	0.00	0.00	0.00	0.00	0.00	0.00	0.00	0.00	0.00	0.00	0.00	0.00	0.00	0.00	0.00	0.00	0.00	0.00	0.00	0.00	0.00	0.00	0.00	0.00	0.00	0.00	0.00	0.00	0.00	0.00	0.00	0.00	0.00	0.00	0.00	0.00	0.00
0.00	0.00	0.00	0.00	0.00	0.00	0.00	0.00	0.00	0.00	0.00	0.00	0.00	0.00	0.00	0.00	0.00	0.00	0.00	0.00	0.00	0.00	0.00	0.00	0.00	0.00	0.00	0.00	0.00	0.00	0.00	0.00	0.00	0.00	0.00	0.00	0.00	0.00	0.00	0.00	0.00	0.00	0.00	0.00	0.00	0.00	0.00	0.00	0.00	0.00	0.00	0.00	0.00	0.00	0.00	0.00	0.00	0.00	0.00	0.00	0.00
0.00	0.00	0.00	0.00	0.00	0.00	0.00	0.00	0.00	0.00	0.70	0.00	0.00	0.70	0.00	0.00	0.00	0.00	0.00	0.00	0.00	0.00	0.00	0.00	0.00	0.00	0.00	0.00	0.00	0.00	0.00	0.00	0.00	0.00	0.00	0.00	0.00	0.00	0.00	0.00	0.00	0.00	0.00	0.00	0.00	0.00	0.00	0.00	0.00	0.00	0.00	0.00	0.00	0.00	0.00	0.00	0.00	0.00	0.00	0.00	0.00
17.80	0.00	0.00	0.00	2.40	9.40	15.90	0.50	0.00	35.40	72.70	9.60	48.10	45.90	16.10	35.20	12.80	46.20	77.70	31.80	21.70	17.40	10.40	0.00	1.90	2.10	3.20	0.00	0.00	0.00	0.00	0.00	0.00	0.00	0.00	1.40	0.00	0.00	0.00	0.00	0.00	0.00	0.00	0.00	0.00	0.00	0.00	0.00	0.00	0.00	0.00	0.00	1.80	26.40	0.00	0.30	12.60	0.00	12.00	0.00	0.50
237.80	0.00	2.40	0.00	108.80	146.30	164.20	36.80	10.90	227.90	240.50	64.40	228.20	235.50	76.00	175.90	155.50	161.70	186.00	168.50	182.60	162.60	147.90	56.90	65.80	130.80	124.00	75.20	86.30	0.00	0.00	43.40	21.40	19.20	10.60	91.00	23.10	51.20	78.30	4.90	4.30	29.40	1.10	20.30	17.50	14.00	19.00	35.10	44.40	24.10	0.00	0.00	222.20	124.30	0.00	85.20	89.60	14.70	143.20	47.80	50.40
572.60	18.30	85.30	8.00	386.70	435.50	470.40	70.10	112.20	547.40	396.90	129.90	491.20	526.30	110.90	390.00	352.60	352.80	454.00	328.20	461.90	412.90	380.30	189.40	124.30	413.80	406.90	227.00	387.50	23.10	50.40	337.80	121.00	223.60	236.70	50.70	99.70	333.50	415.50	50.90	53.70	319.30	19.00	287.10	237.80	112.40	155.20	211.40	236.10	147.20	1.30	23.10	611.20	79.00	4.80	398.30	172.10	103.60	413.70	128.00	67.50
844.00	42.70	83.80	39.40	678.40	701.20	770.40	71.30	119.00	809.30	448.80	214.40	720.40	781.20	168.00	579.60	541.90	530.70	518.00	188.20	719.20	626.60	625.60	312.60	100.50	688.40	680.50	289.60	703.00	80.50	108.40	601.90	493.90	465.90	595.90	65.80	214.10	544.40	673.20	359.80	195.00	616.60	44.80	627.30	483.00	160.30	291.00	452.80	613.70	226.80	13.30	24.40	883.70	285.00	18.80	740.90	485.40	130.80	713.30	178.20	142.70
1012.30	83.30	160.80	65.60	902.30	917.50	992.80	135.70	286.30	1210.50	558.40	301.00	882.60	967.40	287.60	694.00	694.40	678.20	597.20	345.00	911.40	697.00	809.20	247.90	206.10	891.80	880.40	762.00	929.80	95.50	139.50	793.60	600.70	508.40	840.40	88.70	292.80	656.50	818.50	371.10	434.10	794.60	111.50	818.10	743.80	234.90	385.00	568.90	622.90	531.00	29.30	127.70	1077.10	428.00	37.40	1001.50	434.40	319.60	905.10	268.40	125.20
1098.10	98.00	125.80	115.00	959.20	964.70	1022.20	280.60	347.00	993.20	634.80	429.00	982.40	906.70	320.20	806.30	700.20	760.50	898.00	931.20	1034.60	860.60	856.60	241.00	87.90	1011.50	1007.20	714.30	1058.60	111.40	169.30	921.00	617.30	712.30	979.80	67.90	390.40	607.80	871.90	177.10	370.10	885.70	162.10	919.30	870.30	283.90	446.30	616.30	847.60	1030.00	43.00	194.40	1170.20	698.80	56.00	1092.20	830.80	861.20	971.20	331.30	183.70
1102.40	122.90	120.60	150.00	983.10	1000.30	765.30	254.50	799.00	1215.50	674.50	381.30	1030.30	864.90	489.20	710.90	432.40	817.30	1031.20	877.20	1058.40	861.50	625.90	455.80	173.40	1053.10	1050.30	971.70	1099.10	89.70	122.40	972.50	706.80	804.90	1025.40	63.40	669.30	648.10	835.40	258.00	366.80	820.70	194.10	915.90	690.90	323.30	485.10	631.60	685.90	1023.30	47.20	181.60	1173.40	207.60	101.10	1156.20	767.50	990.30	905.60	638.20	252.10
1009.80	124.20	129.20	123.20	938.30	1130.90	776.70	139.40	757.10	1210.30	513.50	609.70	896.50	563.70	755.20	759.80	739.90	822.20	927.10	984.80	1041.90	918.80	563.10	454.40	147.60	1042.20	1038.80	912.20	1077.50	92.30	188.80	924.90	429.20	661.80	976.50	70.90	440.10	647.20	693.90	173.00	154.10	384.50	241.60	783.10	590.60	195.90	460.80	544.10	569.90	894.00	74.10	167.40	1067.90	334.40	143.10	1171.30	494.20	1038.00	384.40	955.40	387.60
856.30	102.10	126.60	70.00	983.90	1062.50	489.10	201.00	575.10	1109.10	511.40	632.00	887.00	638.80	653.50	741.80	763.00	770.80	907.10	968.80	1030.80	613.70	713.10	276.60	106.30	969.80	958.70	951.10	979.00	146.90	122.30	814.60	434.40	323.50	846.30	45.70	210.20	443.00	439.10	89.70	76.90	393.00	183.20	571.70	324.00	111.70	379.30	442.90	388.70	654.70	101.90	91.10	913.80	313.00	156.20	1047.70	402.10	989.00	243.30	995.90	668.60
610.70	92.20	100.60	80.80	854.30	914.90	672.10	153.20	243.10	970.40	425.30	893.20	846.80	761.90	444.10	695.90	602.00	680.50	485.20	719.20	863.50	322.20	569.50	208.50	107.30	833.60	805.30	760.40	819.80	141.90	83.40	626.50	273.50	259.00	630.80	21.10	91.60	150.50	152.40	29.60	28.40	170.40	60.10	236.00	148.20	40.80	215.20	247.70	158.50	352.90	84.00	83.20	653.00	287.80	94.50	929.50	367.80	797.60	341.20	860.10	566.10
282.70	64.20	28.80	77.20	622.10	678.90	473.00	64.40	423.10	748.20	254.40	690.40	538.50	551.80	412.20	415.90	218.30	532.10	399.80	516.30	651.50	187.00	475.30	241.60	80.30	604.20	591.60	133.60	564.80	64.30	30.80	355.90	167.60	179.50	318.20	2.80	7.20	2.40	13.30	2.40	1.60	8.60	2.70	14.90	21.50	4.60	30.10	46.80	33.80	174.30	40.10	26.50	307.00	118.10	107.70	714.70	147.00	498.70	401.80	618.90	439.90
33.70	28.80	21.70	22.60	324.40	371.70	358.70	21.20	300.10	420.10	232.40	402.90	60.90	381.90	211.20	352.20	102.10	341.10	220.20	232.30	421.80	256.10	286.30	180.20	10.70	337.00	299.60	253.70	243.60	38.40	36.50	87.40	32.80	43.80	29.40	0.00	0.00	0.00	0.00	0.00	0.00	0.00	0.00	0.00	0.00	0.00	0.00	0.30	0.00	5.90	3.60	1.70	32.20	31.60	37.70	375.10	33.90	300.90	218.60	301.50	260.20
0.00	4.90	4.50	4.30	79.40	106.40	119.80	18.60	122.80	145.30	119.20	158.20	213.00	182.00	97.60	125.30	91.60	141.10	71.70	86.20	183.70	141.40	124.10	53.30	0.40	86.30	63.10	24.80	25.40	2.70	0.10	1.40	0.00	0.00	0.00	0.00	0.00	0.00	0.00	0.00	0.00	0.00	0.00	0.00	0.00	0.00	0.00	0.00	0.00	0.00	0.00	0.00	0.00	0.00	1.10	76.30	0.00	56.90	68.20	116.20	126.10
0.00	0.00	0.00	0.00	1.30	7.10	7.10	0.00	40.70	18.70	20.20	26.40	42.80	35.40	47.70	37.20	45.40	30.40	9.20	44.70	29.60	20.50	16.70	46.60	0.00	4.30	1.10	0.00	0.00	0.00	0.00	0.00	0.00	0.00	0.00	0.00	0.00	0.00	0.00	0.00	0.00	0.00	0.00	0.00	0.00	0.00	0.00	0.00	0.00	0.00	0.00	0.00	0.00	0.00	0.00	1.10	0.00	7.90	8.50	13.40	16.30
0.00	0.00	0.00	0.00	0.00	0.00	0.00	0.00	0.00	0.00	0.00	0.30	0.30	1.80	2.50	2.30	2.80	2.00	0.00	5.20	0.40	0.00	0.00	0.00	0.00	0.00	0.00	0.00	0.00	0.00	0.00	0.00	0.00	0.00	0.00	0.00	0.00	0.00	0.00	0.00	0.00	0.00	0.00	0.00	0.00	0.00	0.00	0.00	0.00	0.00	0.00	0.00	0.00	0.00	0.00	0.00	0.00	0.00	0.00	0.00	0.00
0.00	0.00	0.00	0.00	0.00	0.00	0.00	0.00	0.00	0.00	0.00	0.00	0.00	0.00	0.00	0.00	0.00	0.00	0.00	0.00	0.00	0.00	0.00	0.00	0.00	0.00	0.00	0.00	0.00	0.00	0.00	0.00	0.00	0.00	0.00	0.00	0.00	0.00	0.00	0.00	0.00	0.00	0.00	0.00	0.00	0.00	0.00	0.00	0.00	0.00	0.00	0.00	0.00	0.00	0.00	0.00	0.00	0.00	0.00	0.00	0.00
0.00	0.00	0.00	0.00	0.00	0.00	0.00	0.00	0.00	0.00	0.00	0.00	0.00	0.00	0.00	0.00	0.00	0.00	0.00	0.00	0.00	0.00	0.00	0.00	0.00	0.00	0.00	0.00	0.00	0.00	0.00	0.00	0.00	0.00	0.00	0.00	0.00	0.00	0.00	0.00	0.00	0.00	0.00	0.00	0.00	0.00	0.00	0.00	0.00	0.00	0.00	0.00	0.00	0.00	0.00	0.00	0.00	0.00	0.00	0.00	0.00
0.00	0.00	0.00	0.00	0.00	0.00	0.00	0.00	0.00	0.00	0.00	0.00	0.00	0.00	0.00	0.00	0.00	0.00	0.00	0.00	0.00	0.00	0.00	0.00	0.00	0.00	0.00	0.00	0.00	0.00	0.00	0.00	0.00	0.00	0.00	0.00	0.00	0.00	0.00	0.00	0.00	0.00	0.00	0.00	0.00	0.00	0.00	0.00	0.00	0.00	0.00	0.00	0.00	0.00	0.00	0.00	0.00	0.00	0.00	0.00	0.00
0.00	0.00	0.00	0.00	0.00	0.00	0.00	0.00	0.00	0.00	0.00	0.00	0.00	0.00	0.00	0.00	0.00	0.00	0.00	0.00	0.00	0.00	0.00	0.00	0.00	0.00	0.00	0.00	0.00	0.00	0.00	0.00	0.00	0.00	0.00	0.00	0.00	0.00	0.00	0.00	0.00	0.00	0.00	0.00	0.00	0.00	0.00	0.00	0.00	0.00	0.00	0.00	0.00	0.00	0.00	0.00	0.00	0.00	0.00	0.00	0.00
0.00	0.00	0.00	0.00	0.00	0.00	0.00	0.00	0.00	0.00	0.00	0.00	0.00	0.00	0.00	0.00	0.00	0.00	0.00	0.00	0.00	0.00	0.00	0.00	0.00	0.00	0.00	0.00	0.00	0.00	0.00	0.00	0.00	0.00	0.00	0.00	0.00	0.00	0.00	0.00	0.00	0.00	0.00	0.00	0.00	0.00	0.00	0.00	0.00	0.00	0.00	0.00	0.00	0.00	0.00	0.00	0.00	0.00	0.00	0.00	0.00
0.00	0.00	0.00	0.00	0.00	0.00	0.00	0.00	0.00	0.00	0.00	0.00	0.00	0.00	0.00	0.00	0.00	0.00	0.00	0.00	0.00	0.00	0.00	0.00	0.00	0.00	0.00	0.00	0.00	0.00	0.00	0.00	0.00	0.00	0.00	0.00	0.00	0.00	0.00	0.00	0.00	0.00	0.00	0.00	0.00	0.00	0.00	0.00	0.00	0.00	0.00	0.00	0.00	0.00	0.00	0.00	0.00	0.00	0.00	0.00	0.00
0.00	0.00	0.00	0.00	0.00	0.00	0.00	0.00	0.00	0.00	0.00	0.00	0.00	0.00	0.00	0.00	0.00	0.00	0.00	0.00	0.00	0.00	0.00	0.00	0.00	0.00	0.00	0.00	0.00	0.00	0.00	0.00	0.00	0.00	0.00	0.00	0.00	0.00	0.00	0.00	0.00	0.00	0.00	0.00	0.00	0.00	0.00	0.00	0.00	0.00	0.00	0.00	0.00	0.00	0.00	0.00	0.00	0.00	0.00	0.00	0.00
0.00	0.00	0.00	0.00	0.00	0.00	0.00	0.00	0.00	0.00	0.00	0.00	0.00	0.00	0.00	0.00	0.00	0.00	0.00	0.00	0.00	0.00	0.00	0.00	0.00	0.00	0.00	0.00	0.00	0.00	0.00	0.00	0.00	0.00	0.00	0.00	0.00	0.00	0.00	0.00	0.00	0.00	0.00	0.00	0.00	0.00	0.00	0.00	0.00	0.00	0.00	0.00	0.00	0.00	0.00	0.00	0.00	0.00	0.00	0.00	0.00
0.00	0.00	0.00	0.00	0.00	0.00	0.00	0.00	0.00	0.60	0.00	0.00	0.00	1.80	0.00	0.00	0.00	0.00	0.00	0.00	0.00	0.00	0.00	0.00	0.00	0.00	0.00	0.00	0.00	0.00	0.00	0.00	0.00	0.00	0.00	0.00	0.00	0.00	0.00	0.00	0.00	0.00	0.00	0.00	0.00	0.00	0.00	0.00	0.00	0.00	0.00	0.00	0.00	0.00	0.00	0.00	0.00	0.00	0.00	0.00	0.00
18.40	0.00	0.00	0.00	0.00	0.00	16.50	7.70	6.60	72.60	0.00	40.60	42.10	49.60	45.90	45.90	59.20	27.70	53.80	29.50	21.20	0.00	0.00	16.90	1.50	1.60	1.60	0.00	0.10	0.00	0.00	0.00	0.00	0.00	0.00	3.00	0.00	0.00	0.00	0.00	0.00	0.00	0.00	0.00	0.00	0.00	0.00	0.00	0.00	0.00	0.40	10.50	19.40	0.00	0.00	0.40	26.30	0.00	14.20	13.30	43.40
238.10	27.70	3.70	0.00	31.10	72.60	182.00	75.20	77.30	228.60	22.30	215.60	235.50	240.80	225.90	182.70	153.90	152.10	101.40	168.70	179.80	100.60	84.20	124.10	103.90	110.80	108.90	61.20	99.00	5.20	0.00	15.10	0.00	11.30	12.00	182.50	23.80	81.50	4.50	0.40	11.90	13.90	1.20	0.60	31.80	0.00	0.00	0.00	12.70	119.30	59.70	86.90	254.20	50.20	15.90	84.60	90.00	24.70	57.00	152.50	203.30
577.50	318.50	93.40	0.00	120.90	106.30	465.80	201.20	287.50	511.70	38.60	493.50	435.70	530.10	505.20	369.80	352.80	341.20	173.70	389.80	458.10	273.00	167.30	286.20	290.10	357.90	366.60	296.90	385.90	96.60	11.70	272.00	9.30	220.00	241.90	535.30	60.30	286.00	41.70	96.90	200.20	297.30	109.00	61.70	269.70	0.00	8.50	0.00	79.60	492.50	400.00	414.60	609.50	272.50	69.30	395.10	208.10	79.10	114.10	445.00	424.70
842.20	550.80	133.00	25.90	334.90	209.10	738.50	597.60	691.20	689.80	93.10	759.40	669.20	784.70	755.80	533.20	567.70	522.90	209.40	489.40	707.60	355.90	247.30	514.50	413.80	618.50	642.00	656.40	669.70	130.50	71.60	453.10	44.00	187.30	590.50	790.60	173.10	477.80	64.40	245.70	606.20	628.90	222.10	140.10	184.60	4.50	18.50	0.00	521.30	815.00	798.10	872.10	881.80	628.00	341.70	734.90	159.70	138.90	130.40	708.40	521.60
1006.30	797.20	163.20	32.00	277.90	161.30	939.70	536.90	939.80	830.80	95.50	921.60	813.40	932.00	935.80	696.10	702.10	665.80	119.20	781.80	863.60	447.80	465.00	665.00	207.80	818.40	845.70	881.40	877.90	160.80	135.30	584.50	334.40	675.00	830.90	932.50	148.00	187.10	78.60	409.80	858.50	824.70	357.50	215.40	239.20	16.60	27.60	2.30	543.60	1023.00	1040.20	1051.70	1027.30	869.30	813.50	989.30	258.80	165.70	192.40	904.50	679.80
1095.80	1078.40	144.90	45.70	698.30	201.30	1072.00	713.60	1057.60	960.30	139.30	1016.60	833.30	771.90	1041.90	779.60	548.60	748.10	32.10	614.10	994.70	403.30	849.60	722.40	191.50	949.20	956.20	1013.20	1005.20	252.10	125.20	165.60	607.20	859.40	962.70	979.50	154.70	244.40	124.80	387.00	942.20	907.80	424.00	577.20	348.40	26.20	89.60	2.00	700.60	1118.60	1132.70	1133.50	1129.50	1055.60	627.90	1141.70	205.80	41.00	216.10	1041.40	629.70
1094.00	1150.40	172.30	129.40	1020.80	321.00	1085.40	655.30	1108.40	571.70	134.80	1055.50	882.10	884.30	1082.10	594.70	812.20	685.80	203.20	401.20	1046.60	675.10	694.90	761.70	226.60	1005.20	972.50	1074.50	1052.00	258.30	86.50	348.10	488.20	683.40	1010.60	937.40	129.20	252.10	93.30	513.50	870.10	895.40	574.10	878.60	364.90	49.40	242.20	3.80	360.20	1130.70	1136.10	1119.50	1101.80	878.00	966.90	1215.40	324.30	172.40	224.50	875.60	928.80
1007.10	1152.20	135.50	102.80	1013.00	207.50	1155.20	965.90	1028.60	367.40	113.70	1043.30	499.80	830.20	1084.80	638.40	709.90	566.10	902.30	348.40	981.90	592.50	379.30	610.00	169.40	972.30	922.10	1043.10	1033.00	273.40	40.40	404.50	700.60	353.60	971.10	796.00	81.10	264.10	87.80	252.50	316.80	745.10	584.10	689.80	376.50	73.30	310.90	9.20	660.40	1023.70	1025.60	1001.70	938.70	1092.10	1173.60	1203.40	239.00	355.70	187.50	921.60	852.70
850.30	1063.50	55.70	100.80	926.10	330.80	998.50	987.90	895.90	299.90	88.90	964.90	490.20	705.10	1016.80	506.20	524.30	714.40	669.20	619.60	943.40	631.60	899.90	720.40	153.00	855.80	859.60	985.40	940.70	217.10	45.40	279.80	897.00	190.30	835.00	554.20	52.10	97.30	40.00	171.40	349.80	521.10	449.70	325.40	223.30	76.20	246.00	12.60	646.80	856.00	859.00	862.80	618.80	706.00	1005.20	1116.10	290.90	441.30	147.00	807.80	833.10
605.60	911.10	22.80	116.70	737.50	620.00	753.10	1020.60	768.50	230.00	102.50	879.90	488.50	974.10	895.80	226.50	402.50	499.20	490.00	632.30	889.80	513.90	571.40	756.70	119.80	799.60	753.80	845.00	789.80	124.20	24.90	391.50	664.80	73.80	620.50	252.70	13.40	33.10	11.70	183.50	141.60	182.10	191.10	118.40	141.70	42.70	89.30	4.30	334.50	574.80	593.70	609.40	261.90	423.70	845.90	963.90	392.90	138.00	206.80	800.90	550.00
287.10	663.40	34.60	90.70	486.00	294.60	527.50	632.20	100.50	216.90	145.10	667.40	105.40	682.80	710.00	225.00	414.70	534.60	308.90	698.70	713.40	432.50	149.30	556.40	94.00	573.50	558.50	596.60	538.60	122.40	9.00	426.60	376.60	28.60	307.70	13.30	0.00	4.40	0.00	4.30	13.10	6.60	7.50	15.70	10.50	9.20	12.80	0.00	104.20	204.70	239.60	269.80	152.40	312.80	652.00	714.20	201.60	48.50	192.50	532.40	615.90
34.60	329.00	22.10	56.60	265.70	19.80	299.30	494.10	249.40	106.50	104.20	399.30	265.40	338.10	448.10	148.20	301.80	334.50	274.50	420.20	438.20	138.60	88.40	390.40	37.90	299.00	281.70	280.00	230.00	106.90	3.60	73.50	69.30	5.50	26.60	0.00	0.00	0.00	0.00	0.00	0.00	0.00	0.00	0.00	0.00	0.00	0.00	0.00	2.30	5.60	11.70	22.20	53.60	170.00	310.00	376.80	95.70	26.40	92.70	300.20	326.10
0.00	48.10	12.50	11.10	71.60	2.00	126.00	97.10	129.50	45.60	43.80	149.80	15.00	171.70	184.40	31.60	173.10	141.30	225.80	152.70	182.10	104.50	34.30	131.90	5.20	80.20	55.20	39.60	22.70	6.60	0.00	2.00	0.30	0.00	0.00	0.00	0.00	0.00	0.00	0.00	0.00	0.00	0.00	0.00	0.00	0.00	0.00	0.00	0.00	0.00	0.00	0.00	0.00	33.10	53.00	77.30	1.70	0.80	28.10	99.90	145.70
0.00	0.00	0.00	0.00	5.90	0.00	12.30	19.90	13.20	15.90	9.50	26.50	27.40	30.70	44.00	3.60	39.40	43.90	39.80	56.00	32.40	25.30	23.80	13.20	0.00	3.90	0.00	0.00	0.00	0.00	0.00	0.00	0.00	0.00	0.00	0.00	0.00	0.00	0.00	0.00	0.00	0.00	0.00	0.00	0.00	0.00	0.00	0.00	0.00	0.00	0.00	0.00	0.00	0.00	0.00	1.00	0.00	0.00	0.00	9.40	12.60
0.00	0.00	0.00	0.00	0.00	0.00	0.00	0.00	0.00	0.00	0.00	0.30	0.00	0.40	1.90	4.60	7.00	1.80	0.00	0.60	0.40	0.00	0.00	0.00	0.00	0.00	0.00	0.00	0.00	0.00	0.00	0.00	0.00	0.00	0.00	0.00	0.00	0.00	0.00	0.00	0.00	0.00	0.00	0.00	0.00	0.00	0.00	0.00	0.00	0.00	0.00	0.00	0.00	0.00	0.00	0.00	0.00	0.00	0.00	0.00	0.00
0.00	0.00	0.00	0.00	0.00	0.00	0.00	0.00	0.00	0.00	0.00	0.00	0.00	0.00	0.00	0.00	0.00	0.00	0.00	0.00	0.00	0.00	0.00	0.00	0.00	0.00	0.00	0.00	0.00	0.00	0.00	0.00	0.00	0.00	0.00	0.00	0.00	0.00	0.00	0.00	0.00	0.00	0.00	0.00	0.00	0.00	0.00	0.00	0.00	0.00	0.00	0.00	0.00	0.00	0.00	0.00	0.00	0.00	0.00	0.00	0.00
0.00	0.00	0.00	0.00	0.00	0.00	0.00	0.00	0.00	0.00	0.00	0.00	0.00	0.00	0.00	0.00	0.00	0.00	0.00	0.00	0.00	0.00	0.00	0.00	0.00	0.00	0.00	0.00	0.00	0.00	0.00	0.00	0.00	0.00	0.00	0.00	0.00	0.00	0.00	0.00	0.00	0.00	0.00	0.00	0.00	0.00	0.00	0.00	0.00	0.00	0.00	0.00	0.00	0.00	0.00	0.00	0.00	0.00	0.00	0.00	0.00
0.00	0.00	0.00	0.00	0.00	0.00	0.00	0.00	0.00	0.00	0.00	0.00	0.00	0.00	0.00	0.00	0.00	0.00	0.00	0.00	0.00	0.00	0.00	0.00	0.00	0.00	0.00	0.00	0.00	0.00	0.00	0.00	0.00	0.00	0.00	0.00	0.00	0.00	0.00	0.00	0.00	0.00	0.00	0.00	0.00	0.00	0.00	0.00	0.00	0.00	0.00	0.00	0.00	0.00	0.00	0.00	0.00	0.00	0.00	0.00	0.00
0.00	0.00	0.00	0.00	0.00	0.00	0.00	0.00	0.00	0.00	0.00	0.00	0.00	0.00	0.00	0.00	0.00	0.00	0.00	0.00	0.00	0.00	0.00	0.00	0.00	0.00	0.00	0.00	0.00	0.00	0.00	0.00	0.00	0.00	0.00	0.00	0.00	0.00	0.00	0.00	0.00	0.00	0.00	0.00	0.00	0.00	0.00	0.00	0.00	0.00	0.00	0.00	0.00	0.00	0.00	0.00	0.00	0.00	0.00	0.00	0.00
0.00	0.00	0.00	0.00	0.00	0.00	0.00	0.00	0.00	0.00	0.00	0.00	0.00	0.00	0.00	0.00	0.00	0.00	0.00	0.00	0.00	0.00	0.00	0.00	0.00	0.00	0.00	0.00	0.00	0.00	0.00	0.00	0.00	0.00	0.00	0.00	0.00	0.00	0.00	0.00	0.00	0.00	0.00	0.00	0.00	0.00	0.00	0.00	0.00	0.00	0.00	0.00	0.00	0.00	0.00	0.00	0.00	0.00	0.00	0.00	0.00
0.00	0.00	0.00	0.00	0.00	0.00	0.00	0.00	0.00	0.00	0.00	0.00	0.00	0.00	0.00	0.00	0.00	0.00	0.00	0.00	0.00	0.00	0.00	0.00	0.00	0.00	0.00	0.00	0.00	0.00	0.00	0.00	0.00	0.00	0.00	0.00	0.00	0.00	0.00	0.00	0.00	0.00	0.00	0.00	0.00	0.00	0.00	0.00	0.00	0.00	0.00	0.00	0.00	0.00	0.00	0.00	0.00	0.00	0.00	0.00	0.00
0.00	0.00	0.00	0.00	0.00	0.00	0.00	0.00	0.00	0.00	0.00	0.00	0.00	0.00	0.00	0.00	0.00	0.00	0.00	0.00	0.00	0.00	0.00	0.00	0.00	0.00	0.00	0.00	0.00	0.00	0.00	0.00	0.00	0.00	0.00	0.00	0.00	0.00	0.00	0.00	0.00	0.00	0.00	0.00	0.00	0.00	0.00	0.00	0.00	0.00	0.00	0.00	0.00	0.00	0.00	0.00	0.00	0.00	0.00	0.00	0.00
0.00	0.00	0.00	0.00	0.00	0.00	0.00	0.00	0.00	0.00	0.00	0.00	0.00	0.00	0.00	0.00	0.00	0.00	0.00	0.00	0.00	0.00	0.00	0.00	0.00	0.00	0.00	0.00	0.00	0.00	0.00	0.00	0.00	0.00	0.00	0.00	0.00	0.00	0.00	0.00	0.00	0.00	0.00	0.00	0.00	0.00	0.00	0.00	0.00	0.00	0.00	0.00	0.00	0.00	0.00	0.00	0.00	0.00	0.00	0.00	0.00
0.00	0.00	0.00	0.00	0.00	0.00	0.00	0.00	0.00	0.00	0.00	0.00	0.00	3.70	0.00	0.00	0.10	0.00	0.00	0.00	0.00	0.00	0.00	0.00	0.00	0.00	0.00	0.00	0.00	0.00	0.00	0.00	0.00	0.00	0.00	0.00	0.00	0.00	0.00	0.00	0.00	0.00	0.00	0.00	0.00	0.00	0.00	0.00	0.00	0.00	0.00	0.00	0.00	0.00	0.00	0.00	0.00	0.00	0.00	0.00	0.00
27.30	0.00	0.00	0.00	3.50	11.20	18.60	20.40	29.80	0.00	19.80	48.40	54.00	89.70	25.30	38.90	33.40	41.10	0.00	22.30	41.70	0.00	30.20	4.50	0.00	0.60	0.00	0.30	0.00	0.00	0.00	0.00	0.00	0.00	0.00	2.20	0.00	0.00	0.00	0.00	0.00	0.00	0.00	0.00	0.00	0.00	0.00	0.00	0.00	0.00	3.20	8.30	35.10	0.00	0.00	0.80	6.80	0.00	0.00	2.10	0.00
238.40	54.60	27.20	38.20	86.40	158.60	163.90	196.00	213.60	13.70	115.70	228.90	244.20	188.70	131.90	177.70	181.00	155.30	69.30	168.80	143.50	79.00	146.50	52.20	36.40	105.20	45.00	105.50	75.00	59.10	24.70	48.70	34.80	0.00	5.30	83.30	110.80	101.00	0.00	47.30	30.50	32.80	4.60	20.00	0.00	0.50	0.00	0.00	50.80	48.40	171.60	187.10	111.50	0.00	0.00	112.10	99.10	23.20	18.90	182.00	17.10
517.30	313.20	280.10	169.90	353.90	463.60	420.20	524.40	513.80	25.70	231.10	506.10	507.00	212.00	127.30	385.30	414.90	350.20	118.70	416.80	367.50	342.20	293.70	94.40	119.80	356.90	261.00	397.20	329.60	258.20	175.30	337.80	244.40	0.00	229.70	103.50	436.40	467.10	3.50	355.90	333.10	290.90	67.90	277.60	0.00	28.10	0.00	1.00	302.40	297.80	533.00	517.90	386.90	11.20	0.00	374.50	431.90	40.40	93.70	339.90	62.30
787.20	635.00	692.70	198.40	642.70	754.10	636.70	648.50	762.80	95.30	393.80	741.40	737.00	347.40	265.30	538.40	617.10	521.50	272.10	651.70	485.20	514.10	572.70	179.20	245.60	615.30	607.20	695.60	607.00	593.40	666.30	661.20	530.90	91.30	568.30	401.10	582.80	735.30	25.30	556.20	708.90	593.70	244.00	618.20	0.50	122.90	0.00	20.50	700.30	643.90	824.30	813.00	306.00	73.80	0.20	635.60	751.80	97.90	135.30	684.30	125.80
759.40	875.20	821.70	326.90	847.90	962.00	807.50	636.00	948.80	127.90	429.40	902.20	915.80	319.60	186.90	677.60	768.10	656.00	508.00	723.80	380.10	734.80	809.30	251.70	366.20	806.00	817.90	899.60	828.60	642.50	786.20	885.50	539.50	33.30	792.30	510.90	679.00	898.00	39.70	534.20	762.90	815.70	546.50	804.80	5.30	384.80	0.10	43.80	706.80	927.10	999.30	978.20	478.50	166.50	0.60	861.20	977.70	172.50	127.70	620.60	135.80
683.90	1017.80	1103.60	643.80	1025.60	1080.90	892.80	665.90	1055.60	170.50	314.50	987.10	1017.00	302.30	369.60	608.30	861.70	758.50	635.20	772.90	708.30	788.20	956.40	502.10	386.40	921.00	970.20	1058.60	948.00	919.30	855.60	1004.30	330.70	87.10	927.30	695.40	588.00	963.00	70.60	316.40	918.00	812.80	776.50	753.40	8.00	830.00	0.40	91.70	841.10	1071.40	1082.70	1079.30	383.90	329.70	10.40	936.00	1107.60	176.80	202.10	550.80	231.40
819.20	1093.40	1177.90	691.20	1080.70	1150.30	798.00	807.80	1102.70	175.80	426.10	1019.60	1052.90	216.20	361.70	781.60	906.50	803.80	410.00	487.10	655.10	585.00	893.20	477.70	376.20	912.60	1038.50	1066.40	979.30	691.60	823.00	1038.20	335.00	142.20	972.80	659.40	597.10	843.70	41.90	647.50	718.90	881.70	698.00	857.70	15.70	454.80	5.40	131.50	917.00	1038.60	1086.20	1098.60	340.40	441.00	17.90	924.70	1106.10	180.90	432.70	625.40	188.90
447.70	1097.70	1170.30	773.60	1051.20	1106.00	725.80	699.90	1090.50	202.60	519.60	1028.40	1034.50	93.70	746.40	852.30	909.60	226.60	110.60	496.00	803.20	723.40	989.50	652.70	239.10	842.50	1040.20	1084.10	945.90	575.60	604.10	1000.50	357.80	137.80	917.50	703.60	266.80	422.30	23.40	745.70	578.90	742.20	703.70	649.90	14.90	278.60	8.00	139.20	789.20	952.00	983.50	987.90	316.70	537.10	27.40	717.40	999.30	151.40	655.20	592.80	235.00
324.20	1020.10	1083.30	644.50	961.70	1054.70	501.90	658.20	1030.20	150.10	467.90	962.90	961.20	92.00	522.70	689.70	870.80	5.30	219.00	921.40	612.70	703.10	528.40	733.00	146.00	779.40	963.00	990.20	847.00	847.50	677.20	885.10	239.70	125.50	782.10	381.60	146.50	335.20	35.50	452.40	452.90	370.40	455.70	308.40	11.40	314.40	5.30	137.00	444.20	783.70	828.70	279.60	195.80	776.90	41.50	679.10	480.70	142.30	917.80	429.10	158.30
240.60	881.80	927.40	455.80	821.10	915.50	234.20	475.80	904.40	150.50	203.30	796.00	809.20	92.80	667.90	658.50	774.30	646.80	61.90	640.20	520.70	539.50	480.40	412.40	236.10	720.10	824.40	837.00	680.90	383.50	375.40	704.00	217.50	109.00	588.80	221.30	47.00	106.10	82.40	154.30	166.80	84.40	200.80	236.30	11.80	71.30	0.20	92.40	190.30	521.40	573.70	438.90	108.90	803.00	33.20	708.40	328.70	136.30	694.20	263.80	181.80
69.10	640.00	684.10	313.70	536.60	695.20	39.10	515.80	696.60	65.00	242.90	618.80	611.20	70.30	486.10	532.50	611.20	505.80	122.20	498.20	566.60	433.70	363.50	135.30	137.30	428.90	593.80	587.50	438.40	237.90	148.90	428.10	117.80	47.10	298.10	10.70	6.80	12.20	2.90	3.70	6.00	9.80	12.10	20.10	0.00	25.10	0.00	28.90	40.20	194.80	236.00	252.50	23.00	444.70	15.00	416.80	184.10	83.70	516.60	229.20	237.20
22.50	321.80	349.00	313.60	211.40	388.00	104.40	392.90	391.20	23.60	97.60	367.50	293.60	15.90	211.40	330.90	380.90	312.20	161.60	366.70	288.90	253.00	338.70	79.80	58.70	317.60	296.30	274.30	168.90	60.60	37.30	100.00	47.60	23.70	25.30	0.00	0.00	0.00	0.00	0.00	0.00	0.00	0.00	0.00	0.00	0.00	0.00	0.00	0.20	10.10	13.20	29.60	3.60	256.10	4.60	92.40	145.30	42.40	329.90	242.60	130.60
0.00	52.20	67.30	75.60	68.10	101.80	26.80	129.00	125.10	11.60	81.00	157.30	162.10	6.20	51.70	131.70	155.40	141.80	125.70	61.80	205.00	139.70	99.40	33.40	42.80	97.30	56.30	37.60	6.10	14.60	0.50	1.10	2.80	0.00	0.00	0.00	0.00	0.00	0.00	0.00	0.00	0.00	0.00	0.00	0.00	0.00	0.00	0.00	0.00	0.00	0.00	0.00	0.00	31.40	0.00	13.20	59.80	8.60	99.60	125.30	39.10
0.00	0.10	0.50	1.10	2.30	5.40	1.30	10.60	14.60	2.60	19.40	31.50	36.30	0.00	7.80	31.20	29.40	41.00	51.30	25.60	43.30	33.90	6.90	5.70	4.90	2.30	0.90	0.00	0.00	0.00	0.00	0.00	0.00	0.00	0.00	0.00	0.00	0.00	0.00	0.00	0.00	0.00	0.00	0.00	0.00	0.00	0.00	0.00	0.00	0.00	0.00	0.00	0.00	0.00	0.00	0.00	0.00	0.00	11.70	16.50	7.20
0.00	0.00	0.00	0.00	0.00	0.00	0.00	0.00	0.00	0.00	0.00	0.80	0.10	0.00	0.00	1.00	2.20	2.60	6.80	0.00	0.40	0.00	0.00	0.00	0.00	0.00	0.00	0.00	0.00	0.00	0.00	0.00	0.00	0.00	0.00	0.00	0.00	0.00	0.00	0.00	0.00	0.00	0.00	0.00	0.00	0.00	0.00	0.00	0.00	0.00	0.00	0.00	0.00	0.00	0.00	0.00	0.00	0.00	0.00	0.00	0.00
0.00	0.00	0.00	0.00	0.00	0.00	0.00	0.00	0.00	0.00	0.00	0.00	0.00	0.00	0.00	0.00	0.00	0.00	0.00	0.00	0.00	0.00	0.00	0.00	0.00	0.00	0.00	0.00	0.00	0.00	0.00	0.00	0.00	0.00	0.00	0.00	0.00	0.00	0.00	0.00	0.00	0.00	0.00	0.00	0.00	0.00	0.00	0.00	0.00	0.00	0.00	0.00	0.00	0.00	0.00	0.00	0.00	0.00	0.00	0.00	0.00
0.00	0.00	0.00	0.00	0.00	0.00	0.00	0.00	0.00	0.00	0.00	0.00	0.00	0.00	0.00	0.00	0.00	0.00	0.00	0.00	0.00	0.00	0.00	0.00	0.00	0.00	0.00	0.00	0.00	0.00	0.00	0.00	0.00	0.00	0.00	0.00	0.00	0.00	0.00	0.00	0.00	0.00	0.00	0.00	0.00	0.00	0.00	0.00	0.00	0.00	0.00	0.00	0.00	0.00	0.00	0.00	0.00	0.00	0.00	0.00	0.00
0.00	0.00	0.00	0.00	0.00	0.00	0.00	0.00	0.00	0.00	0.00	0.00	0.00	0.00	0.00	0.00	0.00	0.00	0.00	0.00	0.00	0.00	0.00	0.00	0.00	0.00	0.00	0.00	0.00	0.00	0.00	0.00	0.00	0.00	0.00	0.00	0.00	0.00	0.00	0.00	0.00	0.00	0.00	0.00	0.00	0.00	0.00	0.00	0.00	0.00	0.00	0.00	0.00	0.00	0.00	0.00	0.00	0.00	0.00	0.00	0.00
0.00	0.00	0.00	0.00	0.00	0.00	0.00	0.00	0.00	0.00	0.00	0.00	0.00	0.00	0.00	0.00	0.00	0.00	0.00	0.00	0.00	0.00	0.00	0.00	0.00	0.00	0.00	0.00	0.00	0.00	0.00	0.00	0.00	0.00	0.00	0.00	0.00	0.00	0.00	0.00	0.00	0.00	0.00	0.00	0.00	0.00	0.00	0.00	0.00	0.00	0.00	0.00	0.00	0.00	0.00	0.00	0.00	0.00	0.00	0.00	0.00
0.00	0.00	0.00	0.00	0.00	0.00	0.00	0.00	0.00	0.00	0.00	0.00	0.00	0.00	0.00	0.00	0.00	0.00	0.00	0.00	0.00	0.00	0.00	0.00	0.00	0.00	0.00	0.00	0.00	0.00	0.00	0.00	0.00	0.00	0.00	0.00	0.00	0.00	0.00	0.00	0.00	0.00	0.00	0.00	0.00	0.00	0.00	0.00	0.00	0.00	0.00	0.00	0.00	0.00	0.00	0.00	0.00	0.00	0.00	0.00	0.00
0.00	0.00	0.00	0.00	0.00	0.00	0.00	0.00	0.00	0.00	0.00	0.00	0.00	0.00	0.00	0.00	0.00	0.00	0.00	0.00	0.00	0.00	0.00	0.00	0.00	0.00	0.00	0.00	0.00	0.00	0.00	0.00	0.00	0.00	0.00	0.00	0.00	0.00	0.00	0.00	0.00	0.00	0.00	0.00	0.00	0.00	0.00	0.00	0.00	0.00	0.00	0.00	0.00	0.00	0.00	0.00	0.00	0.00	0.00	0.00	0.00
0.00	0.00	0.00	0.00	0.00	0.00	0.00	0.00	0.00	0.00	0.00	0.00	0.00	0.00	0.00	0.00	0.00	0.00	0.00	0.00	0.00	0.00	0.00	0.00	0.00	0.00	0.00	0.00	0.00	0.00	0.00	0.00	0.00	0.00	0.00	0.00	0.00	0.00	0.00	0.00	0.00	0.00	0.00	0.00	0.00	0.00	0.00	0.00	0.00	0.00	0.00	0.00	0.00	0.00	0.00	0.00	0.00	0.00	0.00	0.00	0.00
0.00	0.00	0.00	0.00	0.00	0.00	0.00	0.00	0.00	0.00	0.00	0.00	0.00	0.00	0.00	0.00	0.00	0.00	0.00	0.00	0.00	0.00	0.00	0.00	0.00	0.00	0.00	0.00	0.00	0.00	0.00	0.00	0.00	0.00	0.00	0.00	0.00	0.00	0.00	0.00	0.00	0.00	0.00	0.00	0.00	0.00	0.00	0.00	0.00	0.00	0.00	0.00	0.00	0.00	0.00	0.00	0.00	0.00	0.00	0.00	0.00
0.00	0.00	0.00	0.00	0.00	0.00	0.00	0.00	0.00	0.20	0.10	0.00	0.00	0.00	0.00	0.00	0.30	0.00	0.00	0.00	0.00	0.00	0.00	0.00	0.00	0.00	0.00	0.00	0.00	0.00	0.00	0.00	0.00	0.00	0.00	0.00	0.00	0.00	0.00	0.00	0.00	0.00	0.00	0.00	0.00	0.00	0.00	0.00	0.00	0.00	0.00	0.00	0.00	0.00	0.00	0.00	0.00	0.00	0.00	0.00	0.00
2.70	0.00	0.00	0.70	1.60	10.70	13.30	22.20	49.10	43.60	45.80	43.20	71.30	2.50	39.70	46.50	31.20	22.00	10.10	16.50	11.40	0.00	7.70	9.10	3.90	0.00	0.20	0.00	0.00	0.00	0.00	0.00	0.00	0.00	0.00	3.00	0.10	0.00	0.00	0.00	0.00	0.00	0.00	0.00	0.00	0.00	0.00	0.00	0.00	0.00	3.70	9.30	0.00	0.00	0.00	0.00	28.70	5.00	17.40	0.00	31.10
55.00	54.60	81.60	84.20	88.20	146.40	130.90	195.10	150.90	242.20	237.50	218.60	225.30	72.60	225.90	152.60	174.20	75.00	141.20	184.70	30.80	121.60	63.60	142.00	125.90	100.60	102.90	89.50	51.90	0.00	32.30	38.50	0.00	10.40	0.00	179.30	130.50	33.40	59.00	51.60	16.20	8.40	23.00	18.70	0.20	26.00	0.00	12.70	56.50	20.50	158.10	226.70	9.90	46.90	0.10	13.80	126.30	146.50	170.90	31.30	204.80
183.00	313.20	337.30	212.80	379.00	427.70	429.80	519.70	356.10	547.40	517.70	469.70	463.70	172.60	504.20	369.60	404.90	120.00	247.00	461.60	127.10	344.50	98.70	412.70	391.50	349.40	395.30	353.30	264.80	2.30	223.10	300.00	33.70	217.10	17.60	537.70	458.80	94.60	378.20	379.10	144.40	178.00	257.50	131.60	15.90	132.40	0.00	128.90	440.30	114.00	379.00	605.90	106.20	304.70	5.10	77.60	265.70	459.30	394.90	147.50	522.80
198.90	635.00	601.80	621.50	657.30	713.00	713.60	809.30	437.50	819.00	770.00	425.50	597.50	298.00	563.60	574.60	607.60	246.00	232.30	713.00	339.70	609.20	116.30	669.80	654.60	614.70	615.10	603.30	602.00	8.30	611.20	630.40	184.60	491.00	35.30	792.40	530.50	104.40	671.50	690.20	300.10	356.60	532.90	299.30	40.80	466.60	0.00	451.10	781.40	225.10	312.40	914.70	176.40	624.00	13.60	90.90	179.60	758.20	601.30	310.60	806.00
660.60	875.20	257.90	894.30	855.60	779.40	861.40	1026.90	385.40	1000.10	952.40	324.30	764.40	421.50	880.70	662.90	746.70	296.50	427.80	903.10	292.80	818.00	150.60	858.10	857.50	812.40	694.00	591.30	722.60	79.80	856.40	706.70	201.80	510.20	100.90	942.30	564.80	94.30	845.00	844.30	476.20	500.30	749.90	638.40	68.00	594.70	1.10	600.00	985.80	628.50	509.40	1099.40	101.90	884.50	35.10	104.00	207.20	980.10	884.00	654.60	959.40
638.30	1017.80	290.70	1055.60	968.70	847.10	1040.30	1146.30	1001.30	1091.10	1047.90	474.80	994.60	802.20	961.20	667.50	691.60	195.10	590.30	1007.00	466.10	871.30	210.10	931.70	699.00	927.80	419.40	312.90	681.30	197.20	931.90	544.10	433.20	588.70	46.30	990.60	708.40	103.10	914.30	876.50	396.40	689.90	838.80	381.20	116.40	543.80	89.40	674.20	1097.10	876.30	445.00	1183.50	52.70	1043.30	173.00	176.90	280.30	1115.80	1019.80	302.60	1044.80
763.60	1093.40	326.30	1121.50	1062.00	1083.20	1073.90	1203.10	968.50	1129.80	1083.30	562.90	869.20	756.00	1024.10	405.80	800.50	313.90	575.10	950.00	913.90	733.60	366.80	1023.30	909.00	982.00	303.50	334.30	384.60	158.30	982.10	277.10	725.40	683.70	85.10	940.40	580.60	166.70	878.40	853.10	197.70	731.00	643.90	587.40	173.00	739.30	171.10	698.00	1106.00	971.70	479.50	1174.40	64.40	1108.30	432.50	161.20	304.30	1159.90	1203.00	287.70	1140.50
591.30	1097.70	787.80	1099.60	1033.40	1028.00	1088.10	1187.30	1060.00	1073.40	1072.80	701.20	742.20	1010.90	689.00	736.70	780.30	441.00	499.90	792.30	973.90	801.20	224.10	1014.90	1003.30	980.00	399.40	354.20	818.40	96.50	1042.30	103.80	973.80	898.80	115.20	793.10	350.20	111.30	727.10	792.80	134.90	389.80	441.00	654.80	203.90	606.70	277.70	636.90	996.20	827.20	284.20	1068.60	97.30	1102.30	349.60	208.70	324.10	973.10	1175.70	51.90	1108.80
301.70	1020.10	556.40	1013.40	986.60	1012.70	1000.30	1105.70	1010.40	1024.50	1009.60	631.60	988.40	676.70	672.70	700.60	676.30	624.20	671.50	807.30	665.50	950.90	290.30	963.30	1066.60	764.10	237.00	411.90	678.90	69.90	852.30	99.20	879.30	742.90	61.80	576.70	155.40	50.90	399.00	527.40	96.20	210.00	221.00	524.90	181.30	304.20	194.70	516.00	818.80	599.80	344.90	904.40	50.00	1009.90	350.90	180.20	279.00	972.70	1122.80	68.90	751.20
134.20	881.80	409.10	870.60	781.80	847.40	717.90	954.20	901.70	911.90	882.10	329.30	836.50	356.60	652.40	128.90	458.20	622.40	723.70	705.30	838.40	758.80	198.50	796.50	762.00	757.10	112.50	340.80	692.60	43.50	719.90	56.80	697.20	587.40	31.20	252.30	95.40	11.60	140.30	169.50	54.60	62.70	154.50	219.10	95.10	201.00	101.90	323.00	538.20	447.70	250.50	640.60	38.30	870.90	549.10	91.00	254.10	855.30	970.60	317.00	766.00
36.30	640.00	299.50	649.40	572.30	518.80	560.60	717.30	701.80	696.80	683.40	348.20	663.80	302.00	334.40	332.40	424.40	535.70	629.90	588.60	601.40	583.00	144.50	647.10	636.00	536.60	230.00	81.50	364.80	23.90	325.60	15.70	379.50	330.30	18.30	13.00	5.90	0.00	7.20	4.70	3.70	3.50	20.20	21.20	6.80	35.80	8.60	86.50	168.60	111.50	71.00	274.80	7.90	632.50	698.10	31.90	124.80	677.60	738.60	371.80	714.50
7.40	321.80	190.40	342.20	312.70	276.30	266.70	412.00	405.70	404.40	410.70	164.30	385.10	262.90	294.30	329.80	244.20	325.40	371.20	405.30	377.60	380.30	77.80	367.70	319.70	251.40	140.30	28.20	161.30	9.00	76.10	3.60	63.30	37.70	1.40	0.00	0.00	0.00	0.00	0.00	0.00	0.00	0.00	0.00	0.00	0.00	0.00	0.50	3.90	5.10	9.50	31.20	0.00	302.60	338.80	58.50	33.40	371.10	427.10	210.00	458.30
0.00	52.20	53.70	75.20	101.70	70.40	111.90	126.90	129.80	143.40	147.70	75.10	154.70	110.60	91.80	143.60	117.60	138.80	190.20	161.40	159.30	141.60	33.50	117.30	110.60	57.20	25.80	12.90	21.70	0.00	4.00	0.00	0.10	0.00	0.00	0.00	0.00	0.00	0.00	0.00	0.00	0.00	0.00	0.00	0.00	0.00	0.00	0.00	0.00	0.00	0.00	0.00	0.00	59.70	68.10	11.50	2.30	102.30	120.00	43.30	157.00
0.00	0.10	0.00	1.40	4.60	0.10	4.10	11.70	14.80	20.80	22.80	0.00	45.00	18.30	20.60	28.70	26.20	24.10	32.30	27.50	27.00	28.70	1.50	12.60	7.10	2.90	0.00	0.00	0.00	0.00	0.00	0.00	0.00	0.00	0.00	0.00	0.00	0.00	0.00	0.00	0.00	0.00	0.00	0.00	0.00	0.00	0.00	0.00	0.00	0.00	0.00	0.00	0.00	0.00	0.60	0.00	0.00	6.50	8.60	3.60	14.90
0.00	0.00	0.00	0.00	0.00	0.00	0.00	0.00	0.00	0.00	0.10	0.00	0.20	0.00	1.60	2.00	1.70	1.20	0.00	0.60	0.30	0.00	0.00	0.00	0.00	0.00	0.00	0.00	0.00	0.00	0.00	0.00	0.00	0.00	0.00	0.00	0.00	0.00	0.00	0.00	0.00	0.00	0.00	0.00	0.00	0.00	0.00	0.00	0.00	0.00	0.00	0.00	0.00	0.00	0.00	0.00	0.00	0.00	0.00	0.00	0.00
0.00	0.00	0.00	0.00	0.00	0.00	0.00	0.00	0.00	0.00	0.00	0.00	0.00	0.00	0.00	0.00	0.00	0.00	0.00	0.00	0.00	0.00	0.00	0.00	0.00	0.00	0.00	0.00	0.00	0.00	0.00	0.00	0.00	0.00	0.00	0.00	0.00	0.00	0.00	0.00	0.00	0.00	0.00	0.00	0.00	0.00	0.00	0.00	0.00	0.00	0.00	0.00	0.00	0.00	0.00	0.00	0.00	0.00	0.00	0.00	0.00
0.00	0.00	0.00	0.00	0.00	0.00	0.00	0.00	0.00	0.00	0.00	0.00	0.00	0.00	0.00	0.00	0.00	0.00	0.00	0.00	0.00	0.00	0.00	0.00	0.00	0.00	0.00	0.00	0.00	0.00	0.00	0.00	0.00	0.00	0.00	0.00	0.00	0.00	0.00	0.00	0.00	0.00	0.00	0.00	0.00	0.00	0.00	0.00	0.00	0.00	0.00	0.00	0.00	0.00	0.00	0.00	0.00	0.00	0.00	0.00	0.00
0.00	0.00	0.00	0.00	0.00	0.00	0.00	0.00	0.00	0.00	0.00	0.00	0.00	0.00	0.00	0.00	0.00	0.00	0.00	0.00	0.00	0.00	0.00	0.00	0.00	0.00	0.00	0.00	0.00	0.00	0.00	0.00	0.00	0.00	0.00	0.00	0.00	0.00	0.00	0.00	0.00	0.00	0.00	0.00	0.00	0.00	0.00	0.00	0.00	0.00	0.00	0.00	0.00	0.00	0.00	0.00	0.00	0.00	0.00	0.00	0.00
0.00	0.00	0.00	0.00	0.00	0.00	0.00	0.00	0.00	0.00	0.00	0.00	0.00	0.00	0.00	0.00	0.00	0.00	0.00	0.00	0.00	0.00	0.00	0.00	0.00	0.00	0.00	0.00	0.00	0.00	0.00	0.00	0.00	0.00	0.00	0.00	0.00	0.00	0.00	0.00	0.00	0.00	0.00	0.00	0.00	0.00	0.00	0.00	0.00	0.00	0.00	0.00	0.00	0.00	0.00	0.00	0.00	0.00	0.00	0.00	0.00
0.00	0.00	0.00	0.00	0.00	0.00	0.00	0.00	0.00	0.00	0.00	0.00	0.00	0.00	0.00	0.00	0.00	0.00	0.00	0.00	0.00	0.00	0.00	0.00	0.00	0.00	0.00	0.00	0.00	0.00	0.00	0.00	0.00	0.00	0.00	0.00	0.00	0.00	0.00	0.00	0.00	0.00	0.00	0.00	0.00	0.00	0.00	0.00	0.00	0.00	0.00	0.00	0.00	0.00	0.00	0.00	0.00	0.00	0.00	0.00	0.00
0.00	0.00	0.00	0.00	0.00	0.00	0.00	0.00	0.00	0.00	0.00	0.00	0.00	0.00	0.00	0.00	0.00	0.00	0.00	0.00	0.00	0.00	0.00	0.00	0.00	0.00	0.00	0.00	0.00	0.00	0.00	0.00	0.00	0.00	0.00	0.00	0.00	0.00	0.00	0.00	0.00	0.00	0.00	0.00	0.00	0.00	0.00	0.00	0.00	0.00	0.00	0.00	0.00	0.00	0.00	0.00	0.00	0.00	0.00	0.00	0.00
0.00	0.00	0.00	0.00	0.00	0.00	0.00	0.00	0.00	0.00	0.00	0.00	0.00	0.00	0.00	0.00	0.00	0.00	0.00	0.00	0.00	0.00	0.00	0.00	0.00	0.00	0.00	0.00	0.00	0.00	0.00	0.00	0.00	0.00	0.00	0.00	0.00	0.00	0.00	0.00	0.00	0.00	0.00	0.00	0.00	0.00	0.00	0.00	0.00	0.00	0.00	0.00	0.00	0.00	0.00	0.00	0.00	0.00	0.00	0.00	0.00
0.00	0.00	0.00	0.00	0.00	0.00	0.00	0.00	0.00	0.00	0.00	0.00	0.00	0.00	0.00	0.00	0.00	0.00	0.00	0.00	0.00	0.00	0.00	0.00	0.00	0.00	0.00	0.00	0.00	0.00	0.00	0.00	0.00	0.00	0.00	0.00	0.00	0.00	0.00	0.00	0.00	0.00	0.00	0.00	0.00	0.00	0.00	0.00	0.00	0.00	0.00	0.00	0.00	0.00	0.00	0.00	0.00	0.00	0.00	0.00	0.00
0.00	0.00	0.00	0.00	0.00	0.00	0.00	0.00	0.00	0.00	0.00	0.40	0.00	3.20	0.30	0.00	0.20	0.00	0.00	0.00	0.00	0.00	0.00	0.00	0.00	0.00	0.00	0.00	0.00	0.00	0.00	0.00	0.00	0.00	0.00	0.00	0.00	0.00	0.00	0.00	0.00	0.00	0.00	0.00	0.00	0.00	0.00	0.00	0.00	0.00	0.00	0.00	0.00	0.00	0.00	0.00	0.00	0.00	0.00	0.00	0.00
0.00	0.00	0.00	1.30	0.00	0.00	19.50	34.60	34.30	16.20	55.20	57.00	55.20	101.30	41.80	24.10	33.80	28.40	14.20	35.10	18.30	21.30	0.00	8.00	5.90	0.00	0.40	0.00	0.00	0.00	0.00	0.00	0.00	0.00	0.00	2.20	0.90	0.00	0.00	0.00	0.00	0.00	0.00	0.00	0.00	0.00	0.00	0.00	0.10	0.00	0.00	8.80	0.00	0.00	0.00	0.00	1.90	10.60	16.80	27.80	47.70
2.50	50.80	17.10	107.70	16.30	24.40	177.70	213.30	215.50	107.40	268.30	215.90	225.00	293.10	189.80	175.00	174.80	139.40	146.10	149.90	166.20	164.60	12.40	129.60	139.10	49.20	72.10	36.00	0.00	0.00	57.20	22.20	5.50	0.00	0.00	175.20	136.40	9.60	12.00	13.80	34.60	10.50	19.90	0.00	0.90	0.00	3.80	17.30	128.40	72.00	0.00	160.00	36.90	35.70	72.90	0.80	73.80	143.90	187.90	198.50	235.00
24.40	279.20	72.70	373.60	105.60	115.10	494.80	453.70	519.50	171.50	473.40	486.70	482.60	509.20	401.60	391.30	402.70	318.20	374.50	343.30	443.40	405.10	105.20	368.60	429.70	205.90	388.90	255.10	38.90	0.00	342.20	300.50	210.90	40.60	20.70	537.10	448.60	50.30	73.20	307.10	341.30	104.10	219.60	0.10	56.40	0.60	36.30	131.00	398.70	144.10	0.00	410.00	142.00	251.60	368.10	33.20	196.60	388.50	243.70	491.10	493.90
41.30	569.80	65.60	674.60	211.50	281.90	789.30	565.50	781.00	310.10	740.70	568.10	710.40	704.00	594.30	557.10	601.80	475.70	634.10	215.80	704.60	527.70	275.60	625.10	706.80	190.60	606.00	493.70	129.20	16.20	658.20	626.60	602.80	116.90	131.40	782.00	440.80	72.80	264.00	219.80	651.50	365.20	423.90	6.00	144.10	8.30	74.40	263.70	765.20	100.60	12.40	748.10	589.40	464.40	718.80	101.30	252.90	486.50	492.90	772.10	779.10
64.60	807.40	145.10	891.00	439.20	444.40	1005.40	921.90	975.10	617.10	908.30	698.50	882.20	689.20	733.00	615.30	709.20	183.00	820.40	186.00	889.40	816.00	517.70	819.10	920.50	273.70	669.40	548.80	222.60	47.80	872.40	640.20	615.50	246.80	493.20	918.30	762.00	161.00	645.10	239.70	827.40	830.50	718.70	19.90	288.80	21.00	186.70	334.70	956.70	132.30	69.90	1019.20	360.20	780.70	973.90	96.90	239.30	319.50	897.20	983.80	970.90
93.40	967.90	237.80	1024.00	453.10	610.10	1124.20	1058.90	1091.00	759.90	1023.90	830.70	915.40	920.20	808.10	712.80	475.60	628.30	942.70	220.90	1007.60	858.70	739.10	935.90	1054.60	365.50	490.80	888.00	645.10	102.30	993.50	684.80	544.00	701.90	373.10	966.20	963.40	145.10	802.40	215.20	896.20	916.90	766.10	5.80	356.80	26.50	231.70	413.70	1053.30	195.40	67.40	964.70	675.40	809.10	1125.40	190.60	186.00	386.20	607.40	966.30	1099.30
69.00	1036.60	697.80	1086.50	348.00	625.50	1171.30	1097.30	1142.60	1052.90	920.60	853.90	962.60	789.50	806.70	737.80	570.80	661.50	953.40	462.60	839.90	861.00	795.90	978.50	1105.80	591.30	680.50	630.70	920.50	185.50	1039.70	376.50	778.20	865.00	241.10	920.40	914.60	218.50	531.10	129.30	865.70	899.40	593.90	10.80	408.80	32.60	130.50	402.50	1067.10	708.50	71.00	1068.10	558.70	1010.70	1204.40	489.90	220.10	572.30	408.70	1013.30	1136.10
59.00	1040.20	1031.70	1093.70	431.40	611.70	1158.10	1055.50	1121.80	1060.30	958.90	762.70	645.30	603.30	850.30	706.10	785.80	880.70	638.10	463.50	862.10	796.90	1010.80	977.80	1100.20	624.40	471.30	918.60	922.70	248.70	1012.00	703.00	744.40	388.40	168.00	778.90	769.60	173.30	298.20	182.30	761.90	757.80	309.80	13.70	399.70	107.00	110.90	316.40	959.50	894.70	58.30	999.60	735.10	987.70	1123.80	295.40	210.60	617.70	411.80	817.70	948.70
33.00	975.30	1157.90	1009.70	282.20	835.90	1077.00	1023.00	983.20	901.80	959.10	546.00	979.60	696.80	801.10	778.40	716.50	670.80	952.40	463.50	811.10	713.10	1042.50	720.90	1021.70	453.20	423.50	990.50	832.00	239.90	897.30	572.80	837.40	539.40	343.50	557.10	539.80	163.20	183.30	153.60	493.80	538.00	165.00	10.00	314.60	117.70	63.60	336.50	795.30	738.00	184.50	849.50	791.60	982.10	974.10	370.50	96.90	843.00	272.60	427.30	857.10
31.30	835.20	991.70	855.40	397.20	766.20	931.40	881.50	868.40	796.60	817.50	367.40	713.00	541.10	709.10	655.80	791.50	643.10	791.10	479.40	556.50	503.20	895.70	694.80	879.70	291.10	504.40	738.90	661.20	235.10	725.40	352.50	660.40	580.20	284.20	237.60	209.10	63.50	98.20	79.40	166.90	193.60	59.20	6.70	161.50	46.00	58.90	175.70	517.40	498.30	52.00	568.20	408.30	807.40	817.00	221.80	103.70	594.20	157.00	379.30	808.40
11.50	606.20	585.30	624.30	190.40	394.80	704.90	659.10	687.20	536.20	557.10	108.60	609.00	587.10	552.20	465.90	510.90	627.00	450.50	418.70	599.60	535.60	672.10	641.60	653.40	294.20	443.70	535.50	399.90	107.30	453.50	242.20	385.20	376.60	121.10	11.00	8.10	3.80	3.90	6.10	5.70	6.60	6.80	0.70	13.60	11.20	6.50	47.40	164.90	191.40	84.50	216.40	94.20	503.20	337.70	159.20	70.80	309.80	218.40	230.60	631.60
0.00	302.00	254.40	333.70	119.20	83.70	398.70	377.00	318.40	249.00	404.80	64.30	290.50	366.70	345.20	327.80	407.20	336.70	324.10	281.90	279.00	419.10	398.30	371.00	368.00	211.40	159.60	272.20	136.30	82.20	127.70	56.90	59.30	31.40	19.30	0.00	0.00	0.00	0.00	0.00	0.00	0.00	0.00	0.00	0.00	0.00	0.00	0.30	3.90	17.70	3.70	17.40	16.00	221.10	172.70	130.20	33.70	150.30	221.20	98.10	368.10
0.00	51.70	58.80	77.60	32.20	25.80	118.00	119.90	111.50	5.00	158.50	161.30	123.10	176.00	143.30	138.80	159.10	194.10	147.20	134.00	183.30	152.80	133.80	114.30	96.00	63.30	19.40	31.60	21.70	18.00	2.80	1.00	0.10	0.00	0.00	0.00	0.00	0.00	0.00	0.00	0.00	0.00	0.00	0.00	0.00	0.00	0.00	0.00	0.00	0.00	0.00	0.00	0.00	43.30	43.60	57.00	9.90	39.80	46.10	66.50	172.10
0.00	0.00	1.00	1.20	2.60	3.70	10.00	13.60	25.00	60.50	30.50	35.90	34.80	36.70	28.70	44.70	34.50	28.00	13.10	30.40	55.20	22.60	10.10	8.70	4.90	2.50	0.00	0.00	0.00	0.00	0.00	0.00	0.00	0.00	0.00	0.00	0.00	0.00	0.00	0.00	0.00	0.00	0.00	0.00	0.00	0.00	0.00	0.00	0.00	0.00	0.00	0.00	0.00	0.10	0.00	5.10	0.20	2.20	4.70	8.30	24.40
0.00	0.00	0.00	0.00	0.00	0.00	0.00	0.00	0.00	1.40	0.00	0.10	1.30	0.40	1.80	2.60	1.90	0.20	1.00	0.00	0.20	0.00	0.00	0.00	0.00	0.00	0.00	0.00	0.00	0.00	0.00	0.00	0.00	0.00	0.00	0.00	0.00	0.00	0.00	0.00	0.00	0.00	0.00	0.00	0.00	0.00	0.00	0.00	0.00	0.00	0.00	0.00	0.00	0.00	0.00	0.00	0.00	0.00	0.00	0.00	0.00
0.00	0.00	0.00	0.00	0.00	0.00	0.00	0.00	0.00	0.00	0.00	0.00	0.00	0.00	0.00	0.00	0.00	0.00	0.00	0.00	0.00	0.00	0.00	0.00	0.00	0.00	0.00	0.00	0.00	0.00	0.00	0.00	0.00	0.00	0.00	0.00	0.00	0.00	0.00	0.00	0.00	0.00	0.00	0.00	0.00	0.00	0.00	0.00	0.00	0.00	0.00	0.00	0.00	0.00	0.00	0.00	0.00	0.00	0.00	0.00	0.00
0.00	0.00	0.00	0.00	0.00	0.00	0.00	0.00	0.00	0.00	0.00	0.00	0.00	0.00	0.00	0.00	0.00	0.00	0.00	0.00	0.00	0.00	0.00	0.00	0.00	0.00	0.00	0.00	0.00	0.00	0.00	0.00	0.00	0.00	0.00	0.00	0.00	0.00	0.00	0.00	0.00	0.00	0.00	0.00	0.00	0.00	0.00	0.00	0.00	0.00	0.00	0.00	0.00	0.00	0.00	0.00	0.00	0.00	0.00	0.00	0.00
0.00	0.00	0.00	0.00	0.00	0.00	0.00	0.00	0.00	0.00	0.00	0.00	0.00	0.00	0.00	0.00	0.00	0.00	0.00	0.00	0.00	0.00	0.00	0.00	0.00	0.00	0.00	0.00	0.00	0.00	0.00	0.00	0.00	0.00	0.00	0.00	0.00	0.00	0.00	0.00	0.00	0.00	0.00	0.00	0.00	0.00	0.00	0.00	0.00	0.00	0.00	0.00	0.00	0.00	0.00	0.00	0.00	0.00	0.00	0.00	0.00
0.00	0.00	0.00	0.00	0.00	0.00	0.00	0.00	0.00	0.00	0.00	0.00	0.00	0.00	0.00	0.00	0.00	0.00	0.00	0.00	0.00	0.00	0.00	0.00	0.00	0.00	0.00	0.00	0.00	0.00	0.00	0.00	0.00	0.00	0.00	0.00	0.00	0.00	0.00	0.00	0.00	0.00	0.00	0.00	0.00	0.00	0.00	0.00	0.00	0.00	0.00	0.00	0.00	0.00	0.00	0.00	0.00	0.00	0.00	0.00	0.00
0.00	0.00	0.00	0.00	0.00	0.00	0.00	0.00	0.00	0.00	0.00	0.00	0.00	0.00	0.00	0.00	0.00	0.00	0.00	0.00	0.00	0.00	0.00	0.00	0.00	0.00	0.00	0.00	0.00	0.00	0.00	0.00	0.00	0.00	0.00	0.00	0.00	0.00	0.00	0.00	0.00	0.00	0.00	0.00	0.00	0.00	0.00	0.00	0.00	0.00	0.00	0.00	0.00	0.00	0.00	0.00	0.00	0.00	0.00	0.00	0.00
0.00	0.00	0.00	0.00	0.00	0.00	0.00	0.00	0.00	0.00	0.00	0.00	0.00	0.00	0.00	0.00	0.00	0.00	0.00	0.00	0.00	0.00	0.00	0.00	0.00	0.00	0.00	0.00	0.00	0.00	0.00	0.00	0.00	0.00	0.00	0.00	0.00	0.00	0.00	0.00	0.00	0.00	0.00	0.00	0.00	0.00	0.00	0.00	0.00	0.00	0.00	0.00	0.00	0.00	0.00	0.00	0.00	0.00	0.00	0.00	0.00
0.00	0.00	0.00	0.00	0.00	0.00	0.00	0.00	0.00	0.00	0.00	0.00	0.00	0.00	0.00	0.00	0.00	0.00	0.00	0.00	0.00	0.00	0.00	0.00	0.00	0.00	0.00	0.00	0.00	0.00	0.00	0.00	0.00	0.00	0.00	0.00	0.00	0.00	0.00	0.00	0.00	0.00	0.00	0.00	0.00	0.00	0.00	0.00	0.00	0.00	0.00	0.00	0.00	0.00	0.00	0.00	0.00	0.00	0.00	0.00	0.00
0.00	0.00	0.00	0.00	0.00	0.00	0.00	0.00	0.00	0.00	0.00	0.00	0.00	0.00	0.00	0.00	0.00	0.00	0.00	0.00	0.00	0.00	0.00	0.00	0.00	0.00	0.00	0.00	0.00	0.00	0.00	0.00	0.00	0.00	0.00	0.00	0.00	0.00	0.00	0.00	0.00	0.00	0.00	0.00	0.00	0.00	0.00	0.00	0.00	0.00	0.00	0.00	0.00	0.00	0.00	0.00	0.00	0.00	0.00	0.00	0.00
0.00	0.00	0.00	0.00	0.00	0.00	0.00	0.00	0.00	0.00	0.00	0.00	0.00	0.00	0.40	0.00	0.00	0.00	0.00	0.00	0.00	0.00	0.00	0.00	0.00	0.00	0.00	0.00	0.00	0.00	0.00	0.00	0.00	0.00	0.00	0.00	0.00	0.00	0.00	0.00	0.00	0.00	0.00	0.00	0.00	0.00	0.00	0.00	0.00	0.00	0.00	0.00	0.00	0.00	0.00	1.20	5.80	0.00	0.00	0.00	0.00
0.00	0.00	0.00	1.00	3.20	4.50	22.10	28.90	36.90	16.20	42.10	0.00	22.50	46.80	42.00	42.10	36.90	69.50	8.90	26.00	39.20	8.30	0.00	2.40	6.30	0.20	1.00	0.00	0.00	0.00	0.00	0.00	0.00	0.00	0.00	1.60	1.90	0.00	0.00	0.00	0.00	0.00	0.00	0.00	0.00	0.00	0.00	0.00	0.00	0.10	0.50	0.00	0.60	0.00	0.00	99.40	137.40	0.30	0.00	16.90	38.90
3.60	52.20	76.40	105.60	67.40	80.70	186.80	186.30	171.80	107.40	164.40	11.90	154.10	216.70	190.60	175.70	190.10	182.80	180.80	139.70	199.00	131.20	126.90	136.50	133.60	109.90	113.00	107.90	57.80	72.20	47.50	19.40	21.40	17.40	1.20	164.40	130.70	82.60	61.10	28.20	29.00	4.60	20.90	0.00	8.70	7.10	7.60	4.10	34.60	132.90	59.40	31.00	88.70	36.10	75.20	417.40	428.20	42.80	0.00	108.60	216.00
27.50	305.00	377.50	397.50	329.90	359.40	494.80	435.00	105.70	171.50	431.00	52.60	353.60	313.50	405.10	376.40	385.40	173.90	425.30	408.60	346.70	425.10	426.70	361.00	417.00	404.20	396.00	243.90	302.60	370.20	306.20	108.30	262.40	216.50	211.30	517.40	300.00	427.20	391.80	228.60	305.00	102.20	233.80	1.20	136.20	60.90	91.70	48.30	147.90	486.60	228.50	253.40	581.60	313.90	376.90	633.20	726.90	92.00	6.10	243.00	501.40
39.80	620.90	728.50	681.20	787.70	281.90	787.90	648.00	118.60	310.10	553.70	239.40	437.00	193.50	577.30	558.70	585.90	247.30	661.60	663.90	678.80	690.20	444.00	605.10	696.60	689.80	681.50	257.60	478.40	687.50	610.90	335.30	426.70	552.40	565.60	758.60	411.60	706.50	680.60	352.90	577.50	201.90	464.10	10.60	87.50	135.70	187.10	67.10	475.00	726.90	504.30	747.80	877.20	664.80	733.60	717.50	965.30	79.30	27.10	648.00	752.30
48.70	859.10	984.70	894.20	1006.40	506.40	988.00	891.40	390.10	617.10	625.00	598.20	809.60	716.20	724.80	702.70	735.80	188.20	845.50	848.00	832.90	877.30	628.00	729.50	909.50	904.70	892.20	515.00	505.80	911.80	834.80	621.40	787.90	753.50	811.40	897.90	787.80	868.20	420.90	546.70	584.90	305.00	677.00	17.80	187.70	151.30	281.10	129.80	591.80	628.70	590.80	974.60	1048.40	924.70	1001.80	846.90	1096.10	125.50	84.80	1037.60	956.20
47.20	1001.20	1127.70	1025.10	1146.10	605.60	1094.60	1009.30	886.10	759.90	867.40	805.20	815.50	536.90	816.10	765.00	823.10	145.80	957.90	980.30	1037.30	721.50	972.60	792.60	1028.30	1025.20	1014.90	499.30	943.90	1040.90	963.70	721.40	814.00	904.90	941.70	934.80	629.30	562.60	470.80	459.20	698.70	184.40	757.60	20.00	306.50	151.00	270.20	111.50	626.20	614.60	1039.40	880.70	948.10	1080.90	1159.10	923.40	1159.50	82.40	97.00	862.00	1033.00
46.70	1070.20	1186.10	1027.90	1210.50	450.90	1133.30	950.10	1010.50	1052.90	945.40	899.10	969.10	500.50	686.90	745.90	857.90	203.50	856.70	877.60	800.50	699.80	944.50	676.00	1074.50	882.40	1057.70	664.10	972.70	1089.30	1024.90	458.20	830.00	942.90	428.30	886.50	809.10	284.90	389.10	431.00	790.40	170.40	734.00	16.70	411.80	174.70	362.40	78.90	321.00	717.10	1086.20	529.80	496.90	1141.60	1241.10	1077.40	1111.50	58.80	129.10	559.40	1093.70
38.40	1072.70	1155.20	1031.70	1191.90	637.30	1116.00	1009.80	712.10	1060.30	910.50	630.30	807.30	882.00	778.80	746.90	853.40	242.70	969.20	893.30	888.60	802.60	1042.20	644.70	1056.50	892.70	1043.20	906.00	906.00	1047.20	1004.40	891.00	649.80	768.20	345.70	744.90	519.70	454.80	248.90	396.00	360.40	173.20	228.90	11.50	440.60	143.00	239.50	77.40	583.70	577.30	968.10	493.30	517.80	1126.50	1229.90	991.00	1027.60	44.30	204.00	761.40	771.60
4.10	979.90	1032.80	931.40	1112.20	860.20	1049.50	920.10	910.50	901.80	871.60	413.40	685.10	686.90	695.90	778.40	806.00	269.30	857.40	940.80	748.30	771.90	884.30	584.80	974.60	826.20	957.30	837.90	874.40	940.30	882.10	682.10	768.70	614.30	166.70	539.30	161.70	374.70	239.90	315.50	213.80	84.80	96.40	4.30	196.90	127.00	162.00	73.80	553.80	467.30	854.50	269.50	696.90	1076.60	1141.80	810.50	814.90	58.10	208.20	905.30	665.40
8.30	846.60	792.70	771.00	956.70	317.90	883.50	819.70	896.20	796.60	803.10	658.70	642.60	645.90	668.20	594.30	711.30	233.60	743.00	800.40	754.20	478.30	786.50	574.40	841.60	823.00	807.80	534.50	660.10	766.60	710.00	685.70	593.60	289.30	121.10	223.70	67.50	62.70	92.50	80.40	106.20	48.00	67.20	1.10	49.60	82.70	54.10	33.20	344.90	203.60	502.10	267.40	487.90	928.90	989.60	413.50	581.70	35.70	140.40	939.90	787.20
4.10	599.60	468.90	558.70	715.40	112.70	386.80	544.30	644.20	536.20	581.00	530.70	552.10	626.20	397.40	398.00	563.30	321.80	642.60	609.80	515.10	507.80	566.70	351.80	620.90	438.20	524.60	526.70	465.00	499.60	446.80	419.90	139.20	97.60	107.80	10.90	4.80	3.00	3.30	4.10	8.60	3.90	5.20	0.00	1.60	14.70	19.80	7.70	84.10	64.10	123.90	73.60	292.20	680.80	735.70	208.10	317.70	19.60	124.00	706.00	229.40
0.00	302.10	209.50	310.10	392.50	28.20	311.30	236.40	392.10	249.00	232.60	345.70	411.20	410.00	298.50	252.00	349.90	357.10	372.30	401.90	408.40	284.60	371.40	201.30	345.50	267.20	228.80	248.80	186.90	171.60	122.40	86.50	28.10	14.60	26.70	0.00	0.00	0.00	0.00	0.00	0.00	0.00	0.00	0.00	0.00	0.00	0.00	0.00	7.00	6.00	18.30	4.00	40.10	338.70	379.90	68.40	99.70	0.10	155.70	407.80	357.10
0.00	53.80	87.20	73.30	99.20	27.20	60.60	107.60	126.20	5.00	103.20	134.00	156.70	160.50	131.30	103.70	142.10	211.20	166.70	163.60	95.10	170.20	110.00	74.60	95.10	61.00	51.80	30.30	17.90	7.00	2.40	0.80	0.10	0.00	0.00	0.00	0.00	0.00	0.00	0.00	0.00	0.00	0.00	0.00	0.00	0.00	0.00	0.00	0.00	0.00	0.00	0.00	0.00	56.70	75.80	1.90	4.20	0.00	80.80	127.90	65.80
0.00	0.10	1.00	1.50	4.30	0.80	3.30	25.60	9.70	60.50	25.50	46.70	45.00	42.10	37.50	17.60	23.90	49.30	62.10	29.60	36.90	41.50	14.80	6.70	4.80	2.00	0.40	0.00	0.00	0.00	0.00	0.00	0.00	0.00	0.00	0.00	0.00	0.00	0.00	0.00	0.00	0.00	0.00	0.00	0.00	0.00	0.00	0.00	0.00	0.00	0.00	0.00	0.00	0.10	0.90	0.00	0.00	0.00	10.90	13.40	16.90
0.00	0.00	0.00	0.00	0.00	0.00	0.00	0.00	0.00	1.40	0.00	0.00	0.70	2.20	1.50	0.00	1.70	0.80	1.40	0.00	0.20	0.00	0.00	0.00	0.00	0.00	0.00	0.00	0.00	0.00	0.00	0.00	0.00	0.00	0.00	0.00	0.00	0.00	0.00	0.00	0.00	0.00	0.00	0.00	0.00	0.00	0.00	0.00	0.00	0.00	0.00	0.00	0.00	0.00	0.00	0.00	0.00	0.00	0.00	0.00	0.00
0.00	0.00	0.00	0.00	0.00	0.00	0.00	0.00	0.00	0.00	0.00	0.00	0.00	0.00	0.00	0.00	0.00	0.00	0.00	0.00	0.00	0.00	0.00	0.00	0.00	0.00	0.00	0.00	0.00	0.00	0.00	0.00	0.00	0.00	0.00	0.00	0.00	0.00	0.00	0.00	0.00	0.00	0.00	0.00	0.00	0.00	0.00	0.00	0.00	0.00	0.00	0.00	0.00	0.00	0.00	0.00	0.00	0.00	0.00	0.00	0.00
0.00	0.00	0.00	0.00	0.00	0.00	0.00	0.00	0.00	0.00	0.00	0.00	0.00	0.00	0.00	0.00	0.00	0.00	0.00	0.00	0.00	0.00	0.00	0.00	0.00	0.00	0.00	0.00	0.00	0.00	0.00	0.00	0.00	0.00	0.00	0.00	0.00	0.00	0.00	0.00	0.00	0.00	0.00	0.00	0.00	0.00	0.00	0.00	0.00	0.00	0.00	0.00	0.00	0.00	0.00	0.00	0.00	0.00	0.00	0.00	0.00
0.00	0.00	0.00	0.00	0.00	0.00	0.00	0.00	0.00	0.00	0.00	0.00	0.00	0.00	0.00	0.00	0.00	0.00	0.00	0.00	0.00	0.00	0.00	0.00	0.00	0.00	0.00	0.00	0.00	0.00	0.00	0.00	0.00	0.00	0.00	0.00	0.00	0.00	0.00	0.00	0.00	0.00	0.00	0.00	0.00	0.00	0.00	0.00	0.00	0.00	0.00	0.00	0.00	0.00	0.00	0.00	0.00	0.00	0.00	0.00	0.00
0.00	0.00	0.00	0.00	0.00	0.00	0.00	0.00	0.00	0.00	0.00	0.00	0.00	0.00	0.00	0.00	0.00	0.00	0.00	0.00	0.00	0.00	0.00	0.00	0.00	0.00	0.00	0.00	0.00	0.00	0.00	0.00	0.00	0.00	0.00	0.00	0.00	0.00	0.00	0.00	0.00	0.00	0.00	0.00	0.00	0.00	0.00	0.00	0.00	0.00	0.00	0.00	0.00	0.00	0.00	0.00	0.00	0.00	0.00	0.00	0.00
0.00	0.00	0.00	0.00	0.00	0.00	0.00	0.00	0.00	0.00	0.00	0.00	0.00	0.00	0.00	0.00	0.00	0.00	0.00	0.00	0.00	0.00	0.00	0.00	0.00	0.00	0.00	0.00	0.00	0.00	0.00	0.00	0.00	0.00	0.00	0.00	0.00	0.00	0.00	0.00	0.00	0.00	0.00	0.00	0.00	0.00	0.00	0.00	0.00	0.00	0.00	0.00	0.00	0.00	0.00	0.00	0.00	0.00	0.00	0.00	0.00
0.00	0.00	0.00	0.00	0.00	0.00	0.00	0.00	0.00	0.00	0.00	0.00	0.00	0.00	0.00	0.00	0.00	0.00	0.00	0.00	0.00	0.00	0.00	0.00	0.00	0.00	0.00	0.00	0.00	0.00	0.00	0.00	0.00	0.00	0.00	0.00	0.00	0.00	0.00	0.00	0.00	0.00	0.00	0.00	0.00	0.00	0.00	0.00	0.00	0.00	0.00	0.00	0.00	0.00	0.00	0.00	0.00	0.00	0.00	0.00	0.00
0.00	0.00	0.00	0.00	0.00	0.00	0.00	0.00	0.00	0.00	0.00	0.00	0.00	0.00	0.00	0.00	0.00	0.00	0.00	0.00	0.00	0.00	0.00	0.00	0.00	0.00	0.00	0.00	0.00	0.00	0.00	0.00	0.00	0.00	0.00	0.00	0.00	0.00	0.00	0.00	0.00	0.00	0.00	0.00	0.00	0.00	0.00	0.00	0.00	0.00	0.00	0.00	0.00	0.00	0.00	0.00	0.00	0.00	0.00	0.00	0.00
0.00	0.00	0.00	0.00	0.00	0.00	0.00	0.00	0.00	0.00	0.00	0.00	0.00	0.00	0.00	0.00	0.00	0.00	0.00	0.00	0.00	0.00	0.00	0.00	0.00	0.00	0.00	0.00	0.00	0.00	0.00	0.00	0.00	0.00	0.00	0.00	0.00	0.00	0.00	0.00	0.00	0.00	0.00	0.00	0.00	0.00	0.00	0.00	0.00	0.00	0.00	0.00	0.00	0.00	0.00	0.00	0.00	0.00	0.00	0.00	0.00
0.00	0.00	0.00	0.00	0.00	0.00	0.00	0.00	0.00	0.00	0.00	0.00	0.00	0.00	0.00	0.00	0.00	0.00	0.00	0.00	0.00	0.00	0.00	0.00	0.00	0.00	0.00	0.00	0.00	0.00	0.00	0.00	0.00	0.00	0.00	0.00	0.00	0.00	0.00	0.00	0.00	0.00	0.00	0.00	0.00	0.00	0.00	0.00	0.00	0.00	0.00	0.00	0.00	0.00	0.00	0.00	0.00	0.00	0.00	0.00	0.00
0.00	0.00	0.00	0.00	6.70	12.70	0.00	8.80	42.90	40.60	9.30	58.30	59.80	14.80	45.90	41.90	24.50	34.90	24.20	14.10	5.30	7.30	4.70	0.00	4.10	2.10	0.00	0.00	0.00	0.00	0.00	0.00	0.00	0.00	2.50	2.70	0.00	0.00	0.00	0.00	0.00	0.00	0.00	0.00	0.00	0.00	0.00	0.00	0.00	1.40	2.50	0.00	0.00	0.00	0.00	1.60	0.00	6.60	16.60	34.20	36.40
0.00	41.50	42.10	94.60	112.80	160.90	7.00	71.90	201.60	180.00	66.40	248.50	153.20	156.10	151.90	164.60	166.20	197.60	176.80	151.50	101.60	103.90	175.70	12.80	128.40	115.90	3.70	87.80	17.40	24.80	57.70	31.60	23.70	6.00	202.00	167.20	119.60	91.20	29.40	0.00	10.50	0.30	0.00	0.00	3.40	10.30	6.30	54.10	57.10	147.10	133.80	35.90	11.60	50.60	39.80	102.80	13.30	133.40	176.50	223.80	233.50
16.10	287.10	109.60	376.90	376.70	481.90	27.10	362.70	284.90	341.30	85.20	531.80	364.90	333.00	226.30	156.70	384.90	420.70	422.50	418.20	123.40	92.90	191.60	73.60	411.60	411.80	47.80	321.50	111.70	313.80	345.30	277.40	151.70	205.20	561.30	395.00	466.70	442.30	219.20	0.00	70.00	26.50	10.50	14.60	208.10	97.70	68.20	300.10	110.90	522.30	486.60	70.30	94.60	323.60	282.30	411.60	72.30	201.40	345.90	513.40	513.30
24.00	576.10	281.70	551.60	652.50	540.40	67.70	543.60	469.00	734.70	232.60	720.10	629.60	670.40	305.80	328.60	574.20	516.00	661.70	644.70	59.80	360.50	144.20	93.50	679.50	703.40	43.00	561.40	450.60	608.60	657.50	594.80	389.30	474.50	811.40	533.50	716.20	714.30	552.70	6.20	154.80	58.80	31.30	45.20	538.10	191.70	193.50	564.20	383.30	808.30	780.10	109.30	119.70	671.90	700.80	740.10	143.20	619.20	570.10	782.20	765.30
66.50	826.20	278.70	899.00	876.80	955.00	97.40	616.60	973.80	966.70	159.20	928.40	792.20	814.20	514.90	557.10	710.80	629.80	861.50	778.00	156.00	864.80	176.00	223.80	872.00	918.30	162.90	855.60	363.50	914.20	870.60	827.70	422.50	784.50	951.80	780.30	857.10	870.40	673.80	51.90	196.50	95.30	137.10	74.70	784.80	264.20	429.20	749.70	268.30	969.80	973.80	90.40	237.90	932.90	978.40	979.80	222.80	1023.80	639.50	952.60	955.20
70.90	991.40	374.60	1042.40	1020.80	1028.40	170.90	829.90	902.10	1019.40	254.10	1051.80	812.80	751.80	779.10	615.20	801.80	741.70	832.10	981.80	232.00	873.70	311.70	384.00	995.60	1050.60	114.90	965.50	355.80	1064.60	993.00	956.50	660.60	918.90	1003.50	868.40	906.90	926.10	837.20	57.00	252.90	72.80	222.30	102.60	937.00	319.40	376.50	815.50	719.60	1044.40	968.60	85.10	583.60	1072.40	1144.50	1072.80	298.00	1116.40	1027.60	1020.40	1039.10
113.00	1017.70	156.40	1091.90	1073.60	767.70	124.80	995.80	757.50	1007.90	297.90	1094.20	875.50	826.30	597.10	724.00	849.90	836.20	1019.80	919.70	565.50	767.20	357.10	372.70	1033.90	1100.90	127.20	1004.80	234.60	828.60	1036.60	995.80	748.30	983.90	961.00	777.90	798.10	887.40	892.30	106.00	337.70	30.10	364.90	233.60	943.90	356.80	410.10	806.20	749.30	1023.00	962.10	184.00	513.10	1138.60	1220.70	870.00	308.00	1131.10	1075.20	1004.80	944.60
328.30	1007.90	222.90	1080.70	967.50	719.40	192.30	641.70	801.30	843.20	303.50	1079.90	708.80	778.20	738.00	729.90	840.50	400.60	974.10	983.80	648.10	911.80	206.90	170.20	1025.60	1086.70	272.50	981.90	238.60	712.80	1002.90	896.50	719.00	720.00	824.80	616.50	461.50	737.80	603.10	89.60	406.30	7.10	136.20	388.40	850.00	340.40	231.80	738.20	582.40	998.10	1005.10	163.50	568.40	1131.60	1209.30	991.20	378.00	1206.40	893.50	1050.30	1139.30
175.60	859.80	208.80	981.00	978.70	759.00	215.20	779.00	909.70	841.80	287.50	1012.80	515.10	353.60	724.70	664.10	775.20	311.10	767.60	255.20	276.70	867.00	144.80	424.00	956.30	1001.00	244.20	890.00	234.10	544.20	887.00	801.50	485.60	780.00	599.80	385.10	253.70	309.50	518.60	67.60	287.90	0.00	63.70	391.80	657.50	289.70	388.20	699.20	423.10	846.90	845.00	97.10	436.30	1051.80	1130.00	881.60	305.60	1096.70	585.40	984.80	750.70
106.10	719.60	195.20	697.50	846.60	297.60	115.10	696.50	579.90	792.00	246.30	883.50	451.20	44.60	576.10	679.10	695.10	206.10	831.60	56.10	239.20	851.10	81.00	197.60	829.40	859.30	197.50	744.90	239.60	477.10	698.70	654.00	294.20	605.90	273.30	215.00	176.80	70.30	179.30	20.70	131.70	0.00	13.00	188.80	309.50	140.10	157.40	439.90	245.80	565.00	564.50	57.20	346.60	901.50	975.30	856.00	335.10	922.60	470.10	569.50	499.40
33.90	393.50	185.40	558.20	569.30	183.80	81.70	388.30	277.00	539.90	96.80	690.50	357.20	341.90	540.60	519.50	555.80	445.30	566.30	38.60	189.30	619.30	78.90	49.10	623.30	626.40	104.80	426.90	73.00	207.60	410.70	364.80	189.60	352.40	16.70	16.00	8.30	5.70	5.40	0.00	8.40	0.00	0.00	15.70	32.80	20.40	72.50	123.00	92.50	164.00	184.20	3.60	148.40	617.90	721.30	534.60	231.90	730.40	109.90	342.30	346.40
17.30	220.50	116.80	291.30	334.50	252.10	58.90	316.20	216.60	484.80	131.60	419.60	407.50	61.00	353.00	320.60	346.80	452.30	425.60	152.00	229.20	149.40	63.50	43.00	338.40	319.50	33.30	147.00	68.10	56.40	108.70	78.80	31.20	47.60	0.00	0.00	0.00	0.00	0.00	0.00	0.00	0.00	0.00	0.00	0.00	0.00	0.30	1.80	2.00	11.60	27.90	0.00	112.30	330.60	377.90	277.30	334.50	380.60	159.70	258.10	208.50
0.30	42.10	29.10	98.30	94.30	109.60	3.60	88.80	0.00	153.70	64.30	161.00	154.50	44.40	142.60	145.00	149.80	219.80	195.50	213.60	94.40	96.40	18.70	80.80	86.00	65.80	11.80	3.40	8.40	0.40	2.90	1.00	0.00	0.00	0.00	0.00	0.00	0.00	0.00	0.00	0.00	0.00	0.00	0.00	0.00	0.00	0.00	0.00	0.00	0.00	0.00	0.00	30.70	51.50	76.00	72.10	69.30	82.10	13.50	101.40	63.00
0.00	0.00	0.30	2.10	1.20	5.40	0.00	12.80	0.00	20.30	16.50	26.70	39.10	21.70	37.00	36.80	40.30	37.20	40.30	37.60	29.20	34.60	1.40	8.20	4.30	1.50	0.00	0.00	0.00	0.00	0.00	0.00	0.00	0.00	0.00	0.00	0.00	0.00	0.00	0.00	0.00	0.00	0.00	0.00	0.00	0.00	0.00	0.00	0.00	0.00	0.00	0.00	0.00	0.30	1.00	1.30	1.60	4.60	0.00	24.60	5.50
0.00	0.00	0.00	0.00	0.00	0.00	0.00	0.00	0.00	0.00	0.70	0.70	1.30	0.20	2.80	1.00	4.90	1.70	0.50	2.70	0.00	0.00	0.00	0.00	0.00	0.00	0.00	0.00	0.00	0.00	0.00	0.00	0.00	0.00	0.00	0.00	0.00	0.00	0.00	0.00	0.00	0.00	0.00	0.00	0.00	0.00	0.00	0.00	0.00	0.00	0.00	0.00	0.00	0.00	0.00	0.00	0.00	0.00	0.00	0.00	0.00
0.00	0.00	0.00	0.00	0.00	0.00	0.00	0.00	0.00	0.00	0.00	0.00	0.00	0.00	0.00	0.00	0.00	0.00	0.00	0.00	0.00	0.00	0.00	0.00	0.00	0.00	0.00	0.00	0.00	0.00	0.00	0.00	0.00	0.00	0.00	0.00	0.00	0.00	0.00	0.00	0.00	0.00	0.00	0.00	0.00	0.00	0.00	0.00	0.00	0.00	0.00	0.00	0.00	0.00	0.00	0.00	0.00	0.00	0.00	0.00	0.00
0.00	0.00	0.00	0.00	0.00	0.00	0.00	0.00	0.00	0.00	0.00	0.00	0.00	0.00	0.00	0.00	0.00	0.00	0.00	0.00	0.00	0.00	0.00	0.00	0.00	0.00	0.00	0.00	0.00	0.00	0.00	0.00	0.00	0.00	0.00	0.00	0.00	0.00	0.00	0.00	0.00	0.00	0.00	0.00	0.00	0.00	0.00	0.00	0.00	0.00	0.00	0.00	0.00	0.00	0.00	0.00	0.00	0.00	0.00	0.00	0.00
0.00	0.00	0.00	0.00	0.00	0.00	0.00	0.00	0.00	0.00	0.00	0.00	0.00	0.00	0.00	0.00	0.00	0.00	0.00	0.00	0.00	0.00	0.00	0.00	0.00	0.00	0.00	0.00	0.00	0.00	0.00	0.00	0.00	0.00	0.00	0.00	0.00	0.00	0.00	0.00	0.00	0.00	0.00	0.00	0.00	0.00	0.00	0.00	0.00	0.00	0.00	0.00	0.00	0.00	0.00	0.00	0.00	0.00	0.00	0.00	0.00
