2010-08-23 00:00:00 29831 0 0.00 0.00 0.00 0.0 0.00	15.8255897069	0.00	0.00	Few_Showers(fog)	True	False	0.00
2010-08-23 01:00:00 29880 1 0.00 0.00 0.00 0.0 0.00	77.4953789279	0.00	0.00	Partly_Cloudy(clear)	True	False	0.00
2010-08-23 02:00:00 29929 2 0.00 0.00 0.00 0.0 0.00	77.4953789279	0.00	0.00	Partly_Cloudy(fair)	True	False	0.00
2010-08-23 03:00:00 29978 3 0.00 0.00 0.00 0.0 0.00	77.4953789279	0.00	0.00	Partly_Cloudy(fog)	True	False	0.00
2010-08-23 04:00:00 30027 4 0.00 0.00 0.00 0.0 0.00	43.5046316718	0.00	0.00	Mostly_Cloudy(fog)	True	False	0.00
2010-08-23 05:00:00 30076 5 0.00 0.00 0.00 0.0 0.00	43.5046316718	0.00	0.00	Mostly_Cloudy(clear)	True	False	0.00
2010-08-23 06:00:00 30125 6 8.14 8.14 8.14 1.9 18.70	43.5046316718	8.14	1.90	Mostly_Cloudy(fair)	True	False	1.90
2010-08-23 07:00:00 30174 7 143.99 143.99 143.99 65.8 185.80	77.4953789279	143.99	65.80	Partly_Cloudy(sunny)	True	False	65.80
2010-08-23 08:00:00 30223 8 335.40 335.40 335.40 124.3 432.80	77.4953789279	335.40	124.30	Partly_Cloudy(sunny)	True	False	124.30
2010-08-23 09:00:00 30272 9 549.05 549.05 549.05 100.5 708.50	77.4953789279	549.05	100.50	Partly_Cloudy(cloudy)	True	False	100.50
2010-08-23 10:00:00 30321 10 237.60 237.60 237.60 206.1 928.20	25.5979314803	237.60	206.10	Scattered_T-Storms(cloudy)	True	False	206.10
2010-08-23 11:00:00 30370 11 270.31 270.31 270.31 87.9 1056.00	25.5979314803	270.31	87.90	Scattered_T-Storms(light_rain)	True	False	87.90
2010-08-23 12:00:00 30419 12 284.83 284.83 284.83 173.4 1112.70	25.5979314803	284.83	173.40	Scattered_T-Storms(partly_cloudy)	True	False	173.40
2010-08-23 13:00:00 30468 13 891.84 891.84 891.84 147.6 1103.30	80.8338720103	891.84	147.60	Partly_Cloudy(cloudy)	True	False	147.60
2010-08-23 14:00:00 30517 14 822.89 822.89 822.89 106.3 1018.00	80.8338720103	822.89	106.30	Partly_Cloudy(light_rain)	True	False	106.30
2010-08-23 15:00:00 30566 15 733.00 733.00 733.00 107.3 906.80	80.8338720103	733.00	107.30	Partly_Cloudy(light_rain)	True	False	107.30
2010-08-23 16:00:00 30615 16 110.70 110.70 110.70 80.3 699.50	15.8255897069	110.70	80.30	Isolated_T-Storms(light_rain)	True	False	80.30
2010-08-23 17:00:00 30664 17 69.22 69.22 69.22 10.7 437.40	15.8255897069	69.22	10.70	Isolated_T-Storms(light_rain)	True	False	10.70
2010-08-23 18:00:00 30713 18 28.63 28.63 28.63 0.4 180.90	15.8255897069	28.63	0.40	Isolated_T-Storms(light_rain)	True	False	0.40
2010-08-23 19:00:00 30762 19 30.53 30.53 30.53 0.0 39.40	77.4953789279	30.53	0.00	Partly_Cloudy(light_rain)	True	False	0.00
2010-08-23 20:00:00 30811 20 0.00 0.00 0.00 0.0 0.00	77.4953789279	0.00	0.00	Partly_Cloudy(cloudy)	True	False	0.00
2010-08-23 21:00:00 30860 21 0.00 0.00 0.00 0.0 0.00	77.4953789279	0.00	0.00	Partly_Cloudy(cloudy)	True	False	0.00
2010-08-23 22:00:00 30909 22 0.00 0.00 0.00 0.0 0.00	15.8255897069	0.00	0.00	Few_Showers(cloudy)	True	False	0.00
2010-08-23 23:00:00 30958 23 0.00 0.00 0.00 0.0 0.00	15.8255897069	0.00	0.00	Few_Showers(cloudy)	True	False	0.00
2010-08-24 00:00:00 31007 0 0.00 0.00 0.00 0.0 0.00	15.8255897069	0.00	0.00	Scattered_T-Storms(cloudy)	True	False	0.00
2010-08-24 01:00:00 31056 1 0.00 0.00 0.00 0.0 0.00	15.8255897069	0.00	0.00	Few_Showers(cloudy)	True	False	0.00
2010-08-24 02:00:00 31105 2 0.00 0.00 0.00 0.0 0.00	15.8255897069	0.00	0.00	Few_Showers(cloudy)	True	False	0.00
2010-08-24 03:00:00 31154 3 0.00 0.00 0.00 0.0 0.00	15.8255897069	0.00	0.00	Few_Showers(cloudy)	True	False	0.00
2010-08-24 04:00:00 31203 4 0.00 0.00 0.00 0.0 0.00	15.8255897069	0.00	0.00	Few_Showers(cloudy)	True	False	0.00
2010-08-24 05:00:00 31252 5 0.00 0.00 0.00 0.0 0.00	15.8255897069	0.00	0.00	Few_Showers(partly_cloudy)	True	False	0.00
2010-08-24 06:00:00 31301 6 2.96 2.96 2.96 1.5 18.70	15.8255897069	2.96	1.50	Few_Showers(cloudy)	True	False	1.50
2010-08-24 07:00:00 31350 7 29.40 29.40 29.40 103.9 185.80	15.8255897069	29.40	103.90	Few_Showers(cloudy)	True	False	103.90
2010-08-24 08:00:00 31399 8 68.49 68.49 68.49 290.1 432.80	15.8255897069	68.49	290.10	Few_Showers(cloudy)	True	False	290.10
2010-08-24 09:00:00 31448 9 112.12 112.12 112.12 413.8 708.50	15.8255897069	112.12	413.80	Few_Showers(cloudy)	True	False	413.80
2010-08-24 10:00:00 31497 10 168.80 168.80 168.80 207.8 928.20	18.1857358328	168.80	207.80	Showers(mostly_cloudy)	True	False	207.80
2010-08-24 11:00:00 31546 11 192.04 192.04 192.04 191.5 1056.00	18.1857358328	192.04	191.50	Showers(cloudy)	True	False	191.50
2010-08-24 12:00:00 31595 12 202.35 202.35 202.35 226.6 1112.70	18.1857358328	202.35	226.60	Showers(cloudy)	True	False	226.60
2010-08-24 13:00:00 31644 13 200.64 200.64 200.64 169.4 1103.30	18.1857358328	200.64	169.40	T-Showers(cloudy)	True	False	169.40
2010-08-24 14:00:00 31693 14 185.13 185.13 185.13 153.0 1018.00	18.1857358328	185.13	153.00	T-Showers(cloudy)	True	False	153.00
2010-08-24 15:00:00 31742 15 164.91 164.91 164.91 119.8 906.80	18.1857358328	164.91	119.80	T-Showers(cloudy)	True	False	119.80
2010-08-24 16:00:00 31791 16 127.21 127.21 127.21 94.0 699.50	18.1857358328	127.21	94.00	Showers(cloudy)	True	False	94.00
2010-08-24 17:00:00 31840 17 79.44 79.44 79.44 37.9 436.80	18.1857358328	79.44	37.90	Showers(cloudy)	True	False	37.90
2010-08-24 18:00:00 31889 18 32.90 32.90 32.90 5.2 180.90	18.1857358328	32.90	5.20	Showers(cloudy)	True	False	5.20
2010-08-24 19:00:00 31938 19 7.24 7.24 7.24 0.0 31.50	22.9734848485	7.24	0.00	Cloudy(cloudy)	True	False	0.00
2010-08-24 20:00:00 31987 20 0.00 0.00 0.00 0.0 0.00	22.9734848485	0.00	0.00	Cloudy(cloudy)	True	False	0.00
2010-08-24 21:00:00 32036 21 0.00 0.00 0.00 0.0 0.00	22.9734848485	0.00	0.00	Cloudy(cloudy)	True	False	0.00
2010-08-24 22:00:00 32085 22 0.00 0.00 0.00 0.0 0.00	22.9734848485	0.00	0.00	Cloudy(cloudy)	True	False	0.00
2010-08-24 23:00:00 32134 23 0.00 0.00 0.00 0.0 0.00	15.8255897069	0.00	0.00	Few_Showers(cloudy)	True	False	0.00
2010-08-25 00:00:00 32183 0 0.00 0.00 0.00 0.0 0.00	17.2081454998	0.00	0.00	Few_Showers(cloudy)	True	False	0.00
2010-08-25 01:00:00 32232 1 0.00 0.00 0.00 0.0 0.00	18.1857358328	0.00	0.00	Showers(cloudy)	True	False	0.00
2010-08-25 02:00:00 32281 2 0.00 0.00 0.00 0.0 0.00	18.1857358328	0.00	0.00	Showers(cloudy)	True	False	0.00
2010-08-25 03:00:00 32330 3 0.00 0.00 0.00 0.0 0.00	18.1857358328	0.00	0.00	Showers(cloudy)	True	False	0.00
2010-08-25 04:00:00 32379 4 0.00 0.00 0.00 0.0 0.00	18.1857358328	0.00	0.00	Showers(cloudy)	True	False	0.00
2010-08-25 05:00:00 32428 5 0.00 0.00 0.00 0.0 0.00	18.1857358328	0.00	0.00	Showers(cloudy)	True	False	0.00
2010-08-25 06:00:00 32477 6 3.29 3.29 3.29 0.0 18.10	18.1857358328	3.29	0.00	Showers(light_rain)	True	False	0.00
2010-08-25 07:00:00 32526 7 33.79 33.79 33.79 36.4 185.80	18.1857358328	33.79	36.40	Showers(light_rain)	True	False	36.40
2010-08-25 08:00:00 32575 8 78.47 78.47 78.47 119.8 431.50	18.1857358328	78.47	119.80	Showers(light_rain)	True	False	119.80
2010-08-25 09:00:00 32624 9 128.85 128.85 128.85 245.6 708.50	18.1857358328	128.85	245.60	Showers(cloudy)	True	False	245.60
2010-08-25 10:00:00 32673 10 237.60 237.60 237.60 366.2 928.20	25.5979314803	237.60	366.20	Scattered_T-Storms(cloudy)	True	False	366.20
2010-08-25 11:00:00 32722 11 270.31 270.31 270.31 386.4 1056.00	25.5979314803	270.31	386.40	Scattered_T-Storms(cloudy)	True	False	386.40
2010-08-25 12:00:00 32771 12 284.83 284.83 284.83 376.2 1112.70	25.5979314803	284.83	376.20	Scattered_T-Storms(cloudy)	True	False	376.20
2010-08-25 13:00:00 32820 13 200.64 200.64 200.64 239.1 1103.30	18.1857358328	200.64	239.10	Showers(cloudy)	True	False	239.10
2010-08-25 14:00:00 32869 14 185.13 185.13 185.13 146.0 1018.00	18.1857358328	185.13	146.00	Showers(cloudy)	True	False	146.00
2010-08-25 15:00:00 32918 15 159.13 159.13 159.13 236.1 875.00	18.1857358328	159.13	236.10	Showers(cloudy)	True	False	236.10
2010-08-25 16:00:00 32967 16 110.70 110.70 110.70 137.3 643.30	17.2081454998	110.70	137.30	Scattered_T-Storms(cloudy)	True	False	137.30
2010-08-25 17:00:00 33016 17 69.02 69.02 69.02 58.7 401.10	17.2081454998	69.02	58.70	Scattered_T-Storms(cloudy)	True	False	58.70
2010-08-25 18:00:00 33065 18 31.13 31.13 31.13 42.8 180.90	17.2081454998	31.13	42.80	Scattered_T-Storms(cloudy)	True	False	42.80
2010-08-25 19:00:00 33114 19 5.73 5.73 5.73 4.9 31.50	18.1857358328	5.73	4.90	Showers(light_rain)	True	False	4.90
2010-08-25 20:00:00 33163 20 0.00 0.00 0.00 0.0 0.00	18.1857358328	0.00	0.00	Showers(cloudy)	True	False	0.00
2010-08-25 21:00:00 33212 21 0.00 0.00 0.00 0.0 0.00	18.1857358328	0.00	0.00	Showers(cloudy)	True	False	0.00
2010-08-25 22:00:00 33261 22 0.00 0.00 0.00 0.0 0.00	18.1857358328	0.00	0.00	Mostly_Clear(cloudy)	False	False	0.00
2010-08-25 23:00:00 33310 23 0.00 0.00 0.00 0.0 0.00	47.8668390433	0.00	0.00	Mostly_Cloudy(cloudy)	True	False	0.00
2010-08-26 00:00:00 33359 0 0.00 0.00 0.00 0.0 0.00	48.0028228652	0.00	0.00	Mostly_Cloudy(fair)	True	False	0.00
2010-08-26 01:00:00 33408 1 0.00 0.00 0.00 0.0 0.00	48.0028228652	0.00	0.00	Mostly_Cloudy(fog)	True	False	0.00
2010-08-26 02:00:00 33457 2 0.00 0.00 0.00 0.0 0.00	48.0028228652	0.00	0.00	Mostly_Cloudy(fog)	True	False	0.00
2010-08-26 03:00:00 33506 3 0.00 0.00 0.00 0.0 0.00	48.0028228652	0.00	0.00	Mostly_Cloudy(fair)	True	False	0.00
2010-08-26 04:00:00 33555 4 0.00 0.00 0.00 0.0 0.00	76.3151333832	0.00	0.00	Partly_Cloudy(fog)	True	False	0.00
2010-08-26 05:00:00 33604 5 0.00 0.00 0.00 0.0 0.00	76.3151333832	0.00	0.00	Partly_Cloudy(partly_cloudy)	True	False	0.00
2010-08-26 06:00:00 33653 6 13.81 13.81 13.81 3.9 18.10	76.3151333832	13.81	3.90	Partly_Cloudy(fog)	True	False	3.90
2010-08-26 07:00:00 33702 7 141.79 141.79 141.79 125.9 185.80	76.3151333832	141.79	125.90	Mostly_Sunny(fair)	False	False	125.90
2010-08-26 08:00:00 33751 8 317.09 317.09 317.09 391.5 415.50	76.3151333832	317.09	391.50	Mostly_Sunny(sunny)	False	False	391.50
2010-08-26 09:00:00 33800 9 540.69 540.69 540.69 654.6 708.50	76.3151333832	540.69	654.60	Mostly_Sunny(sunny)	False	False	654.60
2010-08-26 10:00:00 33849 10 856.79 856.79 856.79 857.5 928.20	92.3070009886	856.79	857.50	Sunny(sunny)	True	False	857.50
2010-08-26 11:00:00 33898 11 974.76 974.76 974.76 699.0 1056.00	92.3070009886	974.76	699.00	Sunny(partly_cloudy)	True	False	699.00
2010-08-26 12:00:00 33947 12 1027.10 1027.10 1027.10 909.0 1112.70	92.3070009886	1027.10	909.00	Sunny(partly_cloudy)	True	False	909.00
2010-08-26 13:00:00 33996 13 1018.42 1018.42 1018.42 1003.3 1103.30	92.3070009886	1018.42	1003.30	Sunny(partly_cloudy)	True	False	1003.30
2010-08-26 14:00:00 34045 14 831.04 831.04 831.04 1066.6 1018.00	81.6342857143	831.04	1066.60	Partly_Cloudy(partly_cloudy)	True	False	1066.60
2010-08-26 15:00:00 34094 15 714.30 714.30 714.30 762.0 875.00	81.6342857143	714.30	762.00	Partly_Cloudy(partly_cloudy)	True	False	762.00
2010-08-26 16:00:00 34143 16 490.94 490.94 490.94 636.0 643.30	76.3151333832	490.94	636.00	Partly_Cloudy(partly_cloudy)	True	False	636.00
2010-08-26 17:00:00 34192 17 306.10 306.10 306.10 319.7 401.10	76.3151333832	306.10	319.70	Partly_Cloudy(partly_cloudy)	True	False	319.70
2010-08-26 18:00:00 34241 18 138.05 138.05 138.05 110.6 180.90	76.3151333832	138.05	110.60	Partly_Cloudy(fair)	True	False	110.60
2010-08-26 19:00:00 34290 19 28.38 28.38 28.38 7.1 31.50	90.1098901099	28.38	7.10	Sunny(partly_cloudy)	True	False	7.10
2010-08-26 20:00:00 34339 20 0.00 0.00 0.00 0.0 0.00	90.1098901099	0.00	0.00	Clear(clear)	True	False	0.00
2010-08-26 21:00:00 34388 21 0.00 0.00 0.00 0.0 0.00	90.1098901099	0.00	0.00	Clear(clear)	True	False	0.00
2010-08-26 22:00:00 34437 22 0.00 0.00 0.00 0.0 0.00	90.1098901099	0.00	0.00	Clear(clear)	True	False	0.00
2010-08-26 23:00:00 34486 23 0.00 0.00 0.00 0.0 0.00	90.1098901099	0.00	0.00	Clear(clear)	True	False	0.00
2010-08-27 00:00:00 34535 0 0.00 0.00 0.00 0.0 0.00	90.1098901099	0.00	0.00	Clear(clear)	True	False	0.00
2010-08-27 01:00:00 34584 1 0.00 0.00 0.00 0.0 0.00	90.1098901099	0.00	0.00	Clear(Unkown)	True	False	0.00
2010-08-27 02:00:00 34633 2 0.00 0.00 0.00 0.0 0.00	90.1098901099	0.00	0.00	Clear(fair)	True	False	0.00
2010-08-27 03:00:00 34682 3 0.00 0.00 0.00 0.0 0.00	90.1098901099	0.00	0.00	Clear(clear)	True	False	0.00
2010-08-27 04:00:00 34731 4 0.00 0.00 0.00 0.0 0.00	90.1098901099	0.00	0.00	Clear(clear)	True	False	0.00
2010-08-27 05:00:00 34780 5 0.00 0.00 0.00 0.0 0.00	90.1098901099	0.00	0.00	Clear(fog)	True	False	0.00
2010-08-27 06:00:00 34829 6 16.31 16.31 16.31 5.9 18.10	90.1098901099	16.31	5.90	Clear(sunny)	True	False	5.90
2010-08-27 07:00:00 34878 7 167.42 167.42 167.42 139.1 185.80	90.1098901099	167.42	139.10	Sunny(sunny)	True	False	139.10
2010-08-27 08:00:00 34927 8 374.41 374.41 374.41 429.7 415.50	90.1098901099	374.41	429.70	Sunny(sunny)	True	False	429.70
2010-08-27 09:00:00 34976 9 638.43 638.43 638.43 706.8 708.50	90.1098901099	638.43	706.80	Sunny(sunny)	True	False	706.80
2010-08-27 10:00:00 35025 10 856.79 856.79 856.79 920.5 928.20	92.3070009886	856.79	920.50	Sunny(sunny)	True	False	920.50
2010-08-27 11:00:00 35074 11 974.76 974.76 974.76 1054.6 1056.00	92.3070009886	974.76	1054.60	Sunny(fair)	True	False	1054.60
2010-08-27 12:00:00 35123 12 1027.10 1027.10 1027.10 1105.8 1112.70	92.3070009886	1027.10	1105.80	Sunny(fair)	True	False	1105.80
2010-08-27 13:00:00 35172 13 1018.42 1018.42 1018.42 1100.2 1103.30	92.3070009886	1018.42	1100.20	Sunny(fair)	True	False	1100.20
2010-08-27 14:00:00 35221 14 939.69 939.69 939.69 1021.7 1018.00	92.3070009886	939.69	1021.70	Sunny(sunny)	True	False	1021.70
2010-08-27 15:00:00 35270 15 807.69 807.69 807.69 879.7 875.00	92.3070009886	807.69	879.70	Sunny(fair)	True	False	879.70
2010-08-27 16:00:00 35319 16 579.68 579.68 579.68 653.4 643.30	90.1098901099	579.68	653.40	Sunny(sunny)	True	False	653.40
2010-08-27 17:00:00 35368 17 361.43 361.43 361.43 368.0 401.10	90.1098901099	361.43	368.00	Sunny(sunny)	True	False	368.00
2010-08-27 18:00:00 35417 18 163.01 163.01 163.01 96.0 180.90	90.1098901099	163.01	96.00	Sunny(sunny)	True	False	96.00
2010-08-27 19:00:00 35466 19 28.38 28.38 28.38 4.9 31.50	90.1098901099	28.38	4.90	Sunny(sunny)	True	False	4.90
2010-08-27 20:00:00 35515 20 0.00 0.00 0.00 0.0 0.00	90.1098901099	0.00	0.00	Clear(clear)	True	False	0.00
2010-08-27 21:00:00 35564 21 0.00 0.00 0.00 0.0 0.00	90.1098901099	0.00	0.00	Clear(clear)	True	False	0.00
2010-08-27 22:00:00 35613 22 0.00 0.00 0.00 0.0 0.00	90.1098901099	0.00	0.00	Clear(clear)	True	False	0.00
2010-08-27 23:00:00 35662 23 0.00 0.00 0.00 0.0 0.00	90.1098901099	0.00	0.00	Clear(clear)	True	False	0.00
2010-08-28 00:00:00 35711 0 0.00 0.00 0.00 0.0 0.00	90.2499461323	0.00	0.00	Clear(clear)	True	False	0.00
2010-08-28 01:00:00 35760 1 0.00 0.00 0.00 0.0 0.00	90.2499461323	0.00	0.00	Clear(clear)	True	False	0.00
2010-08-28 02:00:00 35809 2 0.00 0.00 0.00 0.0 0.00	90.2499461323	0.00	0.00	Clear(fair)	True	False	0.00
2010-08-28 03:00:00 35858 3 0.00 0.00 0.00 0.0 0.00	90.2499461323	0.00	0.00	Clear(clear)	True	False	0.00
2010-08-28 04:00:00 35907 4 0.00 0.00 0.00 0.0 0.00	90.2499461323	0.00	0.00	Clear(clear)	True	False	0.00
2010-08-28 05:00:00 35956 5 0.00 0.00 0.00 0.0 0.00	90.2499461323	0.00	0.00	Clear(clear)	True	False	0.00
2010-08-28 06:00:00 36005 6 14.98 14.98 14.98 6.3 16.60	90.2499461323	14.98	6.30	Clear(sunny)	True	False	6.30
2010-08-28 07:00:00 36054 7 145.03 145.03 145.03 133.6 160.70	90.2499461323	145.03	133.60	Sunny(sunny)	True	False	133.60
2010-08-28 08:00:00 36103 8 374.99 374.99 374.99 417.0 415.50	90.2499461323	374.99	417.00	Sunny(sunny)	True	False	417.00
2010-08-28 09:00:00 36152 9 639.42 639.42 639.42 696.6 708.50	90.2499461323	639.42	696.60	Sunny(sunny)	True	False	696.60
2010-08-28 10:00:00 36201 10 860.69 860.69 860.69 909.5 928.20	92.7272727273	860.69	909.50	Sunny(sunny)	True	False	909.50
2010-08-28 11:00:00 36250 11 979.20 979.20 979.20 1028.3 1056.00	92.7272727273	979.20	1028.30	Sunny(sunny)	True	False	1028.30
2010-08-28 12:00:00 36299 12 1031.78 1031.78 1031.78 1074.5 1112.70	92.7272727273	1031.78	1074.50	Sunny(sunny)	True	False	1074.50
2010-08-28 13:00:00 36348 13 1023.06 1023.06 1023.06 1056.5 1103.30	92.7272727273	1023.06	1056.50	Sunny(sunny)	True	False	1056.50
2010-08-28 14:00:00 36397 14 943.96 943.96 943.96 974.6 1018.00	92.7272727273	943.96	974.60	Sunny(sunny)	True	False	974.60
2010-08-28 15:00:00 36446 15 811.36 811.36 811.36 841.6 875.00	92.7272727273	811.36	841.60	Sunny(sunny)	True	False	841.60
2010-08-28 16:00:00 36495 16 580.58 580.58 580.58 620.9 643.30	90.2499461323	580.58	620.90	Sunny(sunny)	True	False	620.90
2010-08-28 17:00:00 36544 17 361.99 361.99 361.99 345.5 401.10	90.2499461323	361.99	345.50	Sunny(sunny)	True	False	345.50
2010-08-28 18:00:00 36593 18 163.26 163.26 163.26 95.1 180.90	90.2499461323	163.26	95.10	Sunny(sunny)	True	False	95.10
2010-08-28 19:00:00 36642 19 28.43 28.43 28.43 4.8 31.50	90.2499461323	28.43	4.80	Sunny(sunny)	True	False	4.80
2010-08-28 20:00:00 36691 20 0.00 0.00 0.00 0.0 0.00	90.2499461323	0.00	0.00	Clear(clear)	True	False	0.00
2010-08-28 21:00:00 36740 21 0.00 0.00 0.00 0.0 0.00	90.2499461323	0.00	0.00	Clear(clear)	True	False	0.00
2010-08-28 22:00:00 36789 22 0.00 0.00 0.00 0.0 0.00	90.2499461323	0.00	0.00	Clear(clear)	True	False	0.00
2010-08-28 23:00:00 36838 23 0.00 0.00 0.00 0.0 0.00	90.2499461323	0.00	0.00	Clear(clear)	True	False	0.00
2010-08-29 00:00:00 36887 0 0.00 0.00 0.00 0.0 0.00	90.2178030303	0.00	0.00	Clear(clear)	True	False	0.00
2010-08-29 01:00:00 36936 1 0.00 0.00 0.00 0.0 0.00	90.2178030303	0.00	0.00	Clear(clear)	True	False	0.00
2010-08-29 02:00:00 36985 2 0.00 0.00 0.00 0.0 0.00	90.2178030303	0.00	0.00	Clear(fair)	True	False	0.00
2010-08-29 03:00:00 37034 3 0.00 0.00 0.00 0.0 0.00	90.2178030303	0.00	0.00	Clear(fog)	True	False	0.00
2010-08-29 04:00:00 37083 4 0.00 0.00 0.00 0.0 0.00	90.2178030303	0.00	0.00	Clear(fog)	True	False	0.00
2010-08-29 05:00:00 37132 5 0.00 0.00 0.00 0.0 0.00	90.2178030303	0.00	0.00	Clear(clear)	True	False	0.00
2010-08-29 06:00:00 37181 6 11.01 11.01 11.01 4.1 12.20	90.2178030303	11.01	4.10	Clear(sunny)	True	False	4.10
2010-08-29 07:00:00 37230 7 144.98 144.98 144.98 128.4 160.70	90.2178030303	144.98	128.40	Sunny(sunny)	True	False	128.40
2010-08-29 08:00:00 37279 8 374.85 374.85 374.85 411.6 415.50	90.2178030303	374.85	411.60	Sunny(sunny)	True	False	411.60
2010-08-29 09:00:00 37328 9 639.19 639.19 639.19 679.5 708.50	90.2178030303	639.19	679.50	Sunny(sunny)	True	False	679.50
2010-08-29 10:00:00 37377 10 861.57 861.57 861.57 872.0 928.20	92.8215353938	861.57	872.00	Sunny(sunny)	True	False	872.00
2010-08-29 11:00:00 37426 11 980.20 980.20 980.20 995.6 1056.00	92.8215353938	980.20	995.60	Sunny(sunny)	True	False	995.60
2010-08-29 12:00:00 37475 12 1032.83 1032.83 1032.83 1033.9 1112.70	92.8215353938	1032.83	1033.90	Sunny(sunny)	True	False	1033.90
2010-08-29 13:00:00 37524 13 1024.10 1024.10 1024.10 1025.6 1103.30	92.8215353938	1024.10	1025.60	Sunny(sunny)	True	False	1025.60
2010-08-29 14:00:00 37573 14 944.92 944.92 944.92 956.3 1018.00	92.8215353938	944.92	956.30	Sunny(sunny)	True	False	956.30
2010-08-29 15:00:00 37622 15 812.19 812.19 812.19 829.4 875.00	92.8215353938	812.19	829.40	Sunny(sunny)	True	False	829.40
2010-08-29 16:00:00 37671 16 580.37 580.37 580.37 623.3 643.30	90.2178030303	580.37	623.30	Sunny(sunny)	True	False	623.30
2010-08-29 17:00:00 37720 17 361.86 361.86 361.86 338.4 401.10	90.2178030303	361.86	338.40	Sunny(sunny)	True	False	338.40
2010-08-29 18:00:00 37769 18 163.20 163.20 163.20 86.0 180.90	90.2178030303	163.20	86.00	Sunny(sunny)	True	False	86.00
2010-08-29 19:00:00 37818 19 28.42 28.42 28.42 4.3 31.50	90.2178030303	28.42	4.30	Sunny(sunny)	True	False	4.30
2010-08-29 20:00:00 37867 20 0.00 0.00 0.00 0.0 0.00	90.2178030303	0.00	0.00	Clear(clear)	True	False	0.00
2010-08-29 21:00:00 37916 21 0.00 0.00 0.00 0.0 0.00	90.2178030303	0.00	0.00	Clear(clear)	True	False	0.00
2010-08-29 22:00:00 37965 22 0.00 0.00 0.00 0.0 0.00	90.2178030303	0.00	0.00	Clear(clear)	True	False	0.00
2010-08-29 23:00:00 38014 23 0.00 0.00 0.00 0.0 0.00	90.2178030303	0.00	0.00	Clear(clear)	True	False	0.00
