#First line is the starting date and energy production starts form second line
2011_01_23_0
0
0
0
0
0
0
0
10.3
97.7
191.7
264.2
319.4
356.8
340.4
289.7
140.1
20.4
0
0
0
0
0
0
0
0
0
0
0
0
0
0
19
155.2
291
385
446.3
485.1
460.8
379.3
215.2
30.1
0
0
0
0
0
0
0
0
0
0
0
0
0
0
0
8.5
18.5
27.6
89.6
242.2
310.9
246
89.3
12.8
0
0
0
0
0
0
0
0
0
0
0
0
0
0
0
0
0
0.1
0.4
5.4
8
5.3
0.2
0
0
0
0
0
0
0
0
0
0
0
0
0
0
0
0
0
0
1.1
89.4
171.1
277.7
194.7
101.9
8.6
0
0
0
0
0
0
0
0
0
0
0
0
0
0
3.8
36.3
74.4
186.7
231.7
130.5
110.9
63.6
58.9
6.5
0
0
0
0
0
0
0
0
0
0
0
0
0
0
7.6
91.7
187.1
281.1
270.2
362.4
239.5
162
54.1
19.8
0
0
0
0
0
0
0
0
0
0
0
0
0
0
6.3
68.2
193.5
429.2
376.5
410.1
231.8
388.2
157.4
72.5
0.3
0
0
0
0
0
0
